Date,Value
2015-09-30,665750.0
2015-08-31,748000.0
2015-07-31,662500.0
2015-04-30,575475.0
2015-02-28,570500.0
2014-09-30,342230.7692
2014-07-31,636050.0
2014-06-30,603000.0
2014-04-30,306000.0
2013-10-31,550538.4615
2013-08-31,607941.1765
2013-07-31,550000.0
2013-05-31,559000.0
2013-03-31,735000.0
2012-10-31,436538.4615
2012-08-31,448676.4706
2012-07-31,519769.2308
2012-05-31,615588.2353
2012-04-30,575000.0
2011-09-30,520500.0
2011-08-31,562050.0
2011-07-31,547595.0
2011-06-30,536355.0
2011-05-31,548882.3529
2011-04-30,434000.0
2010-03-31,560000.0
2009-11-30,478846.1538
2009-09-30,421346.1538
2009-07-31,463846.1538
2009-05-31,535000.0
2008-09-30,462923.0769
2008-07-31,457500.0
2008-06-30,530700.0
2008-05-31,565647.0588
2008-04-30,588000.0
2007-08-31,632692.3077
2007-06-30,578232.5
2007-05-31,568225.0
2007-04-30,542500.0
2007-03-31,568823.5294
2007-02-28,527307.6923
2006-12-31,573600.0
2006-11-30,529350.0
2006-10-31,462325.0
2006-09-30,455817.5
2006-08-31,515232.5
2006-07-31,529350.0
2006-06-30,512125.0
2006-05-31,521750.0
2006-04-30,558242.5
2006-03-31,556450.0
2006-02-28,529950.0
2005-11-30,531900.0
2005-10-31,426875.0
2005-09-30,382100.0
2005-08-31,375700.0
2005-07-31,432200.0
2005-06-30,505750.0
2005-05-31,461850.0
2005-04-30,456900.0
2005-03-31,455175.0
2005-02-28,428825.0
2005-01-31,382000.0
2004-12-31,420700.0
2004-11-30,399842.5
2004-10-31,418507.5
2004-09-30,392300.0
2004-08-31,417350.0
2004-07-31,475000.0
2004-06-30,485350.0
2004-05-31,453400.0
2004-04-30,418529.4118
2004-03-31,375000.0
2003-12-31,415500.0
2003-11-30,395483.3
2003-10-31,377077.7
2003-09-30,359811.0
2003-08-31,343600.0
2003-07-31,355500.0
2003-06-30,384500.0
2003-05-31,384992.5
2003-04-30,352232.5
2003-03-31,356147.0588
2003-02-28,360153.8462
2002-12-31,354615.3846
2002-10-31,378000.0
2002-09-30,363750.0
2002-08-31,362000.0
2002-07-31,376975.0
2002-06-30,368525.0
2002-05-31,333529.4118
2002-04-30,310730.7692
2002-02-28,301923.0769
2001-12-31,324785.0
2001-11-30,339800.0
2001-10-31,352775.0
2001-09-30,330085.0
2001-08-31,291540.0
2001-07-31,308375.0
2001-06-30,342200.0
2001-05-31,354550.0
2001-04-30,332647.0588
2001-03-31,325000.0
2000-12-31,366538.4615
2000-10-31,343800.0
2000-09-30,336700.0
2000-08-31,342150.0
2000-07-31,303570.0
2000-06-30,275378.5
2000-05-31,262046.5
2000-04-30,262895.0
2000-03-31,262588.2353
2000-02-29,286053.8462
1999-12-31,334538.4615
1999-10-31,327250.0
1999-09-30,316176.4706
1999-08-31,321296.1538
1999-06-30,339200.0
1999-05-31,363600.0
1999-04-30,350575.0
1999-03-31,314197.5
1999-02-28,302552.5
1999-01-31,286817.5
1998-12-31,293832.5
1998-11-30,286375.0
1998-10-31,278750.0
1998-09-30,264500.0
1998-08-31,281764.7059
1998-07-31,261923.0769
1998-05-31,254525.0
1998-04-30,255625.0
1998-03-31,207985.0
1998-02-28,223965.0
1998-01-31,223450.0
1997-12-31,223500.0
1997-11-30,215882.3529
1997-10-31,201692.3077
1997-08-31,196000.0
1997-07-31,224950.0
1997-06-30,238950.0
1997-05-31,243425.0
1997-04-30,222925.0
1997-03-31,201750.0
1997-02-28,198529.4118
1997-01-31,175000.0
1996-10-31,213076.9231
1996-08-31,207100.0
1996-07-31,224600.0
1996-06-30,223475.0
1996-05-31,215575.0
1996-04-30,199794.1176
