Date,Value
2010-06-30,105000.0
2008-04-30,123780.0
2007-08-31,107933.8462
2007-06-30,116780.0
2007-05-31,116780.0
2007-02-28,117280.0
2006-10-31,104430.0
2006-09-30,100330.0
2006-08-31,95044.7059
2006-07-31,96280.0
2006-05-31,103741.5385
2006-03-31,95280.0
2006-01-31,96369.2308
2005-11-30,100507.95
2005-10-31,102006.05
2005-09-30,104445.5
2005-08-31,86936.5
2005-07-31,82655.0
2005-06-30,79765.0
2005-05-31,80685.0
2005-04-30,82665.0
2005-03-31,87000.0
2005-02-28,79976.9231
2004-12-31,77882.3529
2004-11-30,79130.7692
2004-09-30,88769.2308
2004-07-31,74794.1176
2004-06-30,74500.0
2003-07-31,60854.6154
2003-05-31,57000.0
2002-05-31,75000.0
2000-09-30,67000.0
1999-07-31,55000.0
1998-10-31,50000.0
