Date,Value
2015-02-28,699000.0
2015-01-31,468000.0
2014-12-31,449000.0
2014-11-30,449000.0
2014-10-31,485000.0
2014-09-30,489950.0
2014-08-31,550000.0
2014-07-31,589000.0
2014-06-30,550000.0
2014-05-31,505000.0
2014-04-30,490000.0
2014-03-31,500000.0
2014-02-28,598000.0
2014-01-31,574995.0
2013-12-31,635000.0
2013-11-30,615000.0
2013-10-31,635000.0
2013-09-30,615000.0
2013-08-31,700000.0
2013-07-31,700000.0
2013-06-30,699950.0
2013-05-31,725000.0
2013-04-30,565000.0
2013-03-31,565000.0
2013-02-28,519000.0
2013-01-31,519000.0
2012-12-31,519000.0
2012-11-30,525000.0
2012-10-31,525000.0
2012-09-30,579990.0
2012-08-31,429900.0
2012-07-31,430000.0
2012-06-30,450000.0
2012-05-31,537500.0
2012-04-30,509000.0
2012-03-31,534950.0
2012-02-29,484900.0
2012-01-31,399000.0
2011-12-31,389500.0
2011-11-30,369900.0
2011-10-31,352500.0
2011-09-30,335000.0
2011-08-31,354000.0
2011-07-31,369500.0
2011-06-30,389999.0
2011-05-31,389999.0
2011-04-30,400000.0
2011-03-31,375000.0
2011-02-28,432000.0
2011-01-31,425000.0
2010-12-31,429955.0
2010-11-30,445000.0
2010-10-31,449000.0
2010-09-30,457500.0
2010-08-31,459500.0
2010-07-31,475000.0
2010-06-30,469000.0
2010-05-31,475000.0
2010-04-30,479000.0
2010-03-31,495000.0
2010-02-28,499950.0
2010-01-31,499000.0
2009-12-31,495000.0
2009-11-30,495000.0
2009-10-31,499950.0
2009-09-30,499950.0
2009-08-31,499000.0
2009-07-31,550000.0
2009-06-30,569950.0
2009-05-31,550000.0
2009-04-30,625000.0
2009-03-31,599995.0
2009-02-28,624900.0
2009-01-31,619900.0
2008-12-31,539900.0
2008-11-30,650000.0
2008-10-31,699000.0
