Date,Value
2015-02-28,289000.0
2015-01-31,404900.0
2014-12-31,425000.0
2014-11-30,415000.0
2014-10-31,425000.0
2014-09-30,426000.0
2014-08-31,429000.0
2014-07-31,429500.0
2014-06-30,429000.0
2014-05-31,424900.0
2014-04-30,439900.0
2014-03-31,459000.0
2014-02-28,498000.0
2014-01-31,439900.0
2013-12-31,445000.0
2013-11-30,415000.0
2013-10-31,415000.0
2013-09-30,412000.0
2013-08-31,429750.0
2013-07-31,424950.0
2013-06-30,444925.0
2013-05-31,439900.0
2013-04-30,410000.0
2013-03-31,375000.0
2013-02-28,342000.0
2013-01-31,316900.0
2012-12-31,327000.0
2012-11-30,324900.0
2012-10-31,319000.0
2012-09-30,324900.0
2012-08-31,309995.0
2012-07-31,305000.0
2012-06-30,280000.0
2012-05-31,280000.0
2012-04-30,265000.0
2012-03-31,255000.0
2012-02-29,249500.0
2012-01-31,239900.0
2011-12-31,209900.0
2011-11-30,245000.0
2011-10-31,225000.0
2011-09-30,229900.0
2011-08-31,260000.0
2011-07-31,239000.0
2011-06-30,232500.0
2011-05-31,235000.0
2011-04-30,239950.0
2011-03-31,235000.0
2011-02-28,229950.0
2011-01-31,254500.0
2010-12-31,269950.0
2010-11-30,279950.0
2010-10-31,279950.0
2010-09-30,299950.0
2010-08-31,299500.0
2010-07-31,289950.0
2010-06-30,282500.0
2010-05-31,279950.0
2010-04-30,275950.0
2010-03-31,279950.0
2010-02-28,282500.0
2010-01-31,269950.0
2009-12-31,282500.0
2009-11-30,290000.0
2009-10-31,300000.0
2009-09-30,300000.0
2009-08-31,299950.0
2009-07-31,300000.0
2009-06-30,334999.0
2009-05-31,342500.0
2009-04-30,326950.0
2009-03-31,340000.0
2009-02-28,349900.0
2009-01-31,365000.0
2008-12-31,369950.0
2008-11-30,369000.0
2008-10-31,375000.0
