Date,Value
2015-09-30,288800.0
2015-08-31,284100.0
2015-07-31,280300.0
2015-06-30,282200.0
2015-05-31,281800.0
2015-04-30,278100.0
2015-03-31,272300.0
2015-02-28,269200.0
2015-01-31,264000.0
2014-12-31,261900.0
2014-11-30,259600.0
2014-10-31,256800.0
2014-09-30,254200.0
2014-08-31,252800.0
2014-07-31,251800.0
2014-06-30,250800.0
2014-05-31,248800.0
2014-04-30,245400.0
2014-03-31,241900.0
2014-02-28,239300.0
2014-01-31,236300.0
2013-12-31,233600.0
2013-11-30,232300.0
2013-10-31,230500.0
2013-09-30,227200.0
2013-08-31,223900.0
2013-07-31,220600.0
2013-06-30,215500.0
2013-05-31,210500.0
2013-04-30,206900.0
2013-03-31,203300.0
2013-02-28,199600.0
2013-01-31,196900.0
2012-12-31,195000.0
2012-11-30,192700.0
2012-10-31,191300.0
2012-09-30,190300.0
2012-08-31,189000.0
2012-07-31,187700.0
2012-06-30,186700.0
2012-05-31,185300.0
2012-04-30,184300.0
2012-03-31,183200.0
2012-02-29,182500.0
2012-01-31,183200.0
2011-12-31,184700.0
2011-11-30,186300.0
2011-10-31,187900.0
2011-09-30,189500.0
2011-08-31,191300.0
2011-07-31,193500.0
2011-06-30,195200.0
2011-05-31,195900.0
2011-04-30,197400.0
2011-03-31,200900.0
2011-02-28,204500.0
2011-01-31,207000.0
2010-12-31,209700.0
2010-11-30,212100.0
2010-10-31,214600.0
2010-09-30,218400.0
2010-08-31,223200.0
2010-07-31,227000.0
2010-06-30,229400.0
2010-05-31,230800.0
2010-04-30,232400.0
2010-03-31,235900.0
2010-02-28,241500.0
2010-01-31,245100.0
2009-12-31,244800.0
2009-11-30,244000.0
2009-10-31,244300.0
2009-09-30,244200.0
2009-08-31,244600.0
2009-07-31,248000.0
2009-06-30,254200.0
2009-05-31,260100.0
2009-04-30,264500.0
2009-03-31,268700.0
2009-02-28,272200.0
2009-01-31,275800.0
2008-12-31,280700.0
2008-11-30,285800.0
2008-10-31,289500.0
2008-09-30,293400.0
2008-08-31,295700.0
2008-07-31,295700.0
2008-06-30,296100.0
2008-05-31,301100.0
2008-04-30,305100.0
2008-03-31,305100.0
2008-02-29,304900.0
2008-01-31,307900.0
2007-12-31,310800.0
2007-11-30,313800.0
2007-10-31,316300.0
2007-09-30,318900.0
2007-08-31,321000.0
2007-07-31,321900.0
2007-06-30,321800.0
2007-05-31,321600.0
2007-04-30,321300.0
2007-03-31,319600.0
2007-02-28,316900.0
2007-01-31,314100.0
2006-12-31,311900.0
2006-11-30,309800.0
2006-10-31,308000.0
2006-09-30,305500.0
2006-08-31,301900.0
2006-07-31,297400.0
2006-06-30,292500.0
2006-05-31,286400.0
2006-04-30,281200.0
2006-03-31,277800.0
2006-02-28,274300.0
2006-01-31,270500.0
2005-12-31,267300.0
2005-11-30,263700.0
2005-10-31,259800.0
2005-09-30,255300.0
2005-08-31,251100.0
2005-07-31,248200.0
2005-06-30,246100.0
2005-05-31,243400.0
2005-04-30,240400.0
2005-03-31,237700.0
2005-02-28,235200.0
2005-01-31,232300.0
2004-12-31,229000.0
2004-11-30,226000.0
2004-10-31,223700.0
2004-09-30,221400.0
2004-08-31,219600.0
2004-07-31,218000.0
2004-06-30,215900.0
2004-05-31,213300.0
2004-04-30,210600.0
2004-03-31,208400.0
2004-02-29,207400.0
2004-01-31,206000.0
2003-12-31,204500.0
2003-11-30,203100.0
2003-10-31,201700.0
2003-09-30,200600.0
2003-08-31,199600.0
2003-07-31,197600.0
2003-06-30,196000.0
2003-05-31,196000.0
2003-04-30,197100.0
2003-03-31,197100.0
2003-02-28,195900.0
2003-01-31,194800.0
2002-12-31,194100.0
2002-11-30,192800.0
2002-10-31,191200.0
2002-09-30,190000.0
2002-08-31,189100.0
2002-07-31,188900.0
2002-06-30,189100.0
2002-05-31,188700.0
2002-04-30,188200.0
2002-03-31,187700.0
2002-02-28,186600.0
2002-01-31,185800.0
2001-12-31,185600.0
2001-11-30,184800.0
2001-10-31,184100.0
2001-09-30,183700.0
2001-08-31,183200.0
2001-07-31,182200.0
2001-06-30,181100.0
2001-05-31,180500.0
2001-04-30,179900.0
2001-03-31,179300.0
2001-02-28,178700.0
2001-01-31,178100.0
2000-12-31,177800.0
2000-11-30,177800.0
2000-10-31,177700.0
2000-09-30,177200.0
2000-08-31,176500.0
2000-07-31,175500.0
2000-06-30,174200.0
2000-05-31,172500.0
2000-04-30,170100.0
2000-03-31,168300.0
2000-02-29,167100.0
2000-01-31,165600.0
1999-12-31,163300.0
1999-11-30,161400.0
1999-10-31,159700.0
1999-09-30,158500.0
1999-08-31,158000.0
1999-07-31,157700.0
1999-06-30,156700.0
1999-05-31,155200.0
1999-04-30,154300.0
1999-03-31,153600.0
1999-02-28,152700.0
1999-01-31,151100.0
1998-12-31,149800.0
1998-11-30,149500.0
1998-10-31,148900.0
1998-09-30,147000.0
1998-08-31,145500.0
1998-07-31,145500.0
1998-06-30,145600.0
1998-05-31,145200.0
1998-04-30,144000.0
1998-03-31,142300.0
1998-02-28,140500.0
1998-01-31,138700.0
1997-12-31,136900.0
1997-11-30,135600.0
1997-10-31,134900.0
1997-09-30,134100.0
1997-08-31,132200.0
1997-07-31,130000.0
1997-06-30,128400.0
1997-05-31,127400.0
1997-04-30,126600.0
1997-03-31,125800.0
1997-02-28,125100.0
1997-01-31,124400.0
1996-12-31,123600.0
1996-11-30,122400.0
1996-10-31,121300.0
1996-09-30,120900.0
1996-08-31,120700.0
1996-07-31,120500.0
1996-06-30,120100.0
1996-05-31,119600.0
1996-04-30,119300.0
