Date,Value
2015-09-30,258500.0
2015-08-31,257600.0
2015-07-31,255200.0
2015-06-30,255900.0
2015-05-31,255400.0
2015-04-30,251900.0
2015-03-31,245200.0
2015-02-28,242500.0
2015-01-31,239900.0
2014-12-31,238700.0
2014-11-30,236600.0
2014-10-31,234000.0
2014-09-30,232100.0
2014-08-31,230900.0
2014-07-31,229400.0
2014-06-30,227900.0
2014-05-31,227200.0
2014-04-30,226200.0
2014-03-31,223800.0
2014-02-28,220900.0
2014-01-31,218700.0
2013-12-31,216300.0
2013-11-30,214000.0
2013-10-31,211800.0
2013-09-30,209100.0
2013-08-31,205600.0
2013-07-31,201200.0
2013-06-30,196900.0
2013-05-31,193900.0
2013-04-30,190800.0
2013-03-31,186800.0
2013-02-28,182900.0
2013-01-31,180800.0
2012-12-31,179200.0
2012-11-30,176900.0
2012-10-31,175100.0
2012-09-30,174400.0
2012-08-31,172900.0
2012-07-31,170500.0
2012-06-30,168100.0
2012-05-31,165300.0
2012-04-30,162700.0
2012-03-31,161100.0
2012-02-29,160900.0
2012-01-31,162000.0
2011-12-31,164300.0
2011-11-30,166400.0
2011-10-31,167500.0
2011-09-30,168600.0
2011-08-31,170300.0
2011-07-31,173100.0
2011-06-30,176800.0
2011-05-31,180300.0
2011-04-30,183000.0
2011-03-31,186800.0
2011-02-28,191500.0
2011-01-31,195400.0
2010-12-31,198400.0
2010-11-30,201100.0
2010-10-31,204600.0
2010-09-30,209400.0
2010-08-31,216000.0
2010-07-31,221200.0
2010-06-30,223000.0
2010-05-31,222900.0
2010-04-30,223500.0
2010-03-31,224700.0
2010-02-28,225500.0
2010-01-31,226200.0
2009-12-31,227500.0
2009-11-30,228800.0
2009-10-31,229300.0
2009-09-30,229200.0
2009-08-31,229000.0
2009-07-31,230300.0
2009-06-30,233400.0
2009-05-31,237700.0
2009-04-30,242500.0
2009-03-31,248200.0
2009-02-28,253400.0
2009-01-31,256000.0
2008-12-31,257600.0
2008-11-30,260600.0
2008-10-31,265000.0
2008-09-30,268300.0
2008-08-31,270100.0
2008-07-31,271100.0
2008-06-30,273500.0
2008-05-31,277600.0
2008-04-30,281100.0
2008-03-31,282900.0
2008-02-29,285400.0
2008-01-31,289900.0
2007-12-31,294300.0
2007-11-30,298000.0
2007-10-31,300900.0
2007-09-30,302900.0
2007-08-31,303900.0
2007-07-31,304100.0
2007-06-30,304200.0
2007-05-31,304400.0
2007-04-30,304300.0
2007-03-31,303800.0
2007-02-28,302600.0
2007-01-31,300300.0
2006-12-31,297000.0
2006-11-30,293600.0
2006-10-31,291100.0
2006-09-30,288100.0
2006-08-31,284200.0
2006-07-31,281600.0
2006-06-30,279500.0
2006-05-31,275700.0
2006-04-30,271300.0
2006-03-31,266300.0
2006-02-28,261100.0
2006-01-31,256500.0
2005-12-31,252000.0
2005-11-30,247900.0
2005-10-31,244600.0
2005-09-30,242000.0
2005-08-31,239500.0
2005-07-31,236300.0
2005-06-30,232200.0
2005-05-31,228700.0
2005-04-30,225400.0
2005-03-31,222000.0
2005-02-28,218600.0
2005-01-31,215000.0
2004-12-31,211600.0
2004-11-30,208600.0
2004-10-31,205400.0
2004-09-30,202600.0
2004-08-31,200900.0
2004-07-31,199600.0
2004-06-30,197500.0
2004-05-31,194800.0
2004-04-30,192200.0
2004-03-31,190000.0
2004-02-29,188100.0
2004-01-31,186600.0
2003-12-31,185700.0
2003-11-30,184700.0
2003-10-31,183500.0
2003-09-30,182500.0
2003-08-31,182100.0
2003-07-31,181400.0
2003-06-30,180500.0
2003-05-31,179800.0
2003-04-30,179400.0
2003-03-31,179100.0
2003-02-28,178700.0
2003-01-31,178300.0
2002-12-31,178000.0
2002-11-30,177400.0
2002-10-31,176600.0
2002-09-30,175400.0
2002-08-31,174200.0
2002-07-31,173600.0
2002-06-30,173400.0
2002-05-31,173200.0
2002-04-30,173200.0
2002-03-31,173500.0
2002-02-28,173300.0
2002-01-31,172600.0
2001-12-31,172000.0
2001-11-30,171400.0
2001-10-31,170700.0
2001-09-30,169600.0
2001-08-31,168600.0
2001-07-31,167800.0
2001-06-30,166900.0
2001-05-31,166400.0
2001-04-30,166800.0
2001-03-31,167200.0
2001-02-28,167200.0
2001-01-31,167000.0
2000-12-31,166900.0
2000-11-30,166000.0
2000-10-31,164500.0
2000-09-30,163400.0
2000-08-31,162200.0
2000-07-31,160400.0
2000-06-30,159200.0
2000-05-31,158100.0
2000-04-30,156200.0
2000-03-31,153700.0
2000-02-29,151800.0
2000-01-31,150600.0
1999-12-31,149500.0
1999-11-30,147800.0
1999-10-31,146400.0
1999-09-30,145500.0
1999-08-31,144700.0
1999-07-31,143900.0
1999-06-30,143000.0
1999-05-31,142000.0
1999-04-30,141000.0
1999-03-31,140300.0
1999-02-28,140000.0
1999-01-31,139200.0
1998-12-31,138400.0
1998-11-30,138300.0
1998-10-31,137700.0
1998-09-30,136300.0
1998-08-31,135100.0
1998-07-31,134200.0
1998-06-30,132900.0
1998-05-31,131400.0
1998-04-30,129700.0
1998-03-31,128000.0
1998-02-28,126700.0
1998-01-31,125400.0
1997-12-31,124000.0
1997-11-30,122900.0
1997-10-31,122100.0
1997-09-30,121300.0
1997-08-31,120100.0
1997-07-31,118900.0
1997-06-30,117800.0
1997-05-31,116800.0
1997-04-30,116000.0
1997-03-31,115600.0
1997-02-28,115000.0
1997-01-31,113900.0
1996-12-31,112700.0
1996-11-30,112100.0
1996-10-31,112300.0
1996-09-30,112500.0
1996-08-31,112300.0
1996-07-31,111900.0
1996-06-30,112000.0
1996-05-31,112900.0
1996-04-30,113500.0
