Date,Value
2015-06-30,1383.0
2015-05-31,1350.0
2015-04-30,1350.0
2015-03-31,1595.0
2015-02-28,1495.0
2015-01-31,1197.0
2014-12-31,1260.0
2014-11-30,1195.0
2014-10-31,1325.0
2014-09-30,1350.0
2014-08-31,1275.0
2014-07-31,1295.0
2014-06-30,1250.0
2014-05-31,1100.0
2014-04-30,1100.0
2014-03-31,1200.0
2014-02-28,1200.0
2014-01-31,1250.0
2013-12-31,1800.0
2013-11-30,1800.0
2013-10-31,1450.0
2013-09-30,1450.0
2013-08-31,1350.0
2013-07-31,1350.0
2013-06-30,1250.0
2013-05-31,1300.0
2013-04-30,1300.0
2013-03-31,1245.0
2013-02-28,1150.0
2013-01-31,1195.0
