Date,Value
2015-02-28,564999.0
2015-01-31,559999.0
2014-12-31,564999.0
2014-11-30,759000.0
2014-10-31,709000.0
2014-09-30,629950.0
2014-08-31,599000.0
2014-07-31,649950.0
2014-06-30,599999.0
2014-05-31,599999.0
2014-04-30,749000.0
2014-03-31,840000.0
2014-02-28,825000.0
2014-01-31,699950.0
2013-12-31,695000.0
2013-11-30,625000.0
2013-10-31,649000.0
2013-09-30,625000.0
2013-08-31,635000.0
2013-07-31,665000.0
2013-06-30,670000.0
2013-05-31,789500.0
2013-04-30,669950.0
2013-03-31,715000.0
2013-02-28,724900.0
2013-01-31,789000.0
2012-12-31,789000.0
2012-11-30,720000.0
2012-10-31,749000.0
2012-09-30,699975.0
2012-08-31,564888.0
2012-07-31,699000.0
2012-06-30,679500.0
2012-05-31,699000.0
2012-04-30,689500.0
2012-03-31,799000.0
2012-02-29,670000.0
2012-01-31,650000.0
2011-12-31,650000.0
2011-11-30,643350.0
2011-10-31,589000.0
2011-09-30,600000.0
2011-08-31,599000.0
2011-07-31,600000.0
2011-06-30,600000.0
2011-05-31,598000.0
2011-04-30,600000.0
2011-03-31,599500.0
2011-02-28,529900.0
2011-01-31,499000.0
2010-12-31,529900.0
2010-11-30,532000.0
2010-10-31,532000.0
2010-09-30,589000.0
2010-08-31,597000.0
2010-07-31,599000.0
2010-06-30,675000.0
2010-05-31,599000.0
2010-04-30,649950.0
2010-03-31,600000.0
2010-02-28,675000.0
2010-01-31,679000.0
2009-12-31,669000.0
2009-11-30,625000.0
2009-10-31,599000.0
2009-09-30,679000.0
2009-08-31,675000.0
2009-07-31,669500.0
2009-06-30,675000.0
2009-05-31,769000.0
2009-04-30,769000.0
2009-03-31,675000.0
2009-02-28,649999.0
2009-01-31,650000.0
2008-12-31,649999.0
2008-11-30,639950.0
2008-10-31,639950.0
