Date,Value
2015-02-28,289500.0
2014-12-31,900000.0
2014-11-30,1425000.0
2014-10-31,1425000.0
2014-09-30,1375000.0
2014-08-31,1075000.0
2014-07-31,998800.0
2014-06-30,950000.0
2014-05-31,950000.0
2014-04-30,350000.0
2014-03-31,799950.0
2014-01-31,1450000.0
2013-12-31,865000.0
2013-11-30,1295000.0
2013-10-31,865000.0
2013-09-30,789000.0
2013-08-31,600000.0
2013-07-31,789000.0
2013-06-30,789000.0
2013-05-31,700000.0
2013-04-30,588500.0
2013-03-31,599000.0
2013-02-28,239500.0
2013-01-31,235000.0
2012-12-31,539000.0
2012-11-30,235000.0
2012-10-31,239950.0
2012-09-30,587500.0
2012-08-31,649900.0
2012-07-31,585000.0
2012-06-30,550000.0
2012-05-31,550000.0
2012-04-30,400000.0
2012-03-31,400000.0
2012-02-29,299000.0
2012-01-31,299000.0
2011-12-31,219000.0
2011-11-30,219000.0
2011-10-31,219000.0
2011-09-30,219000.0
2011-08-31,260000.0
2011-07-31,549000.0
2011-06-30,589000.0
2011-05-31,650000.0
2011-04-30,624950.0
2011-03-31,624950.0
2011-02-28,599950.0
2011-01-31,599950.0
2010-12-31,599950.0
2010-11-30,639950.0
2010-10-31,699000.0
2010-09-30,650000.0
2010-08-31,650000.0
2010-07-31,599000.0
2010-06-30,650000.0
2010-05-31,599000.0
2010-04-30,599000.0
2010-03-31,470000.0
2010-02-28,350000.0
2010-01-31,369000.0
2009-12-31,399000.0
2009-11-30,399000.0
2009-10-31,699500.0
2009-09-30,790000.0
2009-08-31,699000.0
2009-07-31,799000.0
2009-06-30,790000.0
2009-05-31,925000.0
2009-04-30,920000.0
2009-03-31,799000.0
2009-02-28,920000.0
2009-01-31,995000.0
2008-12-31,1228000.0
2008-11-30,1099000.0
2008-10-31,938000.0
