Date,Value
2015-09-30,1.044
2015-08-31,1.042
2015-07-31,1.036
2015-06-30,1.032
2015-05-31,1.024
2015-04-30,1.018
2015-03-31,1.016
2015-02-28,1.016
2015-01-31,1.018
2014-12-31,1.01
2014-11-30,1.002
2014-10-31,0.99
2014-09-30,0.974
2014-08-31,0.956
2014-07-31,0.942
2014-06-30,0.934
2014-05-31,0.93
2014-04-30,0.928
2014-03-31,0.932
2014-02-28,0.94
2014-01-31,0.942
2013-12-31,0.94
2013-11-30,0.938
2013-10-31,0.936
2013-09-30,0.928
2013-08-31,0.918
2013-07-31,0.902
2013-06-30,0.894
2013-05-31,0.89
2013-04-30,0.886
2013-03-31,0.89
2013-02-28,0.896
2013-01-31,0.896
2012-12-31,0.886
2012-11-30,0.876
2012-10-31,0.87
2012-09-30,0.874
2012-08-31,0.88
2012-07-31,0.88
2012-06-30,0.876
2012-05-31,0.864
2012-04-30,0.854
2012-03-31,0.852
2012-02-29,0.86
2012-01-31,0.858
2011-12-31,0.842
2011-11-30,0.824
2011-10-31,0.812
2011-09-30,0.81
2011-08-31,0.812
2011-07-31,0.818
2011-06-30,0.816
2011-05-31,0.814
2011-04-30,0.806
2011-03-31,0.774
2011-02-28,0.726
2011-01-31,0.68
2010-12-31,0.69
2010-11-30,0.698
