Date,Value
2007-10-31,176000.0
2007-06-30,171700.0
2007-05-31,177058.8235
2007-04-30,170000.0
2006-10-31,182676.4706
2006-09-30,186500.0
2006-06-30,167400.0
2006-05-31,168115.0
2006-04-30,170000.0
2006-03-31,160461.5385
2006-01-31,157515.0
2005-12-31,160470.5882
2005-11-30,150064.6154
2005-09-30,161955.0
2005-08-31,156975.0
2005-07-31,141500.0
2005-06-30,136935.0
2005-05-31,143140.0
2005-04-30,148176.4706
2005-03-31,145000.0
2004-12-31,129900.0
2004-09-30,126005.8824
2004-08-31,124884.6154
2004-06-30,122576.9231
2004-04-30,119500.0
2003-12-31,121714.7059
2003-11-30,115000.0
2003-07-31,121605.8824
2003-06-30,116900.0
2002-11-30,120000.0
2002-03-31,109000.0
2000-09-30,95841.1765
2000-08-31,89900.0
1999-07-31,97200.0
1998-12-31,87098.6154
1998-10-31,94049.2308
1998-08-31,100000.0
1998-07-31,96323.5294
1998-06-30,97500.0
1998-03-31,98846.1538
1998-01-31,95000.0
1997-08-31,89782.3529
1997-07-31,88333.4615
1997-05-31,92133.8235
1997-04-30,85975.0
1996-08-31,78000.0
1996-05-31,79500.0
