Date,Value
2015-08-31,865850.0
2015-07-31,874580.0
2015-06-30,840900.0
2015-05-31,840800.0
2015-04-30,840200.0
2015-02-28,866153.8462
2014-12-31,845785.0
2014-11-30,776050.0
2014-10-31,802625.0
2014-09-30,805925.0
2014-08-31,831450.0
2014-07-31,845750.0
2014-06-30,849411.7647
2014-05-31,765384.6154
2014-03-31,750000.0
2013-10-31,773775.0
2013-09-30,757000.0
2013-08-31,747250.0
2013-07-31,731500.0
2013-06-30,703000.0
2013-05-31,688235.2941
2013-04-30,677603.8462
2013-02-28,611269.2308
2012-12-31,668000.0
2012-11-30,693758.75
2012-10-31,686803.75
2012-09-30,683662.5
2012-08-31,681000.0
2012-07-31,665800.0
2012-06-30,662200.0
2012-05-31,664250.0
2012-04-30,680294.1176
2012-03-31,595000.0
2011-12-31,617352.9412
2011-11-30,566153.8462
2011-09-30,657626.4706
2011-08-31,636500.0
2011-06-30,632950.0
2011-05-31,639742.5
2011-04-30,639685.2941
2011-03-31,624950.0
2010-11-30,585500.0
2010-10-31,602500.0
2010-09-30,626000.0
2010-08-31,687350.0
2010-07-31,663400.0
2010-06-30,664825.0
2010-05-31,625350.0
2010-04-30,613911.7647
2010-03-31,604500.0
2009-12-31,655500.0
2009-11-30,647941.1765
2009-10-31,601923.0769
2009-08-31,614000.0
2009-07-31,604117.6471
2009-06-30,610000.0
2008-09-30,652647.0588
2008-08-31,704615.3846
2008-06-30,772058.8235
2008-05-31,747307.6923
2008-03-31,669000.0
2008-02-29,689000.0
2007-11-30,678500.0
2007-10-31,664350.0
2007-09-30,693850.0
2007-08-31,733650.0
2007-07-31,709750.0
2007-06-30,720900.0
2007-05-31,715700.0
2007-04-30,671800.0
2007-03-31,688250.0
2007-02-28,730500.0
2007-01-31,694742.5
2006-12-31,708732.5
2006-11-30,712475.0
2006-10-31,680500.0
2006-09-30,715500.0
2006-08-31,689250.0
2006-07-31,677000.0
2006-06-30,670000.0
2006-05-31,664250.0
2006-04-30,640750.0
2006-03-31,654500.0
2006-02-28,600500.0
2006-01-31,566500.0
2005-12-31,606500.0
2005-11-30,616500.0
2005-10-31,628000.0
2005-09-30,637000.0
2005-08-31,624850.0
2005-07-31,580400.0
2005-06-30,529000.0
2005-05-31,537735.0
2005-04-30,549958.8235
2005-03-31,599900.0
2004-12-31,507950.0
2004-11-30,524150.0
2004-10-31,539000.0
2004-09-30,504150.0
2004-08-31,496992.5
2004-07-31,509732.5
2004-06-30,512725.0
2004-05-31,472500.0
2004-04-30,445250.0
2004-03-31,457500.0
2004-02-29,473500.0
2004-01-31,483050.0
2003-12-31,490050.0
2003-11-30,494775.0
2003-10-31,445875.0
2003-09-30,468950.0
2003-08-31,469450.0
2003-07-31,448100.0
2003-06-30,409567.5
2003-05-31,422457.5
2003-04-30,418300.0
2003-03-31,412345.0
2003-02-28,435180.0
2003-01-31,470025.0
2002-12-31,456825.0
2002-11-30,398800.0
2002-10-31,413150.0
2002-09-30,424100.0
2002-08-31,434625.0
2002-07-31,438750.0
2002-06-30,429015.0
2002-05-31,438160.0
2002-04-30,445035.0
2002-03-31,430715.0
2002-02-28,385700.0
2002-01-31,383700.0
2001-12-31,413294.1176
2001-11-30,428846.1538
2001-09-30,446142.5
2001-08-31,418465.0
2001-07-31,400600.0
2001-06-30,401000.0
2001-05-31,414500.0
2001-04-30,416450.0
2001-03-31,420400.0
2001-02-28,402950.0
2001-01-31,422500.0
2000-12-31,489000.0
2000-11-30,473400.0
2000-10-31,435500.0
2000-09-30,392592.5
2000-08-31,404982.5
2000-07-31,416117.5
2000-06-30,382832.5
2000-05-31,397875.0
2000-04-30,420175.0
2000-03-31,383525.0
2000-02-29,360735.0
2000-01-31,380015.0
1999-12-31,403900.0
1999-11-30,438285.0
1999-10-31,380657.35
1999-09-30,375482.15
1999-08-31,356474.5
1999-07-31,340792.5
1999-06-30,341175.0
1999-05-31,351707.5
1999-04-30,376975.0
1999-03-31,358000.0
1999-02-28,333675.0
1999-01-31,362825.0
1998-12-31,379650.0
1998-11-30,372575.0
1998-10-31,325025.0
1998-09-30,356250.0
1998-08-31,371550.0
1998-07-31,353975.0
1998-06-30,357575.0
1998-05-31,375280.0
1998-04-30,360970.0
1998-03-31,328100.0
1998-02-28,313500.0
1998-01-31,333450.0
1997-12-31,329600.0
1997-11-30,317200.0
1997-10-31,281700.0
1997-09-30,273792.5
1997-08-31,300982.5
1997-07-31,307650.0
1997-06-30,292175.0
1997-05-31,278400.0
1997-04-30,265700.0
1997-03-31,253183.2
1997-02-28,269803.3
1997-01-31,281726.5
1996-12-31,270660.0
1996-11-30,238707.5
1996-10-31,241425.0
1996-09-30,248207.5
1996-08-31,269825.0
1996-07-31,261950.0
1996-06-30,281700.0
1996-05-31,270600.0
1996-04-30,263500.0
