Date,Value
2013-10-31,650000.0
2013-08-31,689000.0
2013-07-31,680000.0
2013-06-30,435000.0
2013-05-31,318999.0
2012-10-31,225000.0
2012-09-30,199950.0
2012-08-31,199950.0
2012-07-31,199000.0
2012-06-30,245000.0
2012-05-31,219950.0
2012-03-31,250000.0
2012-02-29,250000.0
2012-01-31,267500.0
2011-12-31,267500.0
2011-11-30,249900.0
2011-10-31,219995.0
2011-09-30,249900.0
2011-08-31,267500.0
2011-07-31,249000.0
2011-06-30,225000.0
2011-05-31,289950.0
2010-12-31,409000.0
2010-11-30,259950.0
2010-10-31,297000.0
2010-09-30,297000.0
2010-08-31,297000.0
2010-07-31,297000.0
2010-06-30,297000.0
2010-05-31,259950.0
2010-04-30,499950.0
2010-03-31,409000.0
2009-12-31,355000.0
2009-11-30,324950.0
2009-10-31,487950.0
2009-09-30,485000.0
2009-08-31,487950.0
2009-07-31,485000.0
