Date,Value
2015-02-28,269000.0
2015-01-31,279000.0
2014-12-31,279000.0
2014-11-30,269000.0
2014-10-31,269000.0
2014-09-30,269000.0
2014-08-31,249000.0
2014-07-31,259000.0
2014-06-30,279000.0
2014-05-31,279000.0
2014-04-30,268000.0
2014-03-31,279950.0
2013-12-31,239900.0
2013-11-30,226200.0
2013-10-31,226200.0
2013-09-30,234000.0
2013-08-31,235000.0
2013-07-31,224900.0
2013-06-30,265000.0
2013-05-31,209950.0
2013-04-30,185900.0
2013-03-31,173000.0
2013-02-28,167000.0
2013-01-31,165000.0
2012-12-31,173000.0
2012-11-30,169900.0
2012-10-31,179900.0
2012-09-30,180000.0
2012-08-31,184900.0
2012-07-31,184900.0
2012-06-30,170000.0
2012-05-31,180000.0
2012-04-30,168000.0
2012-03-31,179000.0
2012-02-29,170000.0
2012-01-31,160000.0
2011-12-31,165000.0
2011-11-30,165000.0
2011-10-31,174000.0
2011-09-30,169950.0
2011-08-31,195000.0
2011-07-31,179500.0
2011-06-30,190000.0
2011-05-31,189000.0
2011-04-30,189000.0
2011-03-31,195000.0
2011-02-28,199900.0
2011-01-31,205000.0
2010-12-31,195000.0
2010-11-30,189000.0
2010-10-31,189000.0
2010-09-30,195000.0
2010-08-31,200000.0
2010-07-31,208000.0
2010-06-30,229000.0
2010-05-31,229950.0
2010-04-30,244950.0
2010-03-31,229950.0
2010-02-28,249000.0
2010-01-31,249000.0
2009-12-31,245000.0
2009-11-30,249000.0
2009-10-31,249950.0
2009-09-30,259000.0
2009-08-31,243950.0
2009-07-31,279000.0
2009-06-30,279000.0
2009-05-31,279000.0
2009-04-30,279000.0
2009-03-31,279950.0
2009-02-28,279950.0
2009-01-31,288000.0
2008-12-31,279950.0
2008-11-30,279950.0
2008-10-31,295000.0
