Date,Value
2015-09-30,638900.0
2015-08-31,591800.0
2015-07-31,570450.0
2015-06-30,596050.0
2015-05-31,617485.0
2015-04-30,626058.8235
2015-03-31,607000.0
2014-11-30,596705.8824
2014-10-31,566153.8462
2014-08-31,619000.0
2014-07-31,577350.0
2014-06-30,570176.4706
2014-05-31,599000.0
2013-10-31,489950.0
2013-09-30,543647.0588
2013-08-31,616000.0
2013-05-31,565000.0
2012-12-31,454615.3846
2012-10-31,436025.0
2012-09-30,441625.0
2012-08-31,482352.9412
2012-07-31,499730.7692
2012-05-31,415500.0
2011-12-31,465000.0
2011-11-30,496153.8462
2011-09-30,463846.1538
2011-07-31,482500.0
2011-06-30,453500.0
2011-05-31,450882.3529
2011-04-30,445000.0
2010-11-30,483250.0
2010-10-31,570000.0
2010-06-30,445025.0
2010-05-31,447941.1765
2010-04-30,462307.6923
2010-02-28,421615.3846
2009-12-31,425615.3846
2009-10-31,429538.4615
2009-07-31,469705.8824
2009-06-30,475000.0
2008-08-31,505825.0
2008-07-31,527242.5
2008-06-30,505232.5
2008-05-31,513205.8824
2008-04-30,475000.0
2007-12-31,484500.0
2007-08-31,506465.0
2007-07-31,575592.5
2007-06-30,578675.0
2007-05-31,609832.3529
2007-04-30,543950.0
2006-11-30,489100.0
2006-10-31,434375.0
2006-09-30,497775.0
2006-08-31,478300.0
2006-07-31,464950.0
2006-06-30,465750.0
2006-05-31,492350.0
2006-04-30,489915.0
2006-03-31,477535.0
2006-02-28,463882.3529
2006-01-31,505000.0
2005-10-31,433025.0
2005-09-30,437850.0
2005-08-31,442150.0
2005-07-31,452500.0
2005-06-30,446800.0
2005-05-31,428700.0
2005-04-30,389675.5
2005-03-31,399159.5
2005-02-28,405860.0
2005-01-31,419975.0
2004-12-31,422250.0
2004-11-30,403750.0
2004-10-31,393350.0
2004-09-30,365900.0
2004-08-31,374735.0
2004-07-31,359265.0
2004-06-30,357675.0
2004-05-31,367900.0
2004-04-30,373911.7647
2004-03-31,368846.1538
2004-01-31,344137.5
2003-12-31,342475.0
2003-11-30,356050.0
2003-10-31,352250.0
2003-09-30,364000.0
2003-08-31,365200.0
2003-07-31,360425.0
2003-06-30,342125.0
2003-05-31,337058.8235
2003-04-30,312819.2308
2003-02-28,316961.5385
2002-12-31,353846.1538
2002-10-31,333500.0
2002-09-30,319350.0
2002-08-31,323450.0
2002-07-31,337300.0
2002-06-30,330275.0
2002-05-31,325825.0
2002-04-30,315050.0
2002-03-31,332492.5
2002-02-28,316832.5
2002-01-31,312125.0
2001-12-31,313800.0
2001-11-30,332525.0
2001-10-31,327025.0
2001-09-30,349100.0
2001-08-31,349300.0
2001-07-31,356470.5882
2001-06-30,335153.8462
2001-04-30,311176.4706
2001-03-31,291923.0769
2001-01-31,269038.4615
2000-11-30,287625.0
2000-10-31,291000.0
2000-09-30,286058.8235
2000-08-31,298346.1538
2000-06-30,295000.0
2000-05-31,269675.0
2000-04-30,290970.5882
2000-03-31,295000.0
2000-01-31,285850.0
1999-12-31,291250.0
1999-11-30,297000.0
1999-10-31,256100.0
1999-09-30,268450.0
1999-08-31,274384.55
1999-07-31,305263.95
1999-06-30,308441.0
1999-05-31,290975.0
1999-04-30,266420.5882
1999-03-31,289950.0
1998-12-31,281950.0
1998-11-30,244400.0
1998-10-31,241500.0
1998-09-30,250600.0
1998-08-31,260492.5
1998-07-31,271232.5
1998-06-30,241975.0
1998-05-31,238050.0
1998-04-30,247660.0
1998-03-31,239694.1176
1998-02-28,236400.0
1997-10-31,219781.5
1997-09-30,213270.0
1997-08-31,203825.0
1997-07-31,217200.0
1997-06-30,238450.0
1997-05-31,230050.0
1997-04-30,200529.4118
1997-03-31,187000.0
1996-10-31,166500.0
1996-09-30,188742.5
1996-08-31,195232.5
1996-07-31,202025.0
1996-06-30,192750.0
1996-05-31,187925.0
1996-04-30,180550.0
