Date,Value
2015-09-30,486000.0
2015-08-31,481700.0
2015-07-31,480600.0
2015-06-30,486400.0
2015-05-31,485000.0
2015-04-30,480900.0
2015-03-31,471600.0
2015-02-28,466100.0
2015-01-31,461900.0
2014-12-31,459000.0
2014-11-30,455500.0
2014-10-31,450300.0
2014-09-30,443700.0
2014-08-31,439400.0
2014-07-31,437700.0
2014-06-30,435000.0
2014-05-31,431400.0
2014-04-30,426500.0
2014-03-31,421200.0
2014-02-28,418700.0
2014-01-31,418600.0
2013-12-31,416900.0
2013-11-30,413700.0
2013-10-31,408600.0
2013-09-30,401800.0
2013-08-31,397400.0
2013-07-31,395300.0
2013-06-30,392600.0
2013-05-31,388400.0
2013-04-30,382100.0
2013-03-31,375800.0
2013-02-28,372100.0
2013-01-31,370200.0
2012-12-31,368200.0
2012-11-30,367000.0
2012-10-31,366800.0
2012-09-30,366700.0
2012-08-31,367100.0
2012-07-31,366700.0
2012-06-30,364300.0
2012-05-31,360800.0
2012-04-30,359500.0
2012-03-31,357800.0
2012-02-29,355400.0
2012-01-31,353800.0
2011-12-31,353800.0
2011-11-30,354500.0
2011-10-31,354700.0
2011-09-30,355100.0
2011-08-31,356200.0
2011-07-31,358200.0
2011-06-30,358300.0
2011-05-31,358700.0
2011-04-30,360900.0
2011-03-31,363600.0
2011-02-28,361900.0
2011-01-31,358700.0
2010-12-31,356200.0
2010-11-30,354100.0
2010-10-31,352300.0
2010-09-30,352300.0
2010-08-31,351500.0
2010-07-31,350400.0
2010-06-30,351000.0
2010-05-31,351600.0
2010-04-30,349400.0
2010-03-31,346100.0
2010-02-28,343500.0
2010-01-31,341700.0
2009-12-31,339700.0
2009-11-30,336600.0
2009-10-31,335100.0
2009-09-30,337400.0
2009-08-31,341000.0
2009-07-31,343300.0
2009-06-30,346300.0
2009-05-31,350100.0
2009-04-30,353300.0
2009-03-31,356400.0
2009-02-28,359800.0
2009-01-31,363400.0
2008-12-31,366600.0
2008-11-30,371300.0
2008-10-31,376600.0
2008-09-30,380600.0
2008-08-31,383100.0
2008-07-31,385900.0
2008-06-30,389700.0
2008-05-31,395600.0
2008-04-30,402600.0
2008-03-31,409300.0
2008-02-29,415700.0
2008-01-31,420300.0
2007-12-31,423800.0
2007-11-30,427900.0
2007-10-31,432500.0
2007-09-30,435600.0
2007-08-31,436200.0
2007-07-31,432800.0
2007-06-30,427000.0
2007-05-31,419600.0
2007-04-30,414700.0
2007-03-31,414800.0
2007-02-28,416500.0
2007-01-31,416300.0
2006-12-31,416500.0
2006-11-30,416500.0
2006-10-31,413500.0
2006-09-30,409200.0
2006-08-31,406100.0
2006-07-31,405400.0
2006-06-30,407700.0
2006-05-31,408900.0
2006-04-30,405200.0
2006-03-31,398300.0
2006-02-28,392100.0
2006-01-31,387500.0
2005-12-31,382500.0
2005-11-30,377400.0
2005-10-31,373000.0
2005-09-30,368700.0
2005-08-31,365200.0
2005-07-31,361500.0
2005-06-30,355400.0
2005-05-31,349300.0
2005-04-30,345800.0
2005-03-31,343500.0
2005-02-28,342700.0
2005-01-31,342300.0
2004-12-31,339500.0
2004-11-30,334400.0
2004-10-31,329600.0
2004-09-30,324600.0
2004-08-31,319500.0
2004-07-31,315200.0
2004-06-30,311900.0
2004-05-31,310400.0
2004-04-30,310700.0
2004-03-31,309200.0
2004-02-29,302900.0
2004-01-31,296200.0
2003-12-31,293800.0
2003-11-30,293200.0
2003-10-31,291600.0
2003-09-30,290100.0
2003-08-31,289700.0
2003-07-31,289100.0
2003-06-30,288900.0
2003-05-31,288900.0
2003-04-30,289100.0
2003-03-31,288500.0
2003-02-28,287100.0
2003-01-31,284600.0
2002-12-31,282200.0
2002-11-30,281300.0
2002-10-31,281500.0
2002-09-30,281400.0
2002-08-31,280100.0
2002-07-31,278000.0
2002-06-30,275100.0
2002-05-31,271400.0
2002-04-30,265900.0
2002-03-31,262500.0
2002-02-28,261700.0
2002-01-31,262400.0
2001-12-31,262900.0
2001-11-30,262900.0
2001-10-31,263100.0
2001-09-30,263700.0
2001-08-31,263800.0
2001-07-31,264800.0
2001-06-30,267500.0
2001-05-31,271400.0
2001-04-30,273200.0
2001-03-31,271700.0
2001-02-28,271000.0
2001-01-31,272200.0
2000-12-31,271100.0
2000-11-30,267300.0
2000-10-31,263000.0
2000-09-30,258700.0
2000-08-31,253900.0
2000-07-31,249800.0
2000-06-30,246200.0
2000-05-31,240500.0
2000-04-30,235000.0
2000-03-31,233500.0
2000-02-29,233500.0
2000-01-31,232200.0
1999-12-31,230500.0
1999-11-30,230800.0
1999-10-31,231900.0
1999-09-30,232400.0
1999-08-31,232800.0
1999-07-31,232300.0
1999-06-30,230800.0
1999-05-31,229100.0
1999-04-30,227900.0
1999-03-31,226600.0
1999-02-28,224900.0
1999-01-31,222600.0
1998-12-31,219600.0
1998-11-30,216200.0
1998-10-31,213600.0
1998-09-30,211800.0
1998-08-31,210600.0
1998-07-31,209900.0
1998-06-30,208100.0
1998-05-31,205500.0
1998-04-30,202100.0
1998-03-31,198700.0
1998-02-28,196000.0
1998-01-31,192500.0
1997-12-31,187800.0
1997-11-30,183700.0
1997-10-31,180900.0
1997-09-30,178600.0
1997-08-31,177600.0
1997-07-31,176200.0
1997-06-30,173800.0
1997-05-31,171100.0
1997-04-30,170100.0
1997-03-31,169300.0
1997-02-28,167500.0
1997-01-31,166300.0
1996-12-31,167900.0
1996-11-30,169200.0
1996-10-31,168400.0
1996-09-30,166900.0
1996-08-31,165000.0
1996-07-31,162700.0
1996-06-30,161300.0
1996-05-31,162400.0
1996-04-30,165200.0
