Date,Value
2015-09-30,1.264
2015-08-31,1.248
2015-07-31,1.238
2015-06-30,1.228
2015-05-31,1.222
2015-04-30,1.214
2015-03-31,1.204
2015-02-28,1.19
2015-01-31,1.184
2014-12-31,1.18
2014-11-30,1.182
2014-10-31,1.18
2014-09-30,1.178
2014-08-31,1.17
2014-07-31,1.156
2014-06-30,1.14
2014-05-31,1.132
2014-04-30,1.122
2014-03-31,1.12
2014-02-28,1.118
2014-01-31,1.122
2013-12-31,1.126
2013-11-30,1.124
2013-10-31,1.118
2013-09-30,1.112
2013-08-31,1.11
2013-07-31,1.11
2013-06-30,1.114
2013-05-31,1.116
2013-04-30,1.118
2013-03-31,1.116
2013-02-28,1.11
2013-01-31,1.1
2012-12-31,1.084
2012-11-30,1.07
2012-10-31,1.06
2012-09-30,1.052
2012-08-31,1.046
2012-07-31,1.04
2012-06-30,1.036
2012-05-31,1.026
2012-04-30,1.018
2012-03-31,1.01
2012-02-29,1.008
2012-01-31,1.006
2011-12-31,1.006
2011-11-30,0.998
2011-10-31,0.988
2011-09-30,0.986
2011-08-31,0.984
2011-07-31,0.984
2011-06-30,0.98
2011-05-31,0.98
2011-04-30,0.976
2011-03-31,0.97
2011-02-28,0.958
2011-01-31,0.946
2010-12-31,0.94
2010-11-30,0.938
