Date,Value
2015-09-30,222600.0
2015-08-31,221300.0
2015-07-31,218000.0
2015-06-30,217200.0
2015-05-31,214800.0
2015-04-30,213000.0
2015-03-31,212000.0
2015-02-28,211400.0
2015-01-31,208000.0
2014-12-31,205800.0
2014-11-30,203000.0
2014-10-31,201900.0
2014-09-30,201600.0
2014-08-31,200800.0
2014-07-31,199800.0
2014-06-30,199800.0
2014-05-31,199100.0
2014-04-30,198300.0
2014-03-31,197700.0
2014-02-28,196800.0
2014-01-31,195100.0
2013-12-31,192900.0
2013-11-30,191000.0
2013-10-31,189500.0
2013-09-30,188200.0
2013-08-31,187000.0
2013-07-31,185200.0
2013-06-30,182000.0
2013-05-31,178200.0
2013-04-30,174800.0
2013-03-31,172400.0
2013-02-28,170700.0
2013-01-31,169400.0
2012-12-31,168100.0
2012-11-30,166400.0
2012-10-31,164200.0
2012-09-30,162100.0
2012-08-31,160600.0
2012-07-31,159500.0
2012-06-30,159100.0
2012-05-31,159000.0
2012-04-30,158300.0
2012-03-31,157200.0
2012-02-29,156400.0
2012-01-31,156400.0
2011-12-31,156200.0
2011-11-30,156500.0
2011-10-31,157800.0
2011-09-30,159300.0
2011-08-31,160000.0
2011-07-31,160800.0
2011-06-30,162100.0
2011-05-31,164700.0
2011-04-30,167800.0
2011-03-31,170000.0
2011-02-28,171700.0
2011-01-31,173700.0
2010-12-31,176200.0
2010-11-30,178000.0
2010-10-31,178700.0
2010-09-30,179400.0
2010-08-31,180800.0
2010-07-31,182100.0
2010-06-30,182200.0
2010-05-31,181500.0
2010-04-30,181200.0
2010-03-31,181800.0
2010-02-28,182100.0
2010-01-31,182200.0
2009-12-31,182900.0
2009-11-30,184100.0
2009-10-31,184900.0
2009-09-30,185100.0
2009-08-31,185700.0
2009-07-31,187100.0
2009-06-30,189700.0
2009-05-31,193100.0
2009-04-30,196400.0
2009-03-31,198900.0
2009-02-28,201400.0
2009-01-31,203500.0
2008-12-31,206100.0
2008-11-30,209900.0
2008-10-31,213200.0
2008-09-30,215300.0
2008-08-31,216700.0
2008-07-31,217900.0
2008-06-30,219300.0
2008-05-31,220600.0
2008-04-30,221400.0
2008-03-31,222000.0
2008-02-29,223000.0
2008-01-31,224300.0
2007-12-31,225400.0
2007-11-30,225800.0
2007-10-31,226500.0
2007-09-30,228100.0
2007-08-31,230000.0
2007-07-31,231400.0
2007-06-30,232300.0
2007-05-31,233300.0
2007-04-30,235000.0
2007-03-31,236400.0
2007-02-28,237000.0
2007-01-31,237400.0
2006-12-31,237200.0
2006-11-30,236300.0
2006-10-31,235900.0
2006-09-30,235800.0
2006-08-31,235400.0
2006-07-31,235000.0
2006-06-30,233900.0
2006-05-31,232300.0
2006-04-30,230400.0
2006-03-31,227900.0
2006-02-28,225600.0
2006-01-31,223500.0
2005-12-31,221000.0
2005-11-30,218600.0
2005-10-31,216200.0
2005-09-30,212800.0
2005-08-31,208500.0
2005-07-31,204100.0
2005-06-30,200300.0
2005-05-31,195900.0
2005-04-30,190600.0
2005-03-31,186700.0
2005-02-28,184200.0
2005-01-31,181800.0
2004-12-31,179400.0
2004-11-30,176800.0
2004-10-31,174000.0
2004-09-30,171900.0
2004-08-31,170500.0
2004-07-31,168600.0
2004-06-30,166400.0
2004-05-31,164500.0
2004-04-30,163000.0
2004-03-31,161400.0
2004-02-29,159400.0
2004-01-31,157700.0
2003-12-31,156400.0
2003-11-30,155400.0
2003-10-31,154300.0
2003-09-30,153300.0
2003-08-31,152600.0
2003-07-31,152100.0
2003-06-30,151400.0
2003-05-31,150600.0
2003-04-30,150500.0
2003-03-31,150600.0
2003-02-28,150200.0
2003-01-31,149200.0
2002-12-31,148300.0
2002-11-30,147500.0
2002-10-31,146700.0
2002-09-30,146200.0
2002-08-31,145700.0
2002-07-31,144900.0
2002-06-30,143900.0
2002-05-31,143600.0
2002-04-30,143600.0
2002-03-31,143500.0
2002-02-28,142700.0
2002-01-31,141400.0
2001-12-31,140400.0
2001-11-30,140000.0
2001-10-31,139100.0
2001-09-30,137900.0
2001-08-31,137000.0
2001-07-31,137000.0
2001-06-30,137600.0
2001-05-31,137700.0
2001-04-30,137300.0
2001-03-31,136900.0
2001-02-28,136800.0
2001-01-31,137100.0
2000-12-31,137300.0
2000-11-30,137200.0
2000-10-31,137200.0
2000-09-30,137300.0
2000-08-31,136900.0
2000-07-31,136600.0
2000-06-30,136100.0
2000-05-31,135100.0
2000-04-30,134100.0
2000-03-31,133400.0
2000-02-29,132900.0
2000-01-31,132300.0
1999-12-31,131500.0
1999-11-30,130700.0
1999-10-31,130500.0
1999-09-30,131200.0
1999-08-31,131800.0
1999-07-31,131800.0
1999-06-30,131800.0
1999-05-31,132100.0
1999-04-30,132400.0
1999-03-31,132300.0
1999-02-28,132600.0
1999-01-31,132800.0
1998-12-31,132700.0
1998-11-30,132600.0
1998-10-31,132700.0
1998-09-30,132200.0
1998-08-31,132000.0
1998-07-31,132000.0
1998-06-30,132200.0
1998-05-31,132800.0
1998-04-30,134200.0
1998-03-31,135300.0
1998-02-28,136000.0
1998-01-31,136500.0
1997-12-31,136500.0
1997-11-30,136100.0
1997-10-31,135900.0
1997-09-30,135200.0
1997-08-31,133900.0
1997-07-31,132800.0
1997-06-30,132100.0
1997-05-31,131200.0
1997-04-30,129600.0
1997-03-31,127500.0
1997-02-28,125700.0
1997-01-31,124500.0
1996-12-31,123800.0
1996-11-30,123300.0
1996-10-31,122800.0
1996-09-30,122400.0
1996-08-31,122100.0
1996-07-31,121800.0
1996-06-30,121200.0
1996-05-31,120600.0
1996-04-30,120000.0
