Date,Value
2015-09-30,942000.0
2015-08-31,964400.0
2015-07-31,955500.0
2015-06-30,970300.0
2015-05-31,980800.0
2015-04-30,965800.0
2015-03-31,930800.0
2015-02-28,920500.0
2015-01-31,906500.0
2014-12-31,897300.0
2014-11-30,886800.0
2014-10-31,878200.0
2014-09-30,874000.0
2014-08-31,871600.0
2014-07-31,867200.0
2014-06-30,860400.0
2014-05-31,851800.0
2014-04-30,836600.0
2014-03-31,825200.0
2014-02-28,824200.0
2014-01-31,824100.0
2013-12-31,819800.0
2013-11-30,818600.0
2013-10-31,815500.0
2013-09-30,807100.0
2013-08-31,797400.0
2013-07-31,787000.0
2013-06-30,777200.0
2013-05-31,765100.0
2013-04-30,748800.0
2013-03-31,736900.0
2013-02-28,732000.0
2013-01-31,726500.0
2012-12-31,718700.0
2012-11-30,710400.0
2012-10-31,701700.0
2012-09-30,695700.0
2012-08-31,689700.0
2012-07-31,679400.0
2012-06-30,665000.0
2012-05-31,650100.0
2012-04-30,637100.0
2012-03-31,626900.0
2012-02-29,619400.0
2012-01-31,616100.0
2011-12-31,616600.0
2011-11-30,617000.0
2011-10-31,616500.0
2011-09-30,618200.0
2011-08-31,621700.0
2011-07-31,623900.0
2011-06-30,624700.0
2011-05-31,630100.0
2011-04-30,641400.0
2011-03-31,647200.0
2011-02-28,642100.0
2011-01-31,636300.0
2010-12-31,634400.0
2010-11-30,633300.0
2010-10-31,635600.0
2010-09-30,639400.0
2010-08-31,641700.0
2010-07-31,646800.0
2010-06-30,655900.0
2010-05-31,661800.0
2010-04-30,666700.0
2010-03-31,671400.0
2010-02-28,674000.0
2010-01-31,674400.0
2009-12-31,676800.0
2009-11-30,676200.0
2009-10-31,672900.0
2009-09-30,671900.0
2009-08-31,677100.0
2009-07-31,686300.0
2009-06-30,698000.0
2009-05-31,709500.0
2009-04-30,720500.0
2009-03-31,732400.0
2009-02-28,745400.0
2009-01-31,757700.0
2008-12-31,768200.0
2008-11-30,778200.0
2008-10-31,789400.0
2008-09-30,798400.0
2008-08-31,803700.0
2008-07-31,807700.0
2008-06-30,811600.0
2008-05-31,818200.0
2008-04-30,823500.0
2008-03-31,827500.0
2008-02-29,830800.0
2008-01-31,835500.0
2007-12-31,839400.0
2007-11-30,847600.0
2007-10-31,856000.0
2007-09-30,858500.0
2007-08-31,854100.0
2007-07-31,846600.0
2007-06-30,837000.0
2007-05-31,828300.0
2007-04-30,825900.0
2007-03-31,826400.0
2007-02-28,826000.0
2007-01-31,820700.0
2006-12-31,813700.0
2006-11-30,806300.0
2006-10-31,798500.0
2006-09-30,789600.0
2006-08-31,782600.0
2006-07-31,773500.0
2006-06-30,762200.0
2006-05-31,752000.0
2006-04-30,742000.0
2006-03-31,730700.0
2006-02-28,719700.0
2006-01-31,710300.0
2005-12-31,701500.0
2005-11-30,693800.0
2005-10-31,685100.0
2005-09-30,675100.0
2005-08-31,662200.0
2005-07-31,650700.0
2005-06-30,643700.0
2005-05-31,638400.0
2005-04-30,629800.0
2005-03-31,618800.0
2005-02-28,608200.0
2005-01-31,598300.0
2004-12-31,585900.0
2004-11-30,571700.0
2004-10-31,560100.0
2004-09-30,553200.0
2004-08-31,549200.0
2004-07-31,547900.0
2004-06-30,548200.0
2004-05-31,544900.0
2004-04-30,538800.0
2004-03-31,532300.0
2004-02-29,527300.0
2004-01-31,523600.0
2003-12-31,521400.0
2003-11-30,517300.0
2003-10-31,512000.0
2003-09-30,506400.0
2003-08-31,499600.0
2003-07-31,490900.0
2003-06-30,482800.0
2003-05-31,477400.0
2003-04-30,474300.0
2003-03-31,472800.0
2003-02-28,471500.0
2003-01-31,468800.0
2002-12-31,466200.0
2002-11-30,465100.0
2002-10-31,463100.0
2002-09-30,460800.0
2002-08-31,461800.0
2002-07-31,464900.0
2002-06-30,466100.0
2002-05-31,464600.0
2002-04-30,462000.0
2002-03-31,458300.0
2002-02-28,454000.0
2002-01-31,450900.0
2001-12-31,451100.0
2001-11-30,453600.0
2001-10-31,455200.0
2001-09-30,455300.0
2001-08-31,456200.0
2001-07-31,456200.0
2001-06-30,452200.0
2001-05-31,448400.0
2001-04-30,444700.0
2001-03-31,440900.0
2001-02-28,436600.0
2001-01-31,433600.0
2000-12-31,430800.0
2000-11-30,431600.0
2000-10-31,431500.0
2000-09-30,428500.0
2000-08-31,424700.0
2000-07-31,424200.0
2000-06-30,424600.0
2000-05-31,422200.0
2000-04-30,417600.0
2000-03-31,415400.0
2000-02-29,414600.0
2000-01-31,413200.0
1999-12-31,407800.0
1999-11-30,397700.0
1999-10-31,389100.0
1999-09-30,386300.0
1999-08-31,383700.0
1999-07-31,379600.0
1999-06-30,375400.0
1999-05-31,370000.0
1999-04-30,366700.0
1999-03-31,364700.0
1999-02-28,362700.0
1999-01-31,361200.0
1998-12-31,360600.0
1998-11-30,358700.0
1998-10-31,356700.0
1998-09-30,357200.0
1998-08-31,356100.0
1998-07-31,350400.0
1998-06-30,343700.0
1998-05-31,340000.0
1998-04-30,338300.0
1998-03-31,335300.0
1998-02-28,331500.0
1998-01-31,325300.0
1997-12-31,319900.0
1997-11-30,316000.0
1997-10-31,314200.0
1997-09-30,310600.0
1997-08-31,305700.0
1997-07-31,300200.0
1997-06-30,295300.0
1997-05-31,291700.0
1997-04-30,288300.0
1997-03-31,285800.0
1997-02-28,284000.0
1997-01-31,283100.0
1996-12-31,281100.0
1996-11-30,279300.0
1996-10-31,278100.0
1996-09-30,275900.0
1996-08-31,273700.0
1996-07-31,272600.0
1996-06-30,272700.0
1996-05-31,273900.0
1996-04-30,276100.0
