Date,Value
2015-09-30,700100.0
2015-08-31,689500.0
2015-07-31,675100.0
2015-06-30,673900.0
2015-05-31,665600.0
2015-04-30,653500.0
2015-03-31,647600.0
2015-02-28,647400.0
2015-01-31,641600.0
2014-12-31,639400.0
2014-11-30,635900.0
2014-10-31,634400.0
2014-09-30,634000.0
2014-08-31,631000.0
2014-07-31,628100.0
2014-06-30,629000.0
2014-05-31,629000.0
2014-04-30,626500.0
2014-03-31,624700.0
2014-02-28,624300.0
2014-01-31,624900.0
2013-12-31,627100.0
2013-11-30,627600.0
2013-10-31,626000.0
2013-09-30,622100.0
2013-08-31,614800.0
2013-07-31,603000.0
2013-06-30,588000.0
2013-05-31,573300.0
2013-04-30,561300.0
2013-03-31,552500.0
2013-02-28,544100.0
2013-01-31,535900.0
2012-12-31,529800.0
2012-11-30,525900.0
2012-10-31,521600.0
2012-09-30,520000.0
2012-08-31,520500.0
2012-07-31,516500.0
2012-06-30,510400.0
2012-05-31,505800.0
2012-04-30,503500.0
2012-03-31,500900.0
2012-02-29,498300.0
2012-01-31,496400.0
2011-12-31,494900.0
2011-11-30,491000.0
2011-10-31,485600.0
2011-09-30,482900.0
2011-08-31,483500.0
2011-07-31,486200.0
2011-06-30,489700.0
2011-05-31,492600.0
2011-04-30,494300.0
2011-03-31,496000.0
2011-02-28,497800.0
2011-01-31,501800.0
2010-12-31,506800.0
2010-11-30,511900.0
2010-10-31,518800.0
2010-09-30,526600.0
2010-08-31,532000.0
2010-07-31,537100.0
2010-06-30,541400.0
2010-05-31,542500.0
2010-04-30,542500.0
2010-03-31,541700.0
2010-02-28,539700.0
2010-01-31,535700.0
2009-12-31,531700.0
2009-11-30,528600.0
2009-10-31,525700.0
2009-09-30,523800.0
2009-08-31,524900.0
2009-07-31,527000.0
2009-06-30,530200.0
2009-05-31,536400.0
2009-04-30,546500.0
2009-03-31,558100.0
2009-02-28,565400.0
2009-01-31,567100.0
2008-12-31,569200.0
2008-11-30,572500.0
2008-10-31,573800.0
2008-09-30,573100.0
2008-08-31,575000.0
2008-07-31,579700.0
2008-06-30,583900.0
2008-05-31,589500.0
2008-04-30,596300.0
2008-03-31,603300.0
2008-02-29,610800.0
2008-01-31,618100.0
2007-12-31,622900.0
2007-11-30,627900.0
2007-10-31,630400.0
2007-09-30,630200.0
2007-08-31,630900.0
2007-07-31,637700.0
2007-06-30,644900.0
2007-05-31,646900.0
2007-04-30,642600.0
2007-03-31,633400.0
2007-02-28,622400.0
2007-01-31,615000.0
2006-12-31,612700.0
2006-11-30,611400.0
2006-10-31,612500.0
2006-09-30,615700.0
2006-08-31,615400.0
2006-07-31,606200.0
2006-06-30,593100.0
2006-05-31,582100.0
2006-04-30,576200.0
2006-03-31,574400.0
2006-02-28,574200.0
2006-01-31,572200.0
2005-12-31,567200.0
2005-11-30,561700.0
2005-10-31,554900.0
2005-09-30,544900.0
2005-08-31,533300.0
2005-07-31,522600.0
2005-06-30,514600.0
2005-05-31,508700.0
2005-04-30,500400.0
2005-03-31,491100.0
2005-02-28,487100.0
2005-01-31,486400.0
2004-12-31,482100.0
2004-11-30,475300.0
2004-10-31,470100.0
2004-09-30,465400.0
2004-08-31,458900.0
2004-07-31,453000.0
2004-06-30,451000.0
2004-05-31,450600.0
2004-04-30,449200.0
2004-03-31,445200.0
2004-02-29,439000.0
2004-01-31,432700.0
2003-12-31,427700.0
2003-11-30,423300.0
2003-10-31,420500.0
2003-09-30,420200.0
2003-08-31,419900.0
2003-07-31,417600.0
2003-06-30,414000.0
2003-05-31,408800.0
2003-04-30,403300.0
2003-03-31,399500.0
2003-02-28,395400.0
2003-01-31,390100.0
2002-12-31,386300.0
2002-11-30,384900.0
2002-10-31,383700.0
2002-09-30,381400.0
2002-08-31,378800.0
2002-07-31,378600.0
2002-06-30,379700.0
2002-05-31,378000.0
2002-04-30,375700.0
2002-03-31,373600.0
2002-02-28,371600.0
2002-01-31,370500.0
2001-12-31,372200.0
2001-11-30,373600.0
2001-10-31,372700.0
2001-09-30,371500.0
2001-08-31,372000.0
2001-07-31,372500.0
2001-06-30,371000.0
2001-05-31,370900.0
2001-04-30,372200.0
2001-03-31,373900.0
2001-02-28,374500.0
2001-01-31,372700.0
2000-12-31,369300.0
2000-11-30,367300.0
2000-10-31,365700.0
2000-09-30,363200.0
2000-08-31,361000.0
2000-07-31,360000.0
2000-06-30,360000.0
2000-05-31,359600.0
2000-04-30,357400.0
2000-03-31,354600.0
2000-02-29,352600.0
2000-01-31,351900.0
1999-12-31,349300.0
1999-11-30,343900.0
1999-10-31,337100.0
1999-09-30,332100.0
1999-08-31,330100.0
1999-07-31,327400.0
1999-06-30,321300.0
1999-05-31,314100.0
1999-04-30,308300.0
1999-03-31,303800.0
1999-02-28,300700.0
1999-01-31,297800.0
1998-12-31,294200.0
1998-11-30,291200.0
1998-10-31,289900.0
1998-09-30,288100.0
1998-08-31,283800.0
1998-07-31,279100.0
1998-06-30,275700.0
1998-05-31,273100.0
1998-04-30,270900.0
1998-03-31,268300.0
1998-02-28,266700.0
1998-01-31,266400.0
1997-12-31,266500.0
1997-11-30,265200.0
1997-10-31,263600.0
1997-09-30,261900.0
1997-08-31,259700.0
1997-07-31,256100.0
1997-06-30,251000.0
1997-05-31,246200.0
1997-04-30,243400.0
1997-03-31,241800.0
1997-02-28,239000.0
1997-01-31,235100.0
1996-12-31,231500.0
1996-11-30,229000.0
1996-10-31,227200.0
1996-09-30,226500.0
1996-08-31,226600.0
1996-07-31,226600.0
1996-06-30,227600.0
1996-05-31,230000.0
1996-04-30,231900.0
