Date,Value
2015-09-30,309600.0
2015-08-31,307600.0
2015-07-31,304000.0
2015-06-30,303800.0
2015-05-31,301600.0
2015-04-30,299200.0
2015-03-31,297400.0
2015-02-28,296900.0
2015-01-31,294100.0
2014-12-31,293100.0
2014-11-30,292600.0
2014-10-31,292600.0
2014-09-30,292300.0
2014-08-31,291600.0
2014-07-31,290600.0
2014-06-30,289100.0
2014-05-31,287500.0
2014-04-30,286100.0
2014-03-31,285500.0
2014-02-28,285600.0
2014-01-31,285000.0
2013-12-31,283300.0
2013-11-30,281100.0
2013-10-31,279600.0
2013-09-30,278400.0
2013-08-31,276200.0
2013-07-31,273100.0
2013-06-30,269300.0
2013-05-31,265500.0
2013-04-30,261400.0
2013-03-31,257700.0
2013-02-28,254900.0
2013-01-31,252500.0
2012-12-31,249800.0
2012-11-30,247000.0
2012-10-31,244600.0
2012-09-30,242000.0
2012-08-31,240000.0
2012-07-31,238300.0
2012-06-30,236100.0
2012-05-31,233100.0
2012-04-30,230400.0
2012-03-31,228700.0
2012-02-29,227700.0
2012-01-31,227100.0
2011-12-31,227000.0
2011-11-30,227600.0
2011-10-31,228100.0
2011-09-30,229200.0
2011-08-31,230600.0
2011-07-31,232900.0
2011-06-30,236000.0
2011-05-31,239800.0
2011-04-30,243200.0
2011-03-31,245800.0
2011-02-28,246900.0
2011-01-31,247800.0
2010-12-31,249700.0
2010-11-30,251400.0
2010-10-31,252300.0
2010-09-30,253100.0
2010-08-31,254300.0
2010-07-31,255900.0
2010-06-30,257300.0
2010-05-31,258300.0
2010-04-30,258600.0
2010-03-31,258500.0
2010-02-28,258500.0
2010-01-31,258500.0
2009-12-31,257100.0
2009-11-30,254100.0
2009-10-31,251500.0
2009-09-30,249800.0
2009-08-31,248700.0
2009-07-31,247500.0
2009-06-30,246500.0
2009-05-31,247300.0
2009-04-30,250300.0
2009-03-31,254800.0
2009-02-28,259600.0
2009-01-31,264500.0
2008-12-31,270000.0
2008-11-30,276100.0
2008-10-31,281200.0
2008-09-30,285200.0
2008-08-31,288900.0
2008-07-31,292800.0
2008-06-30,296400.0
2008-05-31,299900.0
2008-04-30,303000.0
2008-03-31,304800.0
2008-02-29,305500.0
2008-01-31,306500.0
2007-12-31,308700.0
2007-11-30,311400.0
2007-10-31,314700.0
2007-09-30,317400.0
2007-08-31,318900.0
2007-07-31,319900.0
2007-06-30,321800.0
2007-05-31,323200.0
2007-04-30,323300.0
2007-03-31,324000.0
2007-02-28,325500.0
2007-01-31,326700.0
2006-12-31,327100.0
2006-11-30,326600.0
2006-10-31,325500.0
2006-09-30,324900.0
2006-08-31,324800.0
2006-07-31,324500.0
2006-06-30,323200.0
2006-05-31,321400.0
2006-04-30,319200.0
2006-03-31,315800.0
2006-02-28,311900.0
2006-01-31,308400.0
2005-12-31,305100.0
2005-11-30,301800.0
2005-10-31,298700.0
2005-09-30,295400.0
2005-08-31,291600.0
2005-07-31,287200.0
2005-06-30,282900.0
2005-05-31,278600.0
2005-04-30,274100.0
2005-03-31,269400.0
2005-02-28,264900.0
2005-01-31,260200.0
2004-12-31,255800.0
2004-11-30,251900.0
2004-10-31,248000.0
2004-09-30,243600.0
2004-08-31,239300.0
2004-07-31,235400.0
2004-06-30,231700.0
2004-05-31,228400.0
2004-04-30,225900.0
2004-03-31,223600.0
2004-02-29,221400.0
2004-01-31,219600.0
2003-12-31,217900.0
2003-11-30,216600.0
2003-10-31,215400.0
2003-09-30,214100.0
2003-08-31,213100.0
2003-07-31,211800.0
2003-06-30,209800.0
2003-05-31,208100.0
2003-04-30,206900.0
2003-03-31,205600.0
2003-02-28,204800.0
2003-01-31,204100.0
2002-12-31,202700.0
2002-11-30,200900.0
2002-10-31,199500.0
2002-09-30,198200.0
2002-08-31,196100.0
2002-07-31,194400.0
2002-06-30,193800.0
2002-05-31,193500.0
2002-04-30,193000.0
2002-03-31,193100.0
2002-02-28,192600.0
2002-01-31,191400.0
2001-12-31,190500.0
2001-11-30,189900.0
2001-10-31,189300.0
2001-09-30,189400.0
2001-08-31,190200.0
2001-07-31,190700.0
2001-06-30,191000.0
2001-05-31,190800.0
2001-04-30,189900.0
2001-03-31,189100.0
2001-02-28,188900.0
2001-01-31,188500.0
2000-12-31,187900.0
2000-11-30,187300.0
2000-10-31,187000.0
2000-09-30,186900.0
2000-08-31,187300.0
2000-07-31,188300.0
2000-06-30,189100.0
2000-05-31,188500.0
2000-04-30,187200.0
2000-03-31,186300.0
2000-02-29,186000.0
2000-01-31,185300.0
1999-12-31,184800.0
1999-11-30,185700.0
1999-10-31,187400.0
1999-09-30,188700.0
1999-08-31,189700.0
1999-07-31,190200.0
1999-06-30,189800.0
1999-05-31,188900.0
1999-04-30,188200.0
1999-03-31,187600.0
1999-02-28,187000.0
1999-01-31,186700.0
1998-12-31,186500.0
1998-11-30,185100.0
1998-10-31,182400.0
1998-09-30,180900.0
1998-08-31,181200.0
1998-07-31,181800.0
1998-06-30,182600.0
1998-05-31,183900.0
1998-04-30,185800.0
1998-03-31,188100.0
1998-02-28,189500.0
1998-01-31,189700.0
1997-12-31,189000.0
1997-11-30,187900.0
1997-10-31,186900.0
1997-09-30,185700.0
1997-08-31,183300.0
1997-07-31,180400.0
1997-06-30,178100.0
1997-05-31,176800.0
1997-04-30,176400.0
1997-03-31,175400.0
1997-02-28,173600.0
1997-01-31,172100.0
1996-12-31,171500.0
1996-11-30,171000.0
1996-10-31,170700.0
1996-09-30,169900.0
1996-08-31,168700.0
1996-07-31,167500.0
1996-06-30,167000.0
1996-05-31,167300.0
1996-04-30,167000.0
