Date,Value
2015-09-30,1.438
2015-08-31,1.43
2015-07-31,1.422
2015-06-30,1.408
2015-05-31,1.396
2015-04-30,1.386
2015-03-31,1.382
2015-02-28,1.378
2015-01-31,1.372
2014-12-31,1.368
2014-11-30,1.366
2014-10-31,1.364
2014-09-30,1.362
2014-08-31,1.354
2014-07-31,1.342
2014-06-30,1.328
2014-05-31,1.318
2014-04-30,1.306
2014-03-31,1.298
2014-02-28,1.294
2014-01-31,1.29
2013-12-31,1.29
2013-11-30,1.288
2013-10-31,1.28
2013-09-30,1.27
2013-08-31,1.258
2013-07-31,1.248
2013-06-30,1.244
2013-05-31,1.244
2013-04-30,1.244
2013-03-31,1.234
2013-02-28,1.224
2013-01-31,1.214
2012-12-31,1.204
2012-11-30,1.196
2012-10-31,1.188
2012-09-30,1.186
2012-08-31,1.182
2012-07-31,1.182
2012-06-30,1.182
2012-05-31,1.176
2012-04-30,1.168
2012-03-31,1.162
2012-02-29,1.164
2012-01-31,1.162
2011-12-31,1.156
2011-11-30,1.15
2011-10-31,1.136
2011-09-30,1.13
2011-08-31,1.13
2011-07-31,1.132
2011-06-30,1.128
2011-05-31,1.124
2011-04-30,1.124
2011-03-31,1.126
2011-02-28,1.118
2011-01-31,1.114
2010-12-31,1.106
2010-11-30,1.1
