Date,Value
2013-06-30,269000.0
2012-07-31,185000.0
2012-06-30,188500.0
2012-04-30,192000.0
2012-03-31,192000.0
2012-02-29,192000.0
2012-01-31,199900.0
2011-12-31,199900.0
2011-11-30,199900.0
2011-04-30,217900.0
2011-03-31,247000.0
2011-02-28,247000.0
2011-01-31,240000.0
2010-12-31,240000.0
2010-11-30,240000.0
2010-10-31,250000.0
2010-09-30,275000.0
2010-08-31,275000.0
2009-11-30,264900.0
2009-10-31,264900.0
2009-09-30,264900.0
2009-08-31,259900.0
2009-07-31,259900.0
2009-06-30,289900.0
2009-05-31,289900.0
2009-04-30,289900.0
2009-03-31,289900.0
2009-02-28,299900.0
2009-01-31,309900.0
2008-12-31,324900.0
2008-11-30,309900.0
2008-10-31,309900.0
