Date,Value
2015-09-30,160100.0
2015-08-31,156900.0
2015-07-31,152700.0
2015-06-30,152000.0
2015-05-31,150000.0
2015-04-30,148700.0
2015-03-31,148600.0
2015-02-28,149600.0
2015-01-31,148000.0
2014-12-31,146000.0
2014-11-30,143700.0
2014-10-31,142300.0
2014-09-30,141900.0
2014-08-31,142500.0
2014-07-31,142500.0
2014-06-30,141300.0
2014-05-31,139100.0
2014-04-30,138000.0
2014-03-31,137300.0
2014-02-28,136100.0
2014-01-31,134000.0
2013-12-31,131800.0
2013-11-30,129800.0
2013-10-31,128300.0
2013-09-30,127000.0
2013-08-31,125000.0
2013-07-31,123000.0
2013-06-30,122400.0
2013-05-31,121800.0
2013-04-30,119900.0
2013-03-31,117600.0
2013-02-28,115900.0
2013-01-31,114000.0
2012-12-31,112100.0
2012-11-30,110200.0
2012-10-31,108600.0
2012-09-30,107100.0
2012-08-31,105700.0
2012-07-31,104000.0
2012-06-30,102500.0
2012-05-31,102200.0
2012-04-30,101600.0
2012-03-31,100200.0
2012-02-29,98800.0
2012-01-31,98300.0
2011-12-31,97800.0
2011-11-30,97500.0
2011-10-31,96600.0
2011-09-30,95900.0
2011-08-31,97600.0
2011-07-31,101700.0
2011-06-30,104600.0
2011-05-31,107000.0
2011-04-30,110700.0
2011-03-31,115200.0
2011-02-28,119800.0
2011-01-31,124200.0
2010-12-31,128000.0
2010-11-30,132300.0
2010-10-31,137200.0
2010-09-30,141300.0
2010-08-31,143100.0
2010-07-31,144500.0
2010-06-30,147100.0
2010-05-31,149400.0
2010-04-30,150600.0
2010-03-31,152200.0
2010-02-28,152700.0
2010-01-31,152800.0
2009-12-31,154000.0
2009-11-30,155800.0
2009-10-31,156100.0
2009-09-30,155900.0
2009-08-31,155000.0
2009-07-31,154300.0
2009-06-30,153900.0
2009-05-31,153800.0
2009-04-30,154300.0
2009-03-31,154600.0
2009-02-28,155200.0
2009-01-31,156700.0
2008-12-31,159000.0
2008-11-30,161100.0
2008-10-31,163400.0
2008-09-30,166000.0
2008-08-31,168300.0
2008-07-31,169500.0
2008-06-30,170900.0
2008-05-31,172700.0
2008-04-30,174500.0
2008-03-31,175900.0
2008-02-29,177600.0
2008-01-31,179200.0
2007-12-31,180300.0
2007-11-30,180800.0
2007-10-31,181400.0
2007-09-30,182000.0
2007-08-31,182600.0
2007-07-31,183100.0
2007-06-30,183300.0
2007-05-31,183500.0
2007-04-30,183900.0
2007-03-31,184400.0
2007-02-28,185000.0
2007-01-31,185300.0
2006-12-31,185400.0
2006-11-30,185500.0
2006-10-31,185800.0
2006-09-30,186500.0
2006-08-31,188000.0
2006-07-31,189400.0
2006-06-30,189700.0
2006-05-31,188900.0
2006-04-30,188000.0
2006-03-31,187100.0
2006-02-28,185700.0
2006-01-31,183700.0
2005-12-31,181900.0
2005-11-30,179900.0
2005-10-31,177500.0
2005-09-30,174500.0
2005-08-31,170700.0
2005-07-31,166000.0
2005-06-30,161900.0
2005-05-31,158500.0
2005-04-30,154800.0
2005-03-31,151500.0
2005-02-28,149200.0
2005-01-31,147700.0
2004-12-31,146000.0
2004-11-30,144400.0
2004-10-31,142900.0
2004-09-30,141500.0
2004-08-31,140000.0
2004-07-31,139100.0
2004-06-30,138500.0
2004-05-31,137700.0
2004-04-30,136800.0
2004-03-31,135900.0
2004-02-29,134600.0
2004-01-31,132800.0
2003-12-31,131100.0
2003-11-30,129600.0
2003-10-31,127700.0
2003-09-30,125400.0
2003-08-31,123800.0
2003-07-31,123100.0
2003-06-30,122300.0
2003-05-31,121400.0
2003-04-30,121300.0
2003-03-31,121600.0
2003-02-28,121000.0
2003-01-31,120100.0
2002-12-31,119800.0
2002-11-30,120200.0
2002-10-31,120200.0
2002-09-30,120100.0
2002-08-31,119900.0
2002-07-31,120200.0
2002-06-30,120700.0
2002-05-31,121000.0
2002-04-30,120400.0
2002-03-31,118800.0
2002-02-28,118600.0
2002-01-31,119600.0
2001-12-31,119400.0
2001-11-30,118100.0
2001-10-31,118100.0
2001-09-30,118800.0
2001-08-31,119500.0
2001-07-31,119300.0
2001-06-30,118700.0
2001-05-31,118500.0
2001-04-30,119000.0
2001-03-31,120100.0
2001-02-28,120000.0
2001-01-31,119100.0
2000-12-31,118900.0
2000-11-30,118500.0
2000-10-31,117700.0
2000-09-30,118400.0
2000-08-31,119400.0
2000-07-31,119300.0
2000-06-30,118800.0
2000-05-31,117800.0
2000-04-30,116300.0
2000-03-31,115800.0
2000-02-29,115800.0
2000-01-31,115100.0
1999-12-31,114300.0
1999-11-30,114100.0
1999-10-31,114400.0
1999-09-30,114700.0
1999-08-31,115200.0
1999-07-31,115300.0
1999-06-30,115700.0
1999-05-31,116700.0
1999-04-30,115800.0
1999-03-31,113900.0
1999-02-28,112000.0
1999-01-31,110600.0
1998-12-31,110300.0
1998-11-30,110600.0
1998-10-31,109200.0
1998-09-30,107100.0
1998-08-31,105500.0
1998-07-31,104300.0
1998-06-30,103000.0
1998-05-31,103100.0
1998-04-30,104500.0
1998-03-31,106000.0
1998-02-28,106100.0
1998-01-31,106600.0
1997-12-31,107400.0
1997-11-30,108300.0
1997-10-31,109100.0
1997-09-30,109200.0
1997-08-31,108600.0
1997-07-31,109400.0
1997-06-30,111000.0
1997-05-31,112100.0
1997-04-30,113200.0
1997-03-31,114000.0
1997-02-28,114300.0
1997-01-31,113700.0
1996-12-31,111200.0
1996-11-30,109000.0
1996-10-31,108800.0
1996-09-30,108900.0
1996-08-31,107800.0
1996-07-31,105700.0
1996-06-30,103000.0
1996-05-31,100200.0
1996-04-30,97400.0
