Date,Value
2015-02-28,305000.0
2015-01-31,299000.0
2014-12-31,300000.0
2014-11-30,259950.0
2014-10-31,259950.0
2014-09-30,269000.0
2014-08-31,249950.0
2014-07-31,259900.0
2014-06-30,249000.0
2014-05-31,239950.0
2014-04-30,239950.0
2014-03-31,189950.0
2014-02-28,180000.0
2014-01-31,185000.0
2013-12-31,190000.0
2013-11-30,190000.0
2013-10-31,239000.0
2013-09-30,219950.0
2013-08-31,209900.0
2013-07-31,219950.0
2013-06-30,239500.0
2013-05-31,195950.0
2013-04-30,165000.0
2013-03-31,169990.0
2013-02-28,189000.0
2013-01-31,155000.0
2012-12-31,180000.0
