Date,Value
2015-09-30,1.822
2015-08-31,1.832
2015-07-31,1.82
2015-06-30,1.82
2015-05-31,1.814
2015-04-30,1.802
2015-03-31,1.786
2015-02-28,1.764
2015-01-31,1.738
2014-12-31,1.718
2014-11-30,1.702
2014-10-31,1.704
2014-09-30,1.706
2014-08-31,1.698
2014-07-31,1.68
2014-06-30,1.66
2014-05-31,1.644
2014-04-30,1.632
2014-03-31,1.608
2014-02-28,1.59
2014-01-31,1.572
2013-12-31,1.564
2013-11-30,1.558
2013-10-31,1.556
2013-09-30,1.548
2013-08-31,1.534
2013-07-31,1.524
2013-06-30,1.528
2013-05-31,1.536
2013-04-30,1.538
2013-03-31,1.53
2013-02-28,1.518
2013-01-31,1.508
2012-12-31,1.502
2012-11-30,1.5
2012-10-31,1.508
2012-09-30,1.508
2012-08-31,1.514
2012-07-31,1.508
2012-06-30,1.494
2012-05-31,1.47
2012-04-30,1.446
2012-03-31,1.438
2012-02-29,1.43
2012-01-31,1.418
2011-12-31,1.402
2011-11-30,1.382
2011-10-31,1.35
2011-09-30,1.318
2011-08-31,1.298
2011-07-31,1.3
2011-06-30,1.298
2011-05-31,1.298
2011-04-30,1.3
2011-03-31,1.304
2011-02-28,1.308
2011-01-31,1.306
2010-12-31,1.31
2010-11-30,1.308
