Date,Value
2015-09-30,258107.0
2015-08-31,254359.5
2015-07-31,259834.5
2015-06-30,259775.0
2015-05-31,265859.5
2015-04-30,259925.0
2015-03-31,240275.0
2015-02-28,216287.35
2015-01-31,214637.15
2014-12-31,237124.5
2014-11-30,256260.0
2014-10-31,232715.0
2014-09-30,220637.5
2014-08-31,208537.5
2014-07-31,215625.0
2014-06-30,241275.0
2014-05-31,240975.0
2014-04-30,226800.0
2014-03-31,242600.0
2014-02-28,223985.0
2014-01-31,220715.0
2013-12-31,199170.0
2013-11-30,217280.0
2013-10-31,239175.0
2013-09-30,240125.0
2013-08-31,237000.0
2013-07-31,229750.0
2013-06-30,214750.0
2013-05-31,220750.0
2013-04-30,216470.5882
2013-03-31,189607.6923
2013-01-31,200642.5
2012-12-31,217532.5
2012-11-30,219175.0
2012-10-31,215810.0
2012-09-30,194050.0
2012-08-31,208442.5
2012-07-31,192182.5
2012-06-30,210975.0
2012-05-31,207125.0
2012-04-30,220525.0
2012-03-31,224900.0
2012-02-29,194600.0
2012-01-31,171600.0
2011-12-31,198550.0
2011-11-30,198725.0
2011-10-31,207400.0
2011-09-30,199900.0
2011-08-31,210500.0
2011-07-31,211150.0
2011-06-30,189950.0
2011-05-31,200150.0
2011-04-30,217105.0
2011-03-31,223845.0
2011-02-28,224325.0
2011-01-31,221025.0
2010-12-31,232250.0
2010-11-30,238100.0
2010-10-31,230300.0
2010-09-30,224150.0
2010-08-31,246975.0
2010-07-31,253967.5
2010-06-30,225825.0
2010-05-31,230657.5
2010-04-30,239625.0
2010-03-31,232325.0
2010-02-28,248217.5
2009-12-31,214475.0
2009-11-30,221100.0
2009-10-31,233150.0
2009-09-30,233750.0
2009-08-31,256250.0
2009-07-31,256950.0
2009-06-30,260550.0
2009-05-31,246100.0
2009-04-30,252400.0
2009-03-31,246092.5
2009-02-28,262508.8235
2009-01-31,259423.0769
2008-11-30,245350.0
2008-10-31,233585.0
2008-09-30,244090.0
2008-08-31,255575.0
2008-07-31,263000.0
2008-06-30,271100.0
2008-05-31,279400.0
2008-04-30,292500.0
2008-03-31,290600.0
2008-02-29,275050.0
2008-01-31,270550.0
2007-12-31,259047.0
2007-11-30,256443.0
2007-10-31,267990.0
2007-09-30,287970.75
2007-08-31,290981.75
2007-07-31,287902.5
2007-06-30,280800.0
2007-05-31,276675.0
2007-04-30,262525.0
2007-03-31,264050.0
2007-02-28,263000.0
2007-01-31,273150.0
2006-12-31,270300.0
2006-11-30,279250.0
2006-10-31,266750.0
2006-09-30,283250.0
2006-08-31,276500.0
2006-07-31,265675.0
2006-06-30,250775.0
2006-05-31,255550.0
2006-04-30,255500.0
2006-03-31,237067.5
2006-02-28,234632.5
2006-01-31,227750.0
2005-12-31,237250.0
2005-11-30,253350.0
2005-10-31,259142.5
2005-09-30,259982.5
2005-08-31,264225.0
2005-07-31,243742.5
2005-06-30,234282.5
2005-05-31,220417.5
2005-04-30,217982.5
2005-03-31,209975.0
2005-02-28,220500.0
2005-01-31,208500.0
2004-12-31,192362.5
2004-11-30,192762.5
2004-10-31,201725.0
2004-09-30,202250.0
2004-08-31,208850.0
2004-07-31,211300.0
2004-06-30,219000.0
2004-05-31,191992.5
2004-04-30,184982.5
2004-03-31,178275.0
2004-02-29,183037.5
2004-01-31,185962.5
2003-12-31,173675.0
2003-11-30,171520.0
2003-10-31,177705.0
2003-09-30,183300.0
2003-08-31,184300.0
2003-07-31,173992.5
2003-06-30,178475.0
2003-05-31,175557.5
2003-04-30,171705.0
2003-03-31,172470.0
2003-02-28,170850.0
2003-01-31,172600.0
2002-12-31,175642.5
2002-11-30,172782.5
2002-10-31,160325.0
2002-09-30,163450.0
2002-08-31,166700.0
2002-07-31,163000.0
2002-06-30,162400.0
2002-05-31,158600.0
2002-04-30,166050.0
2002-03-31,163500.0
2002-02-28,160075.0
2002-01-31,164610.0
2001-12-31,169931.65
2001-11-30,162038.85
2001-10-31,163655.5
2001-09-30,160575.0
2001-08-31,165300.0
2001-07-31,163375.0
2001-06-30,167878.4
2001-05-31,166461.3
2001-04-30,160697.8
2001-03-31,154226.4
2001-02-28,158203.1
2001-01-31,159675.5
2000-12-31,157158.85
2000-11-30,166182.5
2000-10-31,169139.65
2000-09-30,159828.25
2000-08-31,151695.85
2000-07-31,149482.4
2000-06-30,154847.0
2000-05-31,153875.0
2000-04-30,153971.2
2000-03-31,141874.4
2000-02-29,142859.4
2000-01-31,139322.0
1999-12-31,139250.0
1999-11-30,136095.0
1999-10-31,141261.75
1999-09-30,139065.75
1999-08-31,138580.4
1999-07-31,144903.15
1999-06-30,144718.45
1999-05-31,148278.5
1999-04-30,143090.0
1999-03-31,132275.0
1999-02-28,133800.0
1999-01-31,129957.4
1998-12-31,131550.6
1998-11-30,130026.5
1998-10-31,137373.15
1998-09-30,139048.85
1998-08-31,142135.5
1998-07-31,135704.3
1998-06-30,139744.8
1998-05-31,136224.7
1998-04-30,132170.4
1998-03-31,127537.0
1998-02-28,124203.8
1998-01-31,129561.05
1997-12-31,130426.45
1997-11-30,125748.5
1997-10-31,128050.0
1997-09-30,131250.0
1997-08-31,128532.7
1997-07-31,124636.3
1997-06-30,128849.0
1997-05-31,127975.0
1997-04-30,127450.0
1997-03-31,128750.0
1997-02-28,122050.0
1997-01-31,110800.0
1996-12-31,107642.5
1996-11-30,101922.5
1996-10-31,106270.0
1996-08-31,117942.5
1996-07-31,118432.5
1996-06-30,117450.0
1996-05-31,115075.0
1996-04-30,110175.0
