Date,Value
2015-09-30,760500.0
2015-08-31,750800.0
2015-07-31,741200.0
2015-06-30,748600.0
2015-05-31,748800.0
2015-04-30,743900.0
2015-03-31,733200.0
2015-02-28,723400.0
2015-01-31,712200.0
2014-12-31,705700.0
2014-11-30,698300.0
2014-10-31,694600.0
2014-09-30,691600.0
2014-08-31,686800.0
2014-07-31,679500.0
2014-06-30,672200.0
2014-05-31,667300.0
2014-04-30,664800.0
2014-03-31,662300.0
2014-02-28,659700.0
2014-01-31,657700.0
2013-12-31,654500.0
2013-11-30,653200.0
2013-10-31,650600.0
2013-09-30,647000.0
2013-08-31,643600.0
2013-07-31,641400.0
2013-06-30,638600.0
2013-05-31,635200.0
2013-04-30,627800.0
2013-03-31,619600.0
2013-02-28,612100.0
2013-01-31,605100.0
2012-12-31,599900.0
2012-11-30,595000.0
2012-10-31,587800.0
2012-09-30,583400.0
2012-08-31,582800.0
2012-07-31,580400.0
2012-06-30,574700.0
2012-05-31,568400.0
2012-04-30,563300.0
2012-03-31,558400.0
2012-02-29,555000.0
2012-01-31,553700.0
2011-12-31,555300.0
2011-11-30,557600.0
2011-10-31,559700.0
2011-09-30,559700.0
2011-08-31,559200.0
2011-07-31,559800.0
2011-06-30,563000.0
2011-05-31,566400.0
2011-04-30,568900.0
2011-03-31,569800.0
2011-02-28,569700.0
2011-01-31,571100.0
2010-12-31,573700.0
2010-11-30,573600.0
2010-10-31,570200.0
2010-09-30,565100.0
2010-08-31,560800.0
2010-07-31,560600.0
2010-06-30,563600.0
2010-05-31,564800.0
2010-04-30,564000.0
2010-03-31,567900.0
2010-02-28,573900.0
2010-01-31,575100.0
2009-12-31,572000.0
2009-11-30,568300.0
2009-10-31,563600.0
2009-09-30,560300.0
2009-08-31,559700.0
2009-07-31,559900.0
2009-06-30,561500.0
2009-05-31,564700.0
2009-04-30,569700.0
2009-03-31,577200.0
2009-02-28,584200.0
2009-01-31,587900.0
2008-12-31,589800.0
2008-11-30,594100.0
2008-10-31,601600.0
2008-09-30,608700.0
2008-08-31,614300.0
2008-07-31,618900.0
2008-06-30,622500.0
2008-05-31,629500.0
2008-04-30,638800.0
2008-03-31,642100.0
2008-02-29,639800.0
2008-01-31,639700.0
2007-12-31,642800.0
2007-11-30,646500.0
2007-10-31,648800.0
2007-09-30,651400.0
2007-08-31,653800.0
2007-07-31,654800.0
2007-06-30,654700.0
2007-05-31,655400.0
2007-04-30,655500.0
2007-03-31,654500.0
2007-02-28,653100.0
2007-01-31,650800.0
2006-12-31,646500.0
2006-11-30,644200.0
2006-10-31,644300.0
2006-09-30,644400.0
2006-08-31,641800.0
2006-07-31,639200.0
2006-06-30,636500.0
2006-05-31,629900.0
2006-04-30,620600.0
2006-03-31,613500.0
2006-02-28,608700.0
2006-01-31,603700.0
2005-12-31,598500.0
2005-11-30,591900.0
2005-10-31,584500.0
2005-09-30,575600.0
2005-08-31,566300.0
2005-07-31,557800.0
2005-06-30,548600.0
2005-05-31,537500.0
2005-04-30,526900.0
2005-03-31,516400.0
2005-02-28,507000.0
2005-01-31,500700.0
2004-12-31,495500.0
2004-11-30,487200.0
2004-10-31,479200.0
2004-09-30,473200.0
2004-08-31,468200.0
2004-07-31,462800.0
2004-06-30,459100.0
2004-05-31,457300.0
2004-04-30,455400.0
2004-03-31,453600.0
2004-02-29,452500.0
2004-01-31,449200.0
2003-12-31,444800.0
2003-11-30,442500.0
2003-10-31,441100.0
2003-09-30,439400.0
2003-08-31,437400.0
2003-07-31,436000.0
2003-06-30,432800.0
2003-05-31,428700.0
2003-04-30,426400.0
2003-03-31,423400.0
2003-02-28,417400.0
2003-01-31,413600.0
2002-12-31,413700.0
2002-11-30,413800.0
2002-10-31,413300.0
2002-09-30,412400.0
2002-08-31,412400.0
2002-07-31,411800.0
2002-06-30,411500.0
2002-05-31,410900.0
2002-04-30,407700.0
2002-03-31,404200.0
2002-02-28,402300.0
2002-01-31,401500.0
2001-12-31,400800.0
2001-11-30,401200.0
2001-10-31,399400.0
2001-09-30,398200.0
2001-08-31,397000.0
2001-07-31,395300.0
2001-06-30,392700.0
2001-05-31,392000.0
2001-04-30,391700.0
2001-03-31,391800.0
2001-02-28,391300.0
2001-01-31,389800.0
2000-12-31,387600.0
2000-11-30,386300.0
2000-10-31,386200.0
2000-09-30,387100.0
2000-08-31,387100.0
2000-07-31,385000.0
2000-06-30,381900.0
2000-05-31,378300.0
2000-04-30,375600.0
2000-03-31,373700.0
2000-02-29,370300.0
2000-01-31,365300.0
1999-12-31,359600.0
1999-11-30,353600.0
1999-10-31,347100.0
1999-09-30,341200.0
1999-08-31,338000.0
1999-07-31,336200.0
1999-06-30,333300.0
1999-05-31,329100.0
1999-04-30,325300.0
1999-03-31,322600.0
1999-02-28,321100.0
1999-01-31,318500.0
1998-12-31,314400.0
1998-11-30,310400.0
1998-10-31,308500.0
1998-09-30,305000.0
1998-08-31,298400.0
1998-07-31,290800.0
1998-06-30,284200.0
1998-05-31,278600.0
1998-04-30,273900.0
1998-03-31,269200.0
1998-02-28,265700.0
1998-01-31,263400.0
1997-12-31,260900.0
1997-11-30,257900.0
1997-10-31,255400.0
1997-09-30,252700.0
1997-08-31,248900.0
1997-07-31,244500.0
1997-06-30,240200.0
1997-05-31,236000.0
1997-04-30,231900.0
1997-03-31,228300.0
1997-02-28,226200.0
1997-01-31,224900.0
1996-12-31,223100.0
1996-11-30,220400.0
1996-10-31,217400.0
1996-09-30,214300.0
1996-08-31,212000.0
1996-07-31,211300.0
1996-06-30,212700.0
1996-05-31,215100.0
1996-04-30,216800.0
