Date,Value
2015-02-28,324000.0
2015-01-31,309900.0
2014-12-31,309900.0
2014-11-30,294900.0
2014-10-31,282500.0
2014-09-30,309900.0
2014-08-31,314900.0
2014-07-31,324999.0
2014-06-30,324999.0
2014-05-31,299900.0
2014-04-30,299900.0
2014-03-31,303000.0
2014-02-28,335500.0
2014-01-31,303000.0
2013-12-31,310000.0
2013-11-30,303000.0
2013-10-31,345000.0
2013-09-30,315000.0
2013-08-31,318850.0
2013-07-31,315000.0
2013-06-30,315000.0
2013-05-31,284000.0
2013-04-30,269000.0
2013-03-31,269000.0
2013-02-28,289900.0
2013-01-31,289900.0
2012-12-31,289900.0
2012-11-30,264900.0
2012-10-31,265000.0
2012-09-30,280000.0
2012-08-31,300000.0
2012-07-31,300000.0
2012-06-30,299999.0
2012-05-31,299999.0
2012-04-30,294990.0
2012-03-31,299999.0
2012-02-29,299999.0
2012-01-31,299900.0
2011-12-31,299000.0
2011-11-30,281900.0
2011-10-31,279900.0
2011-09-30,299000.0
2011-08-31,299900.0
2011-07-31,299000.0
2011-06-30,325000.0
2011-05-31,299000.0
2011-04-30,329900.0
2011-03-31,299950.0
2011-02-28,299950.0
2011-01-31,359900.0
2010-12-31,298950.0
2010-11-30,309000.0
2010-10-31,294000.0
2010-09-30,294000.0
2010-08-31,289000.0
2010-07-31,284900.0
2010-06-30,274900.0
2010-05-31,269900.0
2010-04-30,267800.0
2010-03-31,272000.0
2010-02-28,280000.0
2010-01-31,300000.0
2009-12-31,320000.0
2009-11-30,324900.0
2009-10-31,324900.0
2009-09-30,324900.0
2009-08-31,324900.0
2009-07-31,329000.0
2009-06-30,329900.0
2009-05-31,325000.0
2009-04-30,320000.0
2009-03-31,329000.0
2009-02-28,359900.0
2009-01-31,349999.0
2008-12-31,349999.0
2008-11-30,340000.0
2008-10-31,330000.0
