Date,Value
2015-09-30,125100.0
2015-08-31,123400.0
2015-07-31,122200.0
2015-06-30,121200.0
2015-05-31,119700.0
2015-04-30,119600.0
2015-03-31,121300.0
2015-02-28,122900.0
2015-01-31,121800.0
2014-12-31,120700.0
2014-11-30,120300.0
2014-10-31,120900.0
2014-09-30,121100.0
2014-08-31,120700.0
2014-07-31,120600.0
2014-06-30,121700.0
2014-05-31,123800.0
2014-04-30,124500.0
2014-03-31,123500.0
2014-02-28,122900.0
2014-01-31,123800.0
2013-12-31,124400.0
2013-11-30,123800.0
2013-10-31,122600.0
2013-09-30,122500.0
2013-08-31,122700.0
2013-07-31,122400.0
2013-06-30,121900.0
2013-05-31,121900.0
2013-04-30,121800.0
2013-03-31,122200.0
2013-02-28,123800.0
2013-01-31,125000.0
2012-12-31,124800.0
2012-11-30,124800.0
2012-10-31,125400.0
2012-09-30,125300.0
2012-08-31,124800.0
2012-07-31,124200.0
2012-06-30,122900.0
2012-05-31,121700.0
2012-04-30,120800.0
2012-03-31,120600.0
2012-02-29,121200.0
2012-01-31,121900.0
2011-12-31,122400.0
2011-11-30,122600.0
2011-10-31,123100.0
2011-09-30,124200.0
2011-08-31,125700.0
2011-07-31,127500.0
2011-06-30,130600.0
2011-05-31,133200.0
2011-04-30,134400.0
2011-03-31,134400.0
2011-02-28,133000.0
2011-01-31,131600.0
2010-12-31,132100.0
2010-11-30,133700.0
2010-10-31,135100.0
2010-09-30,136600.0
2010-08-31,138900.0
2010-07-31,141800.0
2010-06-30,143200.0
2010-05-31,143100.0
2010-04-30,144400.0
2010-03-31,147100.0
2010-02-28,148700.0
2010-01-31,148700.0
2009-12-31,148600.0
2009-11-30,148300.0
2009-10-31,147800.0
2009-09-30,147900.0
2009-08-31,148000.0
2009-07-31,147300.0
2009-06-30,146200.0
2009-05-31,146700.0
2009-04-30,148600.0
2009-03-31,150500.0
2009-02-28,153300.0
2009-01-31,157600.0
2008-12-31,161200.0
2008-11-30,163200.0
2008-10-31,163600.0
2008-09-30,162800.0
2008-08-31,162400.0
2008-07-31,162700.0
2008-06-30,164900.0
2008-05-31,167900.0
2008-04-30,168900.0
2008-03-31,168600.0
2008-02-29,168400.0
2008-01-31,167300.0
2007-12-31,165000.0
2007-11-30,163200.0
2007-10-31,163600.0
2007-09-30,165000.0
2007-08-31,164400.0
2007-07-31,163800.0
2007-06-30,163100.0
2007-05-31,159200.0
2007-04-30,154500.0
2007-03-31,152600.0
2007-02-28,151500.0
2007-01-31,150500.0
2006-12-31,150200.0
2006-11-30,150100.0
2006-10-31,149100.0
2006-09-30,148200.0
2006-08-31,148900.0
2006-07-31,150000.0
2006-06-30,150100.0
2006-05-31,151100.0
2006-04-30,152700.0
2006-03-31,152200.0
2006-02-28,149300.0
2006-01-31,147000.0
2005-12-31,146900.0
2005-11-30,148100.0
2005-10-31,149700.0
2005-09-30,150600.0
2005-08-31,148500.0
2005-07-31,145100.0
2005-06-30,142700.0
2005-05-31,141300.0
2005-04-30,138600.0
2005-03-31,135200.0
2005-02-28,131900.0
2005-01-31,129600.0
2004-12-31,128000.0
2004-11-30,126200.0
2004-10-31,123600.0
2004-09-30,120500.0
2004-08-31,117900.0
2004-07-31,114700.0
2004-06-30,111100.0
2004-05-31,108400.0
2004-04-30,108300.0
2004-03-31,109100.0
2004-02-29,109400.0
2004-01-31,107700.0
2003-12-31,105700.0
2003-11-30,104600.0
2003-10-31,102600.0
2003-09-30,99500.0
2003-08-31,98300.0
2003-07-31,98600.0
2003-06-30,98700.0
2003-05-31,98100.0
2003-04-30,96600.0
2003-03-31,94700.0
2003-02-28,94000.0
2003-01-31,93700.0
2002-12-31,92100.0
2002-11-30,89800.0
2002-10-31,89500.0
2002-09-30,89900.0
2002-08-31,88800.0
2002-07-31,87300.0
2002-06-30,86700.0
2002-05-31,85700.0
2002-04-30,84000.0
2002-03-31,83100.0
2002-02-28,83500.0
2002-01-31,84300.0
2001-12-31,84000.0
2001-11-30,82200.0
2001-10-31,81200.0
2001-09-30,81600.0
2001-08-31,82900.0
2001-07-31,84000.0
2001-06-30,84000.0
2001-05-31,83200.0
2001-04-30,82900.0
2001-03-31,82900.0
2001-02-28,82000.0
2001-01-31,81500.0
2000-12-31,82500.0
2000-11-30,84400.0
2000-10-31,85500.0
2000-09-30,87100.0
2000-08-31,88000.0
2000-07-31,87000.0
2000-06-30,85800.0
2000-05-31,86900.0
2000-04-30,88700.0
2000-03-31,88600.0
2000-02-29,89100.0
2000-01-31,91400.0
1999-12-31,92700.0
1999-11-30,92400.0
1999-10-31,90900.0
1999-09-30,88400.0
1999-08-31,87000.0
1999-07-31,87800.0
1999-06-30,88600.0
1999-05-31,88000.0
1999-04-30,87000.0
1999-03-31,87100.0
1999-02-28,87200.0
1999-01-31,86600.0
1998-12-31,85800.0
1998-11-30,84700.0
1998-10-31,83900.0
1998-09-30,82600.0
1998-08-31,80500.0
1998-07-31,79100.0
1998-06-30,79200.0
1998-05-31,79500.0
1998-04-30,80100.0
1998-03-31,80800.0
1998-02-28,80500.0
1998-01-31,79800.0
1997-12-31,79100.0
1997-11-30,78600.0
1997-10-31,78000.0
1997-09-30,78000.0
1997-08-31,78300.0
1997-07-31,78600.0
1997-06-30,78200.0
1997-05-31,78300.0
1997-04-30,77800.0
1997-03-31,77100.0
1997-02-28,75900.0
1997-01-31,74000.0
1996-12-31,73600.0
1996-11-30,74900.0
1996-10-31,76000.0
1996-09-30,77200.0
1996-08-31,79500.0
1996-07-31,81200.0
1996-06-30,82400.0
1996-05-31,83100.0
1996-04-30,83600.0
