Date,Value
2015-09-30,339200.0
2015-08-31,337000.0
2015-07-31,333800.0
2015-06-30,334000.0
2015-05-31,328500.0
2015-04-30,320500.0
2015-03-31,313200.0
2015-02-28,309500.0
2015-01-31,304800.0
2014-12-31,302600.0
2014-11-30,299100.0
2014-10-31,296000.0
2014-09-30,293900.0
2014-08-31,292000.0
2014-07-31,291000.0
2014-06-30,291400.0
2014-05-31,292000.0
2014-04-30,293400.0
2014-03-31,294300.0
2014-02-28,293000.0
2014-01-31,289800.0
2013-12-31,286700.0
2013-11-30,283800.0
2013-10-31,280700.0
2013-09-30,277600.0
2013-08-31,276500.0
2013-07-31,275400.0
2013-06-30,272600.0
2013-05-31,268800.0
2013-04-30,264600.0
2013-03-31,260100.0
2013-02-28,256700.0
2013-01-31,254600.0
2012-12-31,253200.0
2012-11-30,251700.0
2012-10-31,250400.0
2012-09-30,248700.0
2012-08-31,247100.0
2012-07-31,245800.0
2012-06-30,245000.0
2012-05-31,244600.0
2012-04-30,244500.0
2012-03-31,244100.0
2012-02-29,243500.0
2012-01-31,244200.0
2011-12-31,246800.0
2011-11-30,250200.0
2011-10-31,252600.0
2011-09-30,254900.0
2011-08-31,256600.0
2011-07-31,257600.0
2011-06-30,258600.0
2011-05-31,260800.0
2011-04-30,264300.0
2011-03-31,268700.0
2011-02-28,272500.0
2011-01-31,275400.0
2010-12-31,277900.0
2010-11-30,280500.0
2010-10-31,283500.0
2010-09-30,286700.0
2010-08-31,290300.0
2010-07-31,293900.0
2010-06-30,297000.0
2010-05-31,300000.0
2010-04-30,302900.0
2010-03-31,304200.0
2010-02-28,303900.0
2010-01-31,303600.0
2009-12-31,304300.0
2009-11-30,306000.0
2009-10-31,307500.0
2009-09-30,308700.0
2009-08-31,309300.0
2009-07-31,310000.0
2009-06-30,311300.0
2009-05-31,313600.0
2009-04-30,316600.0
2009-03-31,321400.0
2009-02-28,326400.0
2009-01-31,329700.0
2008-12-31,331100.0
2008-11-30,333500.0
2008-10-31,337000.0
2008-09-30,340600.0
2008-08-31,342700.0
2008-07-31,345000.0
2008-06-30,348500.0
2008-05-31,351500.0
2008-04-30,353100.0
2008-03-31,355100.0
2008-02-29,358400.0
2008-01-31,362100.0
2007-12-31,365200.0
2007-11-30,366900.0
2007-10-31,368000.0
2007-09-30,370000.0
2007-08-31,372700.0
2007-07-31,373400.0
2007-06-30,373800.0
2007-05-31,375400.0
2007-04-30,377000.0
2007-03-31,377700.0
2007-02-28,378400.0
2007-01-31,378500.0
2006-12-31,377600.0
2006-11-30,374800.0
2006-10-31,370300.0
2006-09-30,365700.0
2006-08-31,362200.0
2006-07-31,359400.0
2006-06-30,355700.0
2006-05-31,350500.0
2006-04-30,344900.0
2006-03-31,339300.0
2006-02-28,333500.0
2006-01-31,328900.0
2005-12-31,325700.0
2005-11-30,323700.0
2005-10-31,320900.0
2005-09-30,317200.0
2005-08-31,313000.0
2005-07-31,309000.0
2005-06-30,304100.0
2005-05-31,299100.0
2005-04-30,293700.0
2005-03-31,288500.0
2005-02-28,284500.0
2005-01-31,281200.0
2004-12-31,278000.0
2004-11-30,275500.0
2004-10-31,273700.0
2004-09-30,271500.0
2004-08-31,269000.0
2004-07-31,266700.0
2004-06-30,264500.0
2004-05-31,261600.0
2004-04-30,259200.0
2004-03-31,257300.0
2004-02-29,255800.0
2004-01-31,254200.0
2003-12-31,252500.0
2003-11-30,250800.0
2003-10-31,250200.0
2003-09-30,249200.0
2003-08-31,247600.0
2003-07-31,245900.0
2003-06-30,244900.0
2003-05-31,243800.0
2003-04-30,242900.0
2003-03-31,241600.0
2003-02-28,239500.0
2003-01-31,237400.0
2002-12-31,236200.0
2002-11-30,235100.0
2002-10-31,232900.0
2002-09-30,231100.0
2002-08-31,230600.0
2002-07-31,230200.0
2002-06-30,229000.0
2002-05-31,228500.0
2002-04-30,228400.0
2002-03-31,228700.0
2002-02-28,228800.0
2002-01-31,228400.0
2001-12-31,227200.0
2001-11-30,225700.0
2001-10-31,224200.0
2001-09-30,222900.0
2001-08-31,221500.0
2001-07-31,220000.0
2001-06-30,218600.0
2001-05-31,217400.0
2001-04-30,216200.0
2001-03-31,215100.0
2001-02-28,214100.0
2001-01-31,213100.0
2000-12-31,211500.0
2000-11-30,209900.0
2000-10-31,208800.0
2000-09-30,208200.0
2000-08-31,206700.0
2000-07-31,204500.0
2000-06-30,203200.0
2000-05-31,202500.0
2000-04-30,200600.0
2000-03-31,198300.0
2000-02-29,196400.0
2000-01-31,193600.0
1999-12-31,189900.0
1999-11-30,186500.0
1999-10-31,183800.0
1999-09-30,182000.0
1999-08-31,181200.0
1999-07-31,180600.0
1999-06-30,179600.0
1999-05-31,177900.0
1999-04-30,176400.0
1999-03-31,174500.0
1999-02-28,172500.0
1999-01-31,170800.0
1998-12-31,169700.0
1998-11-30,169000.0
1998-10-31,168600.0
1998-09-30,167400.0
1998-08-31,165700.0
1998-07-31,164200.0
1998-06-30,163000.0
1998-05-31,161900.0
1998-04-30,160700.0
1998-03-31,159500.0
1998-02-28,157700.0
1998-01-31,155300.0
1997-12-31,153100.0
1997-11-30,151400.0
1997-10-31,149500.0
1997-09-30,148100.0
1997-08-31,146800.0
1997-07-31,145600.0
1997-06-30,144500.0
1997-05-31,143900.0
1997-04-30,143200.0
1997-03-31,142200.0
1997-02-28,141100.0
1997-01-31,140600.0
1996-12-31,140500.0
1996-11-30,140200.0
1996-10-31,139400.0
1996-09-30,138400.0
1996-08-31,137600.0
1996-07-31,137400.0
1996-06-30,137000.0
1996-05-31,136100.0
1996-04-30,135400.0
