Date,Value
2015-09-30,194100.0
2015-08-31,188300.0
2015-07-31,187400.0
2015-06-30,187100.0
2015-05-31,187700.0
2015-04-30,189300.0
2015-03-31,191300.0
2015-02-28,191800.0
2015-01-31,189400.0
2014-12-31,186600.0
2014-11-30,182600.0
2014-10-31,180900.0
2014-09-30,182000.0
2014-08-31,181900.0
2014-07-31,180400.0
2014-06-30,180400.0
2014-05-31,179500.0
2014-04-30,174700.0
2014-03-31,169300.0
2014-02-28,166100.0
2014-01-31,164800.0
2013-12-31,163300.0
2013-11-30,162100.0
2013-10-31,161800.0
2013-09-30,161400.0
2013-08-31,160100.0
2013-07-31,158000.0
2013-06-30,156900.0
2013-05-31,157000.0
2013-04-30,157800.0
2013-03-31,157800.0
2013-02-28,156900.0
2013-01-31,155900.0
2012-12-31,156500.0
2012-11-30,156700.0
2012-10-31,155000.0
2012-09-30,154000.0
2012-08-31,156700.0
2012-07-31,159900.0
2012-06-30,161100.0
2012-05-31,161000.0
2012-04-30,160900.0
2012-03-31,160700.0
2012-02-29,160900.0
2012-01-31,160900.0
2011-12-31,160500.0
2011-11-30,160300.0
2011-10-31,160000.0
2011-09-30,159600.0
2011-08-31,159300.0
2011-07-31,159500.0
2011-06-30,160600.0
2011-05-31,162300.0
2011-04-30,164100.0
2011-03-31,165600.0
2011-02-28,166200.0
2011-01-31,166400.0
2010-12-31,166800.0
2010-11-30,167100.0
2010-10-31,167400.0
2010-09-30,167500.0
2010-08-31,167600.0
2010-07-31,167900.0
2010-06-30,167900.0
2010-05-31,167400.0
2010-04-30,166700.0
2010-03-31,165300.0
2010-02-28,163400.0
2010-01-31,162900.0
2009-12-31,164200.0
2009-11-30,166000.0
2009-10-31,167100.0
2009-09-30,167500.0
2009-08-31,166400.0
2009-07-31,165100.0
2009-06-30,165900.0
2009-05-31,168000.0
2009-04-30,168700.0
2009-03-31,169000.0
2009-02-28,171700.0
2009-01-31,175900.0
2008-12-31,177800.0
2008-11-30,178700.0
2008-10-31,180800.0
2008-09-30,184000.0
2008-08-31,186300.0
2008-07-31,187400.0
2008-06-30,183300.0
2008-05-31,175900.0
2008-04-30,171500.0
2008-03-31,171700.0
2008-02-29,171800.0
2008-01-31,171900.0
2007-12-31,173000.0
2007-11-30,174400.0
2007-10-31,175200.0
2007-09-30,174800.0
2007-08-31,173400.0
2007-07-31,172300.0
2007-06-30,172200.0
2007-05-31,173100.0
2007-04-30,175100.0
2007-03-31,176700.0
2007-02-28,177400.0
2007-01-31,176400.0
2006-12-31,175000.0
2006-11-30,174000.0
2006-10-31,174000.0
2006-09-30,174500.0
2006-08-31,175800.0
2006-07-31,177700.0
2006-06-30,179800.0
2006-05-31,181900.0
2006-04-30,184200.0
2006-03-31,186200.0
2006-02-28,188100.0
2006-01-31,188600.0
2005-12-31,187400.0
2005-11-30,185200.0
2005-10-31,183000.0
2005-09-30,179500.0
2005-08-31,177200.0
2005-07-31,176400.0
2005-06-30,175900.0
2005-05-31,175200.0
2005-04-30,172800.0
2005-03-31,169600.0
2005-02-28,166100.0
2005-01-31,162600.0
2004-12-31,160200.0
2004-11-30,159700.0
2004-10-31,158100.0
2004-09-30,155800.0
2004-08-31,154400.0
2004-07-31,152500.0
2004-06-30,150300.0
2004-05-31,149400.0
2004-04-30,149700.0
2004-03-31,149100.0
2004-02-29,147700.0
2004-01-31,145900.0
2003-12-31,144400.0
2003-11-30,143400.0
2003-10-31,142800.0
2003-09-30,142000.0
2003-08-31,140600.0
2003-07-31,138900.0
2003-06-30,138100.0
2003-05-31,136800.0
2003-04-30,135200.0
2003-03-31,132500.0
2003-02-28,130100.0
2003-01-31,128800.0
2002-12-31,127900.0
2002-11-30,125800.0
2002-10-31,123800.0
2002-09-30,124000.0
2002-08-31,124500.0
2002-07-31,123900.0
2002-06-30,123300.0
2002-05-31,123400.0
2002-04-30,122300.0
2002-03-31,121500.0
2002-02-28,121800.0
2002-01-31,120700.0
2001-12-31,118800.0
2001-11-30,116600.0
2001-10-31,114300.0
2001-09-30,112400.0
2001-08-31,110500.0
2001-07-31,108500.0
2001-06-30,106800.0
2001-05-31,105800.0
2001-04-30,105200.0
2001-03-31,105700.0
2001-02-28,105800.0
2001-01-31,107300.0
2000-12-31,109700.0
2000-11-30,112800.0
2000-10-31,115400.0
2000-09-30,116800.0
2000-08-31,116800.0
2000-07-31,118100.0
2000-06-30,119500.0
2000-05-31,119400.0
2000-04-30,117600.0
2000-03-31,115200.0
2000-02-29,114200.0
2000-01-31,114900.0
1999-12-31,115100.0
1999-11-30,114300.0
1999-10-31,114600.0
1999-09-30,115500.0
1999-08-31,115700.0
1999-07-31,115400.0
1999-06-30,114800.0
1999-05-31,114600.0
1999-04-30,115800.0
1999-03-31,116700.0
1999-02-28,115800.0
1999-01-31,113300.0
1998-12-31,111000.0
1998-11-30,110400.0
1998-10-31,109400.0
1998-09-30,107000.0
1998-08-31,106000.0
1998-07-31,105500.0
1998-06-30,105000.0
1998-05-31,105000.0
1998-04-30,106700.0
1998-03-31,108100.0
1998-02-28,108600.0
1998-01-31,107900.0
1997-12-31,107600.0
1997-11-30,107100.0
1997-10-31,106900.0
1997-09-30,106900.0
1997-08-31,106300.0
1997-07-31,105600.0
1997-06-30,104800.0
1997-05-31,103300.0
1997-04-30,101200.0
1997-03-31,100800.0
1997-02-28,101400.0
1997-01-31,102200.0
1996-12-31,102100.0
1996-11-30,100900.0
1996-10-31,99400.0
1996-09-30,99100.0
1996-08-31,99700.0
1996-07-31,100200.0
1996-06-30,100700.0
1996-05-31,100700.0
1996-04-30,100600.0
