Date,Value
2014-08-31,195000.0
2013-09-30,146100.0
2007-09-30,222058.8235
2007-08-31,225992.3077
2007-06-30,238951.75
2007-04-30,327813.2353
2007-03-31,308403.8462
2007-01-31,239680.7692
2006-11-30,217775.0
2006-10-31,229275.0
2006-09-30,218000.0
2006-08-31,213800.0
2006-07-31,217058.8235
2006-06-30,216500.0
2006-04-30,175823.5294
2006-03-31,182000.0
2005-11-30,192482.5
2005-10-31,170950.0
2005-09-30,153490.0
2005-08-31,159085.0
2005-07-31,165625.0
2005-06-30,171845.0
2005-05-31,170222.5
2005-04-30,160632.5
2005-03-31,162911.7647
2005-02-28,154461.5385
2004-12-31,140384.6154
2004-10-31,153384.6154
2004-07-31,176615.3846
2004-04-30,125288.4615
2004-02-29,109750.0
2003-10-31,140932.5
2003-09-30,136650.0
2003-08-31,137176.4706
2003-07-31,131000.0
2002-07-31,139669.2308
2002-05-31,145685.0
2002-04-30,149458.8235
2002-03-31,144923.0769
2002-01-31,130000.0
2001-07-31,252500.0
2001-05-31,144175.0
2001-04-30,147676.4706
2001-03-31,141500.0
2000-10-31,266061.5385
2000-08-31,130000.0
2000-05-31,158107.5
2000-03-31,117500.0
1999-11-30,115000.0
1999-10-31,120346.1538
1999-08-31,111500.0
1999-04-30,105235.2941
1999-03-31,117000.0
1998-11-30,73000.0
1998-08-31,92317.5
1998-07-31,88640.0
1998-06-30,90470.5882
1998-05-31,106526.9231
1998-03-31,104950.0
1997-11-30,92615.3846
1997-09-30,72941.1765
1997-08-31,77988.4615
1997-06-30,83230.7692
1997-04-30,67500.0
