Date,Value
2015-02-28,210000.0
2015-01-31,209900.0
2014-12-31,206900.0
2014-11-30,199900.0
2014-10-31,199900.0
2014-09-30,198900.0
2014-08-31,195000.0
2014-07-31,195000.0
2014-06-30,194900.0
2014-05-31,194900.0
2014-04-30,194900.0
2014-03-31,194900.0
2014-02-28,194900.0
2014-01-31,194900.0
2013-12-31,194900.0
2013-11-30,194900.0
2013-10-31,194900.0
2013-09-30,204900.0
2013-08-31,159900.0
2013-07-31,178000.0
2013-06-30,139900.0
2013-05-31,137500.0
2013-03-31,185000.0
2013-02-28,159900.0
2013-01-31,159900.0
2012-10-31,140000.0
2012-09-30,140000.0
2012-08-31,142500.0
2012-07-31,142500.0
2012-06-30,142500.0
2012-05-31,145000.0
2012-04-30,145000.0
2012-03-31,144900.0
2012-02-29,129900.0
2012-01-31,129900.0
2011-12-31,129900.0
2011-11-30,164900.0
2011-10-31,164900.0
2011-09-30,147510.0
2011-08-31,152000.0
2011-07-31,145000.0
2011-06-30,160000.0
2011-05-31,145000.0
2011-04-30,165000.0
2011-03-31,184900.0
2011-02-28,164900.0
2011-01-31,155000.0
2010-12-31,155000.0
2010-11-30,159000.0
2010-10-31,159000.0
2010-09-30,167000.0
2010-08-31,167000.0
2010-07-31,167000.0
2010-06-30,173900.0
2010-05-31,174900.0
2010-04-30,174900.0
2010-03-31,174900.0
2010-02-28,178000.0
2010-01-31,169900.0
2009-12-31,164900.0
2009-11-30,169000.0
2009-10-31,179900.0
2009-09-30,179900.0
2009-08-31,179900.0
2009-07-31,180000.0
2009-06-30,200000.0
2009-05-31,200000.0
2009-04-30,200000.0
2009-03-31,183000.0
2009-02-28,200000.0
2009-01-31,200000.0
2008-12-31,219900.0
2008-11-30,219900.0
2008-10-31,220000.0
