Date,Value
2014-01-31,319900.0
2011-02-28,255000.0
2010-11-30,255000.0
2010-10-31,255000.0
2010-09-30,239900.0
2010-08-31,230000.0
2010-07-31,239000.0
2010-06-30,239900.0
2010-05-31,254900.0
2010-04-30,254900.0
2010-03-31,255000.0
2009-10-31,349000.0
2009-09-30,349000.0
2009-08-31,325000.0
2009-07-31,325000.0
2009-06-30,350000.0
2009-05-31,349000.0
2009-04-30,309900.0
