Date,Value
2015-09-30,408600.0
2015-08-31,407700.0
2015-07-31,403400.0
2015-06-30,401900.0
2015-05-31,398400.0
2015-04-30,392900.0
2015-03-31,383600.0
2015-02-28,378700.0
2015-01-31,374000.0
2014-12-31,371800.0
2014-11-30,368300.0
2014-10-31,364800.0
2014-09-30,362400.0
2014-08-31,360400.0
2014-07-31,358500.0
2014-06-30,356900.0
2014-05-31,356800.0
2014-04-30,358500.0
2014-03-31,359100.0
2014-02-28,357300.0
2014-01-31,354900.0
2013-12-31,352800.0
2013-11-30,351300.0
2013-10-31,350000.0
2013-09-30,347900.0
2013-08-31,345400.0
2013-07-31,342600.0
2013-06-30,337800.0
2013-05-31,330900.0
2013-04-30,324000.0
2013-03-31,317500.0
2013-02-28,310600.0
2013-01-31,304700.0
2012-12-31,301000.0
2012-11-30,298700.0
2012-10-31,296800.0
2012-09-30,294400.0
2012-08-31,292100.0
2012-07-31,290900.0
2012-06-30,289600.0
2012-05-31,286400.0
2012-04-30,282500.0
2012-03-31,280100.0
2012-02-29,279200.0
2012-01-31,278900.0
2011-12-31,280000.0
2011-11-30,281000.0
2011-10-31,280300.0
2011-09-30,280300.0
2011-08-31,282500.0
2011-07-31,285400.0
2011-06-30,288700.0
2011-05-31,292100.0
2011-04-30,293900.0
2011-03-31,296600.0
2011-02-28,301400.0
2011-01-31,306100.0
2010-12-31,308700.0
2010-11-30,310100.0
2010-10-31,310700.0
2010-09-30,312200.0
2010-08-31,315400.0
2010-07-31,317100.0
2010-06-30,316900.0
2010-05-31,317000.0
2010-04-30,317100.0
2010-03-31,316800.0
2010-02-28,317000.0
2010-01-31,317600.0
2009-12-31,317200.0
2009-11-30,316700.0
2009-10-31,316300.0
2009-09-30,314600.0
2009-08-31,311500.0
2009-07-31,310200.0
2009-06-30,312000.0
2009-05-31,316000.0
2009-04-30,322000.0
2009-03-31,328900.0
2009-02-28,333600.0
2009-01-31,335500.0
2008-12-31,337000.0
2008-11-30,339700.0
2008-10-31,344200.0
2008-09-30,349700.0
2008-08-31,354300.0
2008-07-31,358100.0
2008-06-30,362300.0
2008-05-31,366500.0
2008-04-30,369500.0
2008-03-31,371000.0
2008-02-29,372300.0
2008-01-31,373800.0
2007-12-31,374800.0
2007-11-30,376600.0
2007-10-31,379200.0
2007-09-30,380500.0
2007-08-31,379100.0
2007-07-31,376200.0
2007-06-30,373600.0
2007-05-31,371600.0
2007-04-30,371000.0
2007-03-31,371600.0
2007-02-28,371700.0
2007-01-31,371900.0
2006-12-31,373000.0
2006-11-30,372600.0
2006-10-31,369900.0
2006-09-30,367900.0
2006-08-31,367300.0
2006-07-31,367200.0
2006-06-30,367100.0
2006-05-31,364900.0
2006-04-30,359800.0
2006-03-31,353600.0
2006-02-28,348300.0
2006-01-31,343600.0
2005-12-31,339800.0
2005-11-30,336900.0
2005-10-31,334800.0
2005-09-30,333200.0
2005-08-31,332700.0
2005-07-31,331000.0
2005-06-30,326100.0
2005-05-31,320000.0
2005-04-30,314700.0
2005-03-31,309400.0
2005-02-28,305100.0
2005-01-31,301600.0
2004-12-31,298400.0
2004-11-30,295400.0
2004-10-31,291700.0
2004-09-30,286900.0
2004-08-31,281400.0
2004-07-31,276600.0
2004-06-30,273100.0
2004-05-31,270800.0
2004-04-30,269000.0
2004-03-31,268000.0
2004-02-29,267000.0
2004-01-31,266300.0
2003-12-31,265800.0
2003-11-30,265100.0
2003-10-31,263800.0
2003-09-30,261600.0
2003-08-31,259200.0
2003-07-31,257200.0
2003-06-30,255600.0
2003-05-31,254000.0
2003-04-30,253100.0
2003-03-31,252100.0
2003-02-28,250200.0
2003-01-31,247300.0
2002-12-31,244000.0
2002-11-30,241400.0
2002-10-31,239900.0
2002-09-30,239100.0
2002-08-31,237700.0
2002-07-31,236000.0
2002-06-30,234800.0
2002-05-31,234400.0
2002-04-30,233900.0
2002-03-31,232600.0
2002-02-28,231200.0
2002-01-31,230400.0
2001-12-31,229300.0
2001-11-30,227400.0
2001-10-31,225900.0
2001-09-30,225300.0
2001-08-31,224900.0
2001-07-31,224500.0
2001-06-30,223700.0
2001-05-31,222800.0
2001-04-30,221500.0
2001-03-31,220000.0
2001-02-28,219000.0
2001-01-31,218300.0
2000-12-31,217600.0
2000-11-30,216500.0
2000-10-31,215100.0
2000-09-30,214400.0
2000-08-31,214700.0
2000-07-31,214800.0
2000-06-30,215000.0
2000-05-31,214700.0
2000-04-30,213600.0
2000-03-31,211700.0
2000-02-29,209300.0
2000-01-31,207000.0
1999-12-31,205300.0
1999-11-30,203300.0
1999-10-31,200400.0
1999-09-30,197300.0
1999-08-31,194800.0
1999-07-31,193200.0
1999-06-30,191600.0
1999-05-31,189900.0
1999-04-30,188700.0
1999-03-31,188200.0
1999-02-28,187600.0
1999-01-31,186300.0
1998-12-31,184400.0
1998-11-30,183900.0
1998-10-31,184500.0
1998-09-30,183600.0
1998-08-31,181200.0
1998-07-31,179000.0
1998-06-30,175900.0
1998-05-31,171900.0
1998-04-30,169100.0
1998-03-31,167700.0
1998-02-28,166100.0
1998-01-31,164100.0
1997-12-31,162100.0
1997-11-30,159800.0
1997-10-31,157800.0
1997-09-30,156500.0
1997-08-31,155000.0
1997-07-31,153600.0
1997-06-30,152500.0
1997-05-31,152400.0
1997-04-30,152300.0
1997-03-31,151900.0
1997-02-28,150800.0
1997-01-31,149600.0
1996-12-31,148500.0
1996-11-30,147300.0
1996-10-31,146200.0
1996-09-30,145900.0
1996-08-31,146400.0
1996-07-31,146600.0
1996-06-30,147000.0
1996-05-31,147500.0
1996-04-30,147600.0
