Date,Value
2015-02-28,1399000.0
2015-01-31,1325000.0
2014-12-31,950000.0
2014-11-30,950000.0
2014-10-31,838000.0
2014-09-30,1188000.0
2014-08-31,1368000.0
2014-07-31,1155000.0
2014-06-30,1100000.0
2014-05-31,1160000.0
2014-04-30,1550000.0
2014-03-31,1550000.0
2014-02-28,1600000.0
2014-01-31,1600000.0
2013-12-31,2000000.0
2013-11-30,1650000.0
2013-10-31,1100000.0
2013-09-30,1100000.0
2013-08-31,799000.0
2013-07-31,835000.0
2013-06-30,1000000.0
2013-05-31,1000000.0
2013-04-30,925000.0
2013-03-31,1000000.0
2013-02-28,1050000.0
2013-01-31,1050000.0
2012-12-31,1400000.0
2012-11-30,1250000.0
2012-10-31,1250000.0
2012-09-30,1050000.0
2012-08-31,695000.0
2012-07-31,643000.0
2012-06-30,695000.0
2012-05-31,695000.0
2012-04-30,795000.0
2012-03-31,695000.0
2012-02-29,599500.0
2012-01-31,631900.0
2011-12-31,631900.0
2011-11-30,512000.0
2011-10-31,631900.0
2011-09-30,698000.0
2011-08-31,795000.0
2011-07-31,789000.0
2011-06-30,848000.0
2011-05-31,960000.0
2011-04-30,960000.0
2011-03-31,750000.0
2011-02-28,715000.0
2011-01-31,699000.0
2010-12-31,715000.0
2010-11-30,740000.0
2010-10-31,740000.0
2010-09-30,795000.0
2010-08-31,699950.0
2010-07-31,695000.0
2010-06-30,675000.0
2010-05-31,643000.0
2010-04-30,643000.0
2010-03-31,699000.0
2010-02-28,725000.0
2010-01-31,830000.0
2009-12-31,849950.0
2009-11-30,799000.0
2009-10-31,799000.0
2009-09-30,799000.0
2009-08-31,749000.0
2009-07-31,725000.0
2009-06-30,749000.0
2009-05-31,723000.0
2009-04-30,749000.0
2009-03-31,749000.0
2009-02-28,850000.0
2009-01-31,859900.0
2008-12-31,1025000.0
2008-11-30,859900.0
2008-10-31,850000.0
