Date,Value
2015-06-30,725.0
2015-05-31,750.0
2015-04-30,725.0
2015-03-31,630.0
2015-02-28,650.0
2015-01-31,650.0
2014-12-31,650.0
2014-11-30,650.0
2014-10-31,695.0
2014-09-30,650.0
2014-08-31,625.0
2014-07-31,650.0
2014-06-30,650.0
2014-05-31,675.0
2014-04-30,645.0
2014-03-31,625.0
2014-02-28,600.0
2014-01-31,625.0
2013-12-31,675.0
2013-11-30,650.0
2013-10-31,675.0
2013-09-30,600.0
2013-08-31,600.0
2013-07-31,650.0
2013-06-30,650.0
2013-05-31,675.0
2013-04-30,675.0
2013-03-31,750.0
2013-02-28,645.0
2013-01-31,625.0
2012-12-31,670.0
2012-11-30,650.0
2012-10-31,645.0
2012-09-30,650.0
2012-08-31,650.0
2012-07-31,610.0
2012-06-30,610.0
2012-05-31,595.0
2012-04-30,600.0
2012-03-31,650.0
2012-02-29,620.0
2012-01-31,625.0
2011-12-31,600.0
2011-11-30,650.0
2011-10-31,695.0
2011-09-30,650.0
2011-08-31,625.0
2011-07-31,625.0
2011-06-30,735.0
2011-05-31,625.0
2011-04-30,650.0
2011-03-31,600.0
2011-02-28,600.0
2011-01-31,660.0
2010-12-31,650.0
