Date,Value
2015-06-30,1300.0
2015-05-31,1295.0
2015-04-30,1195.0
2014-09-30,1350.0
2013-08-31,995.0
2013-07-31,995.0
2013-06-30,995.0
2013-05-31,995.0
2013-04-30,995.0
2013-01-31,995.0
2012-12-31,995.0
2012-11-30,995.0
2012-10-31,895.0
2012-09-30,1185.0
2012-08-31,925.0
2012-07-31,995.0
2012-06-30,895.0
2012-05-31,995.0
