Date,Value
2015-06-30,1595.0
2015-01-31,1406.0
2014-12-31,1395.0
2014-07-31,1290.0
2013-03-31,1225.0
2013-02-28,1207.0
2013-01-31,1039.0
2012-12-31,1000.0
2012-11-30,1051.0
2012-10-31,1039.0
2012-09-30,871.0
2012-08-31,871.0
2012-07-31,867.0
2012-06-30,871.0
2012-05-31,870.0
2012-04-30,975.0
2012-03-31,1039.0
2012-02-29,1035.0
2012-01-31,1028.0
2011-12-31,987.0
2011-11-30,850.0
