Date,Value
2015-09-30,1.18
2015-08-31,1.17
2015-07-31,1.16
2015-06-30,1.15
2015-05-31,1.142
2015-04-30,1.134
2015-03-31,1.132
2015-02-28,1.13
2015-01-31,1.126
2014-12-31,1.124
2014-11-30,1.124
2014-10-31,1.124
2014-09-30,1.124
2014-08-31,1.12
2014-07-31,1.11
2014-06-30,1.096
2014-05-31,1.084
2014-04-30,1.072
2014-03-31,1.064
2014-02-28,1.06
2014-01-31,1.058
2013-12-31,1.06
2013-11-30,1.052
2013-10-31,1.038
2013-09-30,1.022
2013-08-31,1.012
2013-07-31,1.004
2013-06-30,1.004
2013-05-31,1.006
2013-04-30,1.004
2013-03-31,0.996
2013-02-28,0.984
2013-01-31,0.976
2012-12-31,0.968
2012-11-30,0.968
2012-10-31,0.962
2012-09-30,0.964
2012-08-31,0.962
2012-07-31,0.962
2012-06-30,0.964
2012-05-31,0.962
2012-04-30,0.966
2012-03-31,0.964
2012-02-29,0.964
2012-01-31,0.958
2011-12-31,0.952
2011-11-30,0.948
2011-10-31,0.946
2011-09-30,0.946
2011-08-31,0.944
2011-07-31,0.946
2011-06-30,0.944
2011-05-31,0.94
2011-04-30,0.934
2011-03-31,0.938
2011-02-28,0.94
2011-01-31,0.946
2010-12-31,0.942
2010-11-30,0.938
