Date,Value
2015-08-31,292700.0
2015-07-31,296700.0
2015-06-30,292200.0
2015-05-31,287700.0
2015-04-30,279000.0
2015-03-31,261100.0
2015-02-28,257200.0
2015-01-31,254300.0
2014-12-31,252000.0
2014-11-30,248400.0
2014-10-31,246200.0
2014-09-30,245600.0
2014-08-31,243000.0
2014-07-31,237700.0
2014-06-30,233100.0
2014-05-31,230800.0
2014-04-30,230800.0
2014-03-31,231500.0
2014-02-28,229000.0
2014-01-31,224500.0
2013-12-31,221500.0
2013-11-30,216600.0
2013-10-31,208000.0
2013-09-30,201100.0
2013-08-31,198600.0
2013-07-31,197900.0
2013-06-30,198400.0
2013-05-31,198100.0
2013-04-30,195300.0
2013-03-31,192300.0
2013-02-28,190800.0
2013-01-31,190100.0
2012-12-31,187900.0
2012-11-30,185500.0
2012-10-31,183700.0
2012-09-30,183400.0
2012-08-31,183600.0
2012-07-31,184300.0
2012-06-30,186000.0
2012-05-31,187500.0
2012-04-30,187200.0
2012-03-31,185700.0
2012-02-29,187600.0
2012-01-31,192000.0
2011-12-31,196600.0
2011-11-30,202500.0
2011-10-31,209100.0
2011-09-30,212400.0
2011-08-31,214500.0
2011-07-31,217200.0
2011-06-30,218400.0
2011-05-31,219000.0
2011-04-30,220100.0
2011-03-31,220200.0
2011-02-28,220700.0
2011-01-31,223000.0
2010-12-31,226900.0
2010-11-30,231400.0
2010-10-31,235200.0
2010-09-30,238900.0
2010-08-31,242800.0
2010-07-31,244600.0
2010-06-30,242600.0
2010-05-31,239500.0
2010-04-30,238200.0
2010-03-31,240300.0
2010-02-28,242800.0
2010-01-31,243900.0
2009-12-31,243700.0
2009-11-30,243100.0
2009-10-31,242900.0
2009-09-30,243300.0
2009-08-31,244300.0
2009-07-31,246900.0
2009-06-30,251900.0
2009-05-31,257400.0
2009-04-30,261900.0
2009-03-31,265800.0
2009-02-28,269200.0
2009-01-31,271400.0
2008-12-31,273900.0
2008-11-30,276900.0
2008-10-31,280600.0
2008-09-30,284100.0
2008-08-31,285500.0
2008-07-31,286000.0
2008-06-30,286700.0
2008-05-31,288400.0
2008-04-30,291200.0
2008-03-31,294400.0
2008-02-29,297000.0
2008-01-31,300100.0
2007-12-31,302800.0
2007-11-30,305100.0
2007-10-31,306300.0
2007-09-30,307300.0
2007-08-31,308600.0
2007-07-31,309600.0
2007-06-30,310900.0
2007-05-31,313300.0
2007-04-30,314100.0
2007-03-31,312400.0
2007-02-28,308100.0
2007-01-31,303000.0
2006-12-31,299800.0
2006-11-30,298400.0
2006-10-31,297400.0
2006-09-30,296400.0
2006-08-31,294400.0
2006-07-31,291300.0
2006-06-30,285400.0
2006-05-31,279000.0
2006-04-30,275400.0
2006-03-31,273600.0
2006-02-28,271700.0
2006-01-31,269700.0
2005-12-31,266700.0
2005-11-30,262900.0
2005-10-31,258600.0
2005-09-30,253000.0
2005-08-31,247600.0
2005-07-31,243100.0
2005-06-30,239000.0
2005-05-31,235000.0
2005-04-30,231400.0
2005-03-31,228700.0
2005-02-28,226900.0
2005-01-31,224800.0
2004-12-31,222700.0
2004-11-30,221400.0
2004-10-31,220000.0
2004-09-30,218400.0
2004-08-31,217900.0
2004-07-31,219300.0
2004-06-30,221000.0
2004-05-31,220400.0
2004-04-30,218000.0
2004-03-31,216000.0
2004-02-29,214100.0
2004-01-31,213100.0
2003-12-31,212100.0
2003-11-30,209100.0
2003-10-31,206100.0
2003-09-30,204600.0
2003-08-31,201700.0
2003-07-31,197900.0
2003-06-30,196900.0
2003-05-31,198100.0
2003-04-30,198700.0
2003-03-31,198100.0
2003-02-28,198500.0
2003-01-31,198900.0
2002-12-31,197600.0
2002-11-30,194100.0
2002-10-31,192000.0
2002-09-30,192800.0
2002-08-31,194400.0
2002-07-31,194200.0
2002-06-30,195000.0
2002-05-31,196400.0
2002-04-30,196800.0
2002-03-31,194800.0
2002-02-28,192700.0
2002-01-31,191000.0
2001-12-31,190100.0
2001-11-30,189800.0
2001-10-31,189000.0
2001-09-30,187100.0
2001-08-31,185900.0
2001-07-31,185000.0
2001-06-30,182900.0
2001-05-31,181400.0
2001-04-30,181200.0
2001-03-31,181300.0
2001-02-28,180300.0
2001-01-31,177900.0
2000-12-31,175900.0
2000-11-30,177100.0
2000-10-31,179100.0
2000-09-30,178900.0
2000-08-31,179100.0
2000-07-31,181100.0
2000-06-30,182000.0
2000-05-31,181400.0
2000-04-30,180000.0
2000-03-31,179400.0
2000-02-29,180000.0
2000-01-31,179700.0
1999-12-31,177400.0
1999-11-30,174700.0
1999-10-31,171800.0
1999-09-30,169300.0
1999-08-31,167800.0
1999-07-31,165700.0
1999-06-30,162300.0
1999-05-31,158800.0
1999-04-30,156900.0
1999-03-31,155200.0
1999-02-28,153600.0
1999-01-31,152600.0
1998-12-31,152700.0
1998-11-30,154000.0
1998-10-31,156300.0
1998-09-30,158000.0
1998-08-31,158200.0
1998-07-31,157900.0
1998-06-30,157100.0
1998-05-31,155600.0
1998-04-30,153200.0
1998-03-31,150400.0
1998-02-28,147700.0
1998-01-31,146400.0
1997-12-31,147000.0
1997-11-30,147100.0
1997-10-31,145900.0
1997-09-30,144300.0
1997-08-31,141900.0
1997-07-31,139800.0
1997-06-30,137600.0
1997-05-31,135200.0
1997-04-30,134900.0
1997-03-31,135700.0
1997-02-28,135400.0
1997-01-31,135400.0
1996-12-31,135900.0
1996-11-30,135200.0
1996-10-31,133700.0
1996-09-30,133300.0
1996-08-31,132900.0
1996-07-31,132700.0
1996-06-30,133600.0
1996-05-31,135500.0
1996-04-30,136300.0
