Date,Value
2015-09-30,305200.0
2015-08-31,301000.0
2015-07-31,299000.0
2015-06-30,297900.0
2015-05-31,296000.0
2015-04-30,293100.0
2015-03-31,293100.0
2015-02-28,291500.0
2015-01-31,288200.0
2014-12-31,287500.0
2014-11-30,285700.0
2014-10-31,283900.0
2014-09-30,283700.0
2014-08-31,283900.0
2014-07-31,283600.0
2014-06-30,284200.0
2014-05-31,284800.0
2014-04-30,286600.0
2014-03-31,288500.0
2014-02-28,288900.0
2014-01-31,286800.0
2013-12-31,283600.0
2013-11-30,281600.0
2013-10-31,280100.0
2013-09-30,277900.0
2013-08-31,275300.0
2013-07-31,272400.0
2013-06-30,268400.0
2013-05-31,264600.0
2013-04-30,260600.0
2013-03-31,256600.0
2013-02-28,253100.0
2013-01-31,250400.0
2012-12-31,248500.0
2012-11-30,246700.0
2012-10-31,245400.0
2012-09-30,245000.0
2012-08-31,244800.0
2012-07-31,244000.0
2012-06-30,243100.0
2012-05-31,242100.0
2012-04-30,242100.0
2012-03-31,243100.0
2012-02-29,244500.0
2012-01-31,244900.0
2011-12-31,245200.0
2011-11-30,246000.0
2011-10-31,245300.0
2011-09-30,243400.0
2011-08-31,243100.0
2011-07-31,244500.0
2011-06-30,247200.0
2011-05-31,251100.0
2011-04-30,253300.0
2011-03-31,252900.0
2011-02-28,252900.0
2011-01-31,253800.0
2010-12-31,255100.0
2010-11-30,257400.0
2010-10-31,260800.0
2010-09-30,264100.0
2010-08-31,266900.0
2010-07-31,269000.0
2010-06-30,271700.0
2010-05-31,275300.0
2010-04-30,279600.0
2010-03-31,282800.0
2010-02-28,283600.0
2010-01-31,283900.0
2009-12-31,285000.0
2009-11-30,286200.0
2009-10-31,287200.0
2009-09-30,288000.0
2009-08-31,288900.0
2009-07-31,290700.0
2009-06-30,292000.0
2009-05-31,292200.0
2009-04-30,292900.0
2009-03-31,295500.0
2009-02-28,299800.0
2009-01-31,305300.0
2008-12-31,309700.0
2008-11-30,312700.0
2008-10-31,315600.0
2008-09-30,320000.0
2008-08-31,323700.0
2008-07-31,327800.0
2008-06-30,332400.0
2008-05-31,336100.0
2008-04-30,338500.0
2008-03-31,340400.0
2008-02-29,341700.0
2008-01-31,342500.0
2007-12-31,342900.0
2007-11-30,342600.0
2007-10-31,342600.0
2007-09-30,343500.0
2007-08-31,343800.0
2007-07-31,343500.0
2007-06-30,343500.0
2007-05-31,344600.0
2007-04-30,346100.0
2007-03-31,347600.0
2007-02-28,347400.0
2007-01-31,346100.0
2006-12-31,345700.0
2006-11-30,346400.0
2006-10-31,346300.0
2006-09-30,345200.0
2006-08-31,344000.0
2006-07-31,342000.0
2006-06-30,337900.0
2006-05-31,332500.0
2006-04-30,328200.0
2006-03-31,325500.0
2006-02-28,323000.0
2006-01-31,320400.0
2005-12-31,317600.0
2005-11-30,314600.0
2005-10-31,311800.0
2005-09-30,308700.0
2005-08-31,304200.0
2005-07-31,298700.0
2005-06-30,292600.0
2005-05-31,286100.0
2005-04-30,278900.0
2005-03-31,272300.0
2005-02-28,268500.0
2005-01-31,266300.0
2004-12-31,264000.0
2004-11-30,261700.0
2004-10-31,259800.0
2004-09-30,257700.0
2004-08-31,255700.0
2004-07-31,253300.0
2004-06-30,250800.0
2004-05-31,248500.0
2004-04-30,245800.0
2004-03-31,242800.0
2004-02-29,240300.0
2004-01-31,238400.0
2003-12-31,236600.0
2003-11-30,234700.0
2003-10-31,232500.0
2003-09-30,229900.0
2003-08-31,227600.0
2003-07-31,225800.0
2003-06-30,225100.0
2003-05-31,225300.0
2003-04-30,225800.0
2003-03-31,225700.0
2003-02-28,224800.0
2003-01-31,223700.0
2002-12-31,223100.0
2002-11-30,222200.0
2002-10-31,220200.0
2002-09-30,218600.0
2002-08-31,218400.0
2002-07-31,219200.0
2002-06-30,220300.0
2002-05-31,221000.0
2002-04-30,222100.0
2002-03-31,223200.0
2002-02-28,223600.0
2002-01-31,222800.0
2001-12-31,221900.0
2001-11-30,221000.0
2001-10-31,220700.0
2001-09-30,220700.0
2001-08-31,220900.0
2001-07-31,220700.0
2001-06-30,220200.0
2001-05-31,219200.0
2001-04-30,218600.0
2001-03-31,218300.0
2001-02-28,217800.0
2001-01-31,216700.0
2000-12-31,215800.0
2000-11-30,215400.0
2000-10-31,216000.0
2000-09-30,216800.0
2000-08-31,216500.0
2000-07-31,215300.0
2000-06-30,214300.0
2000-05-31,213600.0
2000-04-30,212100.0
2000-03-31,210100.0
2000-02-29,208600.0
2000-01-31,207800.0
1999-12-31,206100.0
1999-11-30,204200.0
1999-10-31,201700.0
1999-09-30,199200.0
1999-08-31,197600.0
1999-07-31,196300.0
1999-06-30,194400.0
1999-05-31,192700.0
1999-04-30,191200.0
1999-03-31,189900.0
1999-02-28,188600.0
1999-01-31,187200.0
1998-12-31,186000.0
1998-11-30,185700.0
1998-10-31,185300.0
1998-09-30,184400.0
1998-08-31,183200.0
1998-07-31,182500.0
1998-06-30,182100.0
1998-05-31,182000.0
1998-04-30,181900.0
1998-03-31,181400.0
1998-02-28,180500.0
1998-01-31,179500.0
1997-12-31,177700.0
1997-11-30,175300.0
1997-10-31,172700.0
1997-09-30,170300.0
1997-08-31,167900.0
1997-07-31,165900.0
1997-06-30,164300.0
1997-05-31,162800.0
1997-04-30,160800.0
1997-03-31,158500.0
1997-02-28,156100.0
1997-01-31,154300.0
1996-12-31,153000.0
1996-11-30,151900.0
1996-10-31,151200.0
1996-09-30,150500.0
1996-08-31,149900.0
1996-07-31,149300.0
1996-06-30,149400.0
1996-05-31,149600.0
1996-04-30,149900.0
