Date,Value
2015-09-30,0.956
2015-08-31,0.954
2015-07-31,0.944
2015-06-30,0.934
2015-05-31,0.928
2015-04-30,0.918
2015-03-31,0.916
2015-02-28,0.914
2015-01-31,0.918
2014-12-31,0.912
2014-11-30,0.904
2014-10-31,0.89
2014-09-30,0.88
2014-08-31,0.874
2014-07-31,0.868
2014-06-30,0.864
2014-05-31,0.862
2014-04-30,0.864
2014-03-31,0.874
2014-02-28,0.884
2014-01-31,0.884
2013-12-31,0.876
2013-11-30,0.87
2013-10-31,0.864
2013-09-30,0.86
2013-08-31,0.858
2013-07-31,0.848
2013-06-30,0.84
2013-05-31,0.828
2013-04-30,0.816
2013-03-31,0.814
2013-02-28,0.824
2013-01-31,0.83
2012-12-31,0.826
2012-11-30,0.82
2012-10-31,0.818
2012-09-30,0.818
2012-08-31,0.818
2012-07-31,0.81
2012-06-30,0.804
2012-05-31,0.792
2012-04-30,0.782
2012-03-31,0.784
2012-02-29,0.796
2012-01-31,0.8
2011-12-31,0.788
2011-11-30,0.776
2011-10-31,0.766
2011-09-30,0.766
2011-08-31,0.764
2011-07-31,0.768
2011-06-30,0.77
2011-05-31,0.778
2011-04-30,0.78
2011-03-31,0.75
2011-02-28,0.7
2011-01-31,0.65
2010-12-31,0.662
2010-11-30,0.674
