Date,Value
2015-09-30,384400.0
2015-08-31,373300.0
2015-07-31,367600.0
2015-06-30,368700.0
2015-05-31,364200.0
2015-04-30,360500.0
2015-03-31,361700.0
2015-02-28,362100.0
2015-01-31,357300.0
2014-12-31,354900.0
2014-11-30,352200.0
2014-10-31,350300.0
2014-09-30,348500.0
2014-08-31,346500.0
2014-07-31,343900.0
2014-06-30,342100.0
2014-05-31,341100.0
2014-04-30,340700.0
2014-03-31,339600.0
2014-02-28,337900.0
2014-01-31,337600.0
2013-12-31,337500.0
2013-11-30,335300.0
2013-10-31,332000.0
2013-09-30,329200.0
2013-08-31,325200.0
2013-07-31,319800.0
2013-06-30,314300.0
2013-05-31,309300.0
2013-04-30,305500.0
2013-03-31,303000.0
2013-02-28,301200.0
2013-01-31,298100.0
2012-12-31,294100.0
2012-11-30,291100.0
2012-10-31,289000.0
2012-09-30,285800.0
2012-08-31,282500.0
2012-07-31,280100.0
2012-06-30,277800.0
2012-05-31,274400.0
2012-04-30,269300.0
2012-03-31,262900.0
2012-02-29,256900.0
2012-01-31,252600.0
2011-12-31,250300.0
2011-11-30,250000.0
2011-10-31,251100.0
2011-09-30,252700.0
2011-08-31,254700.0
2011-07-31,257100.0
2011-06-30,259900.0
2011-05-31,263100.0
2011-04-30,267000.0
2011-03-31,271200.0
2011-02-28,275100.0
2011-01-31,277800.0
2010-12-31,279400.0
2010-11-30,281100.0
2010-10-31,283400.0
2010-09-30,286500.0
2010-08-31,290400.0
2010-07-31,294000.0
2010-06-30,296800.0
2010-05-31,299100.0
2010-04-30,300800.0
2010-03-31,302100.0
2010-02-28,303500.0
2010-01-31,305700.0
2009-12-31,307900.0
2009-11-30,308900.0
2009-10-31,308400.0
2009-09-30,308400.0
2009-08-31,309000.0
2009-07-31,310200.0
2009-06-30,311700.0
2009-05-31,313600.0
2009-04-30,316200.0
2009-03-31,320500.0
2009-02-28,325100.0
2009-01-31,329900.0
2008-12-31,335300.0
2008-11-30,339900.0
2008-10-31,343600.0
2008-09-30,347300.0
2008-08-31,351000.0
2008-07-31,354300.0
2008-06-30,358000.0
2008-05-31,361600.0
2008-04-30,365000.0
2008-03-31,368300.0
2008-02-29,371400.0
2008-01-31,374200.0
2007-12-31,376800.0
2007-11-30,379300.0
2007-10-31,381500.0
2007-09-30,383300.0
2007-08-31,384300.0
2007-07-31,384200.0
2007-06-30,383400.0
2007-05-31,382700.0
2007-04-30,381600.0
2007-03-31,379100.0
2007-02-28,376200.0
2007-01-31,374200.0
2006-12-31,372600.0
2006-11-30,371200.0
2006-10-31,369500.0
2006-09-30,367300.0
2006-08-31,365200.0
2006-07-31,363600.0
2006-06-30,361500.0
2006-05-31,358200.0
2006-04-30,354800.0
2006-03-31,351600.0
2006-02-28,348100.0
2006-01-31,343400.0
2005-12-31,337900.0
2005-11-30,332400.0
2005-10-31,327500.0
2005-09-30,322200.0
2005-08-31,316200.0
2005-07-31,310800.0
2005-06-30,306100.0
2005-05-31,300900.0
2005-04-30,295700.0
2005-03-31,291300.0
2005-02-28,287600.0
2005-01-31,283600.0
2004-12-31,279400.0
2004-11-30,275200.0
2004-10-31,271500.0
2004-09-30,268000.0
2004-08-31,264600.0
2004-07-31,261400.0
2004-06-30,259200.0
2004-05-31,257900.0
2004-04-30,257400.0
2004-03-31,256800.0
2004-02-29,255900.0
2004-01-31,254700.0
2003-12-31,253500.0
2003-11-30,252600.0
2003-10-31,251500.0
2003-09-30,250700.0
2003-08-31,250300.0
2003-07-31,249300.0
2003-06-30,247100.0
2003-05-31,245000.0
2003-04-30,242800.0
2003-03-31,240600.0
2003-02-28,239000.0
2003-01-31,238100.0
2002-12-31,237100.0
2002-11-30,236200.0
2002-10-31,235100.0
2002-09-30,233800.0
2002-08-31,232800.0
2002-07-31,231500.0
2002-06-30,230600.0
2002-05-31,230400.0
2002-04-30,230100.0
2002-03-31,229200.0
2002-02-28,228200.0
2002-01-31,227400.0
2001-12-31,227400.0
2001-11-30,227400.0
2001-10-31,227300.0
2001-09-30,227100.0
2001-08-31,227000.0
2001-07-31,226500.0
2001-06-30,225600.0
2001-05-31,224300.0
2001-04-30,222500.0
2001-03-31,220700.0
2001-02-28,218800.0
2001-01-31,217100.0
2000-12-31,215200.0
2000-11-30,213600.0
2000-10-31,212500.0
2000-09-30,211500.0
2000-08-31,210000.0
2000-07-31,208900.0
2000-06-30,208100.0
2000-05-31,207100.0
2000-04-30,206000.0
2000-03-31,205000.0
2000-02-29,203800.0
2000-01-31,202400.0
1999-12-31,201200.0
1999-11-30,200200.0
1999-10-31,199300.0
1999-09-30,198800.0
1999-08-31,198000.0
1999-07-31,196900.0
1999-06-30,195700.0
1999-05-31,194800.0
1999-04-30,193700.0
1999-03-31,192100.0
1999-02-28,190000.0
1999-01-31,188200.0
1998-12-31,186600.0
1998-11-30,185100.0
1998-10-31,183600.0
1998-09-30,182200.0
1998-08-31,180800.0
1998-07-31,179700.0
1998-06-30,178800.0
1998-05-31,177400.0
1998-04-30,176100.0
1998-03-31,175600.0
1998-02-28,175000.0
1998-01-31,173500.0
1997-12-31,172100.0
1997-11-30,171000.0
1997-10-31,169500.0
1997-09-30,167400.0
1997-08-31,165700.0
1997-07-31,164200.0
1997-06-30,162700.0
1997-05-31,161600.0
1997-04-30,161100.0
1997-03-31,160700.0
1997-02-28,160200.0
1997-01-31,159400.0
1996-12-31,158300.0
1996-11-30,157200.0
1996-10-31,156400.0
1996-09-30,155800.0
1996-08-31,155400.0
1996-07-31,155100.0
1996-06-30,155300.0
1996-05-31,155300.0
1996-04-30,155200.0
