Date,Value
2015-02-28,159000.0
2015-01-31,159000.0
2014-12-31,135000.0
2014-11-30,135000.0
2014-10-31,145000.0
2014-09-30,148900.0
2014-08-31,149900.0
2014-07-31,149900.0
2014-06-30,144900.0
2014-05-31,144900.0
2014-04-30,142500.0
2014-03-31,144400.0
2014-02-28,140000.0
2014-01-31,139900.0
2013-12-31,139900.0
2013-11-30,140000.0
2013-10-31,139900.0
2013-09-30,139900.0
2013-08-31,139900.0
2013-07-31,135000.0
2013-06-30,135000.0
2013-05-31,135000.0
2013-04-30,133000.0
2013-03-31,125000.0
2013-02-28,129900.0
2013-01-31,110000.0
2012-12-31,110000.0
2012-11-30,110000.0
2012-10-31,134900.0
2012-09-30,110000.0
2012-08-31,109900.0
2012-07-31,109900.0
2012-06-30,110000.0
2012-05-31,110000.0
2012-04-30,109900.0
2012-03-31,107900.0
2012-02-29,100000.0
2012-01-31,100000.0
2011-12-31,100000.0
2011-11-30,106000.0
2011-10-31,101900.0
2011-09-30,100000.0
2011-08-31,106000.0
2011-07-31,110000.0
2011-06-30,110000.0
2011-05-31,110000.0
2011-04-30,110000.0
2011-03-31,110000.0
2011-02-28,110000.0
2011-01-31,110000.0
2010-12-31,108000.0
2010-11-30,127000.0
2010-10-31,127000.0
2010-09-30,130000.0
2010-08-31,133350.0
2010-07-31,125000.0
2010-06-30,125000.0
2010-05-31,125000.0
2010-04-30,127500.0
2010-03-31,125000.0
2010-02-28,125000.0
2010-01-31,127500.0
2009-12-31,127500.0
2009-11-30,128900.0
2009-10-31,134900.0
2009-09-30,149800.0
2009-08-31,155000.0
2009-07-31,139900.0
2009-06-30,135000.0
2009-05-31,139900.0
2009-04-30,159500.0
2009-03-31,182500.0
2009-02-28,149900.0
2009-01-31,149900.0
2008-12-31,154900.0
2008-11-30,154950.0
2008-10-31,171000.0
