Date,Value
2015-09-30,223500.0
2015-08-31,232100.0
2015-07-31,228200.0
2015-06-30,228600.0
2015-05-31,228800.0
2015-04-30,227400.0
2015-03-31,230300.0
2015-02-28,231900.0
2015-01-31,231200.0
2014-12-31,228800.0
2014-11-30,224400.0
2014-10-31,221500.0
2014-09-30,221700.0
2014-08-31,221400.0
2014-07-31,217200.0
2014-06-30,214000.0
2014-05-31,212700.0
2014-04-30,213600.0
2014-03-31,213800.0
2014-02-28,211900.0
2014-01-31,207600.0
2013-12-31,203900.0
2013-11-30,200100.0
2013-10-31,195900.0
2013-09-30,189700.0
2013-08-31,180800.0
2013-07-31,173100.0
2013-06-30,169700.0
2013-05-31,169300.0
2013-04-30,168500.0
2013-03-31,167200.0
2013-02-28,166000.0
2013-01-31,165500.0
2012-12-31,165200.0
2012-11-30,164700.0
2012-10-31,164600.0
2012-09-30,167600.0
2012-08-31,172400.0
2012-07-31,174100.0
2012-06-30,174100.0
2012-05-31,174900.0
2012-04-30,173500.0
2012-03-31,170800.0
2012-02-29,170700.0
2012-01-31,173200.0
2011-12-31,176200.0
2011-11-30,179300.0
2011-10-31,181300.0
2011-09-30,183400.0
2011-08-31,186100.0
2011-07-31,190400.0
2011-06-30,193500.0
2011-05-31,194400.0
2011-04-30,195300.0
2011-03-31,197200.0
2011-02-28,199500.0
2011-01-31,202100.0
2010-12-31,205100.0
2010-11-30,207500.0
2010-10-31,208700.0
2010-09-30,209600.0
2010-08-31,212700.0
2010-07-31,218300.0
2010-06-30,223000.0
2010-05-31,226100.0
2010-04-30,229800.0
2010-03-31,235500.0
2010-02-28,238800.0
2010-01-31,238800.0
2009-12-31,238200.0
2009-11-30,237900.0
2009-10-31,237500.0
2009-09-30,236400.0
2009-08-31,235500.0
2009-07-31,235500.0
2009-06-30,235300.0
2009-05-31,234000.0
2009-04-30,234000.0
2009-03-31,233600.0
2009-02-28,233200.0
2009-01-31,234200.0
2008-12-31,237400.0
2008-11-30,240900.0
2008-10-31,243700.0
2008-09-30,244400.0
2008-08-31,245100.0
2008-07-31,246800.0
2008-06-30,250100.0
2008-05-31,254500.0
2008-04-30,259200.0
2008-03-31,261900.0
2008-02-29,262500.0
2008-01-31,262700.0
2007-12-31,264000.0
2007-11-30,265200.0
2007-10-31,265900.0
2007-09-30,266700.0
2007-08-31,266600.0
2007-07-31,265100.0
2007-06-30,264400.0
2007-05-31,264000.0
2007-04-30,261400.0
2007-03-31,259000.0
2007-02-28,257600.0
2007-01-31,255000.0
2006-12-31,251000.0
2006-11-30,248100.0
2006-10-31,246500.0
2006-09-30,245500.0
2006-08-31,242000.0
2006-07-31,236200.0
2006-06-30,230700.0
2006-05-31,228200.0
2006-04-30,226300.0
2006-03-31,224900.0
2006-02-28,223700.0
2006-01-31,221800.0
2005-12-31,217300.0
2005-11-30,213700.0
2005-10-31,213100.0
2005-09-30,212500.0
2005-08-31,211200.0
2005-07-31,210300.0
2005-06-30,207700.0
2005-05-31,201900.0
2005-04-30,196100.0
2005-03-31,191000.0
2005-02-28,187900.0
2005-01-31,186500.0
2004-12-31,185800.0
2004-11-30,184700.0
2004-10-31,183300.0
2004-09-30,182100.0
2004-08-31,181700.0
2004-07-31,180800.0
2004-06-30,178800.0
2004-05-31,177100.0
2004-04-30,176200.0
2004-03-31,175000.0
2004-02-29,172800.0
2004-01-31,170000.0
2003-12-31,167100.0
2003-11-30,164200.0
2003-10-31,162000.0
2003-09-30,160600.0
2003-08-31,159400.0
2003-07-31,159100.0
2003-06-30,160700.0
2003-05-31,161900.0
2003-04-30,162300.0
2003-03-31,163400.0
2003-02-28,164300.0
2003-01-31,163900.0
2002-12-31,163600.0
2002-11-30,163900.0
2002-10-31,164100.0
2002-09-30,163800.0
2002-08-31,162600.0
2002-07-31,161300.0
2002-06-30,160600.0
2002-05-31,160300.0
2002-04-30,160200.0
2002-03-31,160100.0
2002-02-28,160400.0
2002-01-31,162300.0
2001-12-31,165500.0
2001-11-30,167100.0
2001-10-31,165000.0
2001-09-30,161200.0
2001-08-31,158600.0
2001-07-31,157000.0
2001-06-30,155400.0
2001-05-31,154700.0
2001-04-30,154500.0
2001-03-31,154100.0
2001-02-28,154500.0
2001-01-31,155500.0
2000-12-31,155000.0
2000-11-30,153700.0
2000-10-31,152400.0
2000-09-30,151900.0
2000-08-31,154000.0
2000-07-31,156000.0
2000-06-30,155500.0
2000-05-31,154900.0
2000-04-30,156300.0
2000-03-31,156300.0
2000-02-29,153900.0
2000-01-31,150400.0
1999-12-31,147500.0
1999-11-30,143500.0
1999-10-31,139600.0
1999-09-30,137000.0
1999-08-31,135800.0
1999-07-31,134100.0
1999-06-30,131900.0
1999-05-31,130000.0
1999-04-30,128400.0
1999-03-31,128200.0
1999-02-28,129500.0
1999-01-31,129900.0
1998-12-31,128000.0
1998-11-30,128000.0
1998-10-31,130200.0
1998-09-30,131700.0
1998-08-31,129400.0
1998-07-31,127600.0
1998-06-30,127700.0
1998-05-31,126000.0
1998-04-30,120800.0
1998-03-31,116200.0
1998-02-28,112600.0
1998-01-31,110500.0
1997-12-31,110000.0
1997-11-30,109900.0
1997-10-31,110400.0
1997-09-30,111700.0
1997-08-31,112200.0
1997-07-31,111500.0
1997-06-30,110900.0
1997-05-31,110900.0
1997-04-30,110900.0
1997-03-31,110600.0
1997-02-28,109300.0
1997-01-31,107600.0
1996-12-31,107500.0
1996-11-30,108900.0
1996-10-31,108300.0
1996-09-30,106300.0
1996-08-31,105100.0
1996-07-31,105300.0
1996-06-30,105700.0
1996-05-31,106700.0
1996-04-30,107900.0
