Date,Value
2015-09-30,223100.0
2015-08-31,222800.0
2015-07-31,218600.0
2015-06-30,216500.0
2015-05-31,213400.0
2015-04-30,211000.0
2015-03-31,209600.0
2015-02-28,207500.0
2015-01-31,204200.0
2014-12-31,203300.0
2014-11-30,201600.0
2014-10-31,200200.0
2014-09-30,199400.0
2014-08-31,197700.0
2014-07-31,195200.0
2014-06-30,193400.0
2014-05-31,192000.0
2014-04-30,191200.0
2014-03-31,190800.0
2014-02-28,190300.0
2014-01-31,189300.0
2013-12-31,188200.0
2013-11-30,187900.0
2013-10-31,188300.0
2013-09-30,188400.0
2013-08-31,187000.0
2013-07-31,184300.0
2013-06-30,181400.0
2013-05-31,177700.0
2013-04-30,173800.0
2013-03-31,171000.0
2013-02-28,169200.0
2013-01-31,167900.0
2012-12-31,166100.0
2012-11-30,163600.0
2012-10-31,161200.0
2012-09-30,159800.0
2012-08-31,159700.0
2012-07-31,160400.0
2012-06-30,159800.0
2012-05-31,158900.0
2012-04-30,157900.0
2012-03-31,157400.0
2012-02-29,157800.0
2012-01-31,158800.0
2011-12-31,159900.0
2011-11-30,161200.0
2011-10-31,162300.0
2011-09-30,162900.0
2011-08-31,163600.0
2011-07-31,165500.0
2011-06-30,168200.0
2011-05-31,171000.0
2011-04-30,173800.0
2011-03-31,176100.0
2011-02-28,177600.0
2011-01-31,179300.0
2010-12-31,181300.0
2010-11-30,182500.0
2010-10-31,182600.0
2010-09-30,182500.0
2010-08-31,182800.0
2010-07-31,183200.0
2010-06-30,183300.0
2010-05-31,183500.0
2010-04-30,183100.0
2010-03-31,182500.0
2010-02-28,182700.0
2010-01-31,183400.0
2009-12-31,183800.0
2009-11-30,183800.0
2009-10-31,183500.0
2009-09-30,183600.0
2009-08-31,184400.0
2009-07-31,185700.0
2009-06-30,188400.0
2009-05-31,192700.0
2009-04-30,197100.0
2009-03-31,200300.0
2009-02-28,202500.0
2009-01-31,203400.0
2008-12-31,204500.0
2008-11-30,208100.0
2008-10-31,213200.0
2008-09-30,216700.0
2008-08-31,218300.0
2008-07-31,219300.0
2008-06-30,219900.0
2008-05-31,220200.0
2008-04-30,220800.0
2008-03-31,221700.0
2008-02-29,222900.0
2008-01-31,224300.0
2007-12-31,225600.0
2007-11-30,226400.0
2007-10-31,227000.0
2007-09-30,227700.0
2007-08-31,228400.0
2007-07-31,229000.0
2007-06-30,230300.0
2007-05-31,231600.0
2007-04-30,232600.0
2007-03-31,233900.0
2007-02-28,235500.0
2007-01-31,237000.0
2006-12-31,237500.0
2006-11-30,236500.0
2006-10-31,235900.0
2006-09-30,237000.0
2006-08-31,238800.0
2006-07-31,240000.0
2006-06-30,240200.0
2006-05-31,239000.0
2006-04-30,237000.0
2006-03-31,234700.0
2006-02-28,231200.0
2006-01-31,226600.0
2005-12-31,222900.0
2005-11-30,220500.0
2005-10-31,217600.0
2005-09-30,213800.0
2005-08-31,209800.0
2005-07-31,205700.0
2005-06-30,201500.0
2005-05-31,196900.0
2005-04-30,192500.0
2005-03-31,188900.0
2005-02-28,185800.0
2005-01-31,183200.0
2004-12-31,181100.0
2004-11-30,179100.0
2004-10-31,176700.0
2004-09-30,174300.0
2004-08-31,172600.0
2004-07-31,171100.0
2004-06-30,169200.0
2004-05-31,167700.0
2004-04-30,166400.0
2004-03-31,164400.0
2004-02-29,162500.0
2004-01-31,161500.0
2003-12-31,160600.0
2003-11-30,159500.0
2003-10-31,158100.0
2003-09-30,156500.0
2003-08-31,155000.0
2003-07-31,153700.0
2003-06-30,152100.0
2003-05-31,151300.0
2003-04-30,151000.0
2003-03-31,150800.0
2003-02-28,150900.0
2003-01-31,151300.0
2002-12-31,151300.0
2002-11-30,150500.0
2002-10-31,149800.0
2002-09-30,149400.0
2002-08-31,148700.0
2002-07-31,147800.0
2002-06-30,147100.0
2002-05-31,146500.0
2002-04-30,145800.0
2002-03-31,144900.0
2002-02-28,143800.0
2002-01-31,142400.0
2001-12-31,140900.0
2001-11-30,139600.0
2001-10-31,138300.0
2001-09-30,137200.0
2001-08-31,136200.0
2001-07-31,135900.0
2001-06-30,136100.0
2001-05-31,136000.0
2001-04-30,135600.0
2001-03-31,135800.0
2001-02-28,136400.0
2001-01-31,136200.0
2000-12-31,135800.0
2000-11-30,135900.0
2000-10-31,136500.0
2000-09-30,137100.0
2000-08-31,137400.0
2000-07-31,137400.0
2000-06-30,137300.0
2000-05-31,137100.0
2000-04-30,137300.0
2000-03-31,138000.0
2000-02-29,138100.0
2000-01-31,137500.0
1999-12-31,137100.0
1999-11-30,137300.0
1999-10-31,138000.0
1999-09-30,138700.0
1999-08-31,139500.0
1999-07-31,140000.0
1999-06-30,139800.0
1999-05-31,139100.0
1999-04-30,138300.0
1999-03-31,137200.0
1999-02-28,136500.0
1999-01-31,136200.0
1998-12-31,136000.0
1998-11-30,135400.0
1998-10-31,134700.0
1998-09-30,133600.0
1998-08-31,132300.0
1998-07-31,130900.0
1998-06-30,129900.0
1998-05-31,130100.0
1998-04-30,131000.0
1998-03-31,131400.0
1998-02-28,131800.0
1998-01-31,132700.0
1997-12-31,133400.0
1997-11-30,133300.0
1997-10-31,133300.0
1997-09-30,134200.0
1997-08-31,135100.0
1997-07-31,134600.0
1997-06-30,133900.0
1997-05-31,133500.0
1997-04-30,132600.0
1997-03-31,130900.0
1997-02-28,129100.0
1997-01-31,127300.0
1996-12-31,125900.0
1996-11-30,125100.0
1996-10-31,124300.0
1996-09-30,123100.0
1996-08-31,122000.0
1996-07-31,121700.0
1996-06-30,121400.0
1996-05-31,120800.0
1996-04-30,119800.0
