Date,Value
2015-09-30,1.002
2015-08-31,0.988
2015-07-31,0.966
2015-06-30,0.954
2015-05-31,0.96
2015-04-30,0.97
2015-03-31,0.974
2015-02-28,0.964
2015-01-31,0.956
2014-12-31,0.954
2014-11-30,0.952
2014-10-31,0.942
2014-09-30,0.932
2014-08-31,0.912
2014-07-31,0.88
2014-06-30,0.848
2014-05-31,0.844
2014-04-30,0.856
2014-03-31,0.884
2014-02-28,0.9
2014-01-31,0.906
2013-12-31,0.912
2013-11-30,0.912
2013-10-31,0.904
2013-09-30,0.906
2013-08-31,0.914
2013-07-31,0.916
2013-06-30,0.912
2013-05-31,0.91
2013-04-30,0.902
2013-03-31,0.892
2013-02-28,0.874
2013-01-31,0.864
2012-12-31,0.864
2012-11-30,0.866
2012-10-31,0.86
2012-09-30,0.856
2012-08-31,0.848
2012-07-31,0.854
2012-06-30,0.866
2012-05-31,0.844
2012-04-30,0.816
2012-03-31,0.782
2012-02-29,0.78
2012-01-31,0.76
2011-12-31,0.75
2011-11-30,0.744
2011-10-31,0.736
2011-09-30,0.738
2011-08-31,0.748
2011-07-31,0.756
2011-06-30,0.764
2011-05-31,0.784
2011-04-30,0.794
2011-03-31,0.798
2011-02-28,0.79
2011-01-31,0.788
2010-12-31,0.782
2010-11-30,0.774
