Date,Value
2015-06-30,2015.0
2015-05-31,1785.0
2015-04-30,1300.0
2015-03-31,1495.0
2015-01-31,1600.0
2014-12-31,1595.0
2014-11-30,1650.0
2014-10-31,1650.0
2014-09-30,1695.0
2013-12-31,1100.0
2013-11-30,1500.0
2013-09-30,1695.0
2013-08-31,1750.0
2013-06-30,2195.0
2013-05-31,1800.0
2013-02-28,1750.0
2012-12-31,1900.0
2012-11-30,1800.0
2012-10-31,1690.0
2012-08-31,1495.0
2012-07-31,1495.0
2012-06-30,1375.0
2012-05-31,1025.0
2012-04-30,850.0
2011-11-30,1520.0
2011-10-31,1600.0
