Date,Value
2015-09-30,458232.5
2015-08-31,445975.0
2015-07-31,423900.0
2015-06-30,424895.0
2015-05-31,426105.0
2015-04-30,407823.5294
2015-01-31,423433.2
2014-12-31,413777.4118
2014-11-30,402067.6923
2014-09-30,426900.0
2014-08-31,431150.0
2014-07-31,429000.0
2014-06-30,427500.0
2014-05-31,432850.0
2014-04-30,486647.0588
2014-03-31,439000.0
2013-10-31,304900.0
2013-08-31,449150.0
2013-07-31,444425.0
2013-06-30,441975.0
2013-05-31,398820.0
2013-04-30,352590.0
2013-03-31,324752.9412
2013-02-28,282615.3846
2012-12-31,276153.8462
2012-10-31,269985.0
2012-09-30,321135.2941
2012-08-31,362846.1538
2012-06-30,270588.2353
2012-05-31,230384.6154
2012-03-31,265000.0
2011-08-31,325000.0
2010-10-31,359950.0
2010-06-30,253500.0
2009-11-30,352400.0
2009-10-31,343235.2941
2009-09-30,310281.8462
2009-08-31,281967.5
2009-07-31,284925.0
2009-06-30,299000.0
2009-05-31,318907.5
2009-04-30,323794.1176
2009-03-31,315000.0
2008-10-31,362150.0
2008-09-30,367450.0
2008-08-31,341050.0
2008-07-31,341000.0
2008-06-30,366950.0
2008-05-31,335352.9412
2008-04-30,351526.9231
2008-02-29,379950.0
2007-11-30,391917.5
2007-10-31,394965.0
2007-09-30,377925.0
2007-08-31,410500.0
2007-07-31,423985.0
2007-06-30,397640.0
2007-05-31,369070.0
2007-04-30,320605.0
2007-03-31,335150.0
2007-02-28,330300.0
2007-01-31,362225.0
2006-12-31,373475.0
2006-11-30,375242.5
2006-10-31,345982.5
2006-09-30,328475.0
2006-08-31,354000.0
2006-07-31,366250.0
2006-06-30,383450.0
2006-05-31,362250.0
2006-04-30,340300.0
2006-03-31,325292.5
2006-02-28,305532.5
2006-01-31,327650.0
2005-12-31,329332.4
2005-11-30,327350.6
2005-10-31,313845.75
2005-09-30,294904.75
2005-08-31,292267.5
2005-07-31,273367.5
2005-06-30,290882.5
2005-05-31,256025.0
2005-04-30,242650.0
2005-03-31,259200.0
2005-02-28,252992.5
2005-01-31,289125.0
2004-12-31,293832.5
2004-11-30,280550.0
2004-10-31,257550.0
2004-09-30,248925.0
2004-08-31,245075.0
2004-07-31,255750.0
2004-06-30,265950.0
2004-05-31,247600.0
2004-04-30,223950.0
2004-03-31,216750.0
2004-02-29,233925.0
2004-01-31,262575.0
2003-12-31,260300.0
2003-11-30,252850.0
2003-10-31,255592.5
2003-09-30,262957.5
2003-08-31,252950.0
2003-07-31,246050.0
2003-06-30,258625.0
2003-05-31,253675.0
2003-04-30,257725.0
2003-03-31,259675.0
2003-02-28,255500.0
2003-01-31,229392.5
2002-12-31,240507.5
2002-11-30,242592.5
2002-10-31,227832.5
2002-09-30,228375.0
2002-08-31,222542.5
2002-07-31,215675.0
2002-06-30,220457.5
2002-05-31,202717.5
2002-04-30,217095.0
2002-03-31,217462.5
2002-02-28,224542.5
2002-01-31,210182.5
2001-12-31,206367.5
2001-11-30,210332.5
2001-10-31,222617.5
2001-09-30,223732.5
2001-08-31,227967.5
2001-07-31,216482.5
2001-06-30,205042.5
2001-05-31,212257.5
2001-04-30,210917.5
2001-03-31,205225.0
2001-02-28,188257.5
2001-01-31,196125.0
2000-12-31,194992.5
2000-11-30,201582.5
2000-10-31,197242.5
2000-09-30,213100.0
2000-08-31,207950.0
2000-07-31,223057.5
2000-06-30,222117.5
2000-05-31,218992.5
2000-04-30,210665.0
2000-03-31,202450.0
2000-02-29,214200.0
2000-01-31,211400.0
1999-12-31,201650.0
1999-11-30,203250.0
1999-10-31,195925.0
1999-09-30,206325.0
1999-08-31,206548.5
1999-07-31,208945.0
1999-06-30,200291.5
1999-05-31,182420.0
1999-04-30,190025.0
1999-03-31,194500.0
1999-02-28,194798.5
1999-01-31,199189.0
1998-12-31,185970.0
1998-11-30,179957.5
1998-10-31,183575.0
1998-09-30,189900.0
1998-08-31,196325.0
1998-07-31,186850.0
1998-06-30,185200.0
1998-05-31,176274.25
1998-03-31,130765.3846
1998-01-31,171332.5
1997-12-31,165175.0
1997-11-30,169875.0
1997-10-31,177525.0
1997-09-30,176000.0
1997-08-31,179100.0
1997-07-31,171999.25
1997-06-30,164798.25
1997-05-31,154947.5
1997-04-30,165950.0
1997-03-31,157550.0
1997-02-28,151350.0
1997-01-31,154588.2353
1996-12-31,155373.0769
1996-10-31,159350.0
1996-09-30,159450.0
1996-08-31,162500.0
1996-07-31,167300.0
1996-06-30,167425.0
1996-05-31,159500.0
1996-04-30,160350.0
