Date,Value
2011-07-31,456000.0
2010-05-31,452000.0
2010-02-28,450000.0
2009-06-30,460000.0
2008-06-30,501850.0
2007-08-31,528500.0
2007-07-31,522100.0
2007-06-30,530764.7059
2007-05-31,539000.0
2006-11-30,466538.4615
2006-09-30,448269.2308
2006-07-31,411925.0
2006-06-30,391700.0
2006-05-31,434190.3
2006-04-30,443071.4118
2006-03-31,504602.0
2005-12-31,465800.0
2005-07-31,420050.0
2005-06-30,420300.0
2005-05-31,400942.5
2005-04-30,405567.6471
2005-03-31,424950.0
2004-12-31,384176.4706
2004-11-30,367230.7692
2004-09-30,377238.75
2004-08-31,358452.5
2004-07-31,365275.0
2004-06-30,367325.0
2004-05-31,380558.8235
2004-04-30,398500.0
2003-12-31,340615.3846
2003-10-31,370000.0
2003-08-31,342862.5
2003-07-31,340305.0
2003-06-30,352185.2941
2003-05-31,349950.0
2003-02-28,320000.0
2002-06-30,311950.0
2001-10-31,295000.0
2001-06-30,319000.0
2000-08-31,290517.5
2000-07-31,320950.0
2000-06-30,349450.0
2000-03-31,286000.0
1999-07-31,271352.9412
1999-06-30,259000.0
1999-03-31,225000.0
1998-10-31,235000.0
1998-06-30,233194.1176
1998-05-31,226065.3846
1998-03-31,229950.0
1997-01-31,168846.1538
1996-11-30,175000.0
1996-05-31,163000.0
