Date,Value
2015-09-30,502000.0
2015-08-31,504700.0
2015-07-31,500900.0
2015-06-30,502100.0
2015-05-31,500400.0
2015-04-30,494600.0
2015-03-31,485200.0
2015-02-28,479600.0
2015-01-31,470300.0
2014-12-31,465900.0
2014-11-30,460700.0
2014-10-31,459100.0
2014-09-30,460000.0
2014-08-31,459800.0
2014-07-31,457000.0
2014-06-30,453600.0
2014-05-31,450000.0
2014-04-30,444300.0
2014-03-31,436800.0
2014-02-28,432900.0
2014-01-31,433100.0
2013-12-31,433300.0
2013-11-30,432200.0
2013-10-31,430500.0
2013-09-30,427400.0
2013-08-31,423700.0
2013-07-31,420100.0
2013-06-30,415700.0
2013-05-31,410400.0
2013-04-30,405500.0
2013-03-31,401600.0
2013-02-28,397300.0
2013-01-31,392000.0
2012-12-31,387000.0
2012-11-30,382100.0
2012-10-31,376500.0
2012-09-30,371000.0
2012-08-31,366300.0
2012-07-31,362800.0
2012-06-30,360700.0
2012-05-31,358200.0
2012-04-30,355500.0
2012-03-31,353700.0
2012-02-29,352600.0
2012-01-31,352300.0
2011-12-31,353400.0
2011-11-30,354200.0
2011-10-31,352700.0
2011-09-30,351200.0
2011-08-31,350800.0
2011-07-31,351500.0
2011-06-30,350900.0
2011-05-31,350100.0
2011-04-30,350100.0
2011-03-31,352000.0
2011-02-28,354400.0
2011-01-31,356200.0
2010-12-31,357000.0
2010-11-30,358300.0
2010-10-31,360600.0
2010-09-30,363000.0
2010-08-31,365100.0
2010-07-31,366300.0
2010-06-30,366400.0
2010-05-31,366300.0
2010-04-30,366000.0
2010-03-31,364100.0
2010-02-28,360900.0
2010-01-31,357900.0
2009-12-31,355000.0
2009-11-30,353300.0
2009-10-31,353000.0
2009-09-30,352900.0
2009-08-31,352700.0
2009-07-31,353900.0
2009-06-30,356100.0
2009-05-31,359400.0
2009-04-30,364100.0
2009-03-31,369900.0
2009-02-28,375700.0
2009-01-31,380600.0
2008-12-31,384600.0
2008-11-30,387400.0
2008-10-31,390000.0
2008-09-30,393000.0
2008-08-31,396300.0
2008-07-31,398700.0
2008-06-30,401400.0
2008-05-31,405500.0
2008-04-30,410200.0
2008-03-31,414100.0
2008-02-29,417800.0
2008-01-31,421500.0
2007-12-31,425500.0
2007-11-30,429700.0
2007-10-31,433500.0
2007-09-30,436600.0
2007-08-31,439100.0
2007-07-31,439900.0
2007-06-30,439100.0
2007-05-31,436500.0
2007-04-30,433200.0
2007-03-31,430200.0
2007-02-28,427600.0
2007-01-31,425500.0
2006-12-31,424700.0
2006-11-30,423300.0
2006-10-31,420700.0
2006-09-30,418300.0
2006-08-31,417000.0
2006-07-31,417100.0
2006-06-30,417200.0
2006-05-31,414000.0
2006-04-30,408600.0
2006-03-31,403200.0
2006-02-28,398000.0
2006-01-31,392600.0
2005-12-31,387800.0
2005-11-30,383900.0
2005-10-31,379900.0
2005-09-30,375600.0
2005-08-31,373000.0
2005-07-31,370200.0
2005-06-30,365100.0
2005-05-31,359200.0
2005-04-30,354200.0
2005-03-31,349000.0
2005-02-28,345400.0
2005-01-31,342500.0
2004-12-31,338900.0
2004-11-30,335000.0
2004-10-31,331900.0
2004-09-30,328700.0
2004-08-31,322000.0
2004-07-31,313900.0
2004-06-30,310100.0
2004-05-31,311000.0
2004-04-30,311200.0
2004-03-31,309600.0
2004-02-29,306300.0
2004-01-31,302700.0
2003-12-31,299500.0
2003-11-30,296800.0
2003-10-31,293800.0
2003-09-30,290500.0
2003-08-31,287700.0
2003-07-31,286800.0
2003-06-30,287300.0
2003-05-31,288400.0
2003-04-30,289700.0
2003-03-31,290300.0
2003-02-28,289400.0
2003-01-31,288600.0
2002-12-31,287800.0
2002-11-30,285900.0
2002-10-31,283600.0
2002-09-30,282800.0
2002-08-31,283300.0
2002-07-31,282600.0
2002-06-30,279200.0
2002-05-31,274100.0
2002-04-30,269600.0
2002-03-31,267800.0
2002-02-28,268100.0
2002-01-31,268000.0
2001-12-31,266900.0
2001-11-30,266200.0
2001-10-31,267700.0
2001-09-30,269500.0
2001-08-31,270000.0
2001-07-31,270100.0
2001-06-30,270700.0
2001-05-31,271800.0
2001-04-30,273700.0
2001-03-31,275000.0
2001-02-28,274300.0
2001-01-31,272900.0
2000-12-31,271400.0
2000-11-30,269700.0
2000-10-31,267300.0
2000-09-30,264100.0
2000-08-31,261300.0
2000-07-31,259200.0
2000-06-30,256600.0
2000-05-31,252800.0
2000-04-30,247700.0
2000-03-31,244800.0
2000-02-29,243700.0
2000-01-31,241800.0
1999-12-31,238800.0
1999-11-30,237400.0
1999-10-31,236600.0
1999-09-30,234800.0
1999-08-31,231600.0
1999-07-31,228900.0
1999-06-30,228500.0
1999-05-31,228400.0
1999-04-30,227500.0
1999-03-31,225800.0
1999-02-28,224200.0
1999-01-31,222600.0
1998-12-31,221300.0
1998-11-30,219800.0
1998-10-31,217200.0
1998-09-30,213800.0
1998-08-31,211300.0
1998-07-31,210100.0
1998-06-30,207500.0
1998-05-31,203500.0
1998-04-30,199600.0
1998-03-31,195600.0
1998-02-28,190900.0
1998-01-31,187100.0
1997-12-31,184900.0
1997-11-30,183300.0
1997-10-31,181300.0
1997-09-30,179500.0
1997-08-31,179000.0
1997-07-31,177700.0
1997-06-30,175000.0
1997-05-31,172700.0
1997-04-30,171600.0
1997-03-31,169900.0
1997-02-28,168500.0
1997-01-31,168000.0
1996-12-31,167900.0
1996-11-30,166300.0
1996-10-31,164800.0
1996-09-30,164600.0
1996-08-31,164800.0
1996-07-31,163900.0
1996-06-30,163200.0
1996-05-31,163400.0
1996-04-30,164300.0
