Date,Value
2015-09-30,0.932
2015-08-31,0.932
2015-07-31,0.926
2015-06-30,0.92
2015-05-31,0.916
2015-04-30,0.906
2015-03-31,0.9
2015-02-28,0.896
2015-01-31,0.9
2014-12-31,0.896
2014-11-30,0.888
2014-10-31,0.878
2014-09-30,0.864
2014-08-31,0.854
2014-07-31,0.84
2014-06-30,0.828
2014-05-31,0.824
2014-04-30,0.828
2014-03-31,0.84
2014-02-28,0.852
2014-01-31,0.854
2013-12-31,0.85
2013-11-30,0.85
2013-10-31,0.846
2013-09-30,0.844
2013-08-31,0.838
2013-07-31,0.83
2013-06-30,0.824
2013-05-31,0.816
2013-04-30,0.804
2013-03-31,0.8
2013-02-28,0.808
2013-01-31,0.812
2012-12-31,0.806
2012-11-30,0.798
2012-10-31,0.79
2012-09-30,0.792
2012-08-31,0.794
2012-07-31,0.796
2012-06-30,0.792
2012-05-31,0.788
2012-04-30,0.78
2012-03-31,0.782
2012-02-29,0.794
2012-01-31,0.796
2011-12-31,0.782
2011-11-30,0.764
2011-10-31,0.752
2011-09-30,0.752
2011-08-31,0.75
2011-07-31,0.752
2011-06-30,0.752
2011-05-31,0.752
2011-04-30,0.746
2011-03-31,0.714
2011-02-28,0.662
2011-01-31,0.612
2010-12-31,0.62
2010-11-30,0.63
