Date,Value
2015-08-31,237485.0
2015-07-31,203823.5294
2015-06-30,196538.4615
2013-10-31,211280.0
2013-09-30,231280.0
2012-09-30,204691.7647
2012-08-31,174972.3077
2012-06-30,207280.0
2011-08-31,231780.0
2010-09-30,205000.0
2009-10-31,223141.5385
2009-08-31,238780.0
2008-09-30,216232.0
2008-08-31,196555.0
2008-07-31,224280.0
2008-06-30,246208.5
2008-05-31,234320.9
2008-04-30,211248.6
2008-03-31,208223.75
2008-02-29,199935.0
2008-01-31,206585.0
2007-04-30,152965.2941
2007-03-31,171230.0
2006-10-31,158337.75
2006-09-30,162037.5
2006-08-31,168079.4
2006-07-31,172928.6
2006-06-30,165328.0
2006-05-31,172822.4
2006-04-30,174416.0
2006-03-31,158896.0
2005-08-31,175853.0
2005-07-31,173075.0
2005-06-30,177465.0
2005-05-31,184352.9412
2005-04-30,155000.0
2005-01-31,149200.0
2004-10-31,148782.3529
2004-09-30,162884.6154
2004-07-31,159675.0
2004-06-30,179794.1176
2004-05-31,179500.0
2003-11-30,188578.0
2003-10-31,160557.0
2003-09-30,191910.0
2003-08-31,172915.0
2003-06-30,111885.0
2003-05-31,123076.7
2003-04-30,126863.75
2003-03-31,133263.5882
2003-02-28,109243.0
2002-07-31,99900.0
2000-07-31,116826.9231
2000-05-31,101000.0
1999-08-31,95500.0
1996-05-31,76600.0
