Date,Value
2015-04-30,1100.0
2014-04-30,995.0
2014-03-31,995.0
2014-02-28,1250.0
2013-07-31,1100.0
2013-06-30,1125.0
2013-05-31,1175.0
2013-02-28,885.0
2013-01-31,1299.0
2012-07-31,1200.0
2012-05-31,1350.0
2012-04-30,1150.0
2012-02-29,1295.0
2011-10-31,885.0
