Date,Value
2015-02-28,669000.0
2015-01-31,585000.0
2014-12-31,590000.0
2014-11-30,590000.0
2014-10-31,625000.0
2014-09-30,629000.0
2014-08-31,550000.0
2014-07-31,579000.0
2014-06-30,590000.0
2014-05-31,579000.0
2014-04-30,500000.0
2014-03-31,469000.0
2014-02-28,479000.0
2014-01-31,479000.0
2013-12-31,550000.0
2013-11-30,524900.0
2013-10-31,539000.0
2013-09-30,523800.0
2013-08-31,539900.0
2013-07-31,535000.0
2013-06-30,565000.0
2013-05-31,575000.0
2013-04-30,599000.0
2013-03-31,500000.0
2013-02-28,500000.0
2013-01-31,549000.0
2012-12-31,639000.0
2012-11-30,719000.0
2012-10-31,740000.0
2012-09-30,739000.0
2012-08-31,719000.0
2012-07-31,688500.0
2012-06-30,499000.0
2012-05-31,549000.0
2012-04-30,529950.0
2012-03-31,475000.0
2012-02-29,469999.0
2012-01-31,475000.0
2011-12-31,479999.0
2011-11-30,469999.0
2011-10-31,464800.0
2011-09-30,454800.0
2011-08-31,469800.0
2011-07-31,499000.0
2011-06-30,479800.0
2011-05-31,479850.0
2011-04-30,475000.0
2011-03-31,459000.0
2011-02-28,459000.0
2011-01-31,449950.0
2010-12-31,489000.0
2010-11-30,489000.0
2010-10-31,512950.0
2010-09-30,459000.0
2010-08-31,449950.0
2010-07-31,449000.0
2010-06-30,429950.0
2010-05-31,449000.0
2010-04-30,439000.0
2010-03-31,428888.0
2010-02-28,439000.0
2010-01-31,449000.0
2009-12-31,449950.0
2009-11-30,439000.0
2009-10-31,469000.0
2009-09-30,469000.0
2009-08-31,480000.0
2009-07-31,449950.0
2009-06-30,479950.0
2009-05-31,499950.0
2009-04-30,519950.0
2009-03-31,497950.0
2009-02-28,497950.0
2009-01-31,499950.0
2008-12-31,540000.0
2008-11-30,579000.0
2008-10-31,574990.0
