Date,Value
2014-12-31,148900.0
2014-11-30,144000.0
2014-08-31,159000.0
2014-07-31,155000.0
2013-09-30,113500.0
2013-08-31,118800.0
2013-07-31,113500.0
2013-06-30,110900.0
2013-05-31,110900.0
2013-04-30,110900.0
2012-11-30,89000.0
2012-10-31,99000.0
2012-09-30,89000.0
2012-08-31,89000.0
2012-07-31,94900.0
2012-04-30,93900.0
2012-03-31,109900.0
2011-12-31,94900.0
2011-11-30,85900.0
2011-10-31,87000.0
2011-09-30,99900.0
2011-08-31,129900.0
2011-07-31,123500.0
2011-06-30,110000.0
2011-05-31,109900.0
2011-04-30,109900.0
2011-03-31,108500.0
2011-02-28,119900.0
2011-01-31,119900.0
2010-12-31,123500.0
2010-11-30,123500.0
2010-10-31,123500.0
2010-09-30,120000.0
2010-08-31,125900.0
2010-07-31,127000.0
2010-06-30,123500.0
2010-05-31,139900.0
2010-04-30,149000.0
2010-03-31,149000.0
2010-02-28,135900.0
2010-01-31,135900.0
2009-12-31,134900.0
2009-11-30,149000.0
2009-10-31,139900.0
2009-09-30,144900.0
2009-08-31,149000.0
2009-07-31,149000.0
2009-06-30,143900.0
2009-05-31,149000.0
2009-04-30,143900.0
2009-03-31,140000.0
2009-02-28,154900.0
2009-01-31,149900.0
2008-12-31,149000.0
2008-11-30,156655.0
2008-10-31,170000.0
