Date,Value
2015-09-30,394500.0
2015-06-30,356400.0
2015-05-31,359783.25
2015-04-30,359244.25
2015-02-28,348550.0
2015-01-31,357200.0
2014-12-31,364242.5
2014-11-30,354582.5
2014-10-31,341025.0
2014-09-30,351035.0
2014-08-31,354257.5
2014-07-31,336432.5
2014-06-30,345325.0
2014-05-31,341350.0
2014-04-30,370352.9412
2014-03-31,346295.3846
2014-01-31,322811.7647
2013-12-31,339283.8462
2013-10-31,332505.0
2013-09-30,346280.0
2013-08-31,353995.5
2013-07-31,354474.5
2013-06-30,353340.0
2013-05-31,339330.0
2013-04-30,337927.0588
2013-03-31,381369.2308
2013-01-31,363500.0
2012-12-31,335392.0
2012-11-30,327290.0
2012-10-31,327305.0
2012-09-30,338580.5
2012-08-31,322439.5
2012-07-31,323965.0
2012-06-30,304788.15
2012-05-31,286285.2941
2012-04-30,291523.0769
2011-12-31,297762.3529
2011-11-30,301676.5
2011-10-31,312832.25
2011-09-30,332778.75
2011-08-31,269240.0
2011-07-31,260284.5
2011-06-30,264082.9412
2011-05-31,261216.1538
2011-03-31,265270.0
2010-12-31,277692.3077
2010-10-31,284113.5294
2010-09-30,294205.9231
2010-07-31,302104.5
2010-06-30,298957.5
2010-05-31,299676.4706
2010-04-30,335000.0
2009-11-30,321192.5
2009-10-31,326731.0
2009-09-30,338721.0
2009-08-31,339746.5
2009-07-31,330983.75
2009-06-30,335851.4706
2009-05-31,329925.0
2008-10-31,315000.0
2008-07-31,360453.7692
2008-05-31,385991.5
2008-04-30,380125.0
2008-03-31,388900.0
2008-02-29,391842.5
2008-01-31,390319.5
2007-12-31,387778.0
2007-11-30,380940.0
2007-10-31,395250.0
2007-09-30,403750.0
2007-08-31,423500.0
2007-07-31,440750.0
2007-06-30,410250.0
2007-05-31,410950.0
2007-04-30,414800.0
2007-03-31,424700.0
2007-02-28,411000.0
2007-01-31,379600.0
2006-12-31,389842.0
2006-11-30,416123.0
2006-10-31,418215.0
2006-09-30,399800.0
2006-08-31,404550.0
2006-07-31,401200.0
2006-06-30,387500.0
2006-05-31,379100.0
2006-04-30,356980.0
2006-03-31,378770.0
2006-02-28,331950.0
2006-01-31,310650.0
2005-12-31,298250.0
2005-11-30,329900.0
2005-10-31,348450.0
2005-09-30,356900.0
2005-08-31,357000.0
2005-07-31,349750.0
2005-06-30,344250.0
2005-05-31,336200.0
2005-04-30,344300.0
2005-03-31,319500.0
2005-02-28,310285.0
2005-01-31,296565.0
2004-12-31,298792.5
2004-11-30,299582.5
2004-10-31,297125.0
2004-09-30,292248.5
2004-08-31,284196.5
2004-07-31,270637.5
2004-06-30,262882.5
2004-05-31,262925.0
2004-04-30,254425.0
2004-03-31,251117.5
2004-02-29,264225.0
2004-01-31,264957.5
2003-12-31,249600.0
2003-11-30,249117.5
2003-10-31,248275.0
2003-09-30,250850.0
2003-08-31,254882.5
2003-07-31,265342.5
2003-06-30,269920.0
2003-05-31,276455.0
2003-04-30,274557.5
2003-03-31,278477.1
2003-02-28,278879.9
2003-01-31,275282.0
2002-12-31,270592.5
2002-11-30,266725.0
2002-10-31,267400.0
2002-09-30,259257.5
2002-08-31,262725.0
2002-07-31,245100.0
2002-06-30,252892.5
2002-05-31,243525.0
2002-04-30,238900.0
2002-03-31,228382.5
2002-02-28,228900.0
2002-01-31,226592.5
2001-12-31,226332.5
2001-11-30,230367.5
2001-10-31,234375.15
2001-09-30,227615.2
2001-08-31,226335.15
2001-07-31,225707.0
2001-06-30,218417.5
2001-05-31,226032.5
2001-04-30,234075.0
2001-03-31,242042.5
2001-02-28,239025.0
2001-01-31,230707.5
2000-12-31,226041.45
2000-11-30,223147.55
2000-10-31,222195.45
2000-09-30,226305.05
2000-08-31,222171.5
2000-07-31,229700.0
2000-06-30,232492.5
2000-05-31,221232.5
2000-04-30,220175.6
2000-03-31,209651.4
2000-02-29,211061.1765
2000-01-31,197680.7692
1999-11-30,207325.0
1999-10-31,203892.5
1999-09-30,201682.5
1999-08-31,202275.0
1999-07-31,209742.5
1999-06-30,216475.0
1999-05-31,208182.5
1999-04-30,193175.0
1999-03-31,196575.0
1999-02-28,185588.2353
1999-01-31,178384.6154
1998-11-30,179975.0
1998-10-31,187100.0
1998-09-30,186945.0
1998-08-31,185255.0
1998-07-31,183800.0
1998-06-30,181575.0
1998-05-31,178917.5
1998-04-30,174282.5
1998-03-31,179750.0
1998-02-28,170050.0
1998-01-31,170825.0
1997-12-31,168692.5
1997-11-30,173432.5
1997-10-31,182550.0
1997-09-30,177067.5
1997-08-31,176275.0
1997-07-31,176050.0
1997-06-30,183807.5
1997-05-31,173975.0
1997-04-30,171342.5
1997-03-31,168685.2941
1997-02-28,173950.0
1996-11-30,179850.0
1996-10-31,172500.0
1996-09-30,156150.0
1996-08-31,166242.5
1996-07-31,172025.0
1996-06-30,190157.5
1996-05-31,183300.0
1996-04-30,174075.0
