Date,Value
2014-07-31,1950.0
2014-03-31,1846.0
2014-02-28,1551.0
2014-01-31,1601.0
2013-12-31,1311.0
2013-11-30,1311.0
2013-10-31,1617.0
2013-09-30,1374.0
2013-08-31,1323.0
2013-07-31,1650.0
2013-05-31,1195.0
2011-10-31,1225.0
