Date,Value
2015-09-30,1.026
2015-08-31,1.024
2015-07-31,1.014
2015-06-30,1.004
2015-05-31,0.988
2015-04-30,0.972
2015-03-31,0.96
2015-02-28,0.948
2015-01-31,0.946
2014-12-31,0.95
2014-11-30,0.96
2014-10-31,0.954
2014-09-30,0.956
2014-08-31,0.958
2014-07-31,0.96
2014-06-30,0.962
2014-05-31,0.958
2014-04-30,0.956
2014-03-31,0.956
2014-02-28,0.954
2014-01-31,0.958
2013-12-31,0.966
2013-11-30,0.964
2013-10-31,0.944
2013-09-30,0.93
2013-08-31,0.922
2013-07-31,0.914
2013-06-30,0.906
2013-05-31,0.9
2013-04-30,0.892
2013-03-31,0.886
2013-02-28,0.884
2013-01-31,0.886
2012-12-31,0.892
2012-11-30,0.898
2012-10-31,0.894
2012-09-30,0.89
2012-08-31,0.878
2012-07-31,0.87
2012-06-30,0.864
2012-05-31,0.87
2012-04-30,0.87
2012-03-31,0.872
2012-02-29,0.864
2012-01-31,0.856
2011-12-31,0.85
2011-11-30,0.848
2011-10-31,0.838
2011-09-30,0.846
2011-08-31,0.858
2011-07-31,0.864
2011-06-30,0.866
2011-05-31,0.862
2011-04-30,0.86
2011-03-31,0.854
2011-02-28,0.86
2011-01-31,0.854
2010-12-31,0.836
2010-11-30,0.812
