Date,Value
2015-02-28,329000.0
2015-01-31,359000.0
2014-12-31,359000.0
2014-11-30,329950.0
2014-10-31,315000.0
2014-09-30,339950.0
2014-08-31,339950.0
2014-07-31,349500.0
2014-06-30,349500.0
2014-05-31,309950.0
2014-04-30,275000.0
2014-03-31,249950.0
2014-02-28,219000.0
2014-01-31,215000.0
2013-12-31,215000.0
2013-11-30,259900.0
2013-10-31,259900.0
2013-09-30,269000.0
2013-08-31,298900.0
2013-07-31,274950.0
2013-06-30,290000.0
2013-05-31,279000.0
2013-04-30,277500.0
2013-03-31,269000.0
2013-02-28,279000.0
2013-01-31,279000.0
2012-12-31,249950.0
2012-11-30,263000.0
2012-10-31,259950.0
2012-09-30,259950.0
2012-08-31,259000.0
2012-07-31,269950.0
2012-06-30,274950.0
2012-05-31,265000.0
2012-04-30,219950.0
2012-03-31,234555.0
2012-02-29,230000.0
2012-01-31,219950.0
2011-12-31,236074.0
2011-11-30,239900.0
2011-10-31,239900.0
2011-09-30,244900.0
2011-08-31,249900.0
2011-07-31,249900.0
2011-06-30,269000.0
2011-05-31,269000.0
2011-04-30,299000.0
2011-03-31,299000.0
2011-02-28,299000.0
2011-01-31,289900.0
2010-12-31,299950.0
2010-11-30,299950.0
2010-10-31,314950.0
2010-09-30,279999.0
2010-08-31,279999.0
2010-07-31,297677.0
2010-06-30,309950.0
2010-05-31,309950.0
2010-04-30,315000.0
2010-03-31,349000.0
2010-02-28,310000.0
2010-01-31,310000.0
2009-12-31,315000.0
2009-11-30,329950.0
2009-10-31,325000.0
2009-09-30,329950.0
2009-08-31,325000.0
2009-07-31,329950.0
2009-06-30,289950.0
2009-05-31,269000.0
2009-04-30,299999.0
2009-03-31,339950.0
2009-02-28,339950.0
2009-01-31,339950.0
2008-12-31,339950.0
2008-11-30,359000.0
2008-10-31,399777.0
