Date,Value
2015-09-30,176000.0
2015-08-31,171900.0
2015-07-31,167500.0
2015-06-30,165500.0
2015-05-31,163500.0
2015-04-30,164400.0
2015-03-31,167800.0
2015-02-28,169400.0
2015-01-31,166800.0
2014-12-31,166700.0
2014-11-30,166500.0
2014-10-31,166000.0
2014-09-30,164900.0
2014-08-31,163700.0
2014-07-31,161100.0
2014-06-30,157100.0
2014-05-31,153800.0
2014-04-30,150100.0
2014-03-31,144800.0
2014-02-28,141300.0
2014-01-31,139000.0
2013-12-31,136100.0
2013-11-30,135400.0
2013-10-31,137000.0
2013-09-30,137200.0
2013-08-31,135400.0
2013-07-31,134200.0
2013-06-30,133900.0
2013-05-31,132700.0
2013-04-30,130500.0
2013-03-31,127600.0
2013-02-28,122800.0
2013-01-31,118600.0
2012-12-31,116700.0
2012-11-30,114800.0
2012-10-31,112700.0
2012-09-30,110500.0
2012-08-31,107600.0
2012-07-31,104600.0
2012-06-30,103500.0
2012-05-31,103500.0
2012-04-30,104000.0
2012-03-31,105200.0
2012-02-29,109300.0
2012-01-31,115200.0
2011-12-31,120100.0
2011-11-30,120900.0
2011-10-31,120300.0
2011-09-30,120400.0
2011-08-31,121700.0
2011-07-31,123500.0
2011-06-30,125600.0
2011-05-31,126800.0
2011-04-30,126700.0
2011-03-31,128100.0
2011-02-28,132400.0
2011-01-31,136000.0
2010-12-31,137900.0
2010-11-30,140200.0
2010-10-31,142700.0
2010-09-30,145400.0
2010-08-31,149300.0
2010-07-31,153300.0
2010-06-30,155800.0
2010-05-31,157900.0
2010-04-30,159900.0
2010-03-31,162500.0
2010-02-28,165200.0
2010-01-31,166500.0
2009-12-31,165100.0
2009-11-30,164200.0
2009-10-31,164800.0
2009-09-30,166900.0
2009-08-31,169400.0
2009-07-31,172900.0
2009-06-30,176000.0
2009-05-31,179100.0
2009-04-30,183000.0
2009-03-31,186800.0
2009-02-28,188200.0
2009-01-31,188600.0
2008-12-31,190400.0
2008-11-30,192900.0
2008-10-31,194100.0
2008-09-30,194500.0
2008-08-31,195400.0
2008-07-31,196800.0
2008-06-30,197600.0
2008-05-31,198900.0
2008-04-30,201500.0
2008-03-31,204000.0
2008-02-29,205900.0
2008-01-31,207700.0
2007-12-31,209300.0
2007-11-30,209900.0
2007-10-31,210400.0
2007-09-30,210700.0
2007-08-31,210200.0
2007-07-31,209200.0
2007-06-30,208900.0
2007-05-31,208800.0
2007-04-30,207900.0
2007-03-31,205000.0
2007-02-28,199300.0
2007-01-31,194100.0
2006-12-31,191600.0
2006-11-30,189900.0
2006-10-31,187400.0
2006-09-30,184500.0
2006-08-31,179800.0
2006-07-31,174600.0
2006-06-30,169900.0
2006-05-31,165700.0
2006-04-30,160600.0
2006-03-31,156200.0
2006-02-28,152900.0
2006-01-31,149800.0
2005-12-31,146800.0
2005-11-30,144600.0
2005-10-31,142800.0
2005-09-30,140900.0
2005-08-31,139100.0
2005-07-31,137400.0
2005-06-30,135900.0
2005-05-31,134200.0
2005-04-30,132500.0
2005-03-31,130700.0
2005-02-28,129300.0
2005-01-31,128400.0
2004-12-31,127400.0
2004-11-30,125900.0
2004-10-31,124200.0
2004-09-30,123300.0
2004-08-31,123900.0
2004-07-31,124700.0
2004-06-30,124500.0
2004-05-31,124100.0
2004-04-30,124100.0
2004-03-31,124500.0
2004-02-29,124900.0
2004-01-31,125000.0
2003-12-31,124400.0
2003-11-30,123800.0
2003-10-31,124100.0
2003-09-30,124300.0
2003-08-31,124300.0
2003-07-31,124400.0
2003-06-30,124600.0
2003-05-31,124600.0
2003-04-30,124600.0
2003-03-31,123800.0
2003-02-28,123100.0
2003-01-31,123000.0
2002-12-31,122900.0
2002-11-30,122500.0
2002-10-31,122500.0
2002-09-30,122500.0
2002-08-31,121700.0
2002-07-31,120700.0
2002-06-30,119800.0
2002-05-31,118500.0
2002-04-30,117600.0
2002-03-31,117600.0
2002-02-28,117200.0
2002-01-31,116200.0
2001-12-31,115900.0
2001-11-30,116500.0
2001-10-31,116900.0
2001-09-30,116700.0
2001-08-31,115900.0
2001-07-31,115000.0
2001-06-30,114900.0
2001-05-31,116100.0
2001-04-30,116900.0
2001-03-31,116500.0
2001-02-28,115800.0
2001-01-31,115300.0
2000-12-31,114700.0
2000-11-30,114000.0
2000-10-31,113300.0
2000-09-30,112000.0
2000-08-31,110700.0
2000-07-31,108900.0
2000-06-30,106500.0
2000-05-31,103500.0
2000-04-30,101700.0
2000-03-31,100700.0
2000-02-29,100200.0
2000-01-31,100000.0
1999-12-31,99900.0
1999-11-30,98600.0
1999-10-31,97100.0
1999-09-30,96100.0
1999-08-31,95700.0
1999-07-31,95800.0
1999-06-30,96200.0
1999-05-31,96200.0
1999-04-30,95700.0
1999-03-31,94700.0
1999-02-28,93700.0
1999-01-31,92800.0
1998-12-31,91500.0
1998-11-30,90200.0
1998-10-31,89100.0
1998-09-30,88100.0
1998-08-31,87500.0
1998-07-31,86900.0
1998-06-30,85800.0
1998-05-31,84800.0
1998-04-30,83900.0
1998-03-31,82900.0
1998-02-28,81800.0
1998-01-31,81200.0
1997-12-31,80600.0
1997-11-30,79700.0
1997-10-31,78700.0
1997-09-30,78200.0
1997-08-31,77600.0
1997-07-31,76700.0
1997-06-30,76100.0
1997-05-31,75900.0
1997-04-30,75300.0
1997-03-31,74200.0
1997-02-28,73800.0
1997-01-31,73900.0
1996-12-31,74200.0
1996-11-30,74400.0
1996-10-31,74300.0
1996-09-30,73900.0
1996-08-31,73800.0
1996-07-31,73700.0
1996-06-30,73400.0
1996-05-31,73400.0
1996-04-30,74000.0
