Date,Value
2013-06-30,282500.0
2013-05-31,289900.0
2012-12-31,300000.0
2012-11-30,300000.0
2011-06-30,225600.0
2011-05-31,234900.0
2011-04-30,312100.0
2011-03-31,315180.0
2011-02-28,315180.0
2011-01-31,312100.0
2010-12-31,315180.0
2010-11-30,312100.0
2010-10-31,315180.0
2010-09-30,315180.0
2010-08-31,319900.0
2010-07-31,244950.0
2010-06-30,319900.0
2010-05-31,379000.0
2010-04-30,369900.0
2010-03-31,354950.0
2010-02-28,244950.0
2010-01-31,244950.0
2009-10-31,249950.0
