Date,Value
2014-12-31,1550.0
2014-10-31,1400.0
2014-03-31,1650.0
2014-02-28,1550.0
2014-01-31,1550.0
2013-12-31,1600.0
2013-11-30,1550.0
2013-10-31,1950.0
2013-08-31,1650.0
2013-01-31,1700.0
2012-07-31,1475.0
2012-06-30,1300.0
2012-05-31,1395.0
2011-11-30,1295.0
2011-09-30,1450.0
