Date,Value
2015-06-30,1995.0
2015-05-31,1695.0
2015-04-30,1850.0
2014-10-31,2490.0
2014-09-30,2500.0
2014-08-31,2785.0
2014-07-31,1905.0
2014-06-30,1900.0
2014-05-31,2200.0
2014-04-30,2200.0
2014-03-31,1629.0
2014-02-28,1700.0
2014-01-31,1700.0
2013-12-31,1695.0
2013-11-30,1695.0
2013-10-31,1688.0
2013-09-30,1717.0
2013-08-31,1534.0
2013-07-31,1570.0
2013-06-30,1517.0
2013-05-31,1950.0
2013-04-30,1900.0
2013-03-31,2113.0
2013-02-28,1495.0
2013-01-31,1337.0
2012-12-31,1550.0
2012-11-30,1946.0
2012-10-31,1654.0
2012-09-30,1637.0
2012-08-31,1713.0
2012-07-31,1600.0
2012-06-30,1637.0
2012-05-31,1225.0
2012-04-30,1455.0
2012-03-31,1475.0
2012-02-29,1475.0
2012-01-31,1700.0
2011-12-31,1500.0
2011-11-30,1350.0
2011-10-31,1895.0
2011-09-30,2000.0
2011-03-31,1350.0
2011-02-28,1100.0
2011-01-31,960.0
2010-12-31,1100.0
2010-11-30,1225.0
2010-10-31,1350.0
2010-09-30,1350.0
2010-08-31,1200.0
2010-07-31,1200.0
2010-06-30,950.0
