Date,Value
2015-02-28,299950.0
2015-01-31,279900.0
2014-12-31,355000.0
2014-11-30,344950.0
2014-10-31,349950.0
2014-09-30,400000.0
2014-08-31,389000.0
2014-07-31,395000.0
2014-06-30,369997.0
2014-05-31,359000.0
2014-04-30,368950.0
2014-03-31,335000.0
2014-02-28,325000.0
2014-01-31,325000.0
2013-12-31,300000.0
2013-11-30,325000.0
2013-10-31,340000.0
2013-09-30,349500.0
2013-08-31,349500.0
2013-07-31,340000.0
2013-06-30,324950.0
2013-05-31,364900.0
2013-04-30,349950.0
2013-03-31,349950.0
2013-02-28,300000.0
2013-01-31,309950.0
2012-12-31,310000.0
2012-11-30,299000.0
2012-10-31,309000.0
2012-09-30,300000.0
2012-08-31,322000.0
2012-07-31,324000.0
2012-06-30,324000.0
2012-05-31,322000.0
2012-04-30,299000.0
2012-03-31,270000.0
2012-02-29,269950.0
2012-01-31,228200.0
2011-12-31,235000.0
2011-11-30,225000.0
2011-10-31,242000.0
2011-09-30,255000.0
2011-08-31,269951.0
2011-07-31,255000.0
2011-06-30,255000.0
2011-05-31,249950.0
2011-04-30,264950.0
2011-03-31,270000.0
2011-02-28,265000.0
2011-01-31,265000.0
2010-12-31,279950.0
2010-11-30,284500.0
2010-10-31,289950.0
2010-09-30,289950.0
2010-08-31,295000.0
2010-07-31,295000.0
2010-06-30,299900.0
2010-05-31,312000.0
2010-04-30,295000.0
2010-03-31,300000.0
2010-02-28,290000.0
2010-01-31,290000.0
2009-12-31,299921.0
2009-11-30,305000.0
2009-10-31,329500.0
2009-09-30,350000.0
2009-08-31,365000.0
2009-07-31,350000.0
2009-06-30,359000.0
2009-05-31,339900.0
2009-04-30,350000.0
2009-03-31,335000.0
2009-02-28,310000.0
2009-01-31,325000.0
2008-12-31,339950.0
2008-11-30,350000.0
2008-10-31,384900.0
