Date,Value
2014-05-31,161500.0
2014-03-31,164000.0
2012-07-31,169900.0
2012-01-31,174900.0
2011-12-31,175000.0
2011-11-30,179900.0
2011-10-31,190000.0
2011-09-30,199000.0
2011-08-31,199000.0
2011-07-31,194999.0
2011-06-30,292000.0
2011-05-31,210000.0
2011-04-30,292000.0
2011-03-31,292000.0
2010-07-31,189000.0
2010-06-30,219000.0
2010-05-31,219000.0
2010-04-30,219000.0
2009-10-31,205000.0
2009-09-30,205000.0
2009-08-31,225000.0
