Date,Value
2014-12-31,578800.0
2014-11-30,630000.0
2014-10-31,575000.0
2014-09-30,575000.0
2014-08-31,575000.0
2014-07-31,600000.0
2014-06-30,634900.0
2014-05-31,600000.0
2014-04-30,600000.0
2014-01-31,477500.0
2013-12-31,520000.0
2013-11-30,584950.0
2013-10-31,549000.0
2013-09-30,560000.0
2013-08-31,560000.0
2013-07-31,574900.0
2013-06-30,549000.0
2013-05-31,488000.0
2013-04-30,519000.0
2013-03-31,559950.0
2013-02-28,550000.0
2013-01-31,559950.0
2012-12-31,475000.0
2012-11-30,535000.0
2012-10-31,495000.0
2012-09-30,525000.0
2012-08-31,525000.0
2012-07-31,535000.0
2012-06-30,535000.0
2012-05-31,559000.0
2012-04-30,449900.0
2012-03-31,419500.0
2012-02-29,399950.0
2012-01-31,439900.0
2011-12-31,449000.0
2011-11-30,440000.0
2011-10-31,449900.0
2011-09-30,449900.0
2011-08-31,469950.0
2011-07-31,475000.0
2011-06-30,475000.0
2011-05-31,499000.0
2011-04-30,525000.0
2011-03-31,499888.0
2011-02-28,489950.0
2011-01-31,475995.0
2010-12-31,475000.0
2010-11-30,460000.0
2010-10-31,455000.0
2010-09-30,475000.0
2010-08-31,475000.0
2010-07-31,474990.0
2010-06-30,499000.0
2010-05-31,499900.0
2010-04-30,455000.0
2010-03-31,455000.0
2010-02-28,438000.0
2010-01-31,449950.0
2009-12-31,474990.0
2009-11-30,485000.0
2009-10-31,498800.0
2009-09-30,498800.0
2009-08-31,485000.0
2009-07-31,575000.0
2009-06-30,485000.0
2009-05-31,520000.0
2009-04-30,525000.0
2009-03-31,569950.0
2009-02-28,569950.0
2009-01-31,569950.0
2008-12-31,569950.0
2008-11-30,564900.0
2008-10-31,569950.0
