Date,Value
2015-07-31,845794.1176
2015-06-30,840383.4615
2015-04-30,599995.0
2014-10-31,900000.0
2014-07-31,702879.0
2014-06-30,759618.8235
2014-05-31,648360.0
2013-10-31,510000.0
2013-05-31,687200.0
2011-12-31,470000.0
2011-06-30,548000.0
2010-07-31,653000.0
2008-03-31,642852.0
2007-11-30,609000.0
2007-08-31,651250.0
2007-06-30,701307.6923
2007-04-30,787352.9412
2007-03-31,785000.0
2006-07-31,682029.4118
2006-06-30,750000.0
2005-12-31,610000.0
2005-09-30,532325.0
2005-08-31,528925.0
2005-07-31,584000.0
2005-06-30,603500.0
2005-05-31,559140.0
2005-04-30,516910.0
2005-03-31,503588.2353
2005-02-28,528461.5385
2004-12-31,439225.0
2004-11-30,465682.5
2004-10-31,542647.0588
2004-09-30,496500.0
2004-06-30,455450.0
2004-05-31,415588.2353
2004-04-30,435000.0
2003-11-30,352352.9412
2003-10-31,310000.0
2003-07-31,424882.3529
2003-06-30,454384.6154
2003-04-30,339000.0
2002-10-31,259692.3077
2002-08-31,340226.1538
2002-06-30,357382.5
2002-05-31,358732.5
2002-04-30,327323.5294
2002-03-31,295000.0
2001-07-31,346550.0
2001-06-30,397300.0
2001-04-30,294125.0
2001-03-31,275600.0
2001-02-28,245825.0
2001-01-31,226764.7059
2000-12-31,230000.0
2000-08-31,322500.0
2000-03-31,359423.0769
2000-01-31,399000.0
1999-09-30,265000.0
1999-07-31,265164.7059
1999-06-30,265400.0
1998-12-31,225000.0
1998-09-30,274325.0
1998-08-31,234147.0588
1998-07-31,231500.0
1997-07-31,228000.0
