Date,Value
2013-11-30,315000.0
2013-10-31,345900.0
2013-09-30,375000.0
2012-11-30,289900.0
2012-10-31,386000.0
2012-01-31,235000.0
2011-12-31,219900.0
2011-03-31,229900.0
2011-02-28,260000.0
2011-01-31,260000.0
2010-12-31,275000.0
2010-11-30,279900.0
2010-10-31,275000.0
2010-09-30,275000.0
2010-08-31,275000.0
2010-07-31,299900.0
2010-06-30,299900.0
2010-05-31,299900.0
2010-04-30,299900.0
2010-03-31,299900.0
2010-02-28,299900.0
2010-01-31,299900.0
2009-12-31,295000.0
2009-11-30,295000.0
2009-10-31,230000.0
2009-09-30,299900.0
