Date,Value
2015-09-30,359800.0
2015-08-31,354300.0
2015-07-31,353600.0
2015-06-30,357500.0
2015-05-31,353600.0
2015-04-30,348400.0
2015-03-31,340800.0
2015-02-28,338400.0
2015-01-31,338400.0
2014-12-31,337400.0
2014-11-30,334400.0
2014-10-31,331200.0
2014-09-30,329800.0
2014-08-31,327500.0
2014-07-31,324100.0
2014-06-30,322000.0
2014-05-31,318000.0
2014-04-30,309500.0
2014-03-31,300800.0
2014-02-28,294700.0
2014-01-31,290900.0
2013-12-31,288700.0
2013-11-30,287600.0
2013-10-31,286100.0
2013-09-30,283200.0
2013-08-31,281000.0
2013-07-31,279100.0
2013-06-30,276300.0
2013-05-31,273800.0
2013-04-30,272500.0
2013-03-31,271000.0
2013-02-28,270200.0
2013-01-31,267800.0
2012-12-31,263000.0
2012-11-30,258500.0
2012-10-31,254800.0
2012-09-30,251500.0
2012-08-31,248300.0
2012-07-31,245000.0
2012-06-30,242200.0
2012-05-31,238800.0
2012-04-30,235500.0
2012-03-31,234600.0
2012-02-29,236200.0
2012-01-31,238200.0
2011-12-31,240600.0
2011-11-30,242400.0
2011-10-31,243300.0
2011-09-30,244000.0
2011-08-31,244400.0
2011-07-31,245200.0
2011-06-30,247600.0
2011-05-31,251200.0
2011-04-30,254000.0
2011-03-31,256300.0
2011-02-28,258200.0
2011-01-31,259700.0
2010-12-31,260200.0
2010-11-30,260500.0
2010-10-31,261200.0
2010-09-30,264000.0
2010-08-31,269200.0
2010-07-31,273300.0
2010-06-30,274400.0
2010-05-31,276100.0
2010-04-30,279600.0
2010-03-31,282300.0
2010-02-28,283700.0
2010-01-31,284100.0
2009-12-31,282800.0
2009-11-30,281000.0
2009-10-31,280100.0
2009-09-30,279600.0
2009-08-31,279700.0
2009-07-31,280300.0
2009-06-30,280700.0
2009-05-31,281300.0
2009-04-30,284000.0
2009-03-31,288500.0
2009-02-28,292300.0
2009-01-31,295600.0
2008-12-31,299200.0
2008-11-30,303400.0
2008-10-31,307500.0
2008-09-30,310400.0
2008-08-31,312100.0
2008-07-31,313700.0
2008-06-30,315700.0
2008-05-31,320900.0
2008-04-30,326700.0
2008-03-31,328000.0
2008-02-29,327700.0
2008-01-31,329700.0
2007-12-31,333600.0
2007-11-30,338200.0
2007-10-31,341500.0
2007-09-30,343600.0
2007-08-31,347100.0
2007-07-31,351100.0
2007-06-30,352900.0
2007-05-31,351800.0
2007-04-30,349200.0
2007-03-31,346500.0
2007-02-28,343800.0
2007-01-31,340400.0
2006-12-31,336600.0
2006-11-30,333000.0
2006-10-31,330800.0
2006-09-30,329000.0
2006-08-31,326100.0
2006-07-31,321900.0
2006-06-30,317800.0
2006-05-31,313000.0
2006-04-30,307900.0
2006-03-31,304400.0
2006-02-28,302400.0
2006-01-31,300100.0
2005-12-31,297700.0
2005-11-30,296100.0
2005-10-31,294600.0
2005-09-30,291200.0
2005-08-31,285800.0
2005-07-31,281500.0
2005-06-30,279400.0
2005-05-31,276500.0
2005-04-30,273100.0
2005-03-31,270300.0
2005-02-28,267500.0
2005-01-31,263900.0
2004-12-31,259900.0
2004-11-30,254900.0
2004-10-31,250200.0
2004-09-30,246500.0
2004-08-31,243100.0
2004-07-31,240100.0
2004-06-30,238800.0
2004-05-31,237700.0
2004-04-30,236800.0
2004-03-31,235700.0
2004-02-29,232500.0
2004-01-31,229600.0
2003-12-31,228900.0
2003-11-30,228100.0
2003-10-31,226100.0
2003-09-30,225100.0
2003-08-31,224800.0
2003-07-31,225400.0
2003-06-30,224900.0
2003-05-31,222900.0
2003-04-30,219800.0
2003-03-31,218200.0
2003-02-28,218000.0
2003-01-31,218500.0
2002-12-31,218800.0
2002-11-30,218600.0
2002-10-31,217800.0
2002-09-30,216800.0
2002-08-31,216100.0
2002-07-31,214200.0
2002-06-30,211300.0
2002-05-31,209900.0
2002-04-30,209900.0
2002-03-31,209800.0
2002-02-28,209900.0
2002-01-31,210300.0
2001-12-31,209700.0
2001-11-30,209700.0
2001-10-31,209600.0
2001-09-30,209200.0
2001-08-31,208500.0
2001-07-31,208300.0
2001-06-30,208500.0
2001-05-31,208700.0
2001-04-30,207400.0
2001-03-31,205800.0
2001-02-28,205200.0
2001-01-31,205100.0
2000-12-31,204600.0
2000-11-30,203700.0
2000-10-31,203500.0
2000-09-30,203200.0
2000-08-31,203100.0
2000-07-31,202600.0
2000-06-30,201700.0
2000-05-31,200300.0
2000-04-30,198100.0
2000-03-31,195300.0
2000-02-29,193300.0
2000-01-31,191300.0
1999-12-31,188200.0
1999-11-30,185500.0
1999-10-31,183500.0
1999-09-30,182100.0
1999-08-31,180400.0
1999-07-31,178600.0
1999-06-30,176600.0
1999-05-31,174700.0
1999-04-30,173300.0
1999-03-31,172000.0
1999-02-28,170700.0
1999-01-31,169300.0
1998-12-31,167900.0
1998-11-30,166600.0
1998-10-31,166100.0
1998-09-30,165200.0
1998-08-31,163200.0
1998-07-31,159900.0
1998-06-30,157200.0
1998-05-31,155800.0
1998-04-30,154600.0
1998-03-31,152000.0
1998-02-28,149300.0
1998-01-31,146700.0
1997-12-31,144100.0
1997-11-30,142400.0
1997-10-31,141200.0
1997-09-30,139700.0
1997-08-31,138600.0
1997-07-31,138300.0
1997-06-30,137500.0
1997-05-31,136900.0
1997-04-30,137600.0
1997-03-31,138200.0
1997-02-28,137300.0
1997-01-31,136200.0
1996-12-31,135200.0
1996-11-30,133100.0
1996-10-31,130700.0
1996-09-30,129000.0
1996-08-31,128200.0
1996-07-31,127600.0
1996-06-30,127400.0
1996-05-31,127500.0
1996-04-30,128200.0
