Date,Value
2015-04-30,438000.0
2014-03-31,335000.0
2013-06-30,355000.0
2008-07-31,415000.0
2007-03-31,339950.0
2006-05-31,368000.0
2005-09-30,342942.5
2005-08-31,333540.5
2005-07-31,322678.8235
2005-06-30,282859.2308
2005-04-30,289464.7059
2005-03-31,303000.0
2004-10-31,306875.0
2004-09-30,320000.0
2004-08-31,285307.6923
2004-06-30,253000.0
2003-08-31,221000.0
2001-06-30,203000.0
1999-09-30,196441.1765
1999-08-31,198500.0
1999-03-31,147000.0
1997-05-31,125000.0
