Date,Value
2012-10-31,199950.0
2007-07-31,1829946.1538
2007-05-31,6965500.0
2007-02-28,290000.0
2006-10-31,292790.55
2006-09-30,290562.95
2006-08-31,267568.8235
2006-07-31,269900.0
2006-03-31,237000.0
2005-12-31,233653.8462
2005-10-31,218846.1538
2005-08-31,241125.0
2005-07-31,241970.5882
2005-06-30,240500.0
2005-03-31,223834.6154
2005-01-31,234250.0
2004-12-31,226292.5
2004-11-30,224017.5
2004-10-31,213282.5
2004-09-30,220667.5
2004-08-31,218125.0
2004-07-31,212963.5
2004-06-30,209381.5
2004-05-31,200110.0
2004-04-30,193764.7059
2004-03-31,165000.0
2003-11-30,199692.3077
2003-09-30,191176.4706
2003-08-31,180000.0
2003-05-31,198900.0
2002-10-31,208950.0
2002-07-31,179615.3846
2002-05-31,180882.3529
2002-04-30,175000.0
2001-05-31,170212.3077
2001-03-31,170920.0
2000-11-30,179950.0
1998-03-31,136500.0
1997-12-31,124500.0
1997-05-31,128000.0
