Date,Value
2015-08-31,1.174
2015-07-31,1.148
2015-06-30,1.138
2015-05-31,1.128
2015-04-30,1.116
2015-03-31,1.11
2015-02-28,1.102
2015-01-31,1.1
2014-12-31,1.098
2014-11-30,1.096
2014-10-31,1.096
2014-09-30,1.094
2014-08-31,1.09
2014-07-31,1.082
2014-06-30,1.07
2014-05-31,1.066
2014-04-30,1.058
2014-03-31,1.054
2014-02-28,1.05
2014-01-31,1.058
2013-12-31,1.064
2013-11-30,1.062
2013-10-31,1.052
2013-09-30,1.042
2013-08-31,1.04
2013-07-31,1.04
2013-06-30,1.04
2013-05-31,1.04
2013-04-30,1.04
2013-03-31,1.036
2013-02-28,1.028
2013-01-31,1.014
2012-12-31,1.002
2012-11-30,0.998
2012-10-31,0.998
2012-09-30,1.0
2012-08-31,0.994
2012-07-31,0.994
2012-06-30,0.992
2012-05-31,0.994
2012-04-30,0.996
2012-03-31,0.998
2012-02-29,0.998
2012-01-31,0.99
2011-12-31,0.984
2011-11-30,0.98
2011-10-31,0.978
2011-09-30,0.978
2011-08-31,0.98
2011-07-31,0.978
2011-06-30,0.978
2011-05-31,0.97
2011-04-30,0.964
2011-03-31,0.958
2011-02-28,0.962
2011-01-31,0.964
2010-12-31,0.966
2010-11-30,0.962
