Date,Value
2015-09-30,0.832
2015-08-31,0.83
2015-07-31,0.828
2015-06-30,0.828
2015-05-31,0.826
2015-04-30,0.82
2015-03-31,0.814
2015-02-28,0.806
2015-01-31,0.8
2014-12-31,0.796
2014-11-30,0.798
2014-10-31,0.802
2014-09-30,0.802
2014-08-31,0.796
2014-07-31,0.79
2014-06-30,0.78
2014-05-31,0.774
2014-04-30,0.764
2014-03-31,0.76
2014-02-28,0.756
2014-01-31,0.756
2013-12-31,0.756
2013-11-30,0.756
2013-10-31,0.762
2013-09-30,0.762
2013-08-31,0.762
2013-07-31,0.764
2013-06-30,0.766
2013-05-31,0.764
2013-04-30,0.76
2013-03-31,0.752
2013-02-28,0.746
2013-01-31,0.742
2012-12-31,0.74
2012-11-30,0.74
2012-10-31,0.744
2012-09-30,0.746
2012-08-31,0.744
2012-07-31,0.744
2012-06-30,0.744
2012-05-31,0.736
2012-04-30,0.732
2012-03-31,0.724
2012-02-29,0.718
2012-01-31,0.71
2011-12-31,0.702
2011-11-30,0.692
2011-10-31,0.686
2011-09-30,0.678
2011-08-31,0.678
2011-07-31,0.68
2011-06-30,0.684
2011-05-31,0.696
2011-04-30,0.71
2011-03-31,0.724
2011-02-28,0.738
2011-01-31,0.75
2010-12-31,0.76
2010-11-30,0.762
