Date,Value
2015-09-30,0.844
2015-08-31,0.846
2015-07-31,0.85
2015-06-30,0.856
2015-05-31,0.854
2015-04-30,0.85
2015-03-31,0.844
2015-02-28,0.848
2015-01-31,0.848
2014-12-31,0.844
2014-11-30,0.836
2014-10-31,0.82
2014-09-30,0.808
2014-08-31,0.796
2014-07-31,0.78
2014-06-30,0.768
2014-05-31,0.764
2014-04-30,0.77
2014-03-31,0.784
2014-02-28,0.8
2014-01-31,0.804
2013-12-31,0.806
2013-11-30,0.81
2013-10-31,0.804
2013-09-30,0.794
2013-08-31,0.782
2013-07-31,0.774
2013-06-30,0.774
2013-05-31,0.776
2013-04-30,0.776
2013-03-31,0.778
2013-02-28,0.788
2013-01-31,0.79
2012-12-31,0.778
2012-11-30,0.762
2012-10-31,0.752
2012-09-30,0.756
2012-08-31,0.766
2012-07-31,0.77
2012-06-30,0.77
2012-05-31,0.766
2012-04-30,0.754
2012-03-31,0.756
2012-02-29,0.77
2012-01-31,0.776
2011-12-31,0.774
2011-11-30,0.768
2011-10-31,0.754
2011-09-30,0.756
2011-08-31,0.758
2011-07-31,0.756
2011-06-30,0.748
2011-05-31,0.732
2011-04-30,0.718
2011-03-31,0.678
2011-02-28,0.616
2011-01-31,0.558
2010-12-31,0.552
2010-11-30,0.554
