Date,Value
2015-09-30,319900.0
2015-08-31,295300.0
2015-07-31,290700.0
2015-06-30,290200.0
2015-05-31,290300.0
2015-04-30,284700.0
2015-03-31,269600.0
2015-02-28,266600.0
2015-01-31,267800.0
2014-12-31,266000.0
2014-11-30,265600.0
2014-10-31,266500.0
2014-09-30,267200.0
2014-08-31,266800.0
2014-07-31,264300.0
2014-06-30,263000.0
2014-05-31,264500.0
2014-04-30,269000.0
2014-03-31,276900.0
2014-02-28,279100.0
2014-01-31,272100.0
2013-12-31,267400.0
2013-11-30,260000.0
2013-10-31,246700.0
2013-09-30,239300.0
2013-08-31,237900.0
2013-07-31,233900.0
2013-06-30,227600.0
2013-05-31,220700.0
2013-04-30,213900.0
2013-03-31,209000.0
2013-02-28,205800.0
2013-01-31,203000.0
2012-12-31,200400.0
2012-11-30,199600.0
2012-10-31,198600.0
2012-09-30,197400.0
2012-08-31,197900.0
2012-07-31,199700.0
2012-06-30,201000.0
2012-05-31,201000.0
2012-04-30,199700.0
2012-03-31,197500.0
2012-02-29,196300.0
2012-01-31,195500.0
2011-12-31,195200.0
2011-11-30,196200.0
2011-10-31,198500.0
2011-09-30,199200.0
2011-08-31,198300.0
2011-07-31,198500.0
2011-06-30,200200.0
2011-05-31,203600.0
2011-04-30,208700.0
2011-03-31,217600.0
2011-02-28,227300.0
2011-01-31,231700.0
2010-12-31,232500.0
2010-11-30,234700.0
2010-10-31,237400.0
2010-09-30,239200.0
2010-08-31,241300.0
2010-07-31,242800.0
2010-06-30,243000.0
2010-05-31,242300.0
2010-04-30,241500.0
2010-03-31,239600.0
2010-02-28,238500.0
2010-01-31,241000.0
2009-12-31,243800.0
2009-11-30,246200.0
2009-10-31,248900.0
2009-09-30,251000.0
2009-08-31,251300.0
2009-07-31,253200.0
2009-06-30,256900.0
2009-05-31,261400.0
2009-04-30,263700.0
2009-03-31,263000.0
2009-02-28,262300.0
2009-01-31,266300.0
2008-12-31,272500.0
2008-11-30,277800.0
2008-10-31,281400.0
2008-09-30,283300.0
2008-08-31,284700.0
2008-07-31,287800.0
2008-06-30,292800.0
2008-05-31,299100.0
2008-04-30,306000.0
2008-03-31,310000.0
2008-02-29,312300.0
2008-01-31,314400.0
2007-12-31,315900.0
2007-11-30,315400.0
2007-10-31,314000.0
2007-09-30,312800.0
2007-08-31,313300.0
2007-07-31,313500.0
2007-06-30,312900.0
2007-05-31,311500.0
2007-04-30,309800.0
2007-03-31,308200.0
2007-02-28,307600.0
2007-01-31,306300.0
2006-12-31,303700.0
2006-11-30,301600.0
2006-10-31,302200.0
2006-09-30,302600.0
2006-08-31,300500.0
2006-07-31,297900.0
2006-06-30,295500.0
2006-05-31,292000.0
2006-04-30,287400.0
2006-03-31,282300.0
2006-02-28,277700.0
2006-01-31,274900.0
2005-12-31,272700.0
2005-11-30,270800.0
2005-10-31,268200.0
2005-09-30,265200.0
2005-08-31,262900.0
2005-07-31,260900.0
2005-06-30,258300.0
2005-05-31,254000.0
2005-04-30,250000.0
2005-03-31,247100.0
2005-02-28,245300.0
2005-01-31,242600.0
2004-12-31,239600.0
2004-11-30,235200.0
2004-10-31,231700.0
2004-09-30,230100.0
2004-08-31,230000.0
2004-07-31,228900.0
2004-06-30,226700.0
2004-05-31,224200.0
2004-04-30,222700.0
2004-03-31,220800.0
2004-02-29,217600.0
2004-01-31,214600.0
2003-12-31,213800.0
2003-11-30,213900.0
2003-10-31,212800.0
2003-09-30,212600.0
2003-08-31,212600.0
2003-07-31,212000.0
2003-06-30,207700.0
2003-05-31,203200.0
2003-04-30,201700.0
2003-03-31,203100.0
2003-02-28,202700.0
2003-01-31,202500.0
2002-12-31,203300.0
2002-11-30,204900.0
2002-10-31,206700.0
2002-09-30,208900.0
2002-08-31,210200.0
2002-07-31,208900.0
2002-06-30,206700.0
2002-05-31,204800.0
2002-04-30,201500.0
2002-03-31,198300.0
2002-02-28,197600.0
2002-01-31,196200.0
2001-12-31,192500.0
2001-11-30,187900.0
2001-10-31,184700.0
2001-09-30,182800.0
2001-08-31,182100.0
2001-07-31,184900.0
2001-06-30,191500.0
2001-05-31,196700.0
2001-04-30,198700.0
2001-03-31,201000.0
2001-02-28,202900.0
2001-01-31,202800.0
2000-12-31,200800.0
2000-11-30,199500.0
2000-10-31,198100.0
2000-09-30,196800.0
2000-08-31,192300.0
2000-07-31,185800.0
2000-06-30,182500.0
2000-05-31,184500.0
2000-04-30,185600.0
2000-03-31,183400.0
2000-02-29,179900.0
2000-01-31,177700.0
1999-12-31,176900.0
1999-11-30,175800.0
1999-10-31,173300.0
1999-09-30,169400.0
1999-08-31,166400.0
1999-07-31,163200.0
1999-06-30,160300.0
1999-05-31,157600.0
1999-04-30,157900.0
1999-03-31,159300.0
1999-02-28,160200.0
1999-01-31,158600.0
1998-12-31,157200.0
1998-11-30,157600.0
1998-10-31,156700.0
1998-09-30,152800.0
1998-08-31,149000.0
1998-07-31,146900.0
1998-06-30,143600.0
1998-05-31,139800.0
1998-04-30,135900.0
1998-03-31,133500.0
1998-02-28,133200.0
1998-01-31,133600.0
1997-12-31,132900.0
1997-11-30,132000.0
1997-10-31,131900.0
1997-09-30,132000.0
1997-08-31,132700.0
1997-07-31,133200.0
1997-06-30,132800.0
1997-05-31,132100.0
1997-04-30,131400.0
1997-03-31,129400.0
1997-02-28,127200.0
1997-01-31,126000.0
1996-12-31,125400.0
1996-11-30,125000.0
1996-10-31,125500.0
1996-09-30,125900.0
1996-08-31,125600.0
1996-07-31,125300.0
1996-06-30,125800.0
1996-05-31,126100.0
1996-04-30,126300.0
