Date,Value
2015-09-30,118900.0
2015-08-31,118100.0
2015-07-31,115200.0
2015-06-30,113500.0
2015-05-31,112600.0
2015-04-30,111300.0
2015-03-31,111300.0
2015-02-28,112600.0
2015-01-31,112800.0
2014-12-31,112100.0
2014-11-30,110900.0
2014-10-31,109900.0
2014-09-30,109600.0
2014-08-31,109800.0
2014-07-31,109900.0
2014-06-30,109900.0
2014-05-31,109900.0
2014-04-30,111000.0
2014-03-31,112700.0
2014-02-28,113000.0
2014-01-31,111500.0
2013-12-31,110100.0
2013-11-30,109700.0
2013-10-31,109700.0
2013-09-30,109200.0
2013-08-31,108800.0
2013-07-31,108600.0
2013-06-30,108400.0
2013-05-31,108200.0
2013-04-30,107700.0
2013-03-31,107000.0
2013-02-28,106900.0
2013-01-31,107100.0
2012-12-31,107300.0
2012-11-30,107100.0
2012-10-31,107100.0
2012-09-30,107000.0
2012-08-31,107000.0
2012-07-31,107100.0
2012-06-30,107500.0
2012-05-31,107500.0
2012-04-30,107300.0
2012-03-31,107600.0
2012-02-29,107700.0
2012-01-31,107800.0
2011-12-31,107900.0
2011-11-30,108000.0
2011-10-31,107900.0
2011-09-30,108300.0
2011-08-31,109100.0
2011-07-31,109900.0
2011-06-30,110600.0
2011-05-31,111400.0
2011-04-30,111900.0
2011-03-31,112000.0
2011-02-28,112500.0
2011-01-31,113300.0
2010-12-31,114300.0
2010-11-30,115800.0
2010-10-31,117200.0
2010-09-30,118500.0
2010-08-31,119500.0
2010-07-31,120500.0
2010-06-30,120900.0
2010-05-31,121100.0
2010-04-30,121400.0
2010-03-31,121800.0
2010-02-28,122400.0
2010-01-31,123100.0
2009-12-31,123700.0
2009-11-30,123700.0
2009-10-31,123600.0
2009-09-30,123700.0
2009-08-31,123800.0
2009-07-31,123900.0
2009-06-30,124200.0
2009-05-31,124600.0
2009-04-30,124900.0
2009-03-31,125600.0
2009-02-28,126600.0
2009-01-31,127800.0
2008-12-31,128800.0
2008-11-30,129700.0
2008-10-31,130500.0
2008-09-30,130800.0
2008-08-31,130500.0
2008-07-31,130400.0
2008-06-30,130900.0
2008-05-31,131300.0
2008-04-30,131300.0
2008-03-31,131200.0
2008-02-29,130900.0
2008-01-31,130400.0
2007-12-31,130100.0
2007-11-30,130200.0
2007-10-31,130400.0
2007-09-30,130400.0
2007-08-31,130800.0
2007-07-31,131500.0
2007-06-30,131700.0
2007-05-31,131500.0
2007-04-30,131300.0
2007-03-31,130700.0
2007-02-28,129700.0
2007-01-31,128600.0
2006-12-31,127400.0
2006-11-30,126200.0
2006-10-31,125200.0
2006-09-30,124600.0
2006-08-31,123600.0
2006-07-31,121900.0
2006-06-30,120200.0
2006-05-31,119000.0
2006-04-30,117900.0
2006-03-31,116800.0
2006-02-28,116000.0
2006-01-31,115500.0
2005-12-31,115200.0
2005-11-30,114100.0
2005-10-31,112700.0
2005-09-30,111100.0
2005-08-31,109300.0
2005-07-31,107500.0
2005-06-30,105700.0
2005-05-31,103700.0
2005-04-30,101800.0
2005-03-31,100200.0
2005-02-28,98500.0
2005-01-31,97000.0
2004-12-31,95600.0
2004-11-30,94500.0
2004-10-31,93500.0
2004-09-30,92600.0
2004-08-31,91800.0
2004-07-31,90900.0
2004-06-30,89900.0
2004-05-31,89200.0
2004-04-30,88700.0
2004-03-31,88300.0
2004-02-29,88100.0
2004-01-31,87800.0
2003-12-31,87500.0
2003-11-30,87200.0
2003-10-31,86700.0
2003-09-30,86200.0
2003-08-31,85600.0
2003-07-31,84900.0
2003-06-30,84100.0
2003-05-31,83400.0
2003-04-30,82800.0
2003-03-31,81900.0
2003-02-28,81100.0
2003-01-31,80100.0
2002-12-31,78800.0
2002-11-30,77900.0
2002-10-31,77300.0
2002-09-30,76900.0
2002-08-31,76800.0
2002-07-31,76800.0
2002-06-30,77100.0
2002-05-31,78000.0
2002-04-30,78700.0
2002-03-31,79600.0
2002-02-28,80600.0
2002-01-31,81600.0
2001-12-31,82300.0
2001-11-30,82900.0
2001-10-31,83000.0
2001-09-30,82900.0
2001-08-31,82900.0
2001-07-31,83100.0
2001-06-30,83000.0
2001-05-31,82400.0
2001-04-30,81900.0
2001-03-31,81600.0
2001-02-28,80800.0
2001-01-31,80000.0
2000-12-31,79600.0
2000-11-30,79800.0
2000-10-31,80000.0
2000-09-30,80000.0
2000-08-31,79900.0
2000-07-31,80400.0
2000-06-30,80700.0
2000-05-31,80700.0
2000-04-30,80400.0
2000-03-31,80100.0
2000-02-29,79700.0
2000-01-31,79300.0
1999-12-31,79000.0
1999-11-30,78700.0
1999-10-31,78500.0
1999-09-30,78300.0
1999-08-31,78300.0
1999-07-31,78500.0
1999-06-30,78800.0
1999-05-31,79400.0
1999-04-30,79900.0
1999-03-31,80000.0
1999-02-28,79800.0
1999-01-31,79900.0
1998-12-31,79700.0
1998-11-30,79500.0
1998-10-31,79500.0
1998-09-30,79700.0
1998-08-31,79700.0
1998-07-31,79400.0
1998-06-30,79400.0
1998-05-31,79500.0
1998-04-30,79000.0
1998-03-31,78300.0
1998-02-28,77800.0
1998-01-31,77300.0
1997-12-31,77000.0
1997-11-30,76700.0
1997-10-31,76200.0
1997-09-30,75900.0
1997-08-31,75800.0
1997-07-31,75500.0
1997-06-30,75200.0
1997-05-31,75000.0
1997-04-30,75100.0
1997-03-31,75100.0
1997-02-28,75200.0
1997-01-31,75400.0
1996-12-31,75400.0
1996-11-30,75000.0
1996-10-31,75100.0
1996-09-30,75200.0
1996-08-31,75100.0
1996-07-31,74900.0
1996-06-30,74600.0
1996-05-31,74200.0
1996-04-30,73800.0
