Date,Value
2015-09-30,494800.0
2015-08-31,486700.0
2015-07-31,483100.0
2015-06-30,483500.0
2015-05-31,480900.0
2015-04-30,479400.0
2015-03-31,478100.0
2015-02-28,474500.0
2015-01-31,468200.0
2014-12-31,466000.0
2014-11-30,461700.0
2014-10-31,457700.0
2014-09-30,456000.0
2014-08-31,454800.0
2014-07-31,452000.0
2014-06-30,447500.0
2014-05-31,443600.0
2014-04-30,440500.0
2014-03-31,438100.0
2014-02-28,437800.0
2014-01-31,437900.0
2013-12-31,434600.0
2013-11-30,431900.0
2013-10-31,430400.0
2013-09-30,429600.0
2013-08-31,428400.0
2013-07-31,426400.0
2013-06-30,422900.0
2013-05-31,419900.0
2013-04-30,418000.0
2013-03-31,418200.0
2013-02-28,419500.0
2013-01-31,419900.0
2012-12-31,420700.0
2012-11-30,420900.0
2012-10-31,419900.0
2012-09-30,416900.0
2012-08-31,413400.0
2012-07-31,410100.0
2012-06-30,407300.0
2012-05-31,403300.0
2012-04-30,400200.0
2012-03-31,398800.0
2012-02-29,397900.0
2012-01-31,397500.0
2011-12-31,396900.0
2011-11-30,396800.0
2011-10-31,396300.0
2011-09-30,396800.0
2011-08-31,398200.0
2011-07-31,401200.0
2011-06-30,403700.0
2011-05-31,406800.0
2011-04-30,408500.0
2011-03-31,409000.0
2011-02-28,411300.0
2011-01-31,415700.0
2010-12-31,418500.0
2010-11-30,418600.0
2010-10-31,418000.0
2010-09-30,417200.0
2010-08-31,417700.0
2010-07-31,419400.0
2010-06-30,421000.0
2010-05-31,421500.0
2010-04-30,421600.0
2010-03-31,419300.0
2010-02-28,415000.0
2010-01-31,412900.0
2009-12-31,414200.0
2009-11-30,417200.0
2009-10-31,422500.0
2009-09-30,428200.0
2009-08-31,430500.0
2009-07-31,428700.0
2009-06-30,427200.0
2009-05-31,427400.0
2009-04-30,428300.0
2009-03-31,429900.0
2009-02-28,432700.0
2009-01-31,432900.0
2008-12-31,431400.0
2008-11-30,431900.0
2008-10-31,433700.0
2008-09-30,433100.0
2008-08-31,432400.0
2008-07-31,435200.0
2008-06-30,441600.0
2008-05-31,447100.0
2008-04-30,449900.0
2008-03-31,451500.0
2008-02-29,451300.0
2008-01-31,449400.0
2007-12-31,448600.0
2007-11-30,448400.0
2007-10-31,447200.0
2007-09-30,447600.0
2007-08-31,446600.0
2007-07-31,442700.0
2007-06-30,438400.0
2007-05-31,437300.0
2007-04-30,439400.0
2007-03-31,441500.0
2007-02-28,439000.0
2007-01-31,436500.0
2006-12-31,436100.0
2006-11-30,433700.0
2006-10-31,429800.0
2006-09-30,427500.0
2006-08-31,429000.0
2006-07-31,432200.0
2006-06-30,433800.0
2006-05-31,433300.0
2006-04-30,431800.0
2006-03-31,428900.0
2006-02-28,428500.0
2006-01-31,429700.0
2005-12-31,429500.0
2005-11-30,428400.0
2005-10-31,426600.0
2005-09-30,423400.0
2005-08-31,419400.0
2005-07-31,414800.0
2005-06-30,409300.0
2005-05-31,403600.0
2005-04-30,397300.0
2005-03-31,391200.0
2005-02-28,386000.0
2005-01-31,379800.0
2004-12-31,373000.0
2004-11-30,367700.0
2004-10-31,362500.0
2004-09-30,356700.0
2004-08-31,351600.0
2004-07-31,346200.0
2004-06-30,340800.0
2004-05-31,335800.0
2004-04-30,330500.0
2004-03-31,326400.0
2004-02-29,323300.0
2004-01-31,319600.0
2003-12-31,315000.0
2003-11-30,310000.0
2003-10-31,305300.0
2003-09-30,300600.0
2003-08-31,297700.0
2003-07-31,296600.0
2003-06-30,294900.0
2003-05-31,291500.0
2003-04-30,287800.0
2003-03-31,283000.0
2003-02-28,277900.0
2003-01-31,273900.0
2002-12-31,270800.0
2002-11-30,269000.0
2002-10-31,268000.0
2002-09-30,266700.0
2002-08-31,261500.0
2002-07-31,256000.0
2002-06-30,252300.0
2002-05-31,248700.0
2002-04-30,245200.0
2002-03-31,246100.0
2002-02-28,248200.0
2002-01-31,248500.0
2001-12-31,247400.0
2001-11-30,245800.0
2001-10-31,243300.0
2001-09-30,240400.0
2001-08-31,237900.0
2001-07-31,237100.0
2001-06-30,237000.0
2001-05-31,236000.0
2001-04-30,234800.0
2001-03-31,232800.0
2001-02-28,229800.0
2001-01-31,228300.0
2000-12-31,229500.0
2000-11-30,229900.0
2000-10-31,229500.0
2000-09-30,230800.0
2000-08-31,232500.0
2000-07-31,230700.0
2000-06-30,226800.0
2000-05-31,223800.0
2000-04-30,222000.0
2000-03-31,220200.0
2000-02-29,218900.0
2000-01-31,217800.0
1999-12-31,216500.0
1999-11-30,215400.0
1999-10-31,213300.0
1999-09-30,211500.0
1999-08-31,210600.0
1999-07-31,210300.0
1999-06-30,210400.0
1999-05-31,213200.0
1999-04-30,215200.0
1999-03-31,214300.0
1999-02-28,211700.0
1999-01-31,208600.0
1998-12-31,203700.0
1998-11-30,199100.0
1998-10-31,196600.0
1998-09-30,195000.0
1998-08-31,193500.0
1998-07-31,192700.0
1998-06-30,191500.0
1998-05-31,189800.0
1998-04-30,188700.0
1998-03-31,187800.0
1998-02-28,186400.0
1998-01-31,186300.0
1997-12-31,187700.0
1997-11-30,189100.0
1997-10-31,190300.0
1997-09-30,191800.0
1997-08-31,192600.0
1997-07-31,192400.0
1997-06-30,192000.0
1997-05-31,191300.0
1997-04-30,190200.0
1997-03-31,189700.0
1997-02-28,189900.0
1997-01-31,189000.0
1996-12-31,186600.0
1996-11-30,185500.0
1996-10-31,185800.0
1996-09-30,185100.0
1996-08-31,183700.0
1996-07-31,182500.0
1996-06-30,182300.0
1996-05-31,182400.0
1996-04-30,183000.0
