Date,Value
2014-12-31,179000.0
2011-03-31,159700.0
2011-02-28,159900.0
2010-12-31,199000.0
2010-11-30,200000.0
2010-10-31,200000.0
2010-09-30,200000.0
2010-08-31,200000.0
2010-07-31,200000.0
2010-05-31,210000.0
