Date,Value
2015-09-30,386050.0
2015-08-31,394825.0
2015-07-31,432675.0
2015-06-30,424500.0
2015-05-31,389500.0
2015-04-30,403500.0
2015-03-31,412375.0
2015-02-28,354625.0
2015-01-31,355850.0
2014-12-31,367650.0
2014-11-30,375000.0
2014-10-31,382030.0
2014-09-30,404070.0
2014-08-31,384600.0
2014-07-31,379500.0
2014-06-30,409500.0
2014-05-31,412500.0
2014-04-30,382158.75
2014-03-31,337703.75
2014-02-28,383212.5
2014-01-31,417400.0
2013-12-31,403750.0
2013-11-30,436200.0
2013-10-31,418425.0
2013-09-30,427175.0
2013-08-31,394450.0
2013-07-31,396550.0
2013-06-30,383215.0
2013-05-31,387835.0
2013-04-30,358750.0
2013-03-31,321000.0
2013-02-28,339000.0
2013-01-31,354525.0
2012-12-31,366725.0
2012-11-30,336900.0
2012-10-31,316450.15
2012-09-30,326150.35
2012-08-31,323500.5
2012-07-31,307100.0
2012-06-30,301750.0
2012-05-31,323400.0
2012-04-30,343000.0
2012-03-31,314850.0
2012-02-29,417692.3077
2011-12-31,338957.5
2011-11-30,320925.0
2011-10-31,350875.0
2011-09-30,355000.0
2011-08-31,394550.0
2011-07-31,324700.0
2011-06-30,363750.0
2011-05-31,375300.0
2011-04-30,367200.0
2011-03-31,312500.0
2011-02-28,337000.0
2011-01-31,384650.0
2010-12-31,380400.0
2010-11-30,454150.0
2010-10-31,303850.0
2010-09-30,340500.0
2010-08-31,335750.0
2010-07-31,344025.0
2010-06-30,358225.0
2010-05-31,362000.0
2010-04-30,336500.0
2010-03-31,328750.0
2010-02-28,355500.0
2010-01-31,335500.0
2009-12-31,293250.0
2009-11-30,298250.0
2009-10-31,328775.0
2009-09-30,335225.0
2009-08-31,342500.0
2009-07-31,347350.0
2009-06-30,340650.0
2009-05-31,319500.0
2009-04-30,296000.0
2009-03-31,318250.0
2009-02-28,356735.0
2009-01-31,371065.0
2008-12-31,351100.0
2008-11-30,343500.0
2008-10-31,384500.0
2008-09-30,389550.0
2008-08-31,349750.0
2008-07-31,345942.5
2008-06-30,343682.5
2008-05-31,358475.0
2008-04-30,350300.0
2008-03-31,362750.0
2008-02-29,352000.0
2008-01-31,348100.0
2007-12-31,335000.0
2007-11-30,370500.0
2007-10-31,386625.0
2007-09-30,396025.0
2007-08-31,402175.0
2007-07-31,400867.5
2007-06-30,406425.0
2007-05-31,399057.5
2007-04-30,380125.0
2007-03-31,360750.0
2007-02-28,366250.0
2007-01-31,361750.0
2006-12-31,369500.0
2006-11-30,364492.5
2006-10-31,357482.5
2006-09-30,353475.0
2006-08-31,327184.0
2006-07-31,332446.0
2006-06-30,348930.0
2006-05-31,357400.0
2006-04-30,354100.0
2006-03-31,360250.0
2006-02-28,388200.0
2006-01-31,383050.0
2005-12-31,418985.0
2005-11-30,368715.0
2005-10-31,342700.0
2005-09-30,337750.0
2005-08-31,312250.0
2005-07-31,317485.0
2005-06-30,299965.0
2005-05-31,306700.0
2005-04-30,309442.5
2005-03-31,300432.5
2005-02-28,253942.5
2005-01-31,260857.5
2004-12-31,274975.0
2004-11-30,290492.5
2004-10-31,278732.5
2004-09-30,322725.0
2004-08-31,359050.0
2004-07-31,314450.0
2004-06-30,292000.0
2004-05-31,269300.0
2004-04-30,256625.0
2004-03-31,249325.0
2004-02-29,264750.0
2004-01-31,260000.0
2003-12-31,255950.0
2003-11-30,251000.0
2003-10-31,245450.0
2003-09-30,252025.0
2003-08-31,238950.0
2003-07-31,250367.5
2003-06-30,277982.5
2003-05-31,297925.0
2003-04-30,244025.0
2003-03-31,253550.0
2003-02-28,266475.0
2003-01-31,293642.5
2002-12-31,269532.5
2002-11-30,277275.0
2002-10-31,255450.0
2002-09-30,246350.0
2002-08-31,270200.0
2002-07-31,273375.0
2002-06-30,278125.0
2002-05-31,272250.0
2002-04-30,275525.0
2002-03-31,264475.0
2002-02-28,247885.0
2002-01-31,221807.5
2001-12-31,227175.0
2001-11-30,236207.5
2001-10-31,236975.0
2001-09-30,210375.0
2001-08-31,235475.0
2001-07-31,265292.5
2001-06-30,298307.5
2001-05-31,289850.0
2001-04-30,235350.0
2001-03-31,233550.0
2001-02-28,224325.0
2001-01-31,245525.0
2000-12-31,203900.0
2000-11-30,225050.0
2000-10-31,247450.0
2000-09-30,239500.0
2000-08-31,263650.0
2000-07-31,231092.5
2000-06-30,226332.5
2000-05-31,222375.0
2000-04-30,206360.0
2000-03-31,206090.0
2000-01-31,278200.0
1999-12-31,251750.0
1999-11-30,241915.0
1999-10-31,195885.0
1999-09-30,197550.0
1999-08-31,201492.5
1999-07-31,197757.5
1999-06-30,203150.0
1999-05-31,200125.0
1999-04-30,185525.0
1999-03-31,203750.0
1999-02-28,214900.0
1999-01-31,224000.0
1998-12-31,195092.5
1998-11-30,209500.0
1998-10-31,174382.5
1998-09-30,173675.0
1998-08-31,183140.0
1998-07-31,183060.0
1998-06-30,193892.5
1998-05-31,205257.5
1998-04-30,194592.5
1998-03-31,166057.5
1998-02-28,163900.0
1998-01-31,159550.0
1997-12-31,183050.0
1997-11-30,191200.0
1997-10-31,212150.0
1997-09-30,176150.0
1997-08-31,193250.0
1997-07-31,197900.0
1997-06-30,171575.0
1997-05-31,179575.0
1997-04-30,165550.0
1997-03-31,160212.5
1997-02-28,177937.5
1997-01-31,170185.0
1996-12-31,153915.0
1996-11-30,170300.0
1996-10-31,173125.0
1996-09-30,172850.0
1996-08-31,171025.0
1996-07-31,155600.0
1996-06-30,139392.5
1996-05-31,155725.0
1996-04-30,151882.5
