Date,Value
2015-02-28,725000.0
2015-01-31,674999.0
2014-12-31,700000.0
2014-11-30,729900.0
2014-10-31,725000.0
2014-09-30,729950.0
2014-08-31,749950.0
2014-07-31,769950.0
2014-06-30,789950.0
2014-05-31,769950.0
2014-04-30,829000.0
2014-03-31,879950.0
2014-02-28,879950.0
2014-01-31,829950.0
2013-12-31,860000.0
2013-11-30,860000.0
2013-10-31,819950.0
2013-09-30,879950.0
2013-08-31,879950.0
2013-07-31,879950.0
2013-06-30,899950.0
2013-05-31,849950.0
2013-04-30,779950.0
2013-03-31,750000.0
2013-02-28,849950.0
2013-01-31,825000.0
2012-12-31,825000.0
2012-11-30,789000.0
2012-10-31,719950.0
2012-09-30,775000.0
2012-08-31,749950.0
2012-07-31,775000.0
2012-06-30,839950.0
2012-05-31,749950.0
2012-04-30,699950.0
2012-03-31,699950.0
2012-02-29,639000.0
2012-01-31,639000.0
2011-12-31,658000.0
2011-11-30,639000.0
2011-10-31,639000.0
2011-09-30,549999.0
2011-08-31,579950.0
2011-07-31,549950.0
2011-06-30,530000.0
2011-05-31,598888.0
2011-04-30,569000.0
2011-03-31,554000.0
2011-02-28,600000.0
2011-01-31,639000.0
2010-12-31,639000.0
2010-11-30,610000.0
2010-10-31,629500.0
2010-09-30,639000.0
2010-08-31,649500.0
2010-07-31,649500.0
2010-06-30,715000.0
2010-05-31,695000.0
2010-04-30,619000.0
2010-03-31,624950.0
2010-02-28,624950.0
2010-01-31,624950.0
2009-12-31,624950.0
2009-11-30,624950.0
2009-10-31,750000.0
2009-09-30,828000.0
2009-08-31,898000.0
2009-07-31,898000.0
2009-06-30,835000.0
2009-05-31,739950.0
2009-04-30,649000.0
2009-03-31,750000.0
2009-02-28,750000.0
2009-01-31,828000.0
2008-12-31,795000.0
2008-11-30,795000.0
2008-10-31,835000.0
