Date,Value
2015-02-28,449000.0
2015-01-31,449000.0
2014-11-30,435000.0
2014-10-31,449950.0
2014-09-30,450000.0
2014-08-31,519888.0
2014-07-31,550000.0
2014-06-30,589950.0
2014-05-31,539999.0
2014-04-30,549000.0
2014-03-31,549999.0
2014-02-28,595000.0
2014-01-31,659000.0
2013-12-31,574830.0
2013-11-30,539000.0
2013-10-31,539000.0
2013-09-30,439950.0
2013-08-31,500000.0
2013-07-31,535000.0
2013-06-30,499000.0
2013-05-31,438000.0
2013-04-30,435000.0
2013-03-31,485000.0
2013-02-28,488000.0
2013-01-31,465000.0
2012-12-31,494950.0
2012-11-30,494950.0
2012-10-31,524900.0
2012-09-30,494950.0
2012-08-31,449000.0
2012-07-31,465000.0
2012-06-30,400000.0
2012-04-30,300000.0
2012-03-31,379500.0
2012-01-31,424950.0
2011-12-31,399950.0
2011-11-30,400000.0
2011-10-31,400000.0
2011-09-30,400000.0
2011-08-31,395000.0
2011-07-31,399900.0
2011-06-30,395000.0
2011-05-31,385000.0
2011-04-30,399950.0
2011-03-31,372500.0
2011-02-28,372500.0
2011-01-31,449000.0
2010-12-31,429000.0
2010-11-30,429000.0
2010-10-31,429000.0
2010-09-30,432000.0
2010-08-31,432000.0
2010-07-31,449950.0
2010-06-30,465000.0
2010-05-31,469950.0
2010-04-30,465000.0
2010-03-31,455000.0
2010-02-28,449900.0
2010-01-31,446950.0
2009-12-31,432000.0
2009-11-30,446950.0
2009-10-31,474950.0
2009-09-30,449000.0
2009-08-31,465000.0
2009-07-31,439000.0
2009-06-30,475000.0
2009-05-31,489950.0
2009-04-30,485000.0
2009-03-31,475000.0
2009-02-28,350000.0
2009-01-31,350000.0
2008-12-31,350000.0
2008-11-30,384888.0
2008-10-31,450000.0
