Date,Value
2015-06-30,1025.0
2015-05-31,1150.0
2015-04-30,1100.0
2015-03-31,1125.0
2015-02-28,750.0
2015-01-31,690.0
2014-12-31,1050.0
2014-11-30,1199.0
2014-10-31,750.0
2014-09-30,725.0
2014-08-31,900.0
2014-07-31,1025.0
2014-06-30,975.0
2014-05-31,975.0
2014-04-30,1050.0
2014-03-31,1050.0
2014-02-28,900.0
2014-01-31,710.0
2013-12-31,775.0
2013-08-31,1075.0
2013-07-31,1100.0
2013-06-30,1050.0
2013-05-31,1100.0
2013-04-30,1100.0
2012-11-30,1050.0
2012-10-31,1000.0
2012-09-30,1050.0
2012-08-31,800.0
2012-07-31,890.0
2012-06-30,890.0
2012-05-31,1025.0
2012-04-30,1050.0
2012-03-31,900.0
2012-02-29,750.0
2011-12-31,655.0
2011-11-30,675.0
2011-10-31,825.0
2011-09-30,725.0
2011-08-31,900.0
2011-07-31,915.0
2011-06-30,995.0
2011-05-31,1000.0
2011-04-30,1000.0
2011-01-31,750.0
