Date,Value
2015-02-28,229000.0
2014-12-31,180000.0
2014-11-30,180000.0
2014-10-31,139999.0
2014-09-30,110000.0
2014-08-31,115000.0
2014-07-31,110000.0
2014-06-30,111500.0
2014-05-31,111500.0
2014-04-30,120000.0
2014-03-31,130900.0
2014-02-28,105900.0
2014-01-31,114900.0
2013-12-31,114900.0
2013-10-31,105900.0
2013-09-30,105900.0
2013-08-31,109300.0
2013-07-31,109300.0
2013-06-30,109300.0
2012-11-30,99900.0
2012-10-31,161900.0
2012-09-30,161900.0
2012-08-31,149000.0
2012-07-31,135500.0
2012-06-30,135500.0
2012-05-31,140000.0
2012-04-30,159900.0
2012-03-31,126500.0
2012-02-29,125000.0
2012-01-31,134900.0
2011-12-31,112500.0
2011-11-30,109900.0
2011-10-31,109900.0
2011-09-30,114900.0
2011-08-31,119000.0
2011-07-31,119900.0
2011-06-30,120000.0
2011-05-31,139900.0
2011-04-30,120000.0
2011-03-31,125000.0
2011-02-28,159900.0
2011-01-31,147500.0
2010-12-31,147500.0
2010-11-30,147500.0
2010-10-31,152000.0
2010-09-30,145000.0
2010-08-31,154000.0
2010-07-31,159900.0
2010-06-30,154000.0
2010-05-31,159900.0
2010-04-30,131000.0
2010-03-31,131000.0
2010-02-28,131000.0
2010-01-31,169900.0
2009-12-31,169900.0
2009-11-30,169900.0
2009-10-31,174500.0
2009-09-30,184900.0
2009-08-31,179900.0
2009-07-31,184900.0
2009-06-30,189900.0
2009-05-31,213400.0
2009-04-30,222900.0
2009-03-31,224800.0
2009-02-28,225911.0
2009-01-31,239000.0
2008-12-31,239000.0
2008-11-30,242900.0
2008-10-31,244900.0
