Date,Value
2015-02-28,315000.0
2015-01-31,300000.0
2014-12-31,320000.0
2014-11-30,320000.0
2014-10-31,315000.0
2014-09-30,320000.0
2014-08-31,320000.0
2014-07-31,299950.0
2014-06-30,320000.0
2014-05-31,299950.0
2014-04-30,285000.0
2014-03-31,285000.0
2014-02-28,305000.0
2014-01-31,254000.0
2013-12-31,258000.0
2013-11-30,258000.0
2013-10-31,280000.0
2013-09-30,249900.0
2013-08-31,250000.0
2013-07-31,250000.0
2013-06-30,259950.0
2013-05-31,259950.0
2013-04-30,250000.0
2013-03-31,239000.0
2013-02-28,259900.0
2013-01-31,259900.0
2012-12-31,325000.0
2012-11-30,289000.0
2012-10-31,225000.0
2012-09-30,239500.0
2012-08-31,239500.0
2012-07-31,279950.0
2012-06-30,264999.0
2012-05-31,250000.0
2012-04-30,244500.0
2012-03-31,208050.0
2012-02-29,200000.0
2012-01-31,189900.0
2011-12-31,200000.0
2011-11-30,196462.0
2011-10-31,196462.0
2011-09-30,200000.0
2011-08-31,229950.0
2011-07-31,229950.0
2011-06-30,229950.0
2011-05-31,215000.0
2011-04-30,215000.0
2011-03-31,249950.0
2011-02-28,250000.0
2011-01-31,250000.0
2010-12-31,247950.0
2010-11-30,255000.0
2010-10-31,272500.0
2010-09-30,272500.0
2010-08-31,259500.0
2010-07-31,265000.0
2010-06-30,274500.0
2010-05-31,274500.0
2010-04-30,279500.0
2010-03-31,280000.0
2010-02-28,293000.0
2010-01-31,285000.0
2009-12-31,274500.0
2009-11-30,269950.0
2009-10-31,274950.0
2009-09-30,274500.0
2009-08-31,274500.0
2009-07-31,280000.0
2009-06-30,275000.0
2009-05-31,285000.0
2009-04-30,309950.0
2009-03-31,319900.0
2009-02-28,330000.0
2009-01-31,339900.0
2008-12-31,349950.0
2008-11-30,356000.0
2008-10-31,339000.0
