Date,Value
2015-09-30,343500.0
2015-08-31,340200.0
2015-07-31,336100.0
2015-06-30,340600.0
2015-05-31,344400.0
2015-04-30,337300.0
2015-03-31,325000.0
2015-02-28,321600.0
2015-01-31,316900.0
2014-12-31,315900.0
2014-11-30,314600.0
2014-10-31,313400.0
2014-09-30,313400.0
2014-08-31,314200.0
2014-07-31,314900.0
2014-06-30,314100.0
2014-05-31,310800.0
2014-04-30,306700.0
2014-03-31,303600.0
2014-02-28,301600.0
2014-01-31,299900.0
2013-12-31,298400.0
2013-11-30,296800.0
2013-10-31,294100.0
2013-09-30,290000.0
2013-08-31,285800.0
2013-07-31,281800.0
2013-06-30,277100.0
2013-05-31,273500.0
2013-04-30,270000.0
2013-03-31,265400.0
2013-02-28,259600.0
2013-01-31,254800.0
2012-12-31,251600.0
2012-11-30,247900.0
2012-10-31,243600.0
2012-09-30,240100.0
2012-08-31,237900.0
2012-07-31,236900.0
2012-06-30,237000.0
2012-05-31,235800.0
2012-04-30,232600.0
2012-03-31,229900.0
2012-02-29,229000.0
2012-01-31,229300.0
2011-12-31,228800.0
2011-11-30,227400.0
2011-10-31,227700.0
2011-09-30,229300.0
2011-08-31,231100.0
2011-07-31,233900.0
2011-06-30,236700.0
2011-05-31,237500.0
2011-04-30,239600.0
2011-03-31,244300.0
2011-02-28,249900.0
2011-01-31,254200.0
2010-12-31,256300.0
2010-11-30,257700.0
2010-10-31,258600.0
2010-09-30,259700.0
2010-08-31,262700.0
2010-07-31,266500.0
2010-06-30,268400.0
2010-05-31,270700.0
2010-04-30,273600.0
2010-03-31,274600.0
2010-02-28,274700.0
2010-01-31,275900.0
2009-12-31,278600.0
2009-11-30,282100.0
2009-10-31,285900.0
2009-09-30,289200.0
2009-08-31,291000.0
2009-07-31,291700.0
2009-06-30,294700.0
2009-05-31,299800.0
2009-04-30,304300.0
2009-03-31,307000.0
2009-02-28,309900.0
2009-01-31,312000.0
2008-12-31,313200.0
2008-11-30,314800.0
2008-10-31,318100.0
2008-09-30,321600.0
2008-08-31,323900.0
2008-07-31,325000.0
2008-06-30,327100.0
2008-05-31,329600.0
2008-04-30,331800.0
2008-03-31,334400.0
2008-02-29,337700.0
2008-01-31,341300.0
2007-12-31,345000.0
2007-11-30,348300.0
2007-10-31,350100.0
2007-09-30,350800.0
2007-08-31,349500.0
2007-07-31,347100.0
2007-06-30,344000.0
2007-05-31,341400.0
2007-04-30,339400.0
2007-03-31,338500.0
2007-02-28,337500.0
2007-01-31,336100.0
2006-12-31,335900.0
2006-11-30,335900.0
2006-10-31,333500.0
2006-09-30,329700.0
2006-08-31,326200.0
2006-07-31,323500.0
2006-06-30,321700.0
2006-05-31,320900.0
2006-04-30,319800.0
2006-03-31,317800.0
2006-02-28,314800.0
2006-01-31,310600.0
2005-12-31,305800.0
2005-11-30,301300.0
2005-10-31,295800.0
2005-09-30,288700.0
2005-08-31,282300.0
2005-07-31,276300.0
2005-06-30,270000.0
2005-05-31,264100.0
2005-04-30,259900.0
2005-03-31,256200.0
2005-02-28,251900.0
2005-01-31,248300.0
2004-12-31,245600.0
2004-11-30,243000.0
2004-10-31,241600.0
2004-09-30,242000.0
2004-08-31,243200.0
2004-07-31,243600.0
2004-06-30,242300.0
2004-05-31,239700.0
2004-04-30,236600.0
2004-03-31,233400.0
2004-02-29,230200.0
2004-01-31,226500.0
2003-12-31,222800.0
2003-11-30,220200.0
2003-10-31,218300.0
2003-09-30,216300.0
2003-08-31,215600.0
2003-07-31,216500.0
2003-06-30,218500.0
2003-05-31,220200.0
2003-04-30,220400.0
2003-03-31,219300.0
2003-02-28,218500.0
2003-01-31,218400.0
2002-12-31,217800.0
2002-11-30,216200.0
2002-10-31,215600.0
2002-09-30,216000.0
2002-08-31,215300.0
2002-07-31,213700.0
2002-06-30,211900.0
2002-05-31,209800.0
2002-04-30,208200.0
2002-03-31,208500.0
2002-02-28,209600.0
2002-01-31,210600.0
2001-12-31,211800.0
2001-11-30,213200.0
2001-10-31,213700.0
2001-09-30,213700.0
2001-08-31,213100.0
2001-07-31,212200.0
2001-06-30,211800.0
2001-05-31,211900.0
2001-04-30,211100.0
2001-03-31,209900.0
2001-02-28,209100.0
2001-01-31,207200.0
2000-12-31,204800.0
2000-11-30,202600.0
2000-10-31,200400.0
2000-09-30,198100.0
2000-08-31,195700.0
2000-07-31,192500.0
2000-06-30,189100.0
2000-05-31,187300.0
2000-04-30,186500.0
2000-03-31,185500.0
2000-02-29,183100.0
2000-01-31,180300.0
1999-12-31,178400.0
1999-11-30,176600.0
1999-10-31,173600.0
1999-09-30,171100.0
1999-08-31,170700.0
1999-07-31,170800.0
1999-06-30,170700.0
1999-05-31,169500.0
1999-04-30,167600.0
1999-03-31,165800.0
1999-02-28,164300.0
1999-01-31,162400.0
1998-12-31,159800.0
1998-11-30,157000.0
1998-10-31,156300.0
1998-09-30,155900.0
1998-08-31,153300.0
1998-07-31,150300.0
1998-06-30,148300.0
1998-05-31,145800.0
1998-04-30,143100.0
1998-03-31,141500.0
1998-02-28,140500.0
1998-01-31,139700.0
1997-12-31,137900.0
1997-11-30,136000.0
1997-10-31,134100.0
1997-09-30,132400.0
1997-08-31,130900.0
1997-07-31,129800.0
1997-06-30,128000.0
1997-05-31,126500.0
1997-04-30,125800.0
1997-03-31,125400.0
1997-02-28,123600.0
1997-01-31,122200.0
1996-12-31,122300.0
1996-11-30,123000.0
1996-10-31,123300.0
1996-09-30,123300.0
1996-08-31,122900.0
1996-07-31,122400.0
1996-06-30,121900.0
1996-05-31,121000.0
1996-04-30,120000.0
