Date,Value
2015-09-30,403400.0
2015-08-31,396600.0
2015-07-31,394700.0
2015-06-30,394400.0
2015-05-31,383600.0
2015-04-30,373900.0
2015-03-31,360700.0
2015-02-28,357700.0
2015-01-31,352600.0
2014-12-31,350800.0
2014-11-30,348600.0
2014-10-31,350000.0
2014-09-30,353700.0
2014-08-31,353600.0
2014-07-31,350700.0
2014-06-30,351500.0
2014-05-31,355400.0
2014-04-30,359300.0
2014-03-31,360900.0
2014-02-28,359500.0
2014-01-31,356400.0
2013-12-31,353000.0
2013-11-30,349300.0
2013-10-31,345000.0
2013-09-30,341100.0
2013-08-31,338200.0
2013-07-31,333900.0
2013-06-30,328200.0
2013-05-31,321300.0
2013-04-30,315100.0
2013-03-31,310100.0
2013-02-28,306300.0
2013-01-31,302800.0
2012-12-31,299500.0
2012-11-30,295000.0
2012-10-31,291300.0
2012-09-30,287800.0
2012-08-31,284100.0
2012-07-31,282000.0
2012-06-30,280000.0
2012-05-31,276200.0
2012-04-30,272400.0
2012-03-31,270200.0
2012-02-29,268600.0
2012-01-31,266700.0
2011-12-31,264500.0
2011-11-30,264000.0
2011-10-31,264300.0
2011-09-30,265200.0
2011-08-31,265600.0
2011-07-31,266700.0
2011-06-30,269100.0
2011-05-31,271500.0
2011-04-30,272800.0
2011-03-31,275400.0
2011-02-28,278800.0
2011-01-31,282400.0
2010-12-31,287600.0
2010-11-30,293100.0
2010-10-31,296200.0
2010-09-30,297400.0
2010-08-31,299800.0
2010-07-31,302800.0
2010-06-30,305400.0
2010-05-31,307500.0
2010-04-30,309900.0
2010-03-31,312600.0
2010-02-28,316000.0
2010-01-31,318100.0
2009-12-31,319000.0
2009-11-30,318200.0
2009-10-31,315700.0
2009-09-30,314400.0
2009-08-31,315700.0
2009-07-31,315500.0
2009-06-30,314800.0
2009-05-31,317200.0
2009-04-30,321500.0
2009-03-31,325000.0
2009-02-28,328500.0
2009-01-31,332100.0
2008-12-31,334100.0
2008-11-30,335700.0
2008-10-31,339100.0
2008-09-30,342900.0
2008-08-31,344800.0
2008-07-31,348400.0
2008-06-30,353300.0
2008-05-31,356600.0
2008-04-30,358300.0
2008-03-31,361800.0
2008-02-29,365800.0
2008-01-31,368400.0
2007-12-31,370300.0
2007-11-30,372600.0
2007-10-31,374800.0
2007-09-30,375400.0
2007-08-31,374800.0
2007-07-31,372700.0
2007-06-30,370700.0
2007-05-31,370000.0
2007-04-30,370400.0
2007-03-31,368000.0
2007-02-28,364600.0
2007-01-31,362800.0
2006-12-31,362500.0
2006-11-30,362100.0
2006-10-31,361400.0
2006-09-30,360000.0
2006-08-31,359100.0
2006-07-31,356700.0
2006-06-30,352200.0
2006-05-31,347200.0
2006-04-30,343600.0
2006-03-31,340400.0
2006-02-28,336500.0
2006-01-31,331900.0
2005-12-31,328200.0
2005-11-30,324300.0
2005-10-31,319200.0
2005-09-30,314300.0
2005-08-31,309900.0
2005-07-31,306400.0
2005-06-30,302800.0
2005-05-31,298100.0
2005-04-30,292000.0
2005-03-31,286600.0
2005-02-28,282100.0
2005-01-31,279000.0
2004-12-31,276800.0
2004-11-30,276100.0
2004-10-31,274600.0
2004-09-30,272200.0
2004-08-31,270000.0
2004-07-31,268900.0
2004-06-30,266400.0
2004-05-31,262900.0
2004-04-30,260300.0
2004-03-31,258200.0
2004-02-29,255200.0
2004-01-31,251300.0
2003-12-31,247300.0
2003-11-30,244500.0
2003-10-31,244000.0
2003-09-30,245100.0
2003-08-31,245800.0
2003-07-31,246700.0
2003-06-30,248000.0
2003-05-31,249700.0
2003-04-30,250300.0
2003-03-31,249300.0
2003-02-28,247600.0
2003-01-31,246300.0
2002-12-31,244700.0
2002-11-30,242100.0
2002-10-31,239700.0
2002-09-30,238100.0
2002-08-31,236900.0
2002-07-31,234700.0
2002-06-30,233000.0
2002-05-31,232700.0
2002-04-30,232000.0
2002-03-31,230400.0
2002-02-28,228900.0
2002-01-31,228300.0
2001-12-31,228600.0
2001-11-30,229400.0
2001-10-31,229500.0
2001-09-30,228700.0
2001-08-31,228300.0
2001-07-31,229300.0
2001-06-30,230000.0
2001-05-31,228300.0
2001-04-30,225500.0
2001-03-31,224700.0
2001-02-28,225700.0
2001-01-31,226000.0
2000-12-31,224800.0
2000-11-30,223500.0
2000-10-31,222000.0
2000-09-30,219400.0
2000-08-31,215800.0
2000-07-31,211000.0
2000-06-30,207300.0
2000-05-31,204900.0
2000-04-30,203200.0
2000-03-31,200600.0
2000-02-29,198700.0
2000-01-31,197800.0
1999-12-31,196500.0
1999-11-30,192300.0
1999-10-31,188000.0
1999-09-30,184800.0
1999-08-31,181300.0
1999-07-31,177800.0
1999-06-30,176200.0
1999-05-31,175000.0
1999-04-30,174400.0
1999-03-31,173200.0
1999-02-28,171900.0
1999-01-31,170600.0
1998-12-31,169800.0
1998-11-30,169200.0
1998-10-31,168700.0
1998-09-30,168100.0
1998-08-31,167000.0
1998-07-31,165400.0
1998-06-30,163800.0
1998-05-31,162200.0
1998-04-30,159800.0
1998-03-31,157800.0
1998-02-28,156600.0
1998-01-31,155000.0
1997-12-31,152100.0
1997-11-30,149300.0
1997-10-31,147600.0
1997-09-30,146500.0
1997-08-31,144800.0
1997-07-31,142900.0
1997-06-30,141000.0
1997-05-31,139600.0
1997-04-30,138300.0
1997-03-31,136700.0
1997-02-28,134300.0
1997-01-31,132700.0
1996-12-31,132000.0
1996-11-30,131800.0
1996-10-31,131200.0
1996-09-30,130900.0
1996-08-31,131800.0
1996-07-31,133300.0
1996-06-30,133600.0
1996-05-31,134000.0
1996-04-30,135800.0
