Date,Value
2015-02-28,379000.0
2015-01-31,375000.0
2014-12-31,368000.0
2014-11-30,365000.0
2014-10-31,375000.0
2014-09-30,375000.0
2014-08-31,385000.0
2014-07-31,399900.0
2014-06-30,399900.0
2014-05-31,440000.0
2014-04-30,429500.0
2014-03-31,449900.0
2014-02-28,450000.0
2014-01-31,449950.0
2013-12-31,370000.0
2013-11-30,369000.0
2013-10-31,360000.0
2013-09-30,349950.0
2013-08-31,350000.0
2013-07-31,385000.0
2013-06-30,439000.0
2013-05-31,450000.0
2013-04-30,474500.0
2013-03-31,495000.0
2013-02-28,499000.0
2013-01-31,440000.0
2012-12-31,389000.0
2012-11-30,330000.0
2012-10-31,414000.0
2012-09-30,434000.0
2012-08-31,429000.0
2012-07-31,429000.0
2012-06-30,449000.0
2012-05-31,449000.0
2012-04-30,449000.0
2012-03-31,375000.0
2012-02-29,355000.0
2012-01-31,335000.0
2011-12-31,330000.0
2011-11-30,315000.0
2011-10-31,369000.0
2011-09-30,399000.0
2011-08-31,395000.0
2011-07-31,395000.0
2011-06-30,384000.0
2011-05-31,365000.0
2011-04-30,337000.0
2011-03-31,359000.0
2011-02-28,357000.0
2011-01-31,357000.0
2010-12-31,349888.0
2010-11-30,350000.0
2010-10-31,359900.0
2010-09-30,374950.0
2010-08-31,355000.0
2010-07-31,359900.0
2010-06-30,369950.0
2010-05-31,359000.0
2010-04-30,349950.0
2010-03-31,329950.0
2010-02-28,339950.0
2010-01-31,340000.0
2009-12-31,349000.0
2009-11-30,349950.0
2009-10-31,349950.0
2009-09-30,349000.0
2009-08-31,390000.0
2009-07-31,379000.0
2009-06-30,379000.0
2009-05-31,379000.0
2009-04-30,379000.0
2009-03-31,375000.0
2009-02-28,379000.0
2009-01-31,379000.0
2008-12-31,374900.0
2008-11-30,374900.0
2008-10-31,379000.0
