Date,Value
2015-09-30,673050.0
2015-08-31,669750.0
2015-07-31,608500.0
2015-06-30,602250.0
2015-05-31,613100.0
2015-04-30,595470.5882
2014-12-31,573076.9231
2014-10-31,536250.0
2014-09-30,561500.0
2014-08-31,583375.0
2014-07-31,588875.0
2014-06-30,547250.0
2014-05-31,559742.5
2014-04-30,572920.5882
2014-03-31,669950.0
2013-10-31,482050.0
2013-09-30,512790.0
2013-08-31,523160.0
2013-07-31,547950.0
2013-06-30,573470.5882
2013-05-31,543846.1538
2013-03-31,526664.7059
2013-02-28,421900.0
2012-10-31,447700.0
2012-09-30,430425.0
2012-08-31,522000.0
2012-07-31,520925.0
2012-06-30,516852.9412
2012-05-31,550692.3077
2012-03-31,488000.0
2011-12-31,469909.7692
2011-10-31,478100.0
2011-09-30,471176.4706
2011-08-31,454603.8462
2011-06-30,474800.0
2011-05-31,486700.0
2011-04-30,496058.8235
2011-03-31,539000.0
2010-12-31,485100.0
2010-08-31,534750.0
2010-07-31,500000.0
2010-06-30,536955.0
2010-05-31,519245.0
2010-04-30,490588.2353
2010-03-31,449000.0
2009-11-30,481750.0
2009-10-31,460492.5
2009-09-30,491607.5
2009-08-31,472650.0
2009-07-31,497700.0
2009-06-30,461775.0
2009-05-31,434088.2353
2009-04-30,375757.6923
2009-02-28,412653.8462
2008-12-31,465961.5385
2008-10-31,509550.0
2008-09-30,520150.0
2008-08-31,535050.0
2008-07-31,529942.5
2008-06-30,539132.5
2008-05-31,521075.0
2008-04-30,538600.0
2008-03-31,517823.5294
2008-02-29,579000.0
2007-11-30,538000.0
2007-10-31,567500.0
2007-09-30,581250.0
2007-08-31,570500.0
2007-07-31,581350.0
2007-06-30,542325.0
2007-05-31,545575.0
2007-04-30,543770.0
2007-03-31,542880.0
2007-02-28,521400.0
2007-01-31,511500.0
2006-12-31,505500.0
2006-11-30,467250.0
2006-10-31,411100.0
2006-09-30,439000.0
2006-08-31,469400.0
2006-07-31,498550.0
2006-06-30,486150.0
2006-05-31,506600.0
2006-04-30,482100.0
2006-03-31,474842.5
2006-02-28,467232.5
2006-01-31,452475.0
2005-12-31,475742.5
2005-11-30,480182.5
2005-10-31,479510.0
2005-09-30,478915.0
2005-08-31,464750.0
2005-07-31,477203.75
2005-06-30,430558.75
2005-05-31,419362.5
2005-04-30,419900.0
2005-03-31,432850.0
2005-02-28,431142.5
2005-01-31,401482.5
2004-12-31,405225.0
2004-11-30,404515.0
2004-10-31,412785.0
2004-09-30,405792.5
2004-08-31,412232.5
2004-07-31,430100.0
2004-06-30,413117.5
2004-05-31,418482.5
2004-04-30,417225.0
2004-03-31,440588.2353
2004-02-29,409615.3846
2003-12-31,372992.5
2003-11-30,376482.5
2003-10-31,384725.0
2003-09-30,382000.0
2003-08-31,371550.0
2003-07-31,375530.0
2003-06-30,360370.0
2003-05-31,362750.0
2003-04-30,370250.0
2003-03-31,363450.0
2003-02-28,335500.0
2003-01-31,359800.0
2002-12-31,342950.0
2002-11-30,341400.0
2002-10-31,334400.0
2002-09-30,333700.0
2002-08-31,349050.0
2002-07-31,336250.0
2002-06-30,334250.0
2002-05-31,352750.0
2002-04-30,334425.0
2002-03-31,348275.0
2002-02-28,344600.0
2002-01-31,354375.0
2001-12-31,351675.0
2001-11-30,357445.0
2001-10-31,355105.0
2001-09-30,349429.0
2001-08-31,328151.0
2001-07-31,323530.0
2001-06-30,342750.0
2001-05-31,335450.0
2001-04-30,335200.0
2001-03-31,328750.0
2001-02-28,330375.0
2001-01-31,334875.0
2000-12-31,345800.0
2000-11-30,321100.0
2000-10-31,321192.5
2000-09-30,307331.0
2000-08-31,298271.5
2000-06-30,331000.0
2000-05-31,312742.5
2000-04-30,283482.5
2000-03-31,281275.0
2000-02-29,279425.0
2000-01-31,251400.0
1999-12-31,260825.0
1999-11-30,279392.5
1999-10-31,277132.5
1999-09-30,259267.5
1999-08-31,265382.5
1999-07-31,277275.0
1999-06-30,270425.0
1999-05-31,263175.0
1999-04-30,268600.0
1999-03-31,267800.0
1999-02-28,270492.5
1999-01-31,254907.5
1998-12-31,263100.0
1998-11-30,267075.0
1998-10-31,267575.0
1998-09-30,252425.0
1998-08-31,251285.0
1998-07-31,262127.5
1998-06-30,267980.0
1998-05-31,268107.5
1998-04-30,257387.5
1998-03-31,238712.5
1998-02-28,228367.5
1998-01-31,224732.5
1997-12-31,231450.0
1997-11-30,217775.0
1997-10-31,219900.0
1997-09-30,207075.0
1997-08-31,215275.0
1997-07-31,220350.0
1997-06-30,217050.0
1997-05-31,212314.75
1997-04-30,196167.75
1997-03-31,196920.5882
1997-02-28,196515.3846
1996-12-31,185457.5
1996-11-30,186425.0
1996-10-31,187650.0
1996-09-30,186475.0
1996-08-31,184625.0
1996-07-31,179650.0
1996-06-30,176150.0
1996-05-31,177175.0
1996-04-30,179100.0
