Date,Value
2014-06-30,800000.0
2014-05-31,750000.0
2014-04-30,749000.0
2013-10-31,539900.0
2013-06-30,600000.0
2013-05-31,825000.0
2013-04-30,825000.0
2013-03-31,582500.0
2013-02-28,795000.0
2013-01-31,795000.0
2012-12-31,499000.0
2012-11-30,549500.0
2012-10-31,499000.0
2012-09-30,315000.0
2012-08-31,340000.0
2012-07-31,510000.0
2012-06-30,565000.0
2012-05-31,500000.0
2012-04-30,500000.0
2012-03-31,525000.0
2012-02-29,399000.0
2012-01-31,399000.0
2011-12-31,418000.0
2011-11-30,449000.0
2011-10-31,474900.0
2011-09-30,539000.0
2011-08-31,524900.0
2011-07-31,389000.0
2011-06-30,549000.0
2011-05-31,574900.0
2011-04-30,439000.0
2011-03-31,575000.0
2011-02-28,575000.0
2011-01-31,695000.0
2010-12-31,469000.0
2010-11-30,575000.0
2010-10-31,575000.0
2010-09-30,575000.0
2010-08-31,525000.0
2010-07-31,575000.0
2010-06-30,599950.0
2010-05-31,549950.0
2010-04-30,549950.0
2010-03-31,698000.0
2010-02-28,595000.0
2010-01-31,549950.0
2009-12-31,485000.0
2009-11-30,435000.0
2009-10-31,480000.0
2009-08-31,474950.0
2009-07-31,529950.0
2009-06-30,554950.0
