Date,Value
2015-09-30,493500.0
2015-08-31,489500.0
2015-07-31,490600.0
2015-06-30,494700.0
2015-05-31,491300.0
2015-04-30,481100.0
2015-03-31,466500.0
2015-02-28,462700.0
2015-01-31,456700.0
2014-12-31,455300.0
2014-11-30,451400.0
2014-10-31,445200.0
2014-09-30,440900.0
2014-08-31,439800.0
2014-07-31,438300.0
2014-06-30,434700.0
2014-05-31,433200.0
2014-04-30,431100.0
2014-03-31,426200.0
2014-02-28,421600.0
2014-01-31,420800.0
2013-12-31,419000.0
2013-11-30,417700.0
2013-10-31,417500.0
2013-09-30,417100.0
2013-08-31,413300.0
2013-07-31,406500.0
2013-06-30,400300.0
2013-05-31,394500.0
2013-04-30,388300.0
2013-03-31,382600.0
2013-02-28,380200.0
2013-01-31,377300.0
2012-12-31,373800.0
2012-11-30,369500.0
2012-10-31,365100.0
2012-09-30,360300.0
2012-08-31,355400.0
2012-07-31,350300.0
2012-06-30,346700.0
2012-05-31,342900.0
2012-04-30,339300.0
2012-03-31,338900.0
2012-02-29,340800.0
2012-01-31,342300.0
2011-12-31,344200.0
2011-11-30,347400.0
2011-10-31,350300.0
2011-09-30,352700.0
2011-08-31,354600.0
2011-07-31,356900.0
2011-06-30,358900.0
2011-05-31,361900.0
2011-04-30,365100.0
2011-03-31,366400.0
2011-02-28,364500.0
2011-01-31,364400.0
2010-12-31,365900.0
2010-11-30,366000.0
2010-10-31,366000.0
2010-09-30,369200.0
2010-08-31,372800.0
2010-07-31,374100.0
2010-06-30,374000.0
2010-05-31,377500.0
2010-04-30,383200.0
2010-03-31,386200.0
2010-02-28,385600.0
2010-01-31,385100.0
2009-12-31,388600.0
2009-11-30,394100.0
2009-10-31,398300.0
2009-09-30,401500.0
2009-08-31,406800.0
2009-07-31,413200.0
2009-06-30,419000.0
2009-05-31,423500.0
2009-04-30,427800.0
2009-03-31,430500.0
2009-02-28,433600.0
2009-01-31,436200.0
2008-12-31,436300.0
2008-11-30,437400.0
2008-10-31,442100.0
2008-09-30,445800.0
2008-08-31,447400.0
2008-07-31,449800.0
2008-06-30,452600.0
2008-05-31,456600.0
2008-04-30,461500.0
2008-03-31,466300.0
2008-02-29,471600.0
2008-01-31,478800.0
2007-12-31,485200.0
2007-11-30,488500.0
2007-10-31,491100.0
2007-09-30,493500.0
2007-08-31,493600.0
2007-07-31,492100.0
2007-06-30,493400.0
2007-05-31,495200.0
2007-04-30,492000.0
2007-03-31,486200.0
2007-02-28,479800.0
2007-01-31,471800.0
2006-12-31,463200.0
2006-11-30,456700.0
2006-10-31,451100.0
2006-09-30,447400.0
2006-08-31,445300.0
2006-07-31,442300.0
2006-06-30,438900.0
2006-05-31,435000.0
2006-04-30,431500.0
2006-03-31,430000.0
2006-02-28,427400.0
2006-01-31,420900.0
2005-12-31,413500.0
2005-11-30,405700.0
2005-10-31,396300.0
2005-09-30,386100.0
2005-08-31,378900.0
2005-07-31,376100.0
2005-06-30,370200.0
2005-05-31,359900.0
2005-04-30,352100.0
2005-03-31,348900.0
2005-02-28,348500.0
2005-01-31,350400.0
2004-12-31,351100.0
2004-11-30,350300.0
2004-10-31,348700.0
2004-09-30,345600.0
2004-08-31,340400.0
2004-07-31,334800.0
2004-06-30,330000.0
2004-05-31,324500.0
2004-04-30,319600.0
2004-03-31,316300.0
2004-02-29,312900.0
2004-01-31,307900.0
2003-12-31,305200.0
2003-11-30,303600.0
2003-10-31,301900.0
2003-09-30,301000.0
2003-08-31,300600.0
2003-07-31,298900.0
2003-06-30,297900.0
2003-05-31,298400.0
2003-04-30,296900.0
2003-03-31,294000.0
2003-02-28,292200.0
2003-01-31,291400.0
2002-12-31,290300.0
2002-11-30,290500.0
2002-10-31,291800.0
2002-09-30,292700.0
2002-08-31,291600.0
2002-07-31,291100.0
2002-06-30,292300.0
2002-05-31,293300.0
2002-04-30,292800.0
2002-03-31,291000.0
2002-02-28,289300.0
2002-01-31,288600.0
2001-12-31,288300.0
2001-11-30,287700.0
2001-10-31,287700.0
2001-09-30,287300.0
2001-08-31,285600.0
2001-07-31,282900.0
2001-06-30,280500.0
2001-05-31,279500.0
2001-04-30,279500.0
2001-03-31,278700.0
2001-02-28,276900.0
2001-01-31,275300.0
2000-12-31,274100.0
2000-11-30,271900.0
2000-10-31,267700.0
2000-09-30,264400.0
2000-08-31,264500.0
2000-07-31,265000.0
2000-06-30,263900.0
2000-05-31,262700.0
2000-04-30,261400.0
2000-03-31,259700.0
2000-02-29,256900.0
2000-01-31,253000.0
1999-12-31,249700.0
1999-11-30,248200.0
1999-10-31,247500.0
1999-09-30,247100.0
1999-08-31,248300.0
1999-07-31,249300.0
1999-06-30,247700.0
1999-05-31,244700.0
1999-04-30,243000.0
1999-03-31,242100.0
1999-02-28,241500.0
1999-01-31,239000.0
1998-12-31,235000.0
1998-11-30,231300.0
1998-10-31,227700.0
1998-09-30,223900.0
1998-08-31,219000.0
1998-07-31,214500.0
1998-06-30,212200.0
1998-05-31,212500.0
1998-04-30,214000.0
1998-03-31,215200.0
1998-02-28,214300.0
1998-01-31,211800.0
1997-12-31,211600.0
1997-11-30,212300.0
1997-10-31,211600.0
1997-09-30,210100.0
1997-08-31,208100.0
1997-07-31,205500.0
1997-06-30,203900.0
1997-05-31,202700.0
1997-04-30,199900.0
1997-03-31,197400.0
1997-02-28,196900.0
1997-01-31,198000.0
1996-12-31,196300.0
1996-11-30,192500.0
1996-10-31,190600.0
1996-09-30,190600.0
1996-08-31,190000.0
1996-07-31,189600.0
1996-06-30,188900.0
1996-05-31,187400.0
1996-04-30,186900.0
