Date,Value
2015-09-30,578900.0
2015-08-31,572900.0
2015-07-31,567100.0
2015-06-30,563500.0
2015-05-31,555100.0
2015-04-30,543100.0
2015-03-31,527700.0
2015-02-28,521400.0
2015-01-31,514300.0
2014-12-31,512500.0
2014-11-30,509400.0
2014-10-31,505300.0
2014-09-30,501800.0
2014-08-31,499800.0
2014-07-31,497100.0
2014-06-30,494100.0
2014-05-31,492300.0
2014-04-30,490700.0
2014-03-31,487400.0
2014-02-28,484600.0
2014-01-31,481600.0
2013-12-31,478200.0
2013-11-30,474700.0
2013-10-31,472900.0
2013-09-30,473600.0
2013-08-31,477100.0
2013-07-31,479400.0
2013-06-30,479500.0
2013-05-31,475600.0
2013-04-30,469300.0
2013-03-31,461300.0
2013-02-28,454400.0
2013-01-31,447700.0
2012-12-31,441100.0
2012-11-30,433200.0
2012-10-31,426000.0
2012-09-30,421700.0
2012-08-31,418500.0
2012-07-31,412500.0
2012-06-30,405200.0
2012-05-31,400100.0
2012-04-30,398500.0
2012-03-31,398200.0
2012-02-29,396800.0
2012-01-31,396200.0
2011-12-31,397600.0
2011-11-30,398200.0
2011-10-31,397000.0
2011-09-30,394800.0
2011-08-31,392700.0
2011-07-31,391100.0
2011-06-30,390800.0
2011-05-31,391100.0
2011-04-30,391200.0
2011-03-31,391800.0
2011-02-28,393500.0
2011-01-31,394700.0
2010-12-31,394400.0
2010-11-30,396100.0
2010-10-31,399700.0
2010-09-30,402300.0
2010-08-31,404500.0
2010-07-31,409300.0
2010-06-30,414100.0
2010-05-31,415900.0
2010-04-30,414400.0
2010-03-31,412800.0
2010-02-28,411400.0
2010-01-31,410200.0
2009-12-31,409400.0
2009-11-30,409700.0
2009-10-31,410500.0
2009-09-30,412200.0
2009-08-31,413500.0
2009-07-31,414300.0
2009-06-30,414500.0
2009-05-31,415800.0
2009-04-30,419500.0
2009-03-31,425200.0
2009-02-28,430300.0
2009-01-31,435200.0
2008-12-31,439800.0
2008-11-30,443800.0
2008-10-31,447300.0
2008-09-30,450400.0
2008-08-31,452700.0
2008-07-31,455600.0
2008-06-30,459300.0
2008-05-31,463700.0
2008-04-30,468000.0
2008-03-31,471900.0
2008-02-29,476500.0
2008-01-31,481700.0
2007-12-31,485400.0
2007-11-30,488300.0
2007-10-31,490600.0
2007-09-30,491000.0
2007-08-31,490200.0
2007-07-31,489300.0
2007-06-30,488100.0
2007-05-31,486800.0
2007-04-30,486600.0
2007-03-31,487400.0
2007-02-28,487500.0
2007-01-31,486700.0
2006-12-31,486100.0
2006-11-30,484400.0
2006-10-31,481100.0
2006-09-30,477700.0
2006-08-31,474200.0
2006-07-31,470700.0
2006-06-30,468000.0
2006-05-31,466000.0
2006-04-30,462300.0
2006-03-31,457500.0
2006-02-28,452500.0
2006-01-31,447100.0
2005-12-31,441600.0
2005-11-30,437100.0
2005-10-31,433600.0
2005-09-30,428600.0
2005-08-31,422700.0
2005-07-31,416900.0
2005-06-30,412700.0
2005-05-31,408400.0
2005-04-30,404000.0
2005-03-31,398600.0
2005-02-28,392800.0
2005-01-31,386900.0
2004-12-31,382500.0
2004-11-30,377700.0
2004-10-31,372200.0
2004-09-30,367200.0
2004-08-31,364300.0
2004-07-31,361700.0
2004-06-30,358300.0
2004-05-31,355400.0
2004-04-30,353100.0
2004-03-31,349500.0
2004-02-29,344600.0
2004-01-31,340300.0
2003-12-31,336100.0
2003-11-30,332700.0
2003-10-31,331200.0
2003-09-30,331000.0
2003-08-31,329300.0
2003-07-31,326100.0
2003-06-30,323600.0
2003-05-31,322700.0
2003-04-30,321500.0
2003-03-31,320500.0
2003-02-28,320300.0
2003-01-31,319900.0
2002-12-31,319200.0
2002-11-30,318400.0
2002-10-31,317400.0
2002-09-30,316400.0
2002-08-31,316600.0
2002-07-31,316700.0
2002-06-30,315100.0
2002-05-31,311100.0
2002-04-30,307500.0
2002-03-31,305500.0
2002-02-28,304700.0
2002-01-31,303500.0
2001-12-31,303000.0
2001-11-30,302300.0
2001-10-31,300200.0
2001-09-30,298100.0
2001-08-31,296900.0
2001-07-31,296600.0
2001-06-30,297300.0
2001-05-31,298500.0
2001-04-30,298900.0
2001-03-31,297900.0
2001-02-28,296100.0
2001-01-31,294500.0
2000-12-31,293400.0
2000-11-30,292500.0
2000-10-31,291400.0
2000-09-30,290400.0
2000-08-31,288600.0
2000-07-31,285700.0
2000-06-30,282100.0
2000-05-31,278100.0
2000-04-30,274600.0
2000-03-31,272200.0
2000-02-29,269700.0
2000-01-31,266900.0
1999-12-31,264600.0
1999-11-30,262300.0
1999-10-31,259900.0
1999-09-30,257400.0
1999-08-31,254900.0
1999-07-31,252600.0
1999-06-30,250300.0
1999-05-31,247300.0
1999-04-30,244400.0
1999-03-31,242200.0
1999-02-28,241200.0
1999-01-31,239800.0
1998-12-31,236800.0
1998-11-30,234200.0
1998-10-31,233200.0
1998-09-30,232100.0
1998-08-31,229600.0
1998-07-31,226700.0
1998-06-30,223300.0
1998-05-31,219200.0
1998-04-30,214300.0
1998-03-31,209400.0
1998-02-28,205800.0
1998-01-31,203100.0
1997-12-31,199500.0
1997-11-30,195400.0
1997-10-31,192100.0
1997-09-30,189900.0
1997-08-31,187900.0
1997-07-31,185800.0
1997-06-30,183900.0
1997-05-31,182600.0
1997-04-30,180900.0
1997-03-31,179000.0
1997-02-28,176900.0
1997-01-31,175600.0
1996-12-31,174800.0
1996-11-30,174100.0
1996-10-31,172300.0
1996-09-30,170200.0
1996-08-31,169000.0
1996-07-31,168900.0
1996-06-30,168700.0
1996-05-31,169100.0
1996-04-30,170900.0
