Date,Value
2015-02-28,539950.0
2015-01-31,515000.0
2014-12-31,469990.0
2014-11-30,475000.0
2014-10-31,475000.0
2014-09-30,499000.0
2014-08-31,469990.0
2014-07-31,479000.0
2014-06-30,525000.0
2014-05-31,519000.0
2014-04-30,459000.0
2014-03-31,450000.0
2014-02-28,539950.0
2014-01-31,421000.0
2013-12-31,409000.0
2013-11-30,421000.0
2013-10-31,425000.0
2013-09-30,475000.0
2013-08-31,475000.0
2013-07-31,429000.0
2013-06-30,429950.0
2013-05-31,410000.0
2013-04-30,405000.0
2013-03-31,415000.0
2013-02-28,392000.0
2013-01-31,414950.0
2012-12-31,399950.0
2012-11-30,383000.0
2012-10-31,375000.0
2012-09-30,349500.0
2012-08-31,369000.0
2012-07-31,399000.0
2012-06-30,399950.0
2012-05-31,379950.0
2012-04-30,375000.0
2012-03-31,347000.0
2012-02-29,323000.0
2012-01-31,315000.0
2011-12-31,319900.0
2011-11-30,319900.0
2011-10-31,325000.0
2011-09-30,359950.0
2011-08-31,364950.0
2011-07-31,364950.0
2011-06-30,364950.0
2011-05-31,364950.0
2011-04-30,379000.0
2011-03-31,379800.0
2011-02-28,375000.0
2011-01-31,360000.0
2010-12-31,360000.0
2010-11-30,360000.0
2010-10-31,375000.0
2010-09-30,389950.0
2010-08-31,389950.0
2010-07-31,389900.0
2010-06-30,389950.0
2010-05-31,393750.0
2010-04-30,399950.0
2010-03-31,399000.0
2010-02-28,395000.0
2010-01-31,379950.0
2009-12-31,369000.0
2009-11-30,389000.0
2009-10-31,375000.0
2009-09-30,395000.0
2009-08-31,399000.0
2009-07-31,399950.0
2009-06-30,419950.0
2009-05-31,399950.0
2009-04-30,409950.0
2009-03-31,409960.0
2009-02-28,400000.0
2009-01-31,399900.0
2008-12-31,399950.0
2008-11-30,399950.0
2008-10-31,400000.0
