Date,Value
2015-09-30,550600.0
2015-08-31,545100.0
2015-07-31,538000.0
2015-06-30,542000.0
2015-05-31,543200.0
2015-04-30,532700.0
2015-03-31,515400.0
2015-02-28,508100.0
2015-01-31,500500.0
2014-12-31,498600.0
2014-11-30,495500.0
2014-10-31,493000.0
2014-09-30,491800.0
2014-08-31,491400.0
2014-07-31,489500.0
2014-06-30,486900.0
2014-05-31,483100.0
2014-04-30,479800.0
2014-03-31,476700.0
2014-02-28,472900.0
2014-01-31,467500.0
2013-12-31,464500.0
2013-11-30,464300.0
2013-10-31,461400.0
2013-09-30,456000.0
2013-08-31,452800.0
2013-07-31,449700.0
2013-06-30,446600.0
2013-05-31,446100.0
2013-04-30,444000.0
2013-03-31,438800.0
2013-02-28,435900.0
2013-01-31,436500.0
2012-12-31,436500.0
2012-11-30,434100.0
2012-10-31,430200.0
2012-09-30,425700.0
2012-08-31,422600.0
2012-07-31,422000.0
2012-06-30,419800.0
2012-05-31,413800.0
2012-04-30,407400.0
2012-03-31,402000.0
2012-02-29,397200.0
2012-01-31,395000.0
2011-12-31,394600.0
2011-11-30,392600.0
2011-10-31,391500.0
2011-09-30,393100.0
2011-08-31,394300.0
2011-07-31,393900.0
2011-06-30,395200.0
2011-05-31,398700.0
2011-04-30,404400.0
2011-03-31,406700.0
2011-02-28,404600.0
2011-01-31,402200.0
2010-12-31,400200.0
2010-11-30,397800.0
2010-10-31,397100.0
2010-09-30,399400.0
2010-08-31,403400.0
2010-07-31,407300.0
2010-06-30,409300.0
2010-05-31,410300.0
2010-04-30,410300.0
2010-03-31,413000.0
2010-02-28,416900.0
2010-01-31,418800.0
2009-12-31,418600.0
2009-11-30,419100.0
2009-10-31,418700.0
2009-09-30,417800.0
2009-08-31,418300.0
2009-07-31,419900.0
2009-06-30,421700.0
2009-05-31,424600.0
2009-04-30,429500.0
2009-03-31,433100.0
2009-02-28,435100.0
2009-01-31,437800.0
2008-12-31,442000.0
2008-11-30,448300.0
2008-10-31,455500.0
2008-09-30,460700.0
2008-08-31,464000.0
2008-07-31,468100.0
2008-06-30,472800.0
2008-05-31,478700.0
2008-04-30,483400.0
2008-03-31,485900.0
2008-02-29,488800.0
2008-01-31,492000.0
2007-12-31,494100.0
2007-11-30,495300.0
2007-10-31,496200.0
2007-09-30,497400.0
2007-08-31,497600.0
2007-07-31,497700.0
2007-06-30,499300.0
2007-05-31,500900.0
2007-04-30,501400.0
2007-03-31,502900.0
2007-02-28,501700.0
2007-01-31,497500.0
2006-12-31,494100.0
2006-11-30,492800.0
2006-10-31,489900.0
2006-09-30,482800.0
2006-08-31,475100.0
2006-07-31,467800.0
2006-06-30,460100.0
2006-05-31,452300.0
2006-04-30,446300.0
2006-03-31,444300.0
2006-02-28,444300.0
2006-01-31,443100.0
2005-12-31,440800.0
2005-11-30,439200.0
2005-10-31,436600.0
2005-09-30,433300.0
2005-08-31,429100.0
2005-07-31,422900.0
2005-06-30,415300.0
2005-05-31,406400.0
2005-04-30,398300.0
2005-03-31,393600.0
2005-02-28,391100.0
2005-01-31,389500.0
2004-12-31,387500.0
2004-11-30,383400.0
2004-10-31,379100.0
2004-09-30,376200.0
2004-08-31,372600.0
2004-07-31,369100.0
2004-06-30,367600.0
2004-05-31,365000.0
2004-04-30,359300.0
2004-03-31,351200.0
2004-02-29,344800.0
2004-01-31,341000.0
2003-12-31,337500.0
2003-11-30,332800.0
2003-10-31,330300.0
2003-09-30,330000.0
2003-08-31,328300.0
2003-07-31,324300.0
2003-06-30,320500.0
2003-05-31,319700.0
2003-04-30,321100.0
2003-03-31,322800.0
2003-02-28,321800.0
2003-01-31,319300.0
2002-12-31,316500.0
2002-11-30,314100.0
2002-10-31,310800.0
2002-09-30,307000.0
2002-08-31,304500.0
2002-07-31,304000.0
2002-06-30,303800.0
2002-05-31,302900.0
2002-04-30,301500.0
2002-03-31,299000.0
2002-02-28,296400.0
2002-01-31,294000.0
2001-12-31,292400.0
2001-11-30,291600.0
2001-10-31,291200.0
2001-09-30,290800.0
2001-08-31,291600.0
2001-07-31,293400.0
2001-06-30,295100.0
2001-05-31,295700.0
2001-04-30,294800.0
2001-03-31,292300.0
2001-02-28,290200.0
2001-01-31,288700.0
2000-12-31,287700.0
2000-11-30,287400.0
2000-10-31,287700.0
2000-09-30,287400.0
2000-08-31,286800.0
2000-07-31,286100.0
2000-06-30,284700.0
2000-05-31,281700.0
2000-04-30,277900.0
2000-03-31,275200.0
2000-02-29,273300.0
2000-01-31,271100.0
1999-12-31,266900.0
1999-11-30,262300.0
1999-10-31,257200.0
1999-09-30,251200.0
1999-08-31,246100.0
1999-07-31,242400.0
1999-06-30,239100.0
1999-05-31,237800.0
1999-04-30,238600.0
1999-03-31,238500.0
1999-02-28,236200.0
1999-01-31,232700.0
1998-12-31,229500.0
1998-11-30,226700.0
1998-10-31,224600.0
1998-09-30,224300.0
1998-08-31,224600.0
1998-07-31,223800.0
1998-06-30,220400.0
1998-05-31,215200.0
1998-04-30,209500.0
1998-03-31,204100.0
1998-02-28,200300.0
1998-01-31,197500.0
1997-12-31,195100.0
1997-11-30,192900.0
1997-10-31,191300.0
1997-09-30,189400.0
1997-08-31,187000.0
1997-07-31,184400.0
1997-06-30,182700.0
1997-05-31,181500.0
1997-04-30,180100.0
1997-03-31,178500.0
1997-02-28,176600.0
1997-01-31,175700.0
1996-12-31,175500.0
1996-11-30,174600.0
1996-10-31,173000.0
1996-09-30,172200.0
1996-08-31,171800.0
1996-07-31,170600.0
1996-06-30,169600.0
1996-05-31,169900.0
1996-04-30,170700.0
