Date,Value
2015-06-30,1350.0
2014-08-31,1420.0
2014-07-31,1295.0
2014-05-31,1295.0
2014-04-30,995.0
2014-01-31,1350.0
2013-11-30,925.0
2013-10-31,1350.0
2013-08-31,1300.0
2013-07-31,1300.0
2013-06-30,1300.0
2013-05-31,1300.0
2013-04-30,1269.0
2013-03-31,1279.0
2013-01-31,1259.0
2012-12-31,1259.0
2012-11-30,1249.0
2012-10-31,1259.0
2012-09-30,1259.0
2012-08-31,1269.0
2012-06-30,1249.0
2012-05-31,1249.0
2012-04-30,1249.0
2012-03-31,1249.0
2012-02-29,1249.0
2012-01-31,1249.0
