Date,Value
2015-09-30,469700.0
2015-08-31,475000.0
2015-07-31,474900.0
2015-06-30,485400.0
2015-05-31,494600.0
2015-04-30,489700.0
2015-03-31,478800.0
2015-02-28,482700.0
2015-01-31,481800.0
2014-12-31,479700.0
2014-11-30,476400.0
2014-10-31,473300.0
2014-09-30,471400.0
2014-08-31,471000.0
2014-07-31,469600.0
2014-06-30,466600.0
2014-05-31,458900.0
2014-04-30,445600.0
2014-03-31,432900.0
2014-02-28,427600.0
2014-01-31,425700.0
2013-12-31,421700.0
2013-11-30,418700.0
2013-10-31,417300.0
2013-09-30,413600.0
2013-08-31,409900.0
2013-07-31,408900.0
2013-06-30,408100.0
2013-05-31,405200.0
2013-04-30,401400.0
2013-03-31,395400.0
2013-02-28,390200.0
2013-01-31,386900.0
2012-12-31,385100.0
2012-11-30,381200.0
2012-10-31,375400.0
2012-09-30,371500.0
2012-08-31,369700.0
2012-07-31,370300.0
2012-06-30,372000.0
2012-05-31,372400.0
2012-04-30,370800.0
2012-03-31,369800.0
2012-02-29,369100.0
2012-01-31,369500.0
2011-12-31,370600.0
2011-11-30,370600.0
2011-10-31,367400.0
2011-09-30,362000.0
2011-08-31,355400.0
2011-07-31,350400.0
2011-06-30,348400.0
2011-05-31,347700.0
2011-04-30,345700.0
2011-03-31,344800.0
2011-02-28,345400.0
2011-01-31,348000.0
2010-12-31,350700.0
2010-11-30,352400.0
2010-10-31,354300.0
2010-09-30,356000.0
2010-08-31,356400.0
2010-07-31,357600.0
2010-06-30,360600.0
2010-05-31,364300.0
2010-04-30,369900.0
2010-03-31,377300.0
2010-02-28,382800.0
2010-01-31,384200.0
2009-12-31,384000.0
2009-11-30,384600.0
2009-10-31,385800.0
2009-09-30,390500.0
2009-08-31,397500.0
2009-07-31,401700.0
2009-06-30,402800.0
2009-05-31,405000.0
2009-04-30,408700.0
2009-03-31,413900.0
2009-02-28,419900.0
2009-01-31,424700.0
2008-12-31,428600.0
2008-11-30,435100.0
2008-10-31,444100.0
2008-09-30,448400.0
2008-08-31,448100.0
2008-07-31,447900.0
2008-06-30,447700.0
2008-05-31,447500.0
2008-04-30,449500.0
2008-03-31,450700.0
2008-02-29,451800.0
2008-01-31,455800.0
2007-12-31,461500.0
2007-11-30,466300.0
2007-10-31,467400.0
2007-09-30,466100.0
2007-08-31,466300.0
2007-07-31,467700.0
2007-06-30,468300.0
2007-05-31,467000.0
2007-04-30,463300.0
2007-03-31,455500.0
2007-02-28,445500.0
2007-01-31,436100.0
2006-12-31,424400.0
2006-11-30,410100.0
2006-10-31,398900.0
2006-09-30,392600.0
2006-08-31,387200.0
2006-07-31,381500.0
2006-06-30,377300.0
2006-05-31,376000.0
2006-04-30,372900.0
2006-03-31,369000.0
2006-02-28,364900.0
2006-01-31,359500.0
2005-12-31,353700.0
2005-11-30,350100.0
2005-10-31,347300.0
2005-09-30,346000.0
2005-08-31,344300.0
2005-07-31,338200.0
2005-06-30,330400.0
2005-05-31,322800.0
2005-04-30,316900.0
2005-03-31,311600.0
2005-02-28,306900.0
2005-01-31,303100.0
2004-12-31,300900.0
2004-11-30,298400.0
2004-10-31,293700.0
2004-09-30,289100.0
2004-08-31,287100.0
2004-07-31,286200.0
2004-06-30,284600.0
2004-05-31,282400.0
2004-04-30,280800.0
2004-03-31,278700.0
2004-02-29,276300.0
2004-01-31,273300.0
2003-12-31,270600.0
2003-11-30,267900.0
2003-10-31,266900.0
2003-09-30,266200.0
2003-08-31,264400.0
2003-07-31,262100.0
2003-06-30,259900.0
2003-05-31,257700.0
2003-04-30,257500.0
2003-03-31,258800.0
2003-02-28,259400.0
2003-01-31,259500.0
2002-12-31,261700.0
2002-11-30,265400.0
2002-10-31,269000.0
2002-09-30,270400.0
2002-08-31,269900.0
2002-07-31,269800.0
2002-06-30,270100.0
2002-05-31,270300.0
2002-04-30,268400.0
2002-03-31,266900.0
2002-02-28,267500.0
2002-01-31,268300.0
2001-12-31,267200.0
2001-11-30,267700.0
2001-10-31,266700.0
2001-09-30,263800.0
2001-08-31,262100.0
2001-07-31,261600.0
2001-06-30,259700.0
2001-05-31,257200.0
2001-04-30,254400.0
2001-03-31,252000.0
2001-02-28,250500.0
2001-01-31,249000.0
2000-12-31,247200.0
2000-11-30,244600.0
2000-10-31,243700.0
2000-09-30,243400.0
2000-08-31,242700.0
2000-07-31,243000.0
2000-06-30,244600.0
2000-05-31,244300.0
2000-04-30,243000.0
2000-03-31,240700.0
2000-02-29,237500.0
2000-01-31,233200.0
1999-12-31,228300.0
1999-11-30,221100.0
1999-10-31,213300.0
1999-09-30,206000.0
1999-08-31,200700.0
1999-07-31,197500.0
1999-06-30,196600.0
1999-05-31,196600.0
1999-04-30,197300.0
1999-03-31,197900.0
1999-02-28,197800.0
1999-01-31,197300.0
1998-12-31,194400.0
1998-11-30,192000.0
1998-10-31,191500.0
1998-09-30,192700.0
1998-08-31,193000.0
1998-07-31,190500.0
1998-06-30,184000.0
1998-05-31,178500.0
1998-04-30,174700.0
1998-03-31,171800.0
1998-02-28,169400.0
1998-01-31,168200.0
1997-12-31,168400.0
1997-11-30,168900.0
1997-10-31,167900.0
1997-09-30,165700.0
1997-08-31,163600.0
1997-07-31,161600.0
1997-06-30,159600.0
1997-05-31,157700.0
1997-04-30,155300.0
1997-03-31,152700.0
1997-02-28,150400.0
1997-01-31,149400.0
1996-12-31,148100.0
1996-11-30,146300.0
1996-10-31,144600.0
1996-09-30,143400.0
1996-08-31,140500.0
1996-07-31,138900.0
1996-06-30,140600.0
1996-05-31,142600.0
1996-04-30,143600.0
