Date,Value
2015-09-30,196700.0
2015-08-31,179700.0
2015-07-31,178800.0
2015-06-30,176900.0
2015-05-31,175400.0
2015-04-30,175700.0
2015-03-31,177700.0
2015-02-28,179300.0
2015-01-31,178200.0
2014-12-31,177800.0
2014-11-30,177700.0
2014-10-31,177500.0
2014-09-30,176400.0
2014-08-31,175000.0
2014-07-31,174200.0
2014-06-30,173800.0
2014-05-31,173800.0
2014-04-30,169700.0
2014-03-31,166200.0
2014-02-28,167600.0
2014-01-31,170600.0
2013-12-31,168500.0
2013-11-30,164400.0
2013-10-31,160700.0
2013-09-30,159400.0
2013-08-31,160500.0
2013-07-31,161000.0
2013-06-30,160800.0
2013-05-31,159800.0
2013-04-30,160700.0
2013-03-31,162000.0
2013-02-28,161800.0
2013-01-31,159700.0
2012-12-31,158200.0
2012-11-30,157300.0
2012-10-31,155400.0
2012-09-30,152300.0
2012-08-31,150300.0
2012-07-31,150500.0
2012-06-30,150400.0
2012-05-31,148300.0
2012-04-30,144300.0
2012-03-31,140200.0
2012-02-29,138400.0
2012-01-31,138300.0
2011-12-31,138600.0
2011-11-30,139400.0
2011-10-31,141100.0
2011-09-30,143200.0
2011-08-31,144900.0
2011-07-31,144300.0
2011-06-30,142400.0
2011-05-31,141400.0
2011-04-30,142300.0
2011-03-31,144000.0
2011-02-28,144600.0
2011-01-31,144200.0
2010-12-31,144500.0
2010-11-30,145400.0
2010-10-31,146300.0
2010-09-30,147000.0
2010-08-31,146900.0
2010-07-31,146100.0
2010-06-30,146800.0
2010-05-31,149000.0
2010-04-30,152700.0
2010-03-31,156800.0
2010-02-28,159000.0
2010-01-31,159100.0
2009-12-31,158600.0
2009-11-30,158000.0
2009-10-31,157900.0
2009-09-30,158200.0
2009-08-31,158800.0
2009-07-31,159900.0
2009-06-30,160500.0
2009-05-31,160300.0
2009-04-30,159700.0
2009-03-31,158800.0
2009-02-28,158100.0
2009-01-31,157100.0
2008-12-31,157200.0
2008-11-30,159300.0
2008-10-31,162500.0
2008-09-30,165000.0
2008-08-31,165300.0
2008-07-31,164700.0
2008-06-30,165500.0
2008-05-31,169800.0
2008-04-30,173700.0
2008-03-31,174600.0
2008-02-29,173500.0
2008-01-31,174900.0
2007-12-31,176000.0
2007-11-30,174500.0
2007-10-31,172800.0
2007-09-30,172900.0
2007-08-31,174500.0
2007-07-31,175900.0
2007-06-30,176400.0
2007-05-31,175600.0
2007-04-30,174600.0
2007-03-31,173400.0
2007-02-28,173700.0
2007-01-31,175500.0
2006-12-31,177300.0
2006-11-30,177600.0
2006-10-31,177600.0
2006-09-30,177300.0
2006-08-31,176600.0
2006-07-31,176200.0
2006-06-30,175400.0
2006-05-31,173900.0
2006-04-30,172100.0
2006-03-31,170500.0
2006-02-28,168300.0
2006-01-31,165700.0
2005-12-31,163600.0
2005-11-30,162000.0
2005-10-31,159700.0
2005-09-30,156800.0
2005-08-31,154300.0
2005-07-31,151800.0
2005-06-30,148700.0
2005-05-31,144300.0
2005-04-30,140900.0
2005-03-31,139500.0
2005-02-28,138900.0
2005-01-31,137100.0
2004-12-31,135700.0
2004-11-30,134800.0
2004-10-31,133600.0
2004-09-30,130600.0
2004-08-31,128000.0
2004-07-31,127100.0
2004-06-30,127300.0
2004-05-31,126900.0
2004-04-30,126000.0
2004-03-31,125800.0
2004-02-29,125200.0
2004-01-31,124100.0
2003-12-31,122600.0
2003-11-30,121100.0
2003-10-31,119300.0
2003-09-30,118300.0
2003-08-31,117600.0
2003-07-31,116700.0
2003-06-30,115500.0
2003-05-31,115100.0
2003-04-30,114800.0
2003-03-31,113900.0
2003-02-28,112900.0
2003-01-31,112200.0
2002-12-31,111600.0
2002-11-30,111200.0
2002-10-31,111200.0
2002-09-30,111900.0
2002-08-31,111600.0
2002-07-31,110800.0
2002-06-30,110500.0
2002-05-31,111000.0
2002-04-30,111100.0
2002-03-31,110900.0
2002-02-28,110600.0
2002-01-31,110600.0
2001-12-31,111100.0
2001-11-30,111400.0
2001-10-31,111400.0
2001-09-30,111500.0
2001-08-31,112300.0
2001-07-31,112900.0
2001-06-30,112900.0
2001-05-31,111900.0
2001-04-30,111500.0
2001-03-31,111600.0
2001-02-28,111700.0
2001-01-31,111200.0
2000-12-31,110900.0
2000-11-30,110900.0
2000-10-31,111300.0
2000-09-30,111700.0
2000-08-31,111300.0
2000-07-31,110100.0
2000-06-30,109400.0
2000-05-31,109200.0
2000-04-30,108600.0
2000-03-31,108400.0
2000-02-29,109500.0
2000-01-31,110400.0
1999-12-31,110400.0
1999-11-30,110100.0
1999-10-31,110100.0
1999-09-30,109800.0
1999-08-31,110200.0
1999-07-31,111000.0
1999-06-30,112300.0
1999-05-31,112600.0
1999-04-30,111700.0
1999-03-31,110100.0
1999-02-28,108600.0
1999-01-31,107100.0
1998-12-31,106900.0
1998-11-30,107000.0
1998-10-31,106200.0
1998-09-30,105500.0
1998-08-31,105200.0
1998-07-31,104600.0
1998-06-30,103100.0
1998-05-31,102700.0
1998-04-30,104200.0
1998-03-31,106000.0
1998-02-28,106100.0
1998-01-31,106200.0
1997-12-31,105700.0
1997-11-30,105400.0
1997-10-31,105400.0
1997-09-30,105200.0
1997-08-31,105000.0
1997-07-31,105500.0
1997-06-30,106400.0
1997-05-31,106900.0
1997-04-30,106900.0
1997-03-31,107100.0
1997-02-28,107100.0
1997-01-31,106100.0
1996-12-31,104300.0
1996-11-30,103200.0
1996-10-31,103100.0
1996-09-30,103000.0
1996-08-31,102400.0
1996-07-31,101800.0
1996-06-30,101100.0
1996-05-31,100700.0
1996-04-30,99800.0
