Date,Value
2005-07-31,269665.4118
2005-06-30,292116.0
2004-08-31,250000.0
2003-10-31,196000.0
2003-06-30,160000.0
2002-08-31,218950.0
2001-05-31,184000.0
1999-05-31,138000.0
1998-03-31,107000.0
1997-09-30,115000.0
1996-05-31,85000.0
