Date,Value
2015-09-30,210200.0
2015-08-31,210000.0
2015-07-31,209500.0
2015-06-30,211500.0
2015-05-31,208100.0
2015-04-30,207800.0
2015-03-31,208600.0
2015-02-28,209000.0
2015-01-31,207000.0
2014-12-31,205800.0
2014-11-30,204300.0
2014-10-31,203600.0
2014-09-30,203600.0
2014-08-31,203900.0
2014-07-31,203200.0
2014-06-30,201800.0
2014-05-31,200500.0
2014-04-30,200500.0
2014-03-31,200400.0
2014-02-28,199800.0
2014-01-31,199100.0
2013-12-31,198400.0
2013-11-30,197900.0
2013-10-31,196500.0
2013-09-30,193100.0
2013-08-31,190200.0
2013-07-31,190400.0
2013-06-30,191700.0
2013-05-31,192800.0
2013-04-30,192800.0
2013-03-31,192800.0
2013-02-28,192000.0
2013-01-31,191000.0
2012-12-31,190300.0
2012-11-30,191000.0
2012-10-31,192000.0
2012-09-30,193100.0
2012-08-31,192500.0
2012-07-31,190000.0
2012-06-30,187000.0
2012-05-31,185000.0
2012-04-30,183900.0
2012-03-31,183200.0
2012-02-29,183300.0
2012-01-31,184300.0
2011-12-31,184700.0
2011-11-30,185000.0
2011-10-31,186200.0
2011-09-30,189000.0
2011-08-31,192700.0
2011-07-31,196900.0
2011-06-30,200800.0
2011-05-31,203600.0
2011-04-30,205000.0
2011-03-31,206100.0
2011-02-28,207200.0
2011-01-31,207700.0
2010-12-31,208300.0
2010-11-30,208700.0
2010-10-31,208600.0
2010-09-30,208500.0
2010-08-31,209300.0
2010-07-31,210400.0
2010-06-30,211500.0
2010-05-31,212700.0
2010-04-30,214400.0
2010-03-31,216500.0
2010-02-28,218400.0
2010-01-31,219700.0
2009-12-31,220500.0
2009-11-30,220600.0
2009-10-31,220400.0
2009-09-30,221200.0
2009-08-31,222400.0
2009-07-31,223400.0
2009-06-30,224000.0
2009-05-31,224700.0
2009-04-30,225300.0
2009-03-31,225300.0
2009-02-28,225900.0
2009-01-31,227500.0
2008-12-31,229300.0
2008-11-30,231100.0
2008-10-31,233100.0
2008-09-30,233300.0
2008-08-31,232300.0
2008-07-31,231000.0
2008-06-30,230600.0
2008-05-31,230200.0
2008-04-30,230700.0
2008-03-31,231600.0
2008-02-29,231700.0
2008-01-31,230100.0
2007-12-31,229500.0
2007-11-30,230500.0
2007-10-31,231900.0
2007-09-30,233200.0
2007-08-31,233700.0
2007-07-31,233900.0
2007-06-30,234600.0
2007-05-31,235800.0
2007-04-30,235900.0
2007-03-31,235300.0
2007-02-28,235300.0
2007-01-31,236200.0
2006-12-31,236500.0
2006-11-30,236200.0
2006-10-31,235600.0
2006-09-30,235700.0
2006-08-31,236700.0
2006-07-31,237800.0
2006-06-30,237700.0
2006-05-31,236600.0
2006-04-30,235200.0
2006-03-31,233300.0
2006-02-28,230500.0
2006-01-31,227900.0
2005-12-31,225700.0
2005-11-30,222900.0
2005-10-31,218800.0
2005-09-30,213400.0
2005-08-31,207600.0
2005-07-31,201600.0
2005-06-30,195900.0
2005-05-31,190900.0
2005-04-30,187000.0
2005-03-31,183800.0
2005-02-28,180700.0
2005-01-31,177700.0
2004-12-31,174800.0
2004-11-30,172100.0
2004-10-31,169600.0
2004-09-30,167700.0
2004-08-31,166000.0
2004-07-31,164200.0
2004-06-30,161600.0
2004-05-31,159000.0
2004-04-30,157000.0
2004-03-31,155400.0
2004-02-29,154300.0
2004-01-31,153400.0
2003-12-31,151900.0
2003-11-30,150000.0
2003-10-31,148400.0
2003-09-30,147200.0
2003-08-31,145900.0
2003-07-31,144900.0
2003-06-30,144900.0
2003-05-31,145500.0
2003-04-30,145300.0
2003-03-31,144300.0
2003-02-28,143000.0
2003-01-31,141500.0
2002-12-31,139800.0
2002-11-30,138300.0
2002-10-31,136800.0
2002-09-30,135800.0
2002-08-31,135200.0
2002-07-31,135300.0
2002-06-30,135100.0
2002-05-31,134200.0
2002-04-30,132900.0
2002-03-31,132400.0
2002-02-28,132300.0
2002-01-31,131800.0
2001-12-31,131100.0
2001-11-30,130600.0
2001-10-31,129900.0
2001-09-30,129000.0
2001-08-31,127700.0
2001-07-31,126200.0
2001-06-30,124900.0
2001-05-31,124100.0
2001-04-30,123800.0
2001-03-31,122700.0
2001-02-28,121500.0
2001-01-31,120500.0
2000-12-31,120300.0
2000-11-30,120300.0
2000-10-31,120600.0
2000-09-30,120900.0
2000-08-31,121400.0
2000-07-31,121500.0
2000-06-30,121100.0
2000-05-31,120300.0
2000-04-30,119000.0
2000-03-31,117900.0
2000-02-29,117500.0
2000-01-31,117300.0
1999-12-31,117300.0
1999-11-30,117600.0
1999-10-31,117900.0
1999-09-30,117900.0
1999-08-31,118000.0
1999-07-31,118000.0
1999-06-30,118300.0
1999-05-31,118900.0
1999-04-30,119500.0
1999-03-31,120200.0
1999-02-28,120500.0
1999-01-31,120300.0
1998-12-31,119600.0
1998-11-30,118700.0
1998-10-31,117600.0
1998-09-30,116700.0
1998-08-31,116100.0
1998-07-31,115700.0
1998-06-30,114900.0
1998-05-31,114200.0
1998-04-30,113700.0
1998-03-31,113000.0
1998-02-28,112500.0
1998-01-31,112500.0
1997-12-31,112500.0
1997-11-30,112700.0
1997-10-31,113100.0
1997-09-30,113400.0
1997-08-31,113000.0
1997-07-31,112500.0
1997-06-30,112600.0
1997-05-31,113000.0
1997-04-30,113000.0
1997-03-31,113000.0
1997-02-28,112900.0
1997-01-31,112800.0
1996-12-31,112800.0
1996-11-30,112900.0
1996-10-31,113000.0
1996-09-30,113300.0
1996-08-31,113700.0
1996-07-31,114200.0
1996-06-30,114600.0
1996-05-31,114800.0
1996-04-30,115500.0
