Date,Value
2015-02-28,171900.0
2015-01-31,149900.0
2014-12-31,145500.0
2014-11-30,154900.0
2014-10-31,149900.0
2014-09-30,149900.0
2014-08-31,180000.0
2014-07-31,179900.0
2014-06-30,150000.0
2014-05-31,159900.0
2014-04-30,169900.0
2014-03-31,224995.0
2014-02-28,199900.0
2014-01-31,224995.0
2013-12-31,168000.0
2013-11-30,159900.0
2013-10-31,165000.0
2013-09-30,155000.0
2013-08-31,143500.0
2013-07-31,139900.0
2013-06-30,145000.0
2013-05-31,133500.0
2013-04-30,135000.0
2013-03-31,135000.0
2013-02-28,139900.0
2013-01-31,140000.0
2012-12-31,140000.0
2012-11-30,149900.0
2012-10-31,149900.0
2012-09-30,143000.0
2012-08-31,143000.0
2012-07-31,145900.0
2012-06-30,143000.0
2012-05-31,174995.0
2012-04-30,143000.0
2012-03-31,138900.0
2012-02-29,130000.0
2012-01-31,144900.0
2011-12-31,139500.0
2011-11-30,135000.0
2011-10-31,129900.0
2011-09-30,139900.0
2011-08-31,149900.0
2011-07-31,149900.0
2011-06-30,154500.0
2011-05-31,175000.0
2011-04-30,175000.0
2011-03-31,179900.0
2011-02-28,143900.0
2011-01-31,143900.0
2010-12-31,140000.0
2010-11-30,141900.0
2010-10-31,149900.0
2010-09-30,143000.0
2010-08-31,152000.0
2010-07-31,149900.0
2010-06-30,155000.0
2010-05-31,155000.0
2010-04-30,164900.0
2010-03-31,159000.0
2010-02-28,155000.0
2010-01-31,164900.0
2009-12-31,162000.0
2009-11-30,162000.0
2009-10-31,167950.0
2009-09-30,173500.0
2009-08-31,165000.0
2009-07-31,165000.0
2009-06-30,165000.0
2009-05-31,165000.0
2009-04-30,169900.0
2009-03-31,169900.0
2009-02-28,173000.0
2009-01-31,172500.0
2008-12-31,187500.0
2008-11-30,186000.0
2008-10-31,189000.0
