Date,Value
2015-09-30,259200.0
2015-08-31,265500.0
2015-07-31,262800.0
2015-06-30,267700.0
2015-05-31,271200.0
2015-04-30,266800.0
2015-03-31,260800.0
2015-02-28,257400.0
2015-01-31,252600.0
2014-12-31,251400.0
2014-11-30,250100.0
2014-10-31,249000.0
2014-09-30,247700.0
2014-08-31,246800.0
2014-07-31,245800.0
2014-06-30,243200.0
2014-05-31,238700.0
2014-04-30,234500.0
2014-03-31,231300.0
2014-02-28,229600.0
2014-01-31,227700.0
2013-12-31,225400.0
2013-11-30,221900.0
2013-10-31,219300.0
2013-09-30,216900.0
2013-08-31,214800.0
2013-07-31,211000.0
2013-06-30,206400.0
2013-05-31,200300.0
2013-04-30,193900.0
2013-03-31,187400.0
2013-02-28,182100.0
2013-01-31,178800.0
2012-12-31,176400.0
2012-11-30,174700.0
2012-10-31,174300.0
2012-09-30,175200.0
2012-08-31,175700.0
2012-07-31,175500.0
2012-06-30,174600.0
2012-05-31,173500.0
2012-04-30,172200.0
2012-03-31,170200.0
2012-02-29,168300.0
2012-01-31,168400.0
2011-12-31,169700.0
2011-11-30,170000.0
2011-10-31,168900.0
2011-09-30,167000.0
2011-08-31,166100.0
2011-07-31,167400.0
2011-06-30,169700.0
2011-05-31,173400.0
2011-04-30,177600.0
2011-03-31,181800.0
2011-02-28,185800.0
2011-01-31,189100.0
2010-12-31,191100.0
2010-11-30,193800.0
2010-10-31,197200.0
2010-09-30,200700.0
2010-08-31,204300.0
2010-07-31,209000.0
2010-06-30,215200.0
2010-05-31,223100.0
2010-04-30,231500.0
2010-03-31,238000.0
2010-02-28,241600.0
2010-01-31,243400.0
2009-12-31,243500.0
2009-11-30,242600.0
2009-10-31,240400.0
2009-09-30,239700.0
2009-08-31,242700.0
2009-07-31,246400.0
2009-06-30,247100.0
2009-05-31,246400.0
2009-04-30,245900.0
2009-03-31,247000.0
2009-02-28,248000.0
2009-01-31,248100.0
2008-12-31,249300.0
2008-11-30,253300.0
2008-10-31,257400.0
2008-09-30,259900.0
2008-08-31,262000.0
2008-07-31,265800.0
2008-06-30,269800.0
2008-05-31,270700.0
2008-04-30,269900.0
2008-03-31,269700.0
2008-02-29,270700.0
2008-01-31,272500.0
2007-12-31,275300.0
2007-11-30,278300.0
2007-10-31,282200.0
2007-09-30,286400.0
2007-08-31,286700.0
2007-07-31,281200.0
2007-06-30,276300.0
2007-05-31,274800.0
2007-04-30,275000.0
2007-03-31,275000.0
2007-02-28,274800.0
2007-01-31,272400.0
2006-12-31,269100.0
2006-11-30,265600.0
2006-10-31,262200.0
2006-09-30,259900.0
2006-08-31,258200.0
2006-07-31,254800.0
2006-06-30,248600.0
2006-05-31,241000.0
2006-04-30,233100.0
2006-03-31,226900.0
2006-02-28,223600.0
2006-01-31,222700.0
2005-12-31,221300.0
2005-11-30,218200.0
2005-10-31,213600.0
2005-09-30,207600.0
2005-08-31,200000.0
2005-07-31,193500.0
2005-06-30,190800.0
2005-05-31,191100.0
2005-04-30,191700.0
2005-03-31,190800.0
2005-02-28,188600.0
2005-01-31,186300.0
2004-12-31,184200.0
2004-11-30,181400.0
2004-10-31,178600.0
2004-09-30,176200.0
2004-08-31,173800.0
2004-07-31,172400.0
2004-06-30,172100.0
2004-05-31,171900.0
2004-04-30,171300.0
2004-03-31,170900.0
2004-02-29,170400.0
2004-01-31,169100.0
2003-12-31,166900.0
2003-11-30,165500.0
2003-10-31,165000.0
2003-09-30,164500.0
2003-08-31,164900.0
2003-07-31,165900.0
2003-06-30,166300.0
2003-05-31,165600.0
2003-04-30,164100.0
2003-03-31,162200.0
2003-02-28,160700.0
2003-01-31,159500.0
2002-12-31,158500.0
2002-11-30,158100.0
2002-10-31,158100.0
2002-09-30,158200.0
2002-08-31,158200.0
2002-07-31,158100.0
2002-06-30,157100.0
2002-05-31,155000.0
2002-04-30,153200.0
2002-03-31,152100.0
2002-02-28,150600.0
2002-01-31,149300.0
2001-12-31,148900.0
2001-11-30,149000.0
2001-10-31,149000.0
2001-09-30,149700.0
2001-08-31,150600.0
2001-07-31,150100.0
2001-06-30,149100.0
2001-05-31,148900.0
2001-04-30,148800.0
2001-03-31,148800.0
2001-02-28,148700.0
2001-01-31,148300.0
2000-12-31,148000.0
2000-11-30,147300.0
2000-10-31,146100.0
2000-09-30,144500.0
2000-08-31,143600.0
2000-07-31,143300.0
2000-06-30,143000.0
2000-05-31,141600.0
2000-04-30,141200.0
2000-03-31,141400.0
2000-02-29,140600.0
2000-01-31,138700.0
1999-12-31,136900.0
1999-11-30,135200.0
1999-10-31,133800.0
1999-09-30,132500.0
1999-08-31,131600.0
1999-07-31,131400.0
1999-06-30,131300.0
1999-05-31,130400.0
1999-04-30,128100.0
1999-03-31,125400.0
1999-02-28,124500.0
1999-01-31,124800.0
1998-12-31,125000.0
1998-11-30,125700.0
1998-10-31,126500.0
1998-09-30,126100.0
1998-08-31,123800.0
1998-07-31,121000.0
1998-06-30,119000.0
1998-05-31,118000.0
1998-04-30,117200.0
1998-03-31,116500.0
1998-02-28,115000.0
1998-01-31,113200.0
1997-12-31,111700.0
1997-11-30,109800.0
1997-10-31,107600.0
1997-09-30,106200.0
1997-08-31,105800.0
1997-07-31,105800.0
1997-06-30,105100.0
1997-05-31,104200.0
1997-04-30,104000.0
1997-03-31,103700.0
1997-02-28,103100.0
1997-01-31,102500.0
1996-12-31,101800.0
1996-11-30,101000.0
1996-10-31,100100.0
1996-09-30,99200.0
1996-08-31,99200.0
1996-07-31,99700.0
1996-06-30,99600.0
1996-05-31,99700.0
1996-04-30,100300.0
