Date,Value
2015-09-30,289615.3846
2015-07-31,255000.0
2013-07-31,80000.0
2009-08-31,258225.0
2009-07-31,277600.0
2009-06-30,267275.0
2009-05-31,271942.5
2009-04-30,296882.5
2009-03-31,319088.2353
2009-02-28,375923.0769
2008-12-31,284538.4615
2008-10-31,301649.85
2008-09-30,303274.65
2008-08-31,303459.5
2008-07-31,322965.0
2008-06-30,309375.0
2008-05-31,318350.0
2008-04-30,318300.0
2008-03-31,335917.5
2008-02-29,345232.5
2008-01-31,346217.5
2007-12-31,332982.5
2007-11-30,315967.5
2007-10-31,314982.5
2007-09-30,337975.0
2007-08-31,340050.0
2007-07-31,345242.5
2007-06-30,343282.5
2007-05-31,360882.5
2007-04-30,350517.5
2007-03-31,338375.0
2007-02-28,335350.0
2007-01-31,338550.0
2006-12-31,349500.0
2006-11-30,333250.0
2006-10-31,333192.5
2006-09-30,324732.5
2006-08-31,343510.0
2006-07-31,341457.5
2006-06-30,328175.0
2006-05-31,310807.5
2006-04-30,285375.0
2006-03-31,282641.25
2006-02-28,290300.25
2006-01-31,295856.0
2005-12-31,298812.5
2005-11-30,287373.8
2005-10-31,289535.6
2005-09-30,286670.6
2005-08-31,289868.0
2005-07-31,280675.0
2005-06-30,260242.5
2005-05-31,248327.5
2005-04-30,254980.0
2005-03-31,270492.5
2005-02-28,271011.6
2005-01-31,255479.4
2004-12-31,256027.05
2004-11-30,262705.95
2004-10-31,253869.5
2004-09-30,251080.0
2004-08-31,245375.0
2004-07-31,256942.5
2004-06-30,268725.0
2004-05-31,269250.0
2004-04-30,261907.5
2004-03-31,256075.0
2004-02-29,236899.5
2004-01-31,231390.5
2003-12-31,235840.0
2003-11-30,243350.0
2003-10-31,242085.0
2003-09-30,248126.0
2003-08-31,246959.0
2003-07-31,245420.0
2003-06-30,233675.0
2003-05-31,223625.0
2003-04-30,228750.0
2003-03-31,237000.0
2003-02-28,231500.0
2003-01-31,224100.0
2002-12-31,226400.0
2002-11-30,224250.0
2002-10-31,225992.5
2002-09-30,231482.5
2002-08-31,229975.0
2002-07-31,235135.0
2002-06-30,233815.0
2002-05-31,229625.0
2002-04-30,220823.5
2002-03-31,212946.5
2002-02-28,207085.0
2002-01-31,203560.0
2001-12-31,203250.0
2001-11-30,190525.0
2001-10-31,197275.0
2001-09-30,204942.5
2001-08-31,202525.0
2001-07-31,194957.5
2001-06-30,188475.0
2001-05-31,194600.0
2001-04-30,191150.0
2001-03-31,175900.0
2001-02-28,169650.0
2001-01-31,176400.0
2000-12-31,186085.0
2000-11-30,179363.5
2000-10-31,180221.5
2000-09-30,183720.0
2000-08-31,181392.5
2000-07-31,190175.0
2000-06-30,203157.5
2000-05-31,196167.5
2000-04-30,187482.5
2000-03-31,180467.5
2000-02-29,179745.0
2000-01-31,172580.0
1999-12-31,182357.5
1999-11-30,177225.0
1999-10-31,184650.0
1999-09-30,186835.0
1999-08-31,180165.0
1999-07-31,185892.5
1999-06-30,188732.5
1999-05-31,192875.0
1999-04-30,186075.0
1999-03-31,174475.0
1999-02-28,162892.5
1999-01-31,162607.5
1998-12-31,173350.0
1998-11-30,165800.0
1998-10-31,165075.0
1998-09-30,167475.0
1998-08-31,171148.5
1998-07-31,166594.2
1998-06-30,158156.3
1998-05-31,157159.0
1998-04-30,157125.0
1998-03-31,159775.0
1998-02-28,155775.0
1998-01-31,156975.0
1997-12-31,150750.0
1997-11-30,154392.5
1997-10-31,157382.5
1997-09-30,155167.5
1997-08-31,153282.5
1997-07-31,153675.0
1997-06-30,148748.5
1997-05-31,152108.0
1997-04-30,142573.5
1997-03-31,144220.0
1997-02-28,151800.0
1997-01-31,164520.0
1996-12-31,153215.0
1996-11-30,144420.0
1996-10-31,142070.0
1996-09-30,146167.5
1996-08-31,150875.0
1996-07-31,155782.5
1996-06-30,155400.0
1996-05-31,154592.5
1996-04-30,153932.5
