Date,Value
2015-02-28,199900.0
2015-01-31,199500.0
2014-12-31,199900.0
2014-11-30,199900.0
2014-10-31,199900.0
2014-09-30,199900.0
2014-08-31,199900.0
2014-07-31,199500.0
2014-06-30,199900.0
2014-05-31,199900.0
2014-04-30,199900.0
2014-03-31,199900.0
2014-02-28,199900.0
2014-01-31,199900.0
2013-12-31,199900.0
2013-11-30,199900.0
2013-10-31,199900.0
2013-09-30,199900.0
2013-08-31,199900.0
2013-07-31,199900.0
2013-06-30,199900.0
2013-05-31,199900.0
2013-04-30,202900.0
2013-03-31,202900.0
2013-02-28,189900.0
2013-01-31,189900.0
2012-12-31,179900.0
2012-11-30,179900.0
2012-10-31,179900.0
2012-09-30,179900.0
2012-08-31,179900.0
2012-07-31,179900.0
2012-06-30,199900.0
2012-05-31,199900.0
2012-04-30,199900.0
2012-03-31,204900.0
2012-02-29,209900.0
2012-01-31,204900.0
2011-12-31,204900.0
2011-11-30,204900.0
2011-10-31,180000.0
2011-09-30,189900.0
2011-08-31,179900.0
2011-07-31,180000.0
2011-06-30,164900.0
2011-05-31,169900.0
2011-04-30,179900.0
2011-03-31,204900.0
2011-02-28,229900.0
2011-01-31,229900.0
2010-12-31,225000.0
2010-11-30,225000.0
2010-10-31,225000.0
2010-09-30,189000.0
2010-08-31,245000.0
2010-07-31,249900.0
2010-06-30,249900.0
2010-05-31,239570.0
2010-04-30,255000.0
2010-03-31,255000.0
2010-02-28,269900.0
2010-01-31,320000.0
2009-12-31,320000.0
2009-11-30,263500.0
2009-10-31,289900.0
2009-09-30,299000.0
2009-08-31,263500.0
2009-07-31,320000.0
2009-06-30,285000.0
2009-05-31,299000.0
2009-04-30,299000.0
2009-03-31,287500.0
2009-02-28,299900.0
2009-01-31,320000.0
2008-12-31,320000.0
2008-11-30,320000.0
2008-10-31,320000.0
