Date,Value
2015-09-30,708800.0
2015-08-31,696200.0
2015-07-31,694800.0
2015-06-30,710800.0
2015-05-31,718800.0
2015-04-30,715200.0
2015-03-31,696200.0
2015-02-28,681800.0
2015-01-31,678100.0
2014-12-31,679200.0
2014-11-30,675000.0
2014-10-31,666300.0
2014-09-30,666500.0
2014-08-31,672000.0
2014-07-31,671600.0
2014-06-30,662100.0
2014-05-31,648700.0
2014-04-30,623900.0
2014-03-31,601300.0
2014-02-28,597200.0
2014-01-31,608200.0
2013-12-31,612800.0
2013-11-30,609300.0
2013-10-31,603200.0
2013-09-30,596000.0
2013-08-31,582200.0
2013-07-31,571500.0
2013-06-30,560700.0
2013-05-31,553000.0
2013-04-30,550800.0
2013-03-31,544800.0
2013-02-28,526500.0
2013-01-31,508900.0
2012-12-31,494400.0
2012-11-30,485800.0
2012-10-31,484300.0
2012-09-30,484500.0
2012-08-31,487800.0
2012-07-31,493700.0
2012-06-30,498100.0
2012-05-31,495200.0
2012-04-30,489600.0
2012-03-31,486000.0
2012-02-29,487500.0
2012-01-31,485700.0
2011-12-31,482600.0
2011-11-30,481600.0
2011-10-31,482800.0
2011-09-30,482900.0
2011-08-31,479200.0
2011-07-31,476100.0
2011-06-30,479600.0
2011-05-31,486000.0
2011-04-30,490300.0
2011-03-31,493400.0
2011-02-28,496900.0
2011-01-31,499100.0
2010-12-31,498800.0
2010-11-30,495500.0
2010-10-31,494800.0
2010-09-30,496100.0
2010-08-31,499300.0
2010-07-31,503100.0
2010-06-30,508500.0
2010-05-31,513300.0
2010-04-30,520800.0
2010-03-31,530400.0
2010-02-28,534700.0
2010-01-31,533500.0
2009-12-31,535000.0
2009-11-30,538900.0
2009-10-31,541200.0
2009-09-30,541500.0
2009-08-31,546200.0
2009-07-31,555500.0
2009-06-30,563400.0
2009-05-31,570400.0
2009-04-30,581600.0
2009-03-31,590200.0
2009-02-28,592800.0
2009-01-31,592800.0
2008-12-31,593500.0
2008-11-30,597000.0
2008-10-31,603300.0
2008-09-30,612600.0
2008-08-31,621200.0
2008-07-31,628400.0
2008-06-30,638100.0
2008-05-31,651600.0
2008-04-30,657600.0
2008-03-31,656200.0
2008-02-29,651600.0
2008-01-31,647900.0
2007-12-31,644800.0
2007-11-30,646000.0
2007-10-31,648200.0
2007-09-30,649900.0
2007-08-31,646000.0
2007-07-31,639100.0
2007-06-30,633200.0
2007-05-31,631800.0
2007-04-30,629700.0
2007-03-31,624200.0
2007-02-28,617600.0
2007-01-31,615600.0
2006-12-31,616800.0
2006-11-30,614200.0
2006-10-31,607000.0
2006-09-30,600300.0
2006-08-31,596900.0
2006-07-31,590000.0
2006-06-30,576300.0
2006-05-31,564000.0
2006-04-30,559000.0
2006-03-31,559500.0
2006-02-28,562700.0
2006-01-31,565100.0
2005-12-31,565900.0
2005-11-30,565200.0
2005-10-31,562300.0
2005-09-30,553400.0
2005-08-31,539100.0
2005-07-31,519700.0
2005-06-30,500400.0
2005-05-31,482100.0
2005-04-30,469700.0
2005-03-31,461800.0
2005-02-28,458200.0
2005-01-31,457600.0
2004-12-31,457900.0
2004-11-30,454000.0
2004-10-31,447800.0
2004-09-30,442600.0
2004-08-31,440700.0
2004-07-31,443700.0
2004-06-30,448900.0
2004-05-31,448700.0
2004-04-30,442400.0
2004-03-31,438500.0
2004-02-29,437500.0
2004-01-31,432800.0
2003-12-31,425500.0
2003-11-30,419900.0
2003-10-31,415000.0
2003-09-30,409900.0
2003-08-31,404100.0
2003-07-31,398100.0
2003-06-30,393200.0
2003-05-31,390100.0
2003-04-30,387600.0
2003-03-31,384600.0
2003-02-28,381000.0
2003-01-31,378100.0
2002-12-31,377600.0
2002-11-30,379500.0
2002-10-31,381300.0
2002-09-30,382600.0
2002-08-31,384700.0
2002-07-31,387400.0
2002-06-30,388700.0
2002-05-31,390900.0
2002-04-30,392600.0
2002-03-31,392700.0
2002-02-28,392600.0
2002-01-31,393000.0
2001-12-31,392100.0
2001-11-30,391900.0
2001-10-31,389800.0
2001-09-30,386600.0
2001-08-31,386100.0
2001-07-31,388500.0
2001-06-30,391300.0
2001-05-31,394200.0
2001-04-30,393300.0
2001-03-31,390500.0
2001-02-28,386700.0
2001-01-31,382200.0
2000-12-31,376300.0
2000-11-30,370700.0
2000-10-31,367600.0
2000-09-30,369000.0
2000-08-31,371000.0
2000-07-31,371500.0
2000-06-30,370800.0
2000-05-31,367500.0
2000-04-30,363900.0
2000-03-31,361600.0
2000-02-29,358500.0
2000-01-31,354400.0
1999-12-31,349400.0
1999-11-30,343800.0
1999-10-31,340700.0
1999-09-30,339600.0
1999-08-31,339200.0
1999-07-31,340500.0
1999-06-30,341100.0
1999-05-31,335300.0
1999-04-30,328500.0
1999-03-31,322700.0
1999-02-28,319100.0
1999-01-31,316000.0
1998-12-31,314400.0
1998-11-30,313000.0
1998-10-31,313300.0
1998-09-30,310500.0
1998-08-31,302600.0
1998-07-31,293200.0
1998-06-30,288800.0
1998-05-31,290800.0
1998-04-30,294800.0
1998-03-31,295900.0
1998-02-28,292800.0
1998-01-31,287600.0
1997-12-31,283600.0
1997-11-30,280700.0
1997-10-31,278500.0
1997-09-30,277500.0
1997-08-31,275600.0
1997-07-31,272200.0
1997-06-30,268400.0
1997-05-31,266000.0
1997-04-30,265900.0
1997-03-31,267600.0
1997-02-28,267600.0
1997-01-31,265700.0
1996-12-31,262300.0
1996-11-30,258600.0
1996-10-31,254100.0
1996-09-30,249700.0
1996-08-31,246400.0
1996-07-31,244300.0
1996-06-30,241600.0
1996-05-31,238700.0
1996-04-30,235700.0
