Date,Value
2015-09-30,0.912
2015-08-31,0.878
2015-07-31,0.824
2015-06-30,0.81
2015-05-31,0.816
2015-04-30,0.838
2015-03-31,0.862
2015-02-28,0.86
2015-01-31,0.85
2014-12-31,0.84
2014-11-30,0.832
2014-10-31,0.824
2014-09-30,0.804
2014-08-31,0.794
2014-07-31,0.78
2014-06-30,0.77
2014-05-31,0.772
2014-04-30,0.782
2014-03-31,0.792
2014-02-28,0.786
2014-01-31,0.78
2013-12-31,0.786
2013-11-30,0.79
2013-10-31,0.784
2013-09-30,0.78
2013-08-31,0.772
2013-07-31,0.758
2013-06-30,0.748
2013-05-31,0.748
2013-04-30,0.74
2013-03-31,0.724
2013-02-28,0.708
2013-01-31,0.704
2012-12-31,0.708
2012-11-30,0.714
2012-10-31,0.722
2012-09-30,0.734
2012-08-31,0.744
2012-07-31,0.766
2012-06-30,0.764
2012-05-31,0.724
2012-04-30,0.688
2012-03-31,0.668
2012-02-29,0.664
2012-01-31,0.634
2011-12-31,0.616
2011-11-30,0.606
2011-10-31,0.61
2011-09-30,0.606
2011-08-31,0.602
2011-07-31,0.598
2011-06-30,0.608
2011-05-31,0.64
2011-04-30,0.666
2011-03-31,0.686
2011-02-28,0.7
2011-01-31,0.714
2010-12-31,0.722
2010-11-30,0.718
