Date,Value
2015-09-30,0.972
2015-08-31,0.968
2015-07-31,0.964
2015-06-30,0.96
2015-05-31,0.954
2015-04-30,0.944
2015-03-31,0.942
2015-02-28,0.944
2015-01-31,0.942
2014-12-31,0.93
2014-11-30,0.918
2014-10-31,0.906
2014-09-30,0.894
2014-08-31,0.88
2014-07-31,0.86
2014-06-30,0.848
2014-05-31,0.844
2014-04-30,0.852
2014-03-31,0.868
2014-02-28,0.884
2014-01-31,0.884
2013-12-31,0.884
2013-11-30,0.882
2013-10-31,0.882
2013-09-30,0.876
2013-08-31,0.866
2013-07-31,0.858
2013-06-30,0.854
2013-05-31,0.852
2013-04-30,0.842
2013-03-31,0.838
2013-02-28,0.844
2013-01-31,0.85
2012-12-31,0.844
2012-11-30,0.836
2012-10-31,0.824
2012-09-30,0.822
2012-08-31,0.826
2012-07-31,0.83
2012-06-30,0.83
2012-05-31,0.824
2012-04-30,0.816
2012-03-31,0.818
2012-02-29,0.832
2012-01-31,0.83
2011-12-31,0.812
2011-11-30,0.796
2011-10-31,0.788
2011-09-30,0.794
2011-08-31,0.8
2011-07-31,0.8
2011-06-30,0.796
2011-05-31,0.784
2011-04-30,0.774
2011-03-31,0.736
2011-02-28,0.676
2011-01-31,0.62
2010-12-31,0.632
2010-11-30,0.646
