Date,Value
2015-09-30,546000.0
2015-08-31,543100.0
2015-07-31,536900.0
2015-06-30,540200.0
2015-05-31,537400.0
2015-04-30,535200.0
2015-03-31,540300.0
2015-02-28,542500.0
2015-01-31,538700.0
2014-12-31,536800.0
2014-11-30,534000.0
2014-10-31,529400.0
2014-09-30,525000.0
2014-08-31,523200.0
2014-07-31,522100.0
2014-06-30,520500.0
2014-05-31,518200.0
2014-04-30,513600.0
2014-03-31,508200.0
2014-02-28,506800.0
2014-01-31,509200.0
2013-12-31,510400.0
2013-11-30,507800.0
2013-10-31,502400.0
2013-09-30,495100.0
2013-08-31,486700.0
2013-07-31,478100.0
2013-06-30,468100.0
2013-05-31,458600.0
2013-04-30,454000.0
2013-03-31,452500.0
2013-02-28,451000.0
2013-01-31,448400.0
2012-12-31,445500.0
2012-11-30,443000.0
2012-10-31,439300.0
2012-09-30,432800.0
2012-08-31,425000.0
2012-07-31,419400.0
2012-06-30,417800.0
2012-05-31,420100.0
2012-04-30,421100.0
2012-03-31,420200.0
2012-02-29,417100.0
2012-01-31,411500.0
2011-12-31,407400.0
2011-11-30,410100.0
2011-10-31,417600.0
2011-09-30,425600.0
2011-08-31,432300.0
2011-07-31,437500.0
2011-06-30,441400.0
2011-05-31,444100.0
2011-04-30,446100.0
2011-03-31,449100.0
2011-02-28,451200.0
2011-01-31,451300.0
2010-12-31,451900.0
2010-11-30,453500.0
2010-10-31,455800.0
2010-09-30,460900.0
2010-08-31,467500.0
2010-07-31,470400.0
2010-06-30,470300.0
2010-05-31,470300.0
2010-04-30,470400.0
2010-03-31,470100.0
2010-02-28,471100.0
2010-01-31,472600.0
2009-12-31,473700.0
2009-11-30,475700.0
2009-10-31,478900.0
2009-09-30,480200.0
2009-08-31,479600.0
2009-07-31,480800.0
2009-06-30,485700.0
2009-05-31,490500.0
2009-04-30,495400.0
2009-03-31,502000.0
2009-02-28,508700.0
2009-01-31,515100.0
2008-12-31,522600.0
2008-11-30,527000.0
2008-10-31,528600.0
2008-09-30,531000.0
2008-08-31,534600.0
2008-07-31,539000.0
2008-06-30,544800.0
2008-05-31,549200.0
2008-04-30,552700.0
2008-03-31,556200.0
2008-02-29,561600.0
2008-01-31,568500.0
2007-12-31,574700.0
2007-11-30,579300.0
2007-10-31,581700.0
2007-09-30,582600.0
2007-08-31,582600.0
2007-07-31,581400.0
2007-06-30,580800.0
2007-05-31,583100.0
2007-04-30,585300.0
2007-03-31,585600.0
2007-02-28,584200.0
2007-01-31,583700.0
2006-12-31,583200.0
2006-11-30,580600.0
2006-10-31,575300.0
2006-09-30,570300.0
2006-08-31,566900.0
2006-07-31,562800.0
2006-06-30,555200.0
2006-05-31,547500.0
2006-04-30,543100.0
2006-03-31,538200.0
2006-02-28,530300.0
2006-01-31,522200.0
2005-12-31,512400.0
2005-11-30,501200.0
2005-10-31,493700.0
2005-09-30,491100.0
2005-08-31,489200.0
2005-07-31,488300.0
2005-06-30,484900.0
2005-05-31,477400.0
2005-04-30,467600.0
2005-03-31,459100.0
2005-02-28,451100.0
2005-01-31,443600.0
2004-12-31,436800.0
2004-11-30,431500.0
2004-10-31,426800.0
2004-09-30,420100.0
2004-08-31,411700.0
2004-07-31,405200.0
2004-06-30,400600.0
2004-05-31,395500.0
2004-04-30,389600.0
2004-03-31,385500.0
2004-02-29,382900.0
2004-01-31,379500.0
2003-12-31,375000.0
2003-11-30,372300.0
2003-10-31,371400.0
2003-09-30,370000.0
2003-08-31,368400.0
2003-07-31,366200.0
2003-06-30,364900.0
2003-05-31,365700.0
2003-04-30,366200.0
2003-03-31,364000.0
2003-02-28,361200.0
2003-01-31,359000.0
2002-12-31,357900.0
2002-11-30,356600.0
2002-10-31,355000.0
2002-09-30,354300.0
2002-08-31,355200.0
2002-07-31,355800.0
2002-06-30,357000.0
2002-05-31,359500.0
2002-04-30,361900.0
2002-03-31,362300.0
2002-02-28,361400.0
2002-01-31,361000.0
2001-12-31,361400.0
2001-11-30,360500.0
2001-10-31,357400.0
2001-09-30,354000.0
2001-08-31,351800.0
2001-07-31,348600.0
2001-06-30,344100.0
2001-05-31,338500.0
2001-04-30,333300.0
2001-03-31,331600.0
2001-02-28,332400.0
2001-01-31,332700.0
2000-12-31,333000.0
2000-11-30,334600.0
2000-10-31,336300.0
2000-09-30,336000.0
2000-08-31,333100.0
2000-07-31,330800.0
2000-06-30,329200.0
2000-05-31,326000.0
2000-04-30,322000.0
2000-03-31,320100.0
2000-02-29,319100.0
2000-01-31,318000.0
1999-12-31,315600.0
1999-11-30,312300.0
1999-10-31,308500.0
1999-09-30,305600.0
1999-08-31,303600.0
1999-07-31,301800.0
1999-06-30,300000.0
1999-05-31,299200.0
1999-04-30,299400.0
1999-03-31,298400.0
1999-02-28,296400.0
1999-01-31,294500.0
1998-12-31,293300.0
1998-11-30,292000.0
1998-10-31,290500.0
1998-09-30,288800.0
1998-08-31,287000.0
1998-07-31,285200.0
1998-06-30,283200.0
1998-05-31,282100.0
1998-04-30,281100.0
1998-03-31,280000.0
1998-02-28,278500.0
1998-01-31,276700.0
1997-12-31,275100.0
1997-11-30,274500.0
1997-10-31,273600.0
1997-09-30,271700.0
1997-08-31,269200.0
1997-07-31,266600.0
1997-06-30,264200.0
1997-05-31,262800.0
1997-04-30,260900.0
1997-03-31,257900.0
1997-02-28,254800.0
1997-01-31,252300.0
1996-12-31,249900.0
1996-11-30,248700.0
1996-10-31,248700.0
1996-09-30,249600.0
1996-08-31,250600.0
1996-07-31,250800.0
1996-06-30,250200.0
1996-05-31,250400.0
1996-04-30,252500.0
