Date,Value
2015-09-30,121000.0
2015-08-31,119600.0
2015-07-31,117600.0
2015-06-30,118400.0
2015-05-31,117900.0
2015-04-30,116100.0
2015-03-31,113700.0
2015-02-28,112700.0
2015-01-31,111900.0
2014-12-31,113400.0
2014-11-30,114800.0
2014-10-31,115200.0
2014-09-30,114900.0
2014-08-31,114300.0
2014-07-31,111800.0
2014-06-30,108100.0
2014-05-31,104000.0
2014-04-30,101100.0
2014-03-31,100500.0
2014-02-28,101600.0
2014-01-31,103100.0
2013-12-31,103600.0
2013-11-30,103300.0
2013-10-31,103200.0
2013-09-30,103400.0
2013-08-31,101900.0
2013-07-31,100400.0
2013-06-30,98600.0
2013-05-31,96900.0
2013-04-30,95200.0
2013-03-31,94200.0
2013-02-28,94400.0
2013-01-31,94400.0
2012-12-31,92400.0
2012-11-30,89800.0
2012-10-31,86700.0
2012-09-30,84100.0
2012-08-31,83100.0
2012-07-31,82100.0
2012-06-30,80300.0
2012-05-31,79600.0
2012-04-30,81400.0
2012-03-31,83300.0
2012-02-29,83000.0
2012-01-31,81600.0
2011-12-31,83600.0
2011-11-30,87800.0
2011-10-31,91500.0
2011-09-30,93700.0
2011-08-31,96200.0
2011-07-31,99500.0
2011-06-30,103200.0
2011-05-31,106800.0
2011-04-30,110200.0
2011-03-31,111600.0
2011-02-28,110500.0
2011-01-31,108700.0
2010-12-31,107400.0
2010-11-30,106800.0
2010-10-31,107400.0
2010-09-30,107600.0
2010-08-31,107800.0
2010-07-31,109000.0
2010-06-30,111500.0
2010-05-31,114200.0
2010-04-30,115500.0
2010-03-31,116700.0
2010-02-28,120100.0
2010-01-31,126100.0
2009-12-31,130500.0
2009-11-30,131600.0
2009-10-31,132000.0
2009-09-30,134800.0
2009-08-31,141100.0
2009-07-31,147500.0
2009-06-30,150600.0
2009-05-31,151400.0
2009-04-30,153000.0
2009-03-31,154700.0
2009-02-28,156400.0
2009-01-31,159000.0
2008-12-31,161300.0
2008-11-30,163000.0
2008-10-31,165100.0
2008-09-30,167000.0
2008-08-31,167500.0
2008-07-31,168400.0
2008-06-30,170300.0
2008-05-31,171200.0
2008-04-30,170700.0
2008-03-31,170800.0
2008-02-29,172000.0
2008-01-31,172800.0
2007-12-31,172700.0
2007-11-30,173300.0
2007-10-31,175000.0
2007-09-30,176900.0
2007-08-31,177900.0
2007-07-31,178700.0
2007-06-30,182100.0
2007-05-31,186800.0
2007-04-30,188300.0
2007-03-31,186700.0
2007-02-28,184700.0
2007-01-31,182400.0
2006-12-31,179700.0
2006-11-30,176300.0
2006-10-31,171000.0
2006-09-30,164900.0
2006-08-31,159300.0
2006-07-31,155500.0
2006-06-30,152700.0
2006-05-31,149600.0
2006-04-30,146600.0
2006-03-31,145000.0
2006-02-28,143500.0
2006-01-31,141500.0
2005-12-31,139900.0
2005-11-30,138300.0
2005-10-31,136900.0
2005-09-30,137000.0
2005-08-31,137100.0
2005-07-31,135900.0
2005-06-30,133300.0
2005-05-31,131300.0
2005-04-30,129600.0
2005-03-31,128400.0
2005-02-28,126900.0
2005-01-31,124700.0
2004-12-31,122000.0
2004-11-30,119600.0
2004-10-31,117000.0
2004-09-30,114300.0
2004-08-31,111700.0
2004-07-31,108200.0
2004-06-30,104300.0
2004-05-31,102000.0
2004-04-30,101600.0
2004-03-31,101400.0
2004-02-29,101700.0
2004-01-31,102700.0
2003-12-31,104500.0
2003-11-30,107000.0
2003-10-31,110800.0
2003-09-30,113300.0
2003-08-31,113100.0
2003-07-31,111900.0
2003-06-30,112200.0
2003-05-31,112500.0
2003-04-30,112200.0
2003-03-31,111800.0
2003-02-28,111900.0
2003-01-31,112100.0
2002-12-31,111900.0
2002-11-30,111500.0
2002-10-31,111100.0
2002-09-30,110600.0
2002-08-31,110400.0
2002-07-31,110800.0
2002-06-30,110700.0
2002-05-31,109900.0
2002-04-30,109800.0
2002-03-31,110300.0
2002-02-28,110300.0
2002-01-31,109900.0
2001-12-31,109800.0
2001-11-30,109900.0
2001-10-31,110200.0
2001-09-30,110200.0
2001-08-31,110400.0
2001-07-31,111300.0
2001-06-30,112300.0
2001-05-31,112100.0
2001-04-30,110300.0
2001-03-31,107900.0
2001-02-28,105800.0
2001-01-31,103800.0
2000-12-31,102200.0
2000-11-30,100700.0
2000-10-31,98900.0
2000-09-30,98000.0
2000-08-31,98100.0
2000-07-31,98300.0
2000-06-30,98200.0
2000-05-31,98600.0
2000-04-30,98300.0
2000-03-31,97500.0
2000-02-29,95900.0
2000-01-31,94700.0
1999-12-31,93800.0
1999-11-30,93600.0
1999-10-31,93500.0
1999-09-30,93200.0
1999-08-31,92900.0
1999-07-31,92900.0
1999-06-30,92800.0
1999-05-31,92500.0
1999-04-30,92300.0
1999-03-31,91700.0
1999-02-28,91000.0
1999-01-31,90700.0
1998-12-31,90200.0
1998-11-30,88800.0
1998-10-31,87500.0
1998-09-30,86300.0
1998-08-31,85100.0
1998-07-31,84400.0
1998-06-30,84100.0
1998-05-31,83700.0
1998-04-30,83600.0
1998-03-31,84500.0
1998-02-28,85700.0
1998-01-31,85900.0
1997-12-31,85000.0
1997-11-30,84000.0
1997-10-31,83200.0
1997-09-30,83200.0
1997-08-31,83500.0
1997-07-31,83300.0
1997-06-30,82000.0
1997-05-31,81400.0
1997-04-30,81400.0
1997-03-31,82000.0
1997-02-28,82400.0
1997-01-31,82000.0
1996-12-31,81800.0
1996-11-30,81900.0
1996-10-31,81500.0
1996-09-30,81000.0
1996-08-31,81300.0
1996-07-31,81700.0
1996-06-30,81900.0
1996-05-31,82300.0
1996-04-30,82600.0
