Date,Value
2015-09-30,1.03
2015-08-31,1.02
2015-07-31,1.01
2015-06-30,1.006
2015-05-31,1.008
2015-04-30,1.006
2015-03-31,0.996
2015-02-28,0.988
2015-01-31,0.982
2014-12-31,0.982
2014-11-30,0.976
2014-10-31,0.968
2014-09-30,0.962
2014-08-31,0.952
2014-07-31,0.942
2014-06-30,0.93
2014-05-31,0.934
2014-04-30,0.936
2014-03-31,0.942
2014-02-28,0.938
2014-01-31,0.94
2013-12-31,0.946
2013-11-30,0.948
2013-10-31,0.938
2013-09-30,0.932
2013-08-31,0.924
2013-07-31,0.916
2013-06-30,0.91
2013-05-31,0.912
2013-04-30,0.918
2013-03-31,0.922
2013-02-28,0.918
2013-01-31,0.91
2012-12-31,0.91
2012-11-30,0.906
2012-10-31,0.896
2012-09-30,0.892
2012-08-31,0.892
2012-07-31,0.892
2012-06-30,0.892
2012-05-31,0.872
2012-04-30,0.856
2012-03-31,0.844
2012-02-29,0.844
2012-01-31,0.836
2011-12-31,0.83
2011-11-30,0.836
2011-10-31,0.84
2011-09-30,0.848
2011-08-31,0.86
2011-07-31,0.868
2011-06-30,0.878
2011-05-31,0.884
2011-04-30,0.886
2011-03-31,0.884
2011-02-28,0.882
2011-01-31,0.882
2010-12-31,0.878
2010-11-30,0.872
