Date,Value
2015-09-30,1.492
2015-08-31,1.494
2015-07-31,1.476
2015-06-30,1.46
2015-05-31,1.454
2015-04-30,1.446
2015-03-31,1.442
2015-02-28,1.434
2015-01-31,1.424
2014-12-31,1.416
2014-11-30,1.412
2014-10-31,1.4
2014-09-30,1.388
2014-08-31,1.374
2014-07-31,1.36
2014-06-30,1.348
2014-05-31,1.334
2014-04-30,1.318
2014-03-31,1.308
2014-02-28,1.304
2014-01-31,1.296
2013-12-31,1.288
2013-11-30,1.27
2013-10-31,1.248
2013-09-30,1.234
2013-08-31,1.222
2013-07-31,1.222
2013-06-30,1.22
2013-05-31,1.218
2013-04-30,1.21
2013-03-31,1.204
2013-02-28,1.196
2013-01-31,1.192
2012-12-31,1.188
2012-11-30,1.184
2012-10-31,1.178
2012-09-30,1.182
2012-08-31,1.178
2012-07-31,1.168
2012-06-30,1.156
2012-05-31,1.146
2012-04-30,1.142
2012-03-31,1.138
2012-02-29,1.142
2012-01-31,1.136
2011-12-31,1.13
2011-11-30,1.122
2011-10-31,1.122
2011-09-30,1.118
2011-08-31,1.118
2011-07-31,1.116
2011-06-30,1.114
2011-05-31,1.114
2011-04-30,1.116
2011-03-31,1.112
2011-02-28,1.094
2011-01-31,1.08
2010-12-31,1.072
2010-11-30,1.074
