Date,Value
2015-09-30,117700.0
2015-08-31,117400.0
2015-07-31,114900.0
2015-06-30,113700.0
2015-05-31,109400.0
2015-04-30,106500.0
2015-03-31,104900.0
2015-02-28,103200.0
2015-01-31,100500.0
2014-12-31,99600.0
2014-11-30,99600.0
2014-10-31,98200.0
2014-09-30,94000.0
2014-08-31,90900.0
2014-07-31,90200.0
2014-06-30,90000.0
2014-05-31,91200.0
2014-04-30,92600.0
2014-03-31,91900.0
2014-02-28,90600.0
2014-01-31,89800.0
2013-12-31,89100.0
2013-11-30,87000.0
2013-10-31,85100.0
2013-09-30,85000.0
2013-08-31,87300.0
2013-07-31,89700.0
2013-06-30,90000.0
2013-05-31,88400.0
2013-04-30,86900.0
2013-03-31,86500.0
2013-02-28,85800.0
2013-01-31,84900.0
2012-12-31,83600.0
2012-11-30,82500.0
2012-10-31,81400.0
2012-09-30,81600.0
2012-08-31,81900.0
2012-07-31,81800.0
2012-06-30,81900.0
2012-05-31,82800.0
2012-04-30,83100.0
2012-03-31,83600.0
2012-02-29,84400.0
2012-01-31,85500.0
2011-12-31,86900.0
2011-11-30,88200.0
2011-10-31,88700.0
2011-09-30,88900.0
2011-08-31,88800.0
2011-07-31,88400.0
2011-06-30,88300.0
2011-05-31,88500.0
2011-04-30,89000.0
2011-03-31,89400.0
2011-02-28,90000.0
2011-01-31,91000.0
2010-12-31,92400.0
2010-11-30,94300.0
2010-10-31,96500.0
2010-09-30,98200.0
2010-08-31,99800.0
2010-07-31,101700.0
2010-06-30,103100.0
2010-05-31,103500.0
2010-04-30,104200.0
2010-03-31,105900.0
2010-02-28,107900.0
2010-01-31,108800.0
2009-12-31,109000.0
2009-11-30,109800.0
2009-10-31,111900.0
2009-09-30,114000.0
2009-08-31,115200.0
2009-07-31,114900.0
2009-06-30,115200.0
2009-05-31,117000.0
2009-04-30,119500.0
2009-03-31,121400.0
2009-02-28,122800.0
2009-01-31,123900.0
2008-12-31,125700.0
2008-11-30,128000.0
2008-10-31,130300.0
2008-09-30,132000.0
2008-08-31,133600.0
2008-07-31,135300.0
2008-06-30,136600.0
2008-05-31,137700.0
2008-04-30,138700.0
2008-03-31,138800.0
2008-02-29,138700.0
2008-01-31,139600.0
2007-12-31,141000.0
2007-11-30,141600.0
2007-10-31,141700.0
2007-09-30,141600.0
2007-08-31,140900.0
2007-07-31,141000.0
2007-06-30,142500.0
2007-05-31,143900.0
2007-04-30,144200.0
2007-03-31,144200.0
2007-02-28,143900.0
2007-01-31,144000.0
2006-12-31,144200.0
2006-11-30,143800.0
2006-10-31,143300.0
2006-09-30,143400.0
2006-08-31,143500.0
2006-07-31,144000.0
2006-06-30,143900.0
2006-05-31,143500.0
2006-04-30,143600.0
2006-03-31,143800.0
2006-02-28,143400.0
2006-01-31,142300.0
2005-12-31,140600.0
2005-11-30,139100.0
2005-10-31,137900.0
2005-09-30,136000.0
2005-08-31,133600.0
2005-07-31,131200.0
2005-06-30,128700.0
2005-05-31,125700.0
2005-04-30,122700.0
2005-03-31,121100.0
2005-02-28,120700.0
2005-01-31,119900.0
2004-12-31,118400.0
2004-11-30,116800.0
2004-10-31,115500.0
2004-09-30,114700.0
2004-08-31,113900.0
2004-07-31,112900.0
2004-06-30,111900.0
2004-05-31,111500.0
2004-04-30,110900.0
2004-03-31,109200.0
2004-02-29,107200.0
2004-01-31,106000.0
2003-12-31,105800.0
2003-11-30,105800.0
2003-10-31,104900.0
2003-09-30,103700.0
2003-08-31,103400.0
2003-07-31,103200.0
2003-06-30,102500.0
2003-05-31,101600.0
2003-04-30,101100.0
2003-03-31,100200.0
2003-02-28,99000.0
2003-01-31,97700.0
2002-12-31,96400.0
2002-11-30,94900.0
2002-10-31,94600.0
2002-09-30,95200.0
2002-08-31,95100.0
2002-07-31,94600.0
2002-06-30,94100.0
2002-05-31,93600.0
2002-04-30,92800.0
2002-03-31,92800.0
2002-02-28,94100.0
2002-01-31,95700.0
2001-12-31,96700.0
2001-11-30,96700.0
2001-10-31,95700.0
2001-09-30,94600.0
2001-08-31,94400.0
2001-07-31,95000.0
2001-06-30,96000.0
2001-05-31,96500.0
2001-04-30,96700.0
2001-03-31,97400.0
2001-02-28,97200.0
2001-01-31,96100.0
2000-12-31,95300.0
2000-11-30,95600.0
2000-10-31,96200.0
2000-09-30,96300.0
2000-08-31,95700.0
2000-07-31,94800.0
2000-06-30,94400.0
2000-05-31,94100.0
2000-04-30,94000.0
2000-03-31,94100.0
2000-02-29,94700.0
2000-01-31,95500.0
1999-12-31,95600.0
1999-11-30,95400.0
1999-10-31,94900.0
1999-09-30,95000.0
1999-08-31,96000.0
1999-07-31,96200.0
1999-06-30,95700.0
1999-05-31,96300.0
1999-04-30,96600.0
1999-03-31,95800.0
1999-02-28,95200.0
1999-01-31,95700.0
1998-12-31,96500.0
1998-11-30,97100.0
1998-10-31,97100.0
1998-09-30,96500.0
1998-08-31,95500.0
1998-07-31,95200.0
1998-06-30,95000.0
1998-05-31,95100.0
1998-04-30,96000.0
1998-03-31,96700.0
1998-02-28,96500.0
1998-01-31,96100.0
1997-12-31,95800.0
1997-11-30,95600.0
1997-10-31,96100.0
1997-09-30,96700.0
1997-08-31,96600.0
1997-07-31,96600.0
1997-06-30,96700.0
1997-05-31,96100.0
1997-04-30,95000.0
1997-03-31,93400.0
1997-02-28,91500.0
1997-01-31,89500.0
1996-12-31,88200.0
1996-11-30,87700.0
1996-10-31,88100.0
1996-09-30,88300.0
1996-08-31,88300.0
1996-07-31,88400.0
1996-06-30,88200.0
1996-05-31,87400.0
1996-04-30,87200.0
