Date,Value
2015-06-30,2040.0
2015-05-31,1995.0
2015-04-30,1995.0
2015-03-31,1930.0
2015-02-28,1930.0
2015-01-31,1830.0
2014-12-31,1955.0
2014-11-30,2165.0
2014-10-31,2000.0
2014-09-30,1950.0
2014-06-30,2200.0
2014-05-31,2035.0
2014-04-30,1865.0
2014-03-31,1865.0
2014-01-31,1695.0
2013-12-31,1650.0
2013-11-30,1695.0
2013-08-31,1975.0
2013-07-31,2100.0
2013-06-30,1895.0
2013-01-31,1600.0
