Date,Value
2015-02-28,515000.0
2015-01-31,515000.0
2014-12-31,560000.0
2014-11-30,582800.0
2014-10-31,582800.0
2014-09-30,529000.0
2014-08-31,529000.0
2014-07-31,450000.0
2014-06-30,480000.0
2014-05-31,498000.0
2014-04-30,499500.0
2014-02-28,475000.0
2014-01-31,475000.0
2013-12-31,445000.0
2013-11-30,490000.0
2013-10-31,499000.0
2013-09-30,499000.0
2013-08-31,499000.0
2013-07-31,457500.0
2013-06-30,459950.0
2013-05-31,459990.0
2013-04-30,487000.0
2013-03-31,489950.0
2013-02-28,489950.0
2013-01-31,449000.0
2012-12-31,469000.0
2012-11-30,410000.0
2012-10-31,399950.0
2012-09-30,399950.0
2012-08-31,540000.0
2012-07-31,519000.0
2012-06-30,454000.0
2012-05-31,450000.0
2012-04-30,428850.0
2012-03-31,428850.0
2012-02-29,429500.0
2012-01-31,399950.0
2011-11-30,395000.0
2011-10-31,435000.0
2011-09-30,450000.0
2011-08-31,450000.0
2011-07-31,489950.0
2011-06-30,635000.0
2011-05-31,495000.0
2011-04-30,389000.0
2011-03-31,369000.0
2011-02-28,349950.0
2011-01-31,399000.0
2010-12-31,459000.0
2010-11-30,450000.0
2010-10-31,450000.0
2010-09-30,449000.0
2010-08-31,450000.0
2010-07-31,449950.0
2010-06-30,459000.0
2010-05-31,450000.0
2010-04-30,467000.0
2010-03-31,459000.0
2010-02-28,498650.0
2010-01-31,449000.0
2009-12-31,484000.0
2009-11-30,484000.0
2009-10-31,485000.0
2009-09-30,499980.0
2009-08-31,458000.0
2009-07-31,356400.0
2009-06-30,449950.0
2009-05-31,499980.0
2009-04-30,499980.0
2009-03-31,499980.0
2009-02-28,508000.0
2009-01-31,508000.0
2008-12-31,495000.0
2008-11-30,485000.0
2008-10-31,470000.0
