year,influence
2002,590.4245711702783
2010,466054.33987298876
2004,179571.14200528734
2013,1097416.077216677
2005,132766.92578665275
2001,23985.006425576044
2011,2920969.1953658173
2009,739125.0819902288
2014,1379879.9959035008
2015,1215150.6981097553
2007,871878.4434254257
2003,3619.7830923448787
2008,750015.5802754377
2012,708275.0777717731
2006,496599.51107083034
