year,influence
2002,591.9282624418897
2010,381705.0798855821
2004,146573.38277506945
2013,871943.7068767588
2005,108047.72887333082
2001,16391.155185264204
2011,2403096.9541230164
2009,632647.8139653053
2014,1126635.4044698551
2015,986814.1665979788
2007,699504.2272509066
2003,3088.450249898673
2008,567350.569791473
2012,595863.6052154617
2006,401926.53145088605
