year,influence
2002,839.3045265256121
2010,572978.5111442376
2004,191004.86701048366
2013,1382968.273664728
2005,146696.16999559014
2001,14985.699799141774
2011,3583419.356326584
2009,961855.2893218127
2014,1763748.899787086
2015,1446570.413198204
2007,988009.5825976734
2003,3558.5342497801344
2008,741928.6150381303
2012,755150.9966492587
2006,599708.898948427
