year,influence
2002,715.8486923946227
2010,920220.3710936157
2004,321547.41775158985
2013,1746909.2136475234
2005,277958.51450957876
2001,54626.85619685874
2011,4919236.333552669
2009,1338034.7151704622
2014,2302135.8213886432
2015,2059069.5359267541
2007,1574775.8726639254
2003,5001.114440923091
2008,1936335.8662085098
2012,1216263.3000528037
2006,1124053.5974141438
