year,influence
2002,415.1980793798343
2010,265642.6097851699
2004,83952.10991307798
2013,630510.2938018081
2005,74611.20175839575
2001,8751.221048514923
2011,1277026.3433050276
2009,346916.47770203
2014,583763.6198525552
2015,531861.7996636275
2007,388626.5553424453
2003,3709.196108196913
2008,353649.88447817985
2012,310371.88364157086
2006,238976.4800445756
