year,influence
2002,611.2214877614092
2010,419367.7992390324
2004,159593.6245173975
2013,966374.8606530275
2005,117982.75917896703
2001,18325.69551008253
2011,2686161.3921664217
2009,709514.02568758
2014,1271303.4137252802
2015,1110684.738492723
2007,776404.6390404188
2003,3187.904516038637
2008,625872.178466208
2012,673627.8838338864
2006,451323.4638265493
