year,influence
2002,628.6232791039864
2010,667767.1195443188
2004,240465.9154297335
2013,1459507.3994948738
2005,186326.3900102928
2001,40038.03048846388
2011,4101513.261923797
2009,1009054.9596714176
2014,1878305.1798601162
2015,1680698.5004355563
2007,1532069.545241834
2003,4026.656872122876
2008,1082921.2119142707
2012,954126.1637121032
2006,1003702.6639750503
