year,influence
2002,752.5788880539409
2010,407159.01737426576
2004,182733.40409911826
2013,936549.8626783008
2005,113937.25636446019
2001,13699.39867889604
2011,2760601.627532444
2009,757503.8884859197
2014,1222253.9824811695
2015,1049155.0746489489
2007,747935.324263414
2003,2895.3205974130533
2008,577998.729355329
2012,633317.7232868111
2006,437698.04245415126
