year,influence
2002,807.9574070490926
2010,214106.16475009918
2004,104851.21378280477
2013,458334.52500055515
2005,62105.034863169356
2001,6032.043761699383
2011,1319799.8453839193
2009,367804.1514814995
2014,546592.249459287
2015,486148.7818100074
2007,401416.26796761283
2003,1916.420122560538
2008,292800.67242610856
2012,328870.74444691726
2006,239844.8120210088
