year,influence
2002,1485.3893742009689
2010,351348.3293172399
2004,162852.52376860124
2013,762961.4978902012
2005,90616.19934012696
2001,7903.6877731627865
2011,2255122.556168554
2009,501387.53534877684
2014,888058.5904979884
2015,833002.944670592
2007,637353.3658058837
2003,2683.663224721428
2008,438817.9607137388
2012,483434.5539045019
2006,365631.34268215136
