hood,influence,lat,long
Mt. Baker,0.17696391675638196,47.583237,-122.292342
Whittier Heights,3.0836795248787725,47.683059,-122.369514
Lower Queen Anne,0.19596514765680423,47.62414,-122.35631
Haller Lake,0.9661547239893165,47.720027,-122.33389
Dunlap,0.044496704451537764,47.526109,-122.27208
Olympic Manor,0.2454545949356709,47.606209,-122.332071
Madrona,0.13643178500364966,47.613915,-122.288742
Little Saigon,0.2454545949356709,47.606209,-122.332071
Olympic Hills,0.3981956875069313,47.723973,-122.30501
South Delridge,0.05671301161621824,47.526912,-122.360682
Beacon Hill,0.1099616500409046,47.552585,-122.300937
Alki,0.08407427699534245,47.575463,-122.410658
North College Park,5.138909681250336,47.697236,-122.33761
Minor,0.18676541452372913,47.607515,-122.309073
Jackson Place ,0.24586874921255558,47.598803,-122.310284
Eastlake,0.25840914123890574,47.641765,-122.326487
Crown Hill,6.536187728390611,47.696062,-122.371798
Broadview,1.1288555386505588,47.720748,-122.367532
Laurelhurst,0.21541625072304296,47.660184,-122.281039
North Beach,1.7664854474958995,47.698279,-122.386521
Madison Park,0.14379836956803665,47.634609,-122.279645
Columbia City,0.10362093817682662,47.559866,-122.286499
Rainier View,0.03029553249268107,47.503821,-122.260378
Wallingford,0.5286074563703456,47.661258,-122.329891
Sunset Hill,0.6895761110865335,47.68143,-122.40075
Broadmoor,0.16384020888810796,47.6362,-122.289753
Portage Bay,0.2773870405845242,47.646928,-122.318802
West Woodland,0.8663613725420805,47.66703,-122.368131
Hawthorne Hills,0.24079904052842768,47.672292,-122.277413
South Lake Union,0.19839275516976787,47.62557,-122.334388
Admiral,0.11148926883867033,47.579265,-122.394485
Waterfront,0.2504541182166796,47.605452,-122.340148
Fairmount Park,0.09304938071490937,47.553543,-122.380356
Leschi,0.15611612191609975,47.600309,-122.292811
Riverview,0.09891870489331972,47.544587,-122.352364
Junction,0.10341384673081797,47.563178,-122.386696
Hillman City,0.0744578978297271,47.549469,-122.280412
Ballard,1.1172195885545104,47.679217,-122.386031
Downtown,0.2454545949356709,47.606209,-122.332071
Madison Valley,0.14567288157269093,47.622119,-122.292575
Meadowbrook,0.43474323739051346,47.706592,-122.294822
Cedar Park,0.33791874876569017,47.722128,-122.295926
Windermere,0.18779072732829447,47.670505,-122.265652
Pinehurst,0.8793194596402398,47.713634,-122.32041
Seward Park,0.06209571815868771,47.55026,-122.26485
Fremont,0.457037525286584,47.654177,-122.35
View Ridge,0.25047146461066366,47.684402,-122.273785
Northgate,1.208709921527541,47.70859,-122.323235
Roxhill,0.054177396052421556,47.52673,-122.369928
Highland Park,0.05615833077937704,47.524698,-122.346023
Greenwood,650.6860138458795,47.696873,-122.356176
Judkins Park,0.21405785786465792,47.593173,-122.300505
Maple Leaf,1.265689607971178,47.697595,-122.319047
Ravenna,0.44786051867106175,47.675861,-122.300939
Wedgwood,0.40073561120215045,47.690109,-122.290527
South Park,0.06640441068838092,47.531094,-122.325736
Denny - Blaine,0.13645104044407427,47.621475,-122.286481
Garfield,0.2290755297072846,47.633164,-122.348862
Blue Ridge,1.7664854474958995,47.698279,-122.386521
Industrial District,0.3769116529827142,47.563958,-122.334335
Cascade,0.19230677792299466,47.621969,-122.331715
Bryant,0.2887725633759459,47.670603,-122.28714
High Point,0.10018464974310573,47.550263,-122.369068
Montlake,0.21158627160792584,47.641676,-122.30501
Capitol Hill,0.18822334243165728,47.625305,-122.322183
Holly Park ,0.06327315335375489,47.538914,-122.286104
Lakewood,0.08399865130285303,47.563155,-122.271791
Genesee,0.09326568269400959,47.563306,-122.392791
Victory Heights,0.5652174761377617,47.711406,-122.30569
Gatewood,0.0651355188353981,47.539951,-122.384389
Seaview,0.0762109602546318,47.55229,-122.392991
Fauntleroy,0.0479848514867195,47.523969,-122.383002
Loyal Heights,1.3390811886351963,47.682246,-122.385132
Atlantic,0.25074125718459384,47.59719,-122.308864
North Delridge,0.16310626237371592,47.562347,-122.365478
Magnolia,0.20841396567588832,47.63963,-122.39966
Central,0.15305506095126442,47.608758,-122.296424
Georgetown,0.09727763018492816,47.543172,-122.322136
Westlake,0.2223929877729524,47.632197,-122.341627
South Beacon Hill,0.055603753130623795,47.531799,-122.28876
Rainier Beach,0.03446861836413481,47.512255,-122.263976
First Hill,0.2131309173817425,47.609369,-122.325036
Denny Triangle,0.20032336806692158,47.628132,-122.329114
Bitter Lake,0.8264288399625901,47.726327,-122.352019
International District,0.350344270555538,47.598712,-122.323976
Pioneer Square,0.3153336629341309,47.601518,-122.334297
Roosevelt,0.7485478352473504,47.678088,-122.315646
North Queen Anne,0.3085878447317746,47.644511,-122.365608
North Beacon Hill,0.4745518882922642,47.579421,-122.311323
Interbay,0.249829582995791,47.640673,-122.38211
Matthews Beach,0.2754298402396146,47.695897,-122.276218
Green Lake,1.5007140725100518,47.67666,-122.337595
West Queen Anne,0.21743867987121313,47.632407,-122.369207
Uptown,0.19596514765680423,47.62414,-122.35631
Phinney Ridge,1.7435943878663072,47.674783,-122.356601
Arbor Heights,0.03776204774839653,47.509502,-122.381167
Yesler Terrace ,0.2553178753104738,47.602803,-122.319687
Brighton,0.05412811962883832,47.536055,-122.275231
East Queen Anne,0.26317807912464863,47.638823,-122.348868
University District,0.42202562824377654,47.662777,-122.313877
Belltown,0.1973750162003856,47.614702,-122.344796
