hood,influence,lat,long
Mt. Baker,54.257195920154494,47.583237,-122.292342
Whittier Heights,64.61558444985408,47.683059,-122.369514
Lower Queen Anne,188.85049632752037,47.62414,-122.35631
Haller Lake,51.71115538632586,47.720027,-122.33389
Dunlap,11.106690476599947,47.526109,-122.27208
Olympic Manor,3471.7433617290517,47.606209,-122.332071
Madrona,78.63697298989315,47.613915,-122.288742
Little Saigon,3471.7433617290517,47.606209,-122.332071
Olympic Hills,23.193125545008243,47.723973,-122.30501
South Delridge,12.66587219144956,47.526912,-122.360682
Beacon Hill,24.57623085987761,47.552585,-122.300937
Alki,24.347124683293544,47.575463,-122.410658
North College Park,60.10346495046622,47.697236,-122.33761
Minor,230.82945289422207,47.607515,-122.309073
Jackson Place ,233.25082481625407,47.598803,-122.310284
Eastlake,148.6929288359073,47.641765,-122.326487
Crown Hill,45.724713376686736,47.696062,-122.371798
Broadview,37.22459776968324,47.720748,-122.367532
Laurelhurst,58.26570505277503,47.660184,-122.281039
North Beach,44.863058877434455,47.698279,-122.386521
Madison Park,52.50333380451538,47.634609,-122.279645
Columbia City,33.75007292408522,47.559866,-122.286499
Rainier View,7.189509653709443,47.503821,-122.260378
Wallingford,126.29027946334782,47.661258,-122.329891
Sunset Hill,738.3463010634864,47.68143,-122.40075
Broadmoor,69.02991959588971,47.6362,-122.289753
Portage Bay,221.81375792322706,47.646928,-122.318802
West Woodland,129.00959567327203,47.66703,-122.368131
Hawthorne Hills,51.873218928074245,47.672292,-122.277413
South Lake Union,216.09315844678937,47.62557,-122.334388
Admiral,35.16480148488704,47.579265,-122.394485
Waterfront,8776.65675597975,47.605452,-122.340148
Fairmount Park,26.18951681390128,47.553543,-122.380356
Leschi,105.41547358052836,47.600309,-122.292811
Riverview,20.4956948225067,47.544587,-122.352364
Junction,2222.5092152083353,47.563178,-122.386696
Hillman City,22.14864333164264,47.549469,-122.280412
Ballard,113.58511096750118,47.679217,-122.386031
Downtown,3471.7433617290517,47.606209,-122.332071
Madison Valley,81.4038618016638,47.622119,-122.292575
Meadowbrook,33.78318293375871,47.706592,-122.294822
Cedar Park,21.569033690975076,47.722128,-122.295926
Windermere,35.99901559673482,47.670505,-122.265652
Pinehurst,50.66804723983237,47.713634,-122.32041
Seward Park,15.82580044462117,47.55026,-122.26485
Fremont,106.85767805261256,47.654177,-122.35
View Ridge,39.89409689791995,47.684402,-122.273785
Northgate,185.59692257515243,47.70859,-122.323235
Roxhill,12.28300778719434,47.52673,-122.369928
Highland Park,12.389577944033903,47.524698,-122.346023
Greenwood,48.91704661270034,47.696873,-122.356176
Judkins Park,104.66229279942651,47.593173,-122.300505
Maple Leaf,71.7408300839394,47.697595,-122.319047
Ravenna,280.14758625921223,47.675861,-122.300939
Wedgwood,61.768254331577246,47.690109,-122.290527
South Park,14.670050989327502,47.531094,-122.325736
Denny - Blaine,67.28502726091253,47.621475,-122.286481
Garfield,128.14074531906365,47.633164,-122.348862
Blue Ridge,44.863058877434455,47.698279,-122.386521
Industrial District,43.45166190016965,47.563958,-122.334335
Cascade,293.97364511020044,47.621969,-122.331715
Bryant,78.31199850772518,47.670603,-122.28714
High Point,22.871949674125332,47.550263,-122.369068
Montlake,141.29303409452527,47.641676,-122.30501
Capitol Hill,181.5283564267611,47.625305,-122.322183
Holly Park ,14.922928128488604,47.538914,-122.286104
Lakewood,23.365382434104852,47.563155,-122.271791
Genesee,52.36333356940369,47.563306,-122.392791
Victory Heights,35.86133749237564,47.711406,-122.30569
Gatewood,15.623936656763286,47.539951,-122.384389
Seaview,22.102683984944143,47.55229,-122.392991
Fauntleroy,11.103516087076216,47.523969,-122.383002
Loyal Heights,95.05188736741141,47.682246,-122.385132
Atlantic,188.5983020659503,47.59719,-122.308864
North Delridge,34.24936088970779,47.562347,-122.365478
Magnolia,57.111795216151144,47.63963,-122.39966
Central,119.97568012850913,47.608758,-122.296424
Georgetown,23.082920284074223,47.543172,-122.322136
Westlake,141.6720308065304,47.632197,-122.341627
South Beacon Hill,12.904743648477162,47.531799,-122.28876
Rainier Beach,33.76902945455389,47.512255,-122.263976
First Hill,802.6964642815441,47.609369,-122.325036
Denny Triangle,169.54125413254198,47.628132,-122.329114
Bitter Lake,80.87178717106886,47.726327,-122.352019
International District,427.3495934148606,47.598712,-122.323976
Pioneer Square,1499.3786224480173,47.601518,-122.334297
Roosevelt,3789.4856491193887,47.678088,-122.315646
North Queen Anne,144.7532929675413,47.644511,-122.365608
North Beacon Hill,72.73512650195184,47.579421,-122.311323
Interbay,151.02492502392369,47.640673,-122.38211
Matthews Beach,32.397402818844135,47.695897,-122.276218
Green Lake,99.50029864326754,47.67666,-122.337595
West Queen Anne,98.23064696498662,47.632407,-122.369207
Uptown,188.85049632752037,47.62414,-122.35631
Phinney Ridge,72.43414653255266,47.674783,-122.356601
Arbor Heights,8.751947521039856,47.509502,-122.381167
Yesler Terrace ,432.96527252324415,47.602803,-122.319687
Brighton,12.964687695594215,47.536055,-122.275231
East Queen Anne,116.2179783821183,47.638823,-122.348868
University District,156.15763401234943,47.662777,-122.313877
Belltown,825.4578946546028,47.614702,-122.344796
