hood,influence,lat,long
Mt. Baker,283.2113426666922,47.583237,-122.292342
Whittier Heights,200.7466282423923,47.683059,-122.369514
Lower Queen Anne,2652.8278297984652,47.62414,-122.35631
Haller Lake,225.62032792640062,47.720027,-122.33389
Dunlap,113.81142011732078,47.526109,-122.27208
Olympic Manor,13880.611457042709,47.606209,-122.332071
Madrona,568.4109000439321,47.613915,-122.288742
Little Saigon,13880.611457042709,47.606209,-122.332071
Olympic Hills,131.6042808487901,47.723973,-122.30501
South Delridge,87.4030588591925,47.526912,-122.360682
Beacon Hill,139.80362782349977,47.552585,-122.300937
Alki,150.22330577697983,47.575463,-122.410658
North College Park,436.38612252070936,47.697236,-122.33761
Minor,10865.99141144934,47.607515,-122.309073
Jackson Place ,10011.395310456814,47.598803,-122.310284
Eastlake,685.0015986469075,47.641765,-122.326487
Crown Hill,154.32811255206752,47.696062,-122.371798
Broadview,93.53652343778205,47.720748,-122.367532
Laurelhurst,251.5601562684732,47.660184,-122.281039
North Beach,111.16618203262321,47.698279,-122.386521
Madison Park,250.63431389166033,47.634609,-122.279645
Columbia City,155.0989641818997,47.559866,-122.286499
Rainier View,34.47806038234676,47.503821,-122.260378
Wallingford,589.8038688754281,47.661258,-122.329891
Sunset Hill,134.61255442280515,47.68143,-122.40075
Broadmoor,332.06847331004946,47.6362,-122.289753
Portage Bay,515.7101633491716,47.646928,-122.318802
West Woodland,536.0713153793658,47.66703,-122.368131
Hawthorne Hills,177.94352569743594,47.672292,-122.277413
South Lake Union,9654.79526596025,47.62557,-122.334388
Admiral,230.1187960802228,47.579265,-122.394485
Waterfront,6397.783409071047,47.605452,-122.340148
Fairmount Park,306.5791563934767,47.553543,-122.380356
Leschi,465.3113304048204,47.600309,-122.292811
Riverview,125.80152270970503,47.544587,-122.352364
Junction,5291.487899707768,47.563178,-122.386696
Hillman City,119.1357841778156,47.549469,-122.280412
Ballard,196.61233757005712,47.679217,-122.386031
Downtown,13880.611457042709,47.606209,-122.332071
Madison Valley,463.94359215493387,47.622119,-122.292575
Meadowbrook,159.51196232742936,47.706592,-122.294822
Cedar Park,309.2036773620595,47.722128,-122.295926
Windermere,134.3036750864573,47.670505,-122.265652
Pinehurst,425.15656487743166,47.713634,-122.32041
Seward Park,82.36099186106763,47.55026,-122.26485
Fremont,820.2564343792851,47.654177,-122.35
View Ridge,137.03491465798666,47.684402,-122.273785
Northgate,16123.868608914536,47.70859,-122.323235
Roxhill,86.04522949093337,47.52673,-122.369928
Highland Park,76.07122298642153,47.524698,-122.346023
Greenwood,193.04285195799574,47.696873,-122.356176
Judkins Park,539.1941173163113,47.593173,-122.300505
Maple Leaf,720.929495992858,47.697595,-122.319047
Ravenna,365.0186630000897,47.675861,-122.300939
Wedgwood,161.81966528378473,47.690109,-122.290527
South Park,113.62709145687408,47.531094,-122.325736
Denny - Blaine,372.55903964841673,47.621475,-122.286481
Garfield,1137.7536269217132,47.633164,-122.348862
Blue Ridge,111.16618203262321,47.698279,-122.386521
Industrial District,305.10683305032575,47.563958,-122.334335
Cascade,5747.682480776382,47.621969,-122.331715
Bryant,288.2730732204081,47.670603,-122.28714
High Point,169.81999096309534,47.550263,-122.369068
Montlake,412.8323927055921,47.641676,-122.30501
Capitol Hill,3372.9761624495754,47.625305,-122.322183
Holly Park ,110.08424760586023,47.538914,-122.286104
Lakewood,112.76557505431094,47.563155,-122.271791
Genesee,534.0937027968065,47.563306,-122.392791
Victory Heights,219.1454920829444,47.711406,-122.30569
Gatewood,120.17160668922071,47.539951,-122.384389
Seaview,215.6845245404923,47.55229,-122.392991
Fauntleroy,65.18844095481948,47.523969,-122.383002
Loyal Heights,182.0245853007716,47.682246,-122.385132
Atlantic,1934.8992436307626,47.59719,-122.308864
North Delridge,244.7347084385362,47.562347,-122.365478
Magnolia,1031.997017306628,47.63963,-122.39966
Central,640.9748922855888,47.608758,-122.296424
Georgetown,192.38897068418476,47.543172,-122.322136
Westlake,2248.5135167332533,47.632197,-122.341627
South Beacon Hill,74.59729604078859,47.531799,-122.28876
Rainier Beach,45.59513414653014,47.512255,-122.263976
First Hill,6102.887321779994,47.609369,-122.325036
Denny Triangle,18497.64379183839,47.628132,-122.329114
Bitter Lake,187.0735605310915,47.726327,-122.352019
International District,3129.9806114324197,47.598712,-122.323976
Pioneer Square,8806.185555784523,47.601518,-122.334297
Roosevelt,446.50049528263577,47.678088,-122.315646
North Queen Anne,495.1559553440811,47.644511,-122.365608
North Beacon Hill,590.7780269124535,47.579421,-122.311323
Interbay,452.42940819880926,47.640673,-122.38211
Matthews Beach,110.87555228703549,47.695897,-122.276218
Green Lake,319.03507125280436,47.67666,-122.337595
West Queen Anne,946.1854309087004,47.632407,-122.369207
Uptown,2652.8278297984652,47.62414,-122.35631
Phinney Ridge,260.87055437167595,47.674783,-122.356601
Arbor Heights,45.87966872525118,47.509502,-122.381167
Yesler Terrace ,2591.603558779863,47.602803,-122.319687
Brighton,82.40292415846972,47.536055,-122.275231
East Queen Anne,773.2890909958414,47.638823,-122.348868
University District,2577.976519265896,47.662777,-122.313877
Belltown,9039.281394227313,47.614702,-122.344796
