hood,influence,lat,long
Mt. Baker,347.6404470233461,47.583237,-122.292342
Whittier Heights,129.57601479775647,47.683059,-122.369514
Lower Queen Anne,2438.294714218903,47.62414,-122.35631
Haller Lake,112.45563687004692,47.720027,-122.33389
Dunlap,100.12795198087152,47.526109,-122.27208
Olympic Manor,18761.999316463298,47.606209,-122.332071
Madrona,363.92737154357445,47.613915,-122.288742
Little Saigon,18761.999316463298,47.606209,-122.332071
Olympic Hills,62.206663262462385,47.723973,-122.30501
South Delridge,149.69555582799129,47.526912,-122.360682
Beacon Hill,142.2556308513835,47.552585,-122.300937
Alki,132.50717621870055,47.575463,-122.410658
North College Park,145.9724799612965,47.697236,-122.33761
Minor,1909.4176202901224,47.607515,-122.309073
Jackson Place ,10125.608370093087,47.598803,-122.310284
Eastlake,578.478829293234,47.641765,-122.326487
Crown Hill,273.0027134199208,47.696062,-122.371798
Broadview,54.74864523531664,47.720748,-122.367532
Laurelhurst,265.15375864098627,47.660184,-122.281039
North Beach,107.94822361952397,47.698279,-122.386521
Madison Park,194.99829369357911,47.634609,-122.279645
Columbia City,219.34663775928414,47.559866,-122.286499
Rainier View,37.23392151779822,47.503821,-122.260378
Wallingford,5628.859270954524,47.661258,-122.329891
Sunset Hill,94.97167149280858,47.68143,-122.40075
Broadmoor,245.2727914674117,47.6362,-122.289753
Portage Bay,438.3737875543564,47.646928,-122.318802
West Woodland,261.3375143849726,47.66703,-122.368131
Hawthorne Hills,122.62791119709631,47.672292,-122.277413
South Lake Union,2779.2725142850995,47.62557,-122.334388
Admiral,171.22528150663342,47.579265,-122.394485
Waterfront,3761.8821951089835,47.605452,-122.340148
Fairmount Park,290.26571544831785,47.553543,-122.380356
Leschi,509.52109195150587,47.600309,-122.292811
Riverview,139.04732258383945,47.544587,-122.352364
Junction,1941.0058691148306,47.563178,-122.386696
Hillman City,122.53572838048942,47.549469,-122.280412
Ballard,139.51901737075835,47.679217,-122.386031
Downtown,18761.999316463298,47.606209,-122.332071
Madison Valley,372.78589614460014,47.622119,-122.292575
Meadowbrook,3068.2371223515042,47.706592,-122.294822
Cedar Park,87.08779045497539,47.722128,-122.295926
Windermere,93.43210138103443,47.670505,-122.265652
Pinehurst,188.9917147612204,47.713634,-122.32041
Seward Park,86.8203530488105,47.55026,-122.26485
Fremont,407.71131600017,47.654177,-122.35
View Ridge,86.77557772972561,47.684402,-122.273785
Northgate,2041.2408538305892,47.70859,-122.323235
Roxhill,360.6572689344288,47.52673,-122.369928
Highland Park,4045.548963696751,47.524698,-122.346023
Greenwood,124.76346879683608,47.696873,-122.356176
Judkins Park,854.2119340761293,47.593173,-122.300505
Maple Leaf,126.5521749514521,47.697595,-122.319047
Ravenna,185.26933483425913,47.675861,-122.300939
Wedgwood,449.9625484441501,47.690109,-122.290527
South Park,143.45588130156457,47.531094,-122.325736
Denny - Blaine,293.22780937566176,47.621475,-122.286481
Garfield,854.5913150897617,47.633164,-122.348862
Blue Ridge,107.94822361952397,47.698279,-122.386521
Industrial District,384.2567229205059,47.563958,-122.334335
Cascade,3067.028432742095,47.621969,-122.331715
Bryant,162.1930374074882,47.670603,-122.28714
High Point,177.09142527555966,47.550263,-122.369068
Montlake,319.93554311618726,47.641676,-122.30501
Capitol Hill,1204.1630873033657,47.625305,-122.322183
Holly Park ,767.8846301292946,47.538914,-122.286104
Lakewood,117.87693474766543,47.563155,-122.271791
Genesee,350.15813592580895,47.563306,-122.392791
Victory Heights,130.63069575116336,47.711406,-122.30569
Gatewood,121.74563176866164,47.539951,-122.384389
Seaview,185.86276706177418,47.55229,-122.392991
Fauntleroy,79.82919765660245,47.523969,-122.383002
Loyal Heights,118.63296131958309,47.682246,-122.385132
Atlantic,4522.357301157688,47.59719,-122.308864
North Delridge,272.5955737143405,47.562347,-122.365478
Magnolia,1625.586578008624,47.63963,-122.39966
Central,575.2745771848358,47.608758,-122.296424
Georgetown,162.00992336303767,47.543172,-122.322136
Westlake,1601.4585011336771,47.632197,-122.341627
South Beacon Hill,223.49905330179334,47.531799,-122.28876
Rainier Beach,57.93426945508242,47.512255,-122.263976
First Hill,4083.862166082084,47.609369,-122.325036
Denny Triangle,1759.2551512403559,47.628132,-122.329114
Bitter Lake,97.54972170025022,47.726327,-122.352019
International District,52988.98146715418,47.598712,-122.323976
Pioneer Square,8028.846772083966,47.601518,-122.334297
Roosevelt,377.58345350196,47.678088,-122.315646
North Queen Anne,376.10266447851643,47.644511,-122.365608
North Beacon Hill,542.0346853776317,47.579421,-122.311323
Interbay,448.39464329481723,47.640673,-122.38211
Matthews Beach,75.78393245702887,47.695897,-122.276218
Green Lake,290.5530192153477,47.67666,-122.337595
West Queen Anne,925.489983511729,47.632407,-122.369207
Uptown,2438.294714218903,47.62414,-122.35631
Phinney Ridge,188.42732105604637,47.674783,-122.356601
Arbor Heights,53.29712895317091,47.509502,-122.381167
Yesler Terrace ,2412.4777461191784,47.602803,-122.319687
Brighton,181.9298613116448,47.536055,-122.275231
East Queen Anne,570.798516679934,47.638823,-122.348868
University District,2048.847548743498,47.662777,-122.313877
Belltown,6341.024572493024,47.614702,-122.344796
