hood,influence,lat,long
Mt. Baker,0.0073024391860845835,47.583237,-122.292342
Whittier Heights,0.014105411557814293,47.683059,-122.369514
Lower Queen Anne,0.033466503983759194,47.62414,-122.35631
Haller Lake,0.005902316028239254,47.720027,-122.33389
Dunlap,0.0020647301421915024,47.526109,-122.27208
Olympic Manor,0.019762321095446563,47.606209,-122.332071
Madrona,0.020078795184229472,47.613915,-122.288742
Little Saigon,0.019762321095446563,47.606209,-122.332071
Olympic Hills,0.00522122273246847,47.723973,-122.30501
South Delridge,0.0021760822807596393,47.526912,-122.360682
Beacon Hill,0.0035856535775396305,47.552585,-122.300937
Alki,0.0038352932921669907,47.575463,-122.410658
North College Park,0.012073173284969771,47.697236,-122.33761
Minor,0.020164277126677115,47.607515,-122.309073
Jackson Place ,0.013823351027569371,47.598803,-122.310284
Eastlake,1.378059570818037,47.641765,-122.326487
Crown Hill,0.009203250881816482,47.696062,-122.371798
Broadview,0.0050514635661087805,47.720748,-122.367532
Laurelhurst,0.03146933717377436,47.660184,-122.281039
North Beach,0.0072244885377314915,47.698279,-122.386521
Madison Park,0.03149042569294028,47.634609,-122.279645
Columbia City,0.003990275360402417,47.559866,-122.286499
Rainier View,0.00146134594476838,47.503821,-122.260378
Wallingford,0.13483992222334013,47.661258,-122.329891
Sunset Hill,0.008273224460389361,47.68143,-122.40075
Broadmoor,0.05114677182682709,47.6362,-122.289753
Portage Bay,2.612693077590408,47.646928,-122.318802
West Woodland,0.02458516486294866,47.66703,-122.368131
Hawthorne Hills,0.019514004478353872,47.672292,-122.277413
South Lake Union,0.06751945048476915,47.62557,-122.334388
Admiral,0.0047893352873385414,47.579265,-122.394485
Waterfront,0.018097826020945586,47.605452,-122.340148
Fairmount Park,0.0032189268067181445,47.553543,-122.380356
Leschi,0.012661737724124317,47.600309,-122.292811
Riverview,0.003020039320768771,47.544587,-122.352364
Junction,0.0037189604553990612,47.563178,-122.386696
Hillman City,0.0031601978942062264,47.549469,-122.280412
Ballard,0.011421438283393594,47.679217,-122.386031
Downtown,0.019762321095446563,47.606209,-122.332071
Madison Valley,0.0313704748364928,47.622119,-122.292575
Meadowbrook,0.008047615492167091,47.706592,-122.294822
Cedar Park,0.0052981321365193285,47.722128,-122.295926
Windermere,0.015206795421477296,47.670505,-122.265652
Pinehurst,0.0071257668030820795,47.713634,-122.32041
Seward Park,0.002992525783902372,47.55026,-122.26485
Fremont,0.08736628351126156,47.654177,-122.35
View Ridge,0.012476471772575189,47.684402,-122.273785
Northgate,0.008336338255414672,47.70859,-122.323235
Roxhill,0.0021202525411942504,47.52673,-122.369928
Highland Park,0.002155599226526203,47.524698,-122.346023
Greenwood,0.010679777694739006,47.696873,-122.356176
Judkins Park,0.01053233477084137,47.593173,-122.300505
Maple Leaf,0.012242997050550718,47.697595,-122.319047
Ravenna,0.02903873721722658,47.675861,-122.300939
Wedgwood,0.013335920061613665,47.690109,-122.290527
South Park,0.002437364117730488,47.531094,-122.325736
Denny - Blaine,0.02581326001437875,47.621475,-122.286481
Garfield,0.07119121557521953,47.633164,-122.348862
Blue Ridge,0.0072244885377314915,47.698279,-122.386521
Industrial District,0.004737530346888723,47.563958,-122.334335
Cascade,0.05224155717163594,47.621969,-122.331715
Bryant,0.026842890911061908,47.670603,-122.28714
High Point,0.003187808430971287,47.550263,-122.369068
Montlake,0.17581120587143118,47.641676,-122.30501
Capitol Hill,0.07318721332773516,47.625305,-122.322183
Holly Park ,0.002655644887304199,47.538914,-122.286104
Lakewood,0.003970067978233625,47.563155,-122.271791
Genesee,0.0035777316965145186,47.563306,-122.392791
Victory Heights,0.007368833401134463,47.711406,-122.30569
Gatewood,0.0024940821213031866,47.539951,-122.384389
Seaview,0.0029396377577918633,47.55229,-122.392991
Fauntleroy,0.0019546459636122764,47.523969,-122.383002
Loyal Heights,0.010817135559947491,47.682246,-122.385132
Atlantic,0.01286492081268914,47.59719,-122.308864
North Delridge,0.004130723029491423,47.562347,-122.365478
Magnolia,0.012221480972905137,47.63963,-122.39966
Central,0.01845457000328039,47.608758,-122.296424
Georgetown,0.0030416434539211157,47.543172,-122.322136
Westlake,0.09492478150870286,47.632197,-122.341627
South Beacon Hill,0.002366134134011484,47.531799,-122.28876
Rainier Beach,0.0016502963318391496,47.512255,-122.263976
First Hill,0.02371501302330524,47.609369,-122.325036
Denny Triangle,0.0945686486966508,47.628132,-122.329114
Bitter Lake,0.00478410321548779,47.726327,-122.352019
International District,0.01428776081737367,47.598712,-122.323976
Pioneer Square,0.01575175627935316,47.601518,-122.334297
Roosevelt,0.03104947289357655,47.678088,-122.315646
North Queen Anne,0.04088677545967887,47.644511,-122.365608
North Beacon Hill,0.007118530601189514,47.579421,-122.311323
Interbay,0.02063760693960098,47.640673,-122.38211
Matthews Beach,0.009261907066162383,47.695897,-122.276218
Green Lake,0.032141075898337625,47.67666,-122.337595
West Queen Anne,0.02880294007642894,47.632407,-122.369207
Uptown,0.033466503983759194,47.62414,-122.35631
Phinney Ridge,0.02497396563072431,47.674783,-122.356601
Arbor Heights,0.0016013091347700753,47.509502,-122.381167
Yesler Terrace ,0.01702803433479915,47.602803,-122.319687
Brighton,0.0024448700748322992,47.536055,-122.275231
East Queen Anne,0.09573459759168038,47.638823,-122.348868
University District,0.10187226574188711,47.662777,-122.313877
Belltown,0.027055510519454123,47.614702,-122.344796
