hood,influence,largestInfluencer,largestInfluencerPercent
Fremont,0.013388885910266416,THREATS,100.0
Junction,0.0022805433365570694,THREATS,100.0
Central,0.013160236854008184,THREATS,100.0
Ravenna,0.051479661322519785,THREATS,100.0
Garfield,0.011209977637970745,THREATS,100.0
Seaview,0.0019046915030705024,THREATS,100.0
Green Lake,0.015693704819189733,THREATS,100.0
Minor,0.011259435869915702,THREATS,100.0
Roxhill,0.0015565036102668382,THREATS,100.00000000000001
Rainier View,0.0013784632626670556,THREATS,100.00000000000001
Denny - Blaine,0.025400474729339654,THREATS,100.0
Broadview,0.004137187055705424,THREATS,100.0
Pioneer Square,0.007158528321223258,THREATS,100.0
Beacon Hill,0.0029205056707021417,THREATS,99.99999999999999
Lower Queen Anne,0.00829276571939806,THREATS,100.0
High Point,0.0021351327565645594,THREATS,100.0
Industrial District,0.00321235994723446,THREATS,100.0
Blue Ridge,0.004516052694458129,THREATS,100.0
Maple Leaf,0.013056759559232684,THREATS,100.0
Greenwood,0.007260557488626498,THREATS,100.0
Broadmoor,0.06619894137847028,THREATS,100.0
View Ridge,0.04158541453736159,THREATS,100.0
East Queen Anne,0.012194947246185696,THREATS,100.0
Whittier Heights,0.0070763206536850545,THREATS,100.0
Riverview,0.0021393866283493496,THREATS,100.0
Denny Triangle,0.015874174100196283,THREATS,100.0
Wedgwood,0.02686076155426916,THREATS,100.0
Eastlake,0.024389635468541004,THREATS,100.0
North Delridge,0.002602088605280658,THREATS,100.0
Capitol Hill,0.01701293915145625,THREATS,100.0
Atlantic,0.008113116870729666,THREATS,100.0
South Park,0.0019225644031269406,THREATS,100.0
Matthews Beach,0.020945002602484424,THREATS,100.0
Mt. Baker,0.005895349481508406,THREATS,100.0
Magnolia,0.004554086302891925,THREATS,100.0
Sunset Hill,0.004285771241416905,THREATS,100.0
Montlake,0.05617208348636745,THREATS,100.0
Victory Heights,0.009589046095118446,THREATS,100.0
Phinney Ridge,0.01012165476755857,THREATS,100.0
Windermere,0.12791330748476645,THREATS,100.0
Haller Lake,0.005899515253202809,THREATS,100.0
Highland Park,0.0016541025239263402,THREATS,100.0
Admiral,0.0026430080780019275,THREATS,100.00000000000001
Little Saigon,0.008271901256108516,THREATS,100.0
Olympic Manor,0.008271901256108516,THREATS,100.0
South Beacon Hill,0.00206887176153748,THREATS,100.0
Fauntleroy,0.001425719028174934,THREATS,100.00000000000001
Westlake,0.013019961296661024,THREATS,100.0
Leschi,0.009861183827458831,THREATS,100.0
South Lake Union,0.013193229554197553,THREATS,100.00000000000001
Cedar Park,0.0072630273341746905,THREATS,100.0
Interbay,0.00615396544695554,THREATS,100.0
Madrona,0.01717647626426231,THREATS,100.0
Downtown,0.008271901256108516,THREATS,100.0
North Queen Anne,0.008743404398208096,THREATS,100.0
Portage Bay,0.036670170257099594,THREATS,100.0
Laurelhurst,1.631106147224597,THREATS,100.0
Dunlap,0.0018985925457694769,THREATS,100.0
Judkins Park,0.007573535256526473,THREATS,100.00000000000001
International District,0.007439494362371906,THREATS,100.0
Arbor Heights,0.0012178526158272284,THREATS,100.0
South Delridge,0.0016179218079420902,THREATS,100.0
Ballard,0.005491186804256266,THREATS,100.0
Pinehurst,0.007885898845896043,THREATS,100.0
Loyal Heights,0.005438172534177824,THREATS,100.0
Olympic Hills,0.006613504033229587,THREATS,100.0
Cascade,0.012672381929561435,THREATS,99.99999999999999
Wallingford,0.02516882291777502,THREATS,100.0
Uptown,0.00829276571939806,THREATS,100.0
Crown Hill,0.00575473220758689,THREATS,100.0
Yesler Terrace ,0.008702705401055727,THREATS,100.0
Waterfront,0.007318160408376738,THREATS,100.0
Alki,0.002202668437784573,THREATS,100.0
Hawthorne Hills,0.13136805023378129,THREATS,100.0
Lakewood,0.0036994175653196357,THREATS,100.0
Gatewood,0.0017171531806576,THREATS,100.0
Jackson Place ,0.008424090156053811,THREATS,100.0
Madison Valley,0.02493321070610404,THREATS,100.0
Hillman City,0.0028175290378889477,THREATS,100.0
Bryant,0.1338637047788075,THREATS,100.0
North Beach,0.004516052694458129,THREATS,100.0
Roosevelt,0.028501130287305203,THREATS,100.0
North College Park,0.00977247186197742,THREATS,100.0
Bitter Lake,0.004369389278275916,THREATS,100.0
Brighton,0.0022260751622509346,THREATS,100.0
West Queen Anne,0.007294394281357464,THREATS,100.0
Georgetown,0.002346378586381173,THREATS,100.0
Genesee,0.0021879828578779074,THREATS,100.0
Belltown,0.008434570605023473,THREATS,100.0
Holly Park ,0.002329622586827846,THREATS,100.0
Madison Park,0.06649281548231294,THREATS,100.0
Rainier Beach,0.0015468562981524267,THREATS,100.0
Fairmount Park,0.0020917030255858866,THREATS,100.0
Meadowbrook,0.01224821787060335,THREATS,100.0
West Woodland,0.008366835042639425,THREATS,100.0
Northgate,0.008822070868647718,THREATS,100.0
Seward Park,0.002843641404231131,THREATS,100.0
University District,0.04967226694438195,THREATS,100.00000000000001
First Hill,0.009882052736535458,THREATS,100.0
Columbia City,0.003442489916246398,THREATS,100.00000000000001
North Beacon Hill,0.00498597380427674,THREATS,100.0
