hood,influence,largestInfluencer,largestInfluencerPercent
Fremont,0.03893481534519631,PROPERTY DAMAGE,94.30074158962616
Junction,0.03957776319081052,OTHER PROPERTY,70.98131956693614
Central,0.2489698205862048,PROPERTY DAMAGE,98.28573951026073
Ravenna,0.021688219283566606,PROPERTY DAMAGE,93.18728109930926
Garfield,0.09196770012829138,PROPERTY DAMAGE,96.47182258630708
Seaview,0.0497153885817682,OTHER PROPERTY,82.46982840549833
Green Lake,0.02021082892874297,PROPERTY DAMAGE,92.26919742147093
Minor,0.3958015557271665,PROPERTY DAMAGE,98.78277214533881
Roxhill,0.41785866649448666,OTHER PROPERTY,98.46991763191735
Rainier View,0.010167246851723738,OTHER PROPERTY,56.98073561070297
Denny - Blaine,0.19117099471755788,PROPERTY DAMAGE,98.3549451892472
Broadview,0.0065690386865739775,PROPERTY DAMAGE,85.93062597839527
Pioneer Square,0.1288610187127652,PROPERTY DAMAGE,94.922353111005
Beacon Hill,0.029838440746797652,OTHER PROPERTY,53.02192970427343
Lower Queen Anne,0.08151064020023842,PROPERTY DAMAGE,95.15625921161445
High Point,0.1187253797506704,OTHER PROPERTY,91.26872133417116
Industrial District,0.04513979551312651,OTHER PROPERTY,56.901931560971875
Blue Ridge,0.008771151948103975,PROPERTY DAMAGE,86.52185502640066
Maple Leaf,0.011881687743378095,PROPERTY DAMAGE,90.16826971737599
Greenwood,0.010833774639883616,PROPERTY DAMAGE,88.79133848695689
Broadmoor,0.12486492032067359,PROPERTY DAMAGE,97.98668874100846
View Ridge,0.014482376520175338,PROPERTY DAMAGE,91.4848717620748
East Queen Anne,0.07394060253236524,PROPERTY DAMAGE,96.0681932200904
Whittier Heights,0.013464474201952917,PROPERTY DAMAGE,89.24317736245608
Riverview,0.2133699035132424,OTHER PROPERTY,95.22736570317623
Denny Triangle,0.3800449127048038,PROPERTY DAMAGE,99.0948490927957
Wedgwood,0.013725418714931579,PROPERTY DAMAGE,91.19658732986977
Eastlake,0.12085456942902768,PROPERTY DAMAGE,97.8141544359726
North Delridge,0.053402056299768484,OTHER PROPERTY,73.24578489088866
Capitol Hill,1.0878670006759779,PROPERTY DAMAGE,99.67344306931247
Atlantic,0.1281751227135555,PROPERTY DAMAGE,95.24445277017429
South Park,0.062073415958195405,OTHER PROPERTY,86.90616545760885
Matthews Beach,0.011183753799063952,PROPERTY DAMAGE,90.23986411799014
Mt. Baker,0.048430716455340764,PROPERTY DAMAGE,85.63936030295274
Magnolia,0.02008752342358998,PROPERTY DAMAGE,86.43689400741356
Sunset Hill,0.010422204987118147,PROPERTY DAMAGE,86.21343494544062
Montlake,0.12993079611981653,PROPERTY DAMAGE,98.10323943230465
Victory Heights,0.008688896843766827,PROPERTY DAMAGE,88.72124934725092
Phinney Ridge,0.018505280456467356,PROPERTY DAMAGE,91.22297260802773
Windermere,0.019324844617113753,PROPERTY DAMAGE,92.69601112512375
Haller Lake,0.007269095118801993,PROPERTY DAMAGE,87.31086335029389
Highland Park,0.17315217612509592,OTHER PROPERTY,96.0847448362051
Admiral,0.02666313889835832,PROPERTY DAMAGE,52.66203489700824
Little Saigon,0.1966065741014677,PROPERTY DAMAGE,97.09310168399645
Olympic Manor,0.1966065741014677,PROPERTY DAMAGE,97.09310168399645
South Beacon Hill,0.021310307598637383,OTHER PROPERTY,62.33026174133124
Fauntleroy,0.11369045286382574,OTHER PROPERTY,95.00207190212754
Westlake,0.1330090444339662,PROPERTY DAMAGE,97.54014063902439
Leschi,0.11485094982442588,PROPERTY DAMAGE,95.73487658064721
South Lake Union,0.29515531687542096,PROPERTY DAMAGE,98.7520414069959
Cedar Park,0.006975754717179272,PROPERTY DAMAGE,87.62562059149649
Interbay,0.028240081075775424,PROPERTY DAMAGE,90.15139922017181
Madrona,0.20312814560648104,PROPERTY DAMAGE,98.20335679968873
Downtown,0.1966065741014677,PROPERTY DAMAGE,97.09310168399645
North Queen Anne,0.038251858973076217,PROPERTY DAMAGE,93.11662829154052
Portage Bay,0.09001732165463602,PROPERTY DAMAGE,97.36955610497641
Laurelhurst,0.03239088969703006,PROPERTY DAMAGE,94.73371579627616
Dunlap,0.015415889912692552,OTHER PROPERTY,56.29924297394057
Judkins Park,0.08712553420033733,PROPERTY DAMAGE,92.92506100519535
International District,0.13668977976985042,PROPERTY DAMAGE,95.14864957064276
Arbor Heights,0.0473102320004842,OTHER PROPERTY,90.40958695396554
South Delridge,0.7011857258223331,OTHER PROPERTY,99.04411441876628
Ballard,0.012527418250787284,PROPERTY DAMAGE,87.9570299209874
Pinehurst,0.00833313392867708,PROPERTY DAMAGE,88.29108909373853
Loyal Heights,0.011916742982152524,PROPERTY DAMAGE,87.83420918211156
Olympic Hills,0.00681948851304011,PROPERTY DAMAGE,87.40676868031244
Cascade,0.4409311124869234,PROPERTY DAMAGE,99.10569787739577
Wallingford,0.03745363135751941,PROPERTY DAMAGE,94.83865565768949
Uptown,0.08151064020023842,PROPERTY DAMAGE,95.15625921161445
Crown Hill,0.010073903838819731,PROPERTY DAMAGE,87.83952869684128
Yesler Terrace ,0.21485236146688808,PROPERTY DAMAGE,97.30313232278957
Waterfront,0.12967229783055967,PROPERTY DAMAGE,95.34758638105994
Alki,0.021799754684373226,OTHER PROPERTY,52.40615311171811
Hawthorne Hills,0.020793878460299977,PROPERTY DAMAGE,93.06888809126033
Lakewood,0.02313720137360264,PROPERTY DAMAGE,69.32968616594665
Gatewood,0.12654840888776947,OTHER PROPERTY,94.09706124790887
Jackson Place ,0.14859579821130986,PROPERTY DAMAGE,96.00330651922206
Madison Valley,0.30920430186718484,PROPERTY DAMAGE,98.95368270771954
Hillman City,0.021709442347347757,PROPERTY DAMAGE,54.39292061628744
Bryant,0.023907993361955142,PROPERTY DAMAGE,93.64061935979426
North Beach,0.008771151948103975,PROPERTY DAMAGE,86.52185502640066
Roosevelt,0.020623521619376535,PROPERTY DAMAGE,92.8101647888845
North College Park,0.011589041267548967,PROPERTY DAMAGE,89.66540165159778
Bitter Lake,0.0062750003277871015,PROPERTY DAMAGE,86.12247286054283
Brighton,0.017835283086215795,OTHER PROPERTY,53.0123474156718
West Queen Anne,0.045220970036313306,PROPERTY DAMAGE,92.67679104926906
Georgetown,0.05101174899411037,OTHER PROPERTY,78.6000458000332
Genesee,0.03532736526617203,OTHER PROPERTY,69.67495602218447
Belltown,0.14515898119806322,PROPERTY DAMAGE,96.67049879561768
Holly Park ,0.02160902474026942,OTHER PROPERTY,56.731557466724055
Madison Park,0.0889514292820935,PROPERTY DAMAGE,97.25604341431496
Rainier Beach,0.011787237960533214,OTHER PROPERTY,56.89797943518933
Fairmount Park,0.06881262409736924,OTHER PROPERTY,85.35303930380746
Meadowbrook,0.009448309610359243,PROPERTY DAMAGE,89.2770002638175
West Woodland,0.02004293845169927,PROPERTY DAMAGE,90.93021562302611
Northgate,0.00923024295389723,PROPERTY DAMAGE,88.78927610772165
Seward Park,0.017967118460696565,PROPERTY DAMAGE,60.49359164626558
University District,0.037118315669636325,PROPERTY DAMAGE,95.0776768999039
First Hill,0.3893228487977836,PROPERTY DAMAGE,98.68970413903378
Columbia City,0.026266346478900506,PROPERTY DAMAGE,62.31615314314844
North Beacon Hill,0.04925011939772931,PROPERTY DAMAGE,79.79669369986388
