hood,influence,largestInfluencer,largestInfluencerPercent
Fremont,0.00677723179878987,FRAUD,100.0
Junction,0.001266967245173879,FRAUD,100.0
Central,0.0021383241897716,FRAUD,100.0
Ravenna,0.007884678371009438,FRAUD,100.0
Garfield,0.0039944422936318775,FRAUD,100.0
Seaview,0.001105870264092784,FRAUD,100.0
Green Lake,0.013121600676714326,FRAUD,100.0
Minor,0.00220324648093716,FRAUD,100.0
Roxhill,0.0008449793322397996,FRAUD,100.0
Rainier View,0.0006118496699360085,FRAUD,100.0
Denny - Blaine,0.0024741123090218104,FRAUD,100.0
Broadview,9.807149777626577,FRAUD,100.0
Pioneer Square,0.002146019961791746,FRAUD,100.0
Beacon Hill,0.0010512126134523845,FRAUD,100.0
Lower Queen Anne,0.003335956927081169,FRAUD,100.0
High Point,0.0010918739369082011,FRAUD,100.0
Industrial District,0.0012654767320647794,FRAUD,100.0
Blue Ridge,0.042283939325757934,FRAUD,99.99999999999999
Maple Leaf,0.019871155606824304,FRAUD,100.0
Greenwood,0.046362905336571204,FRAUD,99.99999999999999
Broadmoor,0.0032068957695700743,FRAUD,100.0
View Ridge,0.00607653411400851,FRAUD,99.99999999999999
East Queen Anne,0.004542960006825973,FRAUD,100.0
Whittier Heights,0.020858582461878085,FRAUD,100.0
Riverview,0.0010205160581592575,FRAUD,100.0
Denny Triangle,0.0034009364550572985,FRAUD,100.0
Wedgwood,0.00887354938754959,FRAUD,100.0
Eastlake,0.004480727710198691,FRAUD,100.0
North Delridge,0.0012631128620359084,FRAUD,100.0
Capitol Hill,0.00313807785630566,FRAUD,100.0
Atlantic,0.0018838127894036647,FRAUD,100.0
South Park,0.0008663588060553079,FRAUD,100.0
Matthews Beach,0.007384875901857741,FRAUD,100.0
Mt. Baker,0.0014807402878112338,FRAUD,100.0
Magnolia,0.004400988154842819,FRAUD,100.0
Sunset Hill,0.01461941085685979,FRAUD,100.0
Montlake,0.003935762155509699,FRAUD,100.0
Victory Heights,0.018106976835535946,FRAUD,100.0
Phinney Ridge,0.014010811412161208,FRAUD,100.0
Windermere,0.004440241286440729,FRAUD,100.0
Haller Lake,0.06701975364281464,FRAUD,100.0
Highland Park,0.0008238617925074004,FRAUD,100.00000000000001
Admiral,0.0015522056687491965,FRAUD,100.0
Little Saigon,0.0023058648040821437,FRAUD,100.0
Olympic Manor,0.0023058648040821437,FRAUD,100.0
South Beacon Hill,0.0008282881756160877,FRAUD,100.0
Fauntleroy,0.0008191330549081796,FRAUD,100.0
Westlake,0.003846270300036795,FRAUD,100.0
Leschi,0.0018639572093548664,FRAUD,100.0
South Lake Union,0.00328890464337873,FRAUD,100.0
Cedar Park,0.014409089665450271,FRAUD,100.0
Interbay,0.004765123142197992,FRAUD,100.0
Madrona,0.002231469518963211,FRAUD,100.0
Downtown,0.0023058648040821437,FRAUD,100.0
North Queen Anne,0.005334523380174853,FRAUD,100.00000000000001
Portage Bay,0.004815094432014035,FRAUD,100.0
Laurelhurst,0.00451373833058818,FRAUD,100.0
Dunlap,0.0007600996923660356,FRAUD,100.0
Judkins Park,0.001733430866492272,FRAUD,100.0
International District,0.002008177358844287,FRAUD,100.0
Arbor Heights,0.0007122913349418064,FRAUD,100.0
South Delridge,0.0008463570303091401,FRAUD,100.0
Ballard,0.015868784980588316,FRAUD,100.0
Pinehurst,0.03134017267217428,FRAUD,100.0
Loyal Heights,0.018270556253284546,FRAUD,100.0
Olympic Hills,0.018965178013939592,FRAUD,100.0
Cascade,0.003044113155683674,FRAUD,100.0
Wallingford,0.00745587812005268,FRAUD,100.0
Uptown,0.003335956927081169,FRAUD,100.0
Crown Hill,0.045807120833651356,FRAUD,100.0
Yesler Terrace ,0.0021161481839867655,FRAUD,100.0
Waterfront,0.0023133135942849173,FRAUD,100.0
Alki,0.0014393398011165726,FRAUD,100.0
Hawthorne Hills,0.005309467762641765,FRAUD,100.00000000000001
Lakewood,0.0010998692421021158,FRAUD,100.0
Gatewood,0.0009677436266757976,FRAUD,100.0
Jackson Place ,0.0019373394784434298,FRAUD,100.0
Madison Valley,0.0025836136018082324,FRAUD,100.0
Hillman City,0.0009728557945650105,FRAUD,100.0
Bryant,0.005856179245306359,FRAUD,100.0
North Beach,0.042283939325757934,FRAUD,99.99999999999999
Roosevelt,0.01034548496125972,FRAUD,99.99999999999999
North College Park,0.03213647493398073,FRAUD,100.0
Bitter Lake,0.2978539074189261,FRAUD,100.0
Brighton,0.0008405028268693654,FRAUD,100.0
West Queen Anne,0.0039941835452594445,FRAUD,100.0
Georgetown,0.000980185592482138,FRAUD,100.0
Genesee,0.0012625837442697564,FRAUD,100.0
Belltown,0.0027401539778900497,FRAUD,100.0
Holly Park ,0.0008842378632416877,FRAUD,100.00000000000001
Madison Park,0.0029110532353078763,FRAUD,99.99999999999999
Rainier Beach,0.0006613439429141082,FRAUD,100.0
Fairmount Park,0.00113130675508553,FRAUD,100.0
Meadowbrook,0.012606922731145113,FRAUD,100.00000000000001
West Woodland,0.010553281457695893,FRAUD,100.0
Northgate,0.0313433255186833,FRAUD,100.0
Seward Park,0.0009430340875004928,FRAUD,100.0
University District,0.006738424486299153,FRAUD,100.0
First Hill,0.002388081044010525,FRAUD,100.0
Columbia City,0.0011038540121657656,FRAUD,100.0
North Beacon Hill,0.0014831098548979003,FRAUD,99.99999999999999
