hood,influence,largestInfluencer,largestInfluencerPercent
Fremont,0.004959469628149034,FRAUD,100.0
Junction,0.010339693789008505,FRAUD,99.99999999999999
Central,0.019155781388353697,FRAUD,100.0
Ravenna,0.004192962100806427,FRAUD,100.0
Garfield,0.007055791085889758,FRAUD,100.0
Seaview,0.009447315604838157,FRAUD,100.0
Green Lake,0.003749520582099035,FRAUD,100.00000000000001
Minor,0.01790273856401063,FRAUD,100.0
Roxhill,0.012383023393179805,FRAUD,100.0
Rainier View,0.02588515589524439,FRAUD,100.0
Denny - Blaine,0.013599332582078755,FRAUD,100.0
Broadview,0.0020028875036018985,FRAUD,100.0
Pioneer Square,0.01548496460536732,FRAUD,100.0
Beacon Hill,0.15193042225694386,FRAUD,100.0
Lower Queen Anne,0.007731470261441897,FRAUD,100.0
High Point,0.01455324763144808,FRAUD,99.99999999999999
Industrial District,0.03276135363687344,FRAUD,100.0
Blue Ridge,0.0023850052457852064,FRAUD,100.0
Maple Leaf,0.002957153425627814,FRAUD,99.99999999999999
Greenwood,0.0027026924721427472,FRAUD,99.99999999999999
Broadmoor,0.009199347617688699,FRAUD,100.0
View Ridge,0.0037666582297334,FRAUD,100.0
East Queen Anne,0.006402690877035375,FRAUD,100.0
Whittier Heights,0.0030394709537457346,FRAUD,100.00000000000001
Riverview,0.020613195445399093,FRAUD,100.0
Denny Triangle,0.009036574161436437,FRAUD,100.0
Wedgwood,0.0034261122766561657,FRAUD,100.0
Eastlake,0.0069970461500872645,FRAUD,100.0
North Delridge,0.015408007455657503,FRAUD,100.0
Capitol Hill,0.010114671067598679,FRAUD,100.0
Atlantic,0.02493181762009298,FRAUD,100.0
South Park,0.034198114018106254,FRAUD,100.0
Matthews Beach,0.0031821836935281584,FRAUD,100.0
Mt. Baker,0.058171787879932504,FRAUD,100.0
Magnolia,0.00430120038301918,FRAUD,100.0
Sunset Hill,0.002681972591861914,FRAUD,100.0
Montlake,0.007753196139755726,FRAUD,100.0
Victory Heights,0.0025328629098142763,FRAUD,100.0
Phinney Ridge,0.0035703568182831533,FRAUD,100.00000000000001
Windermere,0.00471129220508344,FRAUD,100.0
Haller Lake,0.002185175412498153,FRAUD,100.0
Highland Park,0.01886907109640179,FRAUD,100.0
Admiral,0.008421451475482627,FRAUD,100.0
Little Saigon,0.014299357218844556,FRAUD,100.0
Olympic Manor,0.014299357218844556,FRAUD,100.0
South Beacon Hill,0.10457339842344168,FRAUD,100.0
Fauntleroy,0.009738201925244026,FRAUD,100.0
Westlake,0.0075905465781148426,FRAUD,100.0
Leschi,0.0265904831660388,FRAUD,100.0
South Lake Union,0.009141331578213112,FRAUD,100.0
Cedar Park,0.002248218042111003,FRAUD,100.0
Interbay,0.004864699720430053,FRAUD,100.0
Madrona,0.016935761905565165,FRAUD,100.0
Downtown,0.014299357218844556,FRAUD,100.0
North Queen Anne,0.005204485380753292,FRAUD,100.0
Portage Bay,0.006587989241336245,FRAUD,100.0
Laurelhurst,0.005644299026130483,FRAUD,100.0
Dunlap,0.08698287239651634,FRAUD,100.0
Judkins Park,0.032380294196752174,FRAUD,100.0
International District,0.019232913812001762,FRAUD,100.0
Arbor Heights,0.00860570952452256,FRAUD,100.0
South Delridge,0.014653570585640003,FRAUD,100.0
Ballard,0.0029520392240457256,FRAUD,100.0
Pinehurst,0.0024120378834143106,FRAUD,100.0
Loyal Heights,0.002863568383118586,FRAUD,100.0
Olympic Hills,0.0021819309003290443,FRAUD,100.0
Cascade,0.01008040941053896,FRAUD,99.99999999999999
Wallingford,0.0048824428844447924,FRAUD,100.0
Uptown,0.007731470261441897,FRAUD,100.0
Crown Hill,0.0025843311476305988,FRAUD,99.99999999999999
Yesler Terrace ,0.01822074610876459,FRAUD,100.0
Waterfront,0.013128005461857318,FRAUD,100.0
Alki,0.006848404845388728,FRAUD,100.0
Hawthorne Hills,0.004566911386656049,FRAUD,100.0
Lakewood,0.6678927291232195,FRAUD,100.0
Gatewood,0.01060407874741838,FRAUD,100.0
Jackson Place ,0.023192397862031672,FRAUD,100.0
Madison Valley,0.013065746042681146,FRAUD,100.0
Hillman City,1.0614176454810522,FRAUD,100.0
Bryant,0.004663601646031057,FRAUD,100.0
North Beach,0.0023850052457852064,FRAUD,100.0
Roosevelt,0.003924098178662155,FRAUD,100.0
North College Park,0.0028435909986806234,FRAUD,100.0
Bitter Lake,0.0019640233651426735,FRAUD,100.0
Brighton,0.20863151965160306,FRAUD,100.0
West Queen Anne,0.006052315096832863,FRAUD,100.0
Georgetown,0.048866947693560495,FRAUD,100.0
Genesee,0.009346256497396193,FRAUD,100.0
Belltown,0.010299039385858348,FRAUD,100.0
Holly Park ,0.20139516756364828,FRAUD,100.0
Madison Park,0.009743355527671804,FRAUD,100.0
Rainier Beach,0.03787739153467115,FRAUD,100.0
Fairmount Park,0.011744995907880838,FRAUD,100.0
Meadowbrook,0.002724105170430623,FRAUD,100.0
West Woodland,0.0037478238807867725,FRAUD,100.0
Northgate,0.0025508062132318173,FRAUD,100.0
Seward Park,2.748687444447553,FRAUD,100.0
University District,0.00504213694184905,FRAUD,100.0
First Hill,0.014390050191428305,FRAUD,100.0
Columbia City,0.40273821790561903,FRAUD,100.0
North Beacon Hill,0.04485834455537855,FRAUD,100.0
