hood,influence,largestInfluencer,largestInfluencerPercent
Fremont,0.14802583117076043,FRAUD,100.0
Junction,0.0063839735385637884,FRAUD,100.0
Central,0.010763456873815441,FRAUD,99.99999999999999
Ravenna,0.022962234391276523,FRAUD,100.0
Garfield,0.04951340703309076,FRAUD,100.0
Seaview,0.005171366477174602,FRAUD,99.99999999999999
Green Lake,0.07215855480626757,FRAUD,100.0
Minor,0.012233537229548497,FRAUD,100.0
Roxhill,0.0034454867703512097,FRAUD,100.0
Rainier View,0.0020341153557398807,FRAUD,100.0
Denny - Blaine,0.011649826912565827,FRAUD,99.99999999999999
Broadview,0.019578756298956182,FRAUD,100.0
Pioneer Square,0.013718838528011246,FRAUD,100.0
Beacon Hill,0.004309270727428225,FRAUD,100.0
Lower Queen Anne,0.03657056069403257,FRAUD,100.0
High Point,0.005018030904975557,FRAUD,100.0
Industrial District,0.005993842358249659,FRAUD,100.0
Blue Ridge,0.05244979440089743,FRAUD,100.00000000000001
Maple Leaf,0.02389054221329398,FRAUD,100.0
Greenwood,0.04932179218493095,FRAUD,100.00000000000001
Broadmoor,0.015183968246675839,FRAUD,100.0
View Ridge,0.01215761252137574,FRAUD,100.0
East Queen Anne,0.06513484401659031,FRAUD,100.0
Whittier Heights,0.15931355411497278,FRAUD,100.0
Riverview,0.004471213897351125,FRAUD,100.0
Denny Triangle,0.02774145276244197,FRAUD,100.0
Wedgwood,0.015624993957298251,FRAUD,100.0
Eastlake,0.0387929873850163,FRAUD,100.0
North Delridge,0.006261640097639219,FRAUD,100.0
Capitol Hill,0.022555765318313215,FRAUD,100.00000000000001
Atlantic,0.009850347638634165,FRAUD,100.0
South Park,0.003441344502830225,FRAUD,100.0
Matthews Beach,0.011344749723916657,FRAUD,99.99999999999999
Mt. Baker,0.006618771863015738,FRAUD,100.0
Magnolia,0.08113836820953223,FRAUD,100.0
Sunset Hill,0.11609873924280556,FRAUD,100.0
Montlake,0.022477855628806866,FRAUD,100.0
Victory Heights,0.013986177261600653,FRAUD,100.0
Phinney Ridge,0.1992987465722834,FRAUD,100.0
Windermere,0.01127937431721982,FRAUD,100.0
Haller Lake,0.01599785595270587,FRAUD,100.0
Highland Park,0.003273170983253749,FRAUD,100.00000000000001
Admiral,0.008921634338361156,FRAUD,100.0
Little Saigon,0.015241763409784954,FRAUD,100.0
Olympic Manor,0.015241763409784954,FRAUD,100.0
South Beacon Hill,0.0030835954278469594,FRAUD,100.0
Fauntleroy,0.0033132322653115507,FRAUD,100.00000000000001
Westlake,0.04096204807575386,FRAUD,100.0
Leschi,0.008883392239661374,FRAUD,100.0
South Lake Union,0.02811636456496147,FRAUD,100.0
Cedar Park,0.010040247586621722,FRAUD,100.0
Interbay,0.12032988959531524,FRAUD,100.0
Madrona,0.010668675768527838,FRAUD,100.0
Downtown,0.015241763409784954,FRAUD,100.0
North Queen Anne,0.14948497004204137,FRAUD,100.0
Portage Bay,0.034937976148212424,FRAUD,100.0
Laurelhurst,0.01523591423975814,FRAUD,100.0
Dunlap,0.002696896956248214,FRAUD,100.0
Judkins Park,0.008432457624170381,FRAUD,100.0
International District,0.01170473947976297,FRAUD,100.0
Arbor Heights,0.00272174323886977,FRAUD,100.0
South Delridge,0.003435593851890198,FRAUD,100.0
Ballard,0.2364902514379614,FRAUD,100.0
Pinehurst,0.016249348438020696,FRAUD,100.0
Loyal Heights,0.17463007093282157,FRAUD,100.00000000000001
Olympic Hills,0.010733710991751647,FRAUD,100.0
Cascade,0.023991521214238698,FRAUD,100.00000000000001
Wallingford,0.062166543447826336,FRAUD,100.0
Uptown,0.03657056069403257,FRAUD,100.0
Crown Hill,0.06075246930356062,FRAUD,100.0
Yesler Terrace ,0.012370171675275191,FRAUD,99.99999999999999
Waterfront,0.016063641731254363,FRAUD,100.0
Alki,0.007819316761240768,FRAUD,100.0
Hawthorne Hills,0.013969444076555926,FRAUD,100.0
Lakewood,0.004257835909050575,FRAUD,100.0
Gatewood,0.004221682224329032,FRAUD,100.0
Jackson Place ,0.01032132387729507,FRAUD,100.0
Madison Valley,0.01290854144065115,FRAUD,99.99999999999999
Hillman City,0.0037314052163724717,FRAUD,100.0
Bryant,0.01718959344717755,FRAUD,100.0
North Beach,0.05244979440089743,FRAUD,100.00000000000001
Roosevelt,0.033151120313598556,FRAUD,100.0
North College Park,0.03490058454155063,FRAUD,100.0
Bitter Lake,0.015317380695614165,FRAUD,100.0
Brighton,0.0030730080260051025,FRAUD,100.0
West Queen Anne,0.06408752269375922,FRAUD,100.0
Georgetown,0.00406409295336289,FRAUD,100.0
Genesee,0.006358102877656615,FRAUD,100.0
Belltown,0.022405027253545165,FRAUD,100.00000000000001
Holly Park ,0.0033395917129858546,FRAUD,100.00000000000001
Madison Park,0.012432878077138828,FRAUD,99.99999999999999
Rainier Beach,0.00224626433095142,FRAUD,100.0
Fairmount Park,0.005333828633860469,FRAUD,100.0
Meadowbrook,0.013064842090204283,FRAUD,100.0
West Woodland,1.2328822776283883,FRAUD,100.0
Northgate,0.01925440979601955,FRAUD,100.0
Seward Park,0.003470086156285448,FRAUD,100.0
University District,0.0350498659828126,FRAUD,100.0
First Hill,0.015384916950491864,FRAUD,100.0
Columbia City,0.0044464847827171364,FRAUD,100.0
North Beacon Hill,0.007112887378179019,FRAUD,100.0
