hood,influence,largestInfluencer,largestInfluencerPercent
Fremont,0.20040312842940594,FRAUD,77.87698329490122
Junction,0.04106481785036022,FRAUD,41.95208751237165
Central,0.21680665066627658,THREATS,40.728170756626575
Ravenna,0.2746513181987836,FRAUD,78.24864267976453
Garfield,1.553303702058086,FRAUD,92.77620125332834
Seaview,0.030931999112731083,FRAUD,40.86381862795151
Green Lake,0.11665051620825725,FRAUD,74.48839958791224
Minor,0.49480505094160193,THREATS,56.97168979732421
Roxhill,0.023918589631933315,FRAUD,34.87975414768492
Rainier View,0.02959797733180306,LOST PROPERTY,62.702000664780975
Denny - Blaine,0.1508031113026379,FRAUD,37.76439805837178
Broadview,0.023790775488820106,FRAUD,58.23083711854656
Pioneer Square,0.8690697394400618,THREATS,38.539890128640224
Beacon Hill,0.07990085659148234,LOST PROPERTY,57.285825415619556
Lower Queen Anne,0.44604279589128065,FRAUD,66.25397884555031
High Point,0.037067286863133875,FRAUD,37.73156183000226
Industrial District,0.06719363266254719,FRAUD,33.685573242257874
Blue Ridge,0.031478797391867604,FRAUD,60.816944669466025
Maple Leaf,0.06205253741829138,FRAUD,64.18124066926764
Greenwood,0.04479122077065125,FRAUD,63.74941988203205
Broadmoor,0.17336904068853826,FRAUD,44.6895974754484
View Ridge,0.10609556421037565,OTHER PROPERTY,46.760172867272814
East Queen Anne,2.2414774121262493,FRAUD,96.36080027325755
Whittier Heights,0.05360014848945874,FRAUD,65.39524655021908
Riverview,0.03771800518298368,FRAUD,33.96210164873628
Denny Triangle,0.5393257351883509,FRAUD,58.218693244858535
Wedgwood,0.08984268078746056,FRAUD,57.242525322773595
Eastlake,0.37048930776594435,FRAUD,76.44582671393307
North Delridge,0.050767754892628664,FRAUD,39.207317616738464
Capitol Hill,0.4854174399186378,FRAUD,43.890803139364635
Atlantic,0.27026612712488957,THREATS,47.00094717170165
South Park,0.037600285516255466,LOST PROPERTY,42.9182580766118
Matthews Beach,0.06362082600679564,FRAUD,49.05183106896478
Mt. Baker,0.10015245409457955,FRAUD,29.169102600004237
Magnolia,0.0718735951885723,FRAUD,61.95399168377092
Sunset Hill,0.03620836546962614,FRAUD,61.37015324931904
Montlake,0.22399984712123147,FRAUD,59.11480745619798
Victory Heights,0.039712255485713034,FRAUD,57.10627896632687
Phinney Ridge,0.08198620702389615,FRAUD,69.5939289090209
Windermere,0.30003746591448544,OTHER PROPERTY,78.3919398584543
Haller Lake,0.029012141064524287,FRAUD,58.07166802797467
Highland Park,0.027559478186097115,LOST PROPERTY,32.796737477927344
Admiral,0.05217298596865191,FRAUD,45.618840936141574
Little Saigon,2.244100603338335,THREATS,45.57707706817956
Olympic Manor,2.244100603338335,THREATS,45.57707706817956
South Beacon Hill,0.08557091173056236,LOST PROPERTY,76.8234886857991
Fauntleroy,0.020881298844770697,FRAUD,36.41798040683629
Westlake,1.6493960663201743,FRAUD,91.50208706640564
Leschi,0.15904346755683105,THREATS,37.614328942322565
South Lake Union,0.6881054221539831,FRAUD,56.113553423564674
Cedar Park,0.029298393100659247,FRAUD,53.78750240833996
Interbay,0.11781444942885168,FRAUD,67.6195511003566
Madrona,0.16172497801317504,FRAUD,33.74692855559019
Downtown,2.244100603338335,THREATS,45.57707706817956
North Queen Anne,0.20853609076662244,FRAUD,77.13944039031509
Portage Bay,0.27668758621044937,FRAUD,72.7519316531843
Laurelhurst,0.6443781447799706,OTHER PROPERTY,79.11551790126533
Dunlap,0.09440223325184052,LOST PROPERTY,82.50884250413878
Judkins Park,0.16235663891833219,THREATS,38.42615018701885
International District,0.5772384577747983,THREATS,52.984532280425654
Arbor Heights,0.017019050371825693,FRAUD,35.2357526437266
South Delridge,0.025636499097384743,FRAUD,33.38616616267584
Ballard,0.04620091060681321,FRAUD,63.60563992334145
Pinehurst,0.036076335628398945,FRAUD,58.59673905980473
Loyal Heights,0.04396042961025918,FRAUD,63.307636806275106
Olympic Hills,0.028037147471367763,FRAUD,54.80570586119227
Cascade,0.9008284773432914,FRAUD,42.34075226195692
Wallingford,0.2554740748313711,FRAUD,81.70196815069617
Uptown,0.44604279589128065,FRAUD,66.25397884555031
Crown Hill,0.03852956417205594,FRAUD,62.51602537259998
Yesler Terrace ,0.9587437766161847,THREATS,67.33139173782709
Waterfront,1.4484518152876729,FRAUD,43.73312788604172
Alki,0.0376032579833792,FRAUD,45.84659898660758
Hawthorne Hills,0.25265428605613577,OTHER PROPERTY,62.411962717434655
Lakewood,0.12833445095574092,LOST PROPERTY,72.86621369471767
Gatewood,0.02681253790242198,FRAUD,38.279767401427975
Jackson Place ,0.323315943290716,THREATS,50.13992345930329
Madison Valley,0.1789385731187607,FRAUD,37.88063041693557
Hillman City,0.23728639158575715,LOST PROPERTY,88.383972795438
Bryant,0.28301823550052013,FRAUD,52.92513359023942
North Beach,0.031478797391867604,FRAUD,60.816944669466025
Roosevelt,0.20717790041240394,FRAUD,80.7528208452428
North College Park,0.05389044888511302,FRAUD,64.87870700651175
Bitter Lake,0.023215539843406345,FRAUD,57.38393178590804
Brighton,0.22422899251440073,LOST PROPERTY,91.00733235979743
West Queen Anne,0.22635412239754263,FRAUD,71.02320368189598
Georgetown,0.048782403037170616,LOST PROPERTY,41.41510949312955
Genesee,0.03829345695045334,FRAUD,42.54691873216635
Belltown,4.685923805365443,FRAUD,82.91805778419535
Holly Park ,0.13501836981123275,LOST PROPERTY,83.20273178734445
Madison Park,0.149803668730983,FRAUD,38.71198723554588
Rainier Beach,0.041883005238383814,LOST PROPERTY,69.70564124761755
Fairmount Park,0.035839433251438325,FRAUD,39.71521849859289
Meadowbrook,0.04625864226255019,FRAUD,55.662871407151194
West Woodland,0.08285735709231157,FRAUD,68.9027339302706
Northgate,0.04142604464204771,FRAUD,60.27984778249479
Seward Park,1.3759055745693463,LOST PROPERTY,98.1972436441698
University District,2.21478215368987,FRAUD,97.2754481717252
First Hill,187.95993481735266,THREATS,99.51320265221435
Columbia City,0.10792688599470693,LOST PROPERTY,65.48089332779571
North Beacon Hill,0.11144794183391796,FRAUD,30.75488081007631
