hood,influence,largestInfluencer,largestInfluencerPercent
Fremont,0.012410195631566345,FRAUD,100.0
Junction,0.00161386310297732,FRAUD,100.0
Central,0.004700081756729497,FRAUD,100.0
Ravenna,0.12753356736899882,FRAUD,100.0
Garfield,0.007073283569052548,FRAUD,100.0
Seaview,0.001377472715606958,FRAUD,100.0
Green Lake,0.03532448796734114,FRAUD,100.0
Minor,0.004531894907266952,FRAUD,100.0
Roxhill,0.001095497296856773,FRAUD,100.0
Rainier View,0.0008994863196308707,FRAUD,100.0
Denny - Blaine,0.006470903245678637,FRAUD,100.0
Broadview,0.010800885192574721,FRAUD,100.0
Pioneer Square,0.003712961489267361,FRAUD,100.0
Beacon Hill,0.0016711916097420733,FRAUD,99.99999999999999
Lower Queen Anne,0.005323681247466876,FRAUD,100.0
High Point,0.0014531058116822315,FRAUD,100.0
Industrial District,0.0019141988917875203,FRAUD,100.0
Blue Ridge,0.0091245199730284,FRAUD,100.0
Maple Leaf,0.14434033663746784,FRAUD,100.0
Greenwood,0.021161876007158274,FRAUD,100.0
Broadmoor,0.010379679338346968,FRAUD,100.0
View Ridge,0.09734353715965662,FRAUD,100.00000000000001
East Queen Anne,0.008204152511564365,FRAUD,100.0
Whittier Heights,0.013743011946018553,FRAUD,100.0
Riverview,0.0014091048774775127,FRAUD,100.0
Denny Triangle,0.0072461036781873624,FRAUD,100.0
Wedgwood,1.0091487595346549,FRAUD,100.0
Eastlake,0.011362128445136916,FRAUD,100.0
North Delridge,0.001723877722520835,FRAUD,99.99999999999999
Capitol Hill,0.006939359477046173,FRAUD,100.0
Atlantic,0.003601850865180058,FRAUD,100.0
South Park,0.0012379834230572945,FRAUD,100.0
Matthews Beach,0.13237088421763177,FRAUD,100.0
Mt. Baker,0.0027453331981271236,FRAUD,99.99999999999999
Magnolia,0.004404637412520985,FRAUD,100.0
Sunset Hill,0.006691235117326249,FRAUD,100.0
Montlake,0.01282746629500439,FRAUD,100.0
Victory Heights,0.0787621105916233,FRAUD,100.0
Phinney Ridge,0.017858790951541033,FRAUD,100.0
Windermere,0.034359258688541,FRAUD,100.0
Haller Lake,0.023683329126914024,FRAUD,100.0
Highland Park,0.0011188249863795087,FRAUD,100.0
Admiral,0.0019235065507362838,FRAUD,100.0
Little Saigon,0.004137545632388797,FRAUD,100.0
Olympic Manor,0.004137545632388797,FRAUD,100.0
South Beacon Hill,0.001262959680248988,FRAUD,100.0
Fauntleroy,0.001031102615133373,FRAUD,100.0
Westlake,0.007383236423003894,FRAUD,100.0
Leschi,0.003865477309748159,FRAUD,100.0
South Lake Union,0.006528146177154614,FRAUD,100.0
Cedar Park,0.03484221704122412,FRAUD,100.0
Interbay,0.005608738204207443,FRAUD,100.0
Madrona,0.005306902336966512,FRAUD,100.0
Downtown,0.004137545632388797,FRAUD,100.0
North Queen Anne,0.007586619603992557,FRAUD,100.0
Portage Bay,0.014768498874680777,FRAUD,100.0
Laurelhurst,0.028538401827299147,FRAUD,100.0
Dunlap,0.0011660970968007391,FRAUD,100.0
Judkins Park,0.003331354015415208,FRAUD,100.0
International District,0.0036183164175053757,FRAUD,100.0
Arbor Heights,0.0008912267242594432,FRAUD,100.0
South Delridge,0.0011190182812038558,FRAUD,100.0
Ballard,0.0089348945672358,FRAUD,100.0
Pinehurst,0.04646787442421157,FRAUD,99.99999999999999
Loyal Heights,0.009287816259665285,FRAUD,100.0
Olympic Hills,0.030532683513667908,FRAUD,100.0
Cascade,0.00603407096394959,FRAUD,100.0
Wallingford,0.023591177987477823,FRAUD,100.00000000000001
Uptown,0.005323681247466876,FRAUD,100.0
Crown Hill,0.013222458386997392,FRAUD,100.0
Yesler Terrace ,0.003990873107925028,FRAUD,100.0
Waterfront,0.00393375871871449,FRAUD,100.0
Alki,0.0016835651536342082,FRAUD,100.0
Hawthorne Hills,0.05573789967645947,FRAUD,100.0
Lakewood,0.0019196523845565591,FRAUD,100.0
Gatewood,0.0012265677548522755,FRAUD,100.0
Jackson Place ,0.0037212410921417557,FRAUD,100.0
Madison Valley,0.006657583953031154,FRAUD,100.0
Hillman City,0.001587195250288322,FRAUD,100.0
Bryant,0.06406563482225218,FRAUD,100.0
North Beach,0.0091245199730284,FRAUD,100.0
Roosevelt,0.10195520378493864,FRAUD,100.0
North College Park,0.04492363125521322,FRAUD,100.0
Bitter Lake,0.012988969631397604,FRAUD,100.0
Brighton,0.0013217275213081119,FRAUD,100.00000000000001
West Queen Anne,0.005598562393681515,FRAUD,100.00000000000001
Georgetown,0.0014497357111349818,FRAUD,100.0
Genesee,0.0015767548857801054,FRAUD,100.0
Belltown,0.004689444841726914,FRAUD,100.0
Holly Park ,0.0013815014389303934,FRAUD,100.0
Madison Park,0.009450099897622743,FRAUD,100.0
Rainier Beach,0.0009878568055883663,FRAUD,100.0
Fairmount Park,0.001462077672763948,FRAUD,100.0
Meadowbrook,0.14193172387975264,FRAUD,100.0
West Woodland,0.011550254597999044,FRAUD,100.0
Northgate,0.05777654786163899,FRAUD,100.0
Seward Park,0.0015761574513567826,FRAUD,100.0
University District,0.03430793797084195,FRAUD,100.0
First Hill,0.0045582782235446566,FRAUD,100.0
Columbia City,0.0018540203843904872,FRAUD,100.0
North Beacon Hill,0.0025508942549252165,FRAUD,100.00000000000001
