hood,influence,largestInfluencer,largestInfluencerPercent
Fremont,0.004047918654154245,[INC - CASE DC USE ONLY],100.0
Junction,0.007360701080439409,[INC - CASE DC USE ONLY],100.0
Central,0.027105075612606635,[INC - CASE DC USE ONLY],100.0
Ravenna,0.0031314794568423087,[INC - CASE DC USE ONLY],100.0
Garfield,0.006439510003642424,[INC - CASE DC USE ONLY],100.0
Seaview,0.006065079964895567,[INC - CASE DC USE ONLY],100.00000000000001
Green Lake,0.0028199533652886865,[INC - CASE DC USE ONLY],100.0
Minor,0.025716442708902523,[INC - CASE DC USE ONLY],99.99999999999999
Roxhill,0.006220905694586526,[INC - CASE DC USE ONLY],100.0
Rainier View,0.006000714152641346,[INC - CASE DC USE ONLY],100.0
Denny - Blaine,0.014621868228783785,[INC - CASE DC USE ONLY],100.0
Broadview,0.0013408614616005677,[INC - CASE DC USE ONLY],100.0
Pioneer Square,0.01987394719371412,[INC - CASE DC USE ONLY],100.0
Beacon Hill,0.060395448206909175,[INC - CASE DC USE ONLY],100.0
Lower Queen Anne,0.00723513349248778,[INC - CASE DC USE ONLY],100.0
High Point,0.009397583144957998,[INC - CASE DC USE ONLY],100.0
Industrial District,0.03200975756247252,[INC - CASE DC USE ONLY],100.0
Blue Ridge,0.0016536436573418366,[INC - CASE DC USE ONLY],99.99999999999999
Maple Leaf,0.002081759318078322,[INC - CASE DC USE ONLY],100.0
Greenwood,0.001906092265177298,[INC - CASE DC USE ONLY],100.0
Broadmoor,0.008496226898846607,[INC - CASE DC USE ONLY],100.0
View Ridge,0.002652271611843496,[INC - CASE DC USE ONLY],100.0
East Queen Anne,0.005655735337962735,[INC - CASE DC USE ONLY],100.0
Whittier Heights,0.00220574095180764,[INC - CASE DC USE ONLY],100.0
Riverview,0.012105647140372062,[INC - CASE DC USE ONLY],100.0
Denny Triangle,0.009044214454474276,[INC - CASE DC USE ONLY],100.0
Wedgwood,0.0024201987540019387,[INC - CASE DC USE ONLY],100.0
Eastlake,0.006300591431843849,[INC - CASE DC USE ONLY],100.0
North Delridge,0.01176707891724798,[INC - CASE DC USE ONLY],100.0
Capitol Hill,0.010585048336220529,[INC - CASE DC USE ONLY],100.0
Atlantic,0.04763771682779985,[INC - CASE DC USE ONLY],100.0
South Park,0.013102062403644121,[INC - CASE DC USE ONLY],100.0
Matthews Beach,0.0021824144472039103,[INC - CASE DC USE ONLY],100.0
Mt. Baker,0.40841637379796614,[INC - CASE DC USE ONLY],100.0
Magnolia,0.0033279347578554636,[INC - CASE DC USE ONLY],100.0
Sunset Hill,0.0019009290318854324,[INC - CASE DC USE ONLY],100.0
Montlake,0.0070061049903545405,[INC - CASE DC USE ONLY],100.0
Victory Heights,0.0017154655932267858,[INC - CASE DC USE ONLY],100.0
Phinney Ridge,0.002678016315468474,[INC - CASE DC USE ONLY],100.0
Windermere,0.003410819620285414,[INC - CASE DC USE ONLY],100.0
Haller Lake,0.0014665650348303736,[INC - CASE DC USE ONLY],100.0
Highland Park,0.008262161027295037,[INC - CASE DC USE ONLY],100.0
Admiral,0.006466978476010498,[INC - CASE DC USE ONLY],100.0
Little Saigon,0.017818495698816213,[INC - CASE DC USE ONLY],100.0
Olympic Manor,0.017818495698816213,[INC - CASE DC USE ONLY],100.0
South Beacon Hill,0.017742394126678607,[INC - CASE DC USE ONLY],100.0
Fauntleroy,0.004974540775749156,[INC - CASE DC USE ONLY],100.0
Westlake,0.00711463133033534,[INC - CASE DC USE ONLY],100.0
Leschi,0.04825970408711194,[INC - CASE DC USE ONLY],100.0
South Lake Union,0.009217975391941476,[INC - CASE DC USE ONLY],100.0
Cedar Park,0.0014831436935759514,[INC - CASE DC USE ONLY],100.00000000000001
Interbay,0.003923056412771494,[INC - CASE DC USE ONLY],100.0
Madrona,0.020809301486048096,[INC - CASE DC USE ONLY],100.0
Downtown,0.017818495698816213,[INC - CASE DC USE ONLY],100.0
North Queen Anne,0.004308272749134558,[INC - CASE DC USE ONLY],100.0
Portage Bay,0.005749296791152087,[INC - CASE DC USE ONLY],100.0
Laurelhurst,0.0043845878559628584,[INC - CASE DC USE ONLY],100.0
Dunlap,0.013016654146454629,[INC - CASE DC USE ONLY],100.0
Judkins Park,0.08081740813863007,[INC - CASE DC USE ONLY],100.0
International District,0.029003231324771915,[INC - CASE DC USE ONLY],100.0
Arbor Heights,0.004033107068712391,[INC - CASE DC USE ONLY],100.0
South Delridge,0.007113815498383013,[INC - CASE DC USE ONLY],100.0
Ballard,0.002133086435176261,[INC - CASE DC USE ONLY],100.0
Pinehurst,0.0016352832449450677,[INC - CASE DC USE ONLY],100.0
Loyal Heights,0.002056450371537944,[INC - CASE DC USE ONLY],100.0
Olympic Hills,0.0014411572419721413,[INC - CASE DC USE ONLY],100.0
Cascade,0.010607631331787479,[INC - CASE DC USE ONLY],100.0
Wallingford,0.003918726511928004,[INC - CASE DC USE ONLY],100.0
Uptown,0.00723513349248778,[INC - CASE DC USE ONLY],100.0
Crown Hill,0.0018148236705045537,[INC - CASE DC USE ONLY],100.0
Yesler Terrace ,0.026833938593769688,[INC - CASE DC USE ONLY],100.0
Waterfront,0.015347912928593362,[INC - CASE DC USE ONLY],100.0
Alki,0.004872143172019883,[INC - CASE DC USE ONLY],100.0
Hawthorne Hills,0.0033576174041430778,[INC - CASE DC USE ONLY],100.0
Lakewood,0.11658260518071258,[INC - CASE DC USE ONLY],100.0
Gatewood,0.006149091514854606,[INC - CASE DC USE ONLY],100.0
Jackson Place ,0.0414562152078066,[INC - CASE DC USE ONLY],100.00000000000001
Madison Valley,0.014242192088362925,[INC - CASE DC USE ONLY],100.0
Hillman City,0.04850036481340618,[INC - CASE DC USE ONLY],100.0
Bryant,0.003501034472701712,[INC - CASE DC USE ONLY],100.0
North Beach,0.0016536436573418366,[INC - CASE DC USE ONLY],99.99999999999999
Roosevelt,0.002932107206564458,[INC - CASE DC USE ONLY],100.0
North College Park,0.002009363353277601,[INC - CASE DC USE ONLY],100.0
Bitter Lake,0.0013041795548330466,[INC - CASE DC USE ONLY],99.99999999999999
Brighton,0.020537368218472952,[INC - CASE DC USE ONLY],100.00000000000001
West Queen Anne,0.005205413079133876,[INC - CASE DC USE ONLY],99.99999999999999
Georgetown,0.022236249538684,[INC - CASE DC USE ONLY],100.0
Genesee,0.006540350350211996,[INC - CASE DC USE ONLY],100.0
Belltown,0.010825976363579445,[INC - CASE DC USE ONLY],100.0
Holly Park ,0.025425637419578734,[INC - CASE DC USE ONLY],100.0
Madison Park,0.008835507518346518,[INC - CASE DC USE ONLY],100.0
Rainier Beach,0.0077407132382288175,[INC - CASE DC USE ONLY],100.0
Fairmount Park,0.007765277456340843,[INC - CASE DC USE ONLY],100.0
Meadowbrook,0.0018527536552580307,[INC - CASE DC USE ONLY],100.0
West Woodland,0.0028515753089755455,[INC - CASE DC USE ONLY],100.00000000000001
Northgate,0.0017499429611271715,[INC - CASE DC USE ONLY],100.0
Seward Park,0.03707865886536408,[INC - CASE DC USE ONLY],100.0
University District,0.004015954051561003,[INC - CASE DC USE ONLY],100.0
First Hill,0.01819034139800508,[INC - CASE DC USE ONLY],100.0
Columbia City,0.1476133362363839,[INC - CASE DC USE ONLY],100.0
North Beacon Hill,0.13851780384548684,[INC - CASE DC USE ONLY],100.0
