hood,influence,largestInfluencer,largestInfluencerPercent
Fremont,0.17954656680059827,FRAUD,60.86320044569035
Junction,0.05178155563535756,FRAUD,73.87253790566788
Central,1.0963903744626413,FRAUD,98.03038462996481
Ravenna,0.40363179875331157,FRAUD,50.53341393850359
Garfield,0.20066527043838078,FRAUD,83.66079166407468
Seaview,0.04573393359245018,FRAUD,72.08072661883212
Green Lake,0.47286676921392506,CAR PROWL,64.66132726733117
Minor,1.2832722572321629,FRAUD,98.31204723850246
Roxhill,0.05457885190823604,FRAUD,68.25550178757062
Rainier View,0.252381149861341,EMBEZZLE,45.18294503982376
Denny - Blaine,0.1859167282657646,FRAUD,87.29771940383185
Broadview,0.29686887622227587,FRAUD,57.50107090378589
Pioneer Square,0.15582994280305035,FRAUD,87.17363497555604
Beacon Hill,0.6290878559936348,FRAUD,91.69712071807083
Lower Queen Anne,0.12361527566558417,FRAUD,79.5995435982398
High Point,0.064624645481649,FRAUD,74.0058235369584
Industrial District,0.136417487579551,FRAUD,82.72266566910251
Blue Ridge,0.13492351056515736,THREATS,59.09344913706633
Maple Leaf,0.329039048821519,THREATS,61.17183638748247
Greenwood,0.7929272906713318,THREATS,88.81521993762883
Broadmoor,0.1805429465631671,FRAUD,82.34092958269817
View Ridge,0.14288648288229477,FRAUD,61.04541558207445
East Queen Anne,0.22128306830934413,FRAUD,82.39076839760051
Whittier Heights,0.17535818792350627,THREATS,56.04330112411837
Riverview,0.08555822252402487,FRAUD,74.17523772502231
Denny Triangle,0.3706768628379694,FRAUD,91.75116353316564
Wedgwood,0.17157532217334526,FRAUD,44.69774050411268
Eastlake,4.229113063715269,FRAUD,98.8513668599668
North Delridge,0.07130479276906168,FRAUD,76.58064063347051
Capitol Hill,0.29097205723505815,FRAUD,90.18811263504556
Atlantic,0.5311246034683942,FRAUD,96.05612452952118
South Park,0.14048246684260288,FRAUD,67.54365706924007
Matthews Beach,0.1097887918618268,FRAUD,49.2418312866068
Mt. Baker,0.25585077648326887,FRAUD,90.54469046782887
Magnolia,0.06014470680509709,FRAUD,61.44388152200839
Sunset Hill,0.07883378495291285,THREATS,43.89291779199837
Montlake,0.2996609315163349,FRAUD,85.38257169729032
Victory Heights,0.15740324870203187,THREATS,53.60356394463716
Phinney Ridge,0.19703802582300478,THREATS,39.38728099817424
Windermere,0.1757368308358766,FRAUD,76.37618327656386
Haller Lake,0.30384319673700266,THREATS,59.287253815759776
Highland Park,0.08101342801432188,FRAUD,66.32620560905325
Admiral,0.04904961976604243,FRAUD,73.60568467888768
Little Saigon,0.1738198079242991,FRAUD,88.00256619325475
Olympic Manor,0.1738198079242991,FRAUD,88.00256619325475
South Beacon Hill,0.5887780388187136,FRAUD,57.069339822515886
Fauntleroy,0.044129580867694876,FRAUD,67.82129180349729
Westlake,0.2938436924858751,FRAUD,88.72587540217278
Leschi,0.6262433420556759,FRAUD,96.634810738667
South Lake Union,0.25301662450331364,FRAUD,88.76000038595153
Cedar Park,0.09860243668815416,THREATS,44.94383077515897
Interbay,0.08085860129092698,FRAUD,64.03392904181825
Madrona,0.28973591989161857,FRAUD,92.41328751205808
Downtown,0.1738198079242991,FRAUD,88.00256619325475
North Queen Anne,0.11825130639076567,FRAUD,66.8664344277971
Portage Bay,0.522176671878035,FRAUD,88.25825985512726
Laurelhurst,0.7433595657506749,FRAUD,92.87408883585123
Dunlap,9.490478833752602,CAR PROWL,87.78499546903271
Judkins Park,0.3582949140643897,FRAUD,94.00431735579973
International District,0.22512436478441686,FRAUD,90.97344843721152
Arbor Heights,0.03946316613255892,FRAUD,65.1164033678729
South Delridge,0.0635077595396922,FRAUD,68.06745107917033
Ballard,0.10563418659753923,THREATS,46.46498442352416
Pinehurst,0.24976571574062706,THREATS,66.4291418980961
Loyal Heights,0.11298214221465887,THREATS,49.67386450017607
Olympic Hills,0.11589323247767543,THREATS,47.62551670149899
Cascade,0.21710232313943992,FRAUD,87.8547263748229
Wallingford,0.30842333653566223,CAR PROWL,44.31417920050324
Uptown,0.12361527566558417,FRAUD,79.5995435982398
Crown Hill,0.24175774062955918,THREATS,71.34002757104624
Yesler Terrace ,0.3303039787716239,FRAUD,93.68447256194231
Waterfront,0.13608077752272435,FRAUD,85.13260702872323
Alki,0.03993898952349682,FRAUD,71.57143914495397
Hawthorne Hills,0.316095425633287,FRAUD,81.14904965336088
Lakewood,1.3764169840243012,FRAUD,96.77501934571586
Gatewood,0.04844372549342448,FRAUD,70.84903821487191
Jackson Place ,0.61335651302555,FRAUD,96.59178881476777
Madison Valley,0.20756827816341833,FRAUD,88.15685378780424
Hillman City,1.5956345648819712,FRAUD,94.51146598658696
Bryant,0.758875439539166,FRAUD,88.99413761609758
North Beach,0.13492351056515736,THREATS,59.09344913706633
Roosevelt,1.462001682007704,CAR PROWL,88.0134375849737
North College Park,1.3995844227423218,THREATS,91.68882953162009
Bitter Lake,0.8247797780650499,FRAUD,85.22873250378208
Brighton,3.058302521514017,FRAUD,88.65857489296886
West Queen Anne,0.1000680048493438,FRAUD,72.45991005481007
Georgetown,0.1843476453744997,FRAUD,77.18151876334355
Genesee,0.047740839885510054,FRAUD,73.17579415966318
Belltown,0.13469777512136724,FRAUD,83.40897116351756
Holly Park ,0.6951164196572834,FRAUD,75.77576574230665
Madison Park,0.14752490473251334,FRAUD,81.14443683741771
Rainier Beach,0.7958732472881876,EMBEZZLE,62.33679022740843
Fairmount Park,0.054842654719456436,FRAUD,73.43250711343423
Meadowbrook,0.13002066417846664,THREATS,43.58942477122517
West Woodland,0.1295691899635319,FRAUD,40.68218572307877
Northgate,0.35456643869856236,THREATS,74.5320490061656
Seward Park,0.7464275811989834,FRAUD,88.21875664495339
University District,0.3970127836583004,FRAUD,51.13221013642804
First Hill,0.23045660214712552,FRAUD,90.534214649161
Columbia City,7.633276767736768,FRAUD,99.37777234157792
North Beacon Hill,0.21136416580736683,FRAUD,88.87108418431866
