hood,influence,largestInfluencer,largestInfluencerPercent
Fremont,0.061477009559543966,THEFT OF SERVICES,64.51981541554208
Junction,0.0313701815751332,PROPERTY DAMAGE,60.15360777678892
Central,0.22002773713041068,THEFT OF SERVICES,94.58184739679653
Ravenna,0.06911259023316654,FRAUD,64.90868254255844
Garfield,0.10435156320587974,THEFT OF SERVICES,87.60909809319408
Seaview,0.02719624466274433,PROPERTY DAMAGE,64.31794852479823
Green Lake,0.12968586058710876,FRAUD,82.93100938778213
Minor,0.2904063652061084,THEFT OF SERVICES,95.54615039678387
Roxhill,0.0342312445867509,PROPERTY DAMAGE,78.9899860653849
Rainier View,0.012875016245996457,PROPERTY DAMAGE,60.690171378052625
Denny - Blaine,0.21785460655137673,THEFT OF SERVICES,95.17720728527287
Broadview,0.03096219760136449,FRAUD,77.57496881537752
Pioneer Square,0.11351318698648194,THEFT OF SERVICES,86.69445699874562
Beacon Hill,0.09665977885735777,PROPERTY DAMAGE,84.86197237949354
Lower Queen Anne,0.08611310789545318,THEFT OF SERVICES,86.47678868165843
High Point,0.056453493080366415,PROPERTY DAMAGE,80.13542207942093
Industrial District,0.14251786926358267,PROPERTY DAMAGE,86.21664920078537
Blue Ridge,0.03209126995696669,FRAUD,71.2320577677216
Maple Leaf,0.40280519392812364,FRAUD,96.79544882830861
Greenwood,0.12057860646452215,FRAUD,90.3915129829921
Broadmoor,0.16478426720375808,THEFT OF SERVICES,92.84260662257715
View Ridge,0.036586935373902646,FRAUD,56.32472258873219
East Queen Anne,0.08947275967400503,THEFT OF SERVICES,84.13520419739254
Whittier Heights,0.05598330107818134,FRAUD,74.39446831712286
Riverview,0.1411754764311109,PROPERTY DAMAGE,92.23875728329308
Denny Triangle,0.43281030857550934,THEFT OF SERVICES,97.08276907653222
Wedgwood,0.057840444559840595,FRAUD,73.91746802961252
Eastlake,0.15808200779433892,THEFT OF SERVICES,90.03514594288397
North Delridge,0.05592125848241326,PROPERTY DAMAGE,73.12204164009448
Capitol Hill,1.3397465664370871,THEFT OF SERVICES,99.08096013072524
Atlantic,0.11505719262848911,THEFT OF SERVICES,86.26364276800986
South Park,0.11880339492143742,PROPERTY DAMAGE,92.52261752643962
Matthews Beach,0.03583703531151873,FRAUD,65.88308000546985
Mt. Baker,0.057091291909014595,THEFT OF SERVICES,65.2709506501441
Magnolia,0.026829516970251086,THEFT OF SERVICES,64.66405771646369
Sunset Hill,0.02468044353442418,FRAUD,55.94202861706503
Montlake,0.18010094875660634,THEFT OF SERVICES,92.0018131860431
Victory Heights,0.06198934123845772,FRAUD,84.86626967243699
Phinney Ridge,0.07024969656897027,FRAUD,71.61189043686757
Windermere,0.0346553345697293,THEFT OF SERVICES,56.62297497622446
Haller Lake,0.05331087290339336,FRAUD,85.43370103077143
Highland Park,0.05593221275970476,PROPERTY DAMAGE,86.51247111311939
Admiral,0.026504678668295416,THEFT OF SERVICES,49.58287096252482
Little Saigon,0.16080919961572684,THEFT OF SERVICES,91.41334649650175
Olympic Manor,0.16080919961572684,THEFT OF SERVICES,91.41334649650175
South Beacon Hill,0.04041287388332428,PROPERTY DAMAGE,78.20068055778616
Fauntleroy,0.023683549870071565,PROPERTY DAMAGE,72.63559454102565
Westlake,0.14956020757094884,THEFT OF SERVICES,91.28277809190241
Leschi,0.10894280610306975,THEFT OF SERVICES,87.9459893180835
South Lake Union,0.3015310083845123,THEFT OF SERVICES,95.89110310432008
Cedar Park,0.03089298809924823,FRAUD,75.7275171238126
Interbay,0.037137786176985585,THEFT OF SERVICES,69.17127194754622
Madrona,0.20415510977091222,THEFT OF SERVICES,94.67112330262526
Downtown,0.16080919961572684,THEFT OF SERVICES,91.41334649650175
North Queen Anne,0.0511720583411558,THEFT OF SERVICES,72.06675873681492
Portage Bay,0.12396903328510514,THEFT OF SERVICES,85.6535045276067
Laurelhurst,0.05147285207186769,THEFT OF SERVICES,67.35886458582756
Dunlap,0.02379458715561235,PROPERTY DAMAGE,68.3694582986411
Judkins Park,0.08583194188500605,THEFT OF SERVICES,80.8334195406792
International District,0.11902103294261075,THEFT OF SERVICES,86.44663981784817
Arbor Heights,0.017244663122965458,PROPERTY DAMAGE,69.50227280819603
South Delridge,0.04393517931226845,PROPERTY DAMAGE,82.95269068230684
Ballard,0.03378849873495444,FRAUD,60.977484767544624
Pinehurst,0.07938089545990897,FRAUD,88.71355507634466
Loyal Heights,0.03488476137432826,FRAUD,64.01362203537542
Olympic Hills,0.03340179868850461,FRAUD,78.09816937168841
Cascade,0.4026106582563086,THEFT OF SERVICES,96.95697482972304
Wallingford,0.07343304264309991,THEFT OF SERVICES,54.05705577456823
Uptown,0.08611310789545318,THEFT OF SERVICES,86.47678868165843
Crown Hill,0.053392843158473605,FRAUD,79.98435059823719
Yesler Terrace ,0.17070695643743872,THEFT OF SERVICES,91.48034148112066
Waterfront,0.11526676640485758,THEFT OF SERVICES,88.00313821935562
Alki,0.020384125092723342,THEFT OF SERVICES,48.163967926104434
Hawthorne Hills,0.041725479322699766,THEFT OF SERVICES,51.128780725952176
Lakewood,0.03531065272649872,PROPERTY DAMAGE,52.37328884642094
Gatewood,0.030912157881611595,PROPERTY DAMAGE,72.96960206163436
Jackson Place ,0.12911391591594312,THEFT OF SERVICES,88.13527500547812
Madison Valley,0.3643521823602227,THEFT OF SERVICES,97.00507193359971
Hillman City,0.041911021829295944,PROPERTY DAMAGE,69.94807210633779
Bryant,0.05008415193010386,THEFT OF SERVICES,49.69136525048798
North Beach,0.03209126995696669,FRAUD,71.2320577677216
Roosevelt,0.11696601004286125,FRAUD,80.43336169947521
North College Park,0.9741854887150814,FRAUD,98.7164607213208
Bitter Lake,0.03193500413620542,FRAUD,79.1612339516572
Brighton,0.03090783875811012,PROPERTY DAMAGE,70.24122880906893
West Queen Anne,0.053258822719291894,THEFT OF SERVICES,78.38717646128683
Georgetown,0.6706717988146697,PROPERTY DAMAGE,98.26724069956471
Genesee,0.027548064620064795,PROPERTY DAMAGE,57.221727693605864
Belltown,0.13383257060139583,THEFT OF SERVICES,90.83840938732277
Holly Park ,0.04437638991059609,PROPERTY DAMAGE,77.14955070063236
Madison Park,0.11199540825305823,THEFT OF SERVICES,90.4551430819821
Rainier Beach,0.015782989776541245,PROPERTY DAMAGE,63.19010130775141
Fairmount Park,0.03786439314354069,PROPERTY DAMAGE,70.93717524702657
Meadowbrook,0.052327974679803047,FRAUD,80.41814416785888
West Woodland,0.04588625857801407,FRAUD,53.4334153651874
Northgate,0.13561765962015349,FRAUD,92.66772003518635
Seward Park,0.028658551851292985,PROPERTY DAMAGE,58.98076794494608
University District,0.07259660352818093,THEFT OF SERVICES,55.1770648025173
First Hill,0.27745860492729757,THEFT OF SERVICES,95.26083693868334
Columbia City,0.04980589624845515,PROPERTY DAMAGE,65.93713560883634
North Beacon Hill,0.06563327005709482,THEFT OF SERVICES,52.86439825104428
