hood,influence,largestInfluencer,largestInfluencerPercent
Fremont,0.06712051747491331,BURGLARY-SECURE PARKING-RES,45.28707952021122
Junction,0.02484570711943224,FRAUD,47.575497226283005
Central,2.950735259215398,FRAUD,97.82564147306277
Ravenna,0.30603769399293174,BURGLARY-SECURE PARKING-RES,92.90461582168217
Garfield,0.10365095653683898,FRAUD,42.59131496133838
Seaview,0.018721914729322463,FRAUD,48.47756166499344
Green Lake,0.12801589627519425,BURGLARY-SECURE PARKING-RES,84.2786704460742
Minor,2.3714876550179302,FRAUD,94.16729783049274
Roxhill,0.013806513783539759,FRAUD,51.36942619504589
Rainier View,0.009522121771991332,FRAUD,55.406980679528345
Denny - Blaine,0.3177775570259581,FRAUD,86.94781740489958
Broadview,0.03230173057525331,BURGLARY-SECURE PARKING-RES,78.10629884706155
Pioneer Square,0.8284036887635743,ASSAULT,84.54523724364772
Beacon Hill,0.031602703392761326,FRAUD,60.37268148899599
Lower Queen Anne,0.11893273671099738,ASSAULT,53.309391746143575
High Point,0.022609968392381607,FRAUD,50.50268257584441
Industrial District,0.04490870977100902,FRAUD,54.400494156841596
Blue Ridge,0.031709828515207476,BURGLARY-SECURE PARKING-RES,70.35386726004837
Maple Leaf,0.5767767425648348,BURGLARY-SECURE PARKING-RES,97.83927286014081
Greenwood,0.06912267389444916,BURGLARY-SECURE PARKING-RES,83.47572256048726
Broadmoor,0.130770519033793,FRAUD,68.56255117372429
View Ridge,0.13390394621055443,BURGLARY-SECURE PARKING-RES,88.38791782184916
East Queen Anne,0.08639033810960062,FRAUD,42.77654545751078
Whittier Heights,0.050049185160443974,BURGLARY-SECURE PARKING-RES,71.76373535729705
Riverview,0.0223281024855874,FRAUD,52.64013125046206
Denny Triangle,0.20135843737918593,FRAUD,52.17640217404647
Wedgwood,0.5163940304395218,BURGLARY-SECURE PARKING-RES,97.1945834061525
Eastlake,0.1072585969565204,FRAUD,49.67929787859138
North Delridge,0.0317074391039514,FRAUD,49.313814067673626
Capitol Hill,0.27933479682499773,FRAUD,60.68241112520292
Atlantic,0.4131106428609283,FRAUD,77.395709383931
South Park,0.0177693880627409,FRAUD,55.21670126371344
Matthews Beach,0.1493194817972464,BURGLARY-SECURE PARKING-RES,91.89494842103373
Mt. Baker,0.10934178914343559,FRAUD,73.11144031716849
Magnolia,0.03342524823022659,FRAUD,37.98232066355382
Sunset Hill,0.027312570281749545,BURGLARY-SECURE PARKING-RES,58.80173592550309
Montlake,0.11715373784520572,FRAUD,57.81570698162335
Victory Heights,0.1542587162374138,BURGLARY-SECURE PARKING-RES,93.94640920852748
Phinney Ridge,0.06718993283501203,BURGLARY-SECURE PARKING-RES,71.94056311601865
Windermere,0.07566487217364162,BURGLARY-SECURE PARKING-RES,72.35445526650174
Haller Lake,0.061681385048401274,BURGLARY-SECURE PARKING-RES,87.32446384135628
Highland Park,0.01471304254167192,FRAUD,53.19560801488021
Admiral,0.030048566603457186,FRAUD,44.66016487231744
Little Saigon,8.029259051719166,ASSAULT,97.93333039783394
Olympic Manor,8.029259051719166,ASSAULT,97.93333039783394
South Beacon Hill,0.01759869210052127,FRAUD,58.069342840558754
Fauntleroy,0.012234802436976208,FRAUD,50.49880889404808
Westlake,0.12590846565219171,FRAUD,44.91876698809609
Leschi,0.4663932926133489,FRAUD,89.41848914378319
South Lake Union,0.217325706208033,ASSAULT,49.152705776474725
Cedar Park,0.06794515337791286,BURGLARY-SECURE PARKING-RES,88.82405674810263
Interbay,0.04510633950885397,FRAUD,38.22704871167935
Madrona,0.7007027144213803,FRAUD,93.35633375877225
Downtown,8.029259051719166,ASSAULT,97.93333039783394
North Queen Anne,0.057717089011390735,FRAUD,38.256092426050905
Portage Bay,0.09926071314678804,FRAUD,45.84846936447853
Laurelhurst,0.08561369298882858,BURGLARY-SECURE PARKING-RES,61.831779367766494
Dunlap,0.014710492837694896,FRAUD,57.85833967129779
Judkins Park,0.26008518536160097,FRAUD,79.42130659243725
International District,0.45356114490301425,ASSAULT,57.68054855633949
Arbor Heights,0.009783237934345244,FRAUD,50.63087317995964
South Delridge,0.014506887111113746,FRAUD,52.069174169331944
Ballard,0.03548342317453368,BURGLARY-SECURE PARKING-RES,62.32503695404297
Pinehurst,0.11314028394978473,BURGLARY-SECURE PARKING-RES,92.10538374927462
Loyal Heights,0.035785419944420985,BURGLARY-SECURE PARKING-RES,64.48550363399022
Olympic Hills,0.06436384395586042,BURGLARY-SECURE PARKING-RES,88.49504711381879
Cascade,0.31169117726169293,ASSAULT,54.7471577167737
Wallingford,0.09423192775957262,BURGLARY-SECURE PARKING-RES,63.9698075023185
Uptown,0.11893273671099738,ASSAULT,53.309391746143575
Crown Hill,0.044535043217248244,BURGLARY-SECURE PARKING-RES,75.96525132561976
Yesler Terrace ,0.6509558910843148,FRAUD,51.138379507961474
Waterfront,1.061285139433196,ASSAULT,90.02824895828522
Alki,0.021883657472903422,FRAUD,45.178314504204906
Hawthorne Hills,0.11018758219624222,BURGLARY-SECURE PARKING-RES,80.2283127162576
Lakewood,0.03648907600551008,FRAUD,65.50893828719329
Gatewood,0.016090992800435626,FRAUD,49.92990553535875
Jackson Place ,0.49173610813784807,FRAUD,77.47062891799602
Madison Valley,0.41837892518568903,FRAUD,88.33484405289634
Hillman City,0.02632830711987724,FRAUD,61.60098863753876
Bryant,0.13694105402171045,BURGLARY-SECURE PARKING-RES,82.29061854154
North Beach,0.031709828515207476,BURGLARY-SECURE PARKING-RES,70.35386726004837
Roosevelt,0.37959057198675933,BURGLARY-SECURE PARKING-RES,94.59601857230416
North College Park,0.15227776284824912,BURGLARY-SECURE PARKING-RES,92.02622468504343
Bitter Lake,0.03619026352796886,BURGLARY-SECURE PARKING-RES,81.29422342667233
Brighton,0.018400039002467023,FRAUD,59.27331802835347
West Queen Anne,0.06593946932011809,ASSAULT,41.02392185986426
Georgetown,0.02416971317192816,FRAUD,56.41348183933586
Genesee,0.023034527532442617,FRAUD,47.2569474778809
Belltown,0.3825829355484932,ASSAULT,76.67244232344201
Holly Park ,0.020611328089458876,FRAUD,59.2890096948042
Madison Park,0.1151394813497433,FRAUD,69.44457602812739
Rainier Beach,0.011060880399053936,FRAUD,56.262279091786006
Fairmount Park,0.021843278862043847,FRAUD,49.21292100058753
Meadowbrook,0.20229540054732836,BURGLARY-SECURE PARKING-RES,94.975834362459
West Woodland,0.04992275775881716,BURGLARY-SECURE PARKING-RES,58.53253088779279
Northgate,0.15427243672190602,BURGLARY-SECURE PARKING-RES,93.62614892304708
Seward Park,0.02408744881801953,FRAUD,62.18460733525365
University District,0.11705809643066267,BURGLARY-SECURE PARKING-RES,71.13881028810192
First Hill,1.4920174398521449,ASSAULT,80.30655669804474
Columbia City,0.037386284851522164,FRAUD,63.74068183503717
North Beacon Hill,0.10008480770878876,FRAUD,63.478615026261174
