hood,influence,largestInfluencer,largestInfluencerPercent
Fremont,0.0632121792486125,FORGERY,53.11680813262506
Junction,0.4108299443962117,FRAUD,93.4505559777008
Central,0.6460272594491739,[INC - CASE DC USE ONLY],87.19927064726059
Ravenna,0.18385565504217416,FORGERY,89.37874679491426
Garfield,0.07266593689617687,[INC - CASE DC USE ONLY],35.75923545201305
Seaview,0.15390269432782816,FRAUD,86.73651205797029
Green Lake,0.06629005776077121,FORGERY,71.96276926345854
Minor,0.5132533348394306,[INC - CASE DC USE ONLY],76.79255309964486
Roxhill,0.0572341525187839,FRAUD,71.30239024312229
Rainier View,0.01878659140864571,FRAUD,37.344635068190016
Denny - Blaine,0.15960576823970324,[INC - CASE DC USE ONLY],68.3880473860201
Broadview,0.01444995401879862,FORGERY,43.243921582715814
Pioneer Square,0.2560025916522046,OTHER PROPERTY,44.630361637965635
Beacon Hill,0.08473529147484882,[INC - CASE DC USE ONLY],36.778772545234006
Lower Queen Anne,0.07629781711076355,[INC - CASE DC USE ONLY],36.56907261849868
High Point,0.2720058303785596,FRAUD,89.76051273528111
Industrial District,0.20379307300122193,FRAUD,60.36634645182218
Blue Ridge,0.018256473109601455,FORGERY,41.3819319090512
Maple Leaf,0.03683536758198251,FORGERY,65.59854018343637
Greenwood,0.025755589044362134,FORGERY,52.99446077604283
Broadmoor,0.10613675273944208,[INC - CASE DC USE ONLY],41.317360301828444
View Ridge,0.049353416849290954,FORGERY,69.02971109291182
East Queen Anne,0.06836714666096616,FORGERY,33.80810175095132
Whittier Heights,0.028768191064889242,FORGERY,48.9687380132826
Riverview,0.1388051167094846,FRAUD,78.4265513726619
Denny Triangle,0.10419682419239525,[INC - CASE DC USE ONLY],44.50083630257221
Wedgwood,0.05097019980542293,FORGERY,71.95871177325459
Eastlake,0.10186167852538734,FORGERY,51.50271587810408
North Delridge,3.174338579700325,FRAUD,98.74898089710756
Capitol Hill,0.12278820182609268,[INC - CASE DC USE ONLY],50.2684499893161
Atlantic,1.2602300780523124,[INC - CASE DC USE ONLY],70.58473879760085
South Park,0.05581880472749288,FRAUD,55.90021399113261
Matthews Beach,0.03364403033126962,FORGERY,63.02732468268678
Mt. Baker,0.4150656506199271,[INC - CASE DC USE ONLY],68.90831290155744
Magnolia,0.033872947442338486,FRAUD,32.95453367362826
Sunset Hill,0.02014225159388525,FORGERY,35.78924746848144
Montlake,0.1305640255226855,FORGERY,59.007947666293774
Victory Heights,0.02336236157529582,FORGERY,57.11133525273663
Phinney Ridge,0.04215837756659499,FORGERY,57.05690631100849
Windermere,0.0607154002032247,FORGERY,67.57383983428056
Haller Lake,0.017441255368251037,FORGERY,49.94253209730181
Highland Park,0.05152918363360283,FRAUD,63.67078001759359
Admiral,0.16336776300408898,FRAUD,82.70780829314549
Little Saigon,0.22222296644550982,[INC - CASE DC USE ONLY],44.85431074857923
Olympic Manor,0.22222296644550982,[INC - CASE DC USE ONLY],44.85431074857923
South Beacon Hill,0.04125139363467562,FRAUD,38.494963543440825
Fauntleroy,0.047772768903751595,FRAUD,70.81966802515879
Westlake,0.08173650675432924,[INC - CASE DC USE ONLY],37.675823815612155
Leschi,6.2039751843130375,[INC - CASE DC USE ONLY],98.26708414472266
South Lake Union,0.1028544547826518,[INC - CASE DC USE ONLY],44.367896129901986
Cedar Park,0.01734233584726652,FORGERY,51.294088919916085
Interbay,0.04155153293516882,[INC - CASE DC USE ONLY],30.150818358895368
Madrona,0.291742437902657,[INC - CASE DC USE ONLY],79.83370839164466
Downtown,0.22222296644550982,[INC - CASE DC USE ONLY],44.85431074857923
North Queen Anne,0.049952308497920275,FORGERY,33.16372000041421
Portage Bay,0.14635517786804306,FORGERY,70.65409270500915
Laurelhurst,0.1451496452789624,FORGERY,81.15861501742934
Dunlap,0.03126666369922769,[INC - CASE DC USE ONLY],38.03350325563406
Judkins Park,2.2885932617463047,[INC - CASE DC USE ONLY],88.84976805819376
International District,0.5190425741757526,OTHER PROPERTY,56.33103582128604
Arbor Heights,0.030436421390050962,FRAUD,63.84204982522204
South Delridge,0.05835718793479795,FRAUD,69.52821447921339
Ballard,0.02451264195013449,FORGERY,40.81066173532301
Pinehurst,0.02145463088748291,FORGERY,54.82832325275021
Loyal Heights,0.023717410888087202,FORGERY,41.574935561245525
Olympic Hills,0.016746855491397948,FORGERY,50.566395076507774
Cascade,0.11867618963071733,[INC - CASE DC USE ONLY],47.688865241109085
Wallingford,0.14640758598107792,FORGERY,81.41555003019242
Uptown,0.07629781711076355,[INC - CASE DC USE ONLY],36.56907261849868
Crown Hill,0.02198564645793496,FORGERY,46.81106681844902
Yesler Terrace ,0.4468438749876552,[INC - CASE DC USE ONLY],53.275389731170186
Waterfront,0.17726899694608828,[INC - CASE DC USE ONLY],39.25239278996517
Alki,0.0919570037147655,FRAUD,77.8415476484579
Hawthorne Hills,0.09038750790043917,FORGERY,77.89431663664136
Lakewood,0.08180131460864588,[INC - CASE DC USE ONLY],53.08774640219778
Gatewood,0.09663741232434461,FRAUD,80.9473614338356
Jackson Place ,1.0373415670543908,[INC - CASE DC USE ONLY],69.48973912909015
Madison Valley,0.16484942973937972,[INC - CASE DC USE ONLY],66.98156968706087
Hillman City,0.060418700729599706,[INC - CASE DC USE ONLY],43.28848741531696
Bryant,0.16620997446323774,FORGERY,87.07463541200323
North Beach,0.018256473109601455,FORGERY,41.3819319090512
Roosevelt,0.12631022980134685,FORGERY,85.23014469459855
North College Park,0.031569307979185855,FORGERY,60.34182682271694
Bitter Lake,0.014160985896608089,FORGERY,44.808010299117264
Brighton,0.040210550990925846,[INC - CASE DC USE ONLY],39.78950394168973
West Queen Anne,0.05520830422366192,[INC - CASE DC USE ONLY],32.57473509065505
Georgetown,0.07986885865796423,FRAUD,53.71416108273038
Genesee,0.24907895439343358,FRAUD,90.27138815495732
Belltown,0.11670580832042401,[INC - CASE DC USE ONLY],41.14118005979783
Holly Park ,0.04816325532313333,[INC - CASE DC USE ONLY],37.91503260124484
Madison Park,0.0945501089631392,[INC - CASE DC USE ONLY],46.777131348541545
Rainier Beach,0.02233560725205857,[INC - CASE DC USE ONLY],36.9748612121322
Fairmount Park,0.29826498978753435,FRAUD,91.55233669855451
Meadowbrook,0.02670898560876593,FORGERY,59.812121655086145
West Woodland,0.03791479842853908,FORGERY,47.28068144502379
Northgate,0.02456596774499974,FORGERY,57.298992505266504
Seward Park,0.050436537418388036,[INC - CASE DC USE ONLY],46.94523494604579
University District,1.0238950187184932,FORGERY,97.36162367184555
First Hill,0.2379881396941547,[INC - CASE DC USE ONLY],53.915761895116795
Columbia City,0.09221395522346594,[INC - CASE DC USE ONLY],46.74937381688178
North Beacon Hill,0.47704731447816806,OTHER PROPERTY,60.54745469478205
