hood,influence,largestInfluencer,largestInfluencerPercent
Fremont,0.36798642977410007,FRAUD,89.71088522214009
Junction,0.025090792978591535,FRAUD,71.45704784598226
Central,0.1116630373940794,FRAUD,80.0480892904818
Ravenna,0.2942354937103871,FRAUD,96.92389793745853
Garfield,0.6099251809477488,OTHER PROPERTY,78.53450731745852
Seaview,0.01918400989018009,FRAUD,72.9061448998441
Green Lake,0.5059650393447198,FRAUD,97.64468780564675
Minor,0.21370820036491148,FRAUD,84.5342879060009
Roxhill,0.013050226199971773,FRAUD,74.91678727963262
Rainier View,0.007997902461164257,FRAUD,77.70599788168961
Denny - Blaine,0.08523317371240123,FRAUD,77.77183085546451
Broadview,0.06089334215706569,FRAUD,94.3178346923777
Pioneer Square,0.27166229002985665,FRAUD,81.12967865538029
Beacon Hill,0.02120490930429391,FRAUD,75.518816945951
Lower Queen Anne,1.032746073971095,OTHER PROPERTY,88.38399931199098
High Point,0.02068268490405236,FRAUD,73.00709154598633
Industrial District,0.03196125633495879,FRAUD,73.39684884186143
Blue Ridge,0.23367033367294,FRAUD,97.71509364751567
Maple Leaf,0.12013135663489298,FRAUD,95.2253402230634
Greenwood,0.17577980737552543,FRAUD,96.46101104116902
Broadmoor,0.09164114205782609,FRAUD,78.52213629854572
View Ridge,0.0665883654172715,FRAUD,91.90216707423076
East Queen Anne,0.30692666901613036,OTHER PROPERTY,54.88103311733117
Whittier Heights,0.5118887197112101,FRAUD,98.2397066902914
Riverview,0.019092703070622077,FRAUD,73.83312725607279
Denny Triangle,0.4059479629387147,FRAUD,51.56690937733239
Wedgwood,0.09410021575914829,FRAUD,93.9857411356452
Eastlake,0.2046664278319151,FRAUD,67.28271525231493
North Delridge,0.028092172927022686,FRAUD,71.70709420044001
Capitol Hill,0.3695762405431019,FRAUD,70.10506260941347
Atlantic,0.11399869424408243,FRAUD,80.47957185415873
South Park,0.014524514895864045,FRAUD,75.34419115956672
Matthews Beach,0.05583380522467842,FRAUD,92.10261577779119
Mt. Baker,0.044757236693544526,FRAUD,76.90703556500276
Magnolia,0.0946745807682421,FRAUD,76.37786972682574
Sunset Hill,0.4637252909511666,FRAUD,98.4388045742783
Montlake,0.13130834335715563,FRAUD,77.61873543721788
Victory Heights,0.05805536519245107,FRAUD,93.25584898676615
Phinney Ridge,2.4476280936082686,FRAUD,99.4746997193533
Windermere,0.06043585116385934,FRAUD,89.53857289480294
Haller Lake,0.055598522960935835,FRAUD,93.61734300407701
Highland Park,0.012999366549322999,FRAUD,75.26173512771409
Admiral,0.03381927271519592,FRAUD,69.05993663394756
Little Saigon,0.6155530079993987,FRAUD,88.62266015618133
Olympic Manor,0.6155530079993987,FRAUD,88.62266015618133
South Beacon Hill,0.01335652008488573,FRAUD,76.38962691787039
Fauntleroy,0.01206260675538096,FRAUD,75.11454535088957
Westlake,0.622079218069418,OTHER PROPERTY,76.5461438859691
Leschi,0.07784856512388753,FRAUD,78.9255120537411
South Lake Union,0.6644521573473041,OTHER PROPERTY,61.443772888841444
Cedar Park,0.03835927470927238,FRAUD,92.07694430787845
Interbay,0.1432415079938783,FRAUD,71.3283782634354
Madrona,0.08879988063724209,FRAUD,78.50598041597367
Downtown,0.6155530079993987,FRAUD,88.62266015618133
North Queen Anne,0.21606205633346415,FRAUD,71.68267756009867
Portage Bay,0.17998134523460677,FRAUD,79.02359014000005
Laurelhurst,0.09165563957542286,FRAUD,89.13173195685042
Dunlap,0.011366990392966564,FRAUD,76.9946102633093
Judkins Park,0.07450852710266533,FRAUD,78.49671432527714
International District,0.1941696043976272,FRAUD,82.34287639395497
Arbor Heights,0.00970642647636252,FRAUD,75.93861435848655
South Delridge,0.013320026420834054,FRAUD,74.956041180219
Ballard,1.4757604331268486,FRAUD,99.39302833510281
Pinehurst,0.06260308025992004,FRAUD,93.69168536871031
Loyal Heights,5.498057643651731,FRAUD,99.84982878626776
Olympic Hills,0.03982637469493632,FRAUD,92.3499958118835
Cascade,0.7461390157057577,FRAUD,64.83700774191739
Wallingford,0.3844543056260858,FRAUD,94.22474852886495
Uptown,1.032746073971095,OTHER PROPERTY,88.38399931199098
Crown Hill,0.23438029768416482,FRAUD,97.40413187484185
Yesler Terrace ,0.27298083847535715,FRAUD,85.98533143537104
Waterfront,0.35280525306216304,FRAUD,77.46105610444151
Alki,0.02620665402931419,FRAUD,71.04188915620455
Hawthorne Hills,0.08563973548173873,FRAUD,91.55077733801271
Lakewood,0.021588400460954206,FRAUD,76.71364359561875
Gatewood,0.01582283850872956,FRAUD,73.95057425933989
Jackson Place ,0.13187392715181245,FRAUD,81.38192574755345
Madison Valley,0.10414838650512445,FRAUD,77.5247797869976
Hillman City,0.01765386374714696,FRAUD,76.37077953758802
Bryant,0.12684916999313223,FRAUD,93.17646767108302
North Beach,0.23367033367294,FRAUD,97.71509364751567
Roosevelt,1.0408401248973183,FRAUD,99.0528397521951
North College Park,0.1453374576277567,FRAUD,95.77151754164309
Bitter Lake,0.04877775161488559,FRAUD,93.5468552348386
Brighton,0.013504957293815172,FRAUD,76.7218638445652
West Queen Anne,0.21795623858103125,OTHER PROPERTY,55.456399475986224
Georgetown,0.018447210581468833,FRAUD,74.9067855886492
Genesee,0.024050072544349693,FRAUD,71.59284092612994
Belltown,0.5927523103192951,FRAUD,50.10219234428744
Holly Park ,0.014964513945724386,FRAUD,76.31709030554583
Madison Park,0.07215987119057335,FRAUD,79.50776411093292
Rainier Beach,0.009034996356220706,FRAUD,77.46690880532614
Fairmount Park,0.02111096256664982,FRAUD,72.60574827519206
Meadowbrook,0.058549180132252444,FRAUD,93.02369020653128
West Woodland,1.1758021118246977,FRAUD,98.59557017938485
Northgate,0.07723476761903801,FRAUD,94.22817608191329
Seward Park,0.016120827260575378,FRAUD,76.92660065145444
University District,0.4336470527635379,FRAUD,96.16029910691563
First Hill,1.458139860582462,FRAUD,95.32687521425609
Columbia City,0.02281046498040235,FRAUD,76.1139807065036
North Beacon Hill,0.05009979830694698,FRAUD,75.85136009076976
