hood,influence,largestInfluencer,largestInfluencerPercent
Fremont,0.08239851232062093,FRAUD,93.1909522581478
Junction,0.050069022341155296,FRAUD,79.28868618054656
Central,0.3051041825753797,FRAUD,85.36197769755945
Ravenna,0.45671638839086875,FRAUD,99.17597558347616
Garfield,0.16805700726020467,FRAUD,93.96357341937367
Seaview,0.03575296074318385,FRAUD,78.13380210388182
Green Lake,0.07341073099810035,FRAUD,95.14156162740836
Minor,0.45604449795909613,FRAUD,87.87909267824101
Roxhill,0.0256381679109458,FRAUD,74.07496285587611
Rainier View,0.015281398455045031,FRAUD,71.46610160878528
Denny - Blaine,0.24372716180741485,FRAUD,92.173283866568
Broadview,0.020509588217985826,FRAUD,92.27331382946959
Pioneer Square,3.1355248118232795,FRAUD,98.31176085680109
Beacon Hill,0.07393284174651327,FRAUD,55.26401075588127
Lower Queen Anne,0.16686131753540964,FRAUD,92.71936936318869
High Point,0.046995359346207764,FRAUD,74.59469117182834
Industrial District,0.12904839328817802,FRAUD,61.80017445697003
Blue Ridge,0.024057500063212185,FRAUD,91.5473387629307
Maple Leaf,0.0960792810699976,FRAUD,97.42953686242573
Greenwood,0.03703341935190498,FRAUD,93.70776455989997
Broadmoor,0.1990298023082612,FRAUD,94.53205883520643
View Ridge,0.17013640363613589,FRAUD,98.23858519269233
East Queen Anne,0.13796151256573094,FRAUD,93.80503672144776
Whittier Heights,0.03726185300018695,FRAUD,92.5048769953196
Riverview,0.04732079312163267,FRAUD,70.75853071014805
Denny Triangle,0.6518932055393056,FRAUD,97.72666259692032
Wedgwood,0.6575171791885823,FRAUD,99.57459862155444
Eastlake,0.22094924980272124,FRAUD,95.87176178846804
North Delridge,0.07210899150020474,FRAUD,75.97478354093941
Capitol Hill,2.374662469728919,FRAUD,99.25787548553471
Atlantic,0.4839253691113594,FRAUD,65.25853100732695
South Park,0.03512831413194273,FRAUD,67.66790705106186
Matthews Beach,0.12076307518270507,FRAUD,97.96665557408237
Mt. Baker,0.346155815116348,[INC - CASE DC USE ONLY],69.94380469332118
Magnolia,0.04481396446969898,FRAUD,89.48661471959853
Sunset Hill,0.02560194679956465,FRAUD,90.57542093609356
Montlake,0.23094418268264644,FRAUD,95.89680736168883
Victory Heights,0.055724130667651736,FRAUD,96.462462667971
Phinney Ridge,0.051112197971556146,FRAUD,93.24727969360082
Windermere,0.08635446868397366,FRAUD,95.57846505663434
Haller Lake,0.029362499728029984,FRAUD,94.18828434175019
Highland Park,0.027854652833341167,FRAUD,71.28978417570127
Admiral,0.058208819167931,FRAUD,83.1806731317462
Little Saigon,0.9069702695798113,FRAUD,95.28071792936721
Olympic Manor,0.9069702695798113,FRAUD,95.28071792936721
South Beacon Hill,0.03269457389428603,FRAUD,65.28529236419308
Fauntleroy,0.022024533501696187,FRAUD,75.4586695157356
Westlake,0.23120514618848131,FRAUD,95.10465287854727
Leschi,0.2491124582360873,FRAUD,68.69442724411331
South Lake Union,0.4596939181258447,FRAUD,96.59488547521437
Cedar Park,0.03438991145759358,FRAUD,95.1383574690618
Interbay,0.06108419088868674,FRAUD,90.68618216966344
Madrona,0.2492138628404841,FRAUD,88.5254671296433
Downtown,0.9069702695798113,FRAUD,95.28071792936721
North Queen Anne,0.0786616451266952,FRAUD,92.05353770130709
Portage Bay,0.17071059456599852,FRAUD,95.36076128623618
Laurelhurst,0.10103584581123991,FRAUD,94.897164059594
Dunlap,0.025407447932441596,FRAUD,67.44038866760972
Judkins Park,0.43163537676045427,[INC - CASE DC USE ONLY],56.08969711521467
International District,1.4510158491499294,FRAUD,93.2919719018866
Arbor Heights,0.016922253960408477,FRAUD,75.46281468551346
South Delridge,0.027333837424494852,FRAUD,72.95642761097372
Ballard,0.031517636481943244,FRAUD,91.34293710805568
Pinehurst,0.04265199338764327,FRAUD,95.54740368955254
Loyal Heights,0.030575844862683218,FRAUD,91.45659121638968
Olympic Hills,0.0316833677801288,FRAUD,94.84071889367243
Cascade,0.6055996878289572,FRAUD,96.8909257139476
Wallingford,0.0944676022421677,FRAUD,94.53198432061858
Uptown,0.16686131753540964,FRAUD,92.71936936318869
Crown Hill,0.029759366534211625,FRAUD,92.48878835580382
Yesler Terrace ,0.7133559304550503,FRAUD,89.3744779961195
Waterfront,0.851837143635686,FRAUD,95.86023287337409
Alki,0.039393374576800005,FRAUD,82.60161771079589
Hawthorne Hills,0.14561551084171195,FRAUD,97.34953428958048
Lakewood,0.06959445975006727,FRAUD,55.8663657383551
Gatewood,0.03044418670619116,FRAUD,76.04766927045138
Jackson Place ,0.4868666137114589,FRAUD,72.29971618659864
Madison Valley,0.3626479829476863,FRAUD,94.54359054758477
Hillman City,0.051851677580835163,FRAUD,59.243323559650285
Bryant,0.1913322934925079,FRAUD,97.84447771601903
North Beach,0.024057500063212185,FRAUD,91.5473387629307
Roosevelt,0.1883769858399874,FRAUD,98.09126859072614
North College Park,0.05383436168332828,FRAUD,95.493557841037
Bitter Lake,0.02117777223813736,FRAUD,92.81833399313052
Brighton,0.03316051963560262,FRAUD,64.76124987835914
West Queen Anne,0.09504666472818951,FRAUD,91.55547691646343
Georgetown,0.05280563613291632,FRAUD,63.644691302069106
Genesee,0.04502939726753674,FRAUD,79.81828600665415
Belltown,0.3307985977377472,FRAUD,93.69743032341414
Holly Park ,0.03938653537605693,FRAUD,63.01914139685311
Madison Park,0.1422972573021319,FRAUD,92.50824846881736
Rainier Beach,0.018137759065989096,FRAUD,70.24378676986667
Fairmount Park,0.04401906471082472,FRAUD,76.84389988132348
Meadowbrook,0.07942209467680664,FRAUD,97.33637526468058
West Woodland,0.04818300708703857,FRAUD,92.16475617639342
Northgate,0.050364675497483975,FRAUD,95.92873036432194
Seward Park,0.04275045160359413,FRAUD,62.162990107542946
University District,0.1160598348941211,FRAUD,95.59051304214363
First Hill,0.6297305380550889,FRAUD,93.48372844811838
Columbia City,0.08464160136153329,FRAUD,51.65911431268359
North Beacon Hill,2.083839625282207,[INC - CASE DC USE ONLY],92.49556374764337
