hood,influence,largestInfluencer,largestInfluencerPercent
Fremont,316.494639092149,CAR PROWL,20.725946292373617
Junction,296.7416835974073,STOLEN PROPERTY,46.7220719087058
Central,305.0769548707634,BURGLARY,18.774116644063255
Ravenna,122.69228296252126,OTHER PROPERTY,17.72484809403735
Garfield,280.06125977487915,CAR PROWL,28.649570822351468
Seaview,91.76487850133198,CAR PROWL,36.58656740039905
Green Lake,120.42526469189171,CAR PROWL,22.592986089706717
Minor,802.1724291251936,CAR PROWL,51.603566096693854
Roxhill,92.8701359575313,CAR PROWL,19.59841280606667
Rainier View,79.92728046832688,BURGLARY,27.298056645821
Denny - Blaine,111.69711730511158,CAR PROWL,16.494934354247434
Broadview,45.8466448320124,CAR PROWL,26.907366974837775
Pioneer Square,7953.063923650622,OTHER PROPERTY,17.467184820344006
Beacon Hill,184.7633589487485,VEHICLE THEFT,20.62128924450516
Lower Queen Anne,865.469232910059,OTHER PROPERTY,17.117074424001963
High Point,84.2141595410137,CAR PROWL,17.349306880266155
Industrial District,2335.1082994063468,CAR PROWL,48.802670469063216
Blue Ridge,117.0707859061727,CAR PROWL,33.21566036438349
Maple Leaf,7789.09871812543,FRAUD,49.545522464311404
Greenwood,275.9584987266846,PROPERTY DAMAGE,45.12277041417063
Broadmoor,90.574228518267,CAR PROWL,22.917870877006447
View Ridge,47.769336497523604,OTHER PROPERTY,21.939037975108477
East Queen Anne,568.0419270944133,BURGLARY,38.34545634943242
Whittier Heights,148.7106498993883,CAR PROWL,19.49580853621789
Riverview,80.40646496367965,CAR PROWL,32.5347551820791
Denny Triangle,389.6239078195047,CAR PROWL,37.287676869358656
Wedgwood,264.29487168479955,TRESPASS,55.48096901856009
Eastlake,326.92065488343565,CAR PROWL,26.428225672904034
North Delridge,116.11084351283577,OTHER PROPERTY,18.203360534653658
Capitol Hill,679.5744003406734,CAR PROWL,24.254244929553728
Atlantic,384.18273285996554,CAR PROWL,32.09574835546523
South Park,402.7158408414547,VEHICLE THEFT,63.29290510454218
Matthews Beach,40.36353425083186,OTHER PROPERTY,23.1486836134435
Mt. Baker,153.7164526348914,VEHICLE THEFT,19.43079369937894
Magnolia,79.14832643156484,CAR PROWL,21.790309666047566
Sunset Hill,69.20905358747079,CAR PROWL,31.881298385758907
Montlake,188.43177005322687,TRESPASS,34.01525271734528
Victory Heights,88.42906782979324,OTHER PROPERTY,17.526016470786402
Phinney Ridge,173.6720987597793,CAR PROWL,30.40848474930539
Windermere,52.67393516621171,CAR PROWL,32.999959550061355
Haller Lake,83.24890982563159,CAR PROWL,18.093946583761642
Highland Park,10512.145463283665,ASSAULT,49.322905470013076
Admiral,108.01398723977859,OTHER PROPERTY,19.179770200220148
Little Saigon,1414.286411505321,OTHER PROPERTY,15.7635764501108
Olympic Manor,1414.286411505321,OTHER PROPERTY,15.7635764501108
South Beacon Hill,278.93163328001845,ANIMAL COMPLAINT,25.527900073816458
Fauntleroy,52.271460412908915,OTHER PROPERTY,24.466262369273267
Westlake,455.75810868498695,BURGLARY,36.288603391114435
Leschi,524.7271385689552,THREATS,55.19572150361811
South Lake Union,515.0648878221967,CAR PROWL,27.288743706084514
Cedar Park,559.7609863132038,OTHER PROPERTY,65.5259532353315
Interbay,107.86200895044813,CAR PROWL,23.852837811195492
Madrona,165.13837413603494,CAR PROWL,16.287172592083806
Downtown,1414.286411505321,OTHER PROPERTY,15.7635764501108
North Queen Anne,161.72832919781752,CAR PROWL,31.545291646243694
Portage Bay,217.30894162715373,OTHER PROPERTY,21.204968893385303
Laurelhurst,69.42049725914275,CAR PROWL,20.49965481343097
Dunlap,261.39395426159587,CAR PROWL,25.306513167183933
Judkins Park,341.046696695596,BURGLARY,29.765947390230178
International District,3787.0902310020497,WARRANT ARREST,60.38978615813835
Arbor Heights,52.422357991206205,DISTURBANCE,26.22780962558029
South Delridge,396.2744324244708,PROPERTY DAMAGE,37.09814218355834
Ballard,230.08046939038042,FRAUD,41.49219593143711
Pinehurst,153.55152416498805,CAR PROWL,18.536639973579238
Loyal Heights,170.5746442404659,CAR PROWL,50.854572709878184
Olympic Hills,107.96008829779132,PROPERTY DAMAGE,24.20395259399892
Cascade,716.106124702701,ROBBERY,15.396114564342417
Wallingford,303.51925628535764,BURGLARY,30.22647361986717
Uptown,865.469232910059,OTHER PROPERTY,17.117074424001963
Crown Hill,1091.39940157258,VEHICLE THEFT,83.12724583508954
Yesler Terrace ,1575.107241735377,DUI,42.9223930520521
Waterfront,1026.911541643037,CAR PROWL,31.761451545740808
Alki,123.88430783016705,CAR PROWL,39.10692318589778
Hawthorne Hills,148.3272397279721,CAR PROWL,68.08080340614742
Lakewood,155.28686114790347,BURGLARY,32.47785729570526
Gatewood,64.58609382571875,CAR PROWL,26.784469352865464
Jackson Place ,398.66053580016245,CAR PROWL,21.435177149149727
Madison Valley,186.03240005722918,OTHER PROPERTY,19.94813008176339
Hillman City,275.20762188995013,CAR PROWL,19.94508886602973
Bryant,156.47073584504378,OTHER PROPERTY,45.65770041711855
North Beach,117.0707859061727,CAR PROWL,33.21566036438349
Roosevelt,280.19852511035066,SHOPLIFTING,21.353573766441155
North College Park,189.73689221937698,CAR PROWL,38.77712871544167
Bitter Lake,171.00299122726233,CAR PROWL,22.12243315567809
Brighton,538.8594210766246,BURGLARY,35.490782773258395
West Queen Anne,219.50236473725278,CAR PROWL,42.270291446281185
Georgetown,315.58718815622024,VEHICLE THEFT,40.47318676125713
Genesee,122.2689356751074,VEHICLE THEFT,21.126993158081696
Belltown,503249.9468724889,WARRANT ARREST,79.66471400715422
Holly Park ,214.55831695597058,VEHICLE THEFT,26.103674574182303
Madison Park,123.49556565580667,CAR PROWL,33.482092785474414
Rainier Beach,273.8871226630902,CAR PROWL,69.90025835452965
Fairmount Park,109.43801627331362,THREATS,16.38012104857974
Meadowbrook,142.03391821724247,OTHER PROPERTY,21.81557985738525
West Woodland,236.68830767973657,OTHER PROPERTY,26.74582998055959
Northgate,1107.5864642664226,CAR PROWL,25.08965830749439
Seward Park,90.18776208805669,BURGLARY,35.10714849245049
University District,1808.9738428974222,WARRANT ARREST,18.59051172611062
First Hill,7025.565527973272,WARRANT ARREST,82.98951216004093
Columbia City,1586.7648285759974,CAR PROWL,39.31654262362622
North Beacon Hill,299.64377650650124,CAR PROWL,33.00317622887962
