hood,influence,largestInfluencer,largestInfluencerPercent
Fremont,275.44695770962977,CAR PROWL,18.613201001269257
Junction,402.47301770244127,CAR PROWL,26.690495076737815
Central,450.3305090866817,OTHER PROPERTY,16.90926278759423
Ravenna,238.18580047070887,CAR PROWL,47.16912545484521
Garfield,336.6885994612589,CAR PROWL,36.28411810686378
Seaview,116.57250014948167,FRAUD,35.618426849675814
Green Lake,166.48331509888348,CAR PROWL,41.73063892916283
Minor,496.7806317430411,CAR PROWL,25.120224187401327
Roxhill,187.976462327682,STOLEN PROPERTY,28.916516894360033
Rainier View,96.10387704965376,THREATS,33.60952598693345
Denny - Blaine,135.2364437774442,CAR PROWL,20.247565333437144
Broadview,77.43759657909521,BURGLARY,17.91233568774633
Pioneer Square,14344.022360354842,CAR PROWL,25.241104698544632
Beacon Hill,124.56000266645206,VEHICLE THEFT,25.105973926517887
Lower Queen Anne,2182.75234998564,ROBBERY,25.2828068566069
High Point,1814.8069670017182,DISTURBANCE,94.27223903298612
Industrial District,98.1634985503506,CAR PROWL,18.61478505779142
Blue Ridge,139.528526423143,CAR PROWL,32.116888958592035
Maple Leaf,199.89687201443738,VEHICLE THEFT,29.68327907753195
Greenwood,354.08188391070246,BURGLARY,34.75651794771747
Broadmoor,97.78518792205286,CAR PROWL,26.504900659695828
View Ridge,71.18429864398668,CAR PROWL,28.22292433977138
East Queen Anne,267.1980196277257,CAR PROWL,29.790255280192483
Whittier Heights,158.4960547661154,CAR PROWL,16.10446508562467
Riverview,76.95969136987301,VEHICLE THEFT,15.885651788367145
Denny Triangle,486.05522583664964,CAR PROWL,50.82515905198135
Wedgwood,143.43171446823075,CAR PROWL,31.028772937774903
Eastlake,334.7154786990201,CAR PROWL,20.82428595656219
North Delridge,147.57184631486538,OTHER PROPERTY,33.75287230649459
Capitol Hill,870.3182068760572,CAR PROWL,32.618541875772515
Atlantic,556.3356282750392,BURGLARY,24.782503664953225
South Park,345.3706040694521,PROPERTY DAMAGE,39.822829008365154
Matthews Beach,61.81720675598805,CAR PROWL,25.533192587995394
Mt. Baker,295.3725307175503,CAR PROWL,33.31224531319402
Magnolia,89.88415725788728,CAR PROWL,23.694495226431467
Sunset Hill,113.51194397221767,CAR PROWL,50.20430124605727
Montlake,701.6071568587745,OTHER PROPERTY,79.24516962704563
Victory Heights,133.28958283826498,CAR PROWL,20.759486952767965
Phinney Ridge,157.0630965744763,CAR PROWL,23.530800073532085
Windermere,80.29599491863125,CAR PROWL,42.589404574697575
Haller Lake,150.9661831941127,PROPERTY DAMAGE,16.436785607225367
Highland Park,5413.913713881008,DISPUTE,95.72924803881102
Admiral,86.55808348849865,CAR PROWL,22.560091727814868
Little Saigon,2206.2210900649275,CAR PROWL,31.932796183559805
Olympic Manor,2206.2210900649275,CAR PROWL,31.932796183559805
South Beacon Hill,183.60979059689456,SHOPLIFTING,22.24378635882598
Fauntleroy,160.80220324356267,VEHICLE THEFT,50.50371216255056
Westlake,544.2597929576211,CAR PROWL,50.378738808814944
Leschi,228.4194359947702,CAR PROWL,17.818501248128424
South Lake Union,8718.452844817171,BURGLARY,93.00742941769933
Cedar Park,606.0520666910448,WARRANT ARREST,56.16204777209593
Interbay,116.27616283977666,CAR PROWL,22.256974890497887
Madrona,193.29155279266791,BURGLARY,23.074264094379224
Downtown,2206.2210900649275,CAR PROWL,31.932796183559805
North Queen Anne,156.55920277938702,CAR PROWL,24.392000189725373
Portage Bay,235.20023515371815,CAR PROWL,32.333382622244685
Laurelhurst,129.31846117294393,CAR PROWL,22.443839391319788
Dunlap,247.24278128531375,VEHICLE THEFT,23.194361552941313
Judkins Park,401.9446075512478,BURGLARY,32.98225768169842
International District,4367.55597428347,BURGLARY,30.369019668641936
Arbor Heights,73.6572240740205,BURGLARY,32.42231348212212
South Delridge,348.3063024609526,VEHICLE THEFT,44.90347435606489
Ballard,111.90056912237624,CAR PROWL,21.27384912169304
Pinehurst,365.63807798008526,CAR PROWL,39.76629289717502
Loyal Heights,117.16615064082764,CAR PROWL,18.90415774178318
Olympic Hills,101.87481001743855,CAR PROWL,14.71937397705846
Cascade,858.9501702258548,CAR PROWL,23.707539693866977
Wallingford,290.47317607414226,CAR PROWL,31.1992234230597
Uptown,2182.75234998564,ROBBERY,25.2828068566069
Crown Hill,557.4993514344816,BURGLARY,43.88579012673577
Yesler Terrace ,1042.0069056239074,CAR PROWL,22.90616440988105
Waterfront,2437.374688766025,CAR PROWL,60.00170198139065
Alki,64.54785270632932,CAR PROWL,27.257067080339784
Hawthorne Hills,100.74227995615242,CAR PROWL,39.107666480384445
Lakewood,107.75214124145144,BURGLARY,31.70160077639701
Gatewood,101.30994815976246,CAR PROWL,20.406783566417037
Jackson Place ,438.17344695969075,CAR PROWL,17.14917202730081
Madison Valley,208.17680751362474,BURGLARY,26.15469960467165
Hillman City,151.270900879818,OTHER PROPERTY,27.813433854908517
Bryant,113.58905804856472,CAR PROWL,34.593242295990045
North Beach,139.528526423143,CAR PROWL,32.116888958592035
Roosevelt,401.30514917719574,CAR PROWL,26.488658070680486
North College Park,232.49151716964707,OTHER PROPERTY,27.93042293040162
Bitter Lake,195.34723095608138,CAR PROWL,16.40897891616183
Brighton,193.96548067325102,VEHICLE THEFT,23.82789474554828
West Queen Anne,179.7560269263504,CAR PROWL,26.523251549461882
Georgetown,108.30968118046962,BIKE THEFT,20.077265274236975
Genesee,116.55246753440592,CAR PROWL,21.919032062357964
Belltown,402974.3976887343,WARRANT ARREST,24.916940758315747
Holly Park ,205.19828833015492,FRAUD,15.757285344526103
Madison Park,196.24550150713483,PROPERTY DAMAGE,41.21361741605015
Rainier Beach,78.30288322547757,BURGLARY,15.127022036333182
Fairmount Park,164.9973173917373,DUI,25.857768284858267
Meadowbrook,131.49220698311228,OTHER PROPERTY,24.422643288170963
West Woodland,226.75937734536714,WARRANT ARREST,23.03479712221742
Northgate,1395.3216542533935,OTHER PROPERTY,25.317879022028457
Seward Park,97.55434177229026,BURGLARY,27.741188874879825
University District,1715.947062505416,NARCOTICS,18.483355976615425
First Hill,2665.0262779692202,CAR PROWL,21.199216076074656
Columbia City,1989.012591410602,OTHER PROPERTY,59.316765324038506
North Beacon Hill,454.73139003184417,ROBBERY,23.429114781606827
