hood,influence,largestInfluencer,largestInfluencerPercent
Fremont,595.3902531884196,CAR PROWL,20.494275881217973
Junction,658.3805367606536,BURGLARY,24.58866876235581
Central,685.8999386772072,CAR PROWL,14.78998068411773
Ravenna,329.96677394007787,BURGLARY,28.949823502795997
Garfield,623.616774370323,CAR PROWL,26.854866931508788
Seaview,239.17793964549776,CAR PROWL,21.948199197007735
Green Lake,242.91577517643307,CAR PROWL,23.660688154084873
Minor,1345.2225511389074,OTHER PROPERTY,17.164545380690456
Roxhill,328.06727724646623,CAR PROWL,24.441469402114254
Rainier View,185.13664060076948,OTHER PROPERTY,32.857014400494656
Denny - Blaine,226.61148684924535,CAR PROWL,15.467777150483633
Broadview,1663.24660062034,WARRANT ARREST,92.68372086949795
Pioneer Square,9233.66382133731,OTHER PROPERTY,35.28653347394316
Beacon Hill,371.0812585753425,BURGLARY,55.26823304948966
Lower Queen Anne,5247.653560902468,ASSAULT,23.895851565109844
High Point,292.9663875071006,BURGLARY,24.04580002750168
Industrial District,159.95733191325903,OTHER PROPERTY,15.065742062803837
Blue Ridge,182.9838161107611,BURGLARY,27.689635052703817
Maple Leaf,399.00848652999775,BURGLARY,25.07997601042723
Greenwood,1070.790785980569,OTHER PROPERTY,50.869646390427484
Broadmoor,201.2752173272877,FRAUD,18.869435874681674
View Ridge,161.8653086069486,FRAUD,33.43028859273603
East Queen Anne,972.0208818528404,PROPERTY DAMAGE,43.8906559730819
Whittier Heights,368.0116953349862,VEHICLE THEFT,20.829596729397736
Riverview,211.6360147882254,VEHICLE THEFT,17.990304120869784
Denny Triangle,2541.516074984762,TRESPASS,64.3789376717627
Wedgwood,1634.604376870238,CAR PROWL,36.48765010171342
Eastlake,1779.0271867737306,FRAUD,34.82286643502409
North Delridge,286.96649495021387,CAR PROWL,22.09534828669786
Capitol Hill,1664.1884256802186,VEHICLE THEFT,27.933246273983226
Atlantic,780.6132497627934,CAR PROWL,19.965071848804627
South Park,396.74717532349996,BURGLARY,24.560828838339877
Matthews Beach,129.41211638666212,BURGLARY,24.69466272082626
Mt. Baker,747.2471081943563,FRAUD,58.698909017812475
Magnolia,244.28418828747786,SHOPLIFTING,17.78935558203413
Sunset Hill,121.99641027235508,CAR PROWL,20.29081206664589
Montlake,278.7423950306787,CAR PROWL,25.691426391300418
Victory Heights,347.41691727295046,BURGLARY,42.52920622610292
Phinney Ridge,455.11824010317065,CAR PROWL,28.771087779551976
Windermere,2084.233137049491,OTHER PROPERTY,93.08867729530043
Haller Lake,242.0616311877307,CAR PROWL,18.265841472725324
Highland Park,318.5409846390422,VEHICLE THEFT,25.8505883351818
Admiral,216.09474687974193,CAR PROWL,27.131053867555302
Little Saigon,3988.312252596534,CAR PROWL,19.02775533675876
Olympic Manor,3988.312252596534,CAR PROWL,19.02775533675876
South Beacon Hill,258.63400902696617,VEHICLE THEFT,35.79895139441626
Fauntleroy,518.4418122241801,CAR PROWL,69.72866593858797
Westlake,741.7803050975485,BURGLARY,25.589770913939653
Leschi,483.69354376255114,OTHER PROPERTY,18.63470807651108
South Lake Union,964.7712120513225,CAR PROWL,28.108417408158324
Cedar Park,846.153500935614,SHOPLIFTING,20.60080254936203
Interbay,224.4792889587018,CAR PROWL,18.704171930073002
Madrona,1341.2747875088814,BURGLARY,32.60016032318157
Downtown,3988.312252596534,CAR PROWL,19.02775533675876
North Queen Anne,340.11508027668503,CAR PROWL,24.795746823482897
Portage Bay,425.5829035086196,BURGLARY,17.030184673133032
Laurelhurst,225.76647848214384,OTHER PROPERTY,29.91266852095943
Dunlap,461.2288954931137,ROBBERY,24.002667042687623
Judkins Park,911.7124397132582,OTHER PROPERTY,24.16521883605013
International District,2348.0688473599594,LOST PROPERTY,20.488397517921868
Arbor Heights,207.32470632286513,CAR PROWL,26.457057672801874
South Delridge,1322.0193719153656,PROPERTY DAMAGE,26.391424775798587
Ballard,247.22161649653287,OTHER PROPERTY,15.588160247649604
Pinehurst,716.3271012764335,DISTURBANCE,31.87701864228253
Loyal Heights,2528.273389258775,VEHICLE THEFT,92.404620542359
Olympic Hills,895.217998755927,BURGLARY,80.90644963495049
Cascade,201671.86464631735,OTHER PROPERTY,99.27968365983455
Wallingford,1342.2153643538975,CAR PROWL,32.41228498930374
Uptown,5247.653560902468,ASSAULT,23.895851565109844
Crown Hill,236.42902885627237,CAR PROWL,22.0318435058726
Yesler Terrace ,1617.1738646298786,BURGLARY,21.688256382340843
Waterfront,9932.420818228497,CAR PROWL,79.52935429952018
Alki,235.67734909358842,CAR PROWL,42.2353775150763
Hawthorne Hills,177.13370250877873,BURGLARY,17.966401103713757
Lakewood,156.550899504129,CAR PROWL,19.910992872636132
Gatewood,224.80410312785654,CAR PROWL,20.962455348043644
Jackson Place ,828.3544943353263,CAR PROWL,19.094011962409375
Madison Valley,331.65802274513055,CAR PROWL,18.820373787251032
Hillman City,281.9117330018853,OTHER PROPERTY,17.66405316547237
Bryant,410.3726671912423,CAR PROWL,45.038250514453935
North Beach,182.9838161107611,BURGLARY,27.689635052703817
Roosevelt,680.7361225578462,VEHICLE THEFT,33.291979558979406
North College Park,399.35138759943356,OTHER PROPERTY,18.4575124621016
Bitter Lake,352.3618242527466,CAR PROWL,17.84610128498666
Brighton,376.31640622937726,VEHICLE THEFT,22.600111068858467
West Queen Anne,452.85599573823436,CAR PROWL,25.69280505974551
Georgetown,763.2964820383562,OTHER PROPERTY,30.951942896389774
Genesee,275.0969395066276,CAR PROWL,32.71602873403637
Belltown,404378.63059650594,NARCOTICS,49.611016841411605
Holly Park ,415.12472849796194,OTHER PROPERTY,15.417492794264822
Madison Park,278.92452737175665,CAR PROWL,53.12360016247221
Rainier Beach,145.9013611357287,MAIL THEFT,18.79711570659129
Fairmount Park,259.63126189321264,CAR PROWL,17.5167561004988
Meadowbrook,209.69549035286923,CAR PROWL,21.442086337144175
West Woodland,488.6214965743573,CAR PROWL,30.94239336206914
Northgate,162433.01637470015,OTHER PROPERTY,98.21682914539767
Seward Park,157.372847786869,CAR PROWL,15.760317922519429
University District,2890.5529374165744,WARRANT ARREST,22.376520625678843
First Hill,5666.097930562723,SHOPLIFTING,18.258622022765593
Columbia City,1054.497781469024,CAR PROWL,26.136925475901503
North Beacon Hill,795.218937114039,CAR PROWL,29.132263848149798
