hood,influence,largestInfluencer,largestInfluencerPercent
Fremont,548.1082451036301,CAR PROWL,22.631768096224064
Junction,498.87115457163804,EMBEZZLE,40.38197725379502
Central,892.6419328022279,OTHER PROPERTY,50.04430253875084
Ravenna,415.4611826011254,BURGLARY,32.20894377580896
Garfield,549.3683835626812,CAR PROWL,36.04983831233236
Seaview,142.25277842058284,FRAUD,14.80733305490464
Green Lake,287.41804503970656,CAR PROWL,22.574503033882035
Minor,1012.2915660538062,OTHER PROPERTY,24.417403325140192
Roxhill,242.55525581579215,CAR PROWL,22.978095565808605
Rainier View,113.71407043205622,BURGLARY,23.82088749753914
Denny - Blaine,218.9317143897344,CAR PROWL,22.013157034550826
Broadview,139.59228531165306,CAR PROWL,23.71166708874668
Pioneer Square,10285.47413228683,WARRANT ARREST,23.709472388808646
Beacon Hill,351.0717215440287,VEHICLE THEFT,47.59775450140501
Lower Queen Anne,3114.64997086569,THREATS,18.00720246258375
High Point,204.01660207504074,OTHER PROPERTY,22.96082276280761
Industrial District,157.40197155301385,CAR PROWL,21.250023679480517
Blue Ridge,137.42449013743885,CAR PROWL,15.278650227568344
Maple Leaf,298.63074147253553,BURGLARY,22.4756266807313
Greenwood,440.45232621189353,VEHICLE THEFT,18.317957275260838
Broadmoor,194.53952674106287,CAR PROWL,30.790663894307198
View Ridge,102.62286891812538,CAR PROWL,18.32809773166496
East Queen Anne,394.7296392995705,CAR PROWL,27.641965024465854
Whittier Heights,585.6452977223992,BURGLARY,27.60769599301852
Riverview,147.48794151033167,CAR PROWL,16.841674862573523
Denny Triangle,734.6076238940802,CAR PROWL,25.799587124772973
Wedgwood,661.679769106709,SHOPLIFTING,67.00356000619458
Eastlake,656.9267361732228,CAR PROWL,29.985220153283482
North Delridge,141.5325673775105,CAR PROWL,14.997769081235875
Capitol Hill,3296.2695918233003,OTHER PROPERTY,59.15465412969611
Atlantic,870.7432786495865,CAR PROWL,13.790146213572049
South Park,350.9432160400545,BURGLARY,52.11987414945463
Matthews Beach,93.76248844468971,CAR PROWL,15.691937173579639
Mt. Baker,358.0365937369657,OTHER PROPERTY,24.579183272641963
Magnolia,249.52930715360998,OTHER PROPERTY,27.382150177416463
Sunset Hill,165.5677013452992,BURGLARY,20.66396606828903
Montlake,311.2579396065273,CAR PROWL,22.214457288848095
Victory Heights,313.52980184954316,BURGLARY,25.48044355847256
Phinney Ridge,416.38048226769195,VEHICLE THEFT,27.21060367289967
Windermere,118.78498297171433,BURGLARY,26.789285637979603
Haller Lake,280.2375600632535,CAR PROWL,19.37957613625777
Highland Park,358.5512567588293,VEHICLE THEFT,26.581526225346135
Admiral,225.19212886356644,OTHER PROPERTY,28.452701341640765
Little Saigon,4230.809783953084,OTHER PROPERTY,20.24092589520721
Olympic Manor,4230.809783953084,OTHER PROPERTY,20.24092589520721
South Beacon Hill,476.20297613259805,TRESPASS,29.74689251189947
Fauntleroy,147.8783901624699,CAR PROWL,23.118119747127366
Westlake,582.1092264294241,CAR PROWL,25.253030102848683
Leschi,1252.0582247425164,BURGLARY,52.57814467722093
South Lake Union,8915.547267020787,BURGLARY,91.24570236779115
Cedar Park,1626.0748723921622,OTHER PROPERTY,42.33871777098696
Interbay,246.34353122459746,CAR PROWL,17.907819281399615
Madrona,4466.67644944058,CAR PROWL,82.98475522345639
Downtown,4230.809783953084,OTHER PROPERTY,20.24092589520721
North Queen Anne,309.2724481406725,CAR PROWL,26.81757391362751
Portage Bay,401.0361393581984,CAR PROWL,18.37353075166628
Laurelhurst,165.1683055993851,CAR PROWL,18.419308543511768
Dunlap,510.3826487889145,PROPERTY DAMAGE,12.662184444691334
Judkins Park,548.4778833876474,CAR PROWL,24.32207597124514
International District,4869.343273575468,DISTURBANCE,52.373624190441824
Arbor Heights,98.29249719101107,BURGLARY,16.654966187436653
South Delridge,866.7411902893492,VEHICLE THEFT,35.30249270203134
Ballard,342.036469270872,CAR PROWL,22.3206126999582
Pinehurst,376.45466324029,CAR PROWL,15.61134727357012
Loyal Heights,285.24671979962784,CAR PROWL,21.595374219744393
Olympic Hills,215.5728952960434,BURGLARY,16.38010037904454
Cascade,1231.5514719256637,CAR PROWL,22.31598886629151
Wallingford,692.7257070102014,TRAFFIC,23.89642070224188
Uptown,3114.64997086569,THREATS,18.00720246258375
Crown Hill,351.93606349932327,THREATS,25.27210002162952
Yesler Terrace ,2039.816357237148,OTHER PROPERTY,19.51218787125226
Waterfront,3187.195736996339,CAR PROWL,45.172523159075006
Alki,453.44551337448183,OTHER PROPERTY,72.17258057659403
Hawthorne Hills,165.07537519069777,BURGLARY,18.787935958747312
Lakewood,829.9988880944464,CAR PROWL,58.6956333637617
Gatewood,150.75225373115052,OTHER PROPERTY,11.943690585766507
Jackson Place ,938.3294691348634,CAR PROWL,18.70577572941952
Madison Valley,290.15883938723834,CAR PROWL,23.837966797790976
Hillman City,297.2098565215877,BURGLARY,18.163594423550553
Bryant,315.30762469951884,VEHICLE THEFT,28.799139296168423
North Beach,137.42449013743885,CAR PROWL,15.278650227568344
Roosevelt,14028.091856079853,STOLEN PROPERTY,95.72440012392832
North College Park,655.7950385291607,VEHICLE THEFT,30.09412064789053
Bitter Lake,338.9446070467029,CAR PROWL,22.050989899396303
Brighton,342.2921605406781,BURGLARY,23.147770936637084
West Queen Anne,736.7173311436891,BURGLARY,38.08458169548297
Georgetown,606.738248018447,DISTURBANCE,33.76600266021731
Genesee,163.66393048987828,CAR PROWL,15.8245456102599
Belltown,304427.2300282635,STOLEN PROPERTY,65.7531616847634
Holly Park ,428.8448715377286,WARRANT ARREST,22.553603670144472
Madison Park,354.7613182902506,WARRANT ARREST,45.03978332909579
Rainier Beach,840.0652274353521,CAR PROWL,33.431870182986856
Fairmount Park,209.73879259111945,OTHER PROPERTY,24.19886545148709
Meadowbrook,243.58067344541618,BURGLARY,16.310546094053073
West Woodland,586.9357038619523,CAR PROWL,35.10852022769248
Northgate,162226.8293006908,CAR PROWL,49.359469500558625
Seward Park,1001.0111544845624,BURGLARY,86.34643289589918
University District,2837.6641824465096,DISTURBANCE,17.395463248531108
First Hill,4473.897173664621,OTHER PROPERTY,16.369723026528543
Columbia City,494.3109148044236,CAR PROWL,21.777508679447344
North Beacon Hill,482.18177157117833,CAR PROWL,42.771461799335675
