hood,influence,largestInfluencer,largestInfluencerPercent
Fremont,6739.733170194832,TRAFFIC,93.67828620883206
Junction,245.6194614447113,OTHER PROPERTY,35.062664854344526
Central,474.7418295464073,CAR PROWL,36.168251541964196
Ravenna,861.9454819897636,TRAFFIC,83.12791903994491
Garfield,269.21169477665745,BURGLARY,22.34778072539596
Seaview,78.26016405963814,FRAUD,29.176583995017932
Green Lake,141.11737190636774,CAR PROWL,18.457867139190164
Minor,593.0772972562027,CAR PROWL,30.40560513080458
Roxhill,121.33408333966597,OTHER PROPERTY,14.80043215074367
Rainier View,60.49327823177119,DISTURBANCE,37.24323741832516
Denny - Blaine,152.9624602530778,PROPERTY DAMAGE,24.879064604160888
Broadview,63.09965580351717,CAR PROWL,16.56012116686798
Pioneer Square,6921.194209283839,ASSAULT,24.371375005120296
Beacon Hill,199.7950447398926,PROPERTY DAMAGE,28.282457047680182
Lower Queen Anne,1887.5281871302593,DISTURBANCE,20.02919088959457
High Point,276.2543242055281,BURGLARY,66.09757214506092
Industrial District,80.04830183309615,CAR PROWL,15.10948859586905
Blue Ridge,77.49450450402533,OTHER PROPERTY,13.316644143111438
Maple Leaf,142.67689115967434,CAR PROWL,23.327451079332878
Greenwood,237.93588683355978,CAR PROWL,16.114438526348895
Broadmoor,97.34041090665231,CAR PROWL,22.88112978005708
View Ridge,80.80272394664944,OTHER PROPERTY,38.27111115156366
East Queen Anne,244.42193695892973,VEHICLE THEFT,21.92159524273803
Whittier Heights,186.8244879109446,CAR PROWL,24.223591594064853
Riverview,69.10345913123216,BURGLARY,14.331954842964441
Denny Triangle,415.51493478246783,CAR PROWL,18.656164058370653
Wedgwood,250.1052062209814,SHOPLIFTING,59.43357773468507
Eastlake,277.9356106189782,PROPERTY DAMAGE,28.51333878093467
North Delridge,76.50180503569028,CAR PROWL,13.241830967374073
Capitol Hill,698.9189337429059,CAR PROWL,18.757991285024872
Atlantic,2089.944247067206,CAR PROWL,80.26679453174548
South Park,820.9228156815407,OTHER PROPERTY,84.97706549614084
Matthews Beach,109.81569944505505,ASSAULT,53.994970236243475
Mt. Baker,147.78624590440793,BURGLARY,20.245417263560324
Magnolia,1313.3162001854455,CAR PROWL,91.20822600258637
Sunset Hill,66.6325255930842,CAR PROWL,26.385175307950085
Montlake,206.0697635892115,CAR PROWL,27.425331958531046
Victory Heights,176.52339566832705,BIKE THEFT,24.306788053394413
Phinney Ridge,172.1426021768421,FRAUD,15.946436306155416
Windermere,51.80121136704524,OTHER PROPERTY,15.754526429605804
Haller Lake,114.98776225885469,CAR PROWL,12.215074662101866
Highland Park,272.60987432353164,BURGLARY,23.371042067714423
Admiral,123.59885797409771,CAR PROWL,41.65615851814707
Little Saigon,2341.1119452786047,WARRANT ARREST,13.80805493621808
Olympic Manor,2341.1119452786047,WARRANT ARREST,13.80805493621808
South Beacon Hill,141.89529489209687,DISTURBANCE,25.73582794396201
Fauntleroy,86.76172818729356,FRAUD,20.73270571962021
Westlake,300.6380002009557,CAR PROWL,30.698354058604384
Leschi,335.22513415491056,PROPERTY DAMAGE,29.27653572479316
South Lake Union,538.0100135589948,CAR PROWL,17.77060270626029
Cedar Park,634.2077082280955,OTHER PROPERTY,59.70239565177592
Interbay,136.91421716135244,CAR PROWL,21.474921774726802
Madrona,211.4439862014891,VEHICLE THEFT,26.524814993069743
Downtown,2341.1119452786047,WARRANT ARREST,13.80805493621808
North Queen Anne,146.14016683817604,CAR PROWL,22.683667534767658
Portage Bay,137.30891439889444,CAR PROWL,21.22140899484511
Laurelhurst,83.26817307488524,CAR PROWL,17.834625411300483
Dunlap,162.5682389802824,ELUDING,19.85209852829938
Judkins Park,394.0967676366593,VEHICLE THEFT,21.71241435713
International District,859.4686226920426,WARRANT ARREST,19.182315132627707
Arbor Heights,615.7203517550998,BURGLARY,94.64315273288322
South Delridge,134.5277914111894,BURGLARY,15.01189764477719
Ballard,137.06494081289287,BURGLARY,19.582676548575645
Pinehurst,170.00843096398717,CAR PROWL,16.063239168045182
Loyal Heights,157.96198968201443,VEHICLE THEFT,31.038221232721185
Olympic Hills,110.95479597334274,OTHER PROPERTY,25.258818791731677
Cascade,869.3511200071022,CAR PROWL,20.007017809560708
Wallingford,515.9591052995922,CAR PROWL,21.314742833008548
Uptown,1887.5281871302593,DISTURBANCE,20.02919088959457
Crown Hill,163.22455785238208,ASSAULT,19.786651686644756
Yesler Terrace ,923.4489045576335,CAR PROWL,21.766636772577037
Waterfront,1481.125138259604,CAR PROWL,48.50087859912319
Alki,72.20219065776533,PROPERTY DAMAGE,30.39637847113058
Hawthorne Hills,74.05098693505,PROPERTY DAMAGE,20.299248053452608
Lakewood,99.8200476190334,CAR PROWL,33.627741289124316
Gatewood,71.01155239800991,FRAUD,19.55495778487026
Jackson Place ,641.403335297652,CAR PROWL,24.853135995890096
Madison Valley,335.3435073445274,FRAUD,52.067737673113456
Hillman City,282.88599786777854,VEHICLE THEFT,41.83810015231308
Bryant,159.16841998633575,CAR PROWL,28.888878013244092
North Beach,77.49450450402533,OTHER PROPERTY,13.316644143111438
Roosevelt,285.71655803175685,CAR PROWL,35.108592448460634
North College Park,449.496792412921,DISTURBANCE,56.45031002035156
Bitter Lake,141.3481346648627,OTHER PROPERTY,13.476383324909557
Brighton,230.40357692474717,INJURY,15.12567495933654
West Queen Anne,174.10730671018536,BURGLARY,23.45311058966864
Georgetown,196.22936037205065,TRESPASS,51.03192371764227
Genesee,80.49454587717581,FRAUD,15.702169295871029
Belltown,201771.51501984036,ASSAULT,49.61368264278173
Holly Park ,408.31625767517613,OTHER PROPERTY,16.36456499796685
Madison Park,101.45921124136794,OTHER PROPERTY,23.741430867718723
Rainier Beach,579.6821097830356,CAR PROWL,62.53504218300976
Fairmount Park,127.18317105386285,CAR PROWL,32.89297069000627
Meadowbrook,103.63486981692856,BIKE THEFT,19.26013698105141
West Woodland,195.17161525117675,CAR PROWL,15.427824365581278
Northgate,1559.7227775071074,SHOPLIFTING,32.36338584538272
Seward Park,106.88138800144266,CAR PROWL,28.201218338066365
University District,1812.1005938737221,PROPERTY DAMAGE,25.28444399443971
First Hill,2384.143411230692,THREATS,21.39035990934692
Columbia City,3042.41904087109,BURGLARY,39.153384051363766
North Beacon Hill,544.3682187352904,SHOPLIFTING,32.47826558503801
