year,month,influence
2009,09,51.64299871920462
2009,04,47.5531420794263
2009,12,7.315730970803619
2009,03,9.196391229428958
2009,11,7.092584159117012
2009,07,13.934278570026159
2009,02,8.038352419619272
2009,01,6.310382764815452
2009,08,8.25182526425523
2009,10,6.421437171164434
2009,05,3.367248318310192
2009,06,13.771550008203963
2012,09,16.697795180714042
2012,04,8.14001195166656
2012,12,5.713288149293012
2012,03,10.14708674224192
2012,11,136.84660669561677
2012,07,15.569080272505
2012,02,24.029702969118794
2012,01,9.608837257328068
2012,08,13.07199241692649
2012,10,6.568302573099919
2012,05,4.6073374814960415
2012,06,11.987499476831031
2006,09,6.2766257437235256
2006,04,58.72301342443153
2006,12,5.789235798752594
2006,03,5.80438867940905
2006,11,5.644107581008649
2006,07,10.532575420851945
2006,02,2.7956453111132893
2006,01,6.230343734188404
2006,08,10.058375669937073
2006,10,22.007910365881944
2006,05,11.033761155701399
2006,06,13.109494632415567
2015,09,30.227385483785998
2015,04,12.799385811054089
2015,12,2.330156010937302
2015,03,28.056638961225715
2015,11,105.4065736997004
2015,07,16.019603145952324
2015,02,76.24861477002376
2015,01,8.176477471803736
2015,08,24.936601722965023
2015,10,8.327961267778047
2015,05,10.869910037246632
2015,06,62.742061837889786
2005,09,0.72911988401708
2005,04,35.89347910622988
2005,12,1.5975763470025732
2005,03,3.2570567744393015
2005,11,1.1244216476811044
2005,07,1.8430545877454874
2005,02,0.7266014713921407
2005,01,0.13969069469605316
2005,08,2.0078894709000474
2005,10,2.513239909271327
2005,05,2.653946863988153
2005,06,0.008764181644334368
2013,09,62.483716349386796
2013,04,12.426294548636442
2013,12,9.98777981111915
2013,03,7.5981295393133115
2013,11,48.70254666715042
2013,07,7.0691700388688155
2013,02,9.72545500037994
2013,01,7.89411694582344
2013,08,30.50940979828318
2013,10,28.48716180621316
2013,05,10.22173607196208
2013,06,13.246910783633336
2014,09,8.854671155675952
2014,04,22.512352393299874
2014,12,11.413932634451598
2014,03,277.0703439545704
2014,11,35.44298843137305
2014,07,27.094444511334306
2014,02,11.188917218615375
2014,01,41.947081647677116
2014,08,35.45539843222326
2014,10,23.032988145785456
2014,05,64.92995889051676
2014,06,5.689095042938112
2011,09,8.81525763297238
2011,04,17.776597746118327
2011,12,74.18266677497112
2011,03,61.52555334818577
2011,11,19.013242780020715
2011,07,22.348712643920557
2011,02,5.570434016135291
2011,01,12.155033773811118
2011,08,10.706390877591076
2011,10,74.46953567664102
2011,05,11.86215526881087
2011,06,8.091986363264851
2001,08,1.4147914730781472
2008,09,7.230770519534886
2008,04,4.43571485134039
2008,12,4.675081828818182
2008,03,5.263784210601259
2008,11,20.926233562250566
2008,07,5.172556436449696
2008,02,9.54129762449778
2008,01,20.14497023457168
2008,08,12.622262426456086
2008,10,10.535804887022687
2008,05,25.609723276426983
2008,06,13.360817512788127
2003,11,0.3752405340799586
2003,07,4.4984089312915755e-05
2003,12,0.027812134773356124
2003,10,0.0052564358998200885
2010,09,50.451073946440246
2010,04,4.191921994352285
2010,12,6.056824380701308
2010,03,16.785076657928332
2010,11,4.862492710059581
2010,07,6.326323497317271
2010,02,16.77130421966101
2010,01,9.759111345966886
2010,08,24.69407021940081
2010,10,8.052864646840456
2010,05,5.806633600271087
2010,06,5.23018327021828
2002,09,1.1083047267365473
2002,10,0.008914861817962976
2007,09,11.521602450109754
2007,04,7.100686678505642
2007,12,6.34046630974797
2007,03,9.749561075727637
2007,11,7.551363061828889
2007,07,10.437757321152795
2007,02,38.6571362060035
2007,01,15.988135561374287
2007,08,21.760945574083717
2007,10,20.36012159695707
2007,05,15.29305603664486
2007,06,31.85150569792105
2004,09,0.08948168779829663
2004,04,3.2477248604550177
2004,12,60.452914148739715
2004,03,1.5269357503337329
2004,11,18.05761532709776
2004,07,6.99633962432031
2004,02,1.412965241589091
2004,01,0.00280222591511544
2004,08,0.8564120703064264
2004,10,8.840446789600424
2004,05,12.06809721850679
2004,06,0.03337602283850579
