year,month,influence
2009,09,6.996017851951727
2009,04,9.665249447662207
2009,12,3.8019617904517764
2009,03,4.693786358061206
2009,11,4.6564588781179985
2009,07,9.071841471216775
2009,02,5.855856878980363
2009,01,4.339405450271588
2009,08,250.91855442250764
2009,10,3.643072694916153
2009,05,4.013492403911065
2009,06,29.991106334653267
2012,09,8.781659442439672
2012,04,4.218416454822197
2012,12,2.463798500356998
2012,03,3.017954265888517
2012,11,2.396195685826621
2012,07,5.3865652729318745
2012,02,1.8949638008384264
2012,01,3.897097373523956
2012,08,15.998340704474973
2012,10,6.989230373499663
2012,05,2.6326452411823142
2012,06,3.4268997986715193
2006,09,4.67963373964313
2006,04,5.189427913110005
2006,12,2.3531312763785723
2006,03,5.04608892809358
2006,11,5.7439012274803725
2006,07,3.4006221945457766
2006,02,1.1385510012978328
2006,01,2.2434752994776903
2006,08,3.63561379125805
2006,10,7.999847495122939
2006,05,5.6686059486016465
2006,06,19.649814010395442
2015,09,19.888778779259
2015,04,6.466755839278467
2015,12,2.7546264726601213
2015,03,15.156514051204839
2015,11,9.885154535686581
2015,07,4.906732593610835
2015,02,10.287592969998059
2015,01,5.5628992743754875
2015,08,9.955942278135169
2015,10,5.063604471202987
2015,05,3.140882116137873
2015,06,5.694644700670031
2005,09,2.5694560272103626
2005,04,1.8585972904039771
2005,12,0.5191275904640782
2005,03,5.018166599145977
2005,11,3.388359231695856
2005,07,0.8929184441736132
2005,02,0.038407737373796144
2005,01,0.11091218709726824
2005,08,1.2495437080095966
2005,10,1.3214999916496848
2005,05,1.5909772834614262
2005,06,0.00406471506903395
2013,09,19.511647057863442
2013,04,7.229236291943379
2013,12,4.408070114978289
2013,03,3.510031880039536
2013,11,36.659839249816045
2013,07,3.33909964706696
2013,02,18.485176149711844
2013,01,6.866887742669979
2013,08,5.231941189500341
2013,10,18.86813175085228
2013,05,4.880466993555185
2013,06,22.103843729689736
2014,09,5.244618420331587
2014,04,5.972186456443999
2014,12,6.8663957386311205
2014,03,5.125761915580355
2014,11,21.024232613535208
2014,07,23.485625757112565
2014,02,9.275098456842993
2014,01,9.037249431314779
2014,08,6.109492444607072
2014,10,7.064166028183528
2014,05,5.652395072560289
2014,06,3.770110350518749
2011,09,5.887521039900751
2011,04,9.696671867482088
2011,12,0.9564288572361638
2011,03,5.544648760045421
2011,11,8.360614314908082
2011,07,2.4779210784563315
2011,02,2.0153639537132384
2011,01,8.09529388077652
2011,08,3.2876521669630527
2011,10,4.2112376357864765
2011,05,6.614051447635717
2011,06,4.541025427459713
2001,08,1.4385297599289106
2008,09,30.450559066107246
2008,04,13.991656869068493
2008,12,2.5579530739531586
2008,03,3.6590460935813423
2008,11,2.955128583165218
2008,07,3.047904623693193
2008,02,10.087198994858811
2008,01,10.183092768054905
2008,08,4.447403275222297
2008,10,6.973189760572291
2008,05,85.8041656225846
2008,06,7.772562580783233
2003,11,0.5731053876230147
2003,07,0.001178334081890303
2003,12,0.44503047148945063
2003,10,7.285909925956057
2010,09,8.323739670327544
2010,04,2.0255890355630637
2010,12,3.791818386255975
2010,03,6.999417178228686
2010,11,3.186534747799499
2010,07,13.786298918125238
2010,02,1.1374778925120899
2010,01,1337.6668196925075
2010,08,3.41262005754412
2010,10,4.579974206817261
2010,05,4.702726083499608
2010,06,2.1431792790025384
2002,09,0.02700672139911156
2002,10,0.027121398229726753
2007,09,4.7366903672381655
2007,04,2.7505812022680183
2007,12,5.1695536990180315
2007,03,5.44344931486413
2007,11,6.571533683566365
2007,07,6.2034024604933995
2007,02,15.768307368548536
2007,01,3.026254418915536
2007,08,9.717837642007
2007,10,11.276307557162287
2007,05,6.540829273667376
2007,06,5.198177170720869
2004,09,0.20033361291367852
2004,04,0.8749541705264459
2004,12,8.608536454369647
2004,03,0.19355076473186
2004,11,0.1961250219815775
2004,07,1.214891201899952
2004,02,0.3353736590150549
2004,01,0.003264079203593644
2004,08,0.3156982383802092
2004,10,0.732695982481396
2004,05,0.25786349255173585
2004,06,0.031401017539064234
