year,month,influence
2009,09,111.75617078740144
2009,04,348.43689067108556
2009,12,532.073626797195
2009,03,255.34861703179115
2009,11,394.23405172802995
2009,07,230.65827535392012
2009,02,368.4912888942334
2009,01,122.00838100406668
2009,08,2129.51509577476
2009,10,40.11757691966013
2009,05,48.59000524914881
2009,06,596.6790148904929
2012,09,497.6406929393329
2012,04,248.92128292112088
2012,12,179.3443991558786
2012,03,160.94201886314622
2012,11,205.88725653934782
2012,07,283.11693807276566
2012,02,1427.433860671499
2012,01,200.3377423571876
2012,08,815.6129155988823
2012,10,678.1204539282844
2012,05,214.33945413090893
2012,06,325.05937824395585
2006,09,642.855709044509
2006,04,160.7926175794061
2006,12,386.5819975411833
2006,03,187.77950975969614
2006,11,100.06418312589246
2006,07,185.44566191039203
2006,02,146.70241117996912
2006,01,237.29274396687637
2006,08,200.32682793210455
2006,10,537.8993045729616
2006,05,419.8674474669617
2006,06,178.7226421273525
2015,09,2883.8777909206224
2015,04,404.13702680825617
2015,12,95.66320625679684
2015,03,885.1061141169838
2015,11,288.27698214979904
2015,07,1114.3858289455957
2015,02,750.0375481783277
2015,01,1036.064519082666
2015,08,553.9401917825605
2015,10,312.9108739670094
2015,05,329.5007184774493
2015,06,980.0459603989946
2005,09,82.99291332194444
2005,04,21.839670934463708
2005,12,29.678645659441663
2005,03,43.00465562696157
2005,11,60.05445514238557
2005,07,24.620157930732432
2005,02,0.1294639952244745
2005,01,4.555133256021874
2005,08,139.6713924081077
2005,10,83.90407585242482
2005,05,86.58689360634067
2005,06,0.15087535741359104
2013,09,1058.5055428763987
2013,04,1292.4723805852598
2013,12,363.8394563590973
2013,03,58.790800188555814
2013,11,2664.5507087165497
2013,07,191.5715255706186
2013,02,500.8982430415358
2013,01,147.2312052794644
2013,08,208.22466620867053
2013,10,1031.7412280195856
2013,05,224.1820369453088
2013,06,192.89558029659096
2014,09,228.92442185019516
2014,04,7003.973842206098
2014,12,7574.4396911319745
2014,03,747.3743977457646
2014,11,907.7314715624691
2014,07,1051.822822213703
2014,02,874.0573623946323
2014,01,400.83272670871736
2014,08,144.45980870472837
2014,10,587.9441910995432
2014,05,997.4564527587131
2014,06,665.2955613242378
2011,09,389.6982903420877
2011,04,381.37339825423334
2011,12,65.14100028338203
2011,03,279.6226822440859
2011,11,761.7453869609674
2011,07,138.0039417102107
2011,02,154.708525131116
2011,01,7720.781332683474
2011,08,204.45058499251974
2011,10,825.7514785881926
2011,05,462.0590633592966
2011,06,335.8526065422664
2001,08,1325.1309916655753
2008,09,510.72949990749225
2008,04,163.39782052630375
2008,12,154.76724827937238
2008,03,386.718167379054
2008,11,50.116411769136256
2008,07,160.68602290012547
2008,02,445.71949508530076
2008,01,662.5340947424819
2008,08,684.3795633878193
2008,10,478.8998590541434
2008,05,224.5957127142365
2008,06,161.31827033661781
2003,11,1.2996248917410014
2003,07,0.00012613084090133819
2003,12,0.0680894805687097
2003,10,0.022062316283588727
2010,09,68.09978301753634
2010,04,232.135528012437
2010,12,9316.725307753159
2010,03,202.50646804400617
2010,11,55.92802313528385
2010,07,93.96504838716734
2010,02,120.06914772041192
2010,01,86.9577117608215
2010,08,102.12682852370722
2010,10,298.304280613821
2010,05,140.945881652041
2010,06,167.667078561805
2002,09,0.09729430184450932
2002,10,0.11583661553723316
2007,09,482.70037967192644
2007,04,175.89163291280073
2007,12,407.8057666296218
2007,03,388.7189513258434
2007,11,376.5872977799971
2007,07,137.94821134406718
2007,02,488.67260491849413
2007,01,498.85457102203316
2007,08,584.3721769320059
2007,10,1472.3845981597765
2007,05,372.7124232544998
2007,06,716.2387078289275
2004,09,1.5140193227261498
2004,04,9.740405576866438
2004,12,710.4522282454167
2004,03,13.973249778537346
2004,11,0.36865691382109467
2004,07,25.1666386479568
2004,02,4.4265552491709865
2004,01,0.10133213098919165
2004,08,12.211595719555028
2004,10,3.6532820099427306
2004,05,1.699981570466321
2004,06,19.38851911609531
