year,month,influence
2009,09,26.15153095925577
2009,04,89.32215978478634
2009,12,30.274542643224557
2009,03,50.62709333295359
2009,11,17.50024198300346
2009,07,31.459622988535855
2009,02,31.195894439691997
2009,01,27.432481810856398
2009,08,35.21810627239476
2009,10,804.8461384799806
2009,05,8.995689619767369
2009,06,27.247358981026256
2012,09,28.757692918004178
2012,04,41.13553146142737
2012,12,32.511894470508246
2012,03,22.31415814463059
2012,11,34.73310953829417
2012,07,62.77450429863855
2012,02,16.66299466395437
2012,01,26.890767710053485
2012,08,40.78424414111672
2012,10,19.28286005335581
2012,05,41.090771509861455
2012,06,20.523290201464548
2006,09,28.519522084885217
2006,04,45.31748328139541
2006,12,8.347988618480885
2006,03,14.148821576508544
2006,11,21.13963368992154
2006,07,37.55840428657592
2006,02,215.76786282359612
2006,01,15.276202736127173
2006,08,41.423509725633835
2006,10,31.404471361843978
2006,05,33.74851221068151
2006,06,28.847638563963812
2015,09,114.3457688512715
2015,04,43.9604129112852
2015,12,10.822754522042608
2015,03,59.23883307957167
2015,11,39.41993150062447
2015,07,61.619190646134875
2015,02,80.93800864322372
2015,01,26.69736934595587
2015,08,59.498167855287015
2015,10,36.596784956015455
2015,05,100.79384469298337
2015,06,43.00820888218649
2005,09,1.6700393506816305
2005,04,5.72434503165369
2005,12,2.13935598618813
2005,03,9.407826011300749
2005,11,2.149034529207
2005,07,5.714570911255798
2005,02,0.46967347056208036
2005,01,0.40145694997613185
2005,08,5.642052811165705
2005,10,6.405851884906238
2005,05,8.757960819967956
2005,06,0.03419842076667486
2013,09,56.901990645777666
2013,04,44.41363738581102
2013,12,47.59836905998893
2013,03,1123.3760623861585
2013,11,64.63161986659955
2013,07,28.16438129884535
2013,02,190.32270023952657
2013,01,36.682202120010956
2013,08,33.56051320977165
2013,10,77.70132518297974
2013,05,18.352331230854894
2013,06,61.95967811975529
2014,09,43.093734747327915
2014,04,62.072517801767745
2014,12,38.54931266168459
2014,03,35.29991959474339
2014,11,82.05948481052984
2014,07,107.33252086089456
2014,02,43.082677932783454
2014,01,131.696761754129
2014,08,794.2152516075942
2014,10,194.94107891021912
2014,05,156.4840762823631
2014,06,30.150633979417066
2011,09,27.118707174070376
2011,04,51.017997649610386
2011,12,8.953346171760877
2011,03,102.29330662707093
2011,11,151.4132380581808
2011,07,260.57835863239814
2011,02,243.32182420946586
2011,01,42.65644357753697
2011,08,38.07407191928184
2011,10,46.27216709668626
2011,05,41.26807302431251
2011,06,48.81801620080753
2001,08,3.89161901442422
2008,09,21.684859861297436
2008,04,28.88265492431052
2008,12,16.351910169832987
2008,03,48.54196064624465
2008,11,5.510286207211504
2008,07,18.201998128944705
2008,02,19.290238415932805
2008,01,52.41354524811861
2008,08,29.479977694892526
2008,10,70.50397022340631
2008,05,40.78519618466789
2008,06,56.06471829531009
2003,11,0.5781445415848928
2003,07,6.449640268226666e-05
2003,12,0.026979515862132097
2003,10,0.008391434713047973
2010,09,26.37671939820728
2010,04,10.341183320817452
2010,12,34.9965985832583
2010,03,42.85728320824238
2010,11,44.26073045411337
2010,07,18.63140576584167
2010,02,19.42817615338343
2010,01,5.168433495148429
2010,08,12.450601002996324
2010,10,32.18351936877544
2010,05,16.633496881080923
2010,06,28.657162582576426
2002,09,0.4393039485926652
2002,10,0.01773357669391878
2007,09,60.05085087727348
2007,04,69.45559386853085
2007,12,18.754816559167104
2007,03,51.04220781532477
2007,11,24.415290948632446
2007,07,43.0698276908242
2007,02,60.6104700516933
2007,01,62.29156534356293
2007,08,58.03106972204131
2007,10,48.343295419629015
2007,05,234.09386131816862
2007,06,90.09758476443712
2004,09,0.17021963849317462
2004,04,10.323100980315022
2004,12,29.923307771643703
2004,03,1.4252492675735988
2004,11,2.390364970429844
2004,07,14.97656517584502
2004,02,18.641131788005257
2004,01,0.007887855251106538
2004,08,0.7532916982001624
2004,10,20.765875882854083
2004,05,7.39696362799501
2004,06,0.083719396006577
