year,month,influence
2009,09,3.8926760523682664
2009,04,19.201723275782914
2009,12,3.676315123951239
2009,03,6.8105294937954
2009,11,2.8866126312517855
2009,07,65.11111637895335
2009,02,6.894728473406465
2009,01,11.010737028415148
2009,08,5.666877698551638
2009,10,4.217693803906369
2009,05,3.458050529501912
2009,06,18.015718407082954
2012,09,5.338368271769931
2012,04,4.860590009445497
2012,12,3.0982368895845744
2012,03,7.660008576029832
2012,11,6.464341377136827
2012,07,12.228170367907397
2012,02,22.670359140252817
2012,01,5.822693845893689
2012,08,10.515514026940387
2012,10,4.432620440780019
2012,05,2.061960586938223
2012,06,8.634940964678291
2006,09,3.0456945090976615
2006,04,4.580027445873008
2006,12,3.7948727867770744
2006,03,77.3197024664182
2006,11,1.7120225337763446
2006,07,5.154597627715009
2006,02,2.7783682248505075
2006,01,4.7321841098882675
2006,08,8.495140261135383
2006,10,4.847338405941469
2006,05,36.23587642798876
2006,06,16.98133114542914
2015,09,13.919669272224787
2015,04,6.577082258608582
2015,12,2.289319289083038
2015,03,9.81057268074594
2015,11,8.579372371481718
2015,07,3.723711336484573
2015,02,16.021202807232232
2015,01,6.223814653373511
2015,08,17.39617217848729
2015,10,6.347492349439138
2015,05,4.422355298709444
2015,06,23.26358283014763
2005,09,0.4692688514857488
2005,04,1.3002003124024897
2005,12,6.8603585442245425
2005,03,2.5850414518846145
2005,11,4.703834011342767
2005,07,0.6808653657768207
2005,02,5.476895425869608
2005,01,0.06099495970140818
2005,08,2.114923316209239
2005,10,2.118703537216673
2005,05,2.0726141046326756
2005,06,0.0038863218366059654
2013,09,7.6466965788748205
2013,04,16.919771037031612
2013,12,5.166512838951375
2013,03,4.174990235487896
2013,11,13.343853453341545
2013,07,3.551991602762073
2013,02,6.73305950174918
2013,01,3.2833888530580624
2013,08,11.216718958105021
2013,10,18.507622065477264
2013,05,58.96632079480966
2013,06,7.069566306266728
2014,09,5.898288537897126
2014,04,15.18294340275384
2014,12,5.8709599468303395
2014,03,6.808626008984279
2014,11,17.911640687728987
2014,07,22.649183742936597
2014,02,5.693818654429943
2014,01,12.577930084613428
2014,08,9.767512084721176
2014,10,14.17903814330314
2014,05,6.0664489078605435
2014,06,5.932196232950478
2011,09,9.100009308616512
2011,04,21.383167756991448
2011,12,11.753870688480571
2011,03,15.260529192675685
2011,11,8.320846886445603
2011,07,4.210754128041544
2011,02,6.30621334637035
2011,01,9.75974601382412
2011,08,4.898100859637672
2011,10,7.202435579654702
2011,05,6.485150899848405
2011,06,2.766130192430017
2001,08,0.7345139573645829
2008,09,10.534037864051594
2008,04,17.774533047173378
2008,12,5.437923100143613
2008,03,10.156873181251399
2008,11,1.8036860415854954
2008,07,3.002854244214219
2008,02,4.370815355749786
2008,01,17.02539663582247
2008,08,2.769568803132682
2008,10,28.691151851795926
2008,05,5.968649870189778
2008,06,4.920146874936587
2003,11,0.1837277133849877
2003,07,3.534507773623165e-05
2003,12,0.012957135199658304
2003,10,0.0038180834039772157
2010,09,5.699897667076437
2010,04,22.94536172397042
2010,12,3.1442275735461283
2010,03,14.488275291980507
2010,11,3.9451004000149785
2010,07,5.819524201957316
2010,02,1.6700061441638243
2010,01,2.2859792050298116
2010,08,7.142532468883431
2010,10,34.45381674983999
2010,05,5.426877711333969
2010,06,8.456181462252104
2002,09,0.9611321009555086
2002,10,0.005022623033807895
2007,09,9.534289487320097
2007,04,4.965186151218156
2007,12,9.055547783216715
2007,03,15.996353766024257
2007,11,11.72138944664168
2007,07,13.212330815365213
2007,02,45.05520376956536
2007,01,5.997395856556883
2007,08,70.59855246121884
2007,10,8.769194583566506
2007,05,4.683452064714183
2007,06,26.031431740992677
2004,09,0.04897506536923909
2004,04,23.73269553171226
2004,12,10.180858737709713
2004,03,0.18110319164505473
2004,11,0.44723648727290866
2004,07,8.188364183533594
2004,02,0.5741470933774296
2004,01,0.001749559864184075
2004,08,6.423583674924753
2004,10,1.1280418600558555
2004,05,0.7450525097280627
2004,06,0.059347491132806914
