year,month,influence
2009,09,857.8134537298753
2009,04,399.95706575340336
2009,12,282.69526529321075
2009,03,804.5508736386801
2009,11,813.2951064215075
2009,07,1331.5221193254033
2009,02,619.9017596934787
2009,01,2030.6958804635897
2009,08,391.16164993266227
2009,10,109.01300255748382
2009,05,98.72614197396092
2009,06,4775.97085575654
2012,09,911.0367941572548
2012,04,1044.557075537486
2012,12,577.0240449708313
2012,03,2451.5310173273024
2012,11,874.5264965662984
2012,07,4258.620120927518
2012,02,185.90472873505772
2012,01,1753.5361561620039
2012,08,3001.7579514099407
2012,10,22525.145962752842
2012,05,4322.0506700881515
2012,06,1205.603009783934
2006,09,701.7892839514711
2006,04,443.5995925096404
2006,12,5298.02851793606
2006,03,938.7726268521812
2006,11,576.829618119604
2006,07,720.2677659608787
2006,02,7654.35314962859
2006,01,523.1448274337997
2006,08,799.0424800266045
2006,10,80192.89252316506
2006,05,16985.173448196674
2006,06,782.3869552000277
2015,09,182778.59040961965
2015,04,384.1376550255067
2015,12,1129.8159545972642
2015,03,3937.507685665917
2015,11,447.70059554971357
2015,07,1162.6213786947267
2015,02,1904.699088713406
2015,01,1881.8840694563992
2015,08,1185.5921181671772
2015,10,4243.698024221505
2015,05,418.3859113302956
2015,06,5580.538556471623
2005,09,217.72211861047168
2005,04,36.167645093475464
2005,12,120.28429335131558
2005,03,33.3357722917453
2005,11,517.5873135442308
2005,07,43.032509959157565
2005,02,0.1218758687857481
2005,01,6.554130275301615
2005,08,693.5633833439268
2005,10,1312.5258898537209
2005,05,84.86301995665472
2005,06,0.13975334829568298
2013,09,1297.9383572171123
2013,04,838.4102640770616
2013,12,1712.9292764536053
2013,03,232.03627563874073
2013,11,54186.94210834926
2013,07,1300.7387019839855
2013,02,213.62210723779623
2013,01,1207.0572013265012
2013,08,2435.991424345365
2013,10,1553.77297337779
2013,05,10162.606053223753
2013,06,448.01305199149397
2014,09,866.8173199768996
2014,04,1303.276644051702
2014,12,1011.8691459055937
2014,03,733.1915920383271
2014,11,2494.442711573236
2014,07,1165.9790331857075
2014,02,661.2741664870981
2014,01,850.4095766815592
2014,08,728.1679389152234
2014,10,2193.803766971138
2014,05,3464.6198177375973
2014,06,766.5127493168065
2011,09,585.3928492333413
2011,04,1113.910512848233
2011,12,445.9060489207816
2011,03,479.143578665283
2011,11,465.5910098463069
2011,07,1231.3851638001333
2011,02,186.47473652432186
2011,01,258.88309123145086
2011,08,6669.664584562036
2011,10,1407.9324084430864
2011,05,1111.06375244341
2011,06,1107.361603282093
2001,08,959.6304855484923
2008,09,878.6408069482422
2008,04,5707.55590168374
2008,12,675.0877956694995
2008,03,1165.9186745953243
2008,11,142.8575024511083
2008,07,989.8600232720718
2008,02,2646.6233665807936
2008,01,1401.5827328051837
2008,08,1399.6450911696268
2008,10,2246.7681864700658
2008,05,277.97520904982986
2008,06,1229.4840257678134
2003,11,1.601711882097827
2003,07,0.0001276359537428523
2003,12,0.073253700641891
2003,10,0.02255043059557925
2010,09,120.10215500646507
2010,04,492.1372987302968
2010,12,738.29392411733
2010,03,1247.909616698793
2010,11,246.93616549939256
2010,07,654.7633429596806
2010,02,174.11520401842643
2010,01,108.61245898154934
2010,08,670.9115127171857
2010,10,1215.1007474430169
2010,05,294.0907158568992
2010,06,402.46459307128436
2002,09,0.09279366058894789
2002,10,0.152660934346723
2007,09,641.4228888021504
2007,04,823.9151076224857
2007,12,1327.8378902131208
2007,03,1948.2545990878002
2007,11,780.346446271919
2007,07,455.6011222517398
2007,02,470.66731125045413
2007,01,226.44293749437443
2007,08,1172.2551850162924
2007,10,3685.001484502943
2007,05,1296.3435739193542
2007,06,1052.522910610075
2004,09,2.169929701455318
2004,04,7.309763094327005
2004,12,3350.6684210420226
2004,03,37.46162302082142
2004,11,0.3712523958346742
2004,07,13.33284636433249
2004,02,5.078891393603787
2004,01,0.052873202381238375
2004,08,33.81780631184117
2004,10,4.18114450985895
2004,05,3.2547273995439623
2004,06,14.04408329302905
