year,month,influence
2009,09,134.41131984676255
2009,04,295.2561623048531
2009,12,124.88634820317077
2009,03,114.19685713487549
2009,11,930.5858625118783
2009,07,140.1423233701002
2009,02,125.32091678995793
2009,01,127.00737439557392
2009,08,143.45738173696643
2009,10,149.45565786639935
2009,05,405.612048163493
2009,06,1028.055218414378
2012,09,1087.0417019228037
2012,04,166.38450921679188
2012,12,161.13416812514782
2012,03,338.5083380280921
2012,11,115.44729582724808
2012,07,260.3205499930038
2012,02,59.30387277052665
2012,01,180.82036013724826
2012,08,490.92299726177924
2012,10,1152.5810903971585
2012,05,744.7853964345912
2012,06,152.23985727829884
2006,09,263.12284422283165
2006,04,597.6792148876749
2006,12,435.5679570364347
2006,03,406.7765856341122
2006,11,115.41250154586182
2006,07,749.8850513019336
2006,02,140.43356192588007
2006,01,176.3990185163136
2006,08,477.81810561535235
2006,10,1039.200535293099
2006,05,1093.8304686520398
2006,06,358.73326389266305
2015,09,2840.618007112546
2015,04,266.94888472385094
2015,12,109.63663224883886
2015,03,5267.758826336801
2015,11,145.33575170388764
2015,07,597.3078019294195
2015,02,674.5732236857609
2015,01,261.42415724408124
2015,08,687.421671770383
2015,10,406.3033173315563
2015,05,175.24990210622937
2015,06,393.33471651605197
2005,09,170.220141030706
2005,04,83.27358457657492
2005,12,59.99448839965372
2005,03,25.23699356827124
2005,11,94.04282228504329
2005,07,29.539849794742587
2005,02,0.11089960093349988
2005,01,3.3970357589409903
2005,08,185.18529804606607
2005,10,134.27570080292355
2005,05,58.63992200338325
2005,06,0.08834870492321817
2013,09,467.35492018487906
2013,04,857.2151095386434
2013,12,337.79865793257113
2013,03,94.00102443947091
2013,11,2714.0508329677905
2013,07,299.6855153018495
2013,02,194.35145317144173
2013,01,265.5959304696157
2013,08,110.958940835149
2013,10,729.1335213305568
2013,05,367.73074653663167
2013,06,247.08549618307686
2014,09,312.1200468200185
2014,04,516.2164664842229
2014,12,444.6351463418674
2014,03,312.958998628577
2014,11,3021.8640583093384
2014,07,1038.8301176757213
2014,02,241.61562732747151
2014,01,556.8344527577879
2014,08,218.90133218846168
2014,10,539.6224050479298
2014,05,514.1659132738217
2014,06,531.4085387326334
2011,09,1493.6626311180414
2011,04,1498.977955593666
2011,12,119.14704176433473
2011,03,170.7137553621435
2011,11,331.9859786326636
2011,07,85.41503247580184
2011,02,133.09509810245507
2011,01,218.33077048267822
2011,08,178.22526841845794
2011,10,260.7760182683226
2011,05,2607.9279919802075
2011,06,443.5947605947131
2001,08,165.0259726630819
2008,09,1348.134038811091
2008,04,1725.11576063078
2008,12,111.78870330477167
2008,03,305.0388363135577
2008,11,96.80291675634726
2008,07,156.73585630362507
2008,02,1635.4100961001923
2008,01,557.002731091688
2008,08,250.84500192413458
2008,10,901.4425111389331
2008,05,330.84260836960965
2008,06,609.6877113392364
2003,11,1.89139480620063
2003,07,0.00013522270913463372
2003,12,0.08319423582314725
2003,10,0.024703940378421097
2010,09,91.50102162635899
2010,04,91.0567345397383
2010,12,228.73737391341683
2010,03,1445.5235552651302
2010,11,87.69651307741594
2010,07,107.6659026449693
2010,02,73.10090946056594
2010,01,36.73376609222906
2010,08,131.53451214530017
2010,10,251.6315820865937
2010,05,638.9488649684383
2010,06,157.26132417631806
2002,09,0.08446123164765464
2002,10,0.23087243128647625
2007,09,283.7768811006705
2007,04,257.05714409862264
2007,12,3834.3476423700017
2007,03,1096.5854881735625
2007,11,172.49782425753168
2007,07,145.8519789266646
2007,02,263.9809720740863
2007,01,200.1345853817741
2007,08,572.5370832902054
2007,10,1143.3648236318904
2007,05,561.3514128452591
2007,06,274.69971963425394
2004,09,17.22764092483471
2004,04,6.371106164238551
2004,12,1365.1859397362164
2004,03,17.498418184025425
2004,11,0.33993299069405875
2004,07,9.168902414378723
2004,02,4.671986999998756
2004,01,0.03858129263034471
2004,08,55.04577119136495
2004,10,5.343127479222722
2004,05,16.060600355185187
2004,06,2.4266147152274393
