year,month,influence
2009,09,3.6149316393438875
2009,04,21.598377720544907
2009,12,4.2130413744352895
2009,03,5.3167483131009945
2009,11,6.601881092622819
2009,07,5.839973474435177
2009,02,8.674822891910104
2009,01,8.20797721469307
2009,08,6.371860286118245
2009,10,5.027275786622526
2009,05,27.174108525213125
2009,06,24.83470263971251
2012,09,13.708877136875227
2012,04,4.4778797158586965
2012,12,2.448901483248756
2012,03,3.507565972566159
2012,11,2.725723927296288
2012,07,6.000058066436089
2012,02,2.5167703512030233
2012,01,6.115981620835984
2012,08,14.424081755296633
2012,10,8.897149773221821
2012,05,32.09626150381743
2012,06,6.589318729876011
2006,09,12.449274097387642
2006,04,4.378235516495197
2006,12,7.063943625844428
2006,03,60.92394575720574
2006,11,16.19561443374751
2006,07,4.739329581768173
2006,02,2.3560034626837267
2006,01,7.553105724466299
2006,08,8.588743920508733
2006,10,8.319303363498715
2006,05,7.076756421702668
2006,06,3.9178938477654444
2015,09,24.498410657457217
2015,04,4.242187348850082
2015,12,3.3715881959443696
2015,03,16.166085699835122
2015,11,4.888920449485334
2015,07,5.988071050564433
2015,02,10.625678448234476
2015,01,7.144077461594943
2015,08,11.380795161715367
2015,10,4.956716897395673
2015,05,4.629612713424768
2015,06,6.8137763588124605
2005,09,1.3891311874329573
2005,04,2.299346049436378
2005,12,0.9206097359252216
2005,03,6.173753235242362
2005,11,1.4260753340520744
2005,07,1.0359033881140411
2005,02,0.038645110355787625
2005,01,0.1456041211741589
2005,08,1.411209022286819
2005,10,1.707678342804152
2005,05,1.7410017033259821
2005,06,0.0045096431983885224
2013,09,22.312091961586766
2013,04,14.120155078779707
2013,12,5.317736990600747
2013,03,2.955609205859958
2013,11,26.594834787083787
2013,07,5.16092465873507
2013,02,2.897510095758553
2013,01,5.168808414806845
2013,08,11.99352324320014
2013,10,93.93529168109501
2013,05,5.568139027314081
2013,06,9.019179485179349
2014,09,5.037778701060067
2014,04,6.917170400697407
2014,12,7.297375758662374
2014,03,6.000046310328026
2014,11,19.713221225803228
2014,07,19.72596983899392
2014,02,31.098154255115965
2014,01,26.99389642207505
2014,08,8.105546038481032
2014,10,15.297843662948603
2014,05,6.9075016354472005
2014,06,5.953319575763472
2011,09,7.035991437575376
2011,04,11.071500031853207
2011,12,1.009682352558017
2011,03,5.843128387404336
2011,11,3.6420974441212732
2011,07,2.8959494766624054
2011,02,2.4573960349492854
2011,01,171.49726145919095
2011,08,4.243645839743767
2011,10,4.721837908663527
2011,05,7.274351388039414
2011,06,9.94614794250772
2001,08,1.5687082577412441
2008,09,8.542877410393917
2008,04,11.51909113922219
2008,12,3.409696168409421
2008,03,4.246020073772592
2008,11,4.646734589298809
2008,07,3.579359221312933
2008,02,37.51087900415154
2008,01,13.364141373589687
2008,08,6.086291879227728
2008,10,32.896398804337224
2008,05,10.108361388402296
2008,06,7.546030249446233
2003,11,1.1599004900994
2003,07,0.0005090957129204783
2003,12,6.815621694325174
2003,10,0.1309781225889195
2010,09,4.67964476223882
2010,04,2.977931515102411
2010,12,4.613622974582682
2010,03,9.713660517139566
2010,11,17.823664273781176
2010,07,8.620706832432097
2010,02,1.0984130621424688
2010,01,20.115950372542873
2010,08,2.0100684300500067
2010,10,5.126309068469396
2010,05,6.1855747224472015
2010,06,2.4031353299208553
2002,09,0.02791194298180479
2002,10,0.038492467706576126
2007,09,7.261315225065942
2007,04,9.982584339099386
2007,12,7.689070278574841
2007,03,6.055613851388824
2007,11,5.312282798295404
2007,07,7.524048142744243
2007,02,16.038399515472967
2007,01,3.691049063863998
2007,08,10.602568660191082
2007,10,14.075563259511537
2007,05,19.378755092924294
2007,06,6.015841229741555
2004,09,0.3343228824094326
2004,04,0.8256866682499556
2004,12,9.970383791539845
2004,03,0.2249370567257799
2004,11,0.10562218728113301
2004,07,1.1190319550348677
2004,02,0.37660311385293915
2004,01,0.0029815052010513893
2004,08,0.3654614885102057
2004,10,0.9992824301802066
2004,05,0.307235292285014
2004,06,0.03850261805707116
