year,month,influence
2009,09,3.8563953969652283
2009,04,17.902082898636532
2009,12,4.28358648562556
2009,03,5.2871411014174265
2009,11,3.042414166071035
2009,07,190.97953169491416
2009,02,45.02394572266161
2009,01,6.205597417699132
2009,08,7.531817471736048
2009,10,4.808712330689328
2009,05,7.5269265071146325
2009,06,33.15170782516453
2012,09,6.442392640362228
2012,04,4.239905973160918
2012,12,2.8527390819445286
2012,03,4.591309683245618
2012,11,6.196755309015643
2012,07,12.824032398298991
2012,02,35.81316045833198
2012,01,8.07210776348881
2012,08,12.122894814965013
2012,10,5.005421372023659
2012,05,2.2351088275175233
2012,06,9.631395380189351
2006,09,3.292922526861361
2006,04,4.591032620284143
2006,12,4.6506738547152935
2006,03,16.346170826942203
2006,11,1.793107931372917
2006,07,11.591624609347418
2006,02,5.2575430041837015
2006,01,5.17619713054096
2006,08,8.359465619638225
2006,10,5.097894791109032
2006,05,34.089416110554005
2006,06,15.499192486266317
2015,09,15.619910397150342
2015,04,8.259686010745044
2015,12,1.7886824709154103
2015,03,8.970343526280189
2015,11,6.273827642908472
2015,07,4.344599015149681
2015,02,23.95430000341701
2015,01,9.297690010047624
2015,08,77.89893443116674
2015,10,4.7705756826184995
2015,05,4.821230676199632
2015,06,28.52555478284364
2005,09,0.44012500929049164
2005,04,1.1876798327251634
2005,12,2.2146728642067184
2005,03,4.888804798591953
2005,11,1.3988085330251647
2005,07,0.7328993136103443
2005,02,1.5537874573440296
2005,01,0.0668887044288569
2005,08,1.1631228478530247
2005,10,1.5879133759975714
2005,05,1.468219396408234
2005,06,0.004395482684255092
2013,09,8.841626302277044
2013,04,11.313698580361361
2013,12,5.420642652060449
2013,03,4.621753707531049
2013,11,13.412460752863566
2013,07,4.460703179672405
2013,02,13.26862036237048
2013,01,3.666023922883709
2013,08,9.398885618048935
2013,10,15.291014978802789
2013,05,88.98885962084813
2013,06,7.582915002652604
2014,09,10.936888334072524
2014,04,24.033527158467166
2014,12,8.415382827955996
2014,03,10.101304047037843
2014,11,16.21523429873307
2014,07,18.17337552411687
2014,02,5.83261842531405
2014,01,11.153306321100265
2014,08,10.888753599251825
2014,10,9.492504105666388
2014,05,9.541212480695128
2014,06,7.888658104674717
2011,09,20.75689908530768
2011,04,86.475757245064
2011,12,2.38641940444781
2011,03,9.668134999349935
2011,11,8.552178335997974
2011,07,5.022378150765697
2011,02,7.441729518934329
2011,01,15.609211176645633
2011,08,8.908592464426981
2011,10,5.8173762959504325
2011,05,9.816030616649249
2011,06,4.154310467925478
2001,08,0.8433938956945533
2008,09,20.771274952222285
2008,04,3.24858872117699
2008,12,2.675829084238487
2008,03,9.22981118669619
2008,11,1.6195407633226706
2008,07,3.56738492213368
2008,02,5.040727056893324
2008,01,16.00431783841654
2008,08,2.964821588069356
2008,10,55.07149410269367
2008,05,4.928670863128477
2008,06,5.508234672171665
2003,11,0.18910287870238482
2003,07,3.959688660341166e-05
2003,12,0.01311645028863972
2003,10,0.00433278228869762
2010,09,3.702873552765051
2010,04,35.64476410580852
2010,12,3.2690561493897774
2010,03,7.380893306724174
2010,11,2.0790977678937876
2010,07,4.341607126193382
2010,02,2.1371740950354954
2010,01,2.7399532411977234
2010,08,9.985546838700168
2010,10,6.416641776458696
2010,05,7.051506098870742
2010,06,3.14719157379591
2002,09,0.5596258172834919
2002,10,0.005591658854269853
2007,09,8.792039186525365
2007,04,5.995756338824333
2007,12,7.710371619630012
2007,03,18.923638824481525
2007,11,8.900237376483503
2007,07,15.924698418962361
2007,02,19.464232155483955
2007,01,4.515397139027193
2007,08,84.05702731278288
2007,10,8.727192897840183
2007,05,7.702703446276305
2007,06,28.432197366626795
2004,09,0.05361356821780204
2004,04,5.275466330047028
2004,12,11.971739584502657
2004,03,0.1826311991294451
2004,11,0.36235404179481967
2004,07,13.884345030957967
2004,02,0.6609714895784431
2004,01,0.0021403539206518015
2004,08,1.5688472022724596
2004,10,1.0512347517865042
2004,05,0.7105645339046239
2004,06,0.13742940626324454
