year,month,influence
2009,09,136.77549783162368
2009,04,417.39931763919714
2009,12,175.14243052960538
2009,03,153.3991816955526
2009,11,277.72639594607614
2009,07,198.00133046050954
2009,02,185.70375658215784
2009,01,92.58757305790165
2009,08,142.52682118582425
2009,10,44.70653236972582
2009,05,61.981785596846045
2009,06,596.8301962282272
2012,09,455.54514023768184
2012,04,170.72963433733895
2012,12,347.9799089540959
2012,03,317.9249737509503
2012,11,167.68589832016642
2012,07,207.80681493730634
2012,02,86.91582253621303
2012,01,894.0724029846083
2012,08,492.3674074981288
2012,10,664.9017903971405
2012,05,177.17716890148247
2012,06,253.05233067706493
2006,09,544.12794534285
2006,04,128.07088270374877
2006,12,592.7454133356381
2006,03,109.71003039172162
2006,11,88.31386419495028
2006,07,574.694792451333
2006,02,95.06279638806446
2006,01,88.24662410258185
2006,08,633.1665552815
2006,10,1026.6014779320149
2006,05,408.42885723477724
2006,06,2086.45952954998
2015,09,2186.452130579645
2015,04,190.96365324733503
2015,12,114.11959058542408
2015,03,1896.6761184028164
2015,11,187.79110922824103
2015,07,937.6945247515584
2015,02,10219.350261049822
2015,01,328.45196597061636
2015,08,655.3895183036295
2015,10,1153.447329770239
2015,05,424.73571463646294
2015,06,650.9598679043964
2005,09,71.16915115060868
2005,04,36.5946755465611
2005,12,42.445362982814764
2005,03,27.55568538997168
2005,11,82.06195692871988
2005,07,32.389936411962196
2005,02,0.12015604899960779
2005,01,7.56973619886237
2005,08,193.34420878535892
2005,10,172.49939084211755
2005,05,76.14460421965863
2005,06,0.13951631795368277
2013,09,562.9450284909021
2013,04,312.616111782835
2013,12,202.0804498775203
2013,03,116.48499981219403
2013,11,3013.3502342192724
2013,07,314.44794033540285
2013,02,214.60483509023157
2013,01,359.01894222567523
2013,08,129.59452736688272
2013,10,1227.3116350773244
2013,05,225.3457915459094
2013,06,341.0010928615867
2014,09,2459.5193047519306
2014,04,372.5173191781547
2014,12,568.4119708107312
2014,03,360.7080561883616
2014,11,1523.2398777796545
2014,07,1032.7827599280508
2014,02,322.5142798190072
2014,01,719.0180727223945
2014,08,167.67344202516395
2014,10,763.6615294390093
2014,05,1024.721481411528
2014,06,311.0036719626789
2011,09,493.07358705542913
2011,04,441.3130697312222
2011,12,298.51847263966675
2011,03,412.7162117659029
2011,11,159.22015296852945
2011,07,173.5989858792907
2011,02,92.38061606472566
2011,01,243.7009315793646
2011,08,291.1353860742795
2011,10,232.57139493428937
2011,05,1362.6137852916306
2011,06,628.1154014696268
2001,08,128.1875365302632
2008,09,456.30858447450055
2008,04,243.2225212312791
2008,12,121.68877329433002
2008,03,330.96475266386045
2008,11,54.6073439092104
2008,07,227.47090392881552
2008,02,367.6208178786992
2008,01,928.7388496458586
2008,08,180.54389541407977
2008,10,241.67199262647895
2008,05,466.45752244867424
2008,06,142.58623759319664
2003,11,1.9280897222312732
2003,07,0.00012347889072583703
2003,12,0.07283931752970171
2003,10,0.021410033120925768
2010,09,145.11661011623457
2010,04,95.99461012019998
2010,12,365.7677769855387
2010,03,515.8767547509142
2010,11,86.92129758505995
2010,07,343.17160673109305
2010,02,81.55359278685751
2010,01,37.23486388256085
2010,08,160.8689183313471
2010,10,573.906083752934
2010,05,197.02963250020576
2010,06,791.1906841787701
2002,09,0.09287408350992467
2002,10,0.15758003470675497
2007,09,272.1554651037726
2007,04,214.38529967168768
2007,12,433.01875905861056
2007,03,363.3392161480648
2007,11,262.49187353055737
2007,07,122.72812893726027
2007,02,338.8175668369206
2007,01,102.05298378781791
2007,08,411.2794620716868
2007,10,640.9904030399615
2007,05,2956.135036134507
2007,06,280.38921475020067
2004,09,1.8716082507306244
2004,04,5.401952442765629
2004,12,8652.093623122673
2004,03,80.45449331592462
2004,11,0.39598236791383173
2004,07,8.110666866779528
2004,02,6.453841041746732
2004,01,0.03263669816511712
2004,08,13.822075457037075
2004,10,4.0011755496972174
2004,05,2.131522437660497
2004,06,1.8871784286554485
