year,month,influence
2009,09,10.85347369252459
2009,04,123.49306971657506
2009,12,13.091052388555479
2009,03,17.362289160813578
2009,11,10.432279408028231
2009,07,24.658653505048665
2009,02,16.387671183243345
2009,01,14.002956856395269
2009,08,16.53505318657857
2009,10,16.30251728041542
2009,05,5.357197601748667
2009,06,23.71180382183834
2012,09,30.54959657716067
2012,04,19.740220229931445
2012,12,21.36142908581014
2012,03,14.128378142171327
2012,11,81.52850769896772
2012,07,32.41439873914912
2012,02,33.599729794806294
2012,01,53.28233296146697
2012,08,20.273792416177294
2012,10,9.250904503106373
2012,05,7.886079770932856
2012,06,20.42761039827383
2006,09,15.395150243913005
2006,04,86.98777850436372
2006,12,8.373311014157263
2006,03,7.13847102189002
2006,11,12.798195434157966
2006,07,15.971522111775919
2006,02,5.251909862566387
2006,01,9.805478268160496
2006,08,21.53727374513121
2006,10,30.955261490853623
2006,05,19.578418601703934
2006,06,19.69614745440888
2015,09,51.46182902715076
2015,04,20.036600067926887
2015,12,3.744631261953459
2015,03,92.72253814361136
2015,11,200.5857694648793
2015,07,15.44072697091148
2015,02,71.52058968107266
2015,01,13.647195461227769
2015,08,37.238501786013046
2015,10,15.127005501138095
2015,05,25.800705752949796
2015,06,113.21327407045779
2005,09,1.268030379627331
2005,04,20.345535280729262
2005,12,1.65087623648158
2005,03,5.286840737228848
2005,11,2.1521811222025105
2005,07,4.469826936861807
2005,02,0.6347597119911155
2005,01,0.22447491886304352
2005,08,3.3485766083016255
2005,10,4.966209159911995
2005,05,9.067683153953718
2005,06,0.015516225928324865
2013,09,44.08444563548823
2013,04,21.02961221510838
2013,12,20.23352141003209
2013,03,21.79457910366763
2013,11,626.8305271180948
2013,07,10.611643067704929
2013,02,22.91048606453077
2013,01,14.929509880167757
2013,08,38.399956017884385
2013,10,48.55137827127892
2013,05,22.924584971173157
2013,06,24.11071802634764
2014,09,15.499280770567058
2014,04,39.06721012591759
2014,12,27.434964208828056
2014,03,39.21801429989935
2014,11,51.05161454683581
2014,07,59.35750012317684
2014,02,22.218864958445277
2014,01,45.413945461087465
2014,08,181.67791566152428
2014,10,51.262401592204135
2014,05,29.749899597651595
2014,06,10.170149083373602
2011,09,13.640258180890699
2011,04,26.207796647068722
2011,12,22.161785639289203
2011,03,412.0615010148319
2011,11,47.82050299284687
2011,07,48.25961464628426
2011,02,12.829066595212797
2011,01,21.159835232179436
2011,08,33.56453716898773
2011,10,489.04837860174837
2011,05,19.01955072064317
2011,06,26.687935475332328
2001,08,2.250313504763299
2008,09,14.71081628025021
2008,04,8.029540736559563
2008,12,9.966458512675617
2008,03,9.770693814178607
2008,11,12.40646094983159
2008,07,9.217857081809692
2008,02,14.732435136794361
2008,01,32.91957893212879
2008,08,24.818738803324802
2008,10,21.01058058283609
2008,05,73.21688923923539
2008,06,30.53746431534788
2003,11,0.4673531078505637
2003,07,5.3283575184389624e-05
2003,12,0.02357026885513196
2003,10,0.006531486796139761
2010,09,51.53013369745216
2010,04,6.292622146634013
2010,12,11.573476973186931
2010,03,42.31854853305604
2010,11,8.720479087106185
2010,07,10.425912905114743
2010,02,33.01959185813057
2010,01,3.068713690102869
2010,08,124.90583069673694
2010,10,13.668956276396802
2010,05,10.511101449986809
2010,06,7.308241843944577
2002,09,0.8541326370143257
2002,10,0.012228735527754693
2007,09,17.19092156952809
2007,04,12.146877503270831
2007,12,9.868690167345793
2007,03,16.98771324805414
2007,11,13.619654510095375
2007,07,19.13657166204652
2007,02,199.23532558190516
2007,01,75.25609512465432
2007,08,31.373635166068055
2007,10,30.775278394491323
2007,05,66.44488244535802
2007,06,44.03567000654812
2004,09,0.11998397657295203
2004,04,4.857306898760889
2004,12,26.054994543810167
2004,03,3.477850556781437
2004,11,8.667847278561661
2004,07,11.40582449909599
2004,02,3.3027590552909425
2004,01,0.004363526038644104
2004,08,0.7585399434379607
2004,10,17.312182557956486
2004,05,52.99712584709877
2004,06,0.050816989866114715
