year,month,influence
2009,09,4.360396023477073
2009,04,18.82138878863355
2009,12,6.8856358045681905
2009,03,7.799964809215048
2009,11,5.116959664155291
2009,07,20.36931145467437
2009,02,7.905939914064776
2009,01,5.178108945368446
2009,08,20.57620229952658
2009,10,4.698449960733069
2009,05,3.016229814335894
2009,06,17.394305157225233
2012,09,10.652617139947544
2012,04,6.132626183872559
2012,12,2.6328201132852307
2012,03,4.340730517370583
2012,11,13.16775187769466
2012,07,21.3629034133376
2012,02,7.670355298554878
2012,01,21.57244563574766
2012,08,12.347891273008786
2012,10,13.735850206916988
2012,05,3.807173173025264
2012,06,7.485114897221956
2006,09,4.483824446612959
2006,04,5.384406012682489
2006,12,6.661570222968342
2006,03,9.844109004068288
2006,11,2.4373593756577234
2006,07,6.52603250289537
2006,02,4.353199598472246
2006,01,5.665848725574848
2006,08,6.47250466392731
2006,10,8.099948046907791
2006,05,11.497105957993197
2006,06,7.654884456068222
2015,09,29.637430638628434
2015,04,8.6792628138592
2015,12,2.331464061502852
2015,03,14.93676457484357
2015,11,6.788273178406397
2015,07,7.420446337553742
2015,02,18.21484344122005
2015,01,8.253451469877422
2015,08,17.54239891546259
2015,10,9.556004969014602
2015,05,6.007149697448235
2015,06,22.486244231065015
2005,09,0.7256929623889891
2005,04,1.371196810274516
2005,12,0.9858045395427378
2005,03,10.778892612758643
2005,11,0.9270260018724211
2005,07,1.107495055337768
2005,02,0.3199675779838188
2005,01,0.10917452914463785
2005,08,2.081667675239153
2005,10,1.636436781554059
2005,05,2.4259207285643027
2005,06,0.007762420654293867
2013,09,12.479785844828088
2013,04,13.187475654519954
2013,12,8.55920778553096
2013,03,4.110449835930671
2013,11,19.39262483904877
2013,07,12.955179154964606
2013,02,8.176512224967833
2013,01,6.0095585494765125
2013,08,13.326287802682883
2013,10,25.198143955675246
2013,05,8.436658569859745
2013,06,12.024461428038615
2014,09,8.097767417073166
2014,04,16.287920773359474
2014,12,13.580609347248846
2014,03,8.122193375916401
2014,11,24.496239984827984
2014,07,23.42664581769019
2014,02,9.51602092666566
2014,01,18.772209049329614
2014,08,13.395192136602736
2014,10,14.03084978157207
2014,05,9.76454106547311
2014,06,5.785203414722963
2011,09,10.090882613365684
2011,04,142.89434706058688
2011,12,1.8681451054573146
2011,03,14.310482281009618
2011,11,6.575229343683833
2011,07,6.661703380355948
2011,02,9.414643456883494
2011,01,37.31194361878107
2011,08,6.134747501396786
2011,10,8.249950008324378
2011,05,10.008928548100553
2011,06,4.127434448365089
2001,08,1.613727143112685
2008,09,5.417595906784507
2008,04,5.227192681786019
2008,12,3.6538472253317975
2008,03,5.59809362741695
2008,11,2.2222302762181343
2008,07,7.799445852906822
2008,02,6.188650167375633
2008,01,22.04648796814292
2008,08,4.386586021435245
2008,10,14.403506967561931
2008,05,9.227894426948673
2008,06,7.260570259125763
2003,11,0.2557766633017154
2003,07,6.270821924495402e-05
2003,12,0.01949332236929115
2003,10,0.007466940962491385
2010,09,4.237564748241054
2010,04,19.492822636592635
2010,12,6.045384549607302
2010,03,9.05197069563871
2010,11,3.094640541113705
2010,07,5.259770964483379
2010,02,1.985972784501617
2010,01,6.099742005967816
2010,08,3.540841120209127
2010,10,6.493926109211021
2010,05,15.170531568750912
2010,06,3.456805857499175
2002,09,0.17819189902253652
2002,10,0.009598828305757956
2007,09,8.000535701659397
2007,04,4.456632492531985
2007,12,6.668331217752895
2007,03,11.845511621197913
2007,11,8.840538224157648
2007,07,9.670802955549942
2007,02,14.723051110022631
2007,01,4.940869920769486
2007,08,34.010209855923634
2007,10,12.925473314779284
2007,05,9.610040332154144
2007,06,8.611678339958328
2004,09,0.088868112020861
2004,04,5.709672120499095
2004,12,10.262867553616516
2004,03,0.26245005302456753
2004,11,0.26567254060205303
2004,07,15.921290615854241
2004,02,1.067030424139325
2004,01,0.005193732934864414
2004,08,0.4832972693799883
2004,10,1.0707845641001617
2004,05,0.7824437620734765
2004,06,0.07944484848966961
