hood,influence,largestInfluencer,largestInfluencerPercent
Fremont,0.04087869480487468,FRAUD,100.0
Junction,0.010690639199103066,FRAUD,99.99999999999999
Central,0.1945388598235961,FRAUD,100.0
Ravenna,0.022695150305678292,FRAUD,100.0
Garfield,0.09499479783194298,FRAUD,100.0
Seaview,0.008174069510787647,FRAUD,100.0
Green Lake,0.020605647237706547,FRAUD,100.0
Minor,0.258346771549433,FRAUD,100.0
Roxhill,0.006015574483796616,FRAUD,99.99999999999999
Rainier View,0.004175658164742057,FRAUD,100.0
Denny - Blaine,0.19890314355607908,FRAUD,99.99999999999999
Broadview,0.00594876381072639,FRAUD,100.0
Pioneer Square,0.09664435421366432,FRAUD,100.0
Beacon Hill,0.012836917799085313,FRAUD,99.99999999999999
Lower Queen Anne,0.07629617727173381,FRAUD,100.0
High Point,0.009615472092732405,FRAUD,100.0
Industrial District,0.01747513919920204,FRAUD,100.0
Blue Ridge,0.007993049714255154,FRAUD,100.0
Maple Leaf,0.01162658666268216,FRAUD,100.00000000000001
Greenwood,0.010298568004165606,FRAUD,100.0
Broadmoor,0.15414047456481947,FRAUD,100.0
View Ridge,0.01450694363847341,FRAUD,100.0
East Queen Anne,0.07822335458108329,FRAUD,100.0
Whittier Heights,0.012844560070267958,FRAUD,100.0
Riverview,0.009425016757528914,FRAUD,100.0
Denny Triangle,0.4577848310178819,FRAUD,100.0
Wedgwood,0.01370318152060427,FRAUD,100.0
Eastlake,0.15071453707386118,FRAUD,100.0
North Delridge,0.013104290694950567,FRAUD,100.0
Capitol Hill,1.537794494795967,FRAUD,100.0
Atlantic,0.09518912562377607,FRAUD,100.0
South Park,0.007578301600825677,FRAUD,100.0
Matthews Beach,0.0109346490507597,FRAUD,100.0
Mt. Baker,0.03623310003952851,FRAUD,100.0
Magnolia,0.017613592477589625,FRAUD,100.0
Sunset Hill,0.009396488824852566,FRAUD,100.0
Montlake,0.17257220302756252,FRAUD,100.0
Victory Heights,0.008271159521602655,FRAUD,100.0
Phinney Ridge,0.01833718254978274,FRAUD,100.0
Windermere,0.019785778290001978,FRAUD,100.0
Haller Lake,0.0067469994822604,FRAUD,99.99999999999999
Highland Park,0.006358437927199872,FRAUD,100.0
Admiral,0.013121814531940987,FRAUD,100.0
Little Saigon,0.1442953449065611,FRAUD,100.0
Olympic Manor,0.1442953449065611,FRAUD,100.0
South Beacon Hill,0.007517771197903618,FRAUD,100.0
Fauntleroy,0.005369748388364851,FRAUD,100.0
Westlake,0.14329262483036412,FRAUD,100.0
Leschi,0.0914922506699106,FRAUD,100.0
South Lake Union,0.30613149247887006,FRAUD,100.0
Cedar Park,0.006509096312868181,FRAUD,100.0
Interbay,0.0262002401189406,FRAUD,100.0
Madrona,0.18243036241053207,FRAUD,100.0
Downtown,0.1442953449065611,FRAUD,100.0
North Queen Anne,0.03786321856773617,FRAUD,100.0
Portage Bay,0.11112163046911491,FRAUD,100.0
Laurelhurst,0.03511515263095623,FRAUD,100.0
Dunlap,0.006359158628735805,FRAUD,100.0
Judkins Park,0.0668257456499278,FRAUD,100.0
International District,0.0997961325543272,FRAUD,100.0
Arbor Heights,0.004309915529238776,FRAUD,100.0
South Delridge,0.006292990071368604,FRAUD,100.0
Ballard,0.011636035319154634,FRAUD,100.0
Pinehurst,0.00787132213633102,FRAUD,100.0
Loyal Heights,0.011059508788247619,FRAUD,100.0
Olympic Hills,0.006340389398894308,FRAUD,100.0
Cascade,0.4090326982291417,FRAUD,100.0
Wallingford,0.04086368503399581,FRAUD,100.0
Uptown,0.07629617727173381,FRAUD,100.0
Crown Hill,0.009398272978621208,FRAUD,100.0
Yesler Terrace ,0.14991367144851925,FRAUD,100.0
Waterfront,0.10058829018094591,FRAUD,99.99999999999999
Alki,0.009811756613907895,FRAUD,100.0
Hawthorne Hills,0.021577275676487186,FRAUD,100.0
Lakewood,0.014802865988569835,FRAUD,100.0
Gatewood,0.0070141595643303,FRAUD,100.0
Jackson Place ,0.10890058298979158,FRAUD,100.0
Madison Valley,0.33537727907079146,FRAUD,100.0
Hillman City,0.010950032114176545,FRAUD,100.0
Bryant,0.025245638089936816,FRAUD,100.0
North Beach,0.007993049714255154,FRAUD,100.0
Roosevelt,0.021380064307166876,FRAUD,100.0
North College Park,0.011218181726437612,FRAUD,100.0
Bitter Lake,0.005705181983128598,FRAUD,100.0
Brighton,0.007860950501043459,FRAUD,100.0
West Queen Anne,0.042712641437344524,FRAUD,100.0
Georgetown,0.010069221322297614,FRAUD,100.00000000000001
Genesee,0.010013276647365574,FRAUD,100.0
Belltown,0.12297559846970192,FRAUD,100.0
Holly Park ,0.008719944373894454,FRAUD,100.0
Madison Park,0.10083301063338963,FRAUD,100.0
Rainier Beach,0.0048331881420102755,FRAUD,100.0
Fairmount Park,0.009384993326814898,FRAUD,100.0
Meadowbrook,0.009084140593097995,FRAUD,100.0
West Woodland,0.01959076817949248,FRAUD,100.0
Northgate,0.008797721929690151,FRAUD,100.0
Seward Park,0.010163048289743355,FRAUD,100.0
University District,0.04109830610459084,FRAUD,100.0
First Hill,0.255732101612143,FRAUD,100.0
Columbia City,0.014972452073524897,FRAUD,100.0
North Beacon Hill,0.03388363682578524,FRAUD,100.0
