hood,influence,largestInfluencer,largestInfluencerPercent
Fremont,0.002286658920866584,LOST PROPERTY,100.0
Junction,0.031115414790161177,LOST PROPERTY,100.0
Central,0.004413037241037297,LOST PROPERTY,100.0
Ravenna,0.00151172169525386,LOST PROPERTY,100.0
Garfield,0.003364429724511476,LOST PROPERTY,100.0
Seaview,0.04525889565017166,LOST PROPERTY,100.0
Green Lake,0.0016018618395559877,LOST PROPERTY,100.0
Minor,0.005003033295870523,LOST PROPERTY,99.99999999999999
Roxhill,0.3088242799860458,LOST PROPERTY,100.0
Rainier View,0.0056475126136757165,LOST PROPERTY,100.00000000000001
Denny - Blaine,0.003236837814625942,LOST PROPERTY,100.0
Broadview,0.0009425125294747772,LOST PROPERTY,100.0
Pioneer Square,0.0068692641915296514,LOST PROPERTY,100.0
Beacon Hill,0.016185715094649087,LOST PROPERTY,100.0
Lower Queen Anne,0.00411074802381862,LOST PROPERTY,100.0
High Point,0.13518582361473813,LOST PROPERTY,100.0
Industrial District,0.027853954628478925,LOST PROPERTY,100.00000000000001
Blue Ridge,0.0012088483598391604,LOST PROPERTY,100.0
Maple Leaf,0.001193148724144952,LOST PROPERTY,100.0
Greenwood,0.0012417636527608797,LOST PROPERTY,100.0
Broadmoor,0.0025835682589696466,LOST PROPERTY,100.00000000000001
View Ridge,0.001258002177497459,LOST PROPERTY,100.0
East Queen Anne,0.003008632830212973,LOST PROPERTY,100.0
Whittier Heights,0.001484416846527723,LOST PROPERTY,100.0
Riverview,0.2568691084930962,LOST PROPERTY,100.0
Denny Triangle,0.003565073112885954,LOST PROPERTY,100.0
Wedgwood,0.0012333368682258732,LOST PROPERTY,100.0
Eastlake,0.0027260096612389834,LOST PROPERTY,100.0
North Delridge,0.0446224191978889,LOST PROPERTY,100.0
Capitol Hill,0.0036808394013681882,LOST PROPERTY,100.0
Atlantic,0.006347733121236954,LOST PROPERTY,100.0
South Park,0.051845762496925435,LOST PROPERTY,100.0
Matthews Beach,0.0011125700873354642,LOST PROPERTY,100.0
Mt. Baker,0.007194621909150258,LOST PROPERTY,100.0
Magnolia,0.0028180566141223777,LOST PROPERTY,100.0
Sunset Hill,0.0014726228745026257,LOST PROPERTY,100.0
Montlake,0.002536286724313124,LOST PROPERTY,100.0
Victory Heights,0.0009989328819608161,LOST PROPERTY,100.0
Phinney Ridge,0.001666765211688164,LOST PROPERTY,100.0
Windermere,0.0014406631809352108,LOST PROPERTY,100.0
Haller Lake,0.0009402389888445938,LOST PROPERTY,100.0
Highland Park,0.13732506196378833,LOST PROPERTY,100.0
Admiral,0.01353479325322854,LOST PROPERTY,100.0
Little Saigon,0.005980472491348591,LOST PROPERTY,100.0
Olympic Manor,0.005980472491348591,LOST PROPERTY,100.0
South Beacon Hill,0.013102957880312953,LOST PROPERTY,100.0
Fauntleroy,0.09757873135770317,LOST PROPERTY,100.0
Westlake,0.0033914541269860835,LOST PROPERTY,99.99999999999999
Leschi,0.005065147076691948,LOST PROPERTY,100.00000000000001
South Lake Union,0.0038237476678669126,LOST PROPERTY,100.0
Cedar Park,0.0008787197133909209,LOST PROPERTY,100.0
Interbay,0.0028783672624829158,LOST PROPERTY,100.0
Madrona,0.0037621601239002504,LOST PROPERTY,100.0
Downtown,0.005980472491348591,LOST PROPERTY,100.0
North Queen Anne,0.0027218904861132293,LOST PROPERTY,100.0
Portage Bay,0.0024383763453211123,LOST PROPERTY,100.0
Laurelhurst,0.0017455083242379505,LOST PROPERTY,100.0
Dunlap,0.008542892548870359,LOST PROPERTY,100.0
Judkins Park,0.006400284636565064,LOST PROPERTY,100.0
International District,0.006946366377032063,LOST PROPERTY,100.0
Arbor Heights,0.0384401334967359,LOST PROPERTY,100.0
South Delridge,0.4313760989319711,LOST PROPERTY,100.0
Ballard,0.0015472014535627878,LOST PROPERTY,100.0
Pinehurst,0.0009948765707507852,LOST PROPERTY,100.0
Loyal Heights,0.001486041462397972,LOST PROPERTY,100.0
Olympic Hills,0.0008743740088264385,LOST PROPERTY,99.99999999999999
Cascade,0.00409726484465831,LOST PROPERTY,100.0
Wallingford,0.0019866259018023495,LOST PROPERTY,100.0
Uptown,0.00411074802381862,LOST PROPERTY,100.0
Crown Hill,0.0012530658832902027,LOST PROPERTY,100.0
Yesler Terrace ,0.0060486657381540535,LOST PROPERTY,100.0
Waterfront,0.006329054919103591,LOST PROPERTY,100.0
Alki,0.012127742079967476,LOST PROPERTY,100.0
Hawthorne Hills,0.0014723658485471859,LOST PROPERTY,100.0
Lakewood,0.0072155338283432695,LOST PROPERTY,100.0
Gatewood,0.13200008524676912,LOST PROPERTY,100.0
Jackson Place ,0.006185644565525543,LOST PROPERTY,100.00000000000001
Madison Valley,0.003334138149727547,LOST PROPERTY,100.00000000000001
Hillman City,0.009987431754071276,LOST PROPERTY,100.0
Bryant,0.001554841580802127,LOST PROPERTY,100.0
North Beach,0.0012088483598391604,LOST PROPERTY,100.0
Roosevelt,0.0015181146551288501,LOST PROPERTY,100.0
North College Park,0.0012241569826284186,LOST PROPERTY,100.0
Bitter Lake,0.0008874079308491045,LOST PROPERTY,100.0
Brighton,0.009393950098097976,LOST PROPERTY,100.0
West Queen Anne,0.003437699500185212,LOST PROPERTY,100.00000000000001
Georgetown,0.041037860969402915,LOST PROPERTY,100.0
Genesee,0.026958247337647227,LOST PROPERTY,100.0
Belltown,0.005048846554470354,LOST PROPERTY,100.0
Holly Park ,0.01222041029953649,LOST PROPERTY,100.0
Madison Park,0.0025046493551317676,LOST PROPERTY,100.00000000000001
Rainier Beach,0.006553998916113735,LOST PROPERTY,100.0
Fairmount Park,0.06795998559806513,LOST PROPERTY,100.0
Meadowbrook,0.0010327006182080383,LOST PROPERTY,100.0
West Woodland,0.001868666081245799,LOST PROPERTY,100.0
Northgate,0.0010557471488578916,LOST PROPERTY,100.0
Seward Park,0.007139260705500955,LOST PROPERTY,100.0
University District,0.001874867287893484,LOST PROPERTY,100.0
First Hill,0.005319716592375541,LOST PROPERTY,100.00000000000001
Columbia City,0.010108574995305947,LOST PROPERTY,100.0
North Beacon Hill,0.010421508413201193,LOST PROPERTY,100.0
