hood,influence,largestInfluencer,largestInfluencerPercent
Fremont,0.021668224467611182,FRAUD,100.0
Junction,0.006830136490478741,FRAUD,100.0
Central,0.062284942196945796,FRAUD,100.0
Ravenna,0.00911141691243167,FRAUD,100.0
Garfield,0.07574938299382657,FRAUD,100.0
Seaview,0.005031660227430271,FRAUD,100.0
Green Lake,0.00953152156203101,FRAUD,100.0
Minor,0.11963871179646074,FRAUD,100.0
Roxhill,0.0034644923852616,FRAUD,100.0
Rainier View,0.0021228967950585645,FRAUD,100.0
Denny - Blaine,0.04355765856654124,FRAUD,100.0
Broadview,0.0029051895802920595,FRAUD,100.0
Pioneer Square,0.09896711367015722,FRAUD,100.00000000000001
Beacon Hill,0.0068900767966962395,FRAUD,100.0
Lower Queen Anne,0.0760410434375711,FRAUD,100.0
High Point,0.005859068562231379,FRAUD,100.0
Industrial District,0.010638811802992828,FRAUD,100.00000000000001
Blue Ridge,0.004080137871137927,FRAUD,100.0
Maple Leaf,0.005196542950074358,FRAUD,100.0
Greenwood,0.004993200842257372,FRAUD,100.0
Broadmoor,0.035106784766345836,FRAUD,100.0
View Ridge,0.005810949518379467,FRAUD,100.0
East Queen Anne,0.05208995302696759,FRAUD,100.0
Whittier Heights,0.006533032526027928,FRAUD,100.0
Riverview,0.005562493457719619,FRAUD,100.0
Denny Triangle,0.36552160167045994,FRAUD,100.00000000000001
Wedgwood,0.0057050582000174365,FRAUD,100.0
Eastlake,0.06167563971212893,FRAUD,100.0
North Delridge,0.008344264027379493,FRAUD,100.0
Capitol Hill,0.6358093958599371,FRAUD,100.0
Atlantic,0.05262520200178343,FRAUD,99.99999999999999
South Park,0.004199374653870989,FRAUD,100.0
Matthews Beach,0.004561843393767828,FRAUD,100.0
Mt. Baker,0.017905662189393993,FRAUD,100.0
Magnolia,0.01136267085294497,FRAUD,100.0
Sunset Hill,0.00505385743581323,FRAUD,100.0
Montlake,0.04403716675155263,FRAUD,100.0
Victory Heights,0.003690964602611916,FRAUD,100.0
Phinney Ridge,0.009159106685143744,FRAUD,100.0
Windermere,0.007419902102035551,FRAUD,100.0
Haller Lake,0.0031539150525002188,FRAUD,99.99999999999999
Highland Park,0.003580060710516324,FRAUD,100.0
Admiral,0.008849789591756549,FRAUD,100.0
Little Saigon,0.18689530153072043,FRAUD,100.0
Olympic Manor,0.18689530153072043,FRAUD,100.0
South Beacon Hill,0.003927953314637154,FRAUD,100.0
Fauntleroy,0.003096891701311102,FRAUD,100.0
Westlake,0.11610021304203658,FRAUD,100.0
Leschi,0.03731100455885369,FRAUD,100.0
South Lake Union,0.4515123227577323,FRAUD,100.00000000000001
Cedar Park,0.002916123774585102,FRAUD,100.00000000000001
Interbay,0.01731170763842854,FRAUD,100.0
Madrona,0.04756754954423895,FRAUD,100.0
Downtown,0.18689530153072043,FRAUD,100.0
North Queen Anne,0.024064322206524043,FRAUD,100.0
Portage Bay,0.03963750686799185,FRAUD,100.0
Laurelhurst,0.012184510613307999,FRAUD,100.0
Dunlap,0.0032472929385949415,FRAUD,100.0
Judkins Park,0.03326503851783698,FRAUD,100.0
International District,0.07900281443976884,FRAUD,100.0
Arbor Heights,0.0024307404980349365,FRAUD,100.0
South Delridge,0.0036026934541827124,FRAUD,99.99999999999999
Ballard,0.006175366445739749,FRAUD,100.0
Pinehurst,0.003594702996961863,FRAUD,100.0
Loyal Heights,0.005812877705433634,FRAUD,100.0
Olympic Hills,0.002872593409420623,FRAUD,100.0
Cascade,1.5439957133815685,FRAUD,100.0
Wallingford,0.017953933664445774,FRAUD,100.0
Uptown,0.0760410434375711,FRAUD,100.0
Crown Hill,0.004701292589173554,FRAUD,100.0
Yesler Terrace ,0.11535798169241089,FRAUD,100.0
Waterfront,0.12361367203036809,FRAUD,100.0
Alki,0.006359730824897772,FRAUD,100.0
Hawthorne Hills,0.008172625976153581,FRAUD,100.0
Lakewood,0.007227630189084956,FRAUD,100.0
Gatewood,0.00417971272148917,FRAUD,100.0
Jackson Place ,0.061587778544427194,FRAUD,100.0
Madison Valley,0.059853281863203656,FRAUD,100.0
Hillman City,0.005586056821872842,FRAUD,100.0
Bryant,0.009547696825960744,FRAUD,100.0
North Beach,0.004080137871137927,FRAUD,100.0
Roosevelt,0.009078863699201021,FRAUD,100.0
North College Park,0.005221220463943054,FRAUD,100.0
Bitter Lake,0.0027326843607021435,FRAUD,100.0
Brighton,0.004011847252172759,FRAUD,100.0
West Queen Anne,0.032249709266975186,FRAUD,100.0
Georgetown,0.005637383798412162,FRAUD,100.0
Genesee,0.006378781417766667,FRAUD,100.0
Belltown,0.19527690732896666,FRAUD,100.0
Holly Park ,0.0045292378710141395,FRAUD,100.0
Madison Park,0.025781700948700383,FRAUD,99.99999999999999
Rainier Beach,0.0024586749454526186,FRAUD,100.0
Fairmount Park,0.0058028257228659435,FRAUD,99.99999999999999
Meadowbrook,0.003965510536535919,FRAUD,100.0
West Woodland,0.010441705269629016,FRAUD,100.0
Northgate,0.004015535750811939,FRAUD,100.0
Seward Park,0.005017056256582157,FRAUD,100.0
University District,0.01614799348085879,FRAUD,100.0
First Hill,0.35383030729240855,FRAUD,100.0
Columbia City,0.007672106421781111,FRAUD,100.0
North Beacon Hill,0.019447124353783436,FRAUD,100.0
