hood,influence,largestInfluencer,largestInfluencerPercent
Fremont,0.00349773679584923,OTHER PROPERTY,100.0
Junction,0.1362511821724077,OTHER PROPERTY,100.0
Central,0.004291685583968861,OTHER PROPERTY,100.0
Ravenna,0.0018766805303016255,OTHER PROPERTY,100.0
Garfield,0.005327407712090505,OTHER PROPERTY,100.0
Seaview,0.1007771443902416,OTHER PROPERTY,100.0
Green Lake,0.002242514332375011,OTHER PROPERTY,100.0
Minor,0.005207292691351097,OTHER PROPERTY,100.0
Roxhill,0.01416396965999813,OTHER PROPERTY,100.0
Rainier View,0.0023100548555725206,OTHER PROPERTY,100.0
Denny - Blaine,0.003289953937436955,OTHER PROPERTY,100.0
Broadview,0.001318322051520333,OTHER PROPERTY,99.99999999999999
Pioneer Square,0.00861478191241113,OTHER PROPERTY,100.0
Beacon Hill,0.005870817938469912,OTHER PROPERTY,100.0
Lower Queen Anne,0.007077284074520001,OTHER PROPERTY,100.0
High Point,0.03261970203810105,OTHER PROPERTY,100.0
Industrial District,0.012724081900561875,OTHER PROPERTY,100.0
Blue Ridge,0.001841573173175229,OTHER PROPERTY,100.0
Maple Leaf,0.0015530905604163752,OTHER PROPERTY,100.0
Greenwood,0.0017740766407276598,OTHER PROPERTY,100.0
Broadmoor,0.0028617584811682657,OTHER PROPERTY,100.0
View Ridge,0.0014587953216904906,OTHER PROPERTY,100.0
East Queen Anne,0.004717672574246435,OTHER PROPERTY,100.0
Whittier Heights,0.002267273615996573,OTHER PROPERTY,100.0
Riverview,0.016644549722526273,OTHER PROPERTY,100.0
Denny Triangle,0.004839425372670673,OTHER PROPERTY,100.0
Wedgwood,0.0014960503087696308,OTHER PROPERTY,100.0
Eastlake,0.0037008653115937493,OTHER PROPERTY,100.0
North Delridge,0.03680493400398492,OTHER PROPERTY,100.0
Capitol Hill,0.0047087951187567475,OTHER PROPERTY,100.0
Atlantic,0.0058880686007560705,OTHER PROPERTY,99.99999999999999
South Park,0.0073252334232329986,OTHER PROPERTY,100.0
Matthews Beach,0.00130875187592909,OTHER PROPERTY,100.0
Mt. Baker,0.005003037687478203,OTHER PROPERTY,100.00000000000001
Magnolia,0.006021942979255761,OTHER PROPERTY,100.0
Sunset Hill,0.0024479206912389278,OTHER PROPERTY,100.0
Montlake,0.003066942381402193,OTHER PROPERTY,100.0
Victory Heights,0.0012534494779176536,OTHER PROPERTY,100.0
Phinney Ridge,0.002498470780734804,OTHER PROPERTY,100.0
Windermere,0.0016073545355917134,OTHER PROPERTY,100.0
Haller Lake,0.0012396511372259954,OTHER PROPERTY,100.0
Highland Park,0.009085118498461735,OTHER PROPERTY,100.0
Admiral,0.12652159037161068,OTHER PROPERTY,100.0
Little Saigon,0.007597510626399263,OTHER PROPERTY,100.0
Olympic Manor,0.007597510626399263,OTHER PROPERTY,100.0
South Beacon Hill,0.004151041742080745,OTHER PROPERTY,100.0
Fauntleroy,0.015226005361642907,OTHER PROPERTY,100.0
Westlake,0.005083427533622847,OTHER PROPERTY,100.0
Leschi,0.004447501895193257,OTHER PROPERTY,100.0
South Lake Union,0.005386476868566883,OTHER PROPERTY,100.0
Cedar Park,0.0010788221738770557,OTHER PROPERTY,100.0
Interbay,0.0055642820583243595,OTHER PROPERTY,99.99999999999999
Madrona,0.0036711779796119374,OTHER PROPERTY,100.0
Downtown,0.007597510626399263,OTHER PROPERTY,100.0
North Queen Anne,0.00467233384281079,OTHER PROPERTY,100.0
Portage Bay,0.003188233849896839,OTHER PROPERTY,99.99999999999999
Laurelhurst,0.0019977282921530364,OTHER PROPERTY,100.0
Dunlap,0.003179035434201677,OTHER PROPERTY,100.0
Judkins Park,0.005339912443882255,OTHER PROPERTY,100.0
International District,0.007493771549437821,OTHER PROPERTY,100.0
Arbor Heights,0.00895497367833794,OTHER PROPERTY,100.0
South Delridge,0.012266444622404487,OTHER PROPERTY,100.0
Ballard,0.0025038286575172807,OTHER PROPERTY,100.0
Pinehurst,0.0012849071459894092,OTHER PROPERTY,100.00000000000001
Loyal Heights,0.0023733265347833958,OTHER PROPERTY,100.0
Olympic Hills,0.0010903699731993986,OTHER PROPERTY,100.0
Cascade,0.005598038750479755,OTHER PROPERTY,100.00000000000001
Wallingford,0.0027414635071145903,OTHER PROPERTY,100.0
Uptown,0.007077284074520001,OTHER PROPERTY,100.0
Crown Hill,0.0018606810094506233,OTHER PROPERTY,100.0
Yesler Terrace ,0.006553735854619823,OTHER PROPERTY,99.99999999999999
Waterfront,0.008830915767311057,OTHER PROPERTY,100.0
Alki,0.40538601928691165,OTHER PROPERTY,100.0
Hawthorne Hills,0.001699788166392026,OTHER PROPERTY,100.0
Lakewood,0.0037711767782799403,OTHER PROPERTY,100.0
Gatewood,0.03283141990079117,OTHER PROPERTY,100.0
Jackson Place ,0.005917459945903571,OTHER PROPERTY,100.0
Madison Valley,0.003500328931708036,OTHER PROPERTY,100.0
Hillman City,0.004137388459922371,OTHER PROPERTY,100.0
Bryant,0.0018424493759445627,OTHER PROPERTY,100.0
North Beach,0.001841573173175229,OTHER PROPERTY,100.0
Roosevelt,0.0019744770277300887,OTHER PROPERTY,100.0
North College Park,0.001669580113218518,OTHER PROPERTY,100.0
Bitter Lake,0.0011989343525497177,OTHER PROPERTY,100.0
Brighton,0.0035629936114328076,OTHER PROPERTY,100.0
West Queen Anne,0.0064078178550916656,OTHER PROPERTY,100.0
Georgetown,0.008123095306461962,OTHER PROPERTY,100.0
Genesee,0.24901076961771618,OTHER PROPERTY,100.0
Belltown,0.007728148241240739,OTHER PROPERTY,100.0
Holly Park ,0.004233323431791725,OTHER PROPERTY,100.0
Madison Park,0.002645642933815929,OTHER PROPERTY,100.0
Rainier Beach,0.002581149350015912,OTHER PROPERTY,100.0
Fairmount Park,0.05955810830967566,OTHER PROPERTY,100.0
Meadowbrook,0.0012680765400127176,OTHER PROPERTY,99.99999999999999
West Woodland,0.002983595524404331,OTHER PROPERTY,100.0
Northgate,0.0013768309450984096,OTHER PROPERTY,100.0
Seward Park,0.0033266052463962565,OTHER PROPERTY,100.0
University District,0.0024218873742547307,OTHER PROPERTY,100.0
First Hill,0.006427946399900933,OTHER PROPERTY,100.0
Columbia City,0.00470641391988634,OTHER PROPERTY,100.0
North Beacon Hill,0.007183801835693123,OTHER PROPERTY,100.0
