hood,influence,largestInfluencer,largestInfluencerPercent
Fremont,0.047858108568944666,FRAUD,99.99999999999999
Junction,0.015814148547549395,FRAUD,100.0
Central,0.07252577654213284,FRAUD,100.0
Ravenna,0.016347047365556252,FRAUD,100.0
Garfield,0.23787566290919013,FRAUD,100.0
Seaview,0.011343884104551477,FRAUD,99.99999999999999
Green Lake,0.018958285553736586,FRAUD,100.0
Minor,0.12762857153505625,FRAUD,100.0
Roxhill,0.007330904223847382,FRAUD,100.0
Rainier View,0.0040777893416978255,FRAUD,100.0
Denny - Blaine,0.05230899314937416,FRAUD,100.0
Broadview,0.005940815321731174,FRAUD,100.0
Pioneer Square,0.2250402638022067,FRAUD,100.0
Beacon Hill,0.013069243443273277,FRAUD,100.0
Lower Queen Anne,0.3596670108114107,FRAUD,100.0
High Point,0.012817121051953873,FRAUD,100.0
Industrial District,0.021899550289505958,FRAUD,99.99999999999999
Blue Ridge,0.008679435836683364,FRAUD,100.0
Maple Leaf,0.010004483358109372,FRAUD,100.00000000000001
Greenwood,0.010228900573901176,FRAUD,100.0
Broadmoor,0.04624830754264754,FRAUD,100.0
View Ridge,0.010313015593508515,FRAUD,100.0
East Queen Anne,0.13680488917766526,FRAUD,100.0
Whittier Heights,0.013946319832289902,FRAUD,100.0
Riverview,0.011735389893359283,FRAUD,100.0
Denny Triangle,0.471301832032037,FRAUD,100.0
Wedgwood,0.01042532802146394,FRAUD,100.0
Eastlake,0.10467083350242337,FRAUD,100.0
North Delridge,0.018716690774927776,FRAUD,100.0
Capitol Hill,0.38081373075985414,FRAUD,99.99999999999999
Atlantic,0.07695592674830645,FRAUD,100.0
South Park,0.008437577799523407,FRAUD,100.0
Matthews Beach,0.008309530366577616,FRAUD,100.0
Mt. Baker,0.0295242610304596,FRAUD,100.0
Magnolia,0.029958082751116045,FRAUD,100.0
Sunset Hill,0.011243372697747465,FRAUD,99.99999999999999
Montlake,0.06123680368744665,FRAUD,100.0
Victory Heights,0.007059137487671263,FRAUD,100.0
Phinney Ridge,0.019334211769542184,FRAUD,100.0
Windermere,0.012597723153212618,FRAUD,100.00000000000001
Haller Lake,0.006239750269200943,FRAUD,100.0
Highland Park,0.00737194204544616,FRAUD,100.0
Admiral,0.021950487737979262,FRAUD,100.0
Little Saigon,0.39637338154043367,FRAUD,100.00000000000001
Olympic Manor,0.39637338154043367,FRAUD,100.00000000000001
South Beacon Hill,0.0075272802683506584,FRAUD,99.99999999999999
Fauntleroy,0.006607970028401255,FRAUD,100.0
Westlake,0.3245865612070664,FRAUD,100.0
Leschi,0.051033459313188215,FRAUD,100.0
South Lake Union,1.0583267765135362,FRAUD,100.0
Cedar Park,0.005572203208691141,FRAUD,100.0
Interbay,0.047250650704284816,FRAUD,100.0
Madrona,0.05670922205074971,FRAUD,100.0
Downtown,0.39637338154043367,FRAUD,100.00000000000001
North Queen Anne,0.0631074357762469,FRAUD,100.0
Portage Bay,0.06483706970817632,FRAUD,100.0
Laurelhurst,0.019879004016177267,FRAUD,100.0
Dunlap,0.006166295991383141,FRAUD,100.0
Judkins Park,0.050446561750132284,FRAUD,100.0
International District,0.13578203810675765,FRAUD,100.0
Arbor Heights,0.005112428564899888,FRAUD,100.0
South Delridge,0.007552903061926457,FRAUD,100.0
Ballard,0.013633480315715579,FRAUD,100.0
Pinehurst,0.0069972250897620426,FRAUD,100.0
Loyal Heights,0.012721978612191197,FRAUD,100.00000000000001
Olympic Hills,0.005536959940037901,FRAUD,100.0
Cascade,1.8799841505148023,FRAUD,100.0
Wallingford,0.03435291762379285,FRAUD,100.0
Uptown,0.3596670108114107,FRAUD,100.0
Crown Hill,0.009862061342569471,FRAUD,100.0
Yesler Terrace ,0.16249300721255472,FRAUD,100.0
Waterfront,0.3922857832660124,FRAUD,100.0
Alki,0.015398206824623614,FRAUD,100.0
Hawthorne Hills,0.014030301037057526,FRAUD,100.0
Lakewood,0.012799694789352924,FRAUD,100.0
Gatewood,0.009125256654861622,FRAUD,100.0
Jackson Place ,0.08765059618301962,FRAUD,99.99999999999999
Madison Valley,0.06665835593455446,FRAUD,100.0
Hillman City,0.010333036427831056,FRAUD,100.0
Bryant,0.016438519298109855,FRAUD,100.0
North Beach,0.008679435836683364,FRAUD,100.0
Roosevelt,0.016950261806314947,FRAUD,100.0
North College Park,0.010368599695553982,FRAUD,100.0
Bitter Lake,0.00549918362975228,FRAUD,100.0
Brighton,0.0075472861816389,FRAUD,100.0
West Queen Anne,0.10259128715122039,FRAUD,100.0
Georgetown,0.011239764818683018,FRAUD,100.0
Genesee,0.014833840431391106,FRAUD,100.0
Belltown,2.093305235419694,FRAUD,100.0
Holly Park ,0.008581917238993444,FRAUD,100.0
Madison Park,0.035204401187611735,FRAUD,100.0
Rainier Beach,0.004702962526022071,FRAUD,100.0
Fairmount Park,0.012978216014460142,FRAUD,100.0
Meadowbrook,0.007464118500056681,FRAUD,100.0
West Woodland,0.02327068917681223,FRAUD,99.99999999999999
Northgate,0.007826175222684272,FRAUD,100.0
Seward Park,0.009131879897378738,FRAUD,100.0
University District,0.028665684975802345,FRAUD,100.0
First Hill,0.4034693262893341,FRAUD,100.0
Columbia City,0.013959706471458768,FRAUD,100.0
North Beacon Hill,0.03513686155989873,FRAUD,100.0
