hood,influence,largestInfluencer,largestInfluencerPercent
Fremont,0.0350876252440064,FRAUD,100.0
Junction,0.0021359378248780436,FRAUD,100.0
Central,0.006231422581325165,FRAUD,100.0
Ravenna,0.1410048076255553,FRAUD,100.0
Garfield,0.013706884418169214,FRAUD,100.0
Seaview,0.0017815455770184875,FRAUD,99.99999999999999
Green Lake,0.32674956982649994,FRAUD,100.0
Minor,0.00630241283271584,FRAUD,100.0
Roxhill,0.0013455573088643816,FRAUD,100.0
Rainier View,0.0010011559028327182,FRAUD,100.0
Denny - Blaine,0.008372552796792608,FRAUD,100.0
Broadview,0.01208594149861428,FRAUD,100.0
Pioneer Square,0.005401803803322719,FRAUD,100.0
Beacon Hill,0.0020110599500677926,FRAUD,100.0
Lower Queen Anne,0.009349994472486372,FRAUD,100.0
High Point,0.001857650469787175,FRAUD,100.0
Industrial District,0.0024534910250124738,FRAUD,100.0
Blue Ridge,0.01461557712803423,FRAUD,100.0
Maple Leaf,0.08729352558898662,FRAUD,99.99999999999999
Greenwood,0.038858450997920305,FRAUD,100.0
Broadmoor,0.01408814504019499,FRAUD,100.0
View Ridge,0.028480093939240392,FRAUD,100.00000000000001
East Queen Anne,0.017218886402104703,FRAUD,100.0
Whittier Heights,0.03242570485325891,FRAUD,100.0
Riverview,0.00176472124884283,FRAUD,100.0
Denny Triangle,0.012651369890054928,FRAUD,100.0
Wedgwood,0.05266788156728102,FRAUD,99.99999999999999
Eastlake,0.02383308888953069,FRAUD,99.99999999999999
North Delridge,0.0022596912822015003,FRAUD,100.0
Capitol Hill,0.011415525840598345,FRAUD,100.0
Atlantic,0.004822029185319667,FRAUD,100.0
South Park,0.0014879231615504069,FRAUD,100.0
Matthews Beach,0.024950021111952526,FRAUD,100.0
Mt. Baker,0.0034013984617582912,FRAUD,100.00000000000001
Magnolia,0.007750522628612037,FRAUD,100.0
Sunset Hill,0.011794946040684092,FRAUD,99.99999999999999
Montlake,0.02146937213036205,FRAUD,99.99999999999999
Victory Heights,0.02657327994663771,FRAUD,99.99999999999999
Phinney Ridge,0.0618041220868477,FRAUD,100.0
Windermere,0.02073976715415817,FRAUD,100.0
Haller Lake,0.018232459693039535,FRAUD,100.0
Highland Park,0.0013532897192255946,FRAUD,100.0
Admiral,0.0026581756721619576,FRAUD,100.0
Little Saigon,0.0061411271625417905,FRAUD,100.0
Olympic Manor,0.0061411271625417905,FRAUD,100.0
South Beacon Hill,0.0014660161341569172,FRAUD,100.0
Fauntleroy,0.001267502854609172,FRAUD,100.0
Westlake,0.014044973887475373,FRAUD,100.0
Leschi,0.004950027538202154,FRAUD,100.0
South Lake Union,0.011297929052172377,FRAUD,100.0
Cedar Park,0.014479785590200465,FRAUD,100.0
Interbay,0.010732543961524177,FRAUD,100.0
Madrona,0.0068669131358879126,FRAUD,100.0
Downtown,0.0061411271625417905,FRAUD,100.0
North Queen Anne,0.01635475763961683,FRAUD,100.0
Portage Bay,0.032113292432044534,FRAUD,100.0
Laurelhurst,0.028418578747085525,FRAUD,100.0
Dunlap,0.0013249577478756998,FRAUD,100.00000000000001
Judkins Park,0.004302949348700254,FRAUD,100.0
International District,0.005076828928211371,FRAUD,100.0
Arbor Heights,0.0010745373203970212,FRAUD,100.0
South Delridge,0.0013689126984711396,FRAUD,99.99999999999999
Ballard,0.018005253348537593,FRAUD,100.0
Pinehurst,0.026193883515351565,FRAUD,100.0
Loyal Heights,0.01839161029745437,FRAUD,100.0
Olympic Hills,0.014622710281087635,FRAUD,100.0
Cascade,0.010004353960769976,FRAUD,100.0
Wallingford,0.10123248175571761,FRAUD,100.0
Uptown,0.009349994472486372,FRAUD,100.0
Crown Hill,0.023398306001199114,FRAUD,100.00000000000001
Yesler Terrace ,0.005635307766262719,FRAUD,100.0
Waterfront,0.0059104385669972535,FRAUD,100.0
Alki,0.002293142639324169,FRAUD,100.0
Hawthorne Hills,0.03285832170462843,FRAUD,100.0
Lakewood,0.002229869927978826,FRAUD,100.0
Gatewood,0.0015468442835379727,FRAUD,100.0
Jackson Place ,0.005029882183833771,FRAUD,100.0
Madison Valley,0.008973273547576505,FRAUD,100.0
Hillman City,0.001850136577249216,FRAUD,100.0
Bryant,0.04987599540087388,FRAUD,100.0
North Beach,0.01461557712803423,FRAUD,100.0
Roosevelt,1.2804381152052609,FRAUD,100.0
North College Park,0.07264743240520831,FRAUD,100.0
Bitter Lake,0.01214760314148408,FRAUD,100.0
Brighton,0.0015158609551518753,FRAUD,100.0
West Queen Anne,0.010458673629685675,FRAUD,100.0
Georgetown,0.0017655118300410875,FRAUD,100.0
Genesee,0.0020890884780647915,FRAUD,100.0
Belltown,0.007543084116541481,FRAUD,100.0
Holly Park ,0.0016082343822816044,FRAUD,100.0
Madison Park,0.011613515308896169,FRAUD,100.00000000000001
Rainier Beach,0.001106467273599111,FRAUD,100.0
Fairmount Park,0.001890335877404935,FRAUD,100.0
Meadowbrook,0.028157371129341635,FRAUD,100.00000000000001
West Woodland,0.03073502477673023,FRAUD,100.0
Northgate,0.03581754138667993,FRAUD,100.0
Seward Park,0.0017977047064435803,FRAUD,100.0
University District,0.11280707927958708,FRAUD,100.0
First Hill,0.0067597111283109424,FRAUD,100.0
Columbia City,0.002202145757376831,FRAUD,100.0
North Beacon Hill,0.003272195405098267,FRAUD,100.00000000000001
