hood,influence,largestInfluencer,largestInfluencerPercent
Fremont,0.15528382221472067,THREATS,37.270619433204445
Junction,0.044594916146162,PROPERTY DAMAGE,33.79790084195406
Central,0.5852805680837571,CAR PROWL,90.59371682213043
Ravenna,0.23084506921502124,FORGERY,60.41185404493118
Garfield,0.11194581996056702,CAR PROWL,45.32367994583778
Seaview,0.038004516426616314,PROPERTY DAMAGE,35.540548400184804
Green Lake,0.5106411994835021,THREATS,73.78370778608
Minor,0.40883933582070464,CAR PROWL,86.2584793625302
Roxhill,0.04168640972660771,PROPERTY DAMAGE,42.640090534617784
Rainier View,0.038303489299013484,PROPERTY DAMAGE,56.90110270655685
Denny - Blaine,0.8113872108004361,CAR PROWL,93.6300009199249
Broadview,0.13594054102911426,FRAUD,76.75015899105686
Pioneer Square,0.12871012871453064,CAR PROWL,58.18430320700177
Beacon Hill,1.8363837908948537,PROPERTY DAMAGE,66.55925269666743
Lower Queen Anne,0.09216165342165772,CAR PROWL,47.82411676791157
High Point,0.05908148303418457,PROPERTY DAMAGE,38.70181614236745
Industrial District,0.19475173243115396,BURGLARY,52.05368167772279
Blue Ridge,0.09490289227829024,FRAUD,45.245208623531845
Maple Leaf,0.2931156851465468,FRAUD,73.46965118443185
Greenwood,0.24766644843768104,FRAUD,53.68729913812329
Broadmoor,0.2706363318097448,CAR PROWL,73.90029427653477
View Ridge,0.08822032354013908,FORGERY,32.829189439297764
East Queen Anne,0.11595919354603082,CAR PROWL,38.180808416031745
Whittier Heights,0.2567966554348021,THREATS,70.46685008944154
Riverview,0.08561973271241115,PROPERTY DAMAGE,41.07049053997182
Denny Triangle,0.20255798842723233,CAR PROWL,69.15054850431174
Wedgwood,0.11921224513092735,FRAUD,41.81032445931094
Eastlake,0.1864404857799512,CAR PROWL,42.58924971650141
North Delridge,0.06798701162623232,PROPERTY DAMAGE,36.25915197674242
Capitol Hill,0.30977296406081295,CAR PROWL,80.60007065578827
Atlantic,0.18912288673482577,CAR PROWL,63.706286815298206
South Park,0.1157501542741266,PROPERTY DAMAGE,50.448216023744685
Matthews Beach,0.08368895491240932,FRAUD,45.095487718657004
Mt. Baker,0.17410183802108928,PROPERTY DAMAGE,44.51893514203764
Magnolia,0.050894997743593656,CAR PROWL,25.811812157061315
Sunset Hill,0.07034398446830994,THREATS,40.92536411082122
Montlake,0.24254291197936637,CAR PROWL,53.222500163922824
Victory Heights,0.2356409416235679,FRAUD,82.80404763421821
Phinney Ridge,1.5521632385896729,THREATS,94.300153696838
Windermere,0.08687661935981957,FORGERY,37.39773861401363
Haller Lake,1.103602653765845,FRAUD,96.7882234818749
Highland Park,0.060346295986552535,PROPERTY DAMAGE,46.89943048724296
Admiral,0.04129071640651852,PROPERTY DAMAGE,28.26664756455607
Little Saigon,0.1517462109032795,CAR PROWL,65.66895641339711
Olympic Manor,0.1517462109032795,CAR PROWL,65.66895641339711
South Beacon Hill,0.1801784662800977,PROPERTY DAMAGE,70.29080680950177
Fauntleroy,0.03272206107196639,PROPERTY DAMAGE,40.980607266684615
Westlake,0.13174910618590832,CAR PROWL,51.605229000152995
Leschi,0.22796443038684946,CAR PROWL,72.19122483257331
South Lake Union,0.16958506163028364,CAR PROWL,66.08632140455295
Cedar Park,0.11918122611728642,FRAUD,76.48837342042123
Interbay,0.06749216987761911,CAR PROWL,27.255808852302955
Madrona,0.7857944746018771,CAR PROWL,93.42134834438939
Downtown,0.1517462109032795,CAR PROWL,65.66895641339711
North Queen Anne,0.09358861791546844,THREATS,28.759150406245467
Portage Bay,0.24351182275355468,FORGERY,50.90079264590631
Laurelhurst,0.153058076148101,FORGERY,51.946743002366546
Dunlap,0.10024186401328679,PROPERTY DAMAGE,67.71709910199309
Judkins Park,0.17251528609588512,CAR PROWL,53.86370382464969
International District,0.15363070187691746,CAR PROWL,60.288993006373744
Arbor Heights,0.0266994442005358,PROPERTY DAMAGE,42.05882678393885
South Delridge,0.0489766231832712,PROPERTY DAMAGE,44.04337962870834
Ballard,0.11173945571424033,THREATS,52.60993175618446
Pinehurst,0.9602846056586183,FRAUD,95.64068154583887
Loyal Heights,0.11505693320358157,THREATS,52.06567674854981
Olympic Hills,0.1618061010563361,FRAUD,82.57839383178901
Cascade,0.19355851063593305,CAR PROWL,71.6654546633579
Wallingford,0.32604366658518524,FORGERY,59.98855113419386
Uptown,0.09216165342165772,CAR PROWL,47.82411676791157
Crown Hill,0.15307426155597859,FRAUD,44.27636348173548
Yesler Terrace ,0.19898690466617083,CAR PROWL,70.82268842913781
Waterfront,0.11863521812331274,CAR PROWL,58.26137140082892
Alki,0.03274371812589036,PROPERTY DAMAGE,28.14926043526441
Hawthorne Hills,0.11613116093074972,FORGERY,45.717730914632234
Lakewood,0.34407991214634465,PROPERTY DAMAGE,79.57054867730402
Gatewood,0.03944138660449096,PROPERTY DAMAGE,38.82499211653816
Jackson Place ,0.20026460825555772,CAR PROWL,67.31060953921136
Madison Valley,2.157041052132094,CAR PROWL,97.49868499238939
Hillman City,1.0107087544533935,PROPERTY DAMAGE,91.1008824988796
Bryant,0.1716530112083815,FORGERY,57.81917210089728
North Beach,0.09490289227829024,FRAUD,45.245208623531845
Roosevelt,0.25319411764472455,FORGERY,48.41700491742022
North College Park,0.377863767643114,FRAUD,72.17130543790608
Bitter Lake,0.20554362789822123,FRAUD,86.06617520777898
Brighton,0.19413492496127652,PROPERTY DAMAGE,75.48251960014692
West Queen Anne,0.07642111489778694,CAR PROWL,36.048355487585695
Georgetown,0.26865665191744487,BURGLARY,52.29057759445669
Genesee,0.04036552775968458,PROPERTY DAMAGE,33.07624817098557
Belltown,0.11643439964933326,CAR PROWL,59.08346919116727
Holly Park ,0.3335964977785886,PROPERTY DAMAGE,78.30574251892392
Madison Park,0.2152599266356039,CAR PROWL,72.88072881355363
Rainier Beach,0.05130158272041079,PROPERTY DAMAGE,60.224788600710504
Fairmount Park,0.047782433845834735,PROPERTY DAMAGE,36.802290832631215
Meadowbrook,0.13722837253709239,FRAUD,69.05506134828488
West Woodland,0.19937148383234257,THREATS,66.1562493264382
Northgate,1.2408165689514188,FRAUD,95.86296056183576
Seward Park,0.2558204792921974,PROPERTY DAMAGE,79.9658271947633
University District,7.221625984391622,FORGERY,98.56374466726402
First Hill,0.21825463590043676,CAR PROWL,75.71910163048733
Columbia City,1.8711189419093084,PROPERTY DAMAGE,92.382397907389
North Beacon Hill,0.18837877650135487,PROPERTY DAMAGE,41.626340592506175
