hood,influence,largestInfluencer,largestInfluencerPercent
Fremont,1.7162493530659682,FRAUD,76.78985124725348
Junction,0.05193355807640769,FRAUD,57.06798567351315
Central,0.21153046957166874,FRAUD,51.94246393547669
Ravenna,0.1717992184280273,FRAUD,80.5082425592048
Garfield,2.279353618284123,FRAUD,93.86798681927311
Seaview,0.03828282920323365,FRAUD,58.34769800218997
Green Lake,0.2695592671756593,FRAUD,62.315036084056146
Minor,0.3549556140296639,FRAUD,40.06117800116016
Roxhill,0.026271774699573546,FRAUD,60.27757065875281
Rainier View,0.015508210787699164,FRAUD,62.62057934427732
Denny - Blaine,0.14044080765617228,FRAUD,56.151107127294694
Broadview,0.037482992616363314,FRAUD,61.54518134357542
Pioneer Square,1.1422043572632228,FORGERY,54.041679807335605
Beacon Hill,0.06008709186174163,FRAUD,67.7111033753825
Lower Queen Anne,1.6814762007564688,FRAUD,89.24140089638232
High Point,0.04496538974772517,FRAUD,58.91971573858381
Industrial District,0.09644526588510863,FRAUD,64.66699729777355
Blue Ridge,0.06167111838544491,FRAUD,57.321847809311336
Maple Leaf,0.07930902494141351,FRAUD,67.94709430925587
Greenwood,0.08515879813233641,FRAUD,58.31813144813513
Broadmoor,0.14591863289043536,FRAUD,64.69019776717134
View Ridge,0.06368434584674747,FRAUD,71.95399292750544
East Queen Anne,1.1227942671370617,FRAUD,88.82075629917573
Whittier Heights,0.14607145764411988,FRAUD,48.30128133870933
Riverview,0.043374048782252095,FRAUD,60.61519926654778
Denny Triangle,0.4900558390247899,FRAUD,57.782130028406435
Wedgwood,0.07424101248171171,FRAUD,72.35459229218083
Eastlake,0.4516147249273185,FRAUD,77.86207075983393
North Delridge,0.06451985180393661,FRAUD,57.42033203953977
Capitol Hill,0.41979722747258097,FRAUD,46.85092813043321
Atlantic,0.49901520816199546,FRAUD,71.4190118834384
South Park,0.03257674267981129,FRAUD,62.52213208841585
Matthews Beach,0.05076150809121108,FRAUD,70.14336409178934
Mt. Baker,0.26787968298412423,FRAUD,82.83336343323899
Magnolia,0.15407410437366229,FRAUD,69.3400339356197
Sunset Hill,0.07973772594386785,FRAUD,55.79102602953688
Montlake,0.22808875520352084,FRAUD,71.48132466050235
Victory Heights,0.04578227065751739,FRAUD,67.1123040781948
Phinney Ridge,0.3516844242016687,VEHICLE THEFT,59.715014548441
Windermere,0.06898443729204262,FRAUD,71.8033565210358
Haller Lake,0.04009705569747119,FRAUD,64.06065980259797
Highland Park,0.027279136935535058,FRAUD,61.24792437137312
Admiral,0.06794488355386097,FRAUD,56.0935948004589
Little Saigon,4.3152192381070344,FORGERY,67.36801723493468
Olympic Manor,4.3152192381070344,FORGERY,67.36801723493468
South Beacon Hill,0.0301346193563556,FRAUD,64.00220524030819
Fauntleroy,0.023441438889186712,FRAUD,60.0838033641908
Westlake,0.9223736654148506,FRAUD,82.96662743862076
Leschi,0.21799709069835185,FRAUD,64.67560030088144
South Lake Union,0.6316621642710715,FRAUD,54.93406806507155
Cedar Park,0.03284839749530629,FRAUD,66.43978428260466
Interbay,0.3062546738852151,FRAUD,75.30719967887192
Madrona,0.15729777507683265,FRAUD,54.13493163833176
Downtown,4.3152192381070344,FORGERY,67.36801723493468
North Queen Anne,0.5948115880880119,FRAUD,77.94127009853085
Portage Bay,0.4002903987085155,FRAUD,80.14837099863286
Laurelhurst,0.1179432338465709,FRAUD,75.29071517740229
Dunlap,0.02421854917903652,FRAUD,63.579459387211244
Judkins Park,0.5074477574001995,FRAUD,83.48874813653627
International District,0.5795018538453165,FRAUD,36.26154864830669
Arbor Heights,0.018334626081791667,FRAUD,60.521687098563284
South Delridge,0.027382230599129528,FRAUD,60.5893049588506
Ballard,0.11974090791708147,FRAUD,50.72141505500458
Pinehurst,0.046444047863284224,FRAUD,65.60825912196012
Loyal Heights,0.10912348908636879,FRAUD,51.6363646767527
Olympic Hills,0.03307178395402017,FRAUD,65.9185903155995
Cascade,0.7078835185697561,FRAUD,36.507405805179154
Wallingford,0.9806561614161559,FRAUD,87.51050289778688
Uptown,1.6814762007564688,FRAUD,89.24140089638232
Crown Hill,0.07828343515928834,FRAUD,56.315911468973795
Yesler Terrace ,0.5974042451943222,FORGERY,37.04751550887218
Waterfront,2.4567268007620395,FORGERY,61.818957170547755
Alki,0.04955302496239966,FRAUD,58.018151164144165
Hawthorne Hills,0.08960983535222791,FRAUD,74.45500973906952
Lakewood,0.05888182314137353,FRAUD,68.36812319647623
Gatewood,0.03175598379107744,FRAUD,59.28869836756732
Jackson Place ,0.4507966898113296,FRAUD,62.95128425507523
Madison Valley,0.165098006869786,FRAUD,54.227895072378345
Hillman City,0.044848527096816526,FRAUD,66.48654353437547
Bryant,0.1255228208485123,FRAUD,77.76283088939863
North Beach,0.06167111838544491,FRAUD,57.321847809311336
Roosevelt,0.22365100950125374,FRAUD,79.76044128486353
North College Park,0.08662514339181736,FRAUD,63.210648888255086
Bitter Lake,0.033915338987136764,FRAUD,62.812718329132814
Brighton,0.03050846042871898,FRAUD,64.43227268452637
West Queen Anne,1.044412621578088,FRAUD,90.81957260607379
Georgetown,0.04573579505199643,FRAUD,63.875583181751395
Genesee,0.048567897420305164,FRAUD,57.31380600962128
Belltown,1.2581204309638412,EMBEZZLE,44.43097908292528
Holly Park ,0.035339214286744934,FRAUD,64.858556002982
Madison Park,0.11407145292947152,FRAUD,63.676133690710934
Rainier Beach,0.018036785267860803,FRAUD,62.880997287566984
Fairmount Park,0.044208510619895995,FRAUD,58.191794597465325
Meadowbrook,0.047972916147249904,FRAUD,68.4032244962501
West Woodland,0.5637696702042283,VEHICLE THEFT,71.80945088178179
Northgate,0.05480982830337307,FRAUD,65.67430622234937
Seward Park,0.03828730159074538,FRAUD,65.69323043606975
University District,2.3178190275939063,FRAUD,97.40199848057556
First Hill,1.510562904195647,EMBEZZLE,44.97008498856584
Columbia City,0.06814318425690484,FRAUD,69.68769174522915
North Beacon Hill,0.643854468776926,FRAUD,90.84339783397509
