hood,influence,largestInfluencer,largestInfluencerPercent
Fremont,0.18896671788912986,FRAUD,68.92745256556937
Junction,0.18399977965119368,FORGERY,62.61843003415928
Central,0.22127206032917146,[INC - CASE DC USE ONLY],75.4704477195704
Ravenna,0.06517106571818532,FRAUD,61.21010156928544
Garfield,0.19830135538210497,THREATS,52.381371698372945
Seaview,0.15815179974889867,FRAUD,46.17665790745334
Green Lake,0.26091342746314417,FRAUD,85.54960290137507
Minor,0.5100264696362625,[INC - CASE DC USE ONLY],84.55038826346241
Roxhill,2.446116999925256,FRAUD,98.3489382594179
Rainier View,0.023116608878185514,FRAUD,59.45580057070501
Denny - Blaine,0.12631847380025937,[INC - CASE DC USE ONLY],65.95160886289527
Broadview,0.05524806394868281,FRAUD,59.09381123947685
Pioneer Square,0.2599248655092251,THREATS,49.63722780837033
Beacon Hill,0.0662608398830543,FRAUD,48.06782114450105
Lower Queen Anne,0.32864370537300547,THREATS,74.1245833262464
High Point,0.5489780012541889,FORGERY,70.95648373451841
Industrial District,0.15157679226860055,FORGERY,52.96778111137919
Blue Ridge,0.1803924022273277,[INC - CASE DC USE ONLY],50.09683819483074
Maple Leaf,0.07026549459197372,FRAUD,69.87723105158715
Greenwood,0.17350226460042092,FRAUD,76.57482963259493
Broadmoor,0.09199773932753011,[INC - CASE DC USE ONLY],53.24527903225118
View Ridge,0.03653139349903241,FRAUD,54.38685893440049
East Queen Anne,0.15727057311786155,THREATS,38.05437251580746
Whittier Heights,0.8752748704366587,FRAUD,89.14461602167876
Riverview,0.37474307858605743,FRAUD,60.46289474635315
Denny Triangle,0.29180918917260745,[INC - CASE DC USE ONLY],45.33285856459961
Wedgwood,0.044983459646683266,FRAUD,60.35125376371561
Eastlake,0.13678284042597794,[INC - CASE DC USE ONLY],37.03939626054788
North Delridge,1.805043394871941,FORGERY,95.30419099196273
Capitol Hill,0.39903701366352,[INC - CASE DC USE ONLY],66.41719001776687
Atlantic,0.16314954227360515,[INC - CASE DC USE ONLY],59.55314948714105
South Park,0.13761193369457078,FRAUD,75.44163963055072
Matthews Beach,0.0332364905242467,FRAUD,56.907544106436234
Mt. Baker,0.07168507428664805,[INC - CASE DC USE ONLY],38.94617968845661
Magnolia,0.08812691531650882,FRAUD,45.025318581069044
Sunset Hill,21.24041991728767,[INC - CASE DC USE ONLY],99.50851607311037
Montlake,0.10575447439621345,[INC - CASE DC USE ONLY],46.77278054180831
Victory Heights,0.039640945302549344,FRAUD,62.904778422440366
Phinney Ridge,3.593192519156698,FRAUD,98.41960278094514
Windermere,0.03688577465851054,FRAUD,47.89456718123019
Haller Lake,0.045145957956273894,FRAUD,63.55134772458995
Highland Park,0.4577507445179543,FRAUD,92.46324689341903
Admiral,0.08894423268649726,FORGERY,40.848511200301836
Little Saigon,0.3877358519894911,THREATS,51.42046779619856
Olympic Manor,0.3877358519894911,THREATS,51.42046779619856
South Beacon Hill,0.0478883068978435,FRAUD,59.27039038460312
Fauntleroy,0.34732228461801684,FRAUD,90.89750132562534
Westlake,0.22255196467216282,THREATS,52.980009632515156
Leschi,0.12278702497489406,[INC - CASE DC USE ONLY],61.378582914794826
South Lake Union,0.384163328695463,THREATS,58.639079707882
Cedar Park,0.02837082547489174,FRAUD,59.49739496909743
Interbay,0.11383741253213381,FRAUD,46.59294273227508
Madrona,0.15229488836657315,[INC - CASE DC USE ONLY],70.05579196217703
Downtown,0.3877358519894911,THREATS,51.42046779619856
North Queen Anne,0.14332466238331232,FRAUD,51.529944652918346
Portage Bay,0.11208734462761372,FRAUD,38.34451313952935
Laurelhurst,0.05147570948909258,FRAUD,44.72278403342004
Dunlap,0.034117629768499816,FRAUD,57.331054540843056
Judkins Park,0.11088574943736913,[INC - CASE DC USE ONLY],52.477605903404644
International District,0.2097006169076203,[INC - CASE DC USE ONLY],51.12452173460781
Arbor Heights,0.14223439458369935,FRAUD,86.63996236042242
South Delridge,8.200306175971736,FRAUD,99.4918689435622
Ballard,0.671214867858841,[INC - CASE DC USE ONLY],61.00191058280411
Pinehurst,0.046194740751706494,FRAUD,64.7648632372082
Loyal Heights,0.6117919032766973,[INC - CASE DC USE ONLY],59.66997606852334
Olympic Hills,0.030155781930850924,FRAUD,60.30379998067589
Cascade,0.5107171091065517,THREATS,55.61696212776014
Wallingford,0.1429451701110741,FRAUD,68.45999999265057
Uptown,0.32864370537300547,THREATS,74.1245833262464
Crown Hill,0.20599781536618125,FRAUD,67.15330160051178
Yesler Terrace ,0.30286108627552766,[INC - CASE DC USE ONLY],65.53284071946987
Waterfront,0.4059514611332102,THREATS,69.26143685581471
Alki,0.06811590994993116,FRAUD,38.6333601795645
Hawthorne Hills,0.04341985908963227,FRAUD,51.079497200914204
Lakewood,0.04238222258936884,FRAUD,40.159606980922476
Gatewood,0.2743277445018443,FRAUD,74.62969867157305
Jackson Place ,0.18848816784138817,[INC - CASE DC USE ONLY],62.73442379204756
Madison Valley,0.17152667585631046,[INC - CASE DC USE ONLY],71.23111435474067
Hillman City,0.04509367533771428,FRAUD,48.22968747494373
Bryant,0.05188766773268553,FRAUD,53.00926329481364
North Beach,0.1803924022273277,[INC - CASE DC USE ONLY],50.09683819483074
Roosevelt,0.09415077322352856,FRAUD,70.13333817893174
North College Park,0.11257322612202965,FRAUD,75.55246652071574
Bitter Lake,0.04264582849154225,FRAUD,60.50887632676973
Brighton,0.038611233803826674,FRAUD,54.264894686097975
West Queen Anne,0.13718888887531605,THREATS,42.66215289479153
Georgetown,0.11708490281606393,FRAUD,60.45071771762139
Genesee,0.13818441417711333,FORGERY,54.32011969509875
Belltown,28.875670241005356,THREATS,99.58210694369771
Holly Park ,0.04749379112624563,FRAUD,55.058150237024996
Madison Park,0.07413674130204839,[INC - CASE DC USE ONLY],51.57594613871524
Rainier Beach,0.02654740780652919,FRAUD,58.939564576606855
Fairmount Park,0.30774310786111947,FORGERY,64.89650732654678
Meadowbrook,0.037215311086428934,FRAUD,61.343018685776556
West Woodland,0.9168124785521823,FRAUD,91.96025403602619
Northgate,0.055541219029974345,FRAUD,66.95226952992905
Seward Park,0.03567879072770863,FRAUD,46.492182783062226
University District,0.09368983309556969,FRAUD,59.199962957505235
First Hill,0.5835271490338767,[INC - CASE DC USE ONLY],68.64709724603777
Columbia City,0.05204034883857719,FRAUD,42.16034425655406
North Beacon Hill,0.08820451915722771,[INC - CASE DC USE ONLY],31.058821619158913
