hood,influence,largestInfluencer,largestInfluencerPercent
Fremont,0.08806280361016146,FRAUD,52.22270383671426
Junction,0.17461421851626396,[INC - CASE DC USE ONLY],69.34848814966274
Central,0.3211161033920138,FRAUD,76.72133185088661
Ravenna,0.06521422045845862,FRAUD,38.35375909658701
Garfield,0.2176810604604375,FRAUD,60.492058573322865
Seaview,0.1269826634900212,[INC - CASE DC USE ONLY],53.626714106598094
Green Lake,0.06868474854446853,LOST PROPERTY,42.94888619449043
Minor,0.38306108765171876,FRAUD,74.10752533049379
Roxhill,5.625675754250094,ROBBERY,99.22599000508673
Rainier View,0.019153573904766217,FRAUD,35.614675180804774
Denny - Blaine,1.3499262717368796,FRAUD,94.39350207835528
Broadview,0.046153951164131284,LOST PROPERTY,71.43000476810703
Pioneer Square,0.9723657222977595,FRAUD,92.84018672918613
Beacon Hill,0.06054802136892348,FRAUD,37.99387037679178
Lower Queen Anne,0.2526385300965825,FRAUD,73.51952309601889
High Point,0.3720193386088187,[INC - CASE DC USE ONLY],75.11217582474877
Industrial District,0.14966238408190488,[INC - CASE DC USE ONLY],56.08642032931856
Blue Ridge,0.035481435010707704,LOST PROPERTY,49.494183793685075
Maple Leaf,0.26226334378864996,LOST PROPERTY,91.22903799467579
Greenwood,0.0765208357114099,LOST PROPERTY,71.8134509167449
Broadmoor,0.2981892250044324,FRAUD,74.13102671603366
View Ridge,0.04594889805508976,LOST PROPERTY,40.09241928929286
East Queen Anne,0.16535055197662063,FRAUD,56.77540161779207
Whittier Heights,0.04793543829165396,LOST PROPERTY,43.10394468380613
Riverview,0.22300487347261358,[INC - CASE DC USE ONLY],49.414082545635395
Denny Triangle,0.9377091464622621,THREATS,69.93141699569459
Wedgwood,0.06342230610829533,LOST PROPERTY,58.74208286764867
Eastlake,0.23763780975137042,THREATS,50.30621143011345
North Delridge,4.23644012509238,[INC - CASE DC USE ONLY],98.46052720914409
Capitol Hill,7.116390865043717,THREATS,95.20245913029059
Atlantic,0.2215734145345295,FRAUD,74.55785089534695
South Park,0.08122329116097493,ROBBERY,50.30090612742493
Matthews Beach,0.047866425845288364,LOST PROPERTY,55.29559554990571
Mt. Baker,0.09458857325990407,FRAUD,63.699100987388235
Magnolia,0.051914597225459685,FRAUD,57.71443376114843
Sunset Hill,0.031471623330681216,FRAUD,41.56968182496721
Montlake,0.23740749758687216,FRAUD,53.69053253867679
Victory Heights,0.20714984080265492,LOST PROPERTY,91.85370383376235
Phinney Ridge,0.057074423803854746,FRAUD,38.95261966297031
Windermere,0.04739176996824629,FRAUD,49.70470207369515
Haller Lake,0.20524995187413186,LOST PROPERTY,93.01513705761454
Highland Park,0.18783921696845138,ROBBERY,79.2280981411205
Admiral,0.08986445819697085,[INC - CASE DC USE ONLY],43.96780562920243
Little Saigon,1.9953924352642514,FRAUD,95.52017816420498
Olympic Manor,1.9953924352642514,FRAUD,95.52017816420498
South Beacon Hill,0.038599539092406585,FRAUD,33.28909001922787
Fauntleroy,0.2795276735288572,ROBBERY,87.399851431656
Westlake,0.3001674322299546,FRAUD,54.8512689224572
Leschi,0.178193312606558,FRAUD,72.89091679064356
South Lake Union,0.6744799195514286,FRAUD,52.434370385429965
Cedar Park,0.0718231511609968,LOST PROPERTY,81.08280354067959
Interbay,0.07140638897493722,FRAUD,59.71048451333827
Madrona,0.47266047018491064,FRAUD,85.28632661189012
Downtown,1.9953924352642514,FRAUD,95.52017816420498
North Queen Anne,0.09106218481607922,FRAUD,58.16679515625219
Portage Bay,0.17202539529323035,FRAUD,48.35367605904811
Laurelhurst,0.07122879694728758,FRAUD,55.242156751299646
Dunlap,0.02885090613154681,FRAUD,36.61427967079139
Judkins Park,0.1533965536589837,FRAUD,70.69006355403864
International District,0.4005516353939687,FRAUD,83.58908586803605
Arbor Heights,0.09584314384971733,ROBBERY,76.4306526562193
South Delridge,1.5663777152544516,ROBBERY,97.12820330432112
Ballard,0.03854476199769121,FRAUD,40.59882616688045
Pinehurst,0.9872421116958292,LOST PROPERTY,98.34957649610641
Loyal Heights,0.03834208403600387,FRAUD,38.59194912947017
Olympic Hills,0.09218621534764784,LOST PROPERTY,85.54550460535513
Cascade,0.9990670734832104,FRAUD,61.913138841951536
Wallingford,0.08516574162036245,FRAUD,48.085857595432216
Uptown,0.2526385300965825,FRAUD,73.51952309601889
Crown Hill,0.04810164841909177,LOST PROPERTY,57.70365487719537
Yesler Terrace ,0.46073058454688764,FRAUD,82.71081039559905
Waterfront,6.355139864895791,FRAUD,98.83530700607257
Alki,0.0636728078623431,[INC - CASE DC USE ONLY],39.926390451481176
Hawthorne Hills,0.05316443116066054,FRAUD,46.74496169402762
Lakewood,0.04667703745363263,FRAUD,51.76721171045328
Gatewood,0.1899896958513399,ROBBERY,62.88018291741435
Jackson Place ,0.25020076993632134,FRAUD,75.64217418740509
Madison Valley,21.164700218397783,FRAUD,99.48783555965686
Hillman City,0.043051005843729014,FRAUD,42.91372621636095
Bryant,0.06044771652780144,FRAUD,46.48281079728996
North Beach,0.035481435010707704,LOST PROPERTY,49.494183793685075
Roosevelt,0.07256915360615294,LOST PROPERTY,46.072542762481966
North College Park,0.17999881327124703,LOST PROPERTY,87.38212147915958
Bitter Lake,0.06196190913830085,LOST PROPERTY,79.82557757368966
Brighton,0.03397054684250786,FRAUD,38.668737908181136
West Queen Anne,0.11865166725209013,FRAUD,65.06967863074976
Georgetown,0.08384160518450445,[INC - CASE DC USE ONLY],36.90096882437404
Genesee,0.1269413677625263,[INC - CASE DC USE ONLY],61.110958726107185
Belltown,1.1049676880514128,FRAUD,91.51896496338877
Holly Park ,0.040686325100911414,FRAUD,36.58004703124953
Madison Park,0.22994126048663985,FRAUD,77.22734906515696
Rainier Beach,0.022105101951819205,FRAUD,35.89023524552758
Fairmount Park,0.24742447131122708,[INC - CASE DC USE ONLY],71.41747141903353
Meadowbrook,0.09792963498572775,LOST PROPERTY,81.37222533073458
West Woodland,0.05365384244363327,FRAUD,46.48255235616727
Northgate,37.51953994234568,LOST PROPERTY,99.95195352452102
Seward Park,0.03573798696654584,FRAUD,46.39618971799298
University District,0.08380152746794328,FRAUD,48.355023762056796
First Hill,1.2986332888964272,FRAUD,90.1496289244306
Columbia City,0.05399595044656559,FRAUD,47.40548343512646
North Beacon Hill,0.11272486989845563,FRAUD,60.002172127698884
