hood,influence,largestInfluencer,largestInfluencerPercent
Fremont,0.05008398373524563,FRAUD,96.17263806098542
Junction,0.025926534342608845,FRAUD,66.25446995756873
Central,0.06108283607687581,FRAUD,92.35955141958327
Ravenna,0.01663009704348728,FRAUD,91.3214533119744
Garfield,0.26500708354227026,FRAUD,98.97540219673648
Seaview,0.02152563671733877,FRAUD,56.39489384091722
Green Lake,0.019896261635638835,FRAUD,92.86848483964309
Minor,0.09919433525661163,FRAUD,95.0500389853738
Roxhill,0.030998669090736862,ASSAULT,75.61331177013024
Rainier View,0.021306907029682243,ASSAULT,81.27533598285497
Denny - Blaine,0.044813194159848226,FRAUD,92.31974563655429
Broadview,0.0067904536142449744,FRAUD,87.78832448367096
Pioneer Square,0.2126745218980141,FRAUD,97.38086664773431
Beacon Hill,0.05451923247574551,ASSAULT,76.80733088333811
Lower Queen Anne,0.6440295411609956,FRAUD,99.5135045536963
High Point,0.030433687230483168,ASSAULT,55.82196014608118
Industrial District,0.04250715673297419,FRAUD,51.81645895383531
Blue Ridge,0.009901428050953849,FRAUD,89.74451005633195
Maple Leaf,0.010778725022921824,FRAUD,89.75701510460351
Greenwood,0.01130956339416633,FRAUD,90.40784940392366
Broadmoor,0.04017247062614513,FRAUD,93.47153173409309
View Ridge,0.010851147382569275,FRAUD,88.40883229404616
East Queen Anne,0.14501466963720938,FRAUD,98.30410558299612
Whittier Heights,0.015474408941480722,FRAUD,91.92341576527694
Riverview,0.04544686126476416,ASSAULT,73.48475597812106
Denny Triangle,0.29454408731513376,FRAUD,98.94725059530234
Wedgwood,0.011020955158024528,FRAUD,89.15132733596263
Eastlake,0.09065083647869873,FRAUD,97.32894690605833
North Delridge,0.0330544298699948,FRAUD,60.12448168274441
Capitol Hill,0.22482265717967767,FRAUD,98.53143271077305
Atlantic,0.07051094716105519,FRAUD,90.86445705949792
South Park,0.4392777030350239,ASSAULT,98.078494048586
Matthews Beach,0.00893793099774594,FRAUD,87.6870656924449
Mt. Baker,0.035851101757429,FRAUD,73.90417230047427
Magnolia,0.03709466686874693,FRAUD,94.57630200211884
Sunset Hill,0.012990098714315022,FRAUD,90.90139364925889
Montlake,0.052298669262955594,FRAUD,95.35736627364503
Victory Heights,0.007769961974456119,FRAUD,87.84386064525088
Phinney Ridge,0.020895537508035796,FRAUD,93.20830825933434
Windermere,0.012954227724267672,FRAUD,88.57476240923633
Haller Lake,0.007005287079931356,FRAUD,87.73074826675925
Highland Park,0.08027880967246491,ASSAULT,90.68012431182376
Admiral,0.030632502696446746,FRAUD,81.38947593605998
Little Saigon,0.31850546690978504,FRAUD,98.43668568689212
Olympic Manor,0.31850546690978504,FRAUD,98.43668568689212
South Beacon Hill,0.10235199520947603,ASSAULT,92.82499335700649
Fauntleroy,0.022108892683259718,ASSAULT,69.0145345997996
Westlake,0.30332976554353264,FRAUD,99.07333594477024
Leschi,0.047863309351018145,FRAUD,88.09824673854217
South Lake Union,0.5802039496546214,FRAUD,99.4423875829476
Cedar Park,0.006235607768159529,FRAUD,86.50948570061247
Interbay,0.058028623546003,FRAUD,96.30884300104078
Madrona,0.04879614730881922,FRAUD,91.6748560117855
Downtown,0.31850546690978504,FRAUD,98.43668568689212
North Queen Anne,0.07289067554345866,FRAUD,97.06268618232666
Portage Bay,0.05782281166041557,FRAUD,96.1479239885987
Laurelhurst,0.01945330192002806,FRAUD,90.96644887755187
Dunlap,0.044662518624149244,ASSAULT,86.58528526883401
Judkins Park,0.050356840689881464,FRAUD,85.87377547533836
International District,0.12194336015631883,FRAUD,94.95701458313887
Arbor Heights,0.019391119921750122,ASSAULT,72.8808379349783
South Delridge,0.04160453480543815,ASSAULT,81.38416239981628
Ballard,0.01546889494306999,FRAUD,91.843485806919
Pinehurst,0.007750082862909251,FRAUD,88.09229515705772
Loyal Heights,0.014416855491411106,FRAUD,91.5376595730673
Olympic Hills,0.006212293441859966,FRAUD,86.66902319578405
Cascade,0.669940334448213,FRAUD,99.4781965631627
Wallingford,0.03411619023397579,FRAUD,94.81200069468449
Uptown,0.6440295411609956,FRAUD,99.5135045536963
Crown Hill,0.011068438380879663,FRAUD,90.3353590954353
Yesler Terrace ,0.13238229722153128,FRAUD,95.816713865021
Waterfront,0.4095406950238901,FRAUD,98.79083460090582
Alki,0.02216883444523756,FRAUD,77.82009657645808
Hawthorne Hills,0.014294608000471592,FRAUD,89.67165010892569
Lakewood,0.026710585502123865,ASSAULT,55.17364425065686
Gatewood,0.02315642853679916,ASSAULT,58.6262053423291
Jackson Place ,0.07799779372694007,FRAUD,92.09388908648887
Madison Valley,0.05468999481339094,FRAUD,93.69470434743504
Hillman City,0.04004208053145241,ASSAULT,75.31131341523125
Bryant,0.016531356606067756,FRAUD,90.74012696244387
North Beach,0.009901428050953849,FRAUD,89.74451005633195
Roosevelt,0.017438067407389894,FRAUD,91.93300527617103
North College Park,0.01128669576818835,FRAUD,90.25248686256049
Bitter Lake,0.006268695686061688,FRAUD,87.28265774312632
Brighton,0.04722128687659102,ASSAULT,84.55559046180387
West Queen Anne,0.13586619539662217,FRAUD,98.10580896018224
Georgetown,0.11767884769123127,ASSAULT,90.5009223463306
Genesee,0.024016557814695326,FRAUD,67.32664687187882
Belltown,7.2544573796119565,FRAUD,99.94559464155748
Holly Park ,0.0689138712316025,ASSAULT,87.92832963409536
Madison Park,0.03179022341213337,FRAUD,91.70387002194363
Rainier Beach,0.027957377680257776,ASSAULT,83.58228639630505
Fairmount Park,0.025846269102524168,FRAUD,53.40859263831703
Meadowbrook,0.008148139556645374,FRAUD,87.83520339328398
West Woodland,0.025679867816188143,FRAUD,94.01629548070204
Northgate,0.008608102387180079,FRAUD,88.6835355161896
Seward Park,0.02759596382676822,ASSAULT,68.57356693106885
University District,0.027942428272557752,FRAUD,93.77147868470864
First Hill,0.2653554965083749,FRAUD,98.23920672239032
Columbia City,0.035003956708443994,ASSAULT,62.23022429035461
North Beacon Hill,0.04423680059925006,FRAUD,74.00113950408937
