hood,influence,largestInfluencer,largestInfluencerPercent
Fremont,44.22120485217748,CAR PROWL,72.71782628356341
Junction,122.02031914478947,BURGLARY,65.35734742881755
Central,19.151752452752095,FRAUD,29.08760608337379
Ravenna,757.4634440724556,ASSAULT,95.62293849582103
Garfield,16.385401589547758,OTHER PROPERTY,26.518906048321078
Seaview,9.155883175447554,OTHER PROPERTY,36.51838936229309
Green Lake,13.800799911312165,CAR PROWL,33.78934874807321
Minor,78.34224816308677,CAR PROWL,37.1757527298918
Roxhill,7.797406504369191,FRAUD,59.04508090471543
Rainier View,5.881523463580957,FRAUD,44.98707953590218
Denny - Blaine,10.481677764035721,FRAUD,26.02311539985013
Broadview,9.305784075561366,OTHER PROPERTY,46.62399871108405
Pioneer Square,681.6838548671084,BURGLARY,93.67256753717093
Beacon Hill,9.456104191123966,FRAUD,37.67748129880589
Lower Queen Anne,216.888167903598,OTHER PROPERTY,58.331521713188486
High Point,20.312454912506112,VEHICLE THEFT,49.53510328721374
Industrial District,6.1162796849266305,FRAUD,37.568451240396264
Blue Ridge,8.856838650588937,OTHER PROPERTY,46.162991567729804
Maple Leaf,10.139093227359515,OTHER PROPERTY,28.240440422420427
Greenwood,42.73943148861426,OTHER PROPERTY,56.43338177732433
Broadmoor,7.800978860326013,OTHER PROPERTY,29.24189560808051
View Ridge,8.017953845713594,BURGLARY,33.1279592312213
East Queen Anne,16.61140558623666,OTHER PROPERTY,25.920856499148265
Whittier Heights,11.144693645536488,FRAUD,32.76018460693145
Riverview,5.086572027085405,FRAUD,26.41453291418792
Denny Triangle,26.933207056482942,FRAUD,34.48549259408851
Wedgwood,11.312651226338243,FRAUD,36.3460611575142
Eastlake,38.055275769728865,THREATS,20.233409118049938
North Delridge,7.749036100043804,BURGLARY,31.50061561685651
Capitol Hill,60.34960738938168,FRAUD,57.05326143800133
Atlantic,22.6455777166297,BURGLARY,28.50411443102748
South Park,14.527063501932458,BURGLARY,81.78894744779039
Matthews Beach,6.140959889128198,OTHER PROPERTY,25.997338818824044
Mt. Baker,8.176607676789335,FRAUD,19.759539040006832
Magnolia,6.992010733694361,OTHER PROPERTY,50.63020374407339
Sunset Hill,120.44709122847561,PROPERTY DAMAGE,90.58161958404503
Montlake,13.70390295109324,OTHER PROPERTY,33.11988120695801
Victory Heights,14.355559851037762,OTHER PROPERTY,32.45582793894992
Phinney Ridge,12.7839999370468,FRAUD,40.46591724673299
Windermere,8.239742783041164,FRAUD,52.32856480953999
Haller Lake,11.77399742821627,OTHER PROPERTY,45.70836420939435
Highland Park,3.649334333985784,FRAUD,30.49989178308018
Admiral,5.757918876536479,OTHER PROPERTY,43.44251847458567
Little Saigon,177.23745697247148,SHOPLIFTING,53.34038662461392
Olympic Manor,177.23745697247148,SHOPLIFTING,53.34038662461392
South Beacon Hill,7.41873851623102,FRAUD,20.99098775861467
Fauntleroy,3.2286914414174475,FRAUD,35.665057811380294
Westlake,17.02038735791619,OTHER PROPERTY,27.82725663074562
Leschi,22.987743762690346,CAR PROWL,37.28510924884161
South Lake Union,44.97704507933742,FRAUD,50.75456307657288
Cedar Park,27.20944764138787,OTHER PROPERTY,56.81528393150999
Interbay,7.690585892515955,OTHER PROPERTY,22.6220878586365
Madrona,23.38702166128405,BURGLARY,53.50615635513714
Downtown,177.23745697247148,SHOPLIFTING,53.34038662461392
North Queen Anne,16.117392654121375,FRAUD,38.03676394177975
Portage Bay,19.332637400332075,FRAUD,27.12464001076995
Laurelhurst,9.295099191870834,OTHER PROPERTY,30.63855654198601
Dunlap,31.811253789222604,OTHER PROPERTY,29.74212729539105
Judkins Park,94.30286805163078,BIKE THEFT,82.56378315680132
International District,91.80300589060614,OTHER PROPERTY,68.24255907094367
Arbor Heights,1.720313617955639,FRAUD,33.66506516684377
South Delridge,15.842760645694028,FRAUD,76.53828085750936
Ballard,11.267388957548208,FRAUD,33.98586060362413
Pinehurst,20.7170422483068,FRAUD,27.19497092211115
Loyal Heights,13.367881303806735,FRAUD,31.08732656356737
Olympic Hills,11.583616479777195,OTHER PROPERTY,37.459878892411986
Cascade,42.39269147923369,OTHER PROPERTY,32.18385856012522
Wallingford,72.179300952303,BURGLARY,65.12724822217369
Uptown,216.888167903598,OTHER PROPERTY,58.331521713188486
Crown Hill,12.935179013316823,OTHER PROPERTY,43.44374843322714
Yesler Terrace ,470.7242203275042,OTHER PROPERTY,87.16496236974311
Waterfront,42.32802963217443,OTHER PROPERTY,34.214794836209876
Alki,8.298635517758061,OTHER PROPERTY,59.32985840450033
Hawthorne Hills,11.543329009819033,FRAUD,56.14113794084737
Lakewood,26.717147209111538,FRAUD,64.66497399743861
Gatewood,16.178146886414396,OTHER PROPERTY,57.50676957133561
Jackson Place ,22.56523213065186,BURGLARY,18.015870136966154
Madison Valley,13.707127605521169,OTHER PROPERTY,27.859868597937698
Hillman City,11.929308400571434,THREATS,21.679469120366406
Bryant,16.11246740831037,FRAUD,57.38946945735102
North Beach,8.856838650588937,OTHER PROPERTY,46.162991567729804
Roosevelt,76.31604493536148,OTHER PROPERTY,59.22928146987117
North College Park,21.30362010623528,OTHER PROPERTY,36.55204699459968
Bitter Lake,6.390286879834832,OTHER PROPERTY,25.758275356875338
Brighton,14.878258481759348,BURGLARY,25.440548188957685
West Queen Anne,1897.8840007476235,[INC - CASE DC USE ONLY],99.33875429497014
Georgetown,6.122978250054634,THREATS,32.103527533099346
Genesee,14.55792260446388,FRAUD,28.980362328352676
Belltown,61.544824319656044,OTHER PROPERTY,34.47413797169432
Holly Park ,70.60595272427017,THREATS,65.66576332566459
Madison Park,6.0825799901753115,OTHER PROPERTY,28.48804077781094
Rainier Beach,14.09153164447593,FRAUD,49.35304315542982
Fairmount Park,28.618098817753648,FRAUD,30.73146195796215
Meadowbrook,11.429022888769504,OTHER PROPERTY,23.82195539771545
West Woodland,11.714720076179367,FRAUD,24.85664210148663
Northgate,137.13786514992208,OTHER PROPERTY,59.71941611927407
Seward Park,5.527393283720788,OTHER PROPERTY,19.8807351025848
University District,62.45772505986266,ASSAULT,32.23071897591308
First Hill,95.60598449929758,PROPERTY DAMAGE,26.10683328249376
Columbia City,571.2973847418696,CAR PROWL,96.50519426859525
North Beacon Hill,101.27583279815775,SHOPLIFTING,85.35332041157618
