hood,influence,largestInfluencer,largestInfluencerPercent
Fremont,1.0292838472296149,FRAUD,48.02931780215287
Junction,0.22585742254478058,FRAUD,41.41344657633221
Central,0.7424450995362583,FRAUD,32.181342500730416
Ravenna,0.4423251440975289,FRAUD,59.98139785688512
Garfield,3.0411578785577333,FRAUD,76.93552112761972
Seaview,0.18557022607429485,FRAUD,48.0647136464797
Green Lake,0.7870814939724972,FRAUD,43.388404152328555
Minor,1.577789349167431,FORGERY,50.92550302654782
Roxhill,0.40567510253178535,FRAUD,64.43344853088938
Rainier View,0.07377649733100311,FRAUD,65.26013460057918
Denny - Blaine,0.6109310087904163,FRAUD,48.35927886569143
Broadview,0.27591387385151506,FRAUD,42.186323981635695
Pioneer Square,6.644682447173863,ASSAULT,88.66203911501269
Beacon Hill,1.7528468062506937,FRAUD,95.80645720110606
Lower Queen Anne,2.324220027656451,FRAUD,49.14222261406553
High Point,0.24921592683381025,FRAUD,60.94476561083717
Industrial District,0.3968028023608029,FRAUD,69.21834980995223
Blue Ridge,2.6517591345868037,FRAUD,91.35866699296118
Maple Leaf,0.3826307183694025,FRAUD,41.29500649784719
Greenwood,1.0275718253747326,THREATS,44.22747389143255
Broadmoor,0.589707787613821,FRAUD,55.115955191823126
View Ridge,0.2182857600420836,FRAUD,54.53468026036782
East Queen Anne,1.51667673075336,FRAUD,55.441422331183354
Whittier Heights,1.939047801426707,FRAUD,66.39436116023182
Riverview,0.3800202914453364,FRAUD,77.58446330189038
Denny Triangle,1.7233471675953727,FRAUD,51.12184536541513
Wedgwood,0.26844534667420406,FRAUD,53.015140833497846
Eastlake,5.771740884976419,VEHICLE THEFT,61.959381194335656
North Delridge,0.25895775906988977,FRAUD,50.741883629353396
Capitol Hill,1.6644187934195345,FRAUD,45.3931622738211
Atlantic,1.350196478701529,FORGERY,63.39171503394394
South Park,0.5540322640315033,FRAUD,89.30841477370309
Matthews Beach,0.21818225447082687,FRAUD,53.360396332720235
Mt. Baker,0.32959869248028417,FRAUD,46.984894812426084
Magnolia,0.6445993371312077,FRAUD,51.22457258640875
Sunset Hill,0.5910910133761024,FRAUD,72.00965676885917
Montlake,0.9805922425927222,FRAUD,57.158796334065855
Victory Heights,0.37627028252925365,FRAUD,48.57839783642137
Phinney Ridge,0.8843242187426184,FRAUD,56.54299850451559
Windermere,0.21717507339274258,FRAUD,55.79509187736742
Haller Lake,0.34838254809516506,STOLEN PROPERTY,36.35702563438386
Highland Park,7.635213570826834,FRAUD,99.04718168980433
Admiral,0.5129824743766472,OTHER PROPERTY,65.16010832732627
Little Saigon,3.1508426496312087,ASSAULT,69.14092740485839
Olympic Manor,3.1508426496312087,ASSAULT,69.14092740485839
South Beacon Hill,0.19849132285549076,FRAUD,77.14599940455264
Fauntleroy,0.5076375814890921,THREATS,67.09682334954829
Westlake,3.651118004233015,FRAUD,79.444972516729
Leschi,0.5222693785196808,FRAUD,31.472841860382665
South Lake Union,2.2186761874662237,FRAUD,58.19856683621534
Cedar Park,1.80422086551253,FRAUD,61.54041247374698
Interbay,1.026677829918565,PROPERTY DAMAGE,51.70344347567964
Madrona,0.5993148398167384,FRAUD,41.125462576207774
Downtown,3.1508426496312087,ASSAULT,69.14092740485839
North Queen Anne,17.395767379752343,PROPERTY DAMAGE,96.34675037597819
Portage Bay,3.1574233357693333,FRAUD,78.07271851623473
Laurelhurst,0.35158791209394974,FRAUD,59.88914202907145
Dunlap,0.1266237449708387,FRAUD,70.80755405183098
Judkins Park,0.5533344617640817,FORGERY,35.168218303999666
International District,1.9117441775496296,ASSAULT,46.13719097855573
Arbor Heights,0.5876733168162901,THREATS,78.46330152701529
South Delridge,0.6783384752245751,FRAUD,84.84061359896276
Ballard,1.3201749376249257,FRAUD,80.96059268414561
Pinehurst,0.36708657509828807,FRAUD,38.178311781922574
Loyal Heights,1.26512058076249,FRAUD,78.704175188846
Olympic Hills,0.783347639084932,VEHICLE THEFT,49.59845485133103
Cascade,1.7988334273716668,FRAUD,43.779243501950454
Wallingford,2.9692958676336505,DISPUTE,46.09422508652568
Uptown,2.324220027656451,FRAUD,49.14222261406553
Crown Hill,1.2239636520684818,THREATS,50.505703549196085
Yesler Terrace ,3.353119262303264,FORGERY,68.07706565593725
Waterfront,1.6643834212229192,ASSAULT,41.73435489606165
Alki,0.21989640040570577,OTHER PROPERTY,35.65209301139666
Hawthorne Hills,0.27047263517452613,FRAUD,57.426611205914945
Lakewood,0.21639214992670505,FRAUD,67.68623371175279
Gatewood,0.22658742283051955,FRAUD,53.444195986007614
Jackson Place ,2.313614107727004,FORGERY,76.2523842954432
Madison Valley,0.9175484140297268,FRAUD,50.85905694110318
Hillman City,0.2701887644804817,FRAUD,78.56874689476223
Bryant,0.352879232964384,FRAUD,60.14048351069559
North Beach,2.6517591345868037,FRAUD,91.35866699296118
Roosevelt,0.5610737820267737,FRAUD,55.504393387101
North College Park,0.7063207072112935,STOLEN PROPERTY,47.64820132831278
Bitter Lake,0.24947645863226006,FRAUD,38.118679068217205
Brighton,0.16657220009271392,FRAUD,73.63916533130808
West Queen Anne,1.0464408788608368,FRAUD,40.1914328766547
Georgetown,0.5164747959736864,FRAUD,86.56654747375472
Genesee,0.21318361576516584,FRAUD,40.220160639152
Belltown,43.78517705865328,[INC - CASE DC USE ONLY],95.23762317092209
Holly Park ,0.23736071734322087,FRAUD,78.9303594391871
Madison Park,0.4197436086051053,FRAUD,53.02747562744648
Rainier Beach,0.08801210360300071,FRAUD,66.95761715105476
Fairmount Park,0.21469112536011614,FRAUD,52.2073549305188
Meadowbrook,0.3268228774317073,FRAUD,52.70032849801336
West Woodland,1.2114188571056648,FRAUD,70.47105703396498
Northgate,0.41375439771192596,STOLEN PROPERTY,36.10644049011106
Seward Park,0.16696317790322787,FRAUD,69.54179731415526
University District,3.135785812768805,FRAUD,88.71376359830282
First Hill,1.6206054614703156,ASSAULT,30.702922702446834
Columbia City,0.39393619011206843,FRAUD,80.51460607436886
North Beacon Hill,0.40850628805751515,FRAUD,49.485830341172246
