hood,influence,largestInfluencer,largestInfluencerPercent
Fremont,313.86728547457795,CAR PROWL,21.376600601860964
Junction,257.7817009932288,BURGLARY,40.06984485002879
Central,418.2407076533161,PROPERTY DAMAGE,17.763841971284226
Ravenna,245.97647850495375,ASSAULT,20.311977189758416
Garfield,394.8576192019087,CAR PROWL,18.284036872800545
Seaview,87.51865154563514,OTHER PROPERTY,16.115723344758514
Green Lake,111.53409413458756,CAR PROWL,17.84789768275277
Minor,662.1628646810468,OTHER PROPERTY,21.370831728909398
Roxhill,108.38924058229901,BURGLARY,16.602145181544252
Rainier View,56.636212820413085,PROPERTY DAMAGE,24.814559278466447
Denny - Blaine,136.75356052083362,BURGLARY,15.795301144183037
Broadview,47.91035926692555,CAR PROWL,15.225106103331782
Pioneer Square,9733.305569237888,OTHER PROPERTY,21.15025223962701
Beacon Hill,176.3791139330301,BURGLARY,26.13183208211594
Lower Queen Anne,1589.9662135730634,ASSAULT,35.99985560163256
High Point,1921.8481067990954,BURGLARY,94.01935441433984
Industrial District,93.24867138158976,CAR PROWL,16.26379489082129
Blue Ridge,61.977970495782166,OTHER PROPERTY,18.107847193172166
Maple Leaf,155.75008795727106,PROPERTY DAMAGE,28.28802355942007
Greenwood,320.82522005952984,THREATS,35.82137078828996
Broadmoor,103.9663584072655,OTHER PROPERTY,22.77382293899479
View Ridge,63.71093237520913,OTHER PROPERTY,19.87985521955614
East Queen Anne,428.1325799175414,PROPERTY DAMAGE,37.451750345184905
Whittier Heights,193.71150286936552,CAR PROWL,28.907443321065337
Riverview,78.33651575569336,OTHER PROPERTY,12.926807367378771
Denny Triangle,475.17375304243984,CAR PROWL,37.755761316490364
Wedgwood,235.41648426402386,SHOPLIFTING,62.726964669159294
Eastlake,387.99740846651656,BURGLARY,25.110434293947048
North Delridge,123.27675022765122,PROPERTY DAMAGE,26.03980977788159
Capitol Hill,1542.6820599245132,STOLEN PROPERTY,41.61518764978358
Atlantic,553.7706715272296,PROPERTY DAMAGE,18.016000796470966
South Park,241.7331160977983,PROPERTY DAMAGE,47.53171602559103
Matthews Beach,112.81116907803384,BURGLARY,33.81244035434651
Mt. Baker,197.95086261215437,CAR PROWL,22.008896364020792
Magnolia,124.03295360047301,PROPERTY DAMAGE,37.085659534606684
Sunset Hill,66.27069331612111,CAR PROWL,20.50327576013668
Montlake,158.3121328799004,VEHICLE THEFT,28.941469176266565
Victory Heights,304.5054902215393,FRAUD,56.370121418596
Phinney Ridge,634.5632539549699,CAR PROWL,77.83351246262691
Windermere,73.34340771582912,OTHER PROPERTY,18.21731070150422
Haller Lake,87.53763165554884,OTHER PROPERTY,13.835436809873459
Highland Park,5322.778527515307,OTHER PROPERTY,97.52065669915282
Admiral,132.04766192743938,OTHER PROPERTY,46.31358579627352
Little Saigon,2078.3144422787864,OTHER PROPERTY,20.548209096626795
Olympic Manor,2078.3144422787864,OTHER PROPERTY,20.548209096626795
South Beacon Hill,189.64854569917404,FRAUD,29.95505824060831
Fauntleroy,76.59643395249653,BURGLARY,21.13712866798435
Westlake,558.0173101969389,CAR PROWL,27.02783894621521
Leschi,357.43687143631917,PROPERTY DAMAGE,19.005993637929034
South Lake Union,9197.735566077674,ASSAULT,88.2634685964034
Cedar Park,824.4328181369316,OTHER PROPERTY,42.85494381500384
Interbay,120.11291525392774,CAR PROWL,21.86532882721139
Madrona,188.9651892481181,OTHER PROPERTY,16.753661866946548
Downtown,2078.3144422787864,OTHER PROPERTY,20.548209096626795
North Queen Anne,190.0952173856684,CAR PROWL,33.148950618980734
Portage Bay,163.72779034217757,OTHER PROPERTY,17.323509569020054
Laurelhurst,111.04304144505126,PROPERTY DAMAGE,29.60550670904465
Dunlap,262.22750248199344,ROBBERY,17.424565073952852
Judkins Park,359.1586642867776,BURGLARY,17.136669018110748
International District,5027.0704320001005,ASSAULT,26.38784696776147
Arbor Heights,53.17080083830946,CAR PROWL,25.082211448585547
South Delridge,309.3638079070782,WARRANT ARREST,55.9872992402019
Ballard,161.6716781337938,CAR PROWL,32.73397222637356
Pinehurst,143.4643820061823,OTHER PROPERTY,15.80004044041015
Loyal Heights,136.80375223576868,CAR PROWL,26.473333749494564
Olympic Hills,80.06690767397332,OTHER PROPERTY,15.478578573782446
Cascade,930.9500794312648,WARRANT ARREST,24.41295008354384
Wallingford,310.9722941960841,FRAUD,33.219971424845866
Uptown,1589.9662135730634,ASSAULT,35.99985560163256
Crown Hill,1138.710760583102,VEHICLE THEFT,80.66696494827303
Yesler Terrace ,1245.7117078284693,DISTURBANCE,18.11903185717015
Waterfront,2177.4290425327094,CAR PROWL,44.393768717818446
Alki,228.2829107697514,WEAPON,71.45255013914841
Hawthorne Hills,119.5757894231451,OTHER PROPERTY,36.2642339987833
Lakewood,111.94837446551013,BURGLARY,16.771831124639117
Gatewood,94.16113111681913,CAR PROWL,18.744502695791372
Jackson Place ,100573.19362425778,BIKE THEFT,99.43376998346011
Madison Valley,306.58277047076626,VEHICLE THEFT,18.798951590971527
Hillman City,290.35129530092775,CAR PROWL,24.226661125449912
Bryant,122.56908805545706,OTHER PROPERTY,17.881084844678647
North Beach,61.977970495782166,OTHER PROPERTY,18.107847193172166
Roosevelt,278.0378818173962,OTHER PROPERTY,23.246452650757742
North College Park,187.12873231022448,PROPERTY DAMAGE,33.31732114208966
Bitter Lake,128.99552351138843,BURGLARY,23.749129068594993
Brighton,507.2264667649462,TRAFFIC,33.469336732461514
West Queen Anne,228.97820891018293,CAR PROWL,22.675381531298644
Georgetown,353.3262907996711,BURGLARY,59.70882969346306
Genesee,99.96393460032286,BURGLARY,23.70772666004592
Belltown,203051.85340782691,ASSAULT,49.50217498558777
Holly Park ,401.64450009434455,OTHER PROPERTY,41.79854584329963
Madison Park,98.49015201417765,SHOPLIFTING,19.255247256281752
Rainier Beach,536.4055765018855,CAR PROWL,51.144912063138186
Fairmount Park,161.71135701035075,STOLEN PROPERTY,19.11570155000427
Meadowbrook,122.80244428681591,THREATS,16.858990750703438
West Woodland,215.73600926222736,OTHER PROPERTY,21.47322576569749
Northgate,1287.367922931444,SHOPLIFTING,35.10153813093922
Seward Park,388.0966200496596,VEHICLE THEFT,73.68735893246819
University District,2110.555234528895,PROPERTY DAMAGE,22.76393889425575
First Hill,6730.570543955056,CAR PROWL,87.68253636493628
Columbia City,487.88192307359424,OTHER PROPERTY,24.76826385541527
North Beacon Hill,347.8722748087315,OTHER PROPERTY,23.52728140261016
