hood,influence,largestInfluencer,largestInfluencerPercent
Fremont,1139.4521934003362,CAR PROWL,72.56104330377893
Junction,285.7085661036055,BURGLARY,60.71505626862078
Central,354.41214694298066,CAR PROWL,25.00570518743669
Ravenna,118.24480719086883,FRAUD,17.29398109950437
Garfield,351.67617037233174,PROPERTY DAMAGE,31.30971381441806
Seaview,79.14504536521973,CAR PROWL,23.69976699950627
Green Lake,109.24619868476987,CAR PROWL,20.707033341642017
Minor,739.5318445846789,CAR PROWL,24.146693374174212
Roxhill,112.28019757101853,WEAPON,24.193037346193748
Rainier View,60.15296729322569,DISPUTE,20.057296182235305
Denny - Blaine,143.90022970732403,BURGLARY,16.505589030793036
Broadview,102.21286262118777,BURGLARY,58.14569164625513
Pioneer Square,5277.034830050898,ASSAULT,42.642963332584095
Beacon Hill,153.59673123448974,BURGLARY,33.640591304695754
Lower Queen Anne,2073.1245321568945,PROPERTY DAMAGE,28.612418094588453
High Point,83.07765358546673,OTHER PROPERTY,23.789604702496355
Industrial District,77.64934131457849,OTHER PROPERTY,14.87967362559003
Blue Ridge,51.60589094260962,CAR PROWL,13.295762901008324
Maple Leaf,172.7068067334057,OTHER PROPERTY,33.28484056198093
Greenwood,145.60915597804237,CAR PROWL,12.65366724265382
Broadmoor,80.47170970904129,CAR PROWL,18.655281274878472
View Ridge,52.3467663002204,CAR PROWL,28.227490053525887
East Queen Anne,232.10614354355587,CAR PROWL,20.780163736936643
Whittier Heights,141.2437263796457,VEHICLE THEFT,28.401353034423167
Riverview,64.29225915393988,OTHER PROPERTY,19.104138794784024
Denny Triangle,381.62293277619386,CAR PROWL,30.494452990542587
Wedgwood,1415.095292183976,STOLEN PROPERTY,94.56059333487835
Eastlake,191.75415088035365,OTHER PROPERTY,28.235754617701676
North Delridge,110.44898081568978,CAR PROWL,23.953975686664844
Capitol Hill,553.7687369207022,BURGLARY,13.051973506929947
Atlantic,417.43804884107976,PROPERTY DAMAGE,14.867378641964393
South Park,74.78161379909314,OTHER PROPERTY,22.93168507683318
Matthews Beach,41.86312531090686,OTHER PROPERTY,17.329500714023833
Mt. Baker,180.84909409403622,OTHER PROPERTY,19.14032136845278
Magnolia,62.63203925584156,CAR PROWL,24.31759972817031
Sunset Hill,53.03813657311634,CAR PROWL,31.394460905369435
Montlake,123.16042554520017,CAR PROWL,25.85998719952213
Victory Heights,96.06909699322671,CAR PROWL,17.11130275077674
Phinney Ridge,201.73516880470285,PROPERTY DAMAGE,31.652928602340264
Windermere,52.11890137695094,CAR PROWL,35.224801492713475
Haller Lake,76.81018015892995,OTHER PROPERTY,18.60000965696794
Highland Park,124.66154290281307,WARRANT ARREST,26.66510112836102
Admiral,152.40474791916688,ASSAULT,33.39864381923842
Little Saigon,2421.5262365671,CAR PROWL,29.214676792852558
Olympic Manor,2421.5262365671,CAR PROWL,29.214676792852558
South Beacon Hill,103.81685668989414,BURGLARY,19.462750337253734
Fauntleroy,48.108945162414145,BURGLARY,13.374717776551007
Westlake,800.4465443707954,CAR PROWL,23.451009881258233
Leschi,249.6330166304935,CAR PROWL,19.394760534139028
South Lake Union,847.0446607251951,VEHICLE THEFT,23.370807009511207
Cedar Park,532.3262869052801,CAR PROWL,67.86180651282011
Interbay,102.5698902208786,CAR PROWL,20.521377819003728
Madrona,234.49861768745228,BURGLARY,26.678156546480526
Downtown,2421.5262365671,CAR PROWL,29.214676792852558
North Queen Anne,120.0135135531705,CAR PROWL,24.97137482378049
Portage Bay,3093.1725625273575,VEHICLE THEFT,94.21711141549711
Laurelhurst,71.85023429515232,CAR PROWL,22.89905798794958
Dunlap,520.3854911771909,OTHER PROPERTY,63.905210369894
Judkins Park,307.7582558494927,BURGLARY,26.74783732322618
International District,1902.8844031936867,WARRANT ARREST,29.87163635600749
Arbor Heights,87.45482051509407,WARRANT ARREST,53.662791246149716
South Delridge,303.4103096652418,PROPERTY DAMAGE,54.098897492432
Ballard,291.45717192102575,TRAFFIC,69.190550839974
Pinehurst,116.99723283335064,CAR PROWL,17.281629092343312
Loyal Heights,91.19647440148849,OTHER PROPERTY,19.581211833147993
Olympic Hills,427.86289288658605,CAR PROWL,81.15891263024076
Cascade,779.0474138681265,WARRANT ARREST,17.842428518834115
Wallingford,364.0102677381403,PROPERTY DAMAGE,36.46545933957224
Uptown,2073.1245321568945,PROPERTY DAMAGE,28.612418094588453
Crown Hill,139.65580094711615,PROPERTY DAMAGE,26.938214075757916
Yesler Terrace ,863.3795777445752,WARRANT ARREST,17.33148408160421
Waterfront,1265.7784311253354,CAR PROWL,45.32055097085258
Alki,96.79278748494087,ASSAULT,35.16694776557112
Hawthorne Hills,212.8993757994348,THREATS,62.07117582436918
Lakewood,205.49589969247828,BURGLARY,31.619255089139994
Gatewood,65.72568762227337,BURGLARY,17.195102676512956
Jackson Place ,729.1775274873328,ROBBERY,24.436654581124188
Madison Valley,223.5572668286258,PROPERTY DAMAGE,25.54810431298481
Hillman City,209.76048491565425,BURGLARY,13.846894750383914
Bryant,172.7471267643355,CAR PROWL,55.895628601547784
North Beach,51.60589094260962,CAR PROWL,13.295762901008324
Roosevelt,378.7398189981404,SHOPLIFTING,21.980711570778446
North College Park,126.05104524859338,OTHER PROPERTY,19.820772191322437
Bitter Lake,110.6172494388933,OTHER PROPERTY,19.16007667495956
Brighton,242.9787267879475,WARRANT ARREST,16.94535574640896
West Queen Anne,170.2156977349071,CAR PROWL,21.130779959001778
Georgetown,201.85241614887778,ASSAULT,57.26132730202322
Genesee,152.78791225427082,PROPERTY DAMAGE,48.40594658806124
Belltown,402035.7230548761,WARRANT ARREST,25.018423543019892
Holly Park ,260.09530898673404,DISTURBANCE,18.19680391712457
Madison Park,160.30080314196957,BIKE THEFT,43.11808001792347
Rainier Beach,415.52392601348635,CAR PROWL,45.402359239860616
Fairmount Park,90.30323082775985,BURGLARY,23.69263111628632
Meadowbrook,96.04348141693474,OTHER PROPERTY,31.226900817809767
West Woodland,158.59944804027546,BURGLARY,20.397323763613205
Northgate,80584.13968669187,CAR PROWL,49.536958208702686
Seward Park,88.65727601268061,BURGLARY,18.417535429882317
University District,1357.980000349857,WARRANT ARREST,48.88717733259818
First Hill,2029.449787753655,SHOPLIFTING,25.93087210945053
Columbia City,1355.333857871443,PROPERTY DAMAGE,42.70209533250835
North Beacon Hill,348.52992828891814,ASSAULT,28.814820392633532
