hood,influence,largestInfluencer,largestInfluencerPercent
Fremont,316.1420760900158,BURGLARY,27.521125722806726
Junction,223.20218023719434,OTHER PROPERTY,30.497462651951402
Central,476.0624071432155,ASSAULT,16.492783502936156
Ravenna,167.32820611803987,OTHER PROPERTY,35.40105274729224
Garfield,268.2725698226276,CAR PROWL,23.370216775850505
Seaview,72.78359131797376,CAR PROWL,17.166044714740586
Green Lake,111.82277300189547,CAR PROWL,18.545452861848332
Minor,732.4002575702757,OTHER PROPERTY,29.00995819396321
Roxhill,87.23918252195232,BURGLARY,23.54638707006927
Rainier View,111.74075664266311,FRAUD,17.249828145501308
Denny - Blaine,167.04331518823054,CAR PROWL,27.926490249921606
Broadview,58.81663114069132,BURGLARY,21.43271209840076
Pioneer Square,8173.365190532334,OTHER PROPERTY,24.985279337602794
Beacon Hill,178.19670466905572,CAR PROWL,23.94475266488756
Lower Queen Anne,1592.4479618488826,OTHER PROPERTY,33.240570407067274
High Point,108.27603553735142,BURGLARY,22.6849069359466
Industrial District,89.48085190079698,CAR PROWL,18.678065065479526
Blue Ridge,72.45950055736236,CAR PROWL,31.581051420215122
Maple Leaf,147.94133211453357,OTHER PROPERTY,34.438343667241
Greenwood,256.35467826250505,VEHICLE THEFT,47.51064962887909
Broadmoor,80.29406275724179,CAR PROWL,17.341835146808904
View Ridge,47.921761706204386,OTHER PROPERTY,18.436631699193207
East Queen Anne,189.54937624186252,CAR PROWL,21.360847939626495
Whittier Heights,97.2019417545753,CAR PROWL,20.50658490790337
Riverview,81.06662403789787,BURGLARY,23.607223107175447
Denny Triangle,530.5540216348551,CAR PROWL,55.63813414645028
Wedgwood,318.42217482171526,OTHER PROPERTY,82.85759830893687
Eastlake,326.31173370705665,CAR PROWL,31.494611695822552
North Delridge,164.29012355288503,CAR PROWL,36.45843793963007
Capitol Hill,551.0136250483433,CAR PROWL,27.659093208629173
Atlantic,1979.4861032960891,VEHICLE THEFT,77.9070059788661
South Park,164.03660194699683,CAR PROWL,33.92593067598412
Matthews Beach,46.575839724536145,OTHER PROPERTY,17.43726160526666
Mt. Baker,204.86090892654005,BURGLARY,33.380911770334215
Magnolia,2399.575228414376,BURGLARY,96.70595346433774
Sunset Hill,179.8485228748124,CAR PROWL,68.3299233205447
Montlake,122.28871064308693,OTHER PROPERTY,15.902796489950127
Victory Heights,108.74778518568843,OTHER PROPERTY,28.439935755296872
Phinney Ridge,146.27960695297378,CAR PROWL,20.549266533225076
Windermere,47.59225882223091,OTHER PROPERTY,19.91616951548236
Haller Lake,97.91776658528848,PROPERTY DAMAGE,14.972212964138313
Highland Park,125.968687771173,WARRANT ARREST,29.639997295257846
Admiral,109.37136652302934,CAR PROWL,19.804034253446073
Little Saigon,1566.859889082252,OTHER PROPERTY,18.43536956012692
Olympic Manor,1566.859889082252,OTHER PROPERTY,18.43536956012692
South Beacon Hill,299.3509155274449,OTHER PROPERTY,38.603579355709314
Fauntleroy,60.31613937629514,BURGLARY,19.426008162182924
Westlake,455.5561957723264,CAR PROWL,32.166956658663324
Leschi,236.11707371194112,FRAUD,11.874417339294988
South Lake Union,967.7288138698424,CAR PROWL,60.254550984023396
Cedar Park,222.62025920358656,THREATS,14.639992266850738
Interbay,93.13496930962825,CAR PROWL,18.951537268138196
Madrona,2004.0622345232125,STOLEN PROPERTY,90.94167569330757
Downtown,1566.859889082252,OTHER PROPERTY,18.43536956012692
North Queen Anne,125.82470799984046,CAR PROWL,25.947717240616985
Portage Bay,169.8011184111262,CAR PROWL,36.860670485254104
Laurelhurst,67.98519425272042,OTHER PROPERTY,24.45513202861624
Dunlap,218.6725141299535,CAR PROWL,20.818333591414262
Judkins Park,303.6695375316402,BURGLARY,31.29087593901729
International District,2121.0617724993626,WARRANT ARREST,34.39212358051594
Arbor Heights,67.7784143273647,BURGLARY,34.36454544327899
South Delridge,130.53003084951493,BURGLARY,32.40113230548843
Ballard,222.03169627642725,OTHER PROPERTY,34.41798223764936
Pinehurst,137.9017083202998,OTHER PROPERTY,17.67903614768891
Loyal Heights,126.69302803408772,OTHER PROPERTY,19.96892264012522
Olympic Hills,89.4931316956896,OTHER PROPERTY,19.132627902347878
Cascade,617.4259379849966,CAR PROWL,22.260411237354997
Wallingford,383.29298801378934,FRAUD,42.108194635443574
Uptown,1592.4479618488826,OTHER PROPERTY,33.240570407067274
Crown Hill,106.76401235613815,OTHER PROPERTY,24.531125748922047
Yesler Terrace ,1119.011641511186,BURGLARY,29.11054221153073
Waterfront,4474.187863866184,CAR PROWL,82.20772692071566
Alki,88.11707365433752,CAR PROWL,31.439767059798548
Hawthorne Hills,62.363369226656694,OTHER PROPERTY,16.664856023615545
Lakewood,205.37756594954965,CAR PROWL,43.82427549477658
Gatewood,85.58139402727546,BURGLARY,28.250243936019405
Jackson Place ,499.449345762923,CAR PROWL,19.63872053084021
Madison Valley,231.8726180682394,CAR PROWL,42.23925947021679
Hillman City,350.2984523722115,BURGLARY,31.070641182028314
Bryant,83.94119041513575,OTHER PROPERTY,17.717938406532628
North Beach,72.45950055736236,CAR PROWL,31.581051420215122
Roosevelt,362.1591674559472,PROPERTY DAMAGE,20.745889025225544
North College Park,134.86542975206498,OTHER PROPERTY,18.760763264401906
Bitter Lake,175.26170128735433,BURGLARY,28.2487708350664
Brighton,309.0688150980696,VEHICLE THEFT,15.331963635669766
West Queen Anne,206.02076018239154,VEHICLE THEFT,27.503809257714348
Georgetown,288.4167741754522,OTHER PROPERTY,39.61114407154038
Genesee,158.52050473909887,VEHICLE THEFT,45.55571038468016
Belltown,302054.35615028447,WARRANT ARREST,66.35522678946707
Holly Park ,313.7182717750258,OTHER PROPERTY,26.550685881916245
Madison Park,188.80935616586567,THREATS,33.035019905123306
Rainier Beach,643.1183256274996,CAR PROWL,71.3496079787691
Fairmount Park,105.88232728933336,CAR PROWL,33.966401170699704
Meadowbrook,147.6728418164303,BURGLARY,24.4370042926833
West Woodland,146.85428690981627,CAR PROWL,23.047242082907417
Northgate,1052.1538347162273,SHOPLIFTING,28.974401035230713
Seward Park,400.6301581726912,FRAUD,69.80010835372919
University District,1695.601350597345,WARRANT ARREST,35.16767514860075
First Hill,13165.365286158642,OTHER PROPERTY,46.434906022450306
Columbia City,920.5494843924765,CAR PROWL,75.2560345074535
North Beacon Hill,374.2452774786553,CAR PROWL,28.47845718227134
