hood,influence,largestInfluencer,largestInfluencerPercent
Fremont,384.7275238579234,FRAUD,32.37170699682888
Junction,323.5756942800093,PROPERTY DAMAGE,33.549472547458066
Central,341.15438413071473,OTHER PROPERTY,16.205481102939185
Ravenna,221.68163032111138,BURGLARY,26.990545181069074
Garfield,252.96717891225518,CAR PROWL,20.97121589140749
Seaview,106.66783597179378,CAR PROWL,22.900962854119275
Green Lake,133.98036559377377,CAR PROWL,24.28045541914426
Minor,679.8789732269834,OTHER PROPERTY,27.736826610274473
Roxhill,93.36622437559167,CAR PROWL,25.205605208974475
Rainier View,175.9220324095355,VEHICLE THEFT,48.96754052119684
Denny - Blaine,121.3761293941441,CAR PROWL,19.670088879005228
Broadview,67.25595890098519,CAR PROWL,23.825789522460983
Pioneer Square,4871.031903903206,OTHER PROPERTY,33.08534481003207
Beacon Hill,126.52550049265164,CAR PROWL,21.772587089264693
Lower Queen Anne,1463.2093714275832,ASSAULT,47.91857168394468
High Point,1846.1910198900923,THREATS,92.68197683729373
Industrial District,87.03476588576609,OTHER PROPERTY,21.290508543274022
Blue Ridge,88.94221043286528,CAR PROWL,25.828529383857155
Maple Leaf,271.009638360541,OTHER PROPERTY,33.00447932171544
Greenwood,197.04808582722924,BURGLARY,19.92402165157602
Broadmoor,93.62277652277207,CAR PROWL,23.627570934480527
View Ridge,73.52737562324444,CAR PROWL,38.77558485423705
East Queen Anne,247.79849609946635,CAR PROWL,31.664483421429843
Whittier Heights,139.3693025692213,CAR PROWL,19.52426613315042
Riverview,75.85592687571076,CAR PROWL,22.03129922533051
Denny Triangle,467.6766593293893,FRAUD,25.075324958200273
Wedgwood,155.19698661736544,CAR PROWL,30.262284974842014
Eastlake,247.27113122488953,CAR PROWL,41.09751343827764
North Delridge,118.14763760572886,OTHER PROPERTY,35.480091926223054
Capitol Hill,1639.9908677301776,OTHER PROPERTY,60.52839656621078
Atlantic,375.53016428907324,WARRANT ARREST,17.049674177350845
South Park,71.55586661804024,BURGLARY,17.8398190334413
Matthews Beach,62.772828819747986,CAR PROWL,29.04287563630347
Mt. Baker,182.13169212520683,CAR PROWL,21.881526057501585
Magnolia,512.9818037216118,CAR PROWL,87.00422363734604
Sunset Hill,58.796977652095194,CAR PROWL,19.139636229084875
Montlake,110.89133603642455,CAR PROWL,18.769005045080768
Victory Heights,111.48065491384051,CAR PROWL,23.751047370099442
Phinney Ridge,350.8061243572723,BURGLARY,55.20643066324527
Windermere,73.38918837341704,CAR PROWL,34.5939305840995
Haller Lake,123.59416710199527,CAR PROWL,20.02582513223253
Highland Park,142.5046699270485,STOLEN PROPERTY,47.128389690383194
Admiral,103.00172108455834,ASSAULT,24.26240268154443
Little Saigon,2265.186436889638,CAR PROWL,22.83207213874544
Olympic Manor,2265.186436889638,CAR PROWL,22.83207213874544
South Beacon Hill,146.61316262236048,BURGLARY,26.851950426104363
Fauntleroy,90.67410075467757,CAR PROWL,31.227720210860593
Westlake,284.5915164961354,CAR PROWL,26.989479119180203
Leschi,243.36813092360137,CAR PROWL,15.68424772947192
South Lake Union,711.0973351570991,CAR PROWL,49.6921809826497
Cedar Park,342.2200093783258,SHOPLIFTING,17.792228798347292
Interbay,85.96967592295015,CAR PROWL,21.138030098276918
Madrona,213.6095979927725,CAR PROWL,30.557823285744213
Downtown,2265.186436889638,CAR PROWL,22.83207213874544
North Queen Anne,125.92362129729644,CAR PROWL,20.97545966282391
Portage Bay,197.19479632359574,FRAUD,18.41698483144513
Laurelhurst,79.8963193713458,CAR PROWL,19.118247793291523
Dunlap,218.70114155566446,CAR PROWL,21.170260652903075
Judkins Park,317.09254424314236,CAR PROWL,26.510428691797358
International District,2328.624703504909,NARCOTICS,32.48840001073098
Arbor Heights,59.34540688055811,CAR PROWL,41.0672179092417
South Delridge,126.35822496140612,FRAUD,22.951188704476724
Ballard,132.67620875450413,VEHICLE THEFT,19.554905962020836
Pinehurst,195.09300758656946,CAR PROWL,20.172107304716153
Loyal Heights,110.89701461044358,CAR PROWL,23.368208140029292
Olympic Hills,100.40804713342578,CAR PROWL,18.519798758957307
Cascade,891.3828007186444,FRAUD,17.19474692277059
Wallingford,406.10104051011604,DISPUTE,31.998370376166925
Uptown,1463.2093714275832,ASSAULT,47.91857168394468
Crown Hill,1061.001960715335,VEHICLE THEFT,84.54277331296565
Yesler Terrace ,737.4184260909021,CAR PROWL,15.588787412629303
Waterfront,4859.145317502641,CAR PROWL,83.82882906214893
Alki,127.83186341295347,STOLEN PROPERTY,34.9399592114295
Hawthorne Hills,357.70077335407456,CAR PROWL,79.81106009934169
Lakewood,72.84401671307529,BURGLARY,16.835055820407643
Gatewood,616.2761330136864,OTHER PROPERTY,86.65607938708794
Jackson Place ,525.2240592747621,CAR PROWL,24.484344139837972
Madison Valley,198.67622596339655,FRAUD,27.831631322217426
Hillman City,270.2232988340471,THREATS,24.982112106968536
Bryant,126.81123100335711,CAR PROWL,17.719578012121346
North Beach,88.94221043286528,CAR PROWL,25.828529383857155
Roosevelt,351.7174260297913,CAR PROWL,17.858839132331518
North College Park,225.69720514624737,OTHER PROPERTY,17.291119569372018
Bitter Lake,180.01887348354302,CAR PROWL,17.772650125819432
Brighton,485.1931644104249,VEHICLE THEFT,32.65150141377335
West Queen Anne,191.8672578077212,PROPERTY DAMAGE,24.234230116793977
Georgetown,434.4226467112463,OTHER PROPERTY,28.05865243410355
Genesee,99.23899073385311,CAR PROWL,19.407650168437186
Belltown,603154.0057219209,NARCOTICS,33.21868067040181
Holly Park ,236.96404250908313,PROPERTY DAMAGE,26.714896038898445
Madison Park,182.17322981121842,ROBBERY,24.430055185651856
Rainier Beach,120.09082332151408,OTHER PROPERTY,30.06892921511466
Fairmount Park,120.97515954682086,CAR PROWL,12.312721199713376
Meadowbrook,107.96241230774929,CAR PROWL,23.23490229373866
West Woodland,229.1702519400819,BURGLARY,25.730967459720816
Northgate,1544.4475165071117,SHOPLIFTING,27.58552489792985
Seward Park,82.23149301442476,CAR PROWL,22.779964932884763
University District,1468.2125565311355,OTHER PROPERTY,20.09388283933988
First Hill,1626.6281528668578,TRESPASS,31.389549801202545
Columbia City,202.0251458539623,TRAFFIC,18.915462284377544
North Beacon Hill,236.25831602984954,OTHER PROPERTY,21.68505358355707
