hood,influence,largestInfluencer,largestInfluencerPercent
Fremont,1242.7282828385326,LOST PROPERTY,60.93454961412801
Junction,244.56249574536002,CAR PROWL,21.224003163179177
Central,452.5402150122104,THREATS,23.58616461920954
Ravenna,117.46785291388987,CAR PROWL,17.650971560065873
Garfield,347.6435885228965,FRAUD,21.832471136753757
Seaview,102.50267836332809,CAR PROWL,18.65848318899382
Green Lake,146.7573934811607,CAR PROWL,22.369533810624233
Minor,543.091396293243,OTHER PROPERTY,16.604439256714965
Roxhill,133.93205300084307,CAR PROWL,36.75630948256527
Rainier View,136.3616256567296,OTHER PROPERTY,53.38628747893349
Denny - Blaine,163.2083759393037,PROPERTY DAMAGE,24.330343414047647
Broadview,93.19801232199583,BURGLARY,19.918047258149013
Pioneer Square,6140.816889807105,WARRANT ARREST,24.699259318268183
Beacon Hill,170.7078117511323,OTHER PROPERTY,15.626437780168606
Lower Queen Anne,1302.6335172432148,OTHER PROPERTY,49.846766492630984
High Point,97.2539315655556,CAR PROWL,19.068951226285932
Industrial District,1241.6392236332165,BURGLARY,91.8937089955117
Blue Ridge,87.33738386140458,BURGLARY,19.36081064531599
Maple Leaf,198.0368902248243,FRAUD,24.263602013262883
Greenwood,218.41709815352473,OTHER PROPERTY,17.49499070367148
Broadmoor,110.46088975834807,CAR PROWL,19.45052421570498
View Ridge,69.58706298069802,FRAUD,22.24970332453647
East Queen Anne,232.6510045482007,CAR PROWL,16.59350502047715
Whittier Heights,179.20072570346215,STOLEN PROPERTY,17.84140554432832
Riverview,95.67261729583767,BURGLARY,19.121664020656134
Denny Triangle,372.70498919633815,CAR PROWL,20.200966557045955
Wedgwood,876.6145365947452,ASSAULT,57.971071731563114
Eastlake,423.52469111064073,CAR PROWL,42.65148006780388
North Delridge,120.34889222196716,CAR PROWL,21.88083034586962
Capitol Hill,570.1885660111706,CAR PROWL,23.48236787853018
Atlantic,503.91116160863913,CAR PROWL,25.312390074872468
South Park,90.77638031650996,STOLEN PROPERTY,14.146020392658748
Matthews Beach,134.33762827906858,VEHICLE THEFT,35.785299635682286
Mt. Baker,203.40262815765695,BURGLARY,16.404821949657336
Magnolia,595.7738972950021,BURGLARY,61.957177004415065
Sunset Hill,86.21067617396656,OTHER PROPERTY,21.454825389019014
Montlake,148.64365259149176,CAR PROWL,15.018306521967892
Victory Heights,400.27422452756696,CAR PROWL,44.60613753190273
Phinney Ridge,366.0001042176935,FRAUD,49.4762573405295
Windermere,52.21597401714384,BURGLARY,21.426628891410225
Haller Lake,128.5953070276357,BURGLARY,17.117541782478238
Highland Park,96.16109350068275,CAR PROWL,20.63876188074633
Admiral,166.51356221087366,CAR PROWL,35.29577794800496
Little Saigon,2134.000259945549,CAR PROWL,22.22804944818149
Olympic Manor,2134.000259945549,CAR PROWL,22.22804944818149
South Beacon Hill,129.4969248722752,PROPERTY DAMAGE,14.041241895093753
Fauntleroy,89.37550006841994,CAR PROWL,24.698834146884412
Westlake,469.6591351241465,CAR PROWL,24.275327482920794
Leschi,847.6509489860183,THREATS,68.74295450599077
South Lake Union,8562.512867543883,ASSAULT,94.67203844844194
Cedar Park,429.10021819209805,SHOPLIFTING,24.94605132815961
Interbay,109.60238531111223,CAR PROWL,16.251918986616683
Madrona,2010.0374149842976,BURGLARY,91.81267971828944
Downtown,2134.000259945549,CAR PROWL,22.22804944818149
North Queen Anne,151.90952304871456,CAR PROWL,17.000230801805618
Portage Bay,264.5269732747025,CAR PROWL,23.847002139480274
Laurelhurst,84.1586528165899,CAR PROWL,24.55619872024584
Dunlap,619.3712532758389,ROBBERY,52.23762284963021
Judkins Park,445.35501187012176,FRAUD,36.48148817919762
International District,2758.426852561618,CAR PROWL,49.020171546122874
Arbor Heights,76.64896509894105,WARRANT ARREST,37.555216694156876
South Delridge,310.87413643536973,OTHER PROPERTY,46.5643175671289
Ballard,145.53969972314863,OTHER PROPERTY,35.35182741073429
Pinehurst,182.5418803543435,FRAUD,29.9023398305711
Loyal Heights,132.90678156673687,OTHER PROPERTY,26.077068871873472
Olympic Hills,97.96724353907798,OTHER PROPERTY,14.116504865473024
Cascade,724.7057582285913,OTHER PROPERTY,12.870614866614742
Wallingford,336.20758050786475,OTHER PROPERTY,32.847340774624115
Uptown,1302.6335172432148,OTHER PROPERTY,49.846766492630984
Crown Hill,158.24255332491992,BURGLARY,20.343927581399488
Yesler Terrace ,941.4145815143846,OTHER PROPERTY,14.107715491759079
Waterfront,1552.0346654825817,CAR PROWL,45.29661432241106
Alki,140.44304914596074,VEHICLE THEFT,17.901276657122963
Hawthorne Hills,203.43535040935774,CAR PROWL,69.7248955198196
Lakewood,144.16996229726706,BURGLARY,25.77579819948394
Gatewood,117.4994122108795,CAR PROWL,30.141505480895596
Jackson Place ,639.9656290681664,CAR PROWL,17.849719942839965
Madison Valley,190.37629603082087,BURGLARY,19.573923274886308
Hillman City,315.62705725569225,DISPUTE,28.360824050216078
Bryant,102.55621693493396,CAR PROWL,16.61380989222435
North Beach,87.33738386140458,BURGLARY,19.36081064531599
Roosevelt,264.87343038514496,CAR PROWL,26.133045050918362
North College Park,200.911572825312,OTHER PROPERTY,31.442634330450513
Bitter Lake,201.14593558798316,OTHER PROPERTY,21.8044901182142
Brighton,300.2937548342756,CAR PROWL,15.634948228896224
West Queen Anne,166.36583115972206,CAR PROWL,25.62037162464576
Georgetown,539.6546019454572,BURGLARY,43.99069899954986
Genesee,185.50220982644873,CAR PROWL,49.050778664373794
Belltown,402777.3469763524,WARRANT ARREST,74.63891384322046
Holly Park ,23197.53458487319,WARRANT ARREST,98.2348373229846
Madison Park,169.56662597893003,CAR PROWL,51.20628338473071
Rainier Beach,86.55016421009357,BURGLARY,18.919840804954784
Fairmount Park,129.74077865270917,CAR PROWL,33.22095341997382
Meadowbrook,106.00146745556329,BURGLARY,18.60550063367099
West Woodland,260.38132695491765,BURGLARY,28.89601196389028
Northgate,1251.4794482772556,SHOPLIFTING,39.19335837742706
Seward Park,121.24630055529074,CAR PROWL,17.266269355954275
University District,1983.9748642040179,WARRANT ARREST,29.08619908091358
First Hill,2408.5187409081213,OTHER PROPERTY,28.10338617282985
Columbia City,836.2123667883237,ASSAULT,67.95417108466107
North Beacon Hill,425.7101275244507,CAR PROWL,26.317724297442357
