hood,influence,largestInfluencer,largestInfluencerPercent
Fremont,866.6016632975504,CAR PROWL,23.87681112544953
Junction,1085.019636094759,OTHER PROPERTY,32.74412546988326
Central,845.7005602214307,OTHER PROPERTY,23.989517162346743
Ravenna,243.47047505698208,CAR PROWL,16.564218285659628
Garfield,511.34232511142335,CAR PROWL,21.28637733179625
Seaview,226.1368151771444,FRAUD,23.64853565106989
Green Lake,241.99714593389425,CAR PROWL,21.93070048332743
Minor,933.8379508756395,CAR PROWL,16.523186457452244
Roxhill,258.06740239884584,OTHER PROPERTY,22.76121929709
Rainier View,102.28661867874938,FRAUD,25.291200597891503
Denny - Blaine,233.79833870343114,OTHER PROPERTY,24.3635230321902
Broadview,118.75030287657671,TRESPASS,17.448825157548058
Pioneer Square,6262.3138297020005,CAR PROWL,43.11251510176057
Beacon Hill,252.6193841808558,CAR PROWL,16.76296133884973
Lower Queen Anne,2707.153873464292,OTHER PROPERTY,32.09093424666388
High Point,192.27770629185008,OTHER PROPERTY,16.80616057128593
Industrial District,189.25335883317348,OTHER PROPERTY,23.206423090963487
Blue Ridge,122.50961582272157,CAR PROWL,15.750832947075269
Maple Leaf,312.68766358847205,PROPERTY DAMAGE,21.27759114492632
Greenwood,853.2207379779863,WARRANT ARREST,28.4266807181392
Broadmoor,184.46574158379082,CAR PROWL,24.082818093423793
View Ridge,107.00355499256854,CAR PROWL,21.513760715548457
East Queen Anne,416.6674606084523,CAR PROWL,27.15934276693172
Whittier Heights,265.53543647671944,CAR PROWL,25.914115226653323
Riverview,191.60336182074255,CAR PROWL,28.290131583686904
Denny Triangle,709.5703129388307,CAR PROWL,16.923969059027698
Wedgwood,146.18402128019477,BURGLARY,20.227576907000348
Eastlake,460.76921720830677,CAR PROWL,17.194389134843675
North Delridge,246.7378966044348,BURGLARY,30.392091225503783
Capitol Hill,1572.2068592066323,OTHER PROPERTY,25.915810023808273
Atlantic,847.7050031663947,OTHER PROPERTY,13.870980429758564
South Park,284.90659415309386,OTHER PROPERTY,24.87801389466847
Matthews Beach,135.44384036535004,CAR PROWL,25.984068970795356
Mt. Baker,325.88440546424704,CAR PROWL,23.280258989558803
Magnolia,170.14642321868382,CAR PROWL,17.389646983728728
Sunset Hill,136.65658773265363,PROPERTY DAMAGE,28.118791442224232
Montlake,228.41511909840284,CAR PROWL,19.720801413312692
Victory Heights,536.9056141285683,STOLEN PROPERTY,62.91654113599148
Phinney Ridge,281.4695466424531,CAR PROWL,20.489853251447535
Windermere,406.4513077222779,CAR PROWL,81.99447435591614
Haller Lake,184.72948016152304,OTHER PROPERTY,14.112233412866647
Highland Park,208.82523329906903,CAR PROWL,19.86244909335534
Admiral,157.68408657505992,CAR PROWL,23.64586367189962
Little Saigon,5970.923668026585,CAR PROWL,35.86694911260762
Olympic Manor,5970.923668026585,CAR PROWL,35.86694911260762
South Beacon Hill,411.300795643619,BURGLARY,31.34453887309245
Fauntleroy,210.44823643303175,PROPERTY DAMAGE,39.830610738291185
Westlake,696.0395246215328,CAR PROWL,21.313853095463386
Leschi,691.0934272998863,BURGLARY,23.48414071061618
South Lake Union,17146.89585820489,BURGLARY,94.5804308894704
Cedar Park,1143.1428156237553,OTHER PROPERTY,60.32393960669416
Interbay,255.93446989448825,CAR PROWL,24.037721782998233
Madrona,353.62478870099943,CAR PROWL,18.1732593230483
Downtown,5970.923668026585,CAR PROWL,35.86694911260762
North Queen Anne,285.66739672042945,CAR PROWL,28.344517155410813
Portage Bay,416.4701895423165,OTHER PROPERTY,33.15338916643985
Laurelhurst,1321.0506038619528,BURGLARY,87.87915934512287
Dunlap,428.0129506570565,VEHICLE THEFT,19.004004003424043
Judkins Park,702.9654860362741,BURGLARY,25.676721089139054
International District,3434.795793602846,WARRANT ARREST,17.947056949155954
Arbor Heights,133.86181948614177,BURGLARY,42.67635900102784
South Delridge,866.22550441343,CAR PROWL,41.36578512679176
Ballard,572.3509638383142,VEHICLE THEFT,62.649787902058634
Pinehurst,805.4410328358535,FRAUD,39.631276523177455
Loyal Heights,203.12521030392028,CAR PROWL,15.823473948483139
Olympic Hills,212.41876822517673,FRAUD,15.352688865871322
Cascade,1633.412347708946,CAR PROWL,15.447422082697674
Wallingford,533.4087577179007,CAR PROWL,29.756025043360616
Uptown,2707.153873464292,OTHER PROPERTY,32.09093424666388
Crown Hill,405.15767103505505,COUNTERFEIT,40.885287490841066
Yesler Terrace ,1767.0792532009925,CAR PROWL,23.932685891530713
Waterfront,16296.988960756204,CAR PROWL,47.87803603054365
Alki,132.8772933873565,OTHER PROPERTY,18.696541584653428
Hawthorne Hills,210.45496930960027,CAR PROWL,29.521779156765785
Lakewood,217.0316822857181,CAR PROWL,42.97971637385929
Gatewood,183.91648829238042,CAR PROWL,22.672203094980212
Jackson Place ,1700.1606553719048,BURGLARY,35.49515291874066
Madison Valley,271.3287362489809,OTHER PROPERTY,19.685358507330182
Hillman City,563.9267306170474,PROPERTY DAMAGE,29.564745990491126
Bryant,239.609585437723,BURGLARY,32.096869058948045
North Beach,122.50961582272157,CAR PROWL,15.750832947075269
Roosevelt,438.9392374956607,VEHICLE THEFT,14.626391390927695
North College Park,459.1875543727114,BURGLARY,27.679365651954846
Bitter Lake,293.051475762759,PROPERTY DAMAGE,20.831206474684933
Brighton,447.70775838731987,VEHICLE THEFT,20.233878300245845
West Queen Anne,272.5532354156376,CAR PROWL,22.87682197923281
Georgetown,558.9522172245603,BIKE THEFT,40.100108569497976
Genesee,385.1596096346261,BURGLARY,41.5377080195402
Belltown,204414.54863285623,CAR PROWL,98.39446132159428
Holly Park ,509.16659788015636,BURGLARY,19.63389130145028
Madison Park,350.9703790564968,BURGLARY,28.0941798250837
Rainier Beach,342.3115301687975,CAR PROWL,67.1117355185779
Fairmount Park,218.06340943685197,OTHER PROPERTY,23.032039170313414
Meadowbrook,207.9399120640707,OTHER PROPERTY,27.524714267946067
West Woodland,596.1003538168943,THREATS,18.95409279474588
Northgate,82019.84776656156,PROPERTY DAMAGE,97.10030953599653
Seward Park,250.46846075797455,CAR PROWL,27.473243271410833
University District,3493.754659367514,PROPERTY DAMAGE,24.30942771312785
First Hill,24806.91186858091,CAR PROWL,44.960830099676
Columbia City,2166.9051213200055,BURGLARY,52.3201619358153
North Beacon Hill,1007.6379499731426,SHOPLIFTING,35.23101721667656
