hood,influence,largestInfluencer,largestInfluencerPercent
Fremont,599.1872796011269,CAR PROWL,37.00755482215696
Junction,213.9875664382949,OTHER PROPERTY,21.34432425582017
Central,546.2966335962041,PROPERTY DAMAGE,33.55129113915149
Ravenna,372.53817281528256,CAR PROWL,37.39508277400225
Garfield,661.8423125575202,VEHICLE THEFT,21.197875496531676
Seaview,134.22817493976953,OTHER PROPERTY,19.372536455372153
Green Lake,196.26960590434882,CAR PROWL,23.024536491678536
Minor,721.1004163035426,PROPERTY DAMAGE,14.573906848854714
Roxhill,248.25147974921444,OTHER PROPERTY,31.18687283548865
Rainier View,328.08808823209677,STOLEN PROPERTY,50.98311320416076
Denny - Blaine,201.61647979295952,CAR PROWL,22.669523395906918
Broadview,1673.2729131634708,MAIL THEFT,91.80197342029737
Pioneer Square,4383.958476055452,CAR PROWL,35.88874306900871
Beacon Hill,180.9286498266841,BURGLARY,17.915425370094635
Lower Queen Anne,2257.2468794768015,PROPERTY DAMAGE,30.535807212871422
High Point,208.76570282884077,BURGLARY,18.953594093038618
Industrial District,143.7213080248129,OTHER PROPERTY,14.296035373865479
Blue Ridge,108.78469747174586,CAR PROWL,15.024660817665888
Maple Leaf,358.4628934907479,OTHER PROPERTY,26.005216074314763
Greenwood,1420.6844817940942,CAR PROWL,38.09403067647952
Broadmoor,183.33723334227724,THREATS,18.46190703757257
View Ridge,143.00018889819884,BURGLARY,35.69731463283238
East Queen Anne,356.9461010607162,CAR PROWL,22.720320022798923
Whittier Heights,251.10158439511898,CAR PROWL,18.22522341380889
Riverview,145.74395112996723,OTHER PROPERTY,16.64818541492654
Denny Triangle,653.6092531434368,CAR PROWL,20.393838541630803
Wedgwood,1290.742117936324,SHOPLIFTING,68.08876590090279
Eastlake,574.0908036225875,PROPERTY DAMAGE,20.923394188197125
North Delridge,290.2349870142315,OTHER PROPERTY,37.59236782955115
Capitol Hill,1073.942196957396,PROPERTY DAMAGE,13.452642031319687
Atlantic,663.8010895540759,BURGLARY,14.44334042689276
South Park,235.6893072443171,BURGLARY,29.337793590611298
Matthews Beach,89.70698756022075,CAR PROWL,16.729452839221945
Mt. Baker,299.54384242970394,VIOLATION OF COURT ORDER,15.833567966354611
Magnolia,413.79606025624986,PROPERTY DAMAGE,75.63745373719243
Sunset Hill,136.8385527408651,CAR PROWL,17.50697336647738
Montlake,223.04074096355535,CAR PROWL,32.216758079981254
Victory Heights,205.55011250129814,CAR PROWL,22.881534042712445
Phinney Ridge,267.14411192621844,CAR PROWL,25.325938432815907
Windermere,117.08109465047309,TRESPASS,20.92714587434226
Haller Lake,197.39381894331547,CAR PROWL,23.66440771460784
Highland Park,211.2969928475643,PROPERTY DAMAGE,30.147078955308626
Admiral,210.25619613883174,OTHER PROPERTY,35.49736747284525
Little Saigon,3320.1759658154137,CAR PROWL,32.972366711357886
Olympic Manor,3320.1759658154137,CAR PROWL,32.972366711357886
South Beacon Hill,382.80355449548813,BURGLARY,33.058034461454554
Fauntleroy,279.85363347524566,VEHICLE THEFT,56.144503739902134
Westlake,837.5031486148919,VEHICLE THEFT,31.523765148790453
Leschi,427.5051873754519,OTHER PROPERTY,22.857177816570083
South Lake Union,753.060210734945,CAR PROWL,21.969538545537727
Cedar Park,2320.3990766325583,TRESPASS,28.564371813010887
Interbay,163.36030834320312,CAR PROWL,21.71365178128608
Madrona,259.8977396912853,OTHER PROPERTY,17.435070560288768
Downtown,3320.1759658154137,CAR PROWL,32.972366711357886
North Queen Anne,258.21052019705473,CAR PROWL,28.306858844421082
Portage Bay,289.86978440384047,CAR PROWL,20.53834858824376
Laurelhurst,137.03895275149188,CAR PROWL,23.84019724630525
Dunlap,323.6131001755843,BURGLARY,22.853974524796854
Judkins Park,448.93310549819313,BURGLARY,16.34128233181191
International District,3831.094895819012,WARRANT ARREST,30.14172344402184
Arbor Heights,109.64259349758416,BURGLARY,52.69328960474143
South Delridge,320.25102990147394,VEHICLE THEFT,16.92855938136269
Ballard,216.47873615249856,PROPERTY DAMAGE,17.731245919695336
Pinehurst,460.92074927887234,BURGLARY,52.919891272631816
Loyal Heights,191.25622613363308,VEHICLE THEFT,16.422775923527567
Olympic Hills,975.319339615609,BURGLARY,81.02729468856873
Cascade,1575.0362336894575,CAR PROWL,24.02212408155066
Wallingford,649.4395503441965,FRAUD,35.36922521998753
Uptown,2257.2468794768015,PROPERTY DAMAGE,30.535807212871422
Crown Hill,188.6448295882884,CAR PROWL,18.460729524948107
Yesler Terrace ,1560.5392221856148,OTHER PROPERTY,16.119066647312557
Waterfront,9624.988508723363,CAR PROWL,79.53749837829905
Alki,419.4681791758895,OTHER PROPERTY,49.70227793265169
Hawthorne Hills,122.57386721531813,CAR PROWL,17.371682079200095
Lakewood,286.69088533098926,BURGLARY,34.34674382195306
Gatewood,143.93899790616427,BURGLARY,21.493068365185366
Jackson Place ,1072.3814689994197,BIKE THEFT,27.370015817383063
Madison Valley,352.393588477145,VEHICLE THEFT,22.537922427692823
Hillman City,638.1342254940957,WARRANT ARREST,22.611815235976973
Bryant,262.3703452074418,OTHER PROPERTY,40.228055638268785
North Beach,108.78469747174586,CAR PROWL,15.024660817665888
Roosevelt,14011.489514501149,OTHER PROPERTY,96.10664048534724
North College Park,294.7470689593435,BURGLARY,13.693156685248846
Bitter Lake,392.99169147060815,CAR PROWL,28.417591952255183
Brighton,427.2493087499645,BURGLARY,26.120443117836203
West Queen Anne,247.62966813678867,CAR PROWL,20.27048253900681
Georgetown,2057.3644950395615,CAR PROWL,30.060524884664968
Genesee,424.2627789230782,OTHER PROPERTY,57.710625635004966
Belltown,606046.5793276173,NARCOTICS,33.13515881205665
Holly Park ,282.91841155483405,BURGLARY,14.529376372621446
Madison Park,698.6288571802155,BURGLARY,24.682739667075495
Rainier Beach,187.85398240422245,BURGLARY,54.33534275599065
Fairmount Park,273.0220740325558,CAR PROWL,33.016066834949385
Meadowbrook,227.60725777122025,CAR PROWL,26.053467143291996
West Woodland,474.69089583326434,THREATS,23.36365361187429
Northgate,2520.4385585529817,SHOPLIFTING,28.640927834645552
Seward Park,569.779021481022,CAR PROWL,69.4342266670179
University District,2564.885299391872,CAR PROWL,35.935930697144244
First Hill,12804.623477727335,WARRANT ARREST,82.14723323425973
Columbia City,366.88001735082435,CAR PROWL,14.620133958928534
North Beacon Hill,918.5645682606647,SHOPLIFTING,39.25650994361344
