hood,influence,largestInfluencer,largestInfluencerPercent
Fremont,572.813566900266,CAR PROWL,24.247823070844987
Junction,475.6244440393023,PROPERTY DAMAGE,22.10803004809176
Central,907.1289670448447,OTHER PROPERTY,21.215321602959296
Ravenna,350.55434985491,CAR PROWL,27.758224480358884
Garfield,661.3297303639134,CAR PROWL,35.76322655880526
Seaview,254.1052041127314,OTHER PROPERTY,39.86265143132511
Green Lake,298.37919581700754,CAR PROWL,27.781806852432037
Minor,1546.3915737000445,NARCOTICS,17.942061822274702
Roxhill,276.18467636897867,CAR PROWL,16.96374638921353
Rainier View,315.52762162044576,VEHICLE THEFT,67.14942542846191
Denny - Blaine,397.4136910264857,CAR PROWL,35.451858483650184
Broadview,3236.5629103068845,MAIL THEFT,95.05372110749751
Pioneer Square,15242.598114697159,PROPERTY DAMAGE,18.031918468633105
Beacon Hill,722.308244144524,CAR PROWL,53.80401889520014
Lower Queen Anne,3091.5330054287283,CAR PROWL,20.28153334655595
High Point,203.3467969278707,VEHICLE THEFT,17.009367897675446
Industrial District,240.26129496045195,CAR PROWL,18.274011548781708
Blue Ridge,191.16606762314663,FRAUD,31.833319667607874
Maple Leaf,372.1041930331108,VEHICLE THEFT,27.868350136130612
Greenwood,674.4670376833607,CAR PROWL,39.9173502416434
Broadmoor,235.42844359495217,CAR PROWL,31.499285594280952
View Ridge,153.53776271267594,FRAUD,21.61248842483107
East Queen Anne,973.552245752052,BURGLARY,38.454639109231316
Whittier Heights,463.663274817686,CAR PROWL,42.33160181599369
Riverview,185.83843417237284,CAR PROWL,18.5851445106109
Denny Triangle,824.7808109090843,CAR PROWL,30.88122665992247
Wedgwood,855.9819580002797,SHOPLIFTING,68.8074517673758
Eastlake,779.4845218724635,CAR PROWL,25.311652400879993
North Delridge,248.1664534595265,CAR PROWL,24.522387792312532
Capitol Hill,1632.8503970484433,VEHICLE THEFT,20.760164141402882
Atlantic,1052.6902484653683,CAR PROWL,18.103683159667195
South Park,381.17958835440226,VEHICLE THEFT,39.59805851753399
Matthews Beach,120.20526142541486,FRAUD,17.26456057604304
Mt. Baker,1804.8886294441102,BURGLARY,69.91829440697721
Magnolia,187.50980895498182,CAR PROWL,41.4686188797273
Sunset Hill,1040.133345468215,VEHICLE THEFT,87.9099158227122
Montlake,322.5851947380805,CAR PROWL,23.85613598701
Victory Heights,353.9137326502011,VEHICLE THEFT,33.41272215665085
Phinney Ridge,1269.2287373130841,BIKE THEFT,73.26820518461423
Windermere,154.7229891210109,FRAUD,24.999739107141078
Haller Lake,257.05775644485163,CAR PROWL,20.12512248115872
Highland Park,10664.094790467518,VEHICLE THEFT,97.53756820849411
Admiral,224.6719930832597,CAR PROWL,19.76983018024474
Little Saigon,4344.478385117303,CAR PROWL,18.66377668777056
Olympic Manor,4344.478385117303,CAR PROWL,18.66377668777056
South Beacon Hill,420.78150940467646,VEHICLE THEFT,39.583083765182494
Fauntleroy,162.69709363364743,FRAUD,21.35424114271666
Westlake,773.6349576358834,CAR PROWL,38.72401454575817
Leschi,476.33024424086756,CAR PROWL,20.86714745752462
South Lake Union,1089.5888512434906,CAR PROWL,29.26967639848053
Cedar Park,1405.758300145258,DISTURBANCE,47.83866261285616
Interbay,235.9078525857598,CAR PROWL,26.446179665679633
Madrona,585.4338705463695,BURGLARY,42.72834091247237
Downtown,4344.478385117303,CAR PROWL,18.66377668777056
North Queen Anne,349.3951267544445,CAR PROWL,26.815322573028023
Portage Bay,446.99864291382477,CAR PROWL,20.38195513696766
Laurelhurst,218.01217890017924,CAR PROWL,35.26293270929475
Dunlap,632.8143248571423,OTHER PROPERTY,24.596612674710112
Judkins Park,776.6757861444954,CAR PROWL,18.832351015491252
International District,3212.0974733694993,BURGLARY,19.788289009329535
Arbor Heights,120.62151050575652,PROPERTY DAMAGE,17.396153239380553
South Delridge,1340.599409254598,PROPERTY DAMAGE,23.94047572911804
Ballard,387.86954105989736,OTHER PROPERTY,27.61403612833042
Pinehurst,489.43965068171855,CAR PROWL,25.806567194113597
Loyal Heights,282.25147882367196,OTHER PROPERTY,23.26399095132622
Olympic Hills,285.6545177340167,OTHER PROPERTY,21.71248358439548
Cascade,1845.6922430441366,CAR PROWL,19.745979030568048
Wallingford,1605.5374828675222,CAR PROWL,75.37285781058254
Uptown,3091.5330054287283,CAR PROWL,20.28153334655595
Crown Hill,2324.497302251902,OTHER PROPERTY,78.1117757333235
Yesler Terrace ,3177.7409548064247,ANIMAL COMPLAINT,42.900207180939276
Waterfront,3228.907730793402,CAR PROWL,34.56342426646016
Alki,156.51126442673578,CAR PROWL,33.2601178011161
Hawthorne Hills,433.97747972915585,CAR PROWL,67.70310404844898
Lakewood,314.633547798707,CAR PROWL,50.092196540349846
Gatewood,210.84593655449237,VEHICLE THEFT,16.063317272307497
Jackson Place ,1330.9039917310386,CAR PROWL,17.139813907964484
Madison Valley,666.0762247429138,PROPERTY DAMAGE,31.73968709870741
Hillman City,655.0642016844728,CAR PROWL,23.385849248455866
Bryant,226.6627500547587,CAR PROWL,19.25028799984213
North Beach,191.16606762314663,FRAUD,31.833319667607874
Roosevelt,532.435881634963,CAR PROWL,22.825715860625944
North College Park,489.56110175338733,VEHICLE THEFT,17.262037797787467
Bitter Lake,319.5809291695781,CAR PROWL,21.095513159387448
Brighton,565.596187130943,BURGLARY,27.872965133632153
West Queen Anne,442.47962564370465,CAR PROWL,27.55083942563394
Georgetown,982.0435767560411,STOLEN PROPERTY,23.55973874772203
Genesee,204.94567294485665,OTHER PROPERTY,15.105049002633145
Belltown,603891.6357840179,PROPERTY DAMAGE,33.15134815624565
Holly Park ,369.850346675383,VEHICLE THEFT,15.680681831630404
Madison Park,422.40381850627944,NARCOTICS,37.56603923777728
Rainier Beach,842.7172350963634,VEHICLE THEFT,25.947892487711474
Fairmount Park,440.3673940311988,OTHER PROPERTY,25.181652377663173
Meadowbrook,254.97329012706803,ASSAULT,23.62145094046312
West Woodland,770.8149281518283,OTHER PROPERTY,42.01422302026757
Northgate,83821.8677246158,CAR PROWL,96.98746405492037
Seward Park,225.15272174200445,VEHICLE THEFT,22.696207605286737
University District,3751.2531482285126,CAR PROWL,19.87980345641608
First Hill,3916.774979086274,CAR PROWL,30.261121002209133
Columbia City,693.5529543675366,BURGLARY,23.32826892926091
North Beacon Hill,682.9158576462147,VEHICLE THEFT,26.519493310070626
