hood,influence,largestInfluencer,largestInfluencerPercent
Fremont,14136.213087501576,CAR PROWL,96.27789226357865
Junction,907.7295828036546,FRAUD,24.08812301979442
Central,695.3350222444203,OTHER PROPERTY,22.065137038878923
Ravenna,488.69639370967855,FRAUD,35.54349847860208
Garfield,916.938506685128,FRAUD,44.90662047018007
Seaview,207.57324211580382,FRAUD,51.19763642475461
Green Lake,374.2425143723497,CAR PROWL,25.37455476822465
Minor,1467.4929995448485,CAR PROWL,26.521636575603868
Roxhill,277.3127406999559,FRAUD,19.896575621634184
Rainier View,184.61945524458207,BURGLARY,19.852822590291744
Denny - Blaine,333.4669742002023,FRAUD,27.182568031991817
Broadview,243.9541962667581,FRAUD,50.52415661387576
Pioneer Square,16191.518620063447,CAR PROWL,20.803353830759402
Beacon Hill,412.72244390975044,OTHER PROPERTY,28.215134561575443
Lower Queen Anne,2886.610238070965,FRAUD,24.63176225306688
High Point,209.26082365757551,FRAUD,28.611589137058875
Industrial District,2456.913090107012,CAR PROWL,93.3234474197452
Blue Ridge,229.89710257541398,FRAUD,38.07113061165523
Maple Leaf,655.5547420939805,VEHICLE THEFT,27.72389377848738
Greenwood,627.7021003649239,FRAUD,23.832399406906628
Broadmoor,569.6316994461424,FRAUD,41.12684781560695
View Ridge,734.8951814690435,FRAUD,67.44054354883767
East Queen Anne,516.7807736905928,CAR PROWL,24.82177869930179
Whittier Heights,480.0428480493036,FRAUD,25.4117031673798
Riverview,150.19797142030023,FRAUD,20.235803730837063
Denny Triangle,939.9541813004012,CAR PROWL,25.15794438684226
Wedgwood,451.61993762622296,FRAUD,40.77305387933002
Eastlake,1098.9980348081685,CAR PROWL,39.836300199593175
North Delridge,259.2370873566962,FRAUD,17.123863857230834
Capitol Hill,1984.5367197379144,CAR PROWL,35.57763825917845
Atlantic,1244.6775792300298,FRAUD,15.781326783638221
South Park,346.1190225245299,BURGLARY,30.922182005690743
Matthews Beach,250.41823108578146,FRAUD,60.591513157560044
Mt. Baker,466.3953646131997,CAR PROWL,32.78447504317908
Magnolia,661.3768428467043,BURGLARY,48.16874473796595
Sunset Hill,883.9501703197603,FRAUD,85.74411598132319
Montlake,717.5913299351818,FRAUD,44.920233025125555
Victory Heights,777.6790463754719,OTHER PROPERTY,47.95720676081078
Phinney Ridge,726.4912705131954,VEHICLE THEFT,33.80632426883251
Windermere,900.1534043577377,FRAUD,84.84015677657203
Haller Lake,317.92376045838085,FRAUD,18.90627741895175
Highland Park,5710.548986992659,VEHICLE THEFT,92.849432349339
Admiral,256.6942719302445,FRAUD,43.89964201730303
Little Saigon,5272.540466941533,FRAUD,20.044040179218705
Olympic Manor,5272.540466941533,FRAUD,20.044040179218705
South Beacon Hill,345.943036803795,BURGLARY,28.18335377272754
Fauntleroy,243.34057726884686,FRAUD,55.848288954970734
Westlake,681.5189819742056,CAR PROWL,28.376155219498273
Leschi,644.4394496621485,FRAUD,29.509395990110832
South Lake Union,1486.5927684230498,CAR PROWL,44.30434131864275
Cedar Park,626.8271381556648,SHOPLIFTING,19.628315753069355
Interbay,282.5818659520955,FRAUD,20.97759697634506
Madrona,616.1743923340788,OTHER PROPERTY,36.68664364712098
Downtown,5272.540466941533,FRAUD,20.044040179218705
North Queen Anne,384.3732524997603,CAR PROWL,22.256883738509732
Portage Bay,998.0705284977961,CAR PROWL,28.274120896437026
Laurelhurst,848.4095174993623,FRAUD,81.58071812704196
Dunlap,506.09828614783027,ROBBERY,18.674690634563078
Judkins Park,1226.281475257261,PROPERTY DAMAGE,27.643984084170548
International District,8473.01893529878,TRESPASS,29.64578251663072
Arbor Heights,137.61670863114722,FRAUD,27.456937221468724
South Delridge,974.4359489621644,PROPERTY DAMAGE,31.64125754952701
Ballard,854.866504556923,CAR PROWL,34.692917474666096
Pinehurst,724.1368477317286,BURGLARY,51.24080530360797
Loyal Heights,397.5123449582245,FRAUD,30.907189196030213
Olympic Hills,299.9231586649618,FRAUD,28.88573515915649
Cascade,3109.8649203748073,ASSAULT,17.38303876107519
Wallingford,728.6113192909697,FRAUD,18.15087583367873
Uptown,2886.610238070965,FRAUD,24.63176225306688
Crown Hill,514.3934919631511,RECOVERED PROPERTY,32.20790524235563
Yesler Terrace ,2256.113965578095,FRAUD,28.876201264565758
Waterfront,3425.9383466572735,CAR PROWL,38.49319215305904
Alki,329.6128019134388,FRAUD,48.766603153876325
Hawthorne Hills,1341.7851455486566,FRAUD,81.89182926483883
Lakewood,310.5554319896499,STOLEN PROPERTY,23.05275508940516
Gatewood,266.56488153193067,FRAUD,45.850756669628794
Jackson Place ,1297.1324263636168,BURGLARY,16.356827157758616
Madison Valley,681.8454943318252,BURGLARY,19.080824709592477
Hillman City,822.4037726535677,OTHER PROPERTY,33.88202027046674
Bryant,509.0479744943312,FRAUD,41.913271368007216
North Beach,229.89710257541398,FRAUD,38.07113061165523
Roosevelt,755.6842928485643,FRAUD,16.757181032370326
North College Park,1546.1083611064248,VEHICLE THEFT,38.30003634499304
Bitter Lake,432.29889496595905,FRAUD,25.036700739046328
Brighton,1016.3880276402846,BURGLARY,18.61299829277617
West Queen Anne,613.178619275162,CAR PROWL,54.319391673472985
Georgetown,1154.574580232865,CAR PROWL,62.926598665229626
Genesee,294.2944517188146,FRAUD,44.85077167450529
Belltown,204457.10700973537,NARCOTICS,97.90538526378361
Holly Park ,636.5325744992167,PROPERTY DAMAGE,28.406048487636895
Madison Park,469.83002811633065,PROPERTY DAMAGE,28.73811892699599
Rainier Beach,234.95148652817474,FRAUD,27.410505923105628
Fairmount Park,227.67736296266534,FRAUD,30.351711843671545
Meadowbrook,465.3631774665889,OTHER PROPERTY,22.59544693690029
West Woodland,654.007714684808,OTHER PROPERTY,18.891364040106687
Northgate,162248.6167717504,CAR PROWL,49.20835166889294
Seward Park,356.1207728954411,CAR PROWL,39.484859909451366
University District,4279.746385963047,OTHER PROPERTY,16.44770856278134
First Hill,5724.976728278877,FRAUD,46.55213054046173
Columbia City,1860.695979407584,PROPERTY DAMAGE,60.08371890444205
North Beacon Hill,938.143188711967,BURGLARY,40.18985737423194
