hood,influence,largestInfluencer,largestInfluencerPercent
Fremont,653.301153436499,BIKE THEFT,23.304854734569602
Junction,660.6967898075412,OTHER PROPERTY,56.871018941342626
Central,681.9437878333831,OTHER PROPERTY,22.677572908430005
Ravenna,4817.367454883005,BURGLARY,47.71878124068485
Garfield,507.3383181413792,CAR PROWL,28.14562466803882
Seaview,166.18003747068832,STOLEN PROPERTY,31.128561921062435
Green Lake,273.64031929254145,CAR PROWL,23.9356453175799
Minor,1279.1776616412037,OTHER PROPERTY,29.33540485322751
Roxhill,197.63749239981797,CAR PROWL,15.938850177522637
Rainier View,74.35222223946568,BURGLARY,16.384098853014986
Denny - Blaine,496.61041065061784,STOLEN PROPERTY,47.41556488053351
Broadview,925.9137826222766,CAR PROWL,86.08983384201869
Pioneer Square,11783.69383956067,CAR PROWL,20.92687703472493
Beacon Hill,226.37382982892677,BURGLARY,13.968234510798453
Lower Queen Anne,3700.5837943872652,OTHER PROPERTY,17.34374134710082
High Point,203.5675056094318,OBSTRUCT,14.048931048539748
Industrial District,154.8300885773903,CAR PROWL,17.692270200910947
Blue Ridge,207.3643330369841,CAR PROWL,20.45035072862405
Maple Leaf,304.2458946675881,CAR PROWL,18.000271838185437
Greenwood,507.056789805677,WARRANT ARREST,22.534013432947145
Broadmoor,205.3765162039422,CAR PROWL,25.843176684959694
View Ridge,123.67081592101678,CAR PROWL,23.627988936044737
East Queen Anne,717.1754996615208,CAR PROWL,53.783753908756296
Whittier Heights,297.1097648630497,OTHER PROPERTY,21.111162413119686
Riverview,136.71504737323585,FRAUD,11.454709496152216
Denny Triangle,764.9976017725455,CAR PROWL,24.578402237568334
Wedgwood,217.2242745179565,FORGERY,19.964185071671647
Eastlake,1662.9231284102952,PROPERTY DAMAGE,39.84614668118293
North Delridge,169.47877924320676,ASSAULT,20.919416251812653
Capitol Hill,1766.3417845329723,PROPERTY DAMAGE,27.49774166388534
Atlantic,898.0181164815122,CAR PROWL,33.59619370831116
South Park,284.4333343549477,PROPERTY DAMAGE,23.489095205807136
Matthews Beach,286.224060556846,CAR PROWL,49.1885964007747
Mt. Baker,427.88883027792644,CAR PROWL,41.41311176659231
Magnolia,2602.6634495420285,OTHER PROPERTY,89.56169491090643
Sunset Hill,315.877082595146,FRAUD,44.241800071533476
Montlake,305.6389045755814,CAR PROWL,29.740500927482895
Victory Heights,290.8505875697806,THREATS,18.800255045939274
Phinney Ridge,501.02993017232,FRAUD,36.30402762517799
Windermere,133.72089494285996,CAR PROWL,16.006410292230814
Haller Lake,251.80306627144964,CAR PROWL,21.092688233212517
Highland Park,305.2780597648947,VEHICLE THEFT,28.157595846498594
Admiral,193.95052091566356,BURGLARY,30.128312742192783
Little Saigon,5247.6713247384105,OTHER PROPERTY,15.114970027190052
Olympic Manor,5247.6713247384105,OTHER PROPERTY,15.114970027190052
South Beacon Hill,203.8916030734343,BURGLARY,22.31476895117049
Fauntleroy,126.29848343851252,VEHICLE THEFT,18.848329342133315
Westlake,699.9493337636546,CAR PROWL,23.845618242958803
Leschi,341.40924360444177,CAR PROWL,19.386983372482803
South Lake Union,17216.05189015144,VIOLATION OF COURT ORDER,93.93581172135809
Cedar Park,1965.5885117493629,BURGLARY,52.63073209353149
Interbay,213.50785188789595,CAR PROWL,26.568947273811197
Madrona,385.41704884053974,CAR PROWL,23.642183987891777
Downtown,5247.6713247384105,OTHER PROPERTY,15.114970027190052
North Queen Anne,320.9732130212782,CAR PROWL,27.7666611367298
Portage Bay,367.9458479637787,CAR PROWL,17.951817057023952
Laurelhurst,202.74909418989233,OTHER PROPERTY,33.624421651080695
Dunlap,732.2991670497642,BURGLARY,44.24728903127976
Judkins Park,560.4874995688627,CAR PROWL,22.071528434942216
International District,4214.9538580900435,PROPERTY DAMAGE,61.99291465135388
Arbor Heights,114.69431302469825,BURGLARY,39.00054133008881
South Delridge,946.6885015426916,PROPERTY DAMAGE,40.161590245404774
Ballard,1056.1906013381517,CAR PROWL,72.67826507291187
Pinehurst,428.0633710581919,OTHER PROPERTY,21.290426626214693
Loyal Heights,434.9896058115898,CAR PROWL,33.84349563887907
Olympic Hills,220.80376875383203,OTHER PROPERTY,14.5173675988553
Cascade,1317.2068212323832,CAR PROWL,17.055634091323846
Wallingford,1580.0959226975979,BURGLARY,72.27241366629373
Uptown,3700.5837943872652,OTHER PROPERTY,17.34374134710082
Crown Hill,251.04268623234773,BURGLARY,13.187882058051795
Yesler Terrace ,1418.6726545467568,OTHER PROPERTY,15.599335177391149
Waterfront,10337.574949314521,THEFT OF SERVICES,63.032506138731826
Alki,189.9571143284139,FRAUD,30.137982884439
Hawthorne Hills,470.7510281495578,CAR PROWL,73.88770507638947
Lakewood,271.2633964294247,CAR PROWL,31.96813294361831
Gatewood,143.95523218907323,CAR PROWL,14.42766006760272
Jackson Place ,1486.9848513579243,ASSAULT,29.391442270612924
Madison Valley,388.6800911677094,CAR PROWL,23.49406395327857
Hillman City,960.0001778142889,ROBBERY,57.877984397907746
Bryant,225.01245428624372,BURGLARY,21.859509440010466
North Beach,207.3643330369841,CAR PROWL,20.45035072862405
Roosevelt,821.4844504908924,VEHICLE THEFT,30.79552559310429
North College Park,450.9086227378251,VEHICLE THEFT,25.930099201455455
Bitter Lake,314.3546015482429,CAR PROWL,18.852200948794014
Brighton,512.0685674547334,BURGLARY,31.18478392336872
West Queen Anne,460.3273048888924,CAR PROWL,44.20074363772191
Georgetown,991.9795362545922,STOLEN PROPERTY,23.076083938885674
Genesee,146.9124997924669,OTHER PROPERTY,16.19196511908586
Belltown,403221.2139047587,ROBBERY,99.22432353203503
Holly Park ,423.52399105636715,BURGLARY,19.36060858754932
Madison Park,279.59818407897785,CAR PROWL,45.10238761676612
Rainier Beach,374.9477088115699,CAR PROWL,73.95255975254233
Fairmount Park,232.2167687491781,VEHICLE THEFT,28.485630466450665
Meadowbrook,174.46276670291397,BURGLARY,13.448299634517062
West Woodland,516.7030928516384,CAR PROWL,24.44436371868036
Northgate,83166.46382182777,WARRANT ARREST,95.69466194232241
Seward Park,195.58602874243513,CAR PROWL,34.97491271288217
University District,2266.910225205539,BURGLARY,18.795214191287325
First Hill,3707.12646107631,OTHER PROPERTY,27.204339670214555
Columbia City,1574.6742886937855,OTHER PROPERTY,76.68825388092901
North Beacon Hill,718.386698089456,PROPERTY DAMAGE,32.31311712114579
