hood,influence,largestInfluencer,largestInfluencerPercent
Fremont,261.1109171790265,CAR PROWL,24.291044029193475
Junction,825.8295266513995,WARRANT ARREST,53.31941550016162
Central,591.4200167223422,CAR PROWL,22.955167344820737
Ravenna,140.80110287276096,CAR PROWL,18.243786878191916
Garfield,354.1207115333906,CAR PROWL,29.486037644210356
Seaview,97.73572573606185,CAR PROWL,31.065104765817683
Green Lake,148.00360093140938,CAR PROWL,19.378290343666446
Minor,538.7479422806008,CAR PROWL,19.204941394540338
Roxhill,123.20188337467228,CAR PROWL,17.733402347481267
Rainier View,64.52080275083424,ASSAULT,42.956342339076215
Denny - Blaine,268.39883158374863,CAR PROWL,56.579616573111146
Broadview,155.0216987840255,CAR PROWL,47.77537366024088
Pioneer Square,10570.191352077287,DISTURBANCE,19.84099658829402
Beacon Hill,88.87797420163393,CAR PROWL,11.699750047860965
Lower Queen Anne,1473.9357678788729,COUNTERFEIT,18.593280995426827
High Point,97.81967172696098,OTHER PROPERTY,17.26299031176597
Industrial District,102.46524459717412,CAR PROWL,17.637890860917505
Blue Ridge,67.56034755656215,CAR PROWL,18.435364995187683
Maple Leaf,238.65453150254297,PROPERTY DAMAGE,38.72179632238709
Greenwood,455.24274860305724,BURGLARY,29.828080226961514
Broadmoor,120.52955801082732,CAR PROWL,24.24088161220776
View Ridge,70.69659403492756,DISPUTE,19.858906420416012
East Queen Anne,464.27674181431416,CAR PROWL,33.49990493275777
Whittier Heights,207.14378147250412,CAR PROWL,32.32758672606042
Riverview,74.28970634741746,CAR PROWL,11.991823118535494
Denny Triangle,440.64872209920446,CAR PROWL,17.8482458637138
Wedgwood,628.2159468333122,SHOPLIFTING,46.87695839348111
Eastlake,376.2681894736382,CAR PROWL,29.82209209932185
North Delridge,93.0164799225071,CAR PROWL,18.774521838239696
Capitol Hill,1073.1719987417757,CAR PROWL,18.686953848891324
Atlantic,868.2859353913916,ASSAULT,45.96513317101701
South Park,125.58779929464463,VEHICLE THEFT,24.495117396762623
Matthews Beach,1058.6031210920476,OTHER PROPERTY,94.25711962109987
Mt. Baker,175.95693658076874,FRAUD,17.045231364275022
Magnolia,212.74713313709188,OTHER PROPERTY,36.66958565130511
Sunset Hill,154.31098825590558,CAR PROWL,55.53675882191317
Montlake,715.083593763634,BURGLARY,80.47710063248013
Victory Heights,133.994839680635,CAR PROWL,18.301110425931867
Phinney Ridge,171.4075353001985,CAR PROWL,17.01716185115462
Windermere,75.00531995826086,BURGLARY,24.470900910346668
Haller Lake,127.9405042857784,CAR PROWL,16.349132058629504
Highland Park,260.84552945999184,CAR PROWL,46.72331693676112
Admiral,87.94995707207715,CAR PROWL,17.436892789917707
Little Saigon,1988.6742849599684,OTHER PROPERTY,21.99018190633499
Olympic Manor,1988.6742849599684,OTHER PROPERTY,21.99018190633499
South Beacon Hill,130.60113546368595,BURGLARY,23.437994531915805
Fauntleroy,66.40466518678801,CAR PROWL,18.351816602602504
Westlake,579.4795872314585,CAR PROWL,30.40865259168704
Leschi,321.68898432918974,CAR PROWL,27.758574317350007
South Lake Union,33532.62785825554,BURGLARY,74.0537882580669
Cedar Park,1345.2882941413368,ASSAULT,27.56239835444335
Interbay,135.5000806488796,CAR PROWL,19.85158854972904
Madrona,507.97582150076954,OTHER PROPERTY,44.38371097069267
Downtown,1988.6742849599684,OTHER PROPERTY,21.99018190633499
North Queen Anne,172.46358969346514,CAR PROWL,21.18496706973679
Portage Bay,200.39985139229802,CAR PROWL,19.255005261398953
Laurelhurst,80.08875156824712,CAR PROWL,20.399593408144284
Dunlap,224.2959868822449,OTHER PROPERTY,14.674605318472269
Judkins Park,287.3644249698377,CAR PROWL,20.714940591614113
International District,2000.3658748527505,BURGLARY,22.70227818171582
Arbor Heights,75.894478273732,DISPUTE,17.741619553043904
South Delridge,171.66512791373074,CAR PROWL,13.901439202864522
Ballard,212.82379621236413,CAR PROWL,27.632475278075898
Pinehurst,195.69717778091695,DISTURBANCE,10.807094999983208
Loyal Heights,188.73041177376024,OTHER PROPERTY,21.017089881212726
Olympic Hills,501.2682822887182,DISTURBANCE,67.99824428366414
Cascade,1088.0268741594653,ASSAULT,12.410490004869603
Wallingford,379.11788640960606,BURGLARY,26.48009567439562
Uptown,1473.9357678788729,COUNTERFEIT,18.593280995426827
Crown Hill,136.18939521942136,FRAUD,17.647958891105908
Yesler Terrace ,1405.6363235190383,TRAFFIC,30.06649330813467
Waterfront,2200.323457851722,CAR PROWL,13.22236468426186
Alki,118.2524715013223,STOLEN PROPERTY,22.039966914460713
Hawthorne Hills,89.352813280647,BURGLARY,20.01231828214487
Lakewood,88.03028812237159,CAR PROWL,21.13669853070199
Gatewood,93.69680318238504,OTHER PROPERTY,19.071256015412693
Jackson Place ,750.9597401565737,CAR PROWL,32.50525450920896
Madison Valley,235.10966225467024,CAR PROWL,25.631099490158427
Hillman City,239.78755767893477,BURGLARY,26.146356332734282
Bryant,144.94322409906903,CAR PROWL,27.399495755840178
North Beach,67.56034755656215,CAR PROWL,18.435364995187683
Roosevelt,224.221327383443,CAR PROWL,16.690899312002706
North College Park,799.5504207883504,BURGLARY,33.76974224455696
Bitter Lake,170.7816251387938,OTHER PROPERTY,15.410813697928964
Brighton,180.23102178938564,ASSAULT,18.66898189256525
West Queen Anne,195.30804910980928,CAR PROWL,19.908804891182825
Georgetown,605.1855912194346,DISTURBANCE,50.582904465311266
Genesee,126.60594249203115,DISTURBANCE,16.440319751519983
Belltown,202454.68101562076,OTHER PROPERTY,49.543076073772134
Holly Park ,562.8329856329128,VEHICLE THEFT,58.282302318857376
Madison Park,13640.618950306232,PROPERTY DAMAGE,83.12526198448155
Rainier Beach,85.73512376528627,VEHICLE THEFT,23.670796537717955
Fairmount Park,136.92613499030892,BIKE THEFT,21.9814082075588
Meadowbrook,116.93167703377277,CAR PROWL,13.602022137308142
West Woodland,270.02534255386234,ASSAULT,15.009764627082538
Northgate,1838.2128865245236,SHOPLIFTING,21.47602845684191
Seward Park,109.14890978216518,CAR PROWL,27.125814737723168
University District,1987.0780645551833,PROPERTY DAMAGE,18.682919654648206
First Hill,7275.88190580326,WEAPON,71.85077488569505
Columbia City,330.82063983840175,PROPERTY DAMAGE,30.3901016726541
North Beacon Hill,692.6176231693106,OTHER PROPERTY,16.224416950705283
