Date,Value
2015-09-30,0.784
2015-08-31,0.786
2015-07-31,0.786
2015-06-30,0.784
2015-05-31,0.778
2015-04-30,0.77
2015-03-31,0.766
2015-02-28,0.762
2015-01-31,0.758
2014-12-31,0.756
2014-11-30,0.758
2014-10-31,0.76
2014-09-30,0.756
2014-08-31,0.752
2014-07-31,0.746
2014-06-30,0.74
2014-05-31,0.73
2014-04-30,0.722
2014-03-31,0.722
2014-02-28,0.72
2014-01-31,0.72
2013-12-31,0.718
2013-11-30,0.718
2013-10-31,0.722
2013-09-30,0.724
2013-08-31,0.724
2013-07-31,0.72
2013-06-30,0.716
2013-05-31,0.716
2013-04-30,0.71
2013-03-31,0.704
2013-02-28,0.698
2013-01-31,0.694
2012-12-31,0.69
2012-11-30,0.69
2012-10-31,0.694
2012-09-30,0.696
2012-08-31,0.696
2012-07-31,0.696
2012-06-30,0.692
2012-05-31,0.688
2012-04-30,0.684
2012-03-31,0.682
2012-02-29,0.682
2012-01-31,0.678
2011-12-31,0.67
2011-11-30,0.662
2011-10-31,0.654
2011-09-30,0.646
2011-08-31,0.646
2011-07-31,0.652
2011-06-30,0.66
2011-05-31,0.672
2011-04-30,0.682
2011-03-31,0.686
2011-02-28,0.692
2011-01-31,0.698
2010-12-31,0.708
2010-11-30,0.71
