Date,Value
2015-09-30,359150.0
2015-08-31,334850.0
2015-07-31,331015.0
2015-06-30,326185.0
2015-05-31,326175.0
2015-04-30,319925.0
2015-03-31,283235.2941
2015-02-28,283300.0
2014-12-31,326400.0
2014-11-30,350500.0
2014-10-31,331500.0
2014-09-30,340800.0
2014-08-31,334200.0
2014-07-31,312550.0
2014-06-30,305700.0
2014-05-31,311000.0
2014-04-30,335000.0
2014-03-31,332692.3077
2014-01-31,334748.0
2013-12-31,338890.0
2013-11-30,314492.0
2013-10-31,301823.0
2013-09-30,283915.0
2013-08-31,308792.0
2013-07-31,326190.0
2013-06-30,308755.0
2013-05-31,296963.0
2013-04-30,273988.2353
2013-03-31,260000.0
2012-12-31,271073.0
2012-11-30,268440.0
2012-10-31,266242.5
2012-09-30,267424.5
2012-08-31,267865.0
2012-07-31,294588.0
2012-06-30,289840.0
2012-05-31,301788.0
2012-04-30,304458.8235
2012-03-31,289668.4615
2012-01-31,325230.0
2011-11-30,207147.5
2011-10-31,228742.0
2011-09-30,234640.0
2011-08-31,252030.0
2011-07-31,246488.0
2011-06-30,269232.0
2011-05-31,287040.0
2011-04-30,255103.5294
2011-03-31,276280.0
2010-12-31,256515.0
2010-11-30,240367.5
2010-10-31,259050.0
2010-09-30,270125.0
2010-08-31,272725.0
2010-07-31,276750.0
2010-06-30,271650.0
2010-05-31,274529.4118
2010-04-30,284230.7692
2010-02-28,253792.0
2010-01-31,225390.0
2009-12-31,272030.0
2009-11-30,292380.0
2009-10-31,324238.0
2009-09-30,294500.0
2009-08-31,295150.0
2009-07-31,302750.0
2009-06-30,311470.5882
2009-05-31,291756.9231
2009-02-28,320000.0
2008-10-31,326475.0
2008-09-30,331712.5
2008-08-31,323426.4706
2008-07-31,346807.6923
2008-05-31,345000.0
2008-04-30,349200.0
2008-03-31,342292.5
2008-02-29,364357.5
2008-01-31,373975.0
2007-12-31,374537.5
2007-11-30,372712.5
2007-10-31,370375.0
2007-09-30,346000.0
2007-08-31,340900.0
2007-07-31,364350.0
2007-06-30,371100.0
2007-05-31,373925.0
2007-04-30,370467.5
2007-03-31,360775.0
2007-02-28,358157.5
2007-01-31,348225.0
2006-12-31,355050.0
2006-11-30,368200.0
2006-10-31,372916.45
2006-09-30,366005.05
2006-08-31,358121.5
2006-07-31,356650.0
2006-06-30,345250.0
2006-05-31,338650.0
2006-04-30,351600.0
2006-03-31,349042.5
2006-02-28,291400.0
2006-01-31,233882.65
2005-11-30,306025.5
2005-10-31,321557.5
2005-09-30,322475.0
2005-08-31,298100.0
2005-07-31,294850.0
2005-06-30,293150.0
2005-05-31,279575.0
2005-04-30,281925.0
2005-03-31,297172.5
2005-02-28,311902.5
2005-01-31,292950.0
2004-12-31,266617.5
2004-11-30,260232.5
2004-10-31,265425.0
2004-09-30,268050.0
2004-08-31,263375.0
2004-07-31,254367.5
2004-06-30,255782.5
2004-05-31,248925.0
2004-04-30,249625.0
2004-03-31,251567.5
2004-02-29,255107.5
2004-01-31,256750.0
2003-12-31,268892.5
2003-11-30,261182.5
2003-10-31,255525.0
2003-09-30,241742.5
2003-08-31,241507.5
2003-07-31,254685.0
2003-06-30,245215.0
2003-05-31,239708.75
2003-04-30,246878.75
2003-03-31,264587.5
2003-02-28,266600.0
2003-01-31,262392.5
2002-12-31,259975.0
2002-11-30,255450.0
2002-10-31,254507.5
2002-09-30,241100.0
2002-08-31,244775.0
2002-07-31,249292.5
2002-06-30,243575.0
2002-05-31,239106.0
2002-04-30,236996.5
2002-03-31,223612.5
2002-02-28,218082.5
2002-01-31,220325.0
2001-12-31,217800.0
2001-11-30,223792.5
2001-10-31,231157.5
2001-09-30,225717.6
2001-08-31,223274.4
2001-07-31,222134.5
2001-06-30,217754.15
2001-05-31,211858.85
2001-04-30,203390.5
2001-03-31,192215.0
2001-02-28,195935.0
2001-01-31,199965.0
2000-12-31,193900.0
2000-11-30,195550.0
2000-10-31,199100.0
2000-09-30,208650.0
2000-08-31,205400.0
2000-07-31,212092.5
2000-06-30,211482.5
2000-05-31,204975.0
2000-04-30,202400.0
2000-03-31,206500.0
2000-02-29,206875.0
2000-01-31,193967.5
1999-12-31,183151.75
1999-11-30,184828.25
1999-10-31,182522.5
1999-09-30,188750.0
1999-08-31,202600.0
1999-07-31,197136.5
1999-06-30,188711.0
1999-05-31,188180.0
1999-04-30,185207.5
1999-03-31,183525.0
1999-02-28,180225.0
1999-01-31,183100.0
1998-12-31,179725.0
1998-11-30,167500.0
1998-10-31,172100.0
1998-09-30,171750.0
1998-08-31,174742.5
1998-07-31,174882.5
1998-06-30,171767.0
1998-05-31,171748.0
1998-04-30,173290.0
1998-03-31,170350.0
1998-02-28,165050.0
1998-01-31,162150.0
1997-12-31,158325.0
1997-11-30,156050.0
1997-10-31,158667.5
1997-09-30,159975.0
1997-08-31,161332.5
1997-07-31,165100.0
1997-06-30,159500.0
1997-05-31,157050.0
1997-04-30,158942.5
1997-03-31,157432.5
1997-02-28,156025.0
1997-01-31,152550.0
1996-12-31,152000.0
1996-11-30,152450.0
1996-10-31,149700.0
1996-09-30,154825.0
1996-08-31,159460.0
1996-07-31,160415.0
1996-06-30,157285.0
1996-05-31,158605.0
1996-04-30,154760.0
