Date,Value
2015-02-28,160000.0
2015-01-31,198900.0
2014-12-31,184000.0
2014-11-30,199900.0
2014-10-31,199900.0
2014-09-30,217900.0
2014-08-31,279900.0
2014-07-31,295000.0
2014-06-30,290000.0
2014-05-31,225000.0
2014-04-30,219900.0
2014-03-31,248000.0
2014-02-28,259000.0
2014-01-31,248000.0
2013-12-31,173000.0
2013-11-30,139900.0
2013-10-31,126500.0
2013-09-30,125000.0
2013-08-31,125000.0
2013-07-31,125000.0
2013-06-30,109000.0
2013-05-31,94900.0
2013-04-30,109000.0
2013-03-31,92500.0
2013-02-28,84900.0
2013-01-31,84900.0
2012-12-31,92500.0
2012-11-30,120000.0
2012-10-31,111900.0
2012-09-30,125000.0
2012-08-31,149000.0
2012-07-31,149500.0
2012-06-30,156000.0
2012-05-31,155000.0
2012-04-30,125000.0
2012-03-31,129900.0
2012-02-29,127500.0
2012-01-31,149000.0
2011-12-31,165000.0
2011-11-30,169900.0
2011-10-31,165000.0
2011-09-30,139900.0
2011-08-31,169900.0
2011-07-31,179900.0
2011-06-30,224900.0
2011-05-31,179000.0
2011-04-30,169900.0
2011-03-31,159900.0
2011-02-28,215000.0
2011-01-31,235000.0
2010-12-31,219500.0
2010-11-30,197500.0
2010-10-31,197500.0
2010-09-30,215000.0
2010-08-31,235000.0
2010-07-31,219500.0
2010-06-30,204500.0
2010-05-31,169900.0
2010-04-30,169900.0
2010-03-31,169900.0
2010-02-28,204500.0
2010-01-31,169900.0
2009-12-31,204500.0
2009-11-30,169900.0
2009-10-31,167500.0
2009-09-30,167500.0
2009-08-31,159900.0
2009-07-31,146900.0
2009-06-30,146900.0
2009-05-31,145000.0
2009-04-30,146900.0
2009-03-31,146900.0
2009-02-28,145000.0
2009-01-31,149500.0
2008-12-31,156900.0
2008-11-30,146900.0
2008-10-31,146900.0
