Date,Value
2015-06-30,1800.0
2015-05-31,1818.0
2015-04-30,1895.0
2015-03-31,1864.0
2015-02-28,1800.0
2015-01-31,1800.0
2014-12-31,1760.0
2014-11-30,1750.0
2014-10-31,1800.0
2014-09-30,1895.0
2014-08-31,1900.0
2014-07-31,1955.0
2014-06-30,1870.0
2014-05-31,1800.0
2014-04-30,1870.0
2014-03-31,1790.0
2014-02-28,1805.0
2014-01-31,1840.0
2013-12-31,1895.0
2013-11-30,1800.0
2013-10-31,1640.0
2013-09-30,1895.0
2013-08-31,1595.0
2013-07-31,1545.0
2013-06-30,1550.0
2013-05-31,1485.0
2013-04-30,1600.0
2013-03-31,1545.0
2013-02-28,1563.0
2013-01-31,1595.0
2012-12-31,1595.0
2012-11-30,1595.0
2012-10-31,1500.0
2012-09-30,1495.0
2012-08-31,1550.0
2012-07-31,1575.0
2012-06-30,1500.0
2012-05-31,1375.0
2012-04-30,1495.0
2012-03-31,1495.0
2012-02-29,1250.0
2012-01-31,1295.0
2011-12-31,1200.0
2011-11-30,1395.0
2011-10-31,1400.0
2011-09-30,1495.0
2011-08-31,1450.0
2011-07-31,1325.0
2011-06-30,1325.0
2011-05-31,1370.0
2011-04-30,1300.0
2011-03-31,1050.0
2011-02-28,1050.0
2011-01-31,1215.0
2010-12-31,1350.0
2010-11-30,1275.0
2010-10-31,1275.0
2010-09-30,1275.0
2010-08-31,1275.0
2010-07-31,1295.0
