Date,Value
2015-06-30,245000.0
2014-05-31,104707.0
2013-06-30,240000.0
2011-06-30,126000.0
2010-06-30,192941.1765
2010-05-31,240000.0
2009-09-30,165000.0
2007-05-31,129615.3846
2007-03-31,195915.3077
2007-01-31,346716.5
2006-12-31,333250.0
2006-11-30,313275.0
2006-10-31,269717.5
2006-08-31,298807.5
2006-07-31,285725.0
2006-06-30,275694.75
2006-05-31,291075.0
2006-04-30,285452.75
2006-03-31,284597.0588
2006-02-28,267000.0
2005-10-31,117830.0
2005-04-30,123600.0
2003-07-31,92500.0
