Date,Value
2015-02-28,269888.0
2015-01-31,259950.0
2014-12-31,260000.0
2014-11-30,259950.0
2014-10-31,269900.0
2014-09-30,269950.0
2014-08-31,269950.0
2014-07-31,269000.0
2014-06-30,269000.0
2014-05-31,260000.0
2014-04-30,259900.0
2014-03-31,255000.0
2014-02-28,249950.0
2014-01-31,249950.0
2013-12-31,255000.0
2013-11-30,255000.0
2013-10-31,255000.0
2013-09-30,255000.0
2013-08-31,243950.0
2013-07-31,239900.0
2013-06-30,238950.0
2013-05-31,225000.0
2013-04-30,219950.0
2013-03-31,212350.0
2013-02-28,204950.0
2013-01-31,199950.0
2012-12-31,199950.0
2012-11-30,209000.0
2012-10-31,199900.0
2012-09-30,199000.0
2012-08-31,199900.0
2012-07-31,195000.0
2012-06-30,190000.0
2012-05-31,185000.0
2012-04-30,185000.0
2012-03-31,180000.0
2012-02-29,180000.0
2012-01-31,184900.0
2011-12-31,190000.0
2011-11-30,199000.0
2011-10-31,194950.0
2011-09-30,195000.0
2011-08-31,199950.0
2011-07-31,193688.0
2011-06-30,194500.0
2011-05-31,199900.0
2011-04-30,199950.0
2011-03-31,199990.0
2011-02-28,204500.0
2011-01-31,209950.0
2010-12-31,219000.0
2010-11-30,224900.0
2010-10-31,225000.0
2010-09-30,227990.0
2010-08-31,230400.0
2010-07-31,234000.0
2010-06-30,234000.0
2010-05-31,229950.0
2010-04-30,234900.0
2010-03-31,239000.0
2010-02-28,247500.0
2010-01-31,247000.0
2009-12-31,249950.0
2009-11-30,254900.0
2009-10-31,255000.0
2009-09-30,259950.0
2009-08-31,259900.0
2009-07-31,260000.0
2009-06-30,260000.0
2009-05-31,269000.0
2009-04-30,269950.0
2009-03-31,275000.0
2009-02-28,279900.0
2009-01-31,282950.0
2008-12-31,289950.0
2008-11-30,294990.0
2008-10-31,299950.0
