Date,Value
2015-09-30,0.746
2015-08-31,0.748
2015-07-31,0.748
2015-06-30,0.746
2015-05-31,0.742
2015-04-30,0.736
2015-03-31,0.734
2015-02-28,0.73
2015-01-31,0.726
2014-12-31,0.724
2014-11-30,0.724
2014-10-31,0.726
2014-09-30,0.722
2014-08-31,0.718
2014-07-31,0.714
2014-06-30,0.708
2014-05-31,0.7
2014-04-30,0.692
2014-03-31,0.69
2014-02-28,0.69
2014-01-31,0.692
2013-12-31,0.692
2013-11-30,0.694
2013-10-31,0.698
2013-09-30,0.698
2013-08-31,0.696
2013-07-31,0.694
2013-06-30,0.694
2013-05-31,0.694
2013-04-30,0.69
2013-03-31,0.684
2013-02-28,0.674
2013-01-31,0.666
2012-12-31,0.662
2012-11-30,0.664
2012-10-31,0.668
2012-09-30,0.668
2012-08-31,0.666
2012-07-31,0.662
2012-06-30,0.658
2012-05-31,0.65
2012-04-30,0.646
2012-03-31,0.644
2012-02-29,0.644
2012-01-31,0.64
2011-12-31,0.634
2011-11-30,0.626
2011-10-31,0.618
2011-09-30,0.614
2011-08-31,0.616
2011-07-31,0.622
2011-06-30,0.63
2011-05-31,0.64
2011-04-30,0.648
2011-03-31,0.654
2011-02-28,0.664
2011-01-31,0.672
2010-12-31,0.68
2010-11-30,0.678
