Date,Value
2015-09-30,553100.0
2015-08-31,542800.0
2015-07-31,538500.0
2015-06-30,542400.0
2015-05-31,545000.0
2015-04-30,539800.0
2015-03-31,530600.0
2015-02-28,523000.0
2015-01-31,518700.0
2014-12-31,513800.0
2014-11-30,508900.0
2014-10-31,503300.0
2014-09-30,498700.0
2014-08-31,495000.0
2014-07-31,491300.0
2014-06-30,488400.0
2014-05-31,485600.0
2014-04-30,481600.0
2014-03-31,477200.0
2014-02-28,474300.0
2014-01-31,472200.0
2013-12-31,469700.0
2013-11-30,466400.0
2013-10-31,462800.0
2013-09-30,459100.0
2013-08-31,454400.0
2013-07-31,446600.0
2013-06-30,437300.0
2013-05-31,428900.0
2013-04-30,422200.0
2013-03-31,415900.0
2013-02-28,410600.0
2013-01-31,406000.0
2012-12-31,401700.0
2012-11-30,397000.0
2012-10-31,392800.0
2012-09-30,389100.0
2012-08-31,386000.0
2012-07-31,384000.0
2012-06-30,382300.0
2012-05-31,378500.0
2012-04-30,373700.0
2012-03-31,370200.0
2012-02-29,368800.0
2012-01-31,369200.0
2011-12-31,371000.0
2011-11-30,372900.0
2011-10-31,373900.0
2011-09-30,375000.0
2011-08-31,376500.0
2011-07-31,379000.0
2011-06-30,382300.0
2011-05-31,386200.0
2011-04-30,389800.0
2011-03-31,391800.0
2011-02-28,393100.0
2011-01-31,394400.0
2010-12-31,395300.0
2010-11-30,395300.0
2010-10-31,396500.0
2010-09-30,398500.0
2010-08-31,400500.0
2010-07-31,402700.0
2010-06-30,405300.0
2010-05-31,406800.0
2010-04-30,408500.0
2010-03-31,411500.0
2010-02-28,414000.0
2010-01-31,414500.0
2009-12-31,414700.0
2009-11-30,415300.0
2009-10-31,416100.0
2009-09-30,417800.0
2009-08-31,419700.0
2009-07-31,421300.0
2009-06-30,423300.0
2009-05-31,426300.0
2009-04-30,429900.0
2009-03-31,433300.0
2009-02-28,436100.0
2009-01-31,439200.0
2008-12-31,443200.0
2008-11-30,447500.0
2008-10-31,452200.0
2008-09-30,456400.0
2008-08-31,459600.0
2008-07-31,463300.0
2008-06-30,468200.0
2008-05-31,474400.0
2008-04-30,480400.0
2008-03-31,485800.0
2008-02-29,490000.0
2008-01-31,493500.0
2007-12-31,497000.0
2007-11-30,501900.0
2007-10-31,505200.0
2007-09-30,506600.0
2007-08-31,508600.0
2007-07-31,510400.0
2007-06-30,510200.0
2007-05-31,508400.0
2007-04-30,506400.0
2007-03-31,504100.0
2007-02-28,501700.0
2007-01-31,499700.0
2006-12-31,498500.0
2006-11-30,497100.0
2006-10-31,495000.0
2006-09-30,492000.0
2006-08-31,487800.0
2006-07-31,482900.0
2006-06-30,477000.0
2006-05-31,469200.0
2006-04-30,461500.0
2006-03-31,455400.0
2006-02-28,450200.0
2006-01-31,443400.0
2005-12-31,434900.0
2005-11-30,426700.0
2005-10-31,419700.0
2005-09-30,412300.0
2005-08-31,404000.0
2005-07-31,395400.0
2005-06-30,387700.0
2005-05-31,381100.0
2005-04-30,375900.0
2005-03-31,370900.0
2005-02-28,366500.0
2005-01-31,363300.0
2004-12-31,360500.0
2004-11-30,356600.0
2004-10-31,352700.0
2004-09-30,350000.0
2004-08-31,348100.0
2004-07-31,345600.0
2004-06-30,343000.0
2004-05-31,340200.0
2004-04-30,337600.0
2004-03-31,334600.0
2004-02-29,331200.0
2004-01-31,327700.0
2003-12-31,324600.0
2003-11-30,321600.0
2003-10-31,318800.0
2003-09-30,316300.0
2003-08-31,314100.0
2003-07-31,312100.0
2003-06-30,311400.0
2003-05-31,311500.0
2003-04-30,310700.0
2003-03-31,310100.0
2003-02-28,310100.0
2003-01-31,309100.0
2002-12-31,307200.0
2002-11-30,306000.0
2002-10-31,305300.0
2002-09-30,304600.0
2002-08-31,304500.0
2002-07-31,305000.0
2002-06-30,305000.0
2002-05-31,303700.0
2002-04-30,302200.0
2002-03-31,300900.0
2002-02-28,299600.0
2002-01-31,298900.0
2001-12-31,298900.0
2001-11-30,298500.0
2001-10-31,297200.0
2001-09-30,296200.0
2001-08-31,295300.0
2001-07-31,294300.0
2001-06-30,293200.0
2001-05-31,292700.0
2001-04-30,291800.0
2001-03-31,290100.0
2001-02-28,288400.0
2001-01-31,287200.0
2000-12-31,286600.0
2000-11-30,286600.0
2000-10-31,286100.0
2000-09-30,285600.0
2000-08-31,285400.0
2000-07-31,285000.0
2000-06-30,284200.0
2000-05-31,283300.0
2000-04-30,282300.0
2000-03-31,281400.0
2000-02-29,280500.0
2000-01-31,279300.0
1999-12-31,277300.0
1999-11-30,274900.0
1999-10-31,272700.0
1999-09-30,271100.0
1999-08-31,269700.0
1999-07-31,268500.0
1999-06-30,267200.0
1999-05-31,265700.0
1999-04-30,264600.0
1999-03-31,263500.0
1999-02-28,261700.0
1999-01-31,259700.0
1998-12-31,258400.0
1998-11-30,257500.0
1998-10-31,256500.0
1998-09-30,254800.0
1998-08-31,252500.0
1998-07-31,250600.0
1998-06-30,249100.0
1998-05-31,247600.0
1998-04-30,245800.0
1998-03-31,243800.0
1998-02-28,241900.0
1998-01-31,240300.0
1997-12-31,238100.0
1997-11-30,235300.0
1997-10-31,232900.0
1997-09-30,231000.0
1997-08-31,228600.0
1997-07-31,226200.0
1997-06-30,224200.0
1997-05-31,222300.0
1997-04-30,220800.0
1997-03-31,219100.0
1997-02-28,217500.0
1997-01-31,215800.0
1996-12-31,214200.0
1996-11-30,212800.0
1996-10-31,212200.0
1996-09-30,211300.0
1996-08-31,210500.0
1996-07-31,209100.0
1996-06-30,207400.0
1996-05-31,205800.0
1996-04-30,205500.0
