Date,Value
2015-09-30,159600.0
2015-08-31,157400.0
2015-07-31,155300.0
2015-06-30,154700.0
2015-05-31,153900.0
2015-04-30,152500.0
2015-03-31,152100.0
2015-02-28,151200.0
2015-01-31,150100.0
2014-12-31,149500.0
2014-11-30,149200.0
2014-10-31,148600.0
2014-09-30,148000.0
2014-08-31,147400.0
2014-07-31,146800.0
2014-06-30,146500.0
2014-05-31,146300.0
2014-04-30,145300.0
2014-03-31,143900.0
2014-02-28,143100.0
2014-01-31,142000.0
2013-12-31,140300.0
2013-11-30,139200.0
2013-10-31,138300.0
2013-09-30,137000.0
2013-08-31,135800.0
2013-07-31,133900.0
2013-06-30,131400.0
2013-05-31,129700.0
2013-04-30,128100.0
2013-03-31,125300.0
2013-02-28,122800.0
2013-01-31,121600.0
2012-12-31,121300.0
2012-11-30,121100.0
2012-10-31,121600.0
2012-09-30,122400.0
2012-08-31,123000.0
2012-07-31,122900.0
2012-06-30,121900.0
2012-05-31,120700.0
2012-04-30,120200.0
2012-03-31,121000.0
2012-02-29,121900.0
2012-01-31,122400.0
2011-12-31,123000.0
2011-11-30,123600.0
2011-10-31,123800.0
2011-09-30,123800.0
2011-08-31,124200.0
2011-07-31,125400.0
2011-06-30,127500.0
2011-05-31,130300.0
2011-04-30,133500.0
2011-03-31,136100.0
2011-02-28,138100.0
2011-01-31,139700.0
2010-12-31,140800.0
2010-11-30,141800.0
2010-10-31,143000.0
2010-09-30,144400.0
2010-08-31,146300.0
2010-07-31,149200.0
2010-06-30,152000.0
2010-05-31,153800.0
2010-04-30,154900.0
2010-03-31,156100.0
2010-02-28,157500.0
2010-01-31,158200.0
2009-12-31,158400.0
2009-11-30,158800.0
2009-10-31,159500.0
2009-09-30,160500.0
2009-08-31,161900.0
2009-07-31,163300.0
2009-06-30,164200.0
2009-05-31,165200.0
2009-04-30,166600.0
2009-03-31,168700.0
2009-02-28,170400.0
2009-01-31,172100.0
2008-12-31,174300.0
2008-11-30,176900.0
2008-10-31,178600.0
2008-09-30,180200.0
2008-08-31,181600.0
2008-07-31,183200.0
2008-06-30,185000.0
2008-05-31,186500.0
2008-04-30,187200.0
2008-03-31,188100.0
2008-02-29,189300.0
2008-01-31,191200.0
2007-12-31,193300.0
2007-11-30,194900.0
2007-10-31,196300.0
2007-09-30,197800.0
2007-08-31,198700.0
2007-07-31,199200.0
2007-06-30,200000.0
2007-05-31,200700.0
2007-04-30,201000.0
2007-03-31,201000.0
2007-02-28,200800.0
2007-01-31,200400.0
2006-12-31,200200.0
2006-11-30,199900.0
2006-10-31,199400.0
2006-09-30,198200.0
2006-08-31,196400.0
2006-07-31,194300.0
2006-06-30,192100.0
2006-05-31,190000.0
2006-04-30,188400.0
2006-03-31,186000.0
2006-02-28,183100.0
2006-01-31,181000.0
2005-12-31,179300.0
2005-11-30,177100.0
2005-10-31,174900.0
2005-09-30,172900.0
2005-08-31,171100.0
2005-07-31,168900.0
2005-06-30,166100.0
2005-05-31,163000.0
2005-04-30,159900.0
2005-03-31,157100.0
2005-02-28,155200.0
2005-01-31,153400.0
2004-12-31,151200.0
2004-11-30,148700.0
2004-10-31,146300.0
2004-09-30,144200.0
2004-08-31,142000.0
2004-07-31,139900.0
2004-06-30,138100.0
2004-05-31,136600.0
2004-04-30,135200.0
2004-03-31,134200.0
2004-02-29,133700.0
2004-01-31,133200.0
2003-12-31,132600.0
2003-11-30,132000.0
2003-10-31,131500.0
2003-09-30,131200.0
2003-08-31,130900.0
2003-07-31,130200.0
2003-06-30,129400.0
2003-05-31,128300.0
2003-04-30,126600.0
2003-03-31,125000.0
2003-02-28,124100.0
2003-01-31,123300.0
2002-12-31,122400.0
2002-11-30,121800.0
2002-10-31,121500.0
2002-09-30,120800.0
2002-08-31,120100.0
2002-07-31,120200.0
2002-06-30,120700.0
2002-05-31,121400.0
2002-04-30,122600.0
2002-03-31,124000.0
2002-02-28,124600.0
2002-01-31,124100.0
2001-12-31,123000.0
2001-11-30,122000.0
2001-10-31,121400.0
2001-09-30,121200.0
2001-08-31,120900.0
2001-07-31,120000.0
2001-06-30,119000.0
2001-05-31,118300.0
2001-04-30,117900.0
2001-03-31,117100.0
2001-02-28,116300.0
2001-01-31,115400.0
2000-12-31,114400.0
2000-11-30,113600.0
2000-10-31,113300.0
2000-09-30,113200.0
2000-08-31,112900.0
2000-07-31,112000.0
2000-06-30,110900.0
2000-05-31,110200.0
2000-04-30,109500.0
2000-03-31,108400.0
2000-02-29,107000.0
2000-01-31,105900.0
1999-12-31,105300.0
1999-11-30,104800.0
1999-10-31,103900.0
1999-09-30,102600.0
1999-08-31,101200.0
1999-07-31,100300.0
1999-06-30,99900.0
1999-05-31,99800.0
1999-04-30,99600.0
1999-03-31,99100.0
1999-02-28,98400.0
1999-01-31,97800.0
1998-12-31,97700.0
1998-11-30,97600.0
1998-10-31,96900.0
1998-09-30,96100.0
1998-08-31,95300.0
1998-07-31,94700.0
1998-06-30,94200.0
1998-05-31,93500.0
1998-04-30,92500.0
1998-03-31,91600.0
1998-02-28,90900.0
1998-01-31,90100.0
1997-12-31,89200.0
1997-11-30,87800.0
1997-10-31,86500.0
1997-09-30,85800.0
1997-08-31,85800.0
1997-07-31,85400.0
1997-06-30,84600.0
1997-05-31,83700.0
1997-04-30,82700.0
1997-03-31,81800.0
1997-02-28,81000.0
1997-01-31,80100.0
1996-12-31,79400.0
1996-11-30,78700.0
1996-10-31,77900.0
1996-09-30,77000.0
1996-08-31,76100.0
1996-07-31,75900.0
1996-06-30,75800.0
1996-05-31,75500.0
1996-04-30,75400.0
