Date,Value
2015-02-28,159900.0
2015-01-31,159000.0
2014-12-31,159900.0
2014-11-30,165000.0
2014-10-31,169900.0
2014-09-30,168500.0
2014-08-31,167990.0
2014-07-31,159990.0
2014-06-30,163500.0
2014-05-31,152950.0
2014-04-30,149500.0
2014-03-31,145000.0
2014-02-28,146000.0
2014-01-31,142900.0
2013-12-31,141900.0
2013-11-30,149900.0
2013-10-31,154900.0
2013-09-30,159900.0
2013-08-31,157999.0
2013-07-31,159900.0
2013-06-30,149900.0
2013-05-31,152950.0
2013-04-30,154900.0
2013-03-31,153000.0
2013-02-28,140000.0
2013-01-31,140000.0
2012-12-31,133000.0
2012-11-30,130000.0
2012-10-31,139900.0
2012-09-30,144900.0
2012-08-31,149900.0
2012-07-31,145000.0
2012-06-30,140000.0
2012-05-31,139900.0
2012-04-30,134900.0
2012-03-31,134900.0
2012-02-29,129000.0
2012-01-31,129900.0
2011-12-31,134900.0
2011-11-30,139900.0
2011-10-31,149900.0
2011-09-30,150000.0
2011-08-31,152000.0
2011-07-31,159900.0
2011-06-30,159000.0
2011-05-31,159900.0
2011-04-30,159000.0
2011-03-31,164700.0
2011-02-28,164900.0
2011-01-31,165000.0
2010-12-31,164700.0
2010-11-30,165000.0
2010-10-31,165000.0
2010-09-30,165000.0
2010-08-31,169900.0
2010-07-31,169000.0
2010-06-30,169000.0
2010-05-31,169900.0
2010-04-30,159900.0
2010-03-31,165000.0
2010-02-28,167900.0
2010-01-31,164900.0
2009-12-31,164900.0
2009-11-30,165000.0
2009-10-31,165000.0
2009-09-30,169900.0
2009-08-31,169900.0
2009-07-31,165000.0
2009-06-30,165000.0
2009-05-31,159900.0
2009-04-30,159900.0
2009-03-31,169500.0
2009-02-28,169900.0
2009-01-31,175000.0
2008-12-31,184900.0
2008-11-30,180000.0
2008-10-31,189000.0
