Date,Value
2015-02-28,209900.0
2015-01-31,199000.0
2014-12-31,174900.0
2014-11-30,199000.0
2014-10-31,215000.0
2014-09-30,219500.0
2014-08-31,220000.0
2014-07-31,224000.0
2014-06-30,229000.0
2014-05-31,224900.0
2014-04-30,224000.0
2014-03-31,200000.0
2014-02-28,194900.0
2014-01-31,169000.0
2013-12-31,185000.0
2013-11-30,214900.0
2013-10-31,189900.0
2013-09-30,222500.0
2013-08-31,221500.0
2013-07-31,222500.0
2013-06-30,239000.0
2013-05-31,235000.0
2013-04-30,225000.0
2013-03-31,199950.0
2013-02-28,185000.0
2013-01-31,168000.0
2012-12-31,168000.0
2012-11-30,229000.0
2012-10-31,199900.0
2012-09-30,274900.0
2012-08-31,289900.0
2012-07-31,249950.0
2012-06-30,239900.0
2012-05-31,229900.0
2012-04-30,235000.0
2012-03-31,235000.0
2012-02-29,229900.0
2012-01-31,239900.0
2011-12-31,257500.0
2011-11-30,250000.0
2011-10-31,275000.0
2011-09-30,255000.0
2011-08-31,275000.0
2011-07-31,284900.0
2011-06-30,315000.0
2011-05-31,340000.0
2011-04-30,314950.0
2011-03-31,266900.0
2011-02-28,259900.0
2011-01-31,266900.0
2010-12-31,259900.0
2010-11-30,259900.0
2010-10-31,265000.0
2010-09-30,275000.0
2010-08-31,295000.0
2010-07-31,295000.0
2010-06-30,277000.0
2010-05-31,275000.0
2010-04-30,265500.0
2010-03-31,249900.0
2010-02-28,225000.0
2010-01-31,200000.0
2009-12-31,220500.0
2009-11-30,270500.0
2009-10-31,286900.0
2009-09-30,298000.0
2009-08-31,299000.0
2009-07-31,288000.0
2009-06-30,295900.0
2009-05-31,295900.0
2009-04-30,299000.0
2009-03-31,289500.0
2009-02-28,289500.0
2009-01-31,299500.0
2008-12-31,309000.0
2008-11-30,299900.0
2008-10-31,280000.0
