Date,Value
2015-02-28,374000.0
2015-01-31,369000.0
2014-12-31,349500.0
2014-11-30,374000.0
2014-10-31,378000.0
2014-09-30,379000.0
2014-08-31,399000.0
2014-07-31,399000.0
2014-06-30,374000.0
2014-05-31,375000.0
2014-04-30,374000.0
2014-03-31,374000.0
2014-02-28,348000.0
2014-01-31,364500.0
2013-12-31,365000.0
2013-11-30,375000.0
2013-10-31,379900.0
2013-09-30,389000.0
2013-08-31,420000.0
2013-07-31,419000.0
2013-06-30,389000.0
2013-05-31,385000.0
2013-04-30,389000.0
2013-03-31,349950.0
2013-02-28,349000.0
2013-01-31,329500.0
2012-12-31,349000.0
2012-11-30,324000.0
2012-10-31,299000.0
2012-09-30,369000.0
2012-08-31,369900.0
2012-07-31,379900.0
2012-06-30,397000.0
2012-05-31,397000.0
2012-04-30,365000.0
2012-03-31,359950.0
2012-02-29,334900.0
2012-01-31,339000.0
2011-12-31,339000.0
2011-11-30,349900.0
2011-10-31,399900.0
2011-09-30,409000.0
2011-08-31,409000.0
2011-07-31,389000.0
2011-06-30,389000.0
2011-05-31,399900.0
2011-04-30,405000.0
2011-03-31,439000.0
2011-02-28,425000.0
2011-01-31,425000.0
2010-12-31,439000.0
2010-11-30,439000.0
2010-10-31,425000.0
2010-09-30,425000.0
2010-08-31,439000.0
2010-07-31,439500.0
2010-06-30,439500.0
2010-05-31,449000.0
2010-04-30,450000.0
2010-03-31,449900.0
2010-02-28,459000.0
2010-01-31,415000.0
2009-12-31,449950.0
2009-11-30,469000.0
2009-10-31,450000.0
2009-09-30,499000.0
2009-08-31,474500.0
2009-07-31,450000.0
2009-06-30,479000.0
2009-05-31,479000.0
2009-04-30,479500.0
2009-03-31,479500.0
2009-02-28,479500.0
2009-01-31,479000.0
2008-12-31,479500.0
2008-11-30,480000.0
2008-10-31,489000.0
