Date,Value
2015-02-28,795000.0
2015-01-31,765000.0
2014-12-31,795000.0
2014-11-30,795000.0
2014-10-31,700000.0
2014-09-30,667000.0
2014-08-31,595000.0
2014-07-31,550000.0
2014-06-30,549000.0
2014-05-31,579000.0
2014-04-30,570000.0
2014-03-31,549000.0
2014-02-28,549000.0
2014-01-31,599000.0
2013-12-31,570000.0
2013-11-30,570000.0
2013-10-31,550000.0
2013-09-30,570000.0
2013-08-31,595000.0
2013-07-31,580000.0
2013-06-30,650000.0
2013-05-31,695000.0
2013-04-30,720000.0
2013-03-31,729900.0
2013-02-28,699000.0
2013-01-31,649500.0
2012-12-31,599000.0
2012-11-30,599000.0
2012-10-31,395000.0
2012-09-30,599000.0
2012-08-31,599000.0
2012-07-31,650000.0
2012-06-30,649500.0
2012-05-31,649500.0
2012-04-30,599000.0
2012-03-31,694900.0
2012-02-29,629000.0
2012-01-31,625000.0
2011-12-31,625000.0
2011-11-30,583000.0
2011-10-31,595600.0
2011-09-30,585000.0
2011-08-31,615000.0
2011-07-31,595000.0
2011-06-30,625000.0
2011-05-31,579000.0
2011-04-30,575870.0
2011-03-31,575000.0
2011-02-28,575000.0
2011-01-31,579000.0
2010-12-31,579000.0
2010-11-30,599995.0
2010-10-31,625500.0
2010-09-30,585000.0
2010-08-31,585000.0
2010-07-31,475000.0
2010-06-30,545000.0
2010-05-31,550000.0
2010-04-30,525000.0
2010-03-31,494900.0
2010-02-28,494900.0
2010-01-31,495000.0
2009-12-31,579900.0
2009-11-30,525000.0
2009-10-31,579900.0
2009-09-30,579900.0
2009-08-31,585000.0
2009-07-31,585000.0
2009-06-30,650000.0
2009-05-31,450000.0
2009-04-30,1100000.0
2009-03-31,475000.0
2009-02-28,569000.0
2009-01-31,499400.0
2008-12-31,479000.0
2008-11-30,570000.0
2008-10-31,595000.0
