Date,Value
2015-09-30,238200.0
2015-08-31,236350.0
2015-07-31,230850.0
2015-06-30,237950.0
2015-05-31,239550.0
2015-04-30,222000.0
2015-03-31,204250.0
2015-02-28,190800.0
2015-01-31,199450.0
2014-12-31,213250.0
2014-11-30,215350.0
2014-10-31,206150.0
2014-09-30,214542.5
2014-08-31,211074.5
2014-07-31,202265.0
2014-06-30,214772.5
2014-05-31,219512.5
2014-04-30,214605.0
2014-03-31,206730.0
2014-02-28,197480.0
2014-01-31,199565.0
2013-12-31,198528.0
2013-11-30,216607.0
2013-10-31,228520.5
2013-09-30,228734.5
2013-08-31,217165.0
2013-07-31,200565.0
2013-06-30,203645.0
2013-05-31,198574.1176
2013-04-30,195984.6154
2013-02-28,188938.8235
2013-01-31,181369.2308
2012-11-30,184090.0
2012-10-31,184288.0
2012-09-30,190057.0
2012-08-31,199265.0
2012-07-31,194030.0
2012-06-30,180780.0
2012-05-31,199103.5294
2012-04-30,240280.0
2011-12-31,189080.0
2011-11-30,190854.5
2011-10-31,196520.5
2011-09-30,188365.0
2011-08-31,196903.0
2011-07-31,205847.0
2011-06-30,201702.4
2011-05-31,205673.6
2011-04-30,211100.0
2011-03-31,207440.0
2011-02-28,213780.0
2011-01-31,201015.0
2010-12-31,200295.0
2010-11-30,209888.0
2010-10-31,219787.0
2010-09-30,219135.0
2010-08-31,216330.0
2010-07-31,223665.0
2010-06-30,218672.0
2010-05-31,220736.0
2010-04-30,226111.7647
2010-03-31,217218.4615
2010-01-31,213555.0
2009-12-31,217930.5
2009-11-30,217014.5
2009-10-31,225215.0
2009-09-30,233488.0
2009-08-31,239286.95
2009-07-31,228243.5
2009-06-30,230772.5
2009-05-31,228662.5
2009-04-30,237721.1765
2009-03-31,241280.0
2008-11-30,236700.0
2008-10-31,235510.0
2008-09-30,231820.0
2008-08-31,235940.0
2008-07-31,245330.0
2008-06-30,244130.0
2008-05-31,235815.0
2008-04-30,240195.0
2008-03-31,237480.25
2008-02-29,228847.25
2008-01-31,229697.5
2007-12-31,234205.0
2007-11-30,239013.0
2007-10-31,241732.0
2007-09-30,241375.0
2007-08-31,248270.0
2007-07-31,257572.5
2007-06-30,258100.0
2007-05-31,251967.5
2007-04-30,248105.0
2007-03-31,253430.0
2007-02-28,263555.0
2007-01-31,234480.0
2006-12-31,240905.0
2006-11-30,238480.0
2006-10-31,240760.0
2006-09-30,247400.0
2006-08-31,247930.0
2006-07-31,252522.5
2006-06-30,245812.5
2006-05-31,242555.0
2006-04-30,233280.0
2006-03-31,229880.0
2006-02-28,230830.0
2006-01-31,232946.55
2005-12-31,232694.45
2005-11-30,234193.5
2005-10-31,232562.5
2005-09-30,234915.0
2005-08-31,231953.0
2005-07-31,223440.0
2005-06-30,224125.0
2005-05-31,215725.0
2005-04-30,210125.0
2005-03-31,201917.5
2005-02-28,195332.5
2005-01-31,182500.0
2004-12-31,176125.0
2004-11-30,178750.0
2004-10-31,179250.0
2004-09-30,176585.0
2004-08-31,174365.0
2004-07-31,177550.0
2004-06-30,186175.0
2004-05-31,185725.0
2004-04-30,182500.0
2004-03-31,179972.5
2004-02-29,175352.5
2004-01-31,165425.0
2003-12-31,165100.0
2003-11-30,171225.0
2003-10-31,173810.0
2003-09-30,173170.0
2003-08-31,169398.6
2003-07-31,162458.4
2003-06-30,160362.0
2003-05-31,158550.0
2003-04-30,156692.5
2003-03-31,148157.5
2003-02-28,147000.0
2003-01-31,151635.0
2002-12-31,148884.15
2002-11-30,144411.35
2002-10-31,147980.5
2002-09-30,142500.0
2002-08-31,153125.0
2002-07-31,147325.0
2002-06-30,138516.8
2002-05-31,135734.2
2002-04-30,139111.0
2002-03-31,139450.0
2002-02-28,137193.6
2002-01-31,130468.4
2001-12-31,129712.0
2001-11-30,136000.0
2001-10-31,146900.0
2001-09-30,140591.35
2001-08-31,131188.15
2001-07-31,127279.5
2001-06-30,127692.5
2001-05-31,126207.5
2001-04-30,128635.0
2001-03-31,127215.15
2001-02-28,118585.35
2001-01-31,121415.5
2000-12-31,125642.5
2000-11-30,124907.5
2000-10-31,129400.0
2000-09-30,128200.0
2000-08-31,127275.0
2000-07-31,124117.5
2000-06-30,130582.5
2000-05-31,125575.0
2000-04-30,121650.0
2000-03-31,118065.0
2000-02-29,119677.5
2000-01-31,127782.5
1999-12-31,125875.0
1999-11-30,123282.5
1999-10-31,122692.5
1999-09-30,122900.0
1999-08-31,118400.0
1999-07-31,119807.5
1999-06-30,121242.5
1999-05-31,114950.0
1999-04-30,113067.5
1999-03-31,116902.5
1999-02-28,118492.5
1999-01-31,118437.5
1998-12-31,120725.0
1998-11-30,123785.0
1998-10-31,119615.0
1998-09-30,118550.0
1998-08-31,122150.0
1998-07-31,118704.25
1998-06-30,117768.25
1998-05-31,116247.5
1998-04-30,115817.5
1998-03-31,110625.0
1998-02-28,105332.5
1998-01-31,109342.5
1997-12-31,115932.5
1997-11-30,108975.0
1997-10-31,109050.0
1997-09-30,109400.0
1997-08-31,109485.0
1997-07-31,107165.0
1997-06-30,113292.5
1997-05-31,117675.0
1997-04-30,118807.5
1997-03-31,123975.0
1997-02-28,110750.0
1997-01-31,107875.0
1996-12-31,110575.0
1996-11-30,110542.5
1996-10-31,109432.5
1996-09-30,112000.0
1996-08-31,115425.0
1996-07-31,117400.0
1996-06-30,116590.0
1996-05-31,111910.0
1996-04-30,111150.0
