Date,Value
2015-02-28,289500.0
2015-01-31,279900.0
2014-12-31,285000.0
2014-11-30,289000.0
2014-10-31,289500.0
2014-09-30,289500.0
2014-08-31,299500.0
2014-07-31,289500.0
2014-06-30,299900.0
2014-05-31,299900.0
2014-04-30,309000.0
2014-03-31,307500.0
2014-02-28,284900.0
2014-01-31,275000.0
2013-12-31,280000.0
2013-11-30,278000.0
2013-10-31,269900.0
2013-09-30,269000.0
2013-08-31,269900.0
2013-07-31,264900.0
2013-06-30,259900.0
2013-05-31,265000.0
2013-04-30,255000.0
2013-03-31,254900.0
2013-02-28,246900.0
2013-01-31,256500.0
2012-12-31,249900.0
2012-11-30,254900.0
2012-10-31,242000.0
2012-09-30,250000.0
2012-08-31,259900.0
2012-07-31,260000.0
2012-06-30,260000.0
2012-05-31,269000.0
2012-04-30,275000.0
2012-03-31,278500.0
2012-02-29,275000.0
2012-01-31,274899.0
2011-12-31,269900.0
2011-11-30,269800.0
2011-10-31,269900.0
2011-09-30,259900.0
2011-08-31,244900.0
2011-07-31,240000.0
2011-06-30,240000.0
2011-05-31,249900.0
2011-04-30,234000.0
2011-03-31,224950.0
2011-02-28,224900.0
2011-01-31,244000.0
2010-12-31,250000.0
2010-11-30,259900.0
2010-10-31,259900.0
2010-09-30,250000.0
2010-08-31,264900.0
2010-07-31,259950.0
2010-06-30,269900.0
2010-05-31,259957.0
2010-04-30,259900.0
2010-03-31,269900.0
2010-02-28,289900.0
2010-01-31,289000.0
2009-12-31,311900.0
2009-11-30,299900.0
2009-10-31,299900.0
2009-09-30,305000.0
2009-08-31,299500.0
2009-07-31,299900.0
2009-06-30,299900.0
2009-05-31,305000.0
2009-04-30,305000.0
2009-03-31,309956.0
2009-02-28,305000.0
2009-01-31,299955.0
2008-12-31,299900.0
2008-11-30,299900.0
2008-10-31,300000.0
