Date,Value
2015-09-30,335475.0
2015-08-31,324055.0
2015-07-31,319445.0
2015-06-30,345942.5
2015-05-31,365882.5
2015-04-30,316725.0
2015-03-31,257830.0
2015-02-28,263770.0
2014-12-31,317150.0
2014-11-30,314800.0
2014-10-31,300800.0
2014-09-30,318875.0
2014-08-31,295375.0
2014-07-31,270050.0
2014-06-30,278450.0
2014-05-31,284100.0
2014-04-30,302823.5294
2014-03-31,330769.2308
2014-01-31,238941.1765
2013-12-31,274307.6923
2013-10-31,301775.0
2013-09-30,293558.8235
2013-08-31,246065.3846
2013-06-30,251152.25
2013-05-31,275905.25
2013-04-30,278538.2353
2013-03-31,263538.4615
2013-01-31,237982.5
2012-12-31,267475.0
2012-11-30,220588.2353
2012-10-31,251200.0
2012-08-31,235250.0
2012-07-31,218425.0
2012-06-30,229588.2353
2012-05-31,249000.0
2012-02-29,265000.0
2011-11-30,280432.5
2011-10-31,287967.5
2011-09-30,262557.5
2011-08-31,238100.0
2011-07-31,276500.0
2011-06-30,281500.0
2011-05-31,277000.0
2011-04-30,248425.0
2011-03-31,235676.4706
2011-02-28,238846.1538
2010-12-31,268846.1538
2010-10-31,261532.6923
2010-08-31,263815.3846
2010-06-30,294975.0
2010-05-31,271750.0
2010-04-30,257352.9412
2010-03-31,222692.3077
2010-01-31,273850.0
2009-12-31,321000.0
2009-11-30,295650.0
2009-10-31,265000.0
2009-09-30,292525.0
2009-08-31,322350.0
2009-07-31,311075.0
2009-06-30,305352.9412
2009-05-31,288000.0
2008-12-31,309615.3846
2008-10-31,328750.0
2008-09-30,287500.0
2008-08-31,300300.0
2008-07-31,298450.0
2008-06-30,303724.75
2008-05-31,311857.75
2008-04-30,347832.5
2008-03-31,347625.0
2008-02-29,368625.0
2008-01-31,318550.0
2007-12-31,341492.5
2007-11-30,344732.5
2007-10-31,323267.5
2007-09-30,313882.5
2007-08-31,318275.0
2007-07-31,332700.0
2007-06-30,342850.0
2007-05-31,324650.0
2007-04-30,316000.0
2007-03-31,321200.0
2007-02-28,325550.0
2007-01-31,321500.0
2006-12-31,314650.0
2006-11-30,316650.0
2006-10-31,314950.0
2006-09-30,289750.0
2006-08-31,299242.5
2006-07-31,304132.5
2006-06-30,324587.5
2006-05-31,315704.95
2006-04-30,291924.05
2006-03-31,289866.5
2006-02-28,290275.0
2006-01-31,298242.5
2005-12-31,281467.5
2005-11-30,284190.0
2005-10-31,283700.0
2005-09-30,276250.0
2005-08-31,270550.0
2005-07-31,274450.0
2005-06-30,259242.5
2005-05-31,248007.5
2005-04-30,251200.0
2005-03-31,251000.0
2005-02-28,249900.0
2005-01-31,249587.5
2004-12-31,249812.5
2004-11-30,242325.0
2004-10-31,249650.0
2004-09-30,257089.5
2004-08-31,248960.5
2004-07-31,243930.0
2004-06-30,240575.0
2004-05-31,241625.0
2004-04-30,228975.0
2004-03-31,217578.55
2004-02-29,203674.95
2004-01-31,216203.5
2003-12-31,211100.0
2003-11-30,204450.0
2003-10-31,210375.0
2003-09-30,220125.0
2003-08-31,225400.0
2003-07-31,220400.0
2003-06-30,214900.0
2003-05-31,201800.0
2003-04-30,210500.0
2003-03-31,211742.5
2003-02-28,202732.5
2003-01-31,189717.5
2002-12-31,215782.5
2002-11-30,223550.0
2002-10-31,219050.0
2002-09-30,197375.0
2002-08-31,203300.0
2002-07-31,201150.0
2002-06-30,203175.0
2002-05-31,194092.5
2002-04-30,197707.5
2002-03-31,188125.0
2002-02-28,198319.75
2002-01-31,215862.75
2001-12-31,219732.5
2001-11-30,198892.5
2001-10-31,201607.5
2001-09-30,184085.0
2001-08-31,186565.0
2001-07-31,190250.0
2001-06-30,189805.0
2001-05-31,176295.0
2001-04-30,179200.0
2001-03-31,186100.0
2001-02-28,188392.5
2001-01-31,184982.5
2000-12-31,178475.0
2000-11-30,184400.0
2000-10-31,180775.0
2000-09-30,182175.0
2000-08-31,185600.0
2000-07-31,178792.5
2000-06-30,181582.5
2000-05-31,176075.0
2000-04-30,165145.0
2000-03-31,159797.5
2000-02-29,156275.0
2000-01-31,160857.5
1999-12-31,166925.0
1999-11-30,171192.5
1999-10-31,153232.5
1999-09-30,160775.0
1999-08-31,159412.5
1999-07-31,162462.5
1999-06-30,164875.0
1999-05-31,166155.0
1999-04-30,161195.0
1999-03-31,158850.0
1999-02-28,149362.5
1999-01-31,146645.15
1998-12-31,142917.85
1998-11-30,141288.0
1998-10-31,146212.5
1998-09-30,145777.5
1998-08-31,143272.5
1998-07-31,131175.0
1998-06-30,128650.0
1998-05-31,133350.0
1998-04-30,135950.0
1998-03-31,144934.6
1998-02-28,141347.4
1998-01-31,133082.0
1997-12-31,130783.2
1997-11-30,133403.3
1997-10-31,135669.0
1997-09-30,130807.5
1997-08-31,136192.5
1997-07-31,132850.0
1997-06-30,137807.5
1997-05-31,138550.0
1997-04-30,146867.5
1997-03-31,135232.5
1997-02-28,124317.5
1997-01-31,113882.5
1996-12-31,125910.0
1996-11-30,121390.0
1996-10-31,120100.0
1996-09-30,125725.0
1996-08-31,131025.0
1996-07-31,127475.0
1996-06-30,125592.5
1996-05-31,136632.5
1996-04-30,133200.0
