Date,Value
2015-09-30,0.89
2015-08-31,0.888
2015-07-31,0.882
2015-06-30,0.874
2015-05-31,0.872
2015-04-30,0.87
2015-03-31,0.87
2015-02-28,0.87
2015-01-31,0.872
2014-12-31,0.876
2014-11-30,0.886
2014-10-31,0.894
2014-09-30,0.892
2014-08-31,0.884
2014-07-31,0.872
2014-06-30,0.87
2014-05-31,0.868
2014-04-30,0.87
2014-03-31,0.87
2014-02-28,0.87
2014-01-31,0.868
2013-12-31,0.868
2013-11-30,0.864
2013-10-31,0.856
2013-09-30,0.848
2013-08-31,0.842
2013-07-31,0.842
2013-06-30,0.842
2013-05-31,0.842
2013-04-30,0.84
2013-03-31,0.836
2013-02-28,0.834
2013-01-31,0.832
2012-12-31,0.828
2012-11-30,0.824
2012-10-31,0.816
2012-09-30,0.816
2012-08-31,0.816
2012-07-31,0.816
2012-06-30,0.816
2012-05-31,0.81
2012-04-30,0.806
2012-03-31,0.8
2012-02-29,0.796
2012-01-31,0.788
2011-12-31,0.78
2011-11-30,0.77
2011-10-31,0.774
2011-09-30,0.772
2011-08-31,0.778
2011-07-31,0.778
