Date,Value
2015-09-30,189900.0
2015-08-31,188200.0
2015-07-31,185300.0
2015-06-30,184800.0
2015-05-31,183200.0
2015-04-30,181700.0
2015-03-31,181100.0
2015-02-28,180100.0
2015-01-31,178700.0
2014-12-31,177000.0
2014-11-30,175600.0
2014-10-31,174500.0
2014-09-30,173600.0
2014-08-31,172300.0
2014-07-31,171300.0
2014-06-30,170600.0
2014-05-31,170100.0
2014-04-30,168800.0
2014-03-31,167200.0
2014-02-28,166300.0
2014-01-31,165400.0
2013-12-31,164200.0
2013-11-30,164200.0
2013-10-31,164900.0
2013-09-30,164600.0
2013-08-31,163700.0
2013-07-31,162800.0
2013-06-30,161100.0
2013-05-31,158700.0
2013-04-30,156500.0
2013-03-31,154900.0
2013-02-28,153200.0
2013-01-31,151700.0
2012-12-31,150300.0
2012-11-30,148500.0
2012-10-31,146700.0
2012-09-30,145700.0
2012-08-31,145300.0
2012-07-31,145100.0
2012-06-30,144700.0
2012-05-31,143000.0
2012-04-30,141500.0
2012-03-31,141300.0
2012-02-29,141900.0
2012-01-31,142600.0
2011-12-31,143200.0
2011-11-30,143500.0
2011-10-31,144600.0
2011-09-30,145900.0
2011-08-31,146500.0
2011-07-31,147400.0
2011-06-30,148600.0
2011-05-31,149100.0
2011-04-30,149700.0
2011-03-31,151100.0
2011-02-28,152900.0
2011-01-31,154700.0
2010-12-31,156700.0
2010-11-30,157600.0
2010-10-31,156900.0
2010-09-30,156900.0
2010-08-31,158500.0
2010-07-31,160100.0
2010-06-30,161100.0
2010-05-31,162500.0
2010-04-30,164000.0
2010-03-31,165300.0
2010-02-28,166000.0
2010-01-31,165800.0
2009-12-31,165900.0
2009-11-30,167100.0
2009-10-31,168700.0
2009-09-30,170800.0
2009-08-31,172600.0
2009-07-31,172500.0
2009-06-30,172800.0
2009-05-31,175400.0
2009-04-30,179300.0
2009-03-31,182100.0
2009-02-28,183600.0
2009-01-31,185800.0
2008-12-31,189400.0
2008-11-30,194000.0
2008-10-31,198000.0
2008-09-30,199600.0
2008-08-31,201100.0
2008-07-31,203500.0
2008-06-30,206300.0
2008-05-31,208300.0
2008-04-30,209300.0
2008-03-31,209400.0
2008-02-29,210000.0
2008-01-31,210700.0
2007-12-31,210100.0
2007-11-30,209100.0
2007-10-31,208500.0
2007-09-30,208400.0
2007-08-31,208600.0
2007-07-31,208400.0
2007-06-30,208000.0
2007-05-31,206300.0
2007-04-30,204200.0
2007-03-31,202700.0
2007-02-28,202900.0
2007-01-31,203700.0
2006-12-31,203600.0
2006-11-30,202500.0
2006-10-31,201800.0
2006-09-30,201700.0
2006-08-31,200800.0
2006-07-31,199500.0
2006-06-30,197800.0
2006-05-31,197000.0
2006-04-30,196400.0
2006-03-31,194200.0
2006-02-28,190400.0
2006-01-31,187300.0
2005-12-31,185400.0
2005-11-30,184000.0
2005-10-31,181400.0
2005-09-30,177800.0
2005-08-31,174000.0
2005-07-31,171000.0
2005-06-30,168500.0
2005-05-31,166500.0
2005-04-30,164600.0
2005-03-31,163200.0
2005-02-28,161700.0
2005-01-31,159800.0
2004-12-31,157000.0
2004-11-30,154200.0
2004-10-31,151800.0
2004-09-30,149900.0
2004-08-31,148000.0
2004-07-31,146000.0
2004-06-30,143900.0
2004-05-31,141800.0
2004-04-30,140300.0
2004-03-31,139600.0
2004-02-29,139100.0
2004-01-31,137900.0
2003-12-31,136800.0
2003-11-30,136000.0
2003-10-31,135100.0
2003-09-30,134000.0
2003-08-31,133300.0
2003-07-31,132700.0
2003-06-30,132000.0
2003-05-31,131500.0
2003-04-30,131100.0
2003-03-31,130900.0
2003-02-28,130800.0
2003-01-31,130700.0
2002-12-31,130100.0
2002-11-30,129200.0
2002-10-31,128900.0
2002-09-30,128700.0
2002-08-31,128400.0
2002-07-31,128700.0
2002-06-30,129600.0
2002-05-31,130300.0
2002-04-30,130200.0
2002-03-31,129100.0
2002-02-28,127900.0
2002-01-31,127500.0
2001-12-31,127600.0
2001-11-30,127100.0
2001-10-31,126800.0
2001-09-30,126800.0
2001-08-31,127200.0
2001-07-31,127400.0
2001-06-30,127400.0
2001-05-31,127100.0
2001-04-30,127000.0
2001-03-31,127400.0
2001-02-28,127900.0
2001-01-31,128300.0
2000-12-31,128600.0
2000-11-30,128900.0
2000-10-31,129000.0
2000-09-30,129400.0
2000-08-31,130000.0
2000-07-31,130800.0
2000-06-30,131200.0
2000-05-31,130800.0
2000-04-30,129900.0
2000-03-31,129000.0
2000-02-29,127900.0
2000-01-31,126300.0
1999-12-31,125000.0
1999-11-30,124600.0
1999-10-31,124300.0
1999-09-30,123800.0
1999-08-31,123800.0
1999-07-31,124000.0
1999-06-30,124300.0
1999-05-31,124700.0
1999-04-30,125100.0
1999-03-31,125200.0
1999-02-28,125200.0
1999-01-31,125100.0
1998-12-31,125500.0
1998-11-30,126600.0
1998-10-31,127400.0
1998-09-30,127400.0
1998-08-31,126700.0
1998-07-31,126300.0
1998-06-30,126200.0
1998-05-31,126200.0
1998-04-30,126200.0
1998-03-31,126700.0
1998-02-28,126800.0
1998-01-31,126400.0
1997-12-31,126000.0
1997-11-30,125700.0
1997-10-31,125600.0
1997-09-30,126100.0
1997-08-31,126300.0
1997-07-31,125500.0
1997-06-30,124400.0
1997-05-31,123900.0
1997-04-30,124100.0
1997-03-31,124500.0
1997-02-28,124000.0
1997-01-31,122600.0
1996-12-31,121200.0
1996-11-30,120400.0
1996-10-31,120300.0
1996-09-30,119700.0
1996-08-31,118700.0
1996-07-31,117000.0
1996-06-30,114700.0
1996-05-31,112000.0
1996-04-30,109100.0
