Date,Value
2015-02-28,99000.0
2015-01-31,92000.0
2014-12-31,94000.0
2014-11-30,94500.0
2014-10-31,99000.0
2014-09-30,99900.0
2014-08-31,99900.0
2014-07-31,99900.0
2014-06-30,99900.0
2014-05-31,99500.0
2014-04-30,97500.0
2014-03-31,97500.0
2014-02-28,94950.0
2014-01-31,89000.0
2013-12-31,89900.0
2013-11-30,89900.0
2013-10-31,95000.0
2013-09-30,99000.0
2013-08-31,99900.0
2013-07-31,99000.0
2013-06-30,99000.0
2013-05-31,99900.0
2013-04-30,95000.0
2013-03-31,95000.0
2013-02-28,90000.0
2013-01-31,92900.0
2012-12-31,95000.0
2012-11-30,96000.0
2012-10-31,95000.0
2012-09-30,98900.0
2012-08-31,98900.0
2012-07-31,99000.0
2012-06-30,95000.0
2012-05-31,92500.0
2012-04-30,89990.0
2012-03-31,94900.0
2012-02-29,92000.0
2012-01-31,94900.0
2011-12-31,94900.0
2011-11-30,94300.0
2011-10-31,94500.0
2011-09-30,95000.0
2011-08-31,94900.0
2011-07-31,94500.0
2011-06-30,97000.0
2011-05-31,99400.0
2011-04-30,99850.0
2011-03-31,99900.0
2011-02-28,100000.0
2011-01-31,102000.0
2010-12-31,108000.0
2010-11-30,107400.0
2010-10-31,107400.0
2010-09-30,109999.0
2010-08-31,112900.0
2010-07-31,115000.0
2010-06-30,115000.0
2010-05-31,119000.0
2010-04-30,115500.0
2010-03-31,117950.0
2010-02-28,115000.0
2010-01-31,115000.0
2009-12-31,114990.0
2009-11-30,117000.0
2009-10-31,118500.0
2009-09-30,119900.0
2009-08-31,119900.0
2009-07-31,119900.0
2009-06-30,124900.0
2009-05-31,124900.0
2009-04-30,119900.0
2009-03-31,119000.0
2009-02-28,119900.0
2009-01-31,120000.0
2008-12-31,120000.0
2008-11-30,120000.0
2008-10-31,122900.0
