Date,Value
2015-09-30,473350.0
2015-08-31,459112.5
2015-07-31,447162.5
2015-06-30,442207.0
2015-05-31,447965.0
2015-04-30,424050.0
2015-03-31,355900.0
2015-02-28,335750.0
2015-01-31,393500.0
2014-12-31,403250.0
2014-11-30,407200.0
2014-10-31,392550.0
2014-09-30,404000.0
2014-08-31,421750.0
2014-07-31,408675.0
2014-06-30,424575.0
2014-05-31,414400.0
2014-04-30,409350.0
2014-03-31,389117.6471
2014-02-28,372846.1538
2013-12-31,364500.0
2013-11-30,350792.5
2013-10-31,384932.5
2013-09-30,395550.0
2013-08-31,358925.0
2013-07-31,383250.0
2013-06-30,368200.0
2013-05-31,384900.0
2013-04-30,348400.0
2013-03-31,309242.5
2013-02-28,312807.5
2013-01-31,320750.0
2012-12-31,340900.0
2012-11-30,394250.0
2012-10-31,352100.0
2012-09-30,300400.0
2012-08-31,316715.0
2012-07-31,292077.5
2012-06-30,283532.5
2012-05-31,287225.0
2012-04-30,307352.9412
2012-03-31,355000.0
2011-12-31,366675.0
2011-11-30,359375.0
2011-10-31,333400.0
2011-09-30,345600.0
2011-08-31,341455.4
2011-07-31,397212.6
2011-06-30,421618.0
2011-05-31,398650.0
2011-04-30,375275.0
2011-03-31,351525.0
2011-02-28,379200.0
2011-01-31,388660.6
2010-12-31,361041.4
2010-11-30,354452.0
2010-10-31,324300.0
2010-09-30,334200.0
2010-08-31,2660700.0
2010-07-31,5759347.5
2010-06-30,8093777.5
2010-05-31,360192.5
2010-04-30,353749.25
2010-03-31,361498.25
2010-02-28,368122.5
2010-01-31,380317.5
2009-12-31,345432.5
2009-11-30,303825.0
2009-10-31,309775.0
2009-09-30,319975.0
2009-08-31,349050.0
2009-07-31,362950.0
2009-06-30,356450.0
2009-05-31,410050.0
2009-04-30,475294.1176
2009-03-31,450000.0
2008-12-31,385500.0
2008-11-30,380750.0
2008-10-31,390200.0
2008-09-30,423300.0
2008-08-31,415250.0
2008-07-31,445800.0
2008-06-30,433967.5
2008-05-31,379882.5
2008-04-30,426550.0
2008-03-31,419500.0
2008-02-29,390375.0
2008-01-31,389900.0
2007-12-31,397020.65
2007-11-30,362439.7
2007-10-31,326735.15
2007-09-30,351599.5
2007-08-31,353650.0
2007-07-31,360492.5
2007-06-30,381932.5
2007-05-31,406775.0
2007-04-30,426750.0
2007-03-31,437700.0
2007-02-28,442542.5
2007-01-31,407403.25
2006-12-31,454956.75
2006-11-30,468152.5
2006-10-31,438450.0
2006-09-30,430200.0
2006-08-31,454550.0
2006-07-31,435264.9
2006-06-30,435718.1
2006-05-31,418683.0
2006-04-30,411742.5
2006-03-31,392875.0
2006-02-28,394707.5
2006-01-31,376425.0
2005-12-31,362300.0
2005-11-30,351092.5
2005-10-31,346257.5
2005-09-30,365085.0
2005-08-31,378465.0
2005-07-31,370500.0
2005-06-30,353900.0
2005-05-31,355050.0
2005-04-30,354930.0
2005-03-31,337545.0
2005-02-28,337650.0
2005-01-31,360075.0
2004-12-31,314992.5
2004-11-30,301232.5
2004-10-31,281225.0
2004-09-30,302500.0
2004-08-31,314250.0
2004-07-31,318950.0
2004-06-30,325050.0
2004-05-31,336292.5
2004-04-30,313682.5
2004-03-31,303975.0
2004-02-29,268800.0
2004-01-31,275910.0
2003-12-31,274557.5
2003-11-30,282207.5
2003-10-31,295250.0
2003-09-30,292875.0
2003-08-31,283000.0
2003-07-31,271750.0
2003-06-30,291375.0
2003-05-31,284675.0
2003-04-30,275450.0
2003-03-31,270492.5
2003-02-28,266582.5
2003-01-31,269355.0
2002-12-31,252120.0
2002-11-30,262350.0
2002-10-31,243482.5
2002-09-30,247667.5
2002-08-31,252892.5
2002-07-31,254982.5
2002-06-30,256725.0
2002-05-31,244000.0
2002-04-30,244550.0
2002-03-31,246092.5
2002-02-28,246632.5
2002-01-31,248300.0
2001-12-31,256475.0
2001-11-30,231585.0
2001-10-31,239615.0
2001-09-30,241250.0
2001-08-31,251592.5
2001-07-31,240732.5
2001-06-30,255825.0
2001-05-31,247800.0
2001-04-30,248058.8235
2001-03-31,258392.3077
2001-01-31,230323.5
2000-12-31,221945.0
2000-11-30,247776.5
2000-10-31,253960.0
2000-09-30,249950.0
2000-08-31,249850.0
2000-07-31,248450.0
2000-06-30,241225.0
2000-05-31,233225.0
2000-04-30,227242.5
2000-03-31,233805.0
2000-02-29,212727.5
2000-01-31,204075.0
1999-12-31,202235.0
1999-11-30,215657.5
1999-10-31,221032.5
1999-09-30,218175.0
1999-08-31,218750.0
1999-07-31,211775.0
1999-06-30,208925.0
1999-05-31,211500.0
1999-04-30,198762.5
1999-03-31,210337.5
1999-02-28,221325.0
1999-01-31,218356.0
1998-12-31,206789.0
1998-11-30,208020.0
1998-10-31,215575.0
1998-09-30,227625.0
1998-08-31,232125.0
1998-07-31,219675.0
1998-06-30,207842.5
1998-05-31,188332.5
1998-04-30,183025.0
1998-03-31,186125.0
1998-02-28,185625.0
1998-01-31,187250.0
1997-12-31,189985.0
1997-11-30,184207.5
1997-10-31,184532.5
1997-09-30,185625.0
1997-08-31,190992.5
1997-07-31,186532.5
1997-06-30,186925.0
1997-05-31,179750.0
1997-04-30,183242.5
1997-03-31,178482.5
1997-02-28,190475.0
1997-01-31,194750.0
1996-12-31,169750.0
1996-11-30,167242.5
1996-10-31,186982.5
1996-09-30,199467.5
1996-08-31,173482.5
1996-07-31,184300.0
1996-06-30,177375.0
1996-05-31,173800.0
1996-04-30,168342.5
