Date,Value
2015-02-28,242000.0
2015-01-31,250000.0
2014-12-31,242000.0
2014-11-30,259000.0
2014-10-31,249000.0
2014-09-30,242000.0
2014-08-31,249900.0
2014-07-31,249900.0
2014-06-30,259000.0
2014-05-31,249950.0
2014-04-30,250000.0
2014-03-31,248500.0
2014-02-28,237500.0
2014-01-31,229900.0
2013-12-31,229000.0
2013-11-30,235000.0
2013-10-31,239850.0
2013-09-30,249900.0
2013-08-31,243500.0
2013-07-31,247500.0
2013-06-30,240000.0
2013-05-31,238000.0
2013-04-30,237500.0
2013-03-31,233900.0
2013-02-28,234900.0
2013-01-31,239000.0
2012-12-31,239000.0
2012-11-30,235000.0
2012-10-31,237900.0
2012-09-30,229900.0
2012-08-31,248000.0
2012-07-31,249000.0
2012-06-30,245000.0
2012-05-31,239950.0
2012-04-30,239900.0
2012-03-31,239950.0
2012-02-29,239000.0
2012-01-31,239900.0
2011-12-31,235000.0
2011-11-30,229500.0
2011-10-31,229500.0
2011-09-30,235000.0
2011-08-31,239000.0
2011-07-31,244000.0
2011-06-30,245000.0
2011-05-31,239000.0
2011-04-30,239000.0
2011-03-31,243500.0
2011-02-28,246000.0
2011-01-31,245000.0
2010-12-31,241821.0
2010-11-30,245000.0
2010-10-31,249950.0
2010-09-30,250000.0
2010-08-31,254900.0
2010-07-31,255000.0
2010-06-30,257000.0
2010-05-31,256900.0
2010-04-30,252900.0
2010-03-31,249900.0
2010-02-28,245000.0
2010-01-31,250000.0
2009-12-31,258500.0
2009-11-30,260000.0
2009-10-31,259900.0
2009-09-30,259900.0
2009-08-31,265990.0
2009-07-31,274900.0
2009-06-30,269950.0
2009-05-31,269900.0
2009-04-30,269900.0
2009-03-31,270000.0
2009-02-28,275500.0
2009-01-31,279000.0
2008-12-31,284500.0
2008-11-30,287000.0
2008-10-31,290000.0
