Date,Value
2015-02-28,142000.0
2015-01-31,139900.0
2014-12-31,142000.0
2014-11-30,139950.0
2014-10-31,144000.0
2014-09-30,144950.0
2014-08-31,147000.0
2014-07-31,147000.0
2014-06-30,147500.0
2014-05-31,139999.0
2014-04-30,142000.0
2014-03-31,134000.0
2014-02-28,129900.0
2014-01-31,128500.0
2013-12-31,140000.0
2013-11-30,144900.0
2013-10-31,149950.0
2013-09-30,149950.0
2013-08-31,145000.0
2013-07-31,149000.0
2013-06-30,145000.0
2013-05-31,135000.0
2013-04-30,135000.0
2013-03-31,133500.0
2013-02-28,130000.0
2013-01-31,125000.0
2012-12-31,125000.0
2012-11-30,125000.0
2012-10-31,123000.0
2012-09-30,129900.0
2012-08-31,125900.0
2012-07-31,129900.0
2012-06-30,125000.0
2012-05-31,119500.0
2012-04-30,119500.0
2012-03-31,112000.0
2012-02-29,112000.0
2012-01-31,114900.0
2011-12-31,114500.0
2011-11-30,119000.0
2011-10-31,122900.0
2011-09-30,129900.0
2011-08-31,134900.0
2011-07-31,132500.0
2011-06-30,136500.0
2011-05-31,139500.0
2011-04-30,139885.0
2011-03-31,139500.0
2011-02-28,139950.0
2011-01-31,140000.0
2010-12-31,140000.0
2010-11-30,149000.0
2010-10-31,149900.0
2010-09-30,149000.0
2010-08-31,147500.0
2010-07-31,145000.0
2010-06-30,144950.0
2010-05-31,149900.0
2010-04-30,149950.0
2010-03-31,154900.0
2010-02-28,158500.0
2010-01-31,159900.0
2009-12-31,158500.0
2009-11-30,159000.0
2009-10-31,168000.0
2009-09-30,170900.0
2009-08-31,172200.0
2009-07-31,179500.0
2009-06-30,179500.0
2009-05-31,179998.0
2009-04-30,184950.0
2009-03-31,184950.0
2009-02-28,184950.0
2009-01-31,187995.0
2008-12-31,190000.0
2008-11-30,199000.0
2008-10-31,199950.0
