Date,Value
2015-02-28,325000.0
2015-01-31,324900.0
2014-12-31,320000.0
2014-11-30,317900.0
2014-10-31,319000.0
2014-09-30,316400.0
2014-08-31,312900.0
2014-07-31,312900.0
2014-06-30,313900.0
2014-05-31,299999.0
2014-04-30,312900.0
2014-03-31,299900.0
2014-02-28,299000.0
2014-01-31,310000.0
2013-12-31,310900.0
2013-11-30,299476.0
2013-10-31,311000.0
2013-09-30,303900.0
2013-08-31,306500.0
2013-07-31,310000.0
2013-06-30,306500.0
2013-05-31,299500.0
2013-04-30,299000.0
2013-03-31,294900.0
2013-02-28,291500.0
2013-01-31,298900.0
2012-12-31,299000.0
2012-11-30,298500.0
2012-10-31,288000.0
2012-09-30,285950.0
2012-08-31,289950.0
2012-07-31,294375.0
2012-06-30,294150.0
2012-05-31,293500.0
2012-04-30,289900.0
2012-03-31,277900.0
2012-02-29,283750.0
2012-01-31,280000.0
2011-12-31,283750.0
2011-11-30,298900.0
2011-10-31,300900.0
2011-09-30,309000.0
2011-08-31,310000.0
2011-07-31,319900.0
2011-06-30,319000.0
2011-05-31,325000.0
2011-04-30,315000.0
2011-03-31,315000.0
2011-02-28,323000.0
2011-01-31,325000.0
2010-12-31,325000.0
2010-11-30,327000.0
2010-10-31,325000.0
2010-09-30,339650.0
2010-08-31,340000.0
2010-07-31,349000.0
2010-06-30,350000.0
2010-05-31,349000.0
2010-04-30,349000.0
2010-03-31,349900.0
2010-02-28,349900.0
2010-01-31,359500.0
2009-12-31,359500.0
2009-11-30,359789.0
2009-10-31,349000.0
2009-09-30,377750.0
2009-08-31,377750.0
2009-07-31,365000.0
2009-06-30,350000.0
2009-05-31,350000.0
2009-04-30,369900.0
2009-03-31,359000.0
2009-02-28,375000.0
2009-01-31,373000.0
2008-12-31,382500.0
2008-11-30,382500.0
2008-10-31,388000.0
