Date,Value
2015-02-28,309000.0
2015-01-31,289950.0
2014-12-31,289950.0
2014-11-30,294950.0
2014-10-31,299000.0
2014-09-30,299900.0
2014-08-31,300000.0
2014-07-31,305000.0
2014-06-30,299950.0
2014-05-31,279000.0
2014-04-30,276000.0
2014-03-31,269950.0
2014-02-28,279900.0
2014-01-31,270000.0
2013-12-31,289000.0
2013-11-30,286435.0
2013-10-31,289950.0
2013-09-30,287500.0
2013-08-31,282000.0
2013-07-31,279950.0
2013-06-30,280000.0
2013-05-31,279900.0
2013-04-30,269950.0
2013-03-31,257496.0
2013-02-28,240000.0
2013-01-31,230000.0
2012-12-31,238000.0
2012-11-30,240000.0
2012-10-31,245000.0
2012-09-30,249054.0
2012-08-31,249990.0
2012-07-31,249900.0
2012-06-30,245000.0
2012-05-31,234900.0
2012-04-30,232995.0
2012-03-31,234900.0
2012-02-29,228999.0
2012-01-31,224950.0
2011-12-31,225000.0
2011-11-30,229000.0
2011-10-31,237500.0
2011-09-30,239000.0
2011-08-31,245000.0
2011-07-31,236000.0
2011-06-30,244950.0
2011-05-31,239000.0
2011-04-30,239900.0
2011-03-31,240000.0
2011-02-28,239950.0
2011-01-31,247000.0
2010-12-31,242450.0
2010-11-30,248000.0
2010-10-31,251900.0
2010-09-30,259000.0
2010-08-31,262000.0
2010-07-31,274900.0
2010-06-30,275000.0
2010-05-31,279950.0
2010-04-30,272900.0
2010-03-31,269000.0
2010-02-28,272500.0
2010-01-31,272500.0
2009-12-31,275000.0
2009-11-30,279950.0
2009-10-31,279950.0
2009-09-30,289995.0
2009-08-31,285000.0
2009-07-31,299900.0
2009-06-30,295900.0
2009-05-31,289950.0
2009-04-30,299500.0
2009-03-31,300000.0
2009-02-28,309900.0
2009-01-31,319950.0
2008-12-31,338876.0
2008-11-30,339950.0
2008-10-31,345000.0
