Date,Value
2015-09-30,0.914
2015-08-31,0.924
2015-07-31,0.928
2015-06-30,0.93
2015-05-31,0.926
2015-04-30,0.918
2015-03-31,0.904
2015-02-28,0.888
2015-01-31,0.872
2014-12-31,0.864
2014-11-30,0.856
2014-10-31,0.854
2014-09-30,0.858
2014-08-31,0.856
2014-07-31,0.852
2014-06-30,0.844
2014-05-31,0.836
2014-04-30,0.816
2014-03-31,0.816
2014-02-28,0.822
2014-01-31,0.828
2013-12-31,0.84
2013-11-30,0.842
2013-10-31,0.838
2013-09-30,0.83
2013-08-31,0.828
2013-07-31,0.83
2013-06-30,0.836
2013-05-31,0.842
2013-04-30,0.836
2013-03-31,0.842
2013-02-28,0.848
2013-01-31,0.85
