Date,Value
2015-02-28,225000.0
2015-01-31,210000.0
2014-12-31,214500.0
2014-11-30,225000.0
2014-10-31,274500.0
2014-09-30,275000.0
2014-08-31,275000.0
2014-07-31,275000.0
2014-06-30,249900.0
2014-05-31,249900.0
2014-04-30,220000.0
2014-03-31,210000.0
2014-02-28,210000.0
2014-01-31,240900.0
2013-12-31,210000.0
2013-11-30,240900.0
2013-10-31,259000.0
2013-09-30,275000.0
2013-08-31,250000.0
2013-07-31,249000.0
2013-06-30,250000.0
2013-05-31,254900.0
2013-04-30,250000.0
2013-03-31,225000.0
2013-02-28,250000.0
2013-01-31,250000.0
2012-12-31,299000.0
2012-11-30,299000.0
2012-10-31,275000.0
2012-09-30,295000.0
2012-08-31,274950.0
2012-07-31,274950.0
2012-06-30,274950.0
2012-05-31,250000.0
2012-04-30,242000.0
2012-03-31,259900.0
2012-02-29,245900.0
2012-01-31,245900.0
2011-12-31,250000.0
2011-11-30,245000.0
2011-10-31,245000.0
2011-09-30,299900.0
2011-08-31,294500.0
2011-07-31,250000.0
2011-06-30,244900.0
2011-05-31,294500.0
2011-04-30,299900.0
2011-03-31,319950.0
2011-02-28,299000.0
2011-01-31,269000.0
2010-12-31,299900.0
2010-11-30,269000.0
2010-10-31,249500.0
2010-09-30,294500.0
2010-08-31,319000.0
2010-07-31,335000.0
2010-06-30,329000.0
2010-05-31,319000.0
2010-04-30,299999.0
2010-03-31,299999.0
2010-02-28,299999.0
2010-01-31,299999.0
2009-12-31,275000.0
2009-11-30,294500.0
2009-10-31,399900.0
2009-09-30,399950.0
2009-08-31,325000.0
2009-07-31,327500.0
2009-06-30,325000.0
2009-05-31,399950.0
2009-04-30,459000.0
2009-03-31,284900.0
2009-02-28,295000.0
2009-01-31,295000.0
2008-12-31,276000.0
2008-11-30,499950.0
2008-10-31,499950.0
