Date,Value
2015-09-30,720300.0
2015-08-31,712000.0
2015-07-31,704800.0
2015-06-30,705400.0
2015-05-31,701100.0
2015-04-30,690700.0
2015-03-31,680400.0
2015-02-28,672300.0
2015-01-31,669100.0
2014-12-31,665500.0
2014-11-30,661400.0
2014-10-31,657700.0
2014-09-30,655900.0
2014-08-31,654500.0
2014-07-31,652700.0
2014-06-30,651700.0
2014-05-31,650700.0
2014-04-30,648100.0
2014-03-31,644700.0
2014-02-28,641800.0
2014-01-31,639100.0
2013-12-31,634600.0
2013-11-30,628500.0
2013-10-31,620200.0
2013-09-30,611200.0
2013-08-31,603900.0
2013-07-31,598200.0
2013-06-30,592500.0
2013-05-31,584600.0
2013-04-30,575600.0
2013-03-31,568800.0
2013-02-28,563500.0
2013-01-31,556800.0
2012-12-31,551300.0
2012-11-30,545600.0
2012-10-31,539700.0
2012-09-30,536700.0
2012-08-31,536000.0
2012-07-31,533700.0
2012-06-30,530400.0
2012-05-31,525600.0
2012-04-30,519600.0
2012-03-31,513700.0
2012-02-29,509400.0
2012-01-31,508400.0
2011-12-31,510300.0
2011-11-30,511400.0
2011-10-31,510400.0
2011-09-30,508300.0
2011-08-31,505000.0
2011-07-31,503000.0
2011-06-30,502800.0
2011-05-31,503200.0
2011-04-30,504700.0
2011-03-31,507300.0
2011-02-28,509400.0
2011-01-31,511100.0
2010-12-31,512800.0
2010-11-30,514500.0
2010-10-31,518200.0
2010-09-30,524400.0
2010-08-31,530800.0
2010-07-31,533700.0
2010-06-30,533800.0
2010-05-31,534800.0
2010-04-30,536100.0
2010-03-31,535800.0
2010-02-28,534600.0
2010-01-31,531500.0
2009-12-31,526500.0
2009-11-30,522200.0
2009-10-31,518900.0
2009-09-30,515700.0
2009-08-31,514400.0
2009-07-31,516700.0
2009-06-30,521000.0
2009-05-31,526000.0
2009-04-30,532000.0
2009-03-31,538800.0
2009-02-28,544800.0
2009-01-31,550400.0
2008-12-31,556300.0
2008-11-30,564300.0
2008-10-31,572800.0
2008-09-30,579200.0
2008-08-31,584200.0
2008-07-31,590100.0
2008-06-30,595100.0
2008-05-31,599000.0
2008-04-30,604600.0
2008-03-31,611600.0
2008-02-29,618500.0
2008-01-31,623800.0
2007-12-31,629100.0
2007-11-30,633500.0
2007-10-31,636600.0
2007-09-30,639700.0
2007-08-31,643000.0
2007-07-31,644500.0
2007-06-30,645400.0
2007-05-31,645100.0
2007-04-30,643100.0
2007-03-31,640800.0
2007-02-28,636400.0
2007-01-31,629000.0
2006-12-31,621800.0
2006-11-30,617300.0
2006-10-31,612200.0
2006-09-30,604100.0
2006-08-31,593000.0
2006-07-31,582100.0
2006-06-30,572500.0
2006-05-31,563900.0
2006-04-30,556800.0
2006-03-31,552500.0
2006-02-28,549900.0
2006-01-31,547000.0
2005-12-31,541700.0
2005-11-30,533900.0
2005-10-31,526200.0
2005-09-30,518800.0
2005-08-31,511200.0
2005-07-31,504200.0
2005-06-30,498300.0
2005-05-31,491200.0
2005-04-30,481400.0
2005-03-31,470100.0
2005-02-28,461400.0
2005-01-31,456200.0
2004-12-31,452000.0
2004-11-30,446500.0
2004-10-31,440900.0
2004-09-30,436100.0
2004-08-31,431500.0
2004-07-31,425600.0
2004-06-30,419700.0
2004-05-31,414600.0
2004-04-30,409000.0
2004-03-31,401900.0
2004-02-29,395200.0
2004-01-31,389900.0
2003-12-31,385700.0
2003-11-30,382700.0
2003-10-31,381200.0
2003-09-30,380000.0
2003-08-31,379200.0
2003-07-31,378400.0
2003-06-30,377000.0
2003-05-31,375800.0
2003-04-30,375400.0
2003-03-31,374900.0
2003-02-28,373600.0
2003-01-31,372200.0
2002-12-31,371200.0
2002-11-30,370700.0
2002-10-31,369700.0
2002-09-30,368900.0
2002-08-31,368500.0
2002-07-31,368100.0
2002-06-30,366600.0
2002-05-31,364400.0
2002-04-30,362500.0
2002-03-31,362600.0
2002-02-28,363300.0
2002-01-31,363600.0
2001-12-31,364000.0
2001-11-30,364500.0
2001-10-31,364300.0
2001-09-30,363400.0
2001-08-31,361600.0
2001-07-31,359500.0
2001-06-30,357700.0
2001-05-31,355700.0
2001-04-30,353800.0
2001-03-31,351300.0
2001-02-28,348300.0
2001-01-31,345400.0
2000-12-31,341900.0
2000-11-30,337600.0
2000-10-31,333800.0
2000-09-30,331300.0
2000-08-31,330100.0
2000-07-31,329700.0
2000-06-30,329600.0
2000-05-31,330300.0
2000-04-30,331100.0
2000-03-31,330700.0
2000-02-29,329200.0
2000-01-31,326600.0
1999-12-31,323000.0
1999-11-30,318700.0
1999-10-31,314100.0
1999-09-30,311000.0
1999-08-31,309800.0
1999-07-31,309200.0
1999-06-30,307600.0
1999-05-31,305400.0
1999-04-30,303800.0
1999-03-31,302800.0
1999-02-28,301100.0
1999-01-31,298400.0
1998-12-31,295600.0
1998-11-30,293700.0
1998-10-31,292100.0
1998-09-30,289300.0
1998-08-31,285200.0
1998-07-31,281600.0
1998-06-30,278800.0
1998-05-31,276600.0
1998-04-30,274100.0
1998-03-31,270600.0
1998-02-28,266700.0
1998-01-31,263300.0
1997-12-31,260300.0
1997-11-30,257900.0
1997-10-31,256200.0
1997-09-30,255200.0
1997-08-31,253600.0
1997-07-31,250700.0
1997-06-30,247000.0
1997-05-31,243100.0
1997-04-30,239200.0
1997-03-31,236900.0
1997-02-28,236000.0
1997-01-31,235100.0
1996-12-31,234300.0
1996-11-30,233600.0
1996-10-31,232100.0
1996-09-30,230500.0
1996-08-31,228800.0
1996-07-31,227200.0
1996-06-30,226400.0
1996-05-31,226700.0
1996-04-30,227300.0
