Date,Value
2015-09-30,1.174
2015-08-31,1.178
2015-07-31,1.168
2015-06-30,1.16
2015-05-31,1.156
2015-04-30,1.152
2015-03-31,1.148
2015-02-28,1.146
2015-01-31,1.146
2014-12-31,1.144
2014-11-30,1.142
2014-10-31,1.14
2014-09-30,1.134
2014-08-31,1.128
2014-07-31,1.12
2014-06-30,1.118
2014-05-31,1.116
2014-04-30,1.114
2014-03-31,1.112
2014-02-28,1.108
2014-01-31,1.102
2013-12-31,1.094
2013-11-30,1.082
2013-10-31,1.064
2013-09-30,1.048
2013-08-31,1.032
2013-07-31,1.024
2013-06-30,1.016
2013-05-31,1.016
2013-04-30,1.012
2013-03-31,1.008
2013-02-28,1.002
2013-01-31,0.996
2012-12-31,0.99
2012-11-30,0.988
2012-10-31,0.99
2012-09-30,0.994
2012-08-31,0.996
2012-07-31,0.998
2012-06-30,1.0
2012-05-31,0.992
2012-04-30,0.984
2012-03-31,0.98
2012-02-29,0.98
2012-01-31,0.976
2011-12-31,0.976
2011-11-30,0.978
2011-10-31,0.978
2011-09-30,0.98
2011-08-31,0.986
2011-07-31,0.986
2011-06-30,0.98
2011-05-31,0.974
2011-04-30,0.972
2011-03-31,0.97
2011-02-28,0.966
2011-01-31,0.964
2010-12-31,0.962
2010-11-30,0.962
