Date,Value
2015-02-28,194990.0
2015-01-31,184900.0
2014-12-31,179990.0
2014-11-30,179900.0
2014-10-31,180000.0
2014-09-30,179900.0
2014-08-31,182000.0
2014-07-31,187000.0
2014-06-30,190000.0
2014-05-31,190000.0
2014-04-30,195000.0
2014-03-31,192900.0
2014-02-28,179900.0
2014-01-31,179000.0
2013-12-31,179000.0
2013-11-30,175000.0
2013-10-31,179000.0
2013-09-30,184950.0
2013-08-31,189900.0
2013-07-31,185000.0
2013-06-30,184900.0
2013-05-31,184450.0
2013-04-30,189950.0
2013-03-31,189900.0
2013-02-28,189900.0
2013-01-31,188500.0
2012-12-31,189000.0
2012-11-30,189900.0
2012-10-31,189900.0
2012-09-30,194500.0
2012-08-31,195000.0
2012-07-31,195000.0
2012-06-30,189900.0
2012-05-31,179900.0
2012-04-30,170000.0
2012-03-31,168500.0
2012-02-29,170000.0
2012-01-31,170000.0
2011-12-31,179000.0
2011-11-30,179900.0
2011-10-31,179000.0
2011-09-30,180000.0
2011-08-31,179900.0
2011-07-31,179950.0
2011-06-30,188900.0
2011-05-31,180000.0
2011-04-30,179950.0
2011-03-31,169950.0
2011-02-28,169950.0
2011-01-31,169950.0
2010-12-31,169950.0
2010-11-30,175000.0
2010-10-31,179900.0
2010-09-30,179900.0
2010-08-31,180500.0
2010-07-31,179900.0
2010-06-30,179900.0
2010-05-31,179900.0
2010-04-30,179900.0
2010-03-31,179900.0
2010-02-28,179950.0
2010-01-31,185000.0
2009-12-31,199500.0
2009-11-30,204900.0
2009-10-31,199500.0
2009-09-30,200000.0
2009-08-31,207000.0
2009-07-31,207000.0
2009-06-30,199500.0
2009-05-31,200000.0
2009-04-30,209000.0
2009-03-31,210000.0
2009-02-28,216900.0
2009-01-31,215000.0
2008-12-31,214900.0
2008-11-30,210000.0
2008-10-31,214900.0
