Date,Value
2015-01-31,117000.0
2014-10-31,121000.0
2013-09-30,128785.0
2013-08-31,78500.0
2013-07-31,78500.0
2013-06-30,94900.0
2012-11-30,144300.0
2012-10-31,125000.0
2012-09-30,144300.0
2012-08-31,142500.0
2012-07-31,113000.0
2012-06-30,75000.0
2012-05-31,49900.0
2012-03-31,75000.0
2012-02-29,84500.0
2012-01-31,109500.0
2011-12-31,95000.0
2011-11-30,109500.0
2011-10-31,129500.0
2011-09-30,109500.0
2011-08-31,129500.0
2011-07-31,129500.0
2011-06-30,149500.0
2011-05-31,149500.0
2011-01-31,159900.0
2010-12-31,159900.0
2010-11-30,159900.0
2010-10-31,137500.0
2010-09-30,106500.0
2010-08-31,98000.0
2010-07-31,95000.0
2010-06-30,98000.0
2010-05-31,106500.0
2010-04-30,89900.0
2010-03-31,89900.0
2010-02-28,89900.0
2010-01-31,89900.0
2009-12-31,89900.0
2009-11-30,98000.0
2009-10-31,115500.0
2009-09-30,115500.0
2009-08-31,98000.0
2009-07-31,98000.0
2009-06-30,93000.0
2009-05-31,119500.0
2009-04-30,119500.0
