Date,Value
2015-06-30,1900.0
2015-05-31,1750.0
2015-04-30,1806.0
2015-03-31,1787.0
2015-02-28,1830.0
2015-01-31,1750.0
2014-12-31,1530.0
2014-11-30,1530.0
2014-10-31,1530.0
2014-09-30,1530.0
2014-08-31,1435.0
2014-07-31,1500.0
2014-06-30,1575.0
2014-05-31,1525.0
2014-04-30,1385.0
2014-03-31,1350.0
2014-02-28,1382.0
2014-01-31,1250.0
2013-12-31,1292.0
2013-11-30,1700.0
2013-10-31,1530.0
2013-09-30,1655.0
2013-08-31,1895.0
2013-07-31,2000.0
2013-06-30,1380.0
2013-05-31,1310.0
2013-04-30,1250.0
2013-03-31,1230.0
2013-02-28,1235.0
2013-01-31,1160.0
2012-12-31,1200.0
2012-11-30,1250.0
2012-10-31,1295.0
2012-09-30,1268.0
2012-08-31,1268.0
2012-07-31,1350.0
2012-06-30,1295.0
2012-05-31,1173.0
2012-04-30,1282.0
2012-03-31,1282.0
2012-02-29,1225.0
2012-01-31,1374.0
2011-12-31,1225.0
2011-11-30,1350.0
2011-10-31,1695.0
2011-09-30,1800.0
2011-08-31,1650.0
2011-07-31,1575.0
2011-04-30,1500.0
2011-03-31,1400.0
2011-02-28,1254.0
2011-01-31,1500.0
2010-12-31,1500.0
