Date,Value
2015-02-28,459900.0
2015-01-31,279900.0
2014-12-31,279900.0
2014-11-30,271791.0
2014-10-31,299000.0
2014-09-30,271791.0
2014-08-31,269900.0
2014-07-31,255000.0
2014-06-30,264000.0
2014-05-31,264000.0
2014-04-30,275000.0
2014-03-31,269900.0
2014-02-28,228900.0
2014-01-31,228900.0
2013-12-31,228900.0
2013-11-30,179900.0
2013-10-31,228500.0
2013-09-30,228500.0
2013-08-31,259000.0
2013-07-31,264900.0
2013-06-30,265000.0
2013-05-31,264900.0
2013-04-30,244900.0
2013-03-31,244900.0
2013-02-28,228900.0
2013-01-31,224900.0
2012-12-31,240000.0
2012-11-30,240000.0
2012-10-31,275000.0
2012-09-30,270000.0
2012-08-31,269000.0
2012-07-31,269000.0
2012-06-30,275000.0
2012-05-31,272400.0
2012-04-30,240000.0
2012-03-31,219000.0
2012-02-29,195000.0
2012-01-31,219000.0
2011-12-31,199000.0
2011-11-30,280000.0
2011-10-31,280000.0
2011-09-30,280000.0
2011-08-31,280000.0
2011-07-31,289900.0
2011-06-30,299900.0
2011-05-31,309000.0
2011-04-30,309000.0
2011-03-31,319000.0
2011-02-28,229900.0
2011-01-31,229900.0
2010-12-31,295000.0
2010-11-30,295000.0
2010-10-31,314900.0
2010-09-30,319000.0
2010-08-31,319000.0
2010-07-31,319000.0
2010-06-30,350000.0
2010-05-31,329000.0
2010-04-30,349000.0
2010-03-31,329000.0
2010-02-28,329000.0
2010-01-31,344900.0
2009-12-31,344900.0
2009-11-30,329000.0
2009-10-31,329000.0
2009-09-30,349000.0
2009-08-31,268000.0
2009-07-31,259900.0
2009-06-30,265000.0
2009-05-31,259900.0
2009-04-30,259900.0
2009-03-31,235000.0
2009-01-31,273500.0
2008-12-31,275000.0
2008-11-30,275000.0
2008-10-31,374900.0
