Date,Value
2015-09-30,250000.0
2015-08-31,248300.0
2015-07-31,244200.0
2015-06-30,243600.0
2015-05-31,242000.0
2015-04-30,241500.0
2015-03-31,240600.0
2015-02-28,239200.0
2015-01-31,237800.0
2014-12-31,237000.0
2014-11-30,236300.0
2014-10-31,236100.0
2014-09-30,236400.0
2014-08-31,236900.0
2014-07-31,237100.0
2014-06-30,237100.0
2014-05-31,236300.0
2014-04-30,235300.0
2014-03-31,234000.0
2014-02-28,233000.0
2014-01-31,231900.0
2013-12-31,231000.0
2013-11-30,231100.0
2013-10-31,231200.0
2013-09-30,230000.0
2013-08-31,228600.0
2013-07-31,227700.0
2013-06-30,226500.0
2013-05-31,225400.0
2013-04-30,224500.0
2013-03-31,223600.0
2013-02-28,222400.0
2013-01-31,221300.0
2012-12-31,221000.0
2012-11-30,221400.0
2012-10-31,221200.0
2012-09-30,220400.0
2012-08-31,219200.0
2012-07-31,217900.0
2012-06-30,217100.0
2012-05-31,216300.0
2012-04-30,215400.0
2012-03-31,214900.0
2012-02-29,215400.0
2012-01-31,216500.0
2011-12-31,216800.0
2011-11-30,216300.0
2011-10-31,216200.0
2011-09-30,217300.0
2011-08-31,219000.0
2011-07-31,220600.0
2011-06-30,221800.0
2011-05-31,223300.0
2011-04-30,225200.0
2011-03-31,227400.0
2011-02-28,229000.0
2011-01-31,230000.0
2010-12-31,231000.0
2010-11-30,232100.0
2010-10-31,233300.0
2010-09-30,234600.0
2010-08-31,235600.0
2010-07-31,236600.0
2010-06-30,238300.0
2010-05-31,240400.0
2010-04-30,242300.0
2010-03-31,244000.0
2010-02-28,245300.0
2010-01-31,247100.0
2009-12-31,249100.0
2009-11-30,250500.0
2009-10-31,251100.0
2009-09-30,252100.0
2009-08-31,252800.0
2009-07-31,253200.0
2009-06-30,253900.0
2009-05-31,254800.0
2009-04-30,255400.0
2009-03-31,256400.0
2009-02-28,257800.0
2009-01-31,258300.0
2008-12-31,258100.0
2008-11-30,258600.0
2008-10-31,259000.0
2008-09-30,258800.0
2008-08-31,259400.0
2008-07-31,260600.0
2008-06-30,261300.0
2008-05-31,261300.0
2008-04-30,261000.0
2008-03-31,261000.0
2008-02-29,261300.0
2008-01-31,261700.0
2007-12-31,261900.0
2007-11-30,262600.0
2007-10-31,263400.0
2007-09-30,264400.0
2007-08-31,265100.0
2007-07-31,266100.0
2007-06-30,267300.0
2007-05-31,268400.0
2007-04-30,269000.0
2007-03-31,268900.0
2007-02-28,268200.0
2007-01-31,267700.0
2006-12-31,267700.0
2006-11-30,267400.0
2006-10-31,267300.0
2006-09-30,266700.0
2006-08-31,265400.0
2006-07-31,263600.0
2006-06-30,262100.0
2006-05-31,261100.0
2006-04-30,260300.0
2006-03-31,258300.0
2006-02-28,255400.0
2006-01-31,252300.0
2005-12-31,249300.0
2005-11-30,245500.0
2005-10-31,241300.0
2005-09-30,236900.0
2005-08-31,232300.0
2005-07-31,227300.0
2005-06-30,221700.0
2005-05-31,215800.0
2005-04-30,210500.0
2005-03-31,206400.0
2005-02-28,203200.0
2005-01-31,200400.0
2004-12-31,197700.0
2004-11-30,195100.0
2004-10-31,192700.0
2004-09-30,190800.0
2004-08-31,189700.0
2004-07-31,188500.0
2004-06-30,186400.0
2004-05-31,184000.0
2004-04-30,182000.0
2004-03-31,180500.0
2004-02-29,179200.0
2004-01-31,177900.0
2003-12-31,176700.0
2003-11-30,175700.0
2003-10-31,174300.0
2003-09-30,172500.0
2003-08-31,170800.0
2003-07-31,169700.0
2003-06-30,169200.0
2003-05-31,169100.0
2003-04-30,168800.0
2003-03-31,167900.0
2003-02-28,166600.0
2003-01-31,165000.0
2002-12-31,163100.0
2002-11-30,161300.0
2002-10-31,160000.0
2002-09-30,159300.0
2002-08-31,158400.0
2002-07-31,157200.0
2002-06-30,156100.0
2002-05-31,155200.0
2002-04-30,154200.0
2002-03-31,153700.0
2002-02-28,153500.0
2002-01-31,152900.0
2001-12-31,152300.0
2001-11-30,151600.0
2001-10-31,150400.0
2001-09-30,149100.0
2001-08-31,147900.0
2001-07-31,146900.0
2001-06-30,145800.0
2001-05-31,145100.0
2001-04-30,144300.0
2001-03-31,143200.0
2001-02-28,141700.0
2001-01-31,140900.0
2000-12-31,140600.0
2000-11-30,140700.0
2000-10-31,141300.0
2000-09-30,141600.0
2000-08-31,141400.0
2000-07-31,141200.0
2000-06-30,141600.0
2000-05-31,141900.0
2000-04-30,141600.0
2000-03-31,141100.0
2000-02-29,141100.0
2000-01-31,141300.0
1999-12-31,140800.0
1999-11-30,140200.0
1999-10-31,140000.0
1999-09-30,139600.0
1999-08-31,139200.0
1999-07-31,138700.0
1999-06-30,137900.0
1999-05-31,137100.0
1999-04-30,136600.0
1999-03-31,136000.0
1999-02-28,135400.0
1999-01-31,135000.0
1998-12-31,134800.0
1998-11-30,134200.0
1998-10-31,133700.0
1998-09-30,133500.0
1998-08-31,133700.0
1998-07-31,134100.0
1998-06-30,134400.0
1998-05-31,134500.0
1998-04-30,134000.0
1998-03-31,133200.0
1998-02-28,132500.0
1998-01-31,132000.0
1997-12-31,131500.0
1997-11-30,131000.0
1997-10-31,130800.0
1997-09-30,131300.0
1997-08-31,131600.0
1997-07-31,131200.0
1997-06-30,130700.0
1997-05-31,130700.0
1997-04-30,130800.0
1997-03-31,130700.0
1997-02-28,130700.0
1997-01-31,130800.0
1996-12-31,131000.0
1996-11-30,131100.0
1996-10-31,130800.0
1996-09-30,130100.0
1996-08-31,129500.0
1996-07-31,129800.0
1996-06-30,130500.0
1996-05-31,130600.0
1996-04-30,131000.0
