Date,Value
2015-02-28,124500.0
2015-01-31,124500.0
2014-12-31,144000.0
2014-11-30,124500.0
2014-10-31,144000.0
2014-09-30,124500.0
2014-08-31,132000.0
2014-07-31,132000.0
2014-06-30,159900.0
2014-05-31,175000.0
2014-04-30,170000.0
2014-03-31,135000.0
2014-02-28,135000.0
2014-01-31,95000.0
2013-12-31,135000.0
2013-11-30,109000.0
2013-10-31,119000.0
2013-09-30,124900.0
2013-08-31,124900.0
2013-07-31,135000.0
2013-06-30,129900.0
2013-05-31,119000.0
2013-04-30,109900.0
2013-03-31,100000.0
2013-02-28,101000.0
2013-01-31,101000.0
2012-12-31,101000.0
2012-11-30,100000.0
2012-10-31,129000.0
2012-09-30,139000.0
2012-08-31,139000.0
2012-07-31,139900.0
2012-06-30,139900.0
2012-05-31,139900.0
2012-04-30,129000.0
2012-03-31,139900.0
2012-02-29,119000.0
2012-01-31,140000.0
2011-12-31,133500.0
2011-11-30,150000.0
2011-10-31,159000.0
2011-09-30,159900.0
2011-08-31,159000.0
2011-07-31,159000.0
2011-06-30,149900.0
2011-05-31,169500.0
2011-04-30,169000.0
2011-03-31,159900.0
2011-02-28,169000.0
2011-01-31,169500.0
2010-12-31,169000.0
2010-11-30,169000.0
2010-10-31,164000.0
2010-09-30,164000.0
2010-08-31,155000.0
2010-07-31,149900.0
2010-06-30,149900.0
2010-05-31,165000.0
2010-04-30,164000.0
2010-03-31,165000.0
2010-02-28,159000.0
2010-01-31,159000.0
2009-12-31,159000.0
2009-11-30,155000.0
2009-10-31,155000.0
2009-09-30,155000.0
2009-08-31,155000.0
2009-07-31,159500.0
2009-06-30,160000.0
2009-05-31,160000.0
2009-04-30,169500.0
2009-03-31,169900.0
2009-02-28,185000.0
2009-01-31,193900.0
2008-12-31,185000.0
2008-11-30,197000.0
2008-10-31,210000.0
