Date,Value
2015-09-30,302400.0
2015-08-31,298000.0
2015-07-31,296800.0
2015-06-30,301000.0
2015-05-31,301300.0
2015-04-30,297000.0
2015-03-31,292800.0
2015-02-28,289100.0
2015-01-31,285700.0
2014-12-31,281000.0
2014-11-30,276200.0
2014-10-31,273900.0
2014-09-30,273400.0
2014-08-31,271100.0
2014-07-31,267200.0
2014-06-30,265000.0
2014-05-31,262500.0
2014-04-30,259200.0
2014-03-31,256400.0
2014-02-28,254900.0
2014-01-31,253100.0
2013-12-31,250700.0
2013-11-30,249000.0
2013-10-31,247400.0
2013-09-30,245800.0
2013-08-31,244300.0
2013-07-31,241100.0
2013-06-30,235500.0
2013-05-31,230400.0
2013-04-30,226600.0
2013-03-31,222000.0
2013-02-28,218200.0
2013-01-31,217000.0
2012-12-31,216900.0
2012-11-30,214700.0
2012-10-31,211500.0
2012-09-30,207900.0
2012-08-31,205900.0
2012-07-31,205100.0
2012-06-30,203300.0
2012-05-31,200400.0
2012-04-30,199600.0
2012-03-31,200100.0
2012-02-29,199900.0
2012-01-31,199500.0
2011-12-31,200900.0
2011-11-30,203600.0
2011-10-31,206300.0
2011-09-30,209400.0
2011-08-31,212800.0
2011-07-31,215600.0
2011-06-30,217800.0
2011-05-31,220500.0
2011-04-30,223200.0
2011-03-31,224700.0
2011-02-28,224400.0
2011-01-31,225400.0
2010-12-31,228100.0
2010-11-30,230500.0
2010-10-31,232300.0
2010-09-30,234500.0
2010-08-31,237300.0
2010-07-31,241300.0
2010-06-30,246500.0
2010-05-31,251800.0
2010-04-30,256000.0
2010-03-31,260200.0
2010-02-28,263500.0
2010-01-31,264400.0
2009-12-31,264000.0
2009-11-30,265200.0
2009-10-31,267100.0
2009-09-30,269000.0
2009-08-31,270700.0
2009-07-31,272600.0
2009-06-30,274600.0
2009-05-31,277500.0
2009-04-30,281000.0
2009-03-31,285200.0
2009-02-28,289500.0
2009-01-31,293000.0
2008-12-31,295400.0
2008-11-30,297600.0
2008-10-31,299400.0
2008-09-30,300000.0
2008-08-31,299300.0
2008-07-31,299300.0
2008-06-30,300400.0
2008-05-31,302600.0
2008-04-30,305100.0
2008-03-31,307200.0
2008-02-29,309300.0
2008-01-31,311900.0
2007-12-31,313900.0
2007-11-30,315200.0
2007-10-31,316300.0
2007-09-30,316900.0
2007-08-31,316800.0
2007-07-31,316200.0
2007-06-30,315300.0
2007-05-31,313500.0
2007-04-30,311300.0
2007-03-31,308300.0
2007-02-28,305500.0
2007-01-31,303000.0
2006-12-31,300000.0
2006-11-30,295600.0
2006-10-31,291600.0
2006-09-30,288200.0
2006-08-31,285700.0
2006-07-31,283400.0
2006-06-30,280600.0
2006-05-31,273800.0
2006-04-30,264800.0
2006-03-31,257600.0
2006-02-28,252800.0
2006-01-31,248200.0
2005-12-31,243800.0
2005-11-30,239500.0
2005-10-31,235000.0
2005-09-30,230800.0
2005-08-31,227400.0
2005-07-31,224300.0
2005-06-30,221900.0
2005-05-31,219800.0
2005-04-30,217100.0
2005-03-31,214100.0
2005-02-28,211700.0
2005-01-31,210200.0
2004-12-31,209900.0
2004-11-30,210200.0
2004-10-31,210600.0
2004-09-30,209800.0
2004-08-31,207400.0
2004-07-31,203100.0
2004-06-30,199400.0
2004-05-31,197100.0
2004-04-30,196100.0
2004-03-31,195300.0
2004-02-29,194700.0
2004-01-31,193600.0
2003-12-31,192000.0
2003-11-30,191000.0
2003-10-31,190600.0
2003-09-30,190200.0
2003-08-31,189900.0
2003-07-31,190100.0
2003-06-30,190800.0
2003-05-31,191900.0
2003-04-30,192800.0
2003-03-31,192800.0
2003-02-28,192500.0
2003-01-31,191700.0
2002-12-31,189900.0
2002-11-30,188300.0
2002-10-31,187600.0
2002-09-30,187000.0
2002-08-31,186600.0
2002-07-31,186000.0
2002-06-30,184900.0
2002-05-31,183500.0
2002-04-30,182700.0
2002-03-31,182500.0
2002-02-28,182200.0
2002-01-31,182000.0
2001-12-31,182600.0
2001-11-30,182100.0
2001-10-31,179700.0
2001-09-30,178100.0
2001-08-31,177900.0
2001-07-31,177500.0
2001-06-30,176900.0
2001-05-31,177700.0
2001-04-30,178500.0
2001-03-31,178600.0
2001-02-28,178500.0
2001-01-31,178200.0
2000-12-31,177000.0
2000-11-30,175600.0
2000-10-31,175400.0
2000-09-30,175600.0
2000-08-31,175100.0
2000-07-31,174400.0
2000-06-30,173300.0
2000-05-31,171600.0
2000-04-30,170200.0
2000-03-31,169000.0
2000-02-29,166700.0
2000-01-31,164400.0
1999-12-31,163600.0
1999-11-30,163600.0
1999-10-31,161800.0
1999-09-30,160200.0
1999-08-31,160300.0
1999-07-31,160400.0
1999-06-30,158600.0
1999-05-31,157200.0
1999-04-30,155900.0
1999-03-31,155000.0
1999-02-28,154100.0
1999-01-31,153100.0
1998-12-31,150600.0
1998-11-30,148100.0
1998-10-31,147000.0
1998-09-30,146200.0
1998-08-31,144300.0
1998-07-31,143500.0
1998-06-30,143900.0
1998-05-31,143100.0
1998-04-30,141200.0
1998-03-31,139700.0
1998-02-28,138800.0
1998-01-31,137600.0
1997-12-31,136200.0
1997-11-30,135200.0
1997-10-31,134500.0
1997-09-30,133100.0
1997-08-31,131500.0
1997-07-31,130400.0
1997-06-30,129600.0
1997-05-31,128900.0
1997-04-30,127900.0
1997-03-31,126700.0
1997-02-28,125400.0
1997-01-31,125000.0
1996-12-31,125200.0
1996-11-30,124800.0
1996-10-31,124400.0
1996-09-30,123600.0
1996-08-31,122300.0
1996-07-31,121500.0
1996-06-30,120900.0
1996-05-31,120300.0
1996-04-30,120800.0
