Date,Value
2015-02-28,248000.0
2015-01-31,284000.0
2014-12-31,284000.0
2014-11-30,269000.0
2014-10-31,279900.0
2014-09-30,259000.0
2014-08-31,258000.0
2014-07-31,225000.0
2014-06-30,225000.0
2014-05-31,229900.0
2014-04-30,215000.0
2014-03-31,212500.0
2014-01-31,212500.0
2013-12-31,215000.0
2013-11-30,224900.0
2013-10-31,222000.0
2013-09-30,225000.0
2013-08-31,220000.0
2013-07-31,224900.0
2013-06-30,219900.0
2013-05-31,224900.0
2013-04-30,225000.0
2013-03-31,235000.0
2013-02-28,229000.0
2013-01-31,225000.0
2012-12-31,225000.0
2012-11-30,259000.0
2012-10-31,250000.0
2012-09-30,239900.0
2012-08-31,259000.0
2012-07-31,259000.0
2012-06-30,259000.0
2012-05-31,259900.0
2012-04-30,259000.0
2012-03-31,175000.0
2012-02-29,175000.0
2012-01-31,238000.0
2011-12-31,259000.0
2011-11-30,259000.0
2011-10-31,259000.0
2011-09-30,249900.0
2011-08-31,259000.0
2011-07-31,259000.0
2011-06-30,259000.0
2011-05-31,259000.0
2011-04-30,259000.0
2011-03-31,270000.0
2011-02-28,289000.0
2011-01-31,289000.0
2010-12-31,229900.0
2010-11-30,220000.0
2010-10-31,229900.0
2010-09-30,289000.0
2010-08-31,254900.0
2010-07-31,289000.0
2010-06-30,274900.0
2010-05-31,254900.0
2010-04-30,254900.0
2010-03-31,254900.0
2010-02-28,254900.0
2010-01-31,289900.0
2009-12-31,289900.0
2009-11-30,275000.0
2009-10-31,284000.0
2009-09-30,278500.0
2009-08-31,278500.0
2009-07-31,299000.0
2009-06-30,320000.0
2009-05-31,320000.0
2009-04-30,325000.0
2009-03-31,369000.0
2009-02-28,369000.0
2009-01-31,369000.0
2008-12-31,450000.0
2008-11-30,417000.0
2008-10-31,412050.0
