Date,Value
2015-08-31,147215.0
2015-07-31,150235.0
2015-06-30,162340.0
2015-03-31,160000.0
2014-12-31,189230.7692
2014-10-31,155600.0
2014-09-30,155692.0
2014-08-31,134398.0
2014-07-31,141215.0
2014-06-30,154052.0
2014-05-31,143588.0
2014-04-30,127252.9412
2014-03-31,114500.0
2013-10-31,146278.0
2013-09-30,130777.5
2013-08-31,130745.25
2013-07-31,128822.25
2013-06-30,130417.5
2013-05-31,139600.0
2013-04-30,147882.3529
2013-03-31,163292.3077
2013-01-31,158417.6471
2012-10-31,129000.0
2012-08-31,114446.4118
2012-07-31,127000.0
2012-04-30,167000.0
2011-11-30,129939.25
2011-10-31,136027.5
2011-09-30,124117.6471
2011-08-31,114153.8462
2011-06-30,125046.1538
2011-04-30,116352.9412
2011-03-31,118000.0
2010-11-30,129823.5294
2010-10-31,117307.6923
2010-08-31,128075.0
2010-07-31,152625.0
2010-06-30,162385.0
2010-05-31,156100.0
2010-04-30,158723.5294
2010-03-31,138000.0
2010-01-31,151350.0
2009-12-31,142875.0
2009-11-30,153264.7059
2009-10-31,162692.3077
2009-08-31,148250.0
2009-07-31,159411.7647
2009-06-30,180000.0
2009-03-31,165000.0
2008-12-31,161175.0
2008-11-30,173400.0
2008-10-31,179030.0
2008-09-30,175220.0
2008-08-31,164050.0
2008-07-31,190000.0
2008-06-30,181153.8462
2008-04-30,182529.4118
2008-03-31,169423.0769
2008-01-31,162400.0
2007-12-31,185500.0
2007-11-30,176250.0
2007-10-31,188250.0
2007-09-30,178550.0
2007-08-31,183800.0
2007-07-31,187400.0
2007-06-30,185507.5
2007-05-31,181967.5
2007-04-30,176425.0
2007-03-31,170400.0
2007-02-28,153080.0
2007-01-31,157020.0
2006-12-31,168600.0
2006-11-30,180000.0
2006-10-31,177750.0
2006-09-30,175650.0
2006-08-31,170100.0
2006-07-31,170250.0
2006-06-30,154950.0
2006-05-31,156049.1
2006-04-30,146347.9
2006-03-31,142397.0
2006-02-28,138905.0
2006-01-31,137295.0
2005-12-31,144650.0
2005-11-30,145225.0
2005-10-31,141075.0
2005-09-30,143550.0
2005-08-31,143900.0
2005-07-31,141021.5
2005-06-30,123183.5
2005-05-31,126005.0
2005-04-30,134180.0
2005-03-31,127520.0
2005-02-28,118400.0
2005-01-31,133035.0
2004-12-31,132200.0
2004-11-30,132540.0
2004-10-31,127270.0
2004-09-30,117180.0
2004-08-31,125550.0
2004-07-31,116375.0
2004-06-30,112826.4
2004-05-31,104746.6
2004-04-30,119403.0
2004-03-31,113300.0
2004-02-29,101090.0
2003-12-31,123750.0
2003-11-30,122735.0
2003-10-31,119015.0
2003-09-30,120650.0
2003-08-31,108900.0
2003-07-31,94514.0
2003-06-30,96041.0
2003-05-31,93390.0
2003-04-30,92881.55
2003-03-31,96671.95
2003-02-28,106238.5
2003-01-31,114300.0
2002-12-31,117500.0
2002-11-30,113700.0
2002-10-31,112575.0
2002-09-30,104575.0
2002-08-31,105850.0
2002-07-31,99275.0
2002-06-30,94925.0
2002-05-31,100600.0
2002-04-30,99725.0
2002-03-31,92225.0
2002-02-28,86250.0
2002-01-31,93935.0
2001-12-31,105265.0
2001-11-30,99550.0
2001-10-31,94375.0
2001-09-30,89665.0
2001-08-31,82160.0
2001-07-31,86870.0
2001-06-30,92640.6
2001-05-31,86191.4
2001-04-30,75252.0
2001-03-31,79764.7059
2001-02-28,87092.3077
2000-12-31,103700.0
2000-11-30,93225.0
2000-10-31,97525.0
2000-09-30,100300.0
2000-08-31,88125.0
2000-07-31,88225.0
2000-06-30,93800.0
2000-05-31,99100.0
2000-03-31,70846.1538
2000-01-31,74250.0
1999-12-31,81200.0
1999-11-30,82875.0
1999-10-31,79775.0
1999-09-30,91850.0
1999-08-31,100550.0
1999-07-31,95575.0
1999-06-30,98970.5882
1999-05-31,82307.6923
1999-03-31,65000.0
1998-09-30,84735.2941
1998-08-31,81500.0
