Date,Value
2015-09-30,287200.0
2015-08-31,285500.0
2015-07-31,285000.0
2015-06-30,284600.0
2015-05-31,283100.0
2015-04-30,280100.0
2015-03-31,279600.0
2015-02-28,278400.0
2015-01-31,276900.0
2014-12-31,275400.0
2014-11-30,273600.0
2014-10-31,271400.0
2014-09-30,270700.0
2014-08-31,270600.0
2014-07-31,270500.0
2014-06-30,270500.0
2014-05-31,270700.0
2014-04-30,270400.0
2014-03-31,269400.0
2014-02-28,268500.0
2014-01-31,266900.0
2013-12-31,264700.0
2013-11-30,263500.0
2013-10-31,263300.0
2013-09-30,261800.0
2013-08-31,258600.0
2013-07-31,255400.0
2013-06-30,252400.0
2013-05-31,249300.0
2013-04-30,246400.0
2013-03-31,244400.0
2013-02-28,242600.0
2013-01-31,241100.0
2012-12-31,239500.0
2012-11-30,237700.0
2012-10-31,235800.0
2012-09-30,234200.0
2012-08-31,232500.0
2012-07-31,230900.0
2012-06-30,230500.0
2012-05-31,230700.0
2012-04-30,230800.0
2012-03-31,230300.0
2012-02-29,230100.0
2012-01-31,230200.0
2011-12-31,231000.0
2011-11-30,231900.0
2011-10-31,233200.0
2011-09-30,235600.0
2011-08-31,238800.0
2011-07-31,241300.0
2011-06-30,242900.0
2011-05-31,244800.0
2011-04-30,246100.0
2011-03-31,247200.0
2011-02-28,248700.0
2011-01-31,250800.0
2010-12-31,252500.0
2010-11-30,254000.0
2010-10-31,255500.0
2010-09-30,257100.0
2010-08-31,259200.0
2010-07-31,261000.0
2010-06-30,261700.0
2010-05-31,261600.0
2010-04-30,262000.0
2010-03-31,262900.0
2010-02-28,263900.0
2010-01-31,264400.0
2009-12-31,265100.0
2009-11-30,265800.0
2009-10-31,266100.0
2009-09-30,265600.0
2009-08-31,265100.0
2009-07-31,266100.0
2009-06-30,268400.0
2009-05-31,270900.0
2009-04-30,273700.0
2009-03-31,277100.0
2009-02-28,279900.0
2009-01-31,282100.0
2008-12-31,284600.0
2008-11-30,288200.0
2008-10-31,291500.0
2008-09-30,293500.0
2008-08-31,294900.0
2008-07-31,297000.0
2008-06-30,298400.0
2008-05-31,299300.0
2008-04-30,299700.0
2008-03-31,300400.0
2008-02-29,301300.0
2008-01-31,303300.0
2007-12-31,305900.0
2007-11-30,307900.0
2007-10-31,310000.0
2007-09-30,312400.0
2007-08-31,314400.0
2007-07-31,315900.0
2007-06-30,317200.0
2007-05-31,318300.0
2007-04-30,319000.0
2007-03-31,318900.0
2007-02-28,318700.0
2007-01-31,317400.0
2006-12-31,315400.0
2006-11-30,313300.0
2006-10-31,311200.0
2006-09-30,309100.0
2006-08-31,307100.0
2006-07-31,304800.0
2006-06-30,302800.0
2006-05-31,301600.0
2006-04-30,300300.0
2006-03-31,298900.0
2006-02-28,297300.0
2006-01-31,295300.0
2005-12-31,292400.0
2005-11-30,289300.0
2005-10-31,286300.0
2005-09-30,283200.0
2005-08-31,279200.0
2005-07-31,274800.0
2005-06-30,270800.0
2005-05-31,266600.0
2005-04-30,262300.0
2005-03-31,258000.0
2005-02-28,254700.0
2005-01-31,251900.0
2004-12-31,248700.0
2004-11-30,244700.0
2004-10-31,240800.0
2004-09-30,237900.0
2004-08-31,235400.0
2004-07-31,231800.0
2004-06-30,227600.0
2004-05-31,223700.0
2004-04-30,220000.0
2004-03-31,216700.0
2004-02-29,214100.0
2004-01-31,212200.0
2003-12-31,211400.0
2003-11-30,210900.0
2003-10-31,209700.0
2003-09-30,208100.0
2003-08-31,207400.0
2003-07-31,206600.0
2003-06-30,204500.0
2003-05-31,201900.0
2003-04-30,199700.0
2003-03-31,197500.0
2003-02-28,194900.0
2003-01-31,192700.0
2002-12-31,191400.0
2002-11-30,190400.0
2002-10-31,189800.0
2002-09-30,189800.0
2002-08-31,190200.0
2002-07-31,191200.0
2002-06-30,193300.0
2002-05-31,195900.0
2002-04-30,198800.0
2002-03-31,201000.0
2002-02-28,201700.0
2002-01-31,201400.0
2001-12-31,200800.0
2001-11-30,200000.0
2001-10-31,198800.0
2001-09-30,196900.0
2001-08-31,195000.0
2001-07-31,193600.0
2001-06-30,192800.0
2001-05-31,192100.0
2001-04-30,191400.0
2001-03-31,190500.0
2001-02-28,189600.0
2001-01-31,188700.0
2000-12-31,187400.0
2000-11-30,186900.0
2000-10-31,187800.0
2000-09-30,188600.0
2000-08-31,187800.0
2000-07-31,186600.0
2000-06-30,185300.0
2000-05-31,183800.0
2000-04-30,182100.0
2000-03-31,180600.0
2000-02-29,179600.0
2000-01-31,178500.0
1999-12-31,176900.0
1999-11-30,175000.0
1999-10-31,172800.0
1999-09-30,171000.0
1999-08-31,170200.0
1999-07-31,169600.0
1999-06-30,168700.0
1999-05-31,168200.0
1999-04-30,167700.0
1999-03-31,167000.0
1999-02-28,166200.0
1999-01-31,165400.0
1998-12-31,164900.0
1998-11-30,164500.0
1998-10-31,163900.0
1998-09-30,162900.0
1998-08-31,161300.0
1998-07-31,159800.0
1998-06-30,158500.0
1998-05-31,157100.0
1998-04-30,155700.0
1998-03-31,155100.0
1998-02-28,154700.0
1998-01-31,153700.0
1997-12-31,152400.0
1997-11-30,150800.0
1997-10-31,148800.0
1997-09-30,147100.0
1997-08-31,145800.0
1997-07-31,144600.0
1997-06-30,143600.0
1997-05-31,142500.0
1997-04-30,141000.0
1997-03-31,139800.0
1997-02-28,139000.0
1997-01-31,137900.0
1996-12-31,136900.0
1996-11-30,136000.0
1996-10-31,135400.0
1996-09-30,134800.0
1996-08-31,134400.0
1996-07-31,134300.0
1996-06-30,134400.0
1996-05-31,134300.0
1996-04-30,133900.0
