Date,Value
2015-09-30,298431.0
2015-08-31,282781.0
2015-07-31,299326.0
2015-06-30,270744.75
2015-05-31,271284.75
2015-04-30,272993.5
2015-03-31,287331.0
2015-02-28,267756.0
2015-01-31,248406.0
2014-12-31,282796.0
2014-11-30,282469.25
2014-10-31,284855.25
2014-09-30,270808.5
2014-08-31,272906.0
2014-07-31,267906.0
2014-06-30,276931.0
2014-05-31,300331.0
2014-04-30,309928.0588
2014-03-31,302281.0
2013-12-31,301196.0
2013-11-30,290873.85
2013-10-31,311582.65
2013-09-30,292458.35
2013-08-31,273880.5
2013-07-31,264200.0
2013-06-30,278750.0
2013-05-31,275500.0
2013-01-31,244750.0
2012-12-31,259750.0
2012-11-30,269000.0
2012-10-31,239450.0
2012-09-30,255550.0
2012-08-31,279600.0
2012-07-31,263117.6471
2012-06-30,282076.9231
2012-04-30,250000.0
2012-02-29,231941.1765
2011-10-31,236764.7059
2011-09-30,236307.6923
2011-07-31,267000.0
2011-06-30,260000.0
