Date,Value
2014-05-31,125000.0
2014-01-31,112000.0
2013-12-31,112000.0
2013-11-30,112000.0
2013-10-31,130000.0
2013-09-30,130000.0
2013-08-31,135000.0
2013-07-31,135000.0
2013-06-30,139900.0
2013-05-31,140000.0
2013-04-30,130000.0
2013-03-31,144900.0
2012-12-31,108500.0
2012-11-30,144900.0
2012-10-31,132000.0
2012-09-30,132000.0
2012-08-31,132000.0
2012-06-30,124500.0
2012-05-31,120000.0
2012-04-30,120000.0
2012-01-31,129500.0
2011-12-31,129000.0
2011-11-30,145900.0
2011-10-31,114000.0
2011-09-30,99900.0
2011-08-31,114900.0
2011-07-31,114900.0
2011-06-30,137900.0
2011-05-31,129900.0
2011-04-30,137900.0
2011-03-31,149950.0
2011-02-28,137900.0
2011-01-31,149900.0
2010-12-31,137900.0
2010-11-30,137900.0
2010-10-31,138500.0
2010-09-30,107910.0
2010-08-31,138000.0
2010-07-31,139900.0
2010-06-30,107910.0
2010-05-31,119900.0
2010-04-30,139900.0
2010-03-31,99900.0
2010-01-31,156000.0
2009-12-31,156000.0
2009-11-30,154800.0
2009-10-31,156000.0
2009-09-30,156000.0
2009-08-31,154900.0
