Date,Value
2015-09-30,1.264
2015-08-31,1.264
2015-07-31,1.258
2015-06-30,1.25
2015-05-31,1.238
2015-04-30,1.23
2015-03-31,1.222
2015-02-28,1.214
2015-01-31,1.21
2014-12-31,1.208
2014-11-30,1.208
2014-10-31,1.204
2014-09-30,1.196
2014-08-31,1.19
2014-07-31,1.182
2014-06-30,1.18
2014-05-31,1.174
2014-04-30,1.164
2014-03-31,1.154
2014-02-28,1.144
2014-01-31,1.136
2013-12-31,1.128
2013-11-30,1.116
2013-10-31,1.106
2013-09-30,1.098
2013-08-31,1.09
2013-07-31,1.082
2013-06-30,1.076
2013-05-31,1.074
2013-04-30,1.066
2013-03-31,1.058
2013-02-28,1.052
2013-01-31,1.048
2012-12-31,1.044
2012-11-30,1.038
2012-10-31,1.036
2012-09-30,1.038
2012-08-31,1.038
2012-07-31,1.036
2012-06-30,1.032
2012-05-31,1.026
2012-04-30,1.02
2012-03-31,1.02
2012-02-29,1.024
2012-01-31,1.022
2011-12-31,1.02
2011-11-30,1.018
2011-10-31,1.014
2011-09-30,1.01
2011-08-31,1.008
2011-07-31,1.006
2011-06-30,1.002
2011-05-31,1.0
2011-04-30,1.0
2011-03-31,1.002
2011-02-28,1.0
2011-01-31,0.998
2010-12-31,0.994
2010-11-30,0.992
