Date,Value
2015-09-30,209600.0
2015-08-31,199500.0
2015-07-31,197000.0
2015-06-30,192000.0
2015-05-31,186300.0
2015-04-30,186000.0
2015-03-31,185800.0
2015-02-28,182100.0
2015-01-31,177400.0
2014-12-31,177600.0
2014-11-30,179500.0
2014-10-31,178900.0
2014-09-30,178800.0
2014-08-31,181300.0
2014-07-31,182700.0
2014-06-30,180700.0
2014-05-31,178700.0
2014-04-30,176300.0
2014-03-31,172800.0
2014-02-28,171300.0
2014-01-31,171500.0
2013-12-31,170400.0
2013-11-30,168000.0
2013-10-31,165300.0
2013-09-30,162700.0
2013-08-31,160500.0
2013-07-31,158200.0
2013-06-30,156200.0
2013-05-31,156100.0
2013-04-30,156600.0
2013-03-31,156300.0
2013-02-28,156700.0
2013-01-31,158400.0
2012-12-31,159800.0
2012-11-30,159600.0
2012-10-31,159600.0
2012-09-30,160700.0
2012-08-31,162100.0
2012-07-31,162800.0
2012-06-30,163500.0
2012-05-31,163600.0
2012-04-30,165200.0
2012-03-31,167400.0
2012-02-29,168500.0
2012-01-31,169500.0
2011-12-31,171300.0
2011-11-30,171700.0
2011-10-31,170900.0
2011-09-30,171000.0
2011-08-31,171100.0
2011-07-31,171500.0
2011-06-30,172700.0
2011-05-31,173900.0
2011-04-30,172700.0
2011-03-31,171900.0
2011-02-28,171900.0
2011-01-31,171600.0
2010-12-31,172100.0
2010-11-30,174500.0
2010-10-31,177000.0
2010-09-30,180600.0
2010-08-31,184700.0
2010-07-31,187400.0
2010-06-30,188000.0
2010-05-31,187300.0
2010-04-30,185900.0
2010-03-31,185400.0
2010-02-28,185700.0
2010-01-31,188100.0
2009-12-31,191000.0
2009-11-30,192900.0
2009-10-31,194200.0
2009-09-30,194200.0
2009-08-31,193300.0
2009-07-31,193700.0
2009-06-30,194300.0
2009-05-31,191900.0
2009-04-30,189500.0
2009-03-31,189000.0
2009-02-28,190700.0
2009-01-31,187900.0
2008-12-31,181000.0
2008-11-30,177900.0
2008-10-31,180700.0
2008-09-30,183200.0
2008-08-31,184400.0
2008-07-31,185000.0
2008-06-30,187100.0
2008-05-31,189900.0
2008-04-30,191800.0
2008-03-31,192600.0
2008-02-29,193500.0
2008-01-31,194900.0
2007-12-31,196700.0
2007-11-30,197300.0
2007-10-31,197700.0
2007-09-30,199100.0
2007-08-31,199300.0
2007-07-31,199300.0
2007-06-30,199200.0
2007-05-31,199700.0
2007-04-30,200300.0
2007-03-31,200000.0
2007-02-28,198100.0
2007-01-31,197600.0
2006-12-31,198300.0
2006-11-30,198700.0
2006-10-31,199100.0
2006-09-30,201000.0
2006-08-31,202600.0
2006-07-31,201500.0
2006-06-30,198400.0
2006-05-31,195300.0
2006-04-30,192000.0
2006-03-31,188800.0
2006-02-28,186100.0
