Date,Value
2015-09-30,1.02
2015-08-31,1.012
2015-07-31,1.006
2015-06-30,1.002
2015-05-31,1.006
2015-04-30,1.006
2015-03-31,1.004
2015-02-28,0.998
2015-01-31,0.992
2014-12-31,0.982
2014-11-30,0.974
2014-10-31,0.972
2014-09-30,0.974
2014-08-31,0.972
2014-07-31,0.97
2014-06-30,0.964
2014-05-31,0.964
2014-04-30,0.96
2014-03-31,0.958
2014-02-28,0.956
2014-01-31,0.952
2013-12-31,0.946
2013-11-30,0.942
2013-10-31,0.938
2013-09-30,0.936
2013-08-31,0.932
2013-07-31,0.934
2013-06-30,0.936
2013-05-31,0.94
2013-04-30,0.938
2013-03-31,0.936
2013-02-28,0.932
2013-01-31,0.932
2012-12-31,0.936
2012-11-30,0.94
2012-10-31,0.948
2012-09-30,0.95
2012-08-31,0.95
2012-07-31,0.944
2012-06-30,0.938
2012-05-31,0.926
2012-04-30,0.918
2012-03-31,0.912
2012-02-29,0.916
2012-01-31,0.918
2011-12-31,0.918
2011-11-30,0.912
2011-10-31,0.904
2011-09-30,0.896
2011-08-31,0.892
2011-07-31,0.89
2011-06-30,0.892
2011-05-31,0.894
2011-04-30,0.894
2011-03-31,0.894
2011-02-28,0.89
2011-01-31,0.888
2010-12-31,0.886
2010-11-30,0.888
