Date,Value
2015-02-28,285000.0
2015-01-31,285000.0
2014-12-31,289900.0
2014-11-30,298900.0
2014-10-31,299900.0
2014-09-30,299900.0
2014-08-31,310000.0
2014-07-31,319000.0
2014-06-30,320000.0
2014-05-31,310000.0
2014-04-30,307900.0
2014-03-31,299990.0
2014-02-28,279000.0
2014-01-31,279500.0
2013-12-31,284900.0
2013-11-30,289000.0
2013-10-31,289000.0
2013-09-30,299500.0
2013-08-31,294500.0
2013-07-31,299990.0
2013-06-30,279900.0
2013-05-31,284900.0
2013-04-30,265000.0
2013-03-31,255000.0
2013-02-28,249000.0
2013-01-31,265000.0
2012-12-31,265000.0
2012-11-30,269900.0
2012-10-31,249000.0
2012-09-30,235000.0
2012-08-31,250000.0
2012-07-31,255000.0
2012-06-30,257207.0
2012-05-31,239000.0
2012-04-30,250000.0
2012-03-31,243000.0
2012-02-29,242800.0
2012-01-31,245000.0
2011-12-31,245000.0
2011-11-30,249000.0
2011-10-31,249000.0
2011-09-30,249900.0
2011-08-31,249900.0
2011-07-31,245000.0
2011-06-30,253000.0
2011-05-31,256000.0
2011-04-30,255000.0
2011-03-31,255000.0
2011-02-28,250000.0
2011-01-31,247000.0
2010-12-31,247000.0
2010-11-30,249900.0
2010-10-31,255000.0
2010-09-30,255000.0
2010-08-31,254900.0
2010-07-31,267500.0
2010-06-30,269900.0
2010-05-31,254900.0
2010-04-30,269500.0
2010-03-31,275000.0
2010-02-28,292500.0
2010-01-31,289900.0
2009-12-31,292500.0
2009-11-30,289900.0
2009-10-31,295000.0
2009-09-30,300000.0
2009-08-31,299000.0
2009-07-31,299900.0
2009-06-30,299900.0
2009-05-31,304900.0
2009-04-30,289525.0
2009-03-31,292500.0
2009-02-28,304900.0
2009-01-31,309000.0
2008-12-31,299500.0
2008-11-30,318500.0
2008-10-31,324000.0
