Date,Value
2015-02-28,319000.0
2015-01-31,311900.0
2014-12-31,311950.0
2014-11-30,312000.0
2014-10-31,299900.0
2014-09-30,299999.0
2014-08-31,299950.0
2014-07-31,289995.0
2014-06-30,299950.0
2014-05-31,298000.0
2014-04-30,285900.0
2014-03-31,285000.0
2014-02-28,279900.0
2014-01-31,274995.0
2013-12-31,280900.0
2013-11-30,275330.0
2013-10-31,289995.0
2013-09-30,287900.0
2013-08-31,290000.0
2013-07-31,289995.0
2013-06-30,292900.0
2013-05-31,290900.0
2013-04-30,289900.0
2013-03-31,278900.0
2013-02-28,277995.0
2013-01-31,269995.0
2012-12-31,268500.0
2012-11-30,268900.0
2012-10-31,268500.0
2012-09-30,258500.0
2012-08-31,253995.0
2012-07-31,249995.0
2012-06-30,249900.0
2012-05-31,249990.0
2012-04-30,258500.0
2012-03-31,251995.0
2012-02-29,259995.0
2012-01-31,274500.0
2011-12-31,249900.0
2011-11-30,249000.0
2011-10-31,255000.0
2011-09-30,258900.0
2011-08-31,269000.0
2011-07-31,279900.0
2011-06-30,259000.0
2011-05-31,280650.0
2011-04-30,278000.0
2011-03-31,271990.0
2011-02-28,266900.0
2011-01-31,270000.0
2010-12-31,275000.0
2010-11-30,280000.0
2010-10-31,289000.0
2010-09-30,280000.0
2010-08-31,275000.0
2010-07-31,279900.0
2010-06-30,271990.0
2010-05-31,285950.0
2010-04-30,275000.0
2010-03-31,272500.0
2010-02-28,269900.0
2010-01-31,284950.0
2009-12-31,287000.0
2009-11-30,294950.0
2009-10-31,289000.0
2009-09-30,313000.0
2009-08-31,295950.0
2009-07-31,294900.0
2009-06-30,291950.0
2009-05-31,314900.0
2009-04-30,299900.0
2009-03-31,313000.0
2009-02-28,314900.0
2009-01-31,309000.0
2008-12-31,299000.0
2008-11-30,294950.0
2008-10-31,310000.0
