Date,Value
2015-09-30,223461.5385
2015-07-31,239117.6471
2015-06-30,238307.6923
2015-04-30,216000.0
2014-09-30,203384.6154
2014-07-31,215000.0
2013-07-31,227000.0
2011-06-30,227000.0
2010-04-30,215000.0
2009-11-30,198000.0
2008-09-30,227920.5882
2008-08-31,234950.0
2008-05-31,251920.3077
2008-03-31,249988.0
2007-10-31,276615.3846
2007-08-31,271410.0
2007-07-31,261765.0
2007-06-30,259400.0
2007-05-31,265042.0
2007-04-30,262283.0
2007-03-31,282905.0
2007-02-28,294200.0
2007-01-31,267800.0
2006-12-31,235985.0
2006-11-30,237340.0
2006-10-31,239767.5
2006-09-30,243267.0
2006-08-31,239805.5
2006-07-31,231316.65
2006-06-30,237828.85
2006-05-31,264862.35
2006-04-30,260292.65
2006-03-31,241404.5
2006-02-28,259700.0
2006-01-31,248848.9
2005-12-31,241314.1
2005-11-30,248215.5
2005-10-31,225722.5
2005-09-30,215817.5
2005-08-31,216725.0
2005-07-31,215957.5
2005-06-30,215925.0
2005-05-31,201650.0
2005-04-30,188650.0
2005-03-31,189411.7647
2005-02-28,190000.0
2004-11-30,169615.3846
2004-09-30,170275.0
2004-08-31,169431.25
2004-07-31,168939.2
2004-06-30,157646.05
2004-05-31,161544.0
2004-04-30,158762.5
2004-03-31,158935.2941
2004-02-29,153200.0
2003-10-31,153625.0
2003-09-30,158950.0
2003-08-31,154100.0
2003-07-31,150325.0
2003-06-30,155334.35
2003-05-31,159976.6471
2003-04-30,158478.2308
2003-02-28,138595.0
2003-01-31,137575.0
2002-10-31,138842.5
2002-09-30,137582.5
2002-08-31,135475.0
2002-07-31,138760.0
2002-06-30,132390.0
2002-05-31,130000.0
2002-04-30,127823.5294
2002-03-31,129000.0
2001-09-30,129967.0
2001-08-31,132137.0
2001-07-31,129707.8
2001-06-30,129750.75
2001-05-31,127635.2353
2001-04-30,123497.0
2000-10-31,132000.0
2000-06-30,139000.0
2000-03-31,119100.0
1999-05-31,117500.0
1998-07-31,112612.9412
1998-06-30,112250.0
