Date,Value
2015-09-30,472800.0
2015-08-31,465900.0
2015-07-31,458900.0
2015-06-30,459000.0
2015-05-31,453300.0
2015-04-30,444300.0
2015-03-31,439500.0
2015-02-28,436300.0
2015-01-31,434500.0
2014-12-31,431200.0
2014-11-30,427900.0
2014-10-31,424600.0
2014-09-30,421500.0
2014-08-31,418800.0
2014-07-31,417100.0
2014-06-30,417400.0
2014-05-31,418000.0
2014-04-30,416800.0
2014-03-31,413000.0
2014-02-28,408800.0
2014-01-31,405200.0
2013-12-31,401500.0
2013-11-30,398700.0
2013-10-31,397000.0
2013-09-30,394500.0
2013-08-31,388800.0
2013-07-31,380200.0
2013-06-30,369700.0
2013-05-31,359800.0
2013-04-30,351000.0
2013-03-31,343600.0
2013-02-28,337900.0
2013-01-31,334800.0
2012-12-31,334400.0
2012-11-30,334600.0
2012-10-31,334500.0
2012-09-30,335200.0
2012-08-31,335100.0
2012-07-31,333200.0
2012-06-30,329900.0
2012-05-31,325500.0
2012-04-30,322300.0
2012-03-31,321300.0
2012-02-29,320800.0
2012-01-31,320400.0
2011-12-31,321200.0
2011-11-30,321600.0
2011-10-31,322000.0
2011-09-30,323200.0
2011-08-31,325400.0
2011-07-31,328000.0
2011-06-30,330800.0
2011-05-31,334300.0
2011-04-30,339000.0
2011-03-31,343500.0
2011-02-28,347800.0
2011-01-31,350900.0
2010-12-31,352700.0
2010-11-30,353400.0
2010-10-31,355000.0
2010-09-30,357100.0
2010-08-31,359400.0
2010-07-31,363000.0
2010-06-30,368000.0
2010-05-31,372500.0
2010-04-30,376400.0
2010-03-31,381000.0
2010-02-28,383400.0
2010-01-31,383300.0
2009-12-31,382700.0
2009-11-30,381600.0
2009-10-31,379400.0
2009-09-30,379600.0
2009-08-31,382800.0
2009-07-31,386100.0
2009-06-30,389200.0
2009-05-31,393300.0
2009-04-30,398300.0
2009-03-31,402400.0
2009-02-28,405900.0
2009-01-31,408500.0
2008-12-31,411200.0
2008-11-30,415500.0
2008-10-31,419700.0
2008-09-30,420900.0
2008-08-31,421500.0
2008-07-31,424000.0
2008-06-30,426500.0
2008-05-31,429400.0
2008-04-30,433300.0
2008-03-31,437100.0
2008-02-29,440600.0
2008-01-31,444700.0
2007-12-31,449500.0
2007-11-30,454500.0
2007-10-31,458600.0
2007-09-30,461200.0
2007-08-31,464300.0
2007-07-31,467400.0
2007-06-30,469900.0
2007-05-31,469600.0
2007-04-30,466500.0
2007-03-31,462400.0
2007-02-28,459500.0
2007-01-31,457500.0
2006-12-31,455700.0
2006-11-30,452800.0
2006-10-31,450300.0
2006-09-30,448500.0
2006-08-31,445100.0
2006-07-31,439600.0
2006-06-30,432900.0
2006-05-31,424700.0
2006-04-30,416100.0
2006-03-31,409900.0
2006-02-28,405700.0
2006-01-31,401700.0
2005-12-31,397600.0
2005-11-30,395000.0
2005-10-31,392100.0
2005-09-30,387500.0
2005-08-31,380500.0
2005-07-31,372800.0
2005-06-30,366000.0
2005-05-31,361300.0
2005-04-30,358000.0
2005-03-31,355200.0
2005-02-28,352900.0
2005-01-31,350400.0
2004-12-31,345600.0
2004-11-30,338900.0
2004-10-31,333500.0
2004-09-30,330200.0
2004-08-31,328300.0
2004-07-31,327000.0
2004-06-30,326600.0
2004-05-31,326100.0
2004-04-30,325400.0
2004-03-31,323600.0
2004-02-29,319900.0
2004-01-31,315700.0
2003-12-31,312900.0
2003-11-30,311100.0
2003-10-31,309600.0
2003-09-30,307700.0
2003-08-31,306200.0
2003-07-31,305400.0
2003-06-30,304800.0
2003-05-31,304600.0
2003-04-30,303700.0
2003-03-31,301500.0
2003-02-28,299000.0
2003-01-31,297200.0
2002-12-31,295400.0
2002-11-30,293200.0
2002-10-31,290500.0
2002-09-30,288100.0
2002-08-31,287100.0
2002-07-31,286200.0
2002-06-30,285100.0
2002-05-31,283400.0
2002-04-30,281900.0
2002-03-31,281100.0
2002-02-28,281400.0
2002-01-31,281800.0
2001-12-31,282500.0
2001-11-30,283100.0
2001-10-31,283300.0
2001-09-30,283500.0
2001-08-31,282500.0
2001-07-31,280700.0
2001-06-30,279000.0
2001-05-31,277800.0
2001-04-30,276300.0
2001-03-31,274600.0
2001-02-28,272500.0
2001-01-31,271100.0
2000-12-31,270300.0
2000-11-30,270000.0
2000-10-31,269400.0
2000-09-30,269000.0
2000-08-31,268500.0
2000-07-31,267300.0
2000-06-30,265600.0
2000-05-31,264200.0
2000-04-30,263500.0
2000-03-31,263000.0
2000-02-29,261700.0
2000-01-31,259900.0
1999-12-31,258800.0
1999-11-30,258400.0
1999-10-31,256900.0
1999-09-30,254800.0
1999-08-31,253900.0
1999-07-31,253100.0
1999-06-30,250400.0
1999-05-31,246700.0
1999-04-30,243800.0
1999-03-31,241300.0
1999-02-28,239600.0
1999-01-31,238500.0
1998-12-31,237400.0
1998-11-30,236700.0
1998-10-31,236200.0
1998-09-30,235000.0
1998-08-31,232500.0
1998-07-31,229800.0
1998-06-30,227700.0
1998-05-31,226400.0
1998-04-30,225100.0
1998-03-31,223600.0
1998-02-28,222000.0
1998-01-31,219900.0
1997-12-31,216300.0
1997-11-30,212100.0
1997-10-31,209400.0
1997-09-30,207800.0
1997-08-31,205600.0
1997-07-31,204200.0
1997-06-30,204200.0
1997-05-31,203900.0
1997-04-30,202500.0
1997-03-31,200700.0
1997-02-28,199700.0
1997-01-31,199500.0
1996-12-31,198800.0
1996-11-30,197300.0
1996-10-31,196100.0
1996-09-30,195500.0
1996-08-31,195400.0
1996-07-31,196200.0
1996-06-30,197200.0
1996-05-31,198600.0
1996-04-30,200100.0
