Date,Value
2015-02-28,159950.0
2015-01-31,155000.0
2014-12-31,149900.0
2014-11-30,149500.0
2014-10-31,157500.0
2014-09-30,144900.0
2014-08-31,152999.0
2014-07-31,153900.0
2014-06-30,150000.0
2014-05-31,149950.0
2014-04-30,144999.0
2014-03-31,145000.0
2014-02-28,140000.0
2014-01-31,140000.0
2013-12-31,137800.0
2013-11-30,140000.0
2013-10-31,149900.0
2013-09-30,154900.0
2013-08-31,150000.0
2013-07-31,150000.0
2013-06-30,150000.0
2013-05-31,148000.0
2013-04-30,147000.0
2013-03-31,149900.0
2013-02-28,139950.0
2013-01-31,132000.0
2012-12-31,139000.0
2012-11-30,145000.0
2012-10-31,139000.0
2012-09-30,127000.0
2012-08-31,127000.0
2012-07-31,135000.0
2012-06-30,139500.0
2012-05-31,139500.0
2012-04-30,135000.0
2012-03-31,135000.0
2012-02-29,137000.0
2012-01-31,137000.0
2011-12-31,128200.0
2011-11-30,130000.0
2011-10-31,135000.0
2011-09-30,140000.0
2011-08-31,149950.0
2011-07-31,145000.0
2011-06-30,149000.0
2011-05-31,145000.0
2011-04-30,149950.0
2011-03-31,159000.0
2011-02-28,159900.0
2011-01-31,159900.0
2010-12-31,159900.0
2010-11-30,159950.0
2010-10-31,165000.0
2010-09-30,170000.0
2010-08-31,170000.0
2010-07-31,174500.0
2010-06-30,179000.0
2010-05-31,174500.0
2010-04-30,175000.0
2010-03-31,179000.0
2010-02-28,185000.0
2010-01-31,179950.0
2009-12-31,178000.0
2009-11-30,179900.0
2009-10-31,195000.0
2009-09-30,195000.0
2009-08-31,189900.0
2009-07-31,199500.0
2009-06-30,199500.0
2009-05-31,199000.0
2009-04-30,189900.0
2009-03-31,197500.0
2009-02-28,185000.0
2009-01-31,198000.0
2008-12-31,199950.0
2008-11-30,209000.0
2008-10-31,209500.0
