Date,Value
2015-06-30,1781.0
2015-05-31,1902.0
2015-04-30,1850.0
2015-03-31,1950.0
2015-02-28,1720.0
2015-01-31,1682.0
2014-12-31,1700.0
2014-11-30,1650.0
2014-10-31,1743.0
2014-09-30,1778.0
2014-08-31,1995.0
2014-07-31,1913.0
2014-06-30,1985.0
2014-05-31,1866.0
2014-04-30,1700.0
2014-03-31,1750.0
2014-02-28,1700.0
2014-01-31,1583.0
2013-12-31,1495.0
2013-11-30,1520.0
2013-10-31,1593.0
2013-09-30,1600.0
2013-08-31,1810.0
2013-07-31,1833.0
2013-06-30,1850.0
2013-05-31,1612.0
2013-04-30,1612.0
2013-03-31,1650.0
2013-02-28,1595.0
2013-01-31,1350.0
2012-12-31,1307.0
2012-11-30,1400.0
2012-10-31,1350.0
2012-09-30,1350.0
2012-08-31,1350.0
2012-07-31,1497.0
2012-06-30,1529.0
2012-05-31,1387.0
2012-04-30,1295.0
2012-03-31,1217.0
2012-02-29,1295.0
2012-01-31,1550.0
2011-12-31,1800.0
2011-11-30,1615.0
2011-10-31,1695.0
2011-09-30,1700.0
2011-08-31,1775.0
2011-07-31,1800.0
2011-06-30,1550.0
2011-05-31,1795.0
2011-04-30,1695.0
2011-03-31,1200.0
2011-02-28,1160.0
2011-01-31,1425.0
2010-12-31,1425.0
2010-10-31,1395.0
2010-09-30,1500.0
2010-07-31,1295.0
