Date,Value
2015-09-30,310700.0
2015-08-31,308900.0
2015-07-31,305500.0
2015-06-30,309400.0
2015-05-31,308600.0
2015-04-30,302800.0
2015-03-31,301200.0
2015-02-28,300400.0
2015-01-31,299600.0
2014-12-31,297200.0
2014-11-30,294600.0
2014-10-31,292600.0
2014-09-30,290300.0
2014-08-31,287900.0
2014-07-31,285500.0
2014-06-30,283900.0
2014-05-31,279000.0
2014-04-30,271800.0
2014-03-31,267100.0
2014-02-28,265500.0
2014-01-31,262900.0
2013-12-31,259500.0
2013-11-30,256700.0
2013-10-31,253300.0
2013-09-30,252400.0
2013-08-31,250600.0
2013-07-31,245600.0
2013-06-30,238000.0
2013-05-31,233000.0
2013-04-30,229500.0
2013-03-31,225000.0
2013-02-28,219000.0
2013-01-31,216400.0
2012-12-31,215800.0
2012-11-30,210500.0
2012-10-31,203400.0
2012-09-30,197500.0
2012-08-31,195300.0
2012-07-31,196700.0
2012-06-30,201000.0
2012-05-31,207200.0
2012-04-30,213100.0
2012-03-31,214400.0
2012-02-29,213400.0
2012-01-31,214400.0
2011-12-31,217400.0
2011-11-30,221400.0
2011-10-31,225700.0
2011-09-30,230200.0
2011-08-31,234200.0
2011-07-31,236900.0
2011-06-30,238000.0
2011-05-31,238000.0
2011-04-30,238300.0
2011-03-31,240900.0
2011-02-28,245500.0
2011-01-31,248800.0
2010-12-31,249100.0
2010-11-30,248700.0
2010-10-31,249900.0
2010-09-30,251800.0
2010-08-31,253700.0
2010-07-31,254500.0
2010-06-30,253100.0
2010-05-31,251700.0
2010-04-30,251900.0
2010-03-31,254200.0
2010-02-28,255900.0
2010-01-31,256200.0
2009-12-31,255300.0
2009-11-30,257500.0
2009-10-31,261500.0
2009-09-30,264500.0
2009-08-31,266700.0
2009-07-31,269100.0
2009-06-30,270500.0
2009-05-31,272500.0
2009-04-30,275800.0
2009-03-31,279200.0
2009-02-28,282900.0
2009-01-31,287900.0
2008-12-31,293400.0
2008-11-30,298200.0
2008-10-31,302500.0
2008-09-30,305500.0
2008-08-31,308100.0
2008-07-31,311200.0
2008-06-30,314900.0
2008-05-31,316400.0
2008-04-30,317700.0
2008-03-31,320800.0
2008-02-29,324900.0
2008-01-31,327000.0
2007-12-31,329800.0
2007-11-30,332500.0
2007-10-31,332800.0
2007-09-30,331600.0
2007-08-31,330500.0
2007-07-31,329700.0
2007-06-30,330300.0
2007-05-31,331800.0
2007-04-30,331300.0
2007-03-31,329000.0
2007-02-28,326100.0
2007-01-31,322800.0
2006-12-31,319300.0
2006-11-30,316100.0
2006-10-31,314100.0
2006-09-30,314000.0
2006-08-31,314000.0
2006-07-31,313600.0
2006-06-30,311200.0
2006-05-31,305700.0
2006-04-30,299200.0
2006-03-31,292600.0
2006-02-28,284900.0
2006-01-31,277300.0
2005-12-31,270700.0
2005-11-30,265500.0
2005-10-31,260500.0
2005-09-30,254600.0
2005-08-31,248100.0
2005-07-31,242300.0
2005-06-30,238700.0
2005-05-31,237700.0
2005-04-30,236200.0
2005-03-31,233200.0
2005-02-28,230200.0
2005-01-31,227800.0
2004-12-31,225400.0
2004-11-30,223400.0
2004-10-31,222500.0
2004-09-30,221400.0
2004-08-31,220300.0
2004-07-31,218600.0
2004-06-30,216400.0
2004-05-31,214800.0
2004-04-30,215100.0
2004-03-31,216300.0
2004-02-29,217300.0
2004-01-31,217100.0
2003-12-31,216900.0
2003-11-30,216400.0
2003-10-31,214700.0
2003-09-30,212700.0
2003-08-31,209900.0
2003-07-31,207500.0
2003-06-30,206600.0
2003-05-31,206200.0
2003-04-30,205000.0
2003-03-31,204800.0
2003-02-28,204800.0
2003-01-31,206300.0
2002-12-31,208100.0
2002-11-30,209200.0
2002-10-31,209200.0
2002-09-30,209700.0
2002-08-31,210400.0
2002-07-31,210700.0
2002-06-30,210000.0
2002-05-31,208400.0
2002-04-30,206000.0
2002-03-31,203800.0
2002-02-28,202600.0
2002-01-31,202300.0
2001-12-31,202500.0
2001-11-30,202300.0
2001-10-31,200900.0
2001-09-30,199900.0
2001-08-31,199700.0
2001-07-31,198700.0
2001-06-30,197500.0
2001-05-31,197200.0
2001-04-30,196100.0
2001-03-31,192900.0
2001-02-28,189100.0
2001-01-31,186100.0
2000-12-31,185200.0
2000-11-30,185700.0
2000-10-31,184600.0
2000-09-30,183300.0
2000-08-31,183800.0
2000-07-31,184500.0
2000-06-30,184600.0
2000-05-31,185700.0
2000-04-30,186500.0
2000-03-31,187000.0
2000-02-29,186800.0
2000-01-31,185600.0
1999-12-31,184200.0
1999-11-30,183000.0
1999-10-31,181000.0
1999-09-30,180200.0
1999-08-31,180800.0
1999-07-31,178900.0
1999-06-30,175900.0
1999-05-31,174600.0
1999-04-30,175500.0
1999-03-31,176300.0
1999-02-28,176100.0
1999-01-31,175800.0
1998-12-31,173000.0
1998-11-30,168700.0
1998-10-31,166700.0
1998-09-30,166700.0
1998-08-31,166100.0
1998-07-31,167400.0
1998-06-30,168000.0
1998-05-31,168700.0
1998-04-30,170100.0
1998-03-31,172000.0
1998-02-28,175600.0
1998-01-31,177400.0
1997-12-31,172000.0
1997-11-30,166400.0
1997-10-31,167900.0
1997-09-30,169300.0
1997-08-31,164900.0
