Date,Value
2015-06-30,949.0
2015-03-31,899.0
2015-02-28,899.0
2015-01-31,888.0
2014-12-31,888.0
2014-11-30,950.0
2014-10-31,1000.0
2014-09-30,999.0
2014-08-31,1400.0
2013-04-30,888.0
2013-02-28,888.0
2013-01-31,888.0
2012-12-31,1350.0
