Date,Value
2015-09-30,274690.35
2015-08-31,265369.15
2015-07-31,280717.0
2015-06-30,251350.0
2015-05-31,222000.0
2015-04-30,208000.0
2015-03-31,206700.0
2015-02-28,210941.1765
2015-01-31,212169.2308
2014-11-30,260457.7
2014-10-31,256511.0
2014-09-30,241892.5
2014-08-31,236682.5
2014-07-31,232125.0
2014-06-30,229050.0
2014-05-31,224085.0
2014-04-30,204076.4706
2014-03-31,238807.6923
2014-01-31,263764.7059
2013-12-31,251923.0769
2013-10-31,244692.3077
2013-08-31,247000.0
2013-07-31,217300.0
2013-05-31,268757.6923
2013-03-31,295582.5
2013-02-28,257425.0
2013-01-31,206200.0
2012-12-31,225200.0
2012-11-30,250352.9412
2012-10-31,215846.1538
2012-08-31,236350.0
2012-07-31,228352.9412
2012-06-30,217269.2308
2012-04-30,221500.0
2011-10-31,233384.6154
2011-08-31,232250.0
2011-07-31,234705.8824
2011-06-30,220000.0
2011-02-28,198438.4615
2010-12-31,229153.8462
2010-10-31,210000.0
2010-08-31,216900.0
2010-06-30,221415.0
2010-05-31,209647.0588
2010-04-30,245000.0
2009-11-30,279250.0
2009-10-31,295375.0
2009-09-30,249975.0
2009-08-31,269950.0
2009-07-31,269550.0
2009-06-30,271985.0
2009-05-31,286900.0
2009-04-30,233900.0
2008-12-31,268153.8462
2008-10-31,259450.0
2008-09-30,258550.0
2008-08-31,256250.0
2008-07-31,264144.35
2008-06-30,240370.15
2008-05-31,235439.5
2008-04-30,241125.0
2008-03-31,240058.8235
2008-02-29,221692.3077
2007-12-31,253800.0
2007-11-30,268700.0
2007-10-31,258025.0
2007-09-30,270617.5
2007-08-31,270082.5
2007-07-31,258475.0
2007-06-30,248500.0
2007-05-31,254850.0
2007-04-30,245042.0
2007-03-31,236762.3529
2007-02-28,233305.2308
2006-12-31,268178.0
2006-11-30,253750.0
2006-10-31,249300.0
2006-09-30,258575.0
2006-08-31,275425.0
2006-07-31,289889.9
2006-06-30,273993.1
2006-05-31,273433.0
2006-04-30,246090.0
2006-03-31,235110.0
2006-02-28,248050.0
2006-01-31,251735.0
2005-12-31,252450.0
2005-11-30,247665.0
2005-10-31,242435.0
2005-09-30,234992.0
2005-08-31,235763.0
2005-07-31,233090.0
2005-06-30,223585.5
2005-05-31,209099.5
2005-04-30,208635.0
2005-03-31,209900.0
2005-02-28,191050.0
2005-01-31,187800.0
2004-12-31,187425.0
2004-11-30,194075.0
2004-10-31,188075.0
2004-09-30,187525.0
2004-08-31,189217.5
2004-07-31,184892.5
2004-06-30,177397.5
2004-05-31,168517.5
2004-04-30,167125.0
2004-03-31,166647.0588
2004-02-29,170269.2308
2003-12-31,163850.0
2003-11-30,155135.0
2003-10-31,160965.0
2003-09-30,172850.0
2003-08-31,175850.0
2003-07-31,171735.0
2003-06-30,170890.0
2003-05-31,155510.0
2003-04-30,153700.0
2003-03-31,158400.0
2003-02-28,160665.0
2003-01-31,156700.0
2002-12-31,157500.0
2002-11-30,152285.0
2002-10-31,147090.0
2002-09-30,143325.0
2002-08-31,150535.0
2002-07-31,157240.0
2002-06-30,154075.0
2002-05-31,157561.7
2002-04-30,140712.3
2002-03-31,137204.0
2002-02-28,138125.0
2002-01-31,138750.0
2001-12-31,134075.0
2001-11-30,132735.0
2001-10-31,137515.0
2001-09-30,137125.0
2001-08-31,139500.0
2001-07-31,145800.0
2001-06-30,149525.0
2001-05-31,142110.3
2001-04-30,136871.4118
2001-03-31,147309.2308
2001-01-31,166440.0
2000-12-31,140525.0
2000-11-30,148325.0
2000-10-31,158050.0
2000-09-30,145260.0
2000-08-31,140865.0
2000-07-31,138725.0
2000-06-30,134950.0
2000-05-31,129025.0
2000-04-30,130285.0
2000-03-31,135515.0
2000-02-29,139200.0
2000-01-31,136675.0
1999-12-31,125675.0
1999-11-30,121950.0
1999-10-31,121950.0
1999-09-30,128875.0
1999-08-31,130225.0
1999-07-31,138935.0
1999-06-30,145115.0
1999-05-31,132750.0
1999-04-30,128050.0
1999-03-31,136625.0
1999-02-28,143987.95
1999-01-31,133063.55
1998-12-31,127536.85
1998-11-30,128549.15
1998-10-31,130359.5
1998-09-30,125400.0
1998-08-31,121950.0
1998-07-31,123037.5
1998-06-30,119137.5
1998-05-31,127000.0
1998-04-30,130410.0
1998-03-31,129415.0
1998-02-28,125200.0
1998-01-31,121750.0
1997-12-31,117950.0
1997-11-30,116785.0
1997-10-31,118215.0
1997-09-30,122550.0
1997-08-31,131400.0
1997-07-31,142650.0
1997-06-30,129900.0
1997-05-31,115950.0
1997-04-30,121050.0
1997-03-31,129150.0
1997-02-28,125775.0
1997-01-31,109574.25
1996-12-31,111198.25
1996-11-30,124597.0
1996-10-31,130090.5
1996-09-30,126390.0
1996-08-31,117650.0
1996-07-31,121185.0
1996-06-30,118990.0
1996-05-31,109875.0
1996-04-30,107150.0
