Date,Value
2015-09-30,190000.0
2015-08-31,173200.0
2015-07-31,170000.0
2015-06-30,168400.0
2015-05-31,166500.0
2015-04-30,164700.0
2015-03-31,165800.0
2015-02-28,166700.0
2015-01-31,165400.0
2014-12-31,165200.0
2014-11-30,167500.0
2014-10-31,167800.0
2014-09-30,165900.0
2014-08-31,165500.0
2014-07-31,166400.0
2014-06-30,168200.0
2014-05-31,172100.0
2014-04-30,173600.0
2014-03-31,170800.0
2014-02-28,167100.0
2014-01-31,165400.0
2013-12-31,163300.0
2013-11-30,159900.0
2013-10-31,158200.0
2013-09-30,157800.0
2013-08-31,157000.0
2013-07-31,155700.0
2013-06-30,154400.0
2013-05-31,151800.0
2013-04-30,149500.0
2013-03-31,147000.0
2013-02-28,144600.0
2013-01-31,143600.0
2012-12-31,143000.0
2012-11-30,142300.0
2012-10-31,143500.0
2012-09-30,146100.0
2012-08-31,147600.0
2012-07-31,147700.0
2012-06-30,147300.0
2012-05-31,146800.0
2012-04-30,146800.0
2012-03-31,148200.0
2012-02-29,149400.0
2012-01-31,149400.0
2011-12-31,149800.0
2011-11-30,150900.0
2011-10-31,151700.0
2011-09-30,153700.0
2011-08-31,158100.0
2011-07-31,162600.0
2011-06-30,164900.0
2011-05-31,165900.0
2011-04-30,167600.0
2011-03-31,169700.0
2011-02-28,171300.0
2011-01-31,172200.0
2010-12-31,172700.0
2010-11-30,173300.0
2010-10-31,173700.0
2010-09-30,173100.0
2010-08-31,173600.0
2010-07-31,175700.0
2010-06-30,178600.0
2010-05-31,180900.0
2010-04-30,183600.0
2010-03-31,186400.0
2010-02-28,189400.0
2010-01-31,194000.0
2009-12-31,199800.0
2009-11-30,203800.0
2009-10-31,205200.0
2009-09-30,206300.0
2009-08-31,208700.0
2009-07-31,212000.0
2009-06-30,214400.0
2009-05-31,215500.0
2009-04-30,215700.0
2009-03-31,216500.0
2009-02-28,218900.0
2009-01-31,221200.0
2008-12-31,222400.0
2008-11-30,223200.0
2008-10-31,223300.0
2008-09-30,222500.0
2008-08-31,218500.0
2008-07-31,212200.0
2008-06-30,209000.0
2008-05-31,211200.0
2008-04-30,214300.0
2008-03-31,217000.0
2008-02-29,219200.0
2008-01-31,220500.0
2007-12-31,222000.0
2007-11-30,224400.0
2007-10-31,226700.0
2007-09-30,229200.0
2007-08-31,229300.0
2007-07-31,228000.0
2007-06-30,227700.0
2007-05-31,230400.0
2007-04-30,232900.0
2007-03-31,233300.0
2007-02-28,231400.0
2007-01-31,229100.0
2006-12-31,225600.0
2006-11-30,222400.0
2006-10-31,220700.0
2006-09-30,219100.0
2006-08-31,217900.0
2006-07-31,217400.0
2006-06-30,216100.0
2006-05-31,212500.0
2006-04-30,208500.0
2006-03-31,206300.0
2006-02-28,205700.0
2006-01-31,204700.0
2005-12-31,203600.0
2005-11-30,202500.0
2005-10-31,201100.0
2005-09-30,199100.0
2005-08-31,197400.0
2005-07-31,196300.0
2005-06-30,194200.0
2005-05-31,189500.0
2005-04-30,184400.0
2005-03-31,178600.0
2005-02-28,172700.0
2005-01-31,169000.0
2004-12-31,166800.0
2004-11-30,164500.0
2004-10-31,162300.0
2004-09-30,159700.0
2004-08-31,158000.0
2004-07-31,156400.0
2004-06-30,153500.0
2004-05-31,149800.0
2004-04-30,147400.0
2004-03-31,146400.0
2004-02-29,145200.0
2004-01-31,143000.0
2003-12-31,141200.0
2003-11-30,140700.0
2003-10-31,140300.0
2003-09-30,139500.0
2003-08-31,138200.0
2003-07-31,137400.0
2003-06-30,137000.0
2003-05-31,136300.0
2003-04-30,134900.0
2003-03-31,133400.0
2003-02-28,132200.0
2003-01-31,130700.0
2002-12-31,128100.0
2002-11-30,125600.0
2002-10-31,123800.0
2002-09-30,123100.0
2002-08-31,122500.0
2002-07-31,122100.0
2002-06-30,122300.0
2002-05-31,123400.0
2002-04-30,124300.0
2002-03-31,125000.0
2002-02-28,125700.0
2002-01-31,126000.0
2001-12-31,125200.0
2001-11-30,123700.0
2001-10-31,122200.0
2001-09-30,120900.0
2001-08-31,119700.0
2001-07-31,118300.0
2001-06-30,117300.0
2001-05-31,117100.0
2001-04-30,117700.0
2001-03-31,118300.0
2001-02-28,118700.0
2001-01-31,118900.0
2000-12-31,119400.0
2000-11-30,119500.0
2000-10-31,119800.0
2000-09-30,120400.0
2000-08-31,120500.0
2000-07-31,119100.0
2000-06-30,117300.0
2000-05-31,116100.0
2000-04-30,114400.0
2000-03-31,112900.0
2000-02-29,112100.0
2000-01-31,111200.0
1999-12-31,110500.0
1999-11-30,110100.0
1999-10-31,109100.0
1999-09-30,107800.0
1999-08-31,107100.0
1999-07-31,106900.0
1999-06-30,106700.0
1999-05-31,106300.0
1999-04-30,105500.0
1999-03-31,104100.0
1999-02-28,102700.0
1999-01-31,102100.0
1998-12-31,102300.0
1998-11-30,101700.0
1998-10-31,100600.0
1998-09-30,100200.0
1998-08-31,100900.0
1998-07-31,101700.0
1998-06-30,101700.0
1998-05-31,101700.0
1998-04-30,101200.0
1998-03-31,100200.0
1998-02-28,98800.0
1998-01-31,97700.0
1997-12-31,96200.0
1997-11-30,95200.0
1997-10-31,94600.0
1997-09-30,93700.0
1997-08-31,92200.0
1997-07-31,90600.0
1997-06-30,89200.0
1997-05-31,87900.0
1997-04-30,87000.0
1997-03-31,87000.0
1997-02-28,86800.0
1997-01-31,86400.0
1996-12-31,86300.0
1996-11-30,86200.0
1996-10-31,85700.0
1996-09-30,84800.0
1996-08-31,84100.0
1996-07-31,84100.0
1996-06-30,84700.0
1996-05-31,84900.0
1996-04-30,85000.0
