Date,Value
2015-02-28,199500.0
2015-01-31,199500.0
2014-12-31,204500.0
2014-11-30,165000.0
2014-10-31,204500.0
2014-09-30,157500.0
2014-08-31,145000.0
2014-07-31,139500.0
2014-05-31,119000.0
2014-04-30,109950.0
2014-03-31,115000.0
2014-01-31,109950.0
2013-12-31,115000.0
2013-11-30,118000.0
2013-10-31,120000.0
2013-09-30,120000.0
2013-08-31,120000.0
2013-07-31,119950.0
2013-06-30,142900.0
2013-05-31,175000.0
2013-04-30,169000.0
2013-03-31,169000.0
2013-02-28,165000.0
2013-01-31,175000.0
2012-12-31,165000.0
2012-11-30,179900.0
2012-10-31,149900.0
2012-09-30,149900.0
2012-08-31,199900.0
2012-07-31,179900.0
2012-06-30,179900.0
2012-05-31,179900.0
2012-04-30,129900.0
2012-03-31,149900.0
2012-02-29,115000.0
2012-01-31,110000.0
2011-12-31,120000.0
2011-11-30,120000.0
2011-10-31,125000.0
2011-09-30,139900.0
2011-08-31,119999.0
2011-07-31,119999.0
2011-06-30,129900.0
2011-05-31,149900.0
2011-04-30,199999.0
2011-03-31,197000.0
2011-02-28,199999.0
2011-01-31,199999.0
2010-12-31,199999.0
2010-11-30,249000.0
2010-10-31,244500.0
2010-09-30,194000.0
2010-08-31,244500.0
2010-07-31,215000.0
2010-06-30,215000.0
2010-05-31,199997.0
2010-04-30,194000.0
2010-03-31,199997.0
2010-02-28,244500.0
2010-01-31,244500.0
2009-12-31,244500.0
2009-10-31,217500.0
2009-09-30,235000.0
2009-08-31,139900.0
