Date,Value
2013-12-31,329995.0
2013-11-30,329995.0
2013-10-31,329995.0
2013-09-30,329995.0
2013-07-31,329995.0
2011-11-30,194900.0
2011-10-31,178695.0
2011-09-30,179900.0
2011-08-31,213025.0
2011-07-31,189900.0
2011-06-30,234300.0
2011-05-31,212998.0
2011-04-30,199500.0
2011-03-31,197500.0
2011-02-28,189900.0
2011-01-31,189000.0
2010-12-31,195000.0
2010-11-30,214900.0
2010-10-31,179900.0
2010-09-30,184900.0
2010-08-31,189950.0
2010-07-31,243990.0
2010-06-30,249990.0
2010-05-31,250000.0
2010-04-30,256200.0
2010-03-31,249950.0
2010-02-28,243650.0
2010-01-31,243990.0
2009-12-31,248310.0
2009-11-30,249950.0
2009-10-31,251900.0
2009-09-30,249900.0
2009-08-31,254990.0
2009-07-31,256900.0
2009-06-30,259990.0
2009-05-31,274990.0
2009-04-30,287900.0
2009-03-31,285990.0
2009-02-28,290850.0
2009-01-31,288900.0
2008-12-31,269000.0
2008-11-30,265000.0
2008-10-31,275000.0
