Date,Value
2015-09-30,557900.0
2015-08-31,558600.0
2015-07-31,547000.0
2015-06-30,566250.0
2015-05-31,565592.5
2015-04-30,519375.0
2015-03-31,465875.0
2015-02-28,462650.0
2015-01-31,429600.0
2014-12-31,458500.0
2014-11-30,445250.0
2014-10-31,465750.0
2014-09-30,465250.0
2014-08-31,508400.15
2014-07-31,518570.35
2014-06-30,465430.5
2014-05-31,455900.0
2014-04-30,448525.0
2014-03-31,477725.0
2014-02-28,485300.0
2014-01-31,476500.0
2013-12-31,459750.0
2013-11-30,460450.0
2013-10-31,442900.0
2013-09-30,435350.0
2013-08-31,453500.0
2013-07-31,476750.0
2013-06-30,463600.0
2013-05-31,435400.0
2013-04-30,433300.0
2013-03-31,436275.0
2013-02-28,403675.0
2013-01-31,395125.0
2012-12-31,410125.0
2012-11-30,394200.0
2012-10-31,408825.0
2012-09-30,371225.0
2012-08-31,398695.0
2012-07-31,417955.0
2012-06-30,406385.0
2012-05-31,357465.0
2012-04-30,372700.0
2012-03-31,399900.0
2012-02-29,436140.0
2012-01-31,419010.0
2011-12-31,407550.0
2011-11-30,410900.0
2011-10-31,431842.5
2011-09-30,424232.5
2011-08-31,411725.0
2011-07-31,413200.0
2011-06-30,385550.0
2011-05-31,360742.5
2011-04-30,371232.5
2011-03-31,395467.5
2011-02-28,365582.5
2011-01-31,374125.0
2010-12-31,375500.0
2010-11-30,384500.0
2010-10-31,425500.0
2010-09-30,458275.0
2010-08-31,459875.0
2010-07-31,411700.0
2010-06-30,415100.0
2010-05-31,394300.0
2010-04-30,389500.0
2010-03-31,401250.0
2010-02-28,403050.0
2010-01-31,411375.0
2009-12-31,367825.0
2009-11-30,359550.0
2009-10-31,382550.0
2009-09-30,392825.0
2009-08-31,389250.0
2009-07-31,394000.0
2009-06-30,377525.0
2009-05-31,384325.0
2009-04-30,397000.0
2009-03-31,409400.0
2009-02-28,393750.0
2009-01-31,383500.0
2008-12-31,410850.0
2008-11-30,417600.0
2008-10-31,408542.5
2008-09-30,439982.5
2008-08-31,448725.0
2008-07-31,448742.5
2008-06-30,452482.5
2008-05-31,439225.0
2008-04-30,428125.0
2008-03-31,410123.5
2008-02-29,395395.0
2008-01-31,423941.5
2007-12-31,439145.0
2007-11-30,439492.5
2007-10-31,418232.5
2007-09-30,385225.0
2007-08-31,401350.0
2007-07-31,391818.75
2007-06-30,402143.75
2007-05-31,447162.5
2007-04-30,442400.0
2007-03-31,422250.0
2007-02-28,399192.5
2007-01-31,425370.0
2006-12-31,441012.5
2006-11-30,467095.0
2006-10-31,420130.0
2006-09-30,411700.0
2006-08-31,403800.3
2006-07-31,415450.7
2006-06-30,398026.0
2006-05-31,412475.0
2006-04-30,384100.0
2006-03-31,368150.0
2006-02-28,368850.0
2006-01-31,373900.0
2005-12-31,389250.0
2005-11-30,392650.0
2005-10-31,397192.5
2005-09-30,388932.5
2005-08-31,381917.5
2005-07-31,389732.5
2005-06-30,398950.0
2005-05-31,378775.0
2005-04-30,361500.0
2005-03-31,349675.0
2005-02-28,338325.0
2005-01-31,356225.0
2004-12-31,371775.0
2004-11-30,359985.0
2004-10-31,356207.5
2004-09-30,341032.5
2004-08-31,360400.0
2004-07-31,368225.0
2004-06-30,358150.0
2004-05-31,352342.5
2004-04-30,344482.5
2004-03-31,342725.0
2004-02-29,317500.0
2004-01-31,314800.0
2003-12-31,327200.0
2003-11-30,342250.0
2003-10-31,336000.0
2003-09-30,316475.0
2003-08-31,309775.0
2003-07-31,308750.0
2003-06-30,322025.0
2003-05-31,310475.0
2003-04-30,312750.0
2003-03-31,302750.0
2003-02-28,297000.0
2003-01-31,300150.0
2002-12-31,317588.3
2002-11-30,318472.7
2002-10-31,317211.0
2002-09-30,309000.0
2002-08-31,314300.0
2002-07-31,306750.0
2002-06-30,295200.0
2002-05-31,304550.0
2002-04-30,309700.0
2002-03-31,292050.0
2002-02-28,297450.0
2002-01-31,294750.0
2001-12-31,285950.0
2001-11-30,285250.0
2001-10-31,302800.0
2001-09-30,309000.0
2001-08-31,297000.0
2001-07-31,288500.0
2001-06-30,278750.0
2001-05-31,278525.0
2001-04-30,279575.0
2001-03-31,262150.0
2001-02-28,254742.5
2001-01-31,256832.5
2000-12-31,258575.0
2000-11-30,273475.0
2000-10-31,274825.0
2000-09-30,275992.5
2000-08-31,268475.0
2000-07-31,270182.5
2000-06-30,286750.0
2000-05-31,281460.0
2000-04-30,274740.0
2000-03-31,278700.0
2000-02-29,263500.0
2000-01-31,246500.0
1999-12-31,245000.0
1999-11-30,246850.0
1999-10-31,241825.0
1999-09-30,236675.0
1999-08-31,245150.0
1999-07-31,245050.0
1999-06-30,241700.0
1999-05-31,233100.0
1999-04-30,231775.0
1999-03-31,236606.0
1999-02-28,230889.0
1999-01-31,219912.5
1998-12-31,215467.5
1998-11-30,214690.0
1998-10-31,229192.5
1998-09-30,223207.5
1998-08-31,234000.0
1998-07-31,218600.0
1998-06-30,216342.5
1998-05-31,220432.5
1998-04-30,212187.5
1998-03-31,209347.5
1998-02-28,194740.0
1998-01-31,185825.0
1997-12-31,191625.0
1997-11-30,188750.0
1997-10-31,193000.0
1997-09-30,194825.0
1997-08-31,197400.0
1997-07-31,186875.0
1997-06-30,192150.0
1997-05-31,177000.0
1997-04-30,173500.0
1997-03-31,170225.0
1997-02-28,165051.0
1997-01-31,165836.5
1996-12-31,169577.5
1996-11-30,178350.0
1996-10-31,178850.0
1996-09-30,170150.0
1996-08-31,169350.0
1996-07-31,176950.0
1996-06-30,171850.0
1996-05-31,165525.0
1996-04-30,167825.0
