Date,Value
2015-09-30,211400.0
2015-08-31,208400.0
2015-07-31,204800.0
2015-06-30,203400.0
2015-05-31,203600.0
2015-04-30,204500.0
2015-03-31,205200.0
2015-02-28,204900.0
2015-01-31,204300.0
2014-12-31,203900.0
2014-11-30,202500.0
2014-10-31,200100.0
2014-09-30,198000.0
2014-08-31,196200.0
2014-07-31,195400.0
2014-06-30,195200.0
2014-05-31,195200.0
2014-04-30,194400.0
2014-03-31,193100.0
2014-02-28,192500.0
2014-01-31,192600.0
2013-12-31,191700.0
2013-11-30,189700.0
2013-10-31,187600.0
2013-09-30,184400.0
2013-08-31,180600.0
2013-07-31,176800.0
2013-06-30,173800.0
2013-05-31,172800.0
2013-04-30,173800.0
2013-03-31,175000.0
2013-02-28,175400.0
2013-01-31,175200.0
2012-12-31,175600.0
2012-11-30,177100.0
2012-10-31,179400.0
2012-09-30,181300.0
2012-08-31,181900.0
2012-07-31,181400.0
2012-06-30,181300.0
2012-05-31,181700.0
2012-04-30,182400.0
2012-03-31,182300.0
2012-02-29,181700.0
2012-01-31,181700.0
2011-12-31,182400.0
2011-11-30,183400.0
2011-10-31,184100.0
2011-09-30,185400.0
2011-08-31,187900.0
2011-07-31,191200.0
2011-06-30,193400.0
2011-05-31,194800.0
2011-04-30,194000.0
2011-03-31,193200.0
2011-02-28,194800.0
2011-01-31,196800.0
2010-12-31,196200.0
2010-11-30,196100.0
2010-10-31,197600.0
2010-09-30,200000.0
2010-08-31,202900.0
2010-07-31,205200.0
2010-06-30,205800.0
2010-05-31,206100.0
2010-04-30,207700.0
2010-03-31,209900.0
2010-02-28,211000.0
2010-01-31,210600.0
2009-12-31,211700.0
2009-11-30,214900.0
2009-10-31,217900.0
2009-09-30,219700.0
2009-08-31,222000.0
2009-07-31,224700.0
2009-06-30,228100.0
2009-05-31,229600.0
2009-04-30,229700.0
2009-03-31,230600.0
2009-02-28,233400.0
2009-01-31,236800.0
2008-12-31,239900.0
2008-11-30,243000.0
2008-10-31,246700.0
2008-09-30,249500.0
2008-08-31,250700.0
2008-07-31,251700.0
2008-06-30,253000.0
2008-05-31,254500.0
2008-04-30,256900.0
2008-03-31,260000.0
2008-02-29,261800.0
2008-01-31,263500.0
2007-12-31,266200.0
2007-11-30,268100.0
2007-10-31,269300.0
2007-09-30,269800.0
2007-08-31,268200.0
2007-07-31,268200.0
2007-06-30,270600.0
2007-05-31,272000.0
2007-04-30,270400.0
2007-03-31,267900.0
2007-02-28,266200.0
2007-01-31,265600.0
2006-12-31,264900.0
2006-11-30,263400.0
2006-10-31,262300.0
2006-09-30,263000.0
2006-08-31,261500.0
2006-07-31,255200.0
2006-06-30,248900.0
2006-05-31,246100.0
2006-04-30,244700.0
2006-03-31,242900.0
2006-02-28,239900.0
2006-01-31,237000.0
2005-12-31,234800.0
2005-11-30,231300.0
2005-10-31,227100.0
2005-09-30,224100.0
2005-08-31,224300.0
2005-07-31,224700.0
2005-06-30,224000.0
2005-05-31,223800.0
2005-04-30,225400.0
2005-03-31,225400.0
2005-02-28,223600.0
2005-01-31,220500.0
2004-12-31,216600.0
2004-11-30,211800.0
2004-10-31,205100.0
2004-09-30,198400.0
2004-08-31,195100.0
2004-07-31,194400.0
2004-06-30,193100.0
2004-05-31,191700.0
2004-04-30,190300.0
2004-03-31,189400.0
2004-02-29,188300.0
2004-01-31,187600.0
2003-12-31,186900.0
2003-11-30,186800.0
2003-10-31,186800.0
2003-09-30,186400.0
2003-08-31,185500.0
2003-07-31,185200.0
2003-06-30,185000.0
2003-05-31,183900.0
2003-04-30,181000.0
2003-03-31,177700.0
2003-02-28,175600.0
2003-01-31,174200.0
2002-12-31,172200.0
2002-11-30,170900.0
2002-10-31,171800.0
2002-09-30,173400.0
2002-08-31,173900.0
2002-07-31,174400.0
2002-06-30,174500.0
2002-05-31,173100.0
2002-04-30,172300.0
2002-03-31,173600.0
2002-02-28,175300.0
2002-01-31,175900.0
2001-12-31,176100.0
2001-11-30,176200.0
2001-10-31,176100.0
2001-09-30,176200.0
2001-08-31,176000.0
2001-07-31,174400.0
2001-06-30,172300.0
2001-05-31,170800.0
2001-04-30,169800.0
2001-03-31,168600.0
2001-02-28,167600.0
2001-01-31,167500.0
2000-12-31,169300.0
2000-11-30,171700.0
2000-10-31,173900.0
2000-09-30,174600.0
2000-08-31,173700.0
2000-07-31,172600.0
2000-06-30,172700.0
2000-05-31,172800.0
2000-04-30,172100.0
2000-03-31,170600.0
2000-02-29,169400.0
2000-01-31,169500.0
1999-12-31,169500.0
1999-11-30,168200.0
1999-10-31,165800.0
1999-09-30,162800.0
1999-08-31,160600.0
1999-07-31,158400.0
1999-06-30,155900.0
1999-05-31,154300.0
1999-04-30,152900.0
1999-03-31,150600.0
1999-02-28,148500.0
1999-01-31,146200.0
1998-12-31,144300.0
1998-11-30,143300.0
1998-10-31,142800.0
1998-09-30,142100.0
1998-08-31,141400.0
1998-07-31,141000.0
1998-06-30,140900.0
1998-05-31,141200.0
1998-04-30,142200.0
1998-03-31,142800.0
1998-02-28,142800.0
1998-01-31,142800.0
1997-12-31,142900.0
1997-11-30,142500.0
1997-10-31,141800.0
1997-09-30,140600.0
1997-08-31,138600.0
1997-07-31,137300.0
1997-06-30,136700.0
1997-05-31,135600.0
1997-04-30,134400.0
1997-03-31,134400.0
1997-02-28,134300.0
1997-01-31,132200.0
1996-12-31,129200.0
1996-11-30,126800.0
1996-10-31,125900.0
1996-09-30,126100.0
1996-08-31,126800.0
1996-07-31,126900.0
1996-06-30,126800.0
1996-05-31,126800.0
1996-04-30,126700.0
