Date,Value
2015-09-30,233200.0
2015-08-31,230200.0
2015-07-31,227100.0
2015-06-30,227600.0
2015-05-31,225900.0
2015-04-30,224900.0
2015-03-31,222600.0
2015-02-28,219400.0
2015-01-31,216100.0
2014-12-31,213600.0
2014-11-30,211400.0
2014-10-31,209500.0
2014-09-30,207600.0
2014-08-31,205400.0
2014-07-31,202900.0
2014-06-30,200600.0
2014-05-31,197900.0
2014-04-30,194000.0
2014-03-31,190200.0
2014-02-28,188300.0
2014-01-31,187500.0
2013-12-31,185500.0
2013-11-30,183100.0
2013-10-31,181600.0
2013-09-30,180800.0
2013-08-31,179800.0
2013-07-31,179200.0
2013-06-30,177100.0
2013-05-31,173900.0
2013-04-30,172300.0
2013-03-31,173900.0
2013-02-28,175300.0
2013-01-31,174600.0
2012-12-31,173600.0
2012-11-30,173200.0
2012-10-31,171900.0
2012-09-30,169600.0
2012-08-31,167100.0
2012-07-31,164100.0
2012-06-30,162300.0
2012-05-31,161900.0
2012-04-30,160800.0
2012-03-31,159300.0
2012-02-29,158600.0
2012-01-31,157700.0
2011-12-31,156900.0
2011-11-30,157700.0
2011-10-31,159900.0
2011-09-30,162500.0
2011-08-31,165300.0
2011-07-31,168400.0
2011-06-30,171000.0
2011-05-31,172600.0
2011-04-30,174200.0
2011-03-31,176700.0
2011-02-28,178900.0
2011-01-31,181100.0
2010-12-31,183600.0
2010-11-30,186300.0
2010-10-31,188400.0
2010-09-30,190200.0
2010-08-31,191700.0
2010-07-31,192500.0
2010-06-30,193400.0
2010-05-31,196000.0
2010-04-30,198900.0
2010-03-31,200000.0
2010-02-28,201100.0
2010-01-31,204200.0
2009-12-31,208100.0
2009-11-30,210500.0
2009-10-31,211400.0
2009-09-30,212300.0
2009-08-31,214500.0
2009-07-31,217700.0
2009-06-30,220600.0
2009-05-31,222300.0
2009-04-30,224000.0
2009-03-31,225800.0
2009-02-28,227500.0
2009-01-31,229600.0
2008-12-31,232400.0
2008-11-30,234700.0
2008-10-31,236700.0
2008-09-30,238900.0
2008-08-31,241000.0
2008-07-31,243000.0
2008-06-30,245700.0
2008-05-31,248500.0
2008-04-30,251200.0
2008-03-31,254000.0
2008-02-29,256200.0
2008-01-31,257600.0
2007-12-31,258400.0
2007-11-30,259200.0
2007-10-31,260900.0
2007-09-30,263200.0
2007-08-31,264700.0
2007-07-31,265100.0
2007-06-30,265500.0
2007-05-31,265500.0
2007-04-30,264400.0
2007-03-31,262100.0
2007-02-28,259500.0
2007-01-31,256900.0
2006-12-31,254500.0
2006-11-30,252400.0
2006-10-31,250300.0
2006-09-30,247600.0
2006-08-31,244900.0
2006-07-31,242900.0
2006-06-30,241100.0
2006-05-31,239100.0
2006-04-30,237200.0
2006-03-31,235700.0
2006-02-28,234800.0
2006-01-31,233600.0
2005-12-31,231200.0
2005-11-30,228300.0
2005-10-31,225100.0
2005-09-30,222000.0
2005-08-31,218900.0
2005-07-31,215600.0
2005-06-30,212300.0
2005-05-31,209200.0
2005-04-30,206900.0
2005-03-31,204700.0
2005-02-28,202000.0
2005-01-31,199300.0
2004-12-31,197000.0
2004-11-30,194600.0
2004-10-31,192400.0
2004-09-30,190200.0
2004-08-31,187900.0
2004-07-31,186100.0
2004-06-30,184800.0
2004-05-31,184000.0
2004-04-30,183300.0
2004-03-31,182300.0
2004-02-29,181100.0
2004-01-31,180100.0
2003-12-31,178800.0
2003-11-30,178200.0
2003-10-31,178100.0
2003-09-30,177800.0
2003-08-31,177500.0
2003-07-31,176900.0
2003-06-30,175700.0
2003-05-31,174200.0
2003-04-30,173200.0
2003-03-31,172800.0
2003-02-28,172500.0
2003-01-31,171700.0
2002-12-31,171200.0
2002-11-30,170900.0
2002-10-31,170000.0
2002-09-30,169300.0
2002-08-31,169000.0
2002-07-31,168400.0
2002-06-30,167800.0
2002-05-31,167500.0
2002-04-30,166800.0
2002-03-31,165900.0
2002-02-28,165600.0
2002-01-31,165800.0
2001-12-31,165700.0
2001-11-30,164900.0
2001-10-31,163900.0
2001-09-30,163400.0
2001-08-31,163400.0
2001-07-31,163500.0
2001-06-30,163200.0
2001-05-31,162400.0
2001-04-30,161800.0
2001-03-31,161400.0
2001-02-28,160600.0
2001-01-31,159400.0
2000-12-31,158400.0
2000-11-30,157800.0
2000-10-31,157300.0
2000-09-30,156700.0
2000-08-31,155600.0
2000-07-31,154600.0
2000-06-30,154100.0
2000-05-31,153700.0
2000-04-30,152700.0
2000-03-31,151900.0
2000-02-29,151400.0
2000-01-31,150900.0
1999-12-31,150200.0
1999-11-30,149400.0
1999-10-31,149100.0
1999-09-30,148900.0
1999-08-31,148300.0
1999-07-31,147500.0
1999-06-30,146600.0
1999-05-31,146100.0
1999-04-30,146300.0
1999-03-31,146100.0
1999-02-28,145000.0
1999-01-31,143600.0
1998-12-31,142800.0
1998-11-30,142600.0
1998-10-31,142700.0
1998-09-30,142400.0
1998-08-31,141900.0
1998-07-31,141700.0
1998-06-30,141300.0
1998-05-31,139900.0
1998-04-30,138000.0
1998-03-31,136500.0
1998-02-28,135400.0
1998-01-31,134400.0
1997-12-31,133400.0
1997-11-30,132600.0
1997-10-31,131800.0
1997-09-30,130900.0
1997-08-31,129900.0
1997-07-31,129000.0
1997-06-30,128000.0
1997-05-31,127100.0
1997-04-30,126200.0
1997-03-31,125500.0
1997-02-28,125100.0
1997-01-31,124900.0
1996-12-31,124800.0
1996-11-30,124700.0
1996-10-31,124600.0
1996-09-30,124500.0
1996-08-31,124700.0
1996-07-31,125200.0
1996-06-30,126000.0
1996-05-31,127200.0
1996-04-30,128600.0
