Date,Value
2015-09-30,0.84
2015-08-31,0.862
2015-07-31,0.862
2015-06-30,0.856
2015-05-31,0.856
2015-04-30,0.858
2015-03-31,0.856
2015-02-28,0.854
2015-01-31,0.852
2014-12-31,0.86
2014-11-30,0.874
2014-10-31,0.892
2014-09-30,0.898
2014-08-31,0.898
2014-07-31,0.902
2014-06-30,0.91
2014-05-31,0.91
2014-04-30,0.892
2014-03-31,0.874
2014-02-28,0.862
2014-01-31,0.856
2013-12-31,0.852
2013-11-30,0.848
2013-10-31,0.848
2013-09-30,0.85
2013-08-31,0.852
2013-07-31,0.85
2013-06-30,0.846
2013-05-31,0.848
2013-04-30,0.848
2013-03-31,0.85
2013-02-28,0.844
2013-01-31,0.834
2012-12-31,0.822
2012-11-30,0.81
2012-10-31,0.8
2012-09-30,0.798
2012-08-31,0.8
2012-07-31,0.796
2012-06-30,0.784
2012-05-31,0.774
2012-04-30,0.776
2012-03-31,0.792
2012-02-29,0.806
2012-01-31,0.82
2011-12-31,0.824
2011-11-30,0.818
2011-10-31,0.806
2011-09-30,0.794
2011-08-31,0.788
2011-07-31,0.786
2011-06-30,0.788
2011-05-31,0.794
2011-04-30,0.804
