Date,Value
2015-02-28,549000.0
2015-01-31,549000.0
2014-12-31,549000.0
2014-11-30,522500.0
2014-10-31,479900.0
2014-09-30,479900.0
2014-08-31,435000.0
2014-07-31,399000.0
2014-06-30,479000.0
2014-05-31,510000.0
2014-04-30,510000.0
2014-03-31,525000.0
2014-02-28,525000.0
2014-01-31,525000.0
2013-12-31,525000.0
2013-11-30,489990.0
2013-10-31,489990.0
2013-09-30,425000.0
2013-08-31,389950.0
2013-07-31,425000.0
2013-06-30,380000.0
2013-05-31,375000.0
2013-04-30,495000.0
2013-03-31,495000.0
2013-02-28,599000.0
2013-01-31,449000.0
2012-12-31,390000.0
2012-11-30,399800.0
2012-10-31,399000.0
2012-09-30,349000.0
2012-08-31,349000.0
2012-07-31,325000.0
2012-06-30,349000.0
2012-05-31,325000.0
2012-04-30,325000.0
2012-03-31,325000.0
2012-02-29,350000.0
2012-01-31,345000.0
2011-12-31,339000.0
2011-11-30,290000.0
2011-10-31,298000.0
2011-09-30,339950.0
2011-08-31,334950.0
2011-07-31,299950.0
2011-06-30,255000.0
2011-05-31,255000.0
2011-04-30,284950.0
2011-03-31,284950.0
2011-02-28,290000.0
2011-01-31,284950.0
2010-12-31,339000.0
2010-11-30,374500.0
2010-10-31,359000.0
2010-09-30,359900.0
2010-08-31,399000.0
2010-07-31,429950.0
2010-06-30,409000.0
2010-05-31,485000.0
2010-04-30,485000.0
2010-03-31,485000.0
2010-02-28,489500.0
2010-01-31,499900.0
2009-12-31,499900.0
2009-11-30,449000.0
2009-10-31,449000.0
2009-09-30,449000.0
2009-08-31,449000.0
2009-07-31,450000.0
2009-06-30,450000.0
2009-05-31,479000.0
2009-04-30,479000.0
2009-03-31,479000.0
2009-02-28,589000.0
2009-01-31,549900.0
2008-12-31,589000.0
2008-11-30,549900.0
2008-10-31,574800.0
