Date,Value
2015-08-31,1325.0
2015-07-31,1350.0
2015-06-30,1350.0
2015-05-31,1300.0
2015-04-30,1295.0
2015-03-31,1200.0
2015-02-28,1200.0
2015-01-31,1225.0
2014-12-31,1295.0
2014-11-30,1300.0
2014-10-31,1300.0
2014-09-30,1300.0
2014-08-31,1300.0
2014-07-31,1295.0
2014-06-30,1200.0
2014-05-31,1200.0
2014-04-30,1250.0
2014-03-31,1195.0
2014-02-28,1150.0
2014-01-31,1150.0
2013-12-31,1200.0
2013-11-30,1175.0
2013-10-31,1200.0
2013-09-30,1225.0
2013-08-31,1200.0
2013-07-31,1200.0
2013-06-30,1195.0
2013-05-31,995.0
2013-04-30,995.0
2013-03-31,1150.0
2013-02-28,978.0
2013-01-31,925.0
2012-12-31,1095.0
2012-11-30,990.0
2012-10-31,937.0
2012-09-30,1075.0
2012-08-31,1074.0
2012-07-31,1074.0
2012-06-30,1190.0
2012-05-31,955.0
2012-04-30,845.0
2012-03-31,915.0
2012-02-29,995.0
2012-01-31,986.0
2011-12-31,950.0
2011-11-30,1028.0
2011-10-31,1295.0
2011-09-30,1350.0
2011-08-31,1350.0
2011-07-31,1250.0
2011-05-31,1150.0
2011-04-30,1130.0
2011-03-31,895.0
2011-02-28,895.0
2011-01-31,895.0
2010-12-31,895.0
2010-11-30,895.0
2010-10-31,875.0
2010-09-30,855.0
2010-08-31,860.0
2010-06-30,850.0
