Date,Value
2015-02-28,315000.0
2015-01-31,229950.0
2014-12-31,220000.0
2014-11-30,237900.0
2014-10-31,290000.0
2014-09-30,239000.0
2014-08-31,239500.0
2014-07-31,248000.0
2014-06-30,300000.0
2014-05-31,248000.0
2014-04-30,269999.0
2014-03-31,250000.0
2014-02-28,250000.0
2014-01-31,249500.0
2013-12-31,199000.0
2013-11-30,199000.0
2013-10-31,249500.0
2013-09-30,270000.0
2013-08-31,239000.0
2013-07-31,250000.0
2013-06-30,249000.0
2013-05-31,250000.0
2013-04-30,237000.0
2013-03-31,230000.0
2013-02-28,239000.0
2013-01-31,227000.0
2012-12-31,208000.0
2012-11-30,225000.0
2012-10-31,194999.0
2012-09-30,198000.0
2012-08-31,199000.0
2012-07-31,199000.0
2012-06-30,214000.0
2012-05-31,225000.0
2012-04-30,199999.0
2012-03-31,199999.0
2012-02-29,189999.0
2012-01-31,234000.0
2011-12-31,234000.0
2011-11-30,200000.0
2011-10-31,189999.0
2011-09-30,189999.0
2011-08-31,200000.0
2011-07-31,230000.0
2011-06-30,195500.0
2011-05-31,189900.0
2011-04-30,172800.0
2011-03-31,159000.0
2011-02-28,149950.0
2011-01-31,149950.0
2010-12-31,150000.0
2010-11-30,159900.0
2010-10-31,159900.0
2010-09-30,189900.0
2010-08-31,195000.0
2010-07-31,260000.0
2010-06-30,219900.0
2010-05-31,219900.0
2010-04-30,219900.0
2010-03-31,229000.0
2010-02-28,250000.0
2010-01-31,369500.0
2009-12-31,369500.0
2009-11-30,225000.0
2009-10-31,249500.0
2009-09-30,225000.0
2009-08-31,249500.0
2009-07-31,289900.0
2009-06-30,399000.0
2009-05-31,390000.0
2009-04-30,399000.0
2009-03-31,289900.0
2009-02-28,350000.0
2009-01-31,399000.0
2008-12-31,399000.0
2008-11-30,399000.0
2008-10-31,350000.0
