Date,Value
2015-09-30,220800.0
2015-08-31,221800.0
2015-07-31,223200.0
2015-06-30,222900.0
2015-05-31,220200.0
2015-04-30,218600.0
2015-03-31,219600.0
2015-02-28,220300.0
2015-01-31,221100.0
2014-12-31,222100.0
2014-11-30,222300.0
2014-10-31,220800.0
2014-09-30,219300.0
2014-08-31,219000.0
2014-07-31,218900.0
2014-06-30,217900.0
2014-05-31,217100.0
2014-04-30,216300.0
2014-03-31,213800.0
2014-02-28,210900.0
2014-01-31,206400.0
2013-12-31,199600.0
2013-11-30,193100.0
2013-10-31,189400.0
2013-09-30,186300.0
2013-08-31,181900.0
2013-07-31,177600.0
2013-06-30,174600.0
2013-05-31,173600.0
2013-04-30,173600.0
2013-03-31,174200.0
2013-02-28,174300.0
2013-01-31,173400.0
2012-12-31,170300.0
2012-11-30,167500.0
2012-10-31,166600.0
2012-09-30,166800.0
2012-08-31,167600.0
2012-07-31,167500.0
2012-06-30,167600.0
2012-05-31,167700.0
2012-04-30,166900.0
2012-03-31,165600.0
2012-02-29,165500.0
2012-01-31,165400.0
2011-12-31,166300.0
2011-11-30,167200.0
2011-10-31,169600.0
2011-09-30,172300.0
2011-08-31,172900.0
2011-07-31,172600.0
2011-06-30,175300.0
2011-05-31,181200.0
2011-04-30,186000.0
2011-03-31,188300.0
2011-02-28,189100.0
2011-01-31,190100.0
2010-12-31,191100.0
2010-11-30,193800.0
2010-10-31,198000.0
2010-09-30,203200.0
2010-08-31,207600.0
2010-07-31,210300.0
2010-06-30,211700.0
2010-05-31,211800.0
2010-04-30,212100.0
2010-03-31,213400.0
2010-02-28,214700.0
2010-01-31,216100.0
2009-12-31,219400.0
2009-11-30,222300.0
2009-10-31,221600.0
2009-09-30,219100.0
2009-08-31,219100.0
2009-07-31,221900.0
2009-06-30,225000.0
2009-05-31,226700.0
2009-04-30,228200.0
2009-03-31,230000.0
2009-02-28,232000.0
2009-01-31,234900.0
2008-12-31,238100.0
2008-11-30,241600.0
2008-10-31,244800.0
2008-09-30,248100.0
2008-08-31,251100.0
2008-07-31,253600.0
2008-06-30,255300.0
2008-05-31,257200.0
2008-04-30,258600.0
2008-03-31,260100.0
2008-02-29,262200.0
2008-01-31,265000.0
2007-12-31,267800.0
2007-11-30,269100.0
2007-10-31,268000.0
2007-09-30,266800.0
2007-08-31,266600.0
2007-07-31,266400.0
2007-06-30,265700.0
2007-05-31,263400.0
2007-04-30,261300.0
2007-03-31,259900.0
2007-02-28,258300.0
2007-01-31,256200.0
2006-12-31,255000.0
2006-11-30,253100.0
2006-10-31,250800.0
2006-09-30,249400.0
2006-08-31,247700.0
2006-07-31,246200.0
2006-06-30,243800.0
2006-05-31,241000.0
2006-04-30,239300.0
2006-03-31,237500.0
2006-02-28,235100.0
2006-01-31,233700.0
2005-12-31,232300.0
2005-11-30,231100.0
2005-10-31,229700.0
2005-09-30,226800.0
2005-08-31,223200.0
2005-07-31,220100.0
2005-06-30,216600.0
2005-05-31,212600.0
2005-04-30,208200.0
2005-03-31,204400.0
2005-02-28,201900.0
2005-01-31,199500.0
2004-12-31,195900.0
2004-11-30,192400.0
2004-10-31,191100.0
2004-09-30,190700.0
2004-08-31,188800.0
2004-07-31,186300.0
2004-06-30,185900.0
2004-05-31,186900.0
2004-04-30,186400.0
2004-03-31,184600.0
2004-02-29,183600.0
2004-01-31,183300.0
2003-12-31,183300.0
2003-11-30,183300.0
2003-10-31,183200.0
2003-09-30,182800.0
2003-08-31,183000.0
2003-07-31,183400.0
2003-06-30,182300.0
2003-05-31,180600.0
2003-04-30,180500.0
2003-03-31,182800.0
2003-02-28,185200.0
2003-01-31,185300.0
2002-12-31,183100.0
2002-11-30,180800.0
2002-10-31,177800.0
2002-09-30,174400.0
2002-08-31,171700.0
2002-07-31,168000.0
2002-06-30,164800.0
2002-05-31,164300.0
2002-04-30,165600.0
2002-03-31,166400.0
2002-02-28,165900.0
2002-01-31,164300.0
2001-12-31,163400.0
2001-11-30,163000.0
2001-10-31,161900.0
2001-09-30,161700.0
2001-08-31,162000.0
2001-07-31,162000.0
2001-06-30,160700.0
2001-05-31,159100.0
2001-04-30,157900.0
2001-03-31,156900.0
2001-02-28,155500.0
2001-01-31,154900.0
2000-12-31,154100.0
2000-11-30,153100.0
2000-10-31,153100.0
2000-09-30,153400.0
2000-08-31,153800.0
2000-07-31,154900.0
2000-06-30,156200.0
2000-05-31,156700.0
2000-04-30,156900.0
2000-03-31,155600.0
2000-02-29,153800.0
2000-01-31,152500.0
1999-12-31,151400.0
1999-11-30,150400.0
1999-10-31,150400.0
1999-09-30,151300.0
1999-08-31,152700.0
1999-07-31,153800.0
1999-06-30,154100.0
1999-05-31,153500.0
1999-04-30,151700.0
1999-03-31,149300.0
1999-02-28,145500.0
1999-01-31,140400.0
1998-12-31,138200.0
1998-11-30,139000.0
1998-10-31,139400.0
1998-09-30,138100.0
1998-08-31,136800.0
1998-07-31,136200.0
1998-06-30,136900.0
1998-05-31,136900.0
1998-04-30,135700.0
1998-03-31,134200.0
1998-02-28,133600.0
1998-01-31,133400.0
1997-12-31,132900.0
1997-11-30,132200.0
1997-10-31,131100.0
1997-09-30,129600.0
1997-08-31,128200.0
1997-07-31,127400.0
1997-06-30,127000.0
1997-05-31,126500.0
1997-04-30,126100.0
1997-03-31,125700.0
1997-02-28,125100.0
1997-01-31,125600.0
1996-12-31,126900.0
1996-11-30,126600.0
1996-10-31,125000.0
1996-09-30,123400.0
1996-08-31,121700.0
1996-07-31,120400.0
1996-06-30,119300.0
1996-05-31,118000.0
1996-04-30,115500.0
