Date,Value
2015-09-30,240900.0
2015-08-31,239000.0
2015-07-31,236000.0
2015-06-30,232100.0
2015-05-31,230500.0
2015-04-30,227700.0
2015-03-31,227500.0
2015-02-28,227000.0
2015-01-31,226300.0
2014-12-31,226000.0
2014-11-30,225700.0
2014-10-31,224600.0
2014-09-30,223900.0
2014-08-31,224000.0
2014-07-31,223800.0
2014-06-30,222500.0
2014-05-31,221500.0
2014-04-30,221400.0
2014-03-31,221100.0
2014-02-28,220600.0
2014-01-31,220600.0
2013-12-31,220600.0
2013-11-30,220300.0
2013-10-31,220100.0
2013-09-30,219600.0
2013-08-31,218800.0
2013-07-31,217800.0
2013-06-30,216800.0
2013-05-31,215500.0
2013-04-30,213900.0
2013-03-31,213400.0
2013-02-28,213700.0
2013-01-31,214100.0
2012-12-31,214200.0
2012-11-30,214000.0
2012-10-31,213600.0
2012-09-30,213200.0
2012-08-31,213000.0
2012-07-31,213000.0
2012-06-30,213300.0
2012-05-31,213900.0
2012-04-30,214500.0
2012-03-31,215100.0
2012-02-29,216200.0
2012-01-31,218000.0
2011-12-31,219800.0
2011-11-30,220700.0
2011-10-31,221100.0
2011-09-30,221800.0
2011-08-31,222600.0
2011-07-31,222900.0
2011-06-30,223000.0
2011-05-31,223600.0
2011-04-30,225100.0
2011-03-31,226200.0
2011-02-28,226700.0
2011-01-31,226900.0
2010-12-31,227600.0
2010-11-30,228400.0
2010-10-31,229400.0
2010-09-30,230800.0
2010-08-31,232600.0
2010-07-31,234700.0
2010-06-30,236400.0
2010-05-31,237600.0
2010-04-30,238000.0
2010-03-31,238600.0
2010-02-28,239000.0
2010-01-31,239000.0
2009-12-31,238900.0
2009-11-30,239100.0
2009-10-31,239300.0
2009-09-30,239500.0
2009-08-31,239800.0
2009-07-31,240200.0
2009-06-30,241300.0
2009-05-31,242700.0
2009-04-30,243700.0
2009-03-31,244500.0
2009-02-28,244800.0
2009-01-31,244700.0
2008-12-31,244200.0
2008-11-30,244700.0
2008-10-31,246400.0
2008-09-30,247900.0
2008-08-31,248800.0
2008-07-31,250800.0
2008-06-30,253100.0
2008-05-31,255900.0
2008-04-30,259300.0
2008-03-31,262500.0
2008-02-29,264200.0
2008-01-31,265000.0
2007-12-31,265900.0
2007-11-30,267200.0
2007-10-31,268200.0
2007-09-30,269600.0
2007-08-31,270800.0
2007-07-31,271000.0
2007-06-30,270500.0
2007-05-31,270400.0
2007-04-30,270100.0
2007-03-31,269700.0
2007-02-28,270300.0
2007-01-31,271600.0
2006-12-31,273000.0
2006-11-30,274700.0
2006-10-31,276000.0
2006-09-30,275900.0
2006-08-31,275100.0
2006-07-31,274500.0
2006-06-30,273700.0
2006-05-31,271700.0
2006-04-30,268600.0
2006-03-31,265300.0
2006-02-28,262700.0
2006-01-31,260300.0
2005-12-31,257600.0
2005-11-30,254100.0
2005-10-31,250400.0
2005-09-30,246800.0
2005-08-31,243200.0
2005-07-31,239100.0
2005-06-30,235400.0
2005-05-31,232000.0
2005-04-30,228500.0
2005-03-31,224800.0
2005-02-28,221200.0
2005-01-31,217300.0
2004-12-31,213400.0
2004-11-30,209700.0
2004-10-31,206400.0
2004-09-30,203600.0
2004-08-31,201400.0
2004-07-31,198900.0
2004-06-30,195900.0
2004-05-31,192500.0
2004-04-30,189200.0
2004-03-31,186200.0
2004-02-29,183800.0
2004-01-31,181900.0
2003-12-31,180500.0
2003-11-30,179000.0
2003-10-31,177200.0
2003-09-30,175300.0
2003-08-31,173300.0
2003-07-31,171800.0
2003-06-30,170800.0
2003-05-31,169800.0
2003-04-30,169000.0
2003-03-31,168300.0
2003-02-28,167200.0
2003-01-31,166100.0
2002-12-31,164800.0
2002-11-30,163300.0
2002-10-31,161300.0
2002-09-30,159200.0
2002-08-31,157000.0
2002-07-31,154400.0
2002-06-30,151900.0
2002-05-31,150600.0
2002-04-30,150000.0
2002-03-31,149300.0
2002-02-28,148200.0
2002-01-31,147100.0
2001-12-31,146100.0
2001-11-30,145200.0
2001-10-31,144400.0
2001-09-30,143600.0
2001-08-31,142900.0
2001-07-31,142300.0
2001-06-30,141900.0
2001-05-31,141100.0
2001-04-30,140300.0
2001-03-31,139600.0
2001-02-28,138900.0
2001-01-31,137900.0
2000-12-31,136700.0
2000-11-30,135800.0
2000-10-31,135300.0
2000-09-30,135000.0
2000-08-31,135000.0
2000-07-31,135200.0
2000-06-30,135200.0
2000-05-31,134800.0
2000-04-30,134200.0
2000-03-31,133600.0
2000-02-29,132900.0
2000-01-31,132200.0
1999-12-31,131500.0
1999-11-30,131000.0
1999-10-31,130600.0
1999-09-30,130400.0
1999-08-31,130200.0
1999-07-31,129900.0
1999-06-30,129500.0
1999-05-31,128900.0
1999-04-30,128200.0
1999-03-31,127600.0
1999-02-28,127400.0
1999-01-31,127300.0
1998-12-31,127200.0
1998-11-30,126900.0
1998-10-31,126500.0
1998-09-30,125800.0
1998-08-31,125200.0
1998-07-31,124800.0
1998-06-30,124300.0
1998-05-31,123900.0
1998-04-30,123900.0
1998-03-31,123800.0
1998-02-28,123000.0
1998-01-31,121800.0
1997-12-31,121100.0
1997-11-30,120900.0
1997-10-31,120700.0
1997-09-30,120500.0
1997-08-31,120400.0
1997-07-31,120600.0
1997-06-30,121000.0
1997-05-31,121200.0
1997-04-30,121300.0
1997-03-31,121800.0
1997-02-28,122200.0
1997-01-31,122200.0
1996-12-31,122000.0
1996-11-30,122100.0
1996-10-31,122100.0
1996-09-30,122100.0
1996-08-31,122100.0
1996-07-31,121800.0
1996-06-30,121500.0
1996-05-31,121200.0
1996-04-30,120500.0
