Date,Value
2015-02-28,399950.0
2015-01-31,364950.0
2014-12-31,359950.0
2014-11-30,364900.0
2014-10-31,399000.0
2014-09-30,399950.0
2014-08-31,399950.0
2014-07-31,399500.0
2014-06-30,402430.0
2014-05-31,390285.0
2014-04-30,380000.0
2014-03-31,384950.0
2014-02-28,376535.0
2014-01-31,375000.0
2013-12-31,360000.0
2013-11-30,345950.0
2013-10-31,345950.0
2013-09-30,344925.0
2013-08-31,359900.0
2013-07-31,359950.0
2013-06-30,349950.0
2013-05-31,349980.0
2013-04-30,345000.0
2013-03-31,339000.0
2013-02-28,356890.0
2013-01-31,305000.0
2012-12-31,300000.0
2012-11-30,325000.0
2012-10-31,321500.0
2012-09-30,325000.0
2012-08-31,315000.0
2012-07-31,320000.0
2012-06-30,326700.0
2012-05-31,325000.0
2012-04-30,299925.0
2012-03-31,289950.0
2012-02-29,279000.0
2012-01-31,256900.0
2011-12-31,254000.0
2011-11-30,269000.0
2011-10-31,274900.0
2011-09-30,289950.0
2011-08-31,275000.0
2011-07-31,289950.0
2011-06-30,275000.0
2011-05-31,259800.0
2011-04-30,259900.0
2011-03-31,265000.0
2011-02-28,265000.0
2011-01-31,289950.0
2010-12-31,299950.0
2010-11-30,310000.0
2010-10-31,317000.0
2010-09-30,310000.0
2010-08-31,310000.0
2010-07-31,310000.0
2010-06-30,299950.0
2010-05-31,309900.0
2010-04-30,309950.0
2010-03-31,309950.0
2010-02-28,325000.0
2010-01-31,334950.0
2009-12-31,334950.0
2009-11-30,330000.0
2009-10-31,340000.0
2009-09-30,340000.0
2009-08-31,350000.0
2009-07-31,350000.0
2009-06-30,350000.0
2009-05-31,363000.0
2009-04-30,365000.0
2009-03-31,380000.0
2009-02-28,379950.0
2009-01-31,389000.0
2008-12-31,394900.0
2008-11-30,394000.0
2008-10-31,399995.0
