Date,Value
2015-09-30,1.018
2015-08-31,0.776
2015-07-31,0.786
2015-06-30,0.79
2015-05-31,0.764
2015-04-30,0.74
2015-03-31,0.724
2015-02-28,0.734
2015-01-31,0.742
2014-12-31,0.736
2014-11-30,0.736
2014-10-31,0.742
2014-09-30,0.752
2014-08-31,0.754
2014-07-31,0.746
2014-06-30,0.732
2014-05-31,0.72
2014-04-30,0.714
2014-03-31,0.718
2014-02-28,0.724
2014-01-31,0.72
2013-12-31,0.704
2013-11-30,0.672
2013-10-31,0.628
2013-09-30,0.6
2013-08-31,0.594
2013-07-31,0.606
2013-06-30,0.61
2013-05-31,0.594
2013-04-30,0.578
2013-03-31,0.578
2013-02-28,0.592
2013-01-31,0.618
2012-12-31,0.626
2012-11-30,0.624
2012-10-31,0.608
2012-09-30,0.604
2012-08-31,0.598
2012-07-31,0.604
2012-06-30,0.62
2012-05-31,0.646
2012-04-30,0.654
