Date,Value
2015-02-28,234403.0
2015-01-31,249900.0
2014-12-31,279850.0
2014-11-30,275000.0
2014-10-31,265900.0
2014-09-30,283000.0
2014-08-31,299900.0
2014-07-31,298500.0
2014-06-30,279900.0
2014-05-31,274900.0
2014-04-30,260000.0
2014-03-31,234900.0
2014-02-28,234900.0
2014-01-31,210000.0
2013-12-31,235000.0
2013-11-30,234900.0
2013-10-31,247000.0
2013-09-30,247000.0
2013-08-31,247500.0
2013-07-31,239000.0
2013-06-30,215000.0
2013-05-31,200000.0
2013-04-30,194500.0
2013-03-31,199000.0
2013-02-28,189000.0
2013-01-31,224999.0
2012-12-31,199000.0
2012-11-30,199000.0
2012-10-31,199000.0
2012-09-30,215000.0
2012-08-31,216300.0
2012-07-31,189900.0
2012-06-30,224900.0
2012-05-31,210490.0
2012-04-30,185000.0
2012-03-31,194900.0
2012-02-29,185000.0
2012-01-31,189975.0
2011-12-31,194900.0
2011-11-30,197500.0
2011-10-31,209000.0
2011-09-30,209900.0
2011-08-31,219900.0
2011-07-31,199900.0
2011-06-30,200000.0
2011-05-31,197500.0
2011-04-30,219000.0
2011-03-31,180900.0
2011-02-28,179900.0
2011-01-31,180900.0
2010-12-31,180900.0
2010-11-30,197777.0
2010-10-31,205000.0
2010-09-30,227000.0
2010-08-31,195000.0
2010-07-31,180900.0
2010-06-30,176000.0
2010-05-31,188900.0
2010-04-30,213900.0
2010-03-31,229900.0
2010-02-28,209950.0
2010-01-31,227000.0
2009-12-31,227000.0
2009-11-30,227500.0
2009-10-31,249000.0
2009-09-30,268900.0
2009-08-31,259700.0
2009-07-31,239900.0
2009-06-30,239900.0
2009-05-31,217000.0
2009-04-30,239900.0
2009-03-31,265900.0
2009-02-28,269900.0
2009-01-31,210875.0
2008-12-31,269900.0
2008-11-30,210875.0
2008-10-31,210875.0
