Date,Value
2015-09-30,271300.0
2015-08-31,268100.0
2015-07-31,267200.0
2015-06-30,266800.0
2015-05-31,266400.0
2015-04-30,265200.0
2015-03-31,264600.0
2015-02-28,263200.0
2015-01-31,261700.0
2014-12-31,260500.0
2014-11-30,258300.0
2014-10-31,256000.0
2014-09-30,255100.0
2014-08-31,254500.0
2014-07-31,253600.0
2014-06-30,252600.0
2014-05-31,251900.0
2014-04-30,252300.0
2014-03-31,252500.0
2014-02-28,252100.0
2014-01-31,250700.0
2013-12-31,248600.0
2013-11-30,246600.0
2013-10-31,245200.0
2013-09-30,242800.0
2013-08-31,240100.0
2013-07-31,237000.0
2013-06-30,233700.0
2013-05-31,231100.0
2013-04-30,228500.0
2013-03-31,225600.0
2013-02-28,223000.0
2013-01-31,221300.0
2012-12-31,219900.0
2012-11-30,218300.0
2012-10-31,217000.0
2012-09-30,216200.0
2012-08-31,215300.0
2012-07-31,214000.0
2012-06-30,213300.0
2012-05-31,213300.0
2012-04-30,213600.0
2012-03-31,214200.0
2012-02-29,214800.0
2012-01-31,215100.0
2011-12-31,216400.0
2011-11-30,218400.0
2011-10-31,219800.0
2011-09-30,220900.0
2011-08-31,222800.0
2011-07-31,225200.0
2011-06-30,227300.0
2011-05-31,229300.0
2011-04-30,230200.0
2011-03-31,230600.0
2011-02-28,232100.0
2011-01-31,234500.0
2010-12-31,236300.0
2010-11-30,238600.0
2010-10-31,241500.0
2010-09-30,244400.0
2010-08-31,247100.0
2010-07-31,249600.0
2010-06-30,251600.0
2010-05-31,252600.0
2010-04-30,252900.0
2010-03-31,253300.0
2010-02-28,253900.0
2010-01-31,255100.0
2009-12-31,256400.0
2009-11-30,256700.0
2009-10-31,256500.0
2009-09-30,256700.0
2009-08-31,257400.0
2009-07-31,259400.0
2009-06-30,262500.0
2009-05-31,265300.0
2009-04-30,267500.0
2009-03-31,269800.0
2009-02-28,271400.0
2009-01-31,271400.0
2008-12-31,271800.0
2008-11-30,275400.0
2008-10-31,280500.0
2008-09-30,284000.0
2008-08-31,286000.0
2008-07-31,288400.0
2008-06-30,290200.0
2008-05-31,290700.0
2008-04-30,291000.0
2008-03-31,293000.0
2008-02-29,296200.0
2008-01-31,299500.0
2007-12-31,301600.0
2007-11-30,302500.0
2007-10-31,303300.0
2007-09-30,305300.0
2007-08-31,307700.0
2007-07-31,309300.0
2007-06-30,310700.0
2007-05-31,312200.0
2007-04-30,313400.0
2007-03-31,313300.0
2007-02-28,313000.0
2007-01-31,312800.0
2006-12-31,312500.0
2006-11-30,311200.0
2006-10-31,308400.0
2006-09-30,305000.0
2006-08-31,302000.0
2006-07-31,298700.0
2006-06-30,295600.0
2006-05-31,293500.0
2006-04-30,292100.0
2006-03-31,289200.0
2006-02-28,284700.0
2006-01-31,281000.0
2005-12-31,277900.0
2005-11-30,273800.0
2005-10-31,269900.0
2005-09-30,267200.0
2005-08-31,264200.0
2005-07-31,260200.0
2005-06-30,256200.0
2005-05-31,252000.0
2005-04-30,248300.0
2005-03-31,245100.0
2005-02-28,241900.0
2005-01-31,238500.0
2004-12-31,235500.0
2004-11-30,232400.0
2004-10-31,228800.0
2004-09-30,225000.0
2004-08-31,221400.0
2004-07-31,218100.0
2004-06-30,215000.0
2004-05-31,212000.0
2004-04-30,208600.0
2004-03-31,205900.0
2004-02-29,204100.0
2004-01-31,202700.0
2003-12-31,201000.0
2003-11-30,199400.0
2003-10-31,198300.0
2003-09-30,197300.0
2003-08-31,196500.0
2003-07-31,195500.0
2003-06-30,194200.0
2003-05-31,192700.0
2003-04-30,191300.0
2003-03-31,190000.0
2003-02-28,188600.0
2003-01-31,187200.0
2002-12-31,186100.0
2002-11-30,185500.0
2002-10-31,184700.0
2002-09-30,183400.0
2002-08-31,182400.0
2002-07-31,181900.0
2002-06-30,181400.0
2002-05-31,181600.0
2002-04-30,182900.0
2002-03-31,185100.0
2002-02-28,186700.0
2002-01-31,187500.0
2001-12-31,188100.0
2001-11-30,188300.0
2001-10-31,188000.0
2001-09-30,187400.0
2001-08-31,186500.0
2001-07-31,185000.0
2001-06-30,183200.0
2001-05-31,181400.0
2001-04-30,179200.0
2001-03-31,177000.0
2001-02-28,175300.0
2001-01-31,174000.0
2000-12-31,172400.0
2000-11-30,171800.0
2000-10-31,172900.0
2000-09-30,174400.0
2000-08-31,174900.0
2000-07-31,175300.0
2000-06-30,175900.0
2000-05-31,175700.0
2000-04-30,174900.0
2000-03-31,173800.0
2000-02-29,172900.0
2000-01-31,171900.0
1999-12-31,170400.0
1999-11-30,168300.0
1999-10-31,165700.0
1999-09-30,163300.0
1999-08-31,161700.0
1999-07-31,160300.0
1999-06-30,158800.0
1999-05-31,158100.0
1999-04-30,158100.0
1999-03-31,158000.0
1999-02-28,157400.0
1999-01-31,156600.0
1998-12-31,155900.0
1998-11-30,155300.0
1998-10-31,154600.0
1998-09-30,153600.0
1998-08-31,152500.0
1998-07-31,152100.0
1998-06-30,152600.0
1998-05-31,153000.0
1998-04-30,152800.0
1998-03-31,152300.0
1998-02-28,151600.0
1998-01-31,150800.0
1997-12-31,150100.0
1997-11-30,149300.0
1997-10-31,148300.0
1997-09-30,147200.0
1997-08-31,145900.0
1997-07-31,144500.0
1997-06-30,143200.0
1997-05-31,141800.0
1997-04-30,140100.0
1997-03-31,138300.0
1997-02-28,136300.0
1997-01-31,134900.0
1996-12-31,134100.0
1996-11-30,133200.0
1996-10-31,132400.0
1996-09-30,132100.0
1996-08-31,131900.0
1996-07-31,132100.0
1996-06-30,132700.0
1996-05-31,133100.0
1996-04-30,133200.0
