Date,Value
2015-02-28,484000.0
2015-01-31,490000.0
2014-12-31,499000.0
2014-11-30,500000.0
2014-10-31,529000.0
2014-09-30,547500.0
2014-08-31,519950.0
2014-07-31,519950.0
2014-06-30,509950.0
2014-05-31,497000.0
2014-04-30,499950.0
2014-03-31,459950.0
2014-02-28,499999.0
2014-01-31,495000.0
2013-12-31,515000.0
2013-11-30,499950.0
2013-10-31,499950.0
2013-09-30,520000.0
2013-08-31,549500.0
2013-07-31,520000.0
2013-06-30,500000.0
2013-05-31,474950.0
2013-04-30,459000.0
2013-03-31,445000.0
2013-02-28,459000.0
2013-01-31,449000.0
2012-12-31,429950.0
2012-11-30,449000.0
2012-10-31,429950.0
2012-09-30,425000.0
2012-08-31,425000.0
2012-07-31,425000.0
2012-06-30,429950.0
2012-05-31,419950.0
2012-04-30,425000.0
2012-03-31,414950.0
2012-02-29,379000.0
2012-01-31,369950.0
2011-12-31,388000.0
2011-11-30,388500.0
2011-10-31,389000.0
2011-09-30,389000.0
2011-08-31,399000.0
2011-07-31,388500.0
2011-06-30,399950.0
2011-05-31,399950.0
2011-04-30,399000.0
2011-03-31,388500.0
2011-02-28,390750.0
2011-01-31,415000.0
2010-12-31,425000.0
2010-11-30,424950.0
2010-10-31,435000.0
2010-09-30,454950.0
2010-08-31,455000.0
2010-07-31,436950.0
2010-06-30,439950.0
2010-05-31,435000.0
2010-04-30,424500.0
2010-03-31,425000.0
2010-02-28,435000.0
2010-01-31,449950.0
2009-12-31,449950.0
2009-11-30,450950.0
2009-10-31,459000.0
2009-09-30,455000.0
2009-08-31,459000.0
2009-07-31,475000.0
2009-06-30,459999.0
2009-05-31,487000.0
2009-04-30,490000.0
2009-03-31,499450.0
2009-02-28,489950.0
2009-01-31,534950.0
2008-12-31,539000.0
2008-11-30,539000.0
2008-10-31,539000.0
