Date,Value
2015-09-30,0.74
2015-08-31,0.744
2015-07-31,0.738
2015-06-30,0.742
2015-05-31,0.742
2015-04-30,0.74
2015-03-31,0.738
2015-02-28,0.738
2015-01-31,0.744
2014-12-31,0.748
2014-11-30,0.752
2014-10-31,0.75
2014-09-30,0.75
2014-08-31,0.752
2014-07-31,0.754
2014-06-30,0.754
2014-05-31,0.746
2014-04-30,0.744
2014-03-31,0.744
2014-02-28,0.748
2014-01-31,0.746
2013-12-31,0.744
2013-11-30,0.736
2013-10-31,0.722
2013-09-30,0.704
2013-08-31,0.694
2013-07-31,0.694
2013-06-30,0.698
2013-05-31,0.7
2013-04-30,0.7
2013-03-31,0.696
2013-02-28,0.692
2013-01-31,0.692
2012-12-31,0.7
2012-11-30,0.71
2012-10-31,0.714
2012-09-30,0.708
2012-08-31,0.692
2012-07-31,0.68
2012-06-30,0.678
2012-05-31,0.69
2012-04-30,0.702
2012-03-31,0.714
2012-02-29,0.722
2012-01-31,0.73
2011-12-31,0.73
2011-11-30,0.73
2011-10-31,0.734
2011-09-30,0.762
2011-08-31,0.792
2011-07-31,0.808
2011-06-30,0.808
2011-05-31,0.804
2011-04-30,0.804
2011-03-31,0.8
2011-02-28,0.8
2011-01-31,0.796
2010-12-31,0.794
2010-11-30,0.794
