Date,Value
2015-09-30,250600.0
2015-08-31,238625.0
2015-07-31,226250.0
2015-06-30,228400.0
2015-05-31,225110.0
2015-04-30,224294.1176
2015-03-31,239000.0
2014-12-31,224300.0
2014-11-30,197500.0
2014-10-31,216250.0
2014-09-30,207000.0
2014-08-31,202000.0
2014-07-31,209475.0
2014-06-30,204817.0
2014-05-31,211940.0
2014-04-30,223130.0
2014-03-31,209221.1765
2014-02-28,221290.7692
2013-12-31,197895.0
2013-11-30,190958.0
2013-10-31,190862.0
2013-09-30,199990.0
2013-08-31,194830.0
2013-07-31,187030.0
2013-06-30,190188.0
2013-05-31,197440.0
2013-04-30,179750.0
2013-03-31,168235.0
2013-02-28,171715.0
2013-01-31,169450.0
2012-12-31,162442.0
2012-11-30,164740.0
2012-10-31,184397.6471
2012-09-30,202895.3846
2012-07-31,170180.0
2012-06-30,161155.0
2012-05-31,152620.5
2012-04-30,137685.2941
2012-03-31,124653.8462
2011-12-31,188338.8235
2011-11-30,194039.5
2011-10-31,221247.5
2011-09-30,205655.0
2011-08-31,182850.75
2011-07-31,189244.75
2011-06-30,184609.5
2011-05-31,186573.0
2011-04-30,181047.0588
2011-03-31,170000.0
2010-12-31,207100.3
2010-11-30,205115.7
2010-10-31,200251.75
2010-09-30,210985.5
2010-08-31,215515.0
2010-07-31,205889.95
2010-06-30,184868.55
2010-05-31,210606.5
2010-04-30,225280.0
2010-03-31,224114.6154
2010-01-31,202961.6
2009-12-31,194228.75
2009-11-30,212702.95
2009-10-31,212345.8
2009-09-30,210002.35
2009-08-31,216894.6
2009-07-31,219114.65
2009-06-30,203004.5
2009-05-31,207988.0
2009-04-30,213694.1176
2009-03-31,240000.0
2008-12-31,244141.5385
2008-10-31,247667.5
2008-09-30,242098.1
2008-08-31,250039.6
2008-07-31,251394.8
2008-06-30,240420.0
2008-05-31,245037.5
2008-04-30,243347.0
2008-03-31,246760.25
2008-02-29,241162.2
2008-01-31,236263.3
2007-12-31,250408.25
2007-11-30,251927.0
2007-10-31,250445.0
2007-09-30,253007.0
2007-08-31,255690.0
2007-07-31,245687.25
2007-06-30,261443.75
2007-05-31,258719.0
2007-04-30,252145.0
2007-03-31,254383.45
2007-02-28,252984.45
2007-01-31,255613.1
2006-12-31,245159.6
2006-11-30,238903.65
2006-10-31,237644.25
2006-09-30,235551.1
2006-08-31,238317.1
2006-07-31,233044.3
2006-06-30,234269.0
2006-05-31,232209.9
2006-04-30,233477.05
2006-03-31,234112.25
2006-02-28,223926.8
2006-01-31,226459.0
2005-12-31,218295.2
2005-11-30,222344.05
2005-10-31,205982.5
2005-09-30,215353.35
2005-08-31,199079.9
2005-07-31,199782.0
2005-06-30,199925.0
2005-05-31,195775.0
2005-04-30,179510.0
2005-03-31,173865.0
2005-02-28,180900.0
2005-01-31,193250.0
2004-12-31,194325.0
2004-11-30,191075.0
2004-10-31,182915.7
2004-09-30,179153.3
2004-08-31,172854.0
2004-07-31,161565.0
2004-06-30,163450.0
2004-05-31,172425.0
2004-04-30,171875.0
2004-03-31,164792.5
2004-02-29,166282.5
2004-01-31,176005.45
2003-12-31,174921.05
2003-11-30,167001.5
2003-10-31,170500.0
2003-09-30,173125.0
2003-08-31,163375.0
2003-07-31,158275.0
2003-06-30,158975.0
2003-05-31,161155.0
2003-04-30,160445.0
2003-03-31,171842.5
2003-02-28,174352.5
2003-01-31,158205.0
2002-12-31,156750.0
2002-11-30,159450.0
2002-10-31,160852.05
2002-09-30,160896.45
2002-08-31,152323.5
2002-07-31,154325.0
2002-06-30,157075.0
2002-05-31,156625.0
2002-04-30,150600.0
2002-03-31,151450.0
2002-02-28,145560.0
2002-01-31,150940.0
2001-12-31,147810.0
2001-11-30,143990.0
2001-10-31,145850.0
2001-09-30,150359.75
2001-08-31,150010.95
2001-07-31,148283.3
2001-06-30,149249.0
2001-05-31,153760.75
2001-04-30,155901.7
2001-03-31,142749.05
2001-02-28,136169.0
2001-01-31,141182.5
2000-12-31,151125.0
2000-11-30,149576.55
2000-10-31,154511.95
2000-09-30,146276.7
2000-08-31,143229.6
2000-07-31,144241.2
2000-06-30,143533.8
2000-05-31,145531.85
2000-04-30,141702.85
2000-03-31,139628.8
2000-02-29,145395.2
2000-01-31,147457.65
1999-12-31,140096.75
1999-11-30,146974.1
1999-10-31,146051.6
1999-09-30,138232.4
1999-08-31,132332.0
1999-07-31,128950.0
1999-06-30,124125.0
1999-05-31,130300.0
1999-04-30,142575.0
1999-03-31,131150.0
1999-02-28,129500.0
1999-01-31,120400.0
1998-12-31,123925.0
1998-11-30,121525.0
1998-10-31,122818.5
1998-09-30,128719.0
1998-08-31,138227.5
1998-07-31,135975.0
1998-06-30,124485.0
1998-05-31,118540.0
1998-04-30,132375.0
1998-03-31,130422.45
1998-02-28,132769.05
1998-01-31,130441.5
1997-12-31,136525.0
1997-11-30,139325.0
1997-10-31,124675.0
1997-09-30,132000.0
1997-08-31,131975.0
1997-07-31,127375.0
1997-06-30,113425.0
1997-05-31,115590.0
1997-04-30,116985.0
1997-03-31,106525.0
1997-02-28,117125.0
1997-01-31,124175.0
1996-12-31,113900.0
1996-11-30,112900.0
1996-10-31,112575.0
1996-09-30,121225.0
1996-08-31,122442.5
1996-07-31,126625.0
1996-06-30,114707.5
1996-05-31,114627.5
1996-04-30,117052.3
