Date,Value
2015-09-30,254600.0
2015-08-31,251400.0
2015-07-31,249000.0
2015-06-30,248000.0
2015-05-31,246000.0
2015-04-30,242200.0
2015-03-31,240800.0
2015-02-28,238600.0
2015-01-31,237500.0
2014-12-31,237500.0
2014-11-30,236800.0
2014-10-31,235300.0
2014-09-30,234400.0
2014-08-31,234700.0
2014-07-31,235700.0
2014-06-30,236300.0
2014-05-31,236100.0
2014-04-30,236000.0
2014-03-31,235600.0
2014-02-28,234900.0
2014-01-31,232400.0
2013-12-31,229300.0
2013-11-30,227100.0
2013-10-31,225400.0
2013-09-30,222400.0
2013-08-31,219300.0
2013-07-31,215900.0
2013-06-30,212100.0
2013-05-31,208700.0
2013-04-30,206600.0
2013-03-31,205200.0
2013-02-28,203600.0
2013-01-31,202200.0
2012-12-31,201300.0
2012-11-30,201100.0
2012-10-31,201500.0
2012-09-30,201900.0
2012-08-31,200900.0
2012-07-31,198800.0
2012-06-30,197500.0
2012-05-31,196900.0
2012-04-30,197200.0
2012-03-31,197400.0
2012-02-29,197200.0
2012-01-31,197000.0
2011-12-31,197300.0
2011-11-30,197600.0
2011-10-31,197800.0
2011-09-30,198400.0
2011-08-31,199800.0
2011-07-31,201800.0
2011-06-30,204100.0
2011-05-31,206800.0
2011-04-30,208800.0
2011-03-31,210000.0
2011-02-28,212100.0
2011-01-31,214800.0
2010-12-31,216700.0
2010-11-30,218500.0
2010-10-31,221100.0
2010-09-30,223900.0
2010-08-31,226800.0
2010-07-31,229700.0
2010-06-30,232000.0
2010-05-31,233200.0
2010-04-30,234500.0
2010-03-31,236300.0
2010-02-28,237900.0
2010-01-31,239400.0
2009-12-31,241500.0
2009-11-30,243200.0
2009-10-31,244200.0
2009-09-30,245300.0
2009-08-31,247000.0
2009-07-31,249600.0
2009-06-30,252800.0
2009-05-31,256000.0
2009-04-30,259200.0
2009-03-31,262900.0
2009-02-28,266500.0
2009-01-31,269100.0
2008-12-31,271500.0
2008-11-30,275300.0
2008-10-31,279300.0
2008-09-30,282600.0
2008-08-31,284700.0
2008-07-31,286600.0
2008-06-30,288300.0
2008-05-31,290300.0
2008-04-30,292100.0
2008-03-31,294000.0
2008-02-29,295800.0
2008-01-31,298400.0
2007-12-31,301000.0
2007-11-30,302700.0
2007-10-31,304300.0
2007-09-30,306300.0
2007-08-31,308100.0
2007-07-31,309100.0
2007-06-30,310300.0
2007-05-31,311800.0
2007-04-30,313000.0
2007-03-31,313500.0
2007-02-28,313500.0
2007-01-31,313400.0
2006-12-31,313300.0
2006-11-30,311900.0
2006-10-31,308200.0
2006-09-30,304500.0
2006-08-31,302300.0
2006-07-31,300400.0
2006-06-30,297800.0
2006-05-31,294700.0
2006-04-30,292000.0
2006-03-31,289300.0
2006-02-28,286200.0
2006-01-31,282700.0
2005-12-31,279200.0
2005-11-30,275400.0
2005-10-31,272400.0
2005-09-30,269600.0
2005-08-31,265700.0
2005-07-31,261900.0
2005-06-30,258900.0
2005-05-31,255000.0
2005-04-30,249600.0
2005-03-31,244500.0
2005-02-28,240200.0
2005-01-31,235600.0
2004-12-31,231000.0
2004-11-30,227400.0
2004-10-31,224700.0
2004-09-30,221900.0
2004-08-31,219000.0
2004-07-31,215100.0
2004-06-30,210800.0
2004-05-31,206800.0
2004-04-30,203600.0
2004-03-31,200700.0
2004-02-29,197900.0
2004-01-31,196200.0
2003-12-31,195500.0
2003-11-30,194500.0
2003-10-31,192600.0
2003-09-30,190600.0
2003-08-31,189400.0
2003-07-31,188700.0
2003-06-30,187800.0
2003-05-31,187300.0
2003-04-30,186200.0
2003-03-31,184400.0
2003-02-28,183300.0
2003-01-31,183400.0
2002-12-31,182900.0
2002-11-30,182300.0
2002-10-31,180800.0
2002-09-30,178500.0
2002-08-31,176700.0
2002-07-31,176300.0
2002-06-30,176000.0
2002-05-31,175900.0
2002-04-30,176400.0
2002-03-31,177200.0
2002-02-28,178000.0
2002-01-31,177900.0
2001-12-31,177100.0
2001-11-30,176200.0
2001-10-31,176700.0
2001-09-30,178300.0
2001-08-31,179200.0
2001-07-31,178300.0
2001-06-30,177100.0
2001-05-31,176100.0
2001-04-30,175000.0
2001-03-31,174100.0
2001-02-28,173900.0
2001-01-31,174200.0
2000-12-31,173300.0
2000-11-30,172200.0
2000-10-31,173400.0
2000-09-30,174800.0
2000-08-31,174400.0
2000-07-31,173400.0
2000-06-30,172100.0
2000-05-31,171800.0
2000-04-30,172800.0
2000-03-31,173100.0
2000-02-29,171300.0
2000-01-31,168900.0
1999-12-31,167300.0
1999-11-30,166800.0
1999-10-31,165900.0
1999-09-30,164600.0
1999-08-31,163200.0
1999-07-31,162300.0
1999-06-30,161800.0
1999-05-31,160600.0
1999-04-30,158700.0
1999-03-31,157800.0
1999-02-28,157500.0
1999-01-31,156600.0
1998-12-31,155600.0
1998-11-30,154700.0
1998-10-31,153000.0
1998-09-30,150800.0
1998-08-31,149600.0
1998-07-31,149700.0
1998-06-30,149600.0
1998-05-31,148600.0
1998-04-30,147000.0
1998-03-31,145700.0
1998-02-28,144300.0
1998-01-31,142400.0
1997-12-31,141500.0
1997-11-30,140200.0
1997-10-31,138200.0
1997-09-30,136900.0
1997-08-31,136200.0
1997-07-31,134800.0
1997-06-30,133300.0
1997-05-31,131800.0
1997-04-30,130700.0
1997-03-31,130100.0
1997-02-28,129100.0
1997-01-31,128100.0
1996-12-31,127000.0
1996-11-30,125800.0
1996-10-31,124600.0
1996-09-30,123500.0
1996-08-31,122700.0
1996-07-31,122800.0
1996-06-30,123600.0
1996-05-31,124900.0
1996-04-30,125400.0
