Date,Value
2015-09-30,338200.0
2015-08-31,339800.0
2015-07-31,339400.0
2015-06-30,345300.0
2015-05-31,345900.0
2015-04-30,342100.0
2015-03-31,338400.0
2015-02-28,335700.0
2015-01-31,334800.0
2014-12-31,332600.0
2014-11-30,329600.0
2014-10-31,326800.0
2014-09-30,323700.0
2014-08-31,319400.0
2014-07-31,316000.0
2014-06-30,313900.0
2014-05-31,311600.0
2014-04-30,307100.0
2014-03-31,302600.0
2014-02-28,298400.0
2014-01-31,292700.0
2013-12-31,286800.0
2013-11-30,284100.0
2013-10-31,281300.0
2013-09-30,276100.0
2013-08-31,270500.0
2013-07-31,265100.0
2013-06-30,257300.0
2013-05-31,250500.0
2013-04-30,248400.0
2013-03-31,249200.0
2013-02-28,248700.0
2013-01-31,248200.0
2012-12-31,250400.0
2012-11-30,252300.0
2012-10-31,251800.0
2012-09-30,251100.0
2012-08-31,251500.0
2012-07-31,251500.0
2012-06-30,253100.0
2012-05-31,254700.0
2012-04-30,255600.0
2012-03-31,256600.0
2012-02-29,257200.0
2012-01-31,257500.0
2011-12-31,257800.0
2011-11-30,257100.0
2011-10-31,256700.0
2011-09-30,257600.0
2011-08-31,259600.0
2011-07-31,259900.0
2011-06-30,257100.0
2011-05-31,253800.0
2011-04-30,253600.0
2011-03-31,255500.0
2011-02-28,257600.0
2011-01-31,258600.0
2010-12-31,258800.0
2010-11-30,258800.0
2010-10-31,260300.0
2010-09-30,263700.0
2010-08-31,268900.0
2010-07-31,275100.0
2010-06-30,280900.0
2010-05-31,283600.0
2010-04-30,284100.0
2010-03-31,283500.0
2010-02-28,283000.0
2010-01-31,283400.0
2009-12-31,283800.0
2009-11-30,285600.0
2009-10-31,289000.0
2009-09-30,291600.0
2009-08-31,292300.0
2009-07-31,294400.0
2009-06-30,297700.0
2009-05-31,301400.0
2009-04-30,304500.0
2009-03-31,307400.0
2009-02-28,311800.0
2009-01-31,316600.0
2008-12-31,320500.0
2008-11-30,323800.0
2008-10-31,326700.0
2008-09-30,329200.0
2008-08-31,332100.0
2008-07-31,336700.0
2008-06-30,342900.0
2008-05-31,350000.0
2008-04-30,355100.0
2008-03-31,357900.0
2008-02-29,359000.0
2008-01-31,360200.0
2007-12-31,362000.0
2007-11-30,361600.0
2007-10-31,359900.0
2007-09-30,360000.0
2007-08-31,359900.0
2007-07-31,358200.0
2007-06-30,356500.0
2007-05-31,356100.0
2007-04-30,356400.0
2007-03-31,355600.0
2007-02-28,352200.0
2007-01-31,351000.0
2006-12-31,351900.0
2006-11-30,350900.0
2006-10-31,345900.0
2006-09-30,340300.0
2006-08-31,335400.0
2006-07-31,331100.0
2006-06-30,326500.0
2006-05-31,322000.0
2006-04-30,316100.0
2006-03-31,307800.0
2006-02-28,300400.0
2006-01-31,294000.0
2005-12-31,288300.0
2005-11-30,285400.0
2005-10-31,285200.0
2005-09-30,283700.0
2005-08-31,280100.0
2005-07-31,274300.0
2005-06-30,268500.0
2005-05-31,263200.0
2005-04-30,259100.0
2005-03-31,257700.0
2005-02-28,257900.0
2005-01-31,256600.0
2004-12-31,254800.0
2004-11-30,252700.0
2004-10-31,250200.0
2004-09-30,247400.0
2004-08-31,244600.0
2004-07-31,241900.0
2004-06-30,240600.0
2004-05-31,238900.0
2004-04-30,236700.0
2004-03-31,234900.0
2004-02-29,234300.0
2004-01-31,232600.0
2003-12-31,229900.0
2003-11-30,227400.0
2003-10-31,225800.0
2003-09-30,224500.0
2003-08-31,223700.0
2003-07-31,223300.0
2003-06-30,223100.0
2003-05-31,222700.0
2003-04-30,221200.0
2003-03-31,218900.0
2003-02-28,219200.0
2003-01-31,221600.0
2002-12-31,222200.0
2002-11-30,221500.0
2002-10-31,221800.0
2002-09-30,223100.0
2002-08-31,224600.0
2002-07-31,224400.0
2002-06-30,222900.0
2002-05-31,221900.0
2002-04-30,220500.0
2002-03-31,218700.0
2002-02-28,219000.0
2002-01-31,219300.0
2001-12-31,218900.0
2001-11-30,218200.0
2001-10-31,217000.0
2001-09-30,214000.0
2001-08-31,211500.0
2001-07-31,210100.0
2001-06-30,210300.0
2001-05-31,211100.0
2001-04-30,212200.0
2001-03-31,213900.0
2001-02-28,215600.0
2001-01-31,215900.0
2000-12-31,215700.0
2000-11-30,216200.0
2000-10-31,216100.0
2000-09-30,213300.0
2000-08-31,210700.0
2000-07-31,214700.0
2000-06-30,216100.0
2000-05-31,210700.0
2000-04-30,206400.0
2000-03-31,210300.0
2000-02-29,209900.0
2000-01-31,202500.0
1999-12-31,196500.0
1999-11-30,195900.0
1999-10-31,193900.0
1999-09-30,193500.0
1999-08-31,196000.0
1999-07-31,195500.0
1999-06-30,193800.0
1999-05-31,201100.0
1999-04-30,210700.0
1999-03-31,209900.0
1999-02-28,199500.0
1999-01-31,194900.0
1998-12-31,195600.0
1998-11-30,195300.0
1998-10-31,192300.0
1998-09-30,194800.0
1998-08-31,197100.0
1998-07-31,192300.0
1998-06-30,183600.0
1998-05-31,179000.0
1998-04-30,177500.0
1998-03-31,176500.0
1998-02-28,178400.0
1998-01-31,181600.0
1997-12-31,181000.0
1997-11-30,178000.0
1997-10-31,179100.0
1997-09-30,178900.0
1997-08-31,173200.0
1997-07-31,169000.0
1997-06-30,171000.0
1997-05-31,168400.0
1997-04-30,161400.0
1997-03-31,157700.0
1997-02-28,158000.0
1997-01-31,158000.0
1996-12-31,157500.0
1996-11-30,155500.0
1996-10-31,154800.0
1996-09-30,154300.0
1996-08-31,154900.0
1996-07-31,157900.0
1996-06-30,161500.0
1996-05-31,162100.0
1996-04-30,164800.0
