Date,Value
2015-09-30,1.036
2015-08-31,1.022
2015-07-31,1.004
2015-06-30,0.996
2015-05-31,0.982
2015-04-30,0.962
2015-03-31,0.944
2015-02-28,0.93
2015-01-31,0.924
2014-12-31,0.93
2014-11-30,0.942
2014-10-31,0.944
2014-09-30,0.95
2014-08-31,0.952
2014-07-31,0.948
2014-06-30,0.942
2014-05-31,0.936
2014-04-30,0.932
2014-03-31,0.936
2014-02-28,0.938
2014-01-31,0.942
2013-12-31,0.948
2013-11-30,0.944
2013-10-31,0.922
2013-09-30,0.908
2013-08-31,0.9
2013-07-31,0.894
2013-06-30,0.886
2013-05-31,0.878
2013-04-30,0.864
2013-03-31,0.86
2013-02-28,0.86
2013-01-31,0.862
2012-12-31,0.868
2012-11-30,0.878
2012-10-31,0.874
2012-09-30,0.866
2012-08-31,0.852
2012-07-31,0.846
2012-06-30,0.85
2012-05-31,0.86
2012-04-30,0.858
2012-03-31,0.858
2012-02-29,0.85
2012-01-31,0.838
2011-12-31,0.828
2011-11-30,0.824
2011-10-31,0.812
2011-09-30,0.82
2011-08-31,0.832
2011-07-31,0.838
2011-06-30,0.84
2011-05-31,0.834
2011-04-30,0.824
2011-03-31,0.828
2011-02-28,0.84
2011-01-31,0.84
2010-12-31,0.82
2010-11-30,0.796
