Date,Value
2015-09-30,0.782
2015-08-31,0.682
2015-07-31,0.652
2015-06-30,0.66
2015-05-31,0.668
2015-04-30,0.674
2015-03-31,0.674
2015-02-28,0.68
2015-01-31,0.686
2014-12-31,0.682
2014-11-30,0.672
2014-10-31,0.648
2014-09-30,0.634
2014-08-31,0.628
2014-07-31,0.62
2014-06-30,0.616
2014-05-31,0.604
2014-04-30,0.612
2014-03-31,0.606
2014-02-28,0.608
2014-01-31,0.624
2013-12-31,0.658
2013-11-30,0.69
2013-10-31,0.706
2013-09-30,0.714
2013-08-31,0.688
2013-07-31,0.65
2013-06-30,0.604
2013-05-31,0.6
2013-04-30,0.614
2013-03-31,0.642
2013-02-28,0.65
2013-01-31,0.646
2012-12-31,0.632
2012-11-30,0.622
2012-10-31,0.624
2012-09-30,0.63
2012-08-31,0.658
2012-07-31,0.698
2012-06-30,0.746
2012-05-31,0.764
2012-04-30,0.766
2012-03-31,0.758
2012-02-29,0.752
2012-01-31,0.746
2011-12-31,0.734
2011-11-30,0.728
2011-10-31,0.724
2011-09-30,0.73
2011-08-31,0.74
2011-07-31,0.746
2011-06-30,0.752
2011-05-31,0.748
2011-04-30,0.742
2011-03-31,0.724
2011-02-28,0.71
2011-01-31,0.704
2010-12-31,0.7
2010-11-30,0.698
