Date,Value
2015-09-30,334400.0
2015-08-31,305757.5
2015-07-31,329325.0
2015-06-30,314000.0
2015-05-31,292750.0
2015-04-30,291600.0
2015-03-31,312975.0
2015-02-28,309267.5
2015-01-31,280982.5
2014-12-31,264275.0
2014-11-30,265950.0
2014-10-31,283575.0
2014-09-30,297925.0
2014-08-31,291250.0
2014-07-31,281875.0
2014-06-30,286125.0
2014-05-31,288450.0
2014-03-31,218000.0
2013-12-31,264603.0769
2013-10-31,247182.0
2013-09-30,246190.0
2013-08-31,257630.0
2013-07-31,261630.0
2013-06-30,264530.0
2013-05-31,294397.6471
2013-04-30,250280.0
2013-01-31,294390.0
2012-12-31,310802.0
2012-11-30,283788.0
2012-10-31,255407.0
2012-09-30,254948.0
2012-08-31,251015.0
2012-07-31,240042.0
2012-06-30,244873.0
2012-05-31,243907.0
2012-04-30,193640.0
2012-03-31,227632.9412
2012-02-29,207856.9231
2011-12-31,239424.5
2011-11-30,224530.0
2011-10-31,223515.2941
2011-09-30,253676.9231
2011-07-31,278818.4615
2011-05-31,240468.2353
2011-04-30,248280.0
2011-01-31,263350.0
2010-12-31,274750.0
2010-11-30,271200.0
2010-10-31,295500.0
2010-09-30,283500.0
2010-08-31,354499.25
2010-07-31,326498.25
2010-06-30,289789.5
2010-05-31,278473.0
2010-04-30,254615.0
2010-03-31,246352.9412
2010-02-28,256987.6923
2009-12-31,245714.25
2009-11-30,240773.55
2009-10-31,241165.2
2009-09-30,288819.2308
2009-07-31,288252.9412
2009-06-30,294400.0
2009-03-31,333972.3077
2009-01-31,346280.0
2008-09-30,321700.0
2008-08-31,341092.0
2008-07-31,329290.5
2008-06-30,312964.5
2008-05-31,299773.0
2008-04-30,309940.0
2008-03-31,298969.5
2008-02-29,297195.5
2008-01-31,291607.5
2007-12-31,307382.5
2007-11-30,321055.75
2007-10-31,323021.75
2007-09-30,324550.0
2007-08-31,340077.5
2007-07-31,345625.0
2007-06-30,350592.5
2007-05-31,346395.7
2007-04-30,357355.8
2007-03-31,358609.6
2007-02-28,319728.9
2007-01-31,312469.0
2006-12-31,317623.4
2006-11-30,320861.85
2006-10-31,340886.25
2006-09-30,339055.0
2006-08-31,366100.0
2006-07-31,369125.0
2006-06-30,325250.0
2006-05-31,327442.5
2006-04-30,323632.5
2006-03-31,309367.5
2006-02-28,300557.5
2006-01-31,301350.0
2005-12-31,303150.0
2005-11-30,313142.5
2005-10-31,312767.0
2005-09-30,289798.0
2005-08-31,271097.5
2005-07-31,273475.0
2005-06-30,263942.5
2005-05-31,259707.5
2005-04-30,260267.5
2005-03-31,261250.0
2005-02-28,244800.0
2005-01-31,232607.5
2004-12-31,223375.0
2004-11-30,217700.0
2004-10-31,229092.5
2004-05-31,251826.8
2004-04-30,233924.0
2004-03-31,217450.0
2004-02-29,200450.0
2004-01-31,212801.0
2003-12-31,227619.0
2003-11-30,222620.0
2003-10-31,218562.5
2003-09-30,212362.5
2003-08-31,212535.0
2003-07-31,209040.0
2003-06-30,215270.0
2003-05-31,218555.0
2003-04-30,187875.0
2003-03-31,182500.0
2003-02-28,192740.0
2003-01-31,206410.0
2002-12-31,203900.0
2002-11-30,210100.0
2002-10-31,210125.0
2002-09-30,206925.0
2002-08-31,215830.0
2002-07-31,198720.0
2002-06-30,208092.5
2002-05-31,219632.5
2002-04-30,218935.0
2002-03-31,218540.0
2002-02-28,194150.0
2002-01-31,186425.0
2001-12-31,189025.0
2001-11-30,204642.5
2001-10-31,236975.0
2001-09-30,222657.5
2001-08-31,223710.0
2001-07-31,222752.5
2001-06-30,207822.5
2001-05-31,209975.0
2001-04-30,204257.5
2001-03-31,208182.5
2001-02-28,204775.3
2001-01-31,191859.45
2000-12-31,190079.75
2000-11-30,200537.5
2000-10-31,204250.0
2000-09-30,181460.0
2000-08-31,170740.0
2000-07-31,174175.0
2000-06-30,181725.0
2000-05-31,192795.0
2000-04-30,189855.0
2000-03-31,192272.5
2000-02-29,169327.5
2000-01-31,174700.0
1999-12-31,204150.0
1999-11-30,207341.0
1999-10-31,181721.5
1999-09-30,189027.5
1999-08-31,182325.0
1999-07-31,187167.5
1999-06-30,181575.0
1999-05-31,164507.5
1999-04-30,165942.5
1999-03-31,167100.0
1999-02-28,163307.5
1999-01-31,165025.0
1998-12-31,174992.5
1998-11-30,181562.5
1998-10-31,168518.0
1998-09-30,157862.0
1998-08-31,159585.0
1998-07-31,163112.5
1998-06-30,162439.0
1998-05-31,159021.0
1998-04-30,152112.5
1998-03-31,156000.0
1998-02-28,162450.0
1998-01-31,158558.8235
1997-12-31,150000.0
1997-10-31,144140.0
1997-09-30,146385.0
1997-08-31,153482.5
1997-07-31,153545.0
1997-06-30,146947.5
1997-05-31,139385.85
1997-04-30,134533.65
1997-03-31,133227.0
1997-02-28,131117.6471
1997-01-31,145000.0
1996-11-30,159390.0
1996-10-31,163325.0
1996-09-30,156000.0
1996-08-31,145425.0
1996-07-31,156295.0
1996-06-30,149205.0
1996-05-31,144700.0
1996-04-30,150294.1176
