Date,Value
2015-02-28,159500.0
2015-01-31,148225.0
2014-12-31,149900.0
2014-11-30,149900.0
2014-10-31,149900.0
2014-09-30,149900.0
2014-08-31,145000.0
2014-07-31,149000.0
2014-06-30,157000.0
2014-05-31,167500.0
2014-04-30,167500.0
2014-03-31,149900.0
2014-02-28,149000.0
2014-01-31,137000.0
2013-12-31,139900.0
2013-11-30,137000.0
2013-10-31,137000.0
2013-09-30,139900.0
2013-08-31,149900.0
2013-07-31,138000.0
2013-06-30,137000.0
2013-05-31,140000.0
2013-04-30,143000.0
2013-03-31,145000.0
2013-02-28,145000.0
2013-01-31,173000.0
2012-12-31,179000.0
2012-11-30,184900.0
2012-10-31,138000.0
2012-09-30,173000.0
2012-08-31,173000.0
2012-07-31,174500.0
2012-06-30,169900.0
2012-05-31,165000.0
2012-04-30,165000.0
2012-03-31,165000.0
2012-02-29,169900.0
2012-01-31,169750.0
2011-12-31,133500.0
2011-11-30,149900.0
2011-10-31,155000.0
2011-09-30,172000.0
2011-08-31,189900.0
2011-07-31,179000.0
2011-06-30,167000.0
2011-05-31,189950.0
2011-04-30,194900.0
2011-03-31,199500.0
2011-02-28,168000.0
2011-01-31,175000.0
2010-12-31,159900.0
2010-11-30,169500.0
2010-10-31,168000.0
2010-09-30,149950.0
2010-08-31,159900.0
2010-07-31,165900.0
2010-06-30,165000.0
2010-05-31,159900.0
2010-04-30,165900.0
2010-03-31,159900.0
2010-02-28,159900.0
2010-01-31,160000.0
2009-12-31,159900.0
2009-11-30,160000.0
2009-10-31,184500.0
2009-09-30,174950.0
2009-08-31,179900.0
2009-07-31,160000.0
2009-06-30,153500.0
2009-05-31,167900.0
2009-04-30,174900.0
2009-03-31,174900.0
2009-02-28,185000.0
2009-01-31,185000.0
2008-12-31,235000.0
2008-11-30,235000.0
2008-10-31,235000.0
