Date,Value
2006-04-30,475000.0
2005-07-31,382647.0588
2005-06-30,365000.0
2002-07-31,243076.9231
2002-05-31,255000.0
2001-08-31,315000.0
2000-11-30,250000.0
2000-06-30,335000.0
1999-06-30,390000.0
1998-08-31,327000.0
1996-10-31,170000.0
