Date,Value
2015-09-30,259715.0
2015-08-31,261450.0
2015-07-31,269350.0
2015-06-30,274885.0
2015-05-31,266950.0
2015-04-30,236300.0
2015-03-31,243325.0
2015-02-28,252310.0
2015-01-31,255450.0
2014-12-31,243150.0
2014-11-30,244100.0
2014-10-31,240715.0
2014-09-30,236950.0
2014-08-31,250300.0
2014-07-31,258450.0
2014-06-30,250050.0
2014-05-31,244000.0
2014-04-30,250700.0
2014-03-31,271000.0
2014-02-28,254200.0
2014-01-31,256050.0
2013-12-31,250600.0
2013-11-30,226050.0
2013-10-31,230400.0
2013-09-30,237950.0
2013-08-31,231500.0
2013-07-31,233500.0
2013-06-30,237375.0
2013-05-31,225696.5
2013-04-30,213433.5
2013-03-31,209555.0
2013-02-28,208000.0
2013-01-31,214700.0
2012-12-31,211550.0
2012-11-30,215750.0
2012-10-31,226235.0
2012-09-30,226615.0
2012-08-31,223050.0
2012-07-31,199500.0
2012-06-30,199500.0
2012-05-31,209000.0
2012-04-30,211500.0
2012-03-31,192000.0
2012-02-29,194500.0
2012-01-31,189750.0
2011-12-31,189750.0
2011-11-30,194975.0
2011-10-31,207100.0
2011-09-30,217525.0
2011-08-31,213711.75
2011-07-31,195985.75
2011-06-30,208172.5
2011-05-31,211250.0
2011-04-30,219750.0
2011-03-31,203735.0
2011-02-28,206965.0
2011-01-31,209435.0
2010-12-31,230015.0
2010-11-30,235400.0
2010-10-31,211000.0
2010-09-30,213750.0
2010-08-31,215835.0
2010-07-31,226100.0
2010-06-30,218896.2
2010-05-31,214072.8
2010-04-30,199500.0
2010-03-31,207850.0
2010-02-28,208150.0
2010-01-31,215445.0
2009-12-31,213202.5
2009-11-30,218117.5
2009-10-31,228335.0
2009-09-30,240950.0
2009-08-31,238367.0
2009-07-31,222230.15
2009-06-30,221420.35
2009-05-31,213133.5
2009-04-30,214890.0
2009-03-31,231294.1176
2009-02-28,270000.0
2008-12-31,242725.0
2008-11-30,237325.45
2008-10-31,245301.05
2008-09-30,236651.5
2008-08-31,248302.0
2008-07-31,264388.0
2008-06-30,282090.0
2008-05-31,300500.0
2008-04-30,281700.0
2008-03-31,299825.0
2008-02-29,245475.0
2008-01-31,253664.6
2007-12-31,257167.4
2007-11-30,242407.0
2007-10-31,252225.0
2007-09-30,262125.0
2007-08-31,265660.0
2007-07-31,261265.0
2007-06-30,268900.0
2007-05-31,272552.75
2007-04-30,269189.75
2007-03-31,261492.5
2007-02-28,255450.0
2007-01-31,259970.0
2006-12-31,278680.0
2006-11-30,313750.0
2006-10-31,340375.0
2006-09-30,292825.0
2006-08-31,294950.0
2006-07-31,312535.0
2006-06-30,295315.0
2006-05-31,273000.0
2006-04-30,257035.0
2006-03-31,253115.0
2006-02-28,263545.75
2006-01-31,262656.75
2005-12-31,254202.5
2005-11-30,251710.95
2005-10-31,257675.55
2005-09-30,254786.5
2005-08-31,258005.0
2005-07-31,249445.0
2005-06-30,234100.0
2005-05-31,217228.9
2005-04-30,217355.6
2005-03-31,224332.2
2005-02-28,213634.9
2005-01-31,213377.6
2004-12-31,217302.7
2004-11-30,208349.6
2004-10-31,208915.5
2004-09-30,194275.0
2004-08-31,197935.0
2004-07-31,195250.0
2004-06-30,188915.0
2004-05-31,184725.0
2004-04-30,183787.1
2004-03-31,178792.45
2004-02-29,171495.1
2004-01-31,165471.85
2003-12-31,175125.5
2003-11-30,180015.0
2003-10-31,181996.65
2003-09-30,172215.7
2003-08-31,173624.4
2003-07-31,165933.5
2003-06-30,163487.25
2003-05-31,155892.5
2003-04-30,159050.25
2003-03-31,153910.35
2003-02-28,157351.4
2003-01-31,155272.0
2002-12-31,156525.0
2002-11-30,154564.55
2002-10-31,157413.95
2002-09-30,165668.05
2002-08-31,162848.65
2002-07-31,162138.25
2002-06-30,163007.75
2002-05-31,157642.8
2002-04-30,143384.0
2002-03-31,137360.0
2002-02-28,147026.6
2002-01-31,167995.4
2001-12-31,180872.0
2001-11-30,167468.95
2001-10-31,157442.55
2001-09-30,160086.5
2001-08-31,166356.65
2001-07-31,157444.8
2001-06-30,156065.55
2001-05-31,149642.0
2001-04-30,148115.0
2001-03-31,148475.0
2001-02-28,153824.85
2001-01-31,145940.2
2000-12-31,156677.45
2000-11-30,148168.5
2000-10-31,145550.0
2000-09-30,143793.0
2000-08-31,149778.5
2000-07-31,145782.65
2000-06-30,145661.25
2000-05-31,140693.6
2000-04-30,140148.0
2000-03-31,140700.0
2000-02-29,131250.0
2000-01-31,142425.0
1999-12-31,155252.5
1999-11-30,155852.5
1999-10-31,157589.5
1999-09-30,155680.5
1999-08-31,152915.0
1999-07-31,148000.0
1999-06-30,153815.0
1999-05-31,156850.0
1999-04-30,150500.0
1999-03-31,150585.0
1999-02-28,147850.0
1999-01-31,150415.0
1998-12-31,153067.6
1998-11-30,153788.05
1998-10-31,161099.6
1998-09-30,158257.25
1998-08-31,160152.5
1998-07-31,155247.5
1998-06-30,141160.85
1998-05-31,134820.5
1998-04-30,136439.65
1998-03-31,139187.15
1998-02-28,132904.85
1998-01-31,133268.5
1997-12-31,138913.85
1997-11-30,141180.65
1997-10-31,137831.35
1997-09-30,135670.75
1997-08-31,137564.9
1997-07-31,133527.5
1997-06-30,130019.55
1997-05-31,138531.95
1997-04-30,141248.35
1997-03-31,138839.65
1997-02-28,136297.0
1997-01-31,131492.5
1996-12-31,131615.25
1996-11-30,134652.25
1996-10-31,132217.5
1996-09-30,127055.0
1996-08-31,121245.0
1996-07-31,113525.0
1996-06-30,113700.0
1996-05-31,112832.5
1996-04-30,108442.5
