Date,Value
2015-09-30,355200.0
2015-08-31,359200.0
2015-07-31,354100.0
2015-06-30,352900.0
2015-05-31,349900.0
2015-04-30,348500.0
2015-03-31,347900.0
2015-02-28,346200.0
2015-01-31,344100.0
2014-12-31,343200.0
2014-11-30,343000.0
2014-10-31,342300.0
2014-09-30,341300.0
2014-08-31,340400.0
2014-07-31,339100.0
2014-06-30,337600.0
2014-05-31,335500.0
2014-04-30,332700.0
2014-03-31,329900.0
2014-02-28,328600.0
2014-01-31,328100.0
2013-12-31,326900.0
2013-11-30,325000.0
2013-10-31,323600.0
2013-09-30,321400.0
2013-08-31,318200.0
2013-07-31,314600.0
2013-06-30,310000.0
2013-05-31,305200.0
2013-04-30,301300.0
2013-03-31,298000.0
2013-02-28,294900.0
2013-01-31,293200.0
2012-12-31,291700.0
2012-11-30,289300.0
2012-10-31,286100.0
2012-09-30,284200.0
2012-08-31,282800.0
2012-07-31,282000.0
2012-06-30,281500.0
2012-05-31,281100.0
2012-04-30,279500.0
2012-03-31,278400.0
2012-02-29,277900.0
2012-01-31,277400.0
2011-12-31,276000.0
2011-11-30,274500.0
2011-10-31,272800.0
2011-09-30,271200.0
2011-08-31,270000.0
2011-07-31,269800.0
2011-06-30,269900.0
2011-05-31,270400.0
2011-04-30,272000.0
2011-03-31,274800.0
2011-02-28,277300.0
2011-01-31,279200.0
2010-12-31,281400.0
2010-11-30,283200.0
2010-10-31,284900.0
2010-09-30,287700.0
2010-08-31,291500.0
2010-07-31,295200.0
2010-06-30,298500.0
2010-05-31,301100.0
2010-04-30,303400.0
2010-03-31,305000.0
2010-02-28,305300.0
2010-01-31,304700.0
2009-12-31,304400.0
2009-11-30,305400.0
2009-10-31,307700.0
2009-09-30,310500.0
2009-08-31,313500.0
2009-07-31,316300.0
2009-06-30,319000.0
2009-05-31,322000.0
2009-04-30,325500.0
2009-03-31,328500.0
2009-02-28,332200.0
2009-01-31,336100.0
2008-12-31,340700.0
2008-11-30,347200.0
2008-10-31,353300.0
2008-09-30,356100.0
2008-08-31,356900.0
2008-07-31,356900.0
2008-06-30,358100.0
2008-05-31,361600.0
2008-04-30,365700.0
2008-03-31,368300.0
2008-02-29,370500.0
2008-01-31,373000.0
2007-12-31,374800.0
2007-11-30,375000.0
2007-10-31,375600.0
2007-09-30,377000.0
2007-08-31,378300.0
2007-07-31,379400.0
2007-06-30,380500.0
2007-05-31,380700.0
2007-04-30,380100.0
2007-03-31,379800.0
2007-02-28,380100.0
2007-01-31,380600.0
2006-12-31,380800.0
2006-11-30,380900.0
2006-10-31,381800.0
2006-09-30,383600.0
2006-08-31,384800.0
2006-07-31,384700.0
2006-06-30,383200.0
2006-05-31,380700.0
2006-04-30,378100.0
2006-03-31,375500.0
2006-02-28,372400.0
2006-01-31,368400.0
2005-12-31,364500.0
2005-11-30,360000.0
2005-10-31,354000.0
2005-09-30,346800.0
2005-08-31,339700.0
2005-07-31,333100.0
2005-06-30,326800.0
2005-05-31,320300.0
2005-04-30,313600.0
2005-03-31,307600.0
2005-02-28,302300.0
2005-01-31,297500.0
2004-12-31,292700.0
2004-11-30,288200.0
2004-10-31,283700.0
2004-09-30,279900.0
2004-08-31,277000.0
2004-07-31,274500.0
2004-06-30,271600.0
2004-05-31,269300.0
2004-04-30,268200.0
2004-03-31,267400.0
2004-02-29,266100.0
2004-01-31,265600.0
2003-12-31,265700.0
2003-11-30,265600.0
2003-10-31,265200.0
2003-09-30,264800.0
2003-08-31,263800.0
2003-07-31,262500.0
2003-06-30,262100.0
2003-05-31,262100.0
2003-04-30,261200.0
2003-03-31,259600.0
2003-02-28,258000.0
2003-01-31,255800.0
2002-12-31,253000.0
2002-11-30,251000.0
2002-10-31,249800.0
2002-09-30,248200.0
2002-08-31,247500.0
2002-07-31,247500.0
2002-06-30,246900.0
2002-05-31,245600.0
2002-04-30,245200.0
2002-03-31,245700.0
2002-02-28,246500.0
2002-01-31,246800.0
2001-12-31,247000.0
2001-11-30,246500.0
2001-10-31,245600.0
2001-09-30,245000.0
2001-08-31,245100.0
2001-07-31,245300.0
2001-06-30,246300.0
2001-05-31,246900.0
2001-04-30,246400.0
2001-03-31,246000.0
2001-02-28,245300.0
2001-01-31,244200.0
2000-12-31,243000.0
2000-11-30,241700.0
2000-10-31,240300.0
2000-09-30,239300.0
2000-08-31,238100.0
2000-07-31,237200.0
2000-06-30,236700.0
2000-05-31,235800.0
2000-04-30,234000.0
2000-03-31,231600.0
2000-02-29,230000.0
2000-01-31,229800.0
1999-12-31,230400.0
1999-11-30,231500.0
1999-10-31,233200.0
1999-09-30,234600.0
1999-08-31,235500.0
1999-07-31,235900.0
1999-06-30,236700.0
1999-05-31,237700.0
1999-04-30,237400.0
1999-03-31,235300.0
1999-02-28,233400.0
1999-01-31,232300.0
1998-12-31,231800.0
1998-11-30,231200.0
1998-10-31,230700.0
1998-09-30,230700.0
1998-08-31,230800.0
1998-07-31,230700.0
1998-06-30,230700.0
1998-05-31,231300.0
1998-04-30,232700.0
1998-03-31,234100.0
1998-02-28,234600.0
1998-01-31,234200.0
1997-12-31,232700.0
1997-11-30,229700.0
1997-10-31,226600.0
1997-09-30,224500.0
1997-08-31,223600.0
1997-07-31,221700.0
1997-06-30,216800.0
1997-05-31,212000.0
1997-04-30,209800.0
1997-03-31,208200.0
1997-02-28,206600.0
1997-01-31,205700.0
1996-12-31,205000.0
1996-11-30,204800.0
1996-10-31,205000.0
1996-09-30,204000.0
1996-08-31,201400.0
1996-07-31,199700.0
1996-06-30,199700.0
1996-05-31,200100.0
1996-04-30,199900.0
