Date,Value
2015-09-30,250500.0
2015-08-31,250200.0
2015-07-31,240900.0
2015-06-30,237400.0
2015-05-31,231600.0
2015-04-30,229800.0
2015-03-31,229300.0
2015-02-28,229300.0
2015-01-31,230500.0
2014-12-31,231900.0
2014-11-30,230800.0
2014-10-31,228200.0
2014-09-30,229200.0
2014-08-31,234000.0
2014-07-31,236400.0
2014-06-30,235100.0
2014-05-31,231700.0
2014-04-30,228400.0
2014-03-31,226100.0
2014-02-28,225600.0
2014-01-31,223500.0
2013-12-31,220500.0
2013-11-30,217000.0
2013-10-31,213200.0
2013-09-30,208600.0
2013-08-31,206200.0
2013-07-31,206600.0
2013-06-30,206600.0
2013-05-31,206000.0
2013-04-30,206700.0
2013-03-31,207300.0
2013-02-28,204400.0
2013-01-31,201500.0
2012-12-31,198200.0
2012-11-30,194800.0
2012-10-31,195300.0
2012-09-30,200400.0
2012-08-31,204600.0
2012-07-31,206300.0
2012-06-30,208800.0
2012-05-31,211900.0
2012-04-30,213900.0
2012-03-31,214700.0
2012-02-29,215400.0
2012-01-31,217200.0
2011-12-31,221600.0
2011-11-30,225600.0
2011-10-31,226900.0
2011-09-30,226700.0
2011-08-31,225400.0
2011-07-31,223600.0
2011-06-30,222400.0
2011-05-31,221500.0
2011-04-30,220600.0
2011-03-31,220300.0
2011-02-28,221000.0
2011-01-31,221500.0
2010-12-31,221800.0
2010-11-30,221100.0
2010-10-31,219200.0
2010-09-30,216400.0
2010-08-31,212500.0
2010-07-31,210900.0
2010-06-30,211800.0
2010-05-31,211400.0
2010-04-30,210300.0
2010-03-31,211200.0
2010-02-28,211600.0
2010-01-31,211600.0
2009-12-31,213700.0
2009-11-30,217300.0
2009-10-31,221000.0
2009-09-30,224200.0
2009-08-31,226100.0
2009-07-31,225300.0
2009-06-30,224300.0
2009-05-31,225400.0
2009-04-30,226000.0
2009-03-31,223900.0
2009-02-28,222000.0
2009-01-31,219600.0
2008-12-31,217200.0
2008-11-30,218500.0
2008-10-31,221700.0
2008-09-30,225400.0
2008-08-31,231900.0
2008-07-31,236400.0
2008-06-30,236300.0
2008-05-31,237500.0
2008-04-30,240000.0
2008-03-31,242000.0
2008-02-29,244200.0
2008-01-31,246200.0
2007-12-31,246300.0
2007-11-30,244800.0
2007-10-31,242100.0
2007-09-30,235300.0
2007-08-31,226800.0
2007-07-31,224200.0
2007-06-30,226900.0
2007-05-31,227000.0
2007-04-30,224300.0
2007-03-31,223200.0
2007-02-28,223700.0
2007-01-31,223700.0
2006-12-31,221500.0
2006-11-30,218100.0
2006-10-31,216000.0
2006-09-30,216800.0
2006-08-31,218600.0
2006-07-31,220200.0
2006-06-30,219900.0
2006-05-31,220400.0
2006-04-30,223100.0
2006-03-31,224500.0
2006-02-28,223300.0
2006-01-31,222200.0
2005-12-31,221700.0
2005-11-30,219600.0
2005-10-31,215400.0
2005-09-30,211100.0
2005-08-31,209400.0
2005-07-31,208800.0
2005-06-30,206200.0
2005-05-31,200900.0
2005-04-30,194200.0
2005-03-31,190200.0
2005-02-28,187800.0
2005-01-31,183800.0
2004-12-31,180300.0
2004-11-30,179700.0
2004-10-31,180200.0
2004-09-30,180100.0
2004-08-31,177300.0
2004-07-31,172200.0
2004-06-30,168100.0
2004-05-31,166200.0
2004-04-30,166300.0
2004-03-31,166000.0
2004-02-29,165300.0
2004-01-31,164400.0
2003-12-31,163800.0
2003-11-30,163300.0
2003-10-31,162500.0
2003-09-30,160600.0
2003-08-31,159600.0
2003-07-31,158500.0
2003-06-30,157800.0
2003-05-31,157300.0
2003-04-30,157600.0
2003-03-31,156300.0
2003-02-28,154700.0
2003-01-31,153800.0
2002-12-31,153100.0
2002-11-30,152100.0
2002-10-31,151700.0
2002-09-30,152000.0
2002-08-31,151700.0
2002-07-31,151000.0
2002-06-30,149700.0
2002-05-31,149600.0
2002-04-30,149300.0
2002-03-31,147600.0
2002-02-28,144300.0
2002-01-31,142300.0
2001-12-31,142500.0
2001-11-30,143800.0
2001-10-31,143900.0
2001-09-30,142700.0
2001-08-31,141500.0
2001-07-31,141300.0
2001-06-30,142200.0
2001-05-31,142600.0
2001-04-30,143000.0
2001-03-31,144400.0
2001-02-28,147100.0
2001-01-31,150100.0
2000-12-31,149800.0
2000-11-30,146900.0
2000-10-31,145900.0
2000-09-30,148200.0
2000-08-31,150200.0
2000-07-31,151500.0
2000-06-30,151600.0
2000-05-31,151300.0
2000-04-30,149700.0
2000-03-31,147900.0
2000-02-29,146700.0
2000-01-31,147500.0
1999-12-31,149000.0
1999-11-30,149400.0
1999-10-31,148400.0
1999-09-30,148000.0
1999-08-31,147400.0
1999-07-31,146600.0
1999-06-30,146400.0
1999-05-31,146000.0
1999-04-30,145900.0
1999-03-31,148000.0
1999-02-28,150200.0
1999-01-31,150000.0
1998-12-31,149800.0
1998-11-30,149600.0
1998-10-31,147800.0
1998-09-30,144900.0
1998-08-31,141900.0
1998-07-31,139100.0
1998-06-30,136900.0
1998-05-31,133000.0
1998-04-30,128300.0
1998-03-31,124500.0
1998-02-28,121400.0
1998-01-31,117300.0
1997-12-31,113100.0
1997-11-30,109000.0
1997-10-31,105900.0
1997-09-30,103700.0
1997-08-31,102300.0
1997-07-31,100400.0
1997-06-30,98600.0
1997-05-31,98000.0
1997-04-30,98400.0
1997-03-31,99100.0
1997-02-28,99200.0
1997-01-31,99100.0
1996-12-31,100100.0
1996-11-30,102900.0
1996-10-31,106100.0
1996-09-30,108200.0
1996-08-31,109900.0
1996-07-31,112200.0
1996-06-30,114900.0
1996-05-31,117100.0
1996-04-30,117900.0
