Date,Value
2015-09-30,0.702
2015-08-31,0.714
2015-07-31,0.71
2015-06-30,0.668
2015-05-31,0.636
2015-04-30,0.616
2015-03-31,0.62
2015-02-28,0.626
2015-01-31,0.646
2014-12-31,0.656
2014-11-30,0.662
2014-10-31,0.664
2014-09-30,0.662
2014-08-31,0.666
2014-07-31,0.678
2014-06-30,0.696
2014-05-31,0.702
2014-04-30,0.712
2014-03-31,0.712
2014-02-28,0.706
2014-01-31,0.674
2013-12-31,0.648
2013-11-30,0.636
2013-10-31,0.642
2013-09-30,0.644
2013-08-31,0.646
2013-07-31,0.632
2013-06-30,0.616
2013-05-31,0.61
2013-04-30,0.614
2013-03-31,0.62
2013-02-28,0.624
2013-01-31,0.634
2012-12-31,0.644
2012-11-30,0.648
2012-10-31,0.652
2012-09-30,0.664
2012-08-31,0.672
2012-07-31,0.69
2012-06-30,0.698
2012-05-31,0.708
2012-04-30,0.706
2012-03-31,0.708
2012-02-29,0.714
2012-01-31,0.722
2011-12-31,0.728
2011-11-30,0.734
2011-10-31,0.736
2011-09-30,0.728
2011-08-31,0.722
2011-07-31,0.71
2011-06-30,0.708
2011-05-31,0.704
2011-04-30,0.706
2011-03-31,0.702
2011-02-28,0.7
2011-01-31,0.706
2010-12-31,0.712
2010-11-30,0.714
