Date,Value
2015-02-28,750000.0
2015-01-31,750000.0
2014-12-31,639000.0
2014-11-30,595000.0
2014-10-31,500000.0
2014-09-30,479000.0
2014-08-31,499999.0
2014-07-31,599000.0
2014-06-30,599900.0
2014-05-31,595000.0
2014-04-30,669000.0
2014-03-31,759000.0
2014-02-28,959950.0
2014-01-31,1249000.0
2013-12-31,1094000.0
2013-11-30,1079000.0
2013-10-31,959000.0
2013-09-30,959000.0
2013-08-31,959000.0
2013-07-31,747000.0
2013-06-30,630000.0
2013-05-31,999000.0
2013-04-30,999000.0
2013-03-31,1029000.0
2013-02-28,996000.0
2013-01-31,809000.0
2012-12-31,550000.0
2012-11-30,519000.0
2012-10-31,545000.0
2012-09-30,599950.0
2012-08-31,659000.0
2012-07-31,575000.0
2012-06-30,575000.0
2012-05-31,550000.0
2012-04-30,519000.0
2012-03-31,535000.0
2012-02-29,525000.0
2012-01-31,525000.0
2011-12-31,549000.0
2011-11-30,540000.0
2011-10-31,540000.0
2011-09-30,549000.0
2011-08-31,515000.0
2011-07-31,499000.0
2011-06-30,515000.0
2011-05-31,515000.0
2011-04-30,499500.0
2011-03-31,485000.0
2011-02-28,494000.0
2011-01-31,555000.0
2010-12-31,549900.0
2010-11-30,545000.0
2010-10-31,539000.0
2010-09-30,505000.0
2010-08-31,484000.0
2010-07-31,495000.0
2010-06-30,495000.0
2010-05-31,499000.0
2010-04-30,499000.0
2010-03-31,505000.0
2010-02-28,499000.0
2010-01-31,520000.0
2009-12-31,470250.0
2009-11-30,480000.0
2009-10-31,480000.0
2009-09-30,325000.0
2009-08-31,480000.0
2009-07-31,434800.0
2009-06-30,434800.0
2009-05-31,399000.0
2009-04-30,399000.0
2009-03-31,424900.0
2009-02-28,499000.0
2009-01-31,450000.0
2008-12-31,435000.0
2008-11-30,435000.0
2008-10-31,450000.0
