Date,Value
2015-02-28,309900.0
2015-01-31,309900.0
2014-12-31,289900.0
2014-11-30,334900.0
2014-10-31,349000.0
2014-09-30,345000.0
2014-08-31,349900.0
2014-07-31,349000.0
2014-06-30,335000.0
2014-05-31,329900.0
2014-04-30,339900.0
2014-03-31,349700.0
2014-02-28,350000.0
2014-01-31,349700.0
2013-12-31,358500.0
2013-11-30,359900.0
2013-10-31,358000.0
2013-09-30,350000.0
2013-08-31,325000.0
2013-07-31,300000.0
2013-06-30,299000.0
2013-05-31,289900.0
2013-04-30,279900.0
2013-03-31,265000.0
2013-02-28,284610.0
2013-01-31,239900.0
2012-12-31,244500.0
2012-11-30,244500.0
2012-10-31,249900.0
2012-09-30,245000.0
2012-08-31,259550.0
2012-07-31,249900.0
2012-06-30,241270.0
2012-05-31,245000.0
2012-04-30,250000.0
2012-03-31,260000.0
2012-02-29,255000.0
2012-01-31,275000.0
2011-12-31,279900.0
2011-11-30,285000.0
2011-10-31,299900.0
2011-09-30,289900.0
2011-08-31,305000.0
2011-07-31,285000.0
2011-06-30,279000.0
2011-05-31,269900.0
2011-04-30,280000.0
2011-03-31,270000.0
2011-02-28,234900.0
2011-01-31,239970.0
2010-12-31,269900.0
2010-11-30,325000.0
2010-10-31,325000.0
2010-09-30,329000.0
2010-08-31,349800.0
2010-07-31,359000.0
2010-06-30,359000.0
2010-05-31,349900.0
2010-04-30,329000.0
2010-03-31,312000.0
2010-02-28,310000.0
2010-01-31,314500.0
2009-12-31,324500.0
2009-11-30,315000.0
2009-10-31,300000.0
2009-09-30,314950.0
2009-08-31,325000.0
2009-07-31,325000.0
2009-06-30,314700.0
2009-05-31,314355.0
2009-04-30,314355.0
2009-03-31,339000.0
2009-02-28,319900.0
2009-01-31,349900.0
2008-12-31,350000.0
2008-11-30,319900.0
2008-10-31,325000.0
