Date,Value
2015-02-28,375000.0
2015-01-31,385000.0
2014-12-31,385000.0
2014-11-30,395000.0
2014-10-31,395000.0
2014-09-30,409500.0
2014-08-31,399900.0
2014-07-31,400000.0
2014-06-30,415000.0
2014-05-31,384900.0
2014-04-30,359500.0
2014-03-31,374950.0
2014-02-28,365000.0
2014-01-31,359000.0
2013-12-31,359500.0
2013-11-30,370000.0
2013-10-31,359950.0
2013-09-30,359000.0
2013-08-31,350000.0
2013-07-31,343500.0
2013-06-30,343500.0
2013-05-31,332500.0
2013-04-30,335000.0
2013-03-31,300000.0
2013-02-28,339900.0
2013-01-31,307500.0
2012-12-31,339950.0
2012-11-30,339950.0
2012-10-31,314000.0
2012-09-30,310000.0
2012-08-31,314000.0
2012-07-31,319000.0
2012-06-30,324900.0
2012-05-31,299950.0
2012-04-30,288500.0
2012-03-31,259800.0
2012-02-29,253800.0
2012-01-31,249950.0
2011-12-31,253800.0
2011-11-30,260000.0
2011-10-31,275000.0
2011-09-30,275000.0
2011-08-31,289900.0
2011-07-31,289900.0
2011-06-30,289900.0
2011-05-31,295000.0
2011-04-30,295000.0
2011-03-31,307000.0
2011-02-28,299722.0
2011-01-31,299000.0
2010-12-31,319722.0
2010-11-30,310000.0
2010-10-31,325500.0
2010-09-30,325000.0
2010-08-31,319900.0
2010-07-31,319722.0
2010-06-30,339000.0
2010-05-31,349500.0
2010-04-30,349952.0
2010-03-31,349000.0
2010-02-28,349888.0
2010-01-31,339950.0
2009-12-31,349950.0
2009-11-30,346750.0
2009-10-31,350000.0
2009-09-30,349500.0
2009-08-31,365000.0
2009-07-31,399000.0
2009-06-30,389000.0
2009-05-31,389950.0
2009-04-30,399000.0
2009-03-31,399000.0
2009-02-28,399000.0
2009-01-31,399000.0
2008-12-31,399000.0
2008-11-30,390000.0
2008-10-31,385000.0
