Date,Value
2015-02-28,269000.0
2015-01-31,267000.0
2014-12-31,269000.0
2014-11-30,269000.0
2014-10-31,295000.0
2014-09-30,289500.0
2014-08-31,244900.0
2014-07-31,269000.0
2014-06-30,295000.0
2014-05-31,269000.0
2014-04-30,229000.0
2014-03-31,229000.0
2014-02-28,239000.0
2014-01-31,239400.0
2013-12-31,280000.0
2013-11-30,280000.0
2013-10-31,280000.0
2013-09-30,280000.0
2013-08-31,289500.0
2013-07-31,244900.0
2013-06-30,239000.0
2013-05-31,229000.0
2013-04-30,269000.0
2013-03-31,284900.0
2013-02-28,284900.0
2013-01-31,255000.0
2012-12-31,219000.0
2012-11-30,275000.0
2012-10-31,164000.0
2012-09-30,275000.0
2012-08-31,250000.0
2012-07-31,230000.0
2012-06-30,260000.0
2012-05-31,252000.0
2012-04-30,239000.0
2012-03-31,239000.0
2012-02-29,239000.0
2012-01-31,230000.0
2011-12-31,239000.0
2011-11-30,230000.0
2011-10-31,249000.0
2011-09-30,249000.0
2011-08-31,249000.0
2011-07-31,230000.0
2011-06-30,269000.0
2011-05-31,224000.0
2011-04-30,219500.0
2011-03-31,255000.0
2011-02-28,255000.0
2011-01-31,255000.0
2010-12-31,255000.0
2010-11-30,255000.0
2010-10-31,275000.0
2010-09-30,260000.0
2010-08-31,255000.0
2010-07-31,260000.0
2010-06-30,255000.0
2010-05-31,269900.0
2010-04-30,269900.0
2010-03-31,260000.0
2010-02-28,285000.0
2010-01-31,285000.0
2009-12-31,299500.0
2009-11-30,299500.0
2009-10-31,285000.0
2009-09-30,285000.0
2009-08-31,299500.0
2009-07-31,299500.0
2009-06-30,310000.0
2009-05-31,310000.0
2009-04-30,299500.0
2009-03-31,295000.0
2009-02-28,295000.0
2009-01-31,295000.0
2008-12-31,295000.0
2008-11-30,299000.0
2008-10-31,299500.0
