Date,Value
2015-09-30,204600.0
2015-08-31,195600.0
2015-07-31,190600.0
2015-06-30,189700.0
2015-05-31,188500.0
2015-04-30,185300.0
2015-03-31,182900.0
2015-02-28,180700.0
2015-01-31,179300.0
2014-12-31,177700.0
2014-11-30,176300.0
2014-10-31,175300.0
2014-09-30,173900.0
2014-08-31,171700.0
2014-07-31,170000.0
2014-06-30,168900.0
2014-05-31,167600.0
2014-04-30,165000.0
2014-03-31,162000.0
2014-02-28,160100.0
2014-01-31,159000.0
2013-12-31,157700.0
2013-11-30,155600.0
2013-10-31,153500.0
2013-09-30,152800.0
2013-08-31,153400.0
2013-07-31,153100.0
2013-06-30,152500.0
2013-05-31,151500.0
2013-04-30,150200.0
2013-03-31,149800.0
2013-02-28,148800.0
2013-01-31,146100.0
2012-12-31,143600.0
2012-11-30,142000.0
2012-10-31,141200.0
2012-09-30,141800.0
2012-08-31,143100.0
2012-07-31,142800.0
2012-06-30,141200.0
2012-05-31,139300.0
2012-04-30,139300.0
2012-03-31,139600.0
2012-02-29,139700.0
2012-01-31,140600.0
2011-12-31,142500.0
2011-11-30,143900.0
2011-10-31,145200.0
2011-09-30,146400.0
2011-08-31,148600.0
2011-07-31,152000.0
2011-06-30,154600.0
2011-05-31,156200.0
2011-04-30,157800.0
2011-03-31,160800.0
2011-02-28,164800.0
2011-01-31,169000.0
2010-12-31,172200.0
2010-11-30,174800.0
2010-10-31,176900.0
2010-09-30,179300.0
2010-08-31,181000.0
2010-07-31,182600.0
2010-06-30,184100.0
2010-05-31,185300.0
2010-04-30,186500.0
2010-03-31,188400.0
2010-02-28,190500.0
2010-01-31,191800.0
2009-12-31,192700.0
2009-11-30,194000.0
2009-10-31,194800.0
2009-09-30,195000.0
2009-08-31,195900.0
2009-07-31,198200.0
2009-06-30,201000.0
2009-05-31,204400.0
2009-04-30,207800.0
2009-03-31,210600.0
2009-02-28,212300.0
2009-01-31,213000.0
2008-12-31,214700.0
2008-11-30,217900.0
2008-10-31,220600.0
2008-09-30,222100.0
2008-08-31,222900.0
2008-07-31,223400.0
2008-06-30,225600.0
2008-05-31,229500.0
2008-04-30,232500.0
2008-03-31,233800.0
2008-02-29,234600.0
2008-01-31,235800.0
2007-12-31,236800.0
2007-11-30,237900.0
2007-10-31,239200.0
2007-09-30,240800.0
2007-08-31,242800.0
2007-07-31,244700.0
2007-06-30,245800.0
2007-05-31,245900.0
2007-04-30,245400.0
2007-03-31,243600.0
2007-02-28,241700.0
2007-01-31,240600.0
2006-12-31,239800.0
2006-11-30,239200.0
2006-10-31,238700.0
2006-09-30,236100.0
2006-08-31,231600.0
2006-07-31,227000.0
2006-06-30,222300.0
2006-05-31,217100.0
2006-04-30,212600.0
2006-03-31,208800.0
2006-02-28,205700.0
2006-01-31,203200.0
2005-12-31,201300.0
2005-11-30,198500.0
2005-10-31,194800.0
2005-09-30,192100.0
2005-08-31,190100.0
2005-07-31,187600.0
2005-06-30,185000.0
2005-05-31,183700.0
2005-04-30,182800.0
2005-03-31,181700.0
2005-02-28,180300.0
2005-01-31,178700.0
2004-12-31,176500.0
2004-11-30,173600.0
2004-10-31,170700.0
2004-09-30,168500.0
2004-08-31,167100.0
2004-07-31,166400.0
2004-06-30,165300.0
2004-05-31,163200.0
2004-04-30,161100.0
2004-03-31,160100.0
2004-02-29,160000.0
2004-01-31,160100.0
2003-12-31,159500.0
2003-11-30,159000.0
2003-10-31,159800.0
2003-09-30,161300.0
2003-08-31,161200.0
2003-07-31,160000.0
2003-06-30,159500.0
2003-05-31,159500.0
2003-04-30,158600.0
2003-03-31,157600.0
2003-02-28,156600.0
2003-01-31,155600.0
2002-12-31,155200.0
2002-11-30,155400.0
2002-10-31,155200.0
2002-09-30,154700.0
2002-08-31,153900.0
2002-07-31,152900.0
2002-06-30,152000.0
2002-05-31,151100.0
2002-04-30,150800.0
2002-03-31,150800.0
2002-02-28,150100.0
2002-01-31,148600.0
2001-12-31,147700.0
2001-11-30,146400.0
2001-10-31,144800.0
2001-09-30,143400.0
2001-08-31,143200.0
2001-07-31,143700.0
2001-06-30,144000.0
2001-05-31,143300.0
2001-04-30,143100.0
2001-03-31,143500.0
2001-02-28,142900.0
2001-01-31,141500.0
2000-12-31,140000.0
2000-11-30,138700.0
2000-10-31,138000.0
2000-09-30,137400.0
2000-08-31,136200.0
2000-07-31,134700.0
2000-06-30,133200.0
2000-05-31,131800.0
2000-04-30,130000.0
2000-03-31,128100.0
2000-02-29,127300.0
2000-01-31,127500.0
1999-12-31,126700.0
1999-11-30,125400.0
1999-10-31,124200.0
1999-09-30,122800.0
1999-08-31,122200.0
1999-07-31,122300.0
1999-06-30,122700.0
1999-05-31,123800.0
1999-04-30,124100.0
1999-03-31,123100.0
1999-02-28,122000.0
1999-01-31,120400.0
1998-12-31,118700.0
1998-11-30,117900.0
1998-10-31,118000.0
1998-09-30,118100.0
1998-08-31,117900.0
1998-07-31,117400.0
1998-06-30,116300.0
1998-05-31,114700.0
1998-04-30,114100.0
1998-03-31,113800.0
1998-02-28,113600.0
1998-01-31,112900.0
1997-12-31,112200.0
1997-11-30,112500.0
1997-10-31,112700.0
1997-09-30,111300.0
1997-08-31,109100.0
1997-07-31,107200.0
1997-06-30,106000.0
1997-05-31,105500.0
1997-04-30,105000.0
1997-03-31,104400.0
1997-02-28,103200.0
1997-01-31,102400.0
1996-12-31,102500.0
1996-11-30,101900.0
1996-10-31,100500.0
1996-09-30,99200.0
1996-08-31,98800.0
1996-07-31,99100.0
1996-06-30,98800.0
1996-05-31,98600.0
1996-04-30,98600.0
