Date,Value
2015-09-30,383100.0
2015-08-31,383200.0
2015-07-31,381200.0
2015-06-30,376300.0
2015-05-31,373100.0
2015-04-30,368700.0
2015-03-31,368600.0
2015-02-28,366700.0
2015-01-31,364200.0
2014-12-31,362800.0
2014-11-30,360700.0
2014-10-31,358000.0
2014-09-30,357900.0
2014-08-31,357300.0
2014-07-31,355700.0
2014-06-30,354400.0
2014-05-31,350900.0
2014-04-30,345500.0
2014-03-31,342600.0
2014-02-28,341800.0
2014-01-31,341300.0
2013-12-31,341100.0
2013-11-30,340300.0
2013-10-31,338400.0
2013-09-30,336300.0
2013-08-31,333600.0
2013-07-31,329100.0
2013-06-30,323700.0
2013-05-31,319400.0
2013-04-30,316100.0
2013-03-31,314900.0
2013-02-28,315400.0
2013-01-31,315400.0
2012-12-31,314400.0
2012-11-30,314300.0
2012-10-31,315800.0
2012-09-30,317200.0
2012-08-31,317700.0
2012-07-31,316400.0
2012-06-30,315500.0
2012-05-31,315400.0
2012-04-30,315400.0
2012-03-31,314900.0
2012-02-29,315800.0
2012-01-31,317000.0
2011-12-31,316700.0
2011-11-30,314600.0
2011-10-31,311400.0
2011-09-30,308600.0
2011-08-31,308400.0
2011-07-31,310600.0
2011-06-30,313000.0
2011-05-31,316300.0
2011-04-30,320400.0
2011-03-31,321800.0
2011-02-28,322600.0
2011-01-31,326500.0
2010-12-31,331500.0
2010-11-30,334300.0
2010-10-31,336000.0
2010-09-30,338200.0
2010-08-31,340600.0
2010-07-31,342800.0
2010-06-30,344100.0
2010-05-31,346400.0
2010-04-30,350600.0
2010-03-31,354800.0
2010-02-28,357700.0
2010-01-31,361500.0
2009-12-31,367000.0
2009-11-30,372300.0
2009-10-31,375600.0
2009-09-30,377000.0
2009-08-31,380600.0
2009-07-31,385700.0
2009-06-30,390100.0
2009-05-31,394200.0
2009-04-30,399000.0
2009-03-31,402200.0
2009-02-28,401600.0
2009-01-31,396000.0
2008-12-31,391300.0
2008-11-30,391500.0
2008-10-31,396800.0
2008-09-30,403800.0
2008-08-31,409200.0
2008-07-31,412100.0
2008-06-30,414000.0
2008-05-31,415100.0
2008-04-30,415900.0
2008-03-31,418100.0
2008-02-29,419900.0
2008-01-31,420500.0
2007-12-31,421000.0
2007-11-30,421800.0
2007-10-31,422200.0
2007-09-30,420900.0
2007-08-31,417900.0
2007-07-31,415800.0
2007-06-30,417200.0
2007-05-31,418900.0
2007-04-30,418200.0
2007-03-31,417400.0
2007-02-28,419200.0
2007-01-31,422900.0
2006-12-31,425200.0
2006-11-30,427000.0
2006-10-31,429200.0
2006-09-30,431000.0
2006-08-31,432700.0
2006-07-31,434800.0
2006-06-30,435400.0
2006-05-31,434500.0
2006-04-30,431700.0
2006-03-31,426900.0
2006-02-28,422000.0
2006-01-31,417800.0
2005-12-31,412200.0
2005-11-30,405200.0
2005-10-31,398300.0
2005-09-30,391600.0
2005-08-31,383700.0
2005-07-31,375700.0
2005-06-30,368900.0
2005-05-31,361900.0
2005-04-30,353500.0
2005-03-31,346500.0
2005-02-28,339600.0
2005-01-31,332600.0
2004-12-31,325800.0
2004-11-30,319700.0
2004-10-31,312900.0
2004-09-30,307400.0
2004-08-31,303700.0
2004-07-31,300900.0
2004-06-30,296500.0
2004-05-31,291300.0
2004-04-30,288100.0
2004-03-31,286400.0
2004-02-29,284100.0
2004-01-31,281100.0
2003-12-31,280100.0
2003-11-30,279600.0
2003-10-31,277200.0
2003-09-30,272700.0
2003-08-31,268800.0
2003-07-31,264700.0
2003-06-30,260300.0
2003-05-31,257600.0
2003-04-30,256000.0
2003-03-31,253200.0
2003-02-28,250700.0
2003-01-31,249100.0
2002-12-31,248000.0
2002-11-30,247200.0
2002-10-31,246700.0
2002-09-30,246300.0
2002-08-31,245500.0
2002-07-31,244100.0
2002-06-30,243200.0
2002-05-31,242600.0
2002-04-30,241600.0
2002-03-31,241600.0
2002-02-28,241900.0
2002-01-31,241400.0
2001-12-31,239800.0
2001-11-30,237200.0
2001-10-31,234800.0
2001-09-30,233100.0
2001-08-31,231300.0
2001-07-31,229100.0
2001-06-30,227600.0
2001-05-31,227300.0
2001-04-30,227600.0
2001-03-31,226800.0
2001-02-28,225200.0
2001-01-31,223500.0
2000-12-31,221300.0
2000-11-30,219300.0
2000-10-31,218900.0
2000-09-30,219000.0
2000-08-31,218500.0
2000-07-31,217300.0
2000-06-30,216000.0
2000-05-31,214600.0
2000-04-30,212700.0
2000-03-31,211200.0
2000-02-29,210000.0
2000-01-31,209200.0
1999-12-31,208700.0
1999-11-30,208400.0
1999-10-31,207000.0
1999-09-30,205800.0
1999-08-31,205400.0
1999-07-31,204900.0
1999-06-30,203100.0
1999-05-31,201000.0
1999-04-30,199000.0
1999-03-31,197000.0
1999-02-28,194700.0
1999-01-31,192600.0
1998-12-31,190200.0
1998-11-30,188000.0
1998-10-31,186500.0
1998-09-30,184900.0
1998-08-31,183200.0
1998-07-31,182600.0
1998-06-30,182500.0
1998-05-31,181800.0
1998-04-30,180500.0
1998-03-31,180000.0
1998-02-28,180200.0
1998-01-31,180100.0
1997-12-31,180000.0
1997-11-30,180800.0
1997-10-31,182300.0
1997-09-30,183400.0
1997-08-31,183400.0
1997-07-31,183800.0
1997-06-30,185400.0
1997-05-31,187600.0
1997-04-30,189100.0
1997-03-31,191000.0
1997-02-28,191800.0
1997-01-31,190800.0
1996-12-31,189900.0
1996-11-30,188600.0
1996-10-31,187000.0
1996-09-30,185800.0
1996-08-31,185500.0
1996-07-31,185100.0
1996-06-30,184900.0
1996-05-31,183200.0
1996-04-30,181000.0
