Date,Value
2015-02-28,199000.0
2015-01-31,225000.0
2014-12-31,225000.0
2014-11-30,225000.0
2014-10-31,215000.0
2014-09-30,215000.0
2014-08-31,199950.0
2014-07-31,199000.0
2014-06-30,195000.0
2014-05-31,225000.0
2014-04-30,219000.0
2014-03-31,225000.0
2014-02-28,214000.0
2014-01-31,189900.0
2013-12-31,195000.0
2013-11-30,195000.0
2013-10-31,199000.0
2013-09-30,219000.0
2013-08-31,235000.0
2013-07-31,235000.0
2013-06-30,237000.0
2013-05-31,244000.0
2013-04-30,189900.0
2013-03-31,180000.0
2013-02-28,179500.0
2013-01-31,186900.0
2012-12-31,186900.0
2012-11-30,199000.0
2012-10-31,199000.0
2012-09-30,199900.0
2012-08-31,198500.0
2012-07-31,200000.0
2012-06-30,198500.0
2012-05-31,197900.0
2012-04-30,198500.0
2012-03-31,200000.0
2012-02-29,199950.0
2012-01-31,199900.0
2011-12-31,200000.0
2011-11-30,199950.0
2011-10-31,209950.0
2011-09-30,217500.0
2011-08-31,217500.0
2011-07-31,215000.0
2011-06-30,199000.0
2011-05-31,215000.0
2011-04-30,189000.0
2011-03-31,199000.0
2011-02-28,225000.0
2011-01-31,225000.0
2010-12-31,225000.0
2010-11-30,229000.0
2010-10-31,229000.0
2010-09-30,239000.0
2010-08-31,239000.0
2010-07-31,240000.0
2010-06-30,242000.0
2010-05-31,239000.0
2010-04-30,240000.0
2010-03-31,235000.0
2010-02-28,225000.0
2010-01-31,225000.0
2009-12-31,240000.0
2009-11-30,259000.0
2009-10-31,255000.0
2009-09-30,230000.0
2009-08-31,240000.0
2009-07-31,255000.0
2009-06-30,259000.0
2009-05-31,225000.0
2009-04-30,259000.0
2009-03-31,248800.0
2009-02-28,249000.0
2009-01-31,249000.0
2008-12-31,249000.0
2008-11-30,269500.0
2008-10-31,275000.0
