Date,Value
2015-09-30,136000.0
2015-08-31,139000.0
2015-07-31,139600.0
2015-06-30,139200.0
2015-05-31,140900.0
2015-04-30,141900.0
2015-03-31,141200.0
2015-02-28,139200.0
2015-01-31,137100.0
2014-12-31,136900.0
2014-11-30,137300.0
2014-10-31,136700.0
2014-09-30,135800.0
2014-08-31,134300.0
2014-07-31,134400.0
2014-06-30,134300.0
2014-05-31,131300.0
2014-04-30,126200.0
2014-03-31,123400.0
2014-02-28,122100.0
2014-01-31,121700.0
2013-12-31,119800.0
2013-11-30,116300.0
2013-10-31,111900.0
2013-09-30,108000.0
2013-08-31,106300.0
2013-07-31,106900.0
2013-06-30,106700.0
2013-05-31,104900.0
2013-04-30,103300.0
2013-03-31,102000.0
2013-02-28,101500.0
2013-01-31,101200.0
2012-12-31,101500.0
2012-11-30,102900.0
2012-10-31,104600.0
2012-09-30,106000.0
2012-08-31,107000.0
2012-07-31,107800.0
2012-06-30,108300.0
2012-05-31,109200.0
2012-04-30,110100.0
2012-03-31,111200.0
2012-02-29,112800.0
2012-01-31,115200.0
2011-12-31,117600.0
2011-11-30,119200.0
2011-10-31,119400.0
2011-09-30,116900.0
2011-08-31,111600.0
2011-07-31,107700.0
2011-06-30,107100.0
2011-05-31,108600.0
2011-04-30,110000.0
2011-03-31,109900.0
2011-02-28,108600.0
2011-01-31,109100.0
2010-12-31,111500.0
2010-11-30,113400.0
2010-10-31,115100.0
2010-09-30,116500.0
2010-08-31,118300.0
2010-07-31,120200.0
2010-06-30,121100.0
2010-05-31,121400.0
2010-04-30,122900.0
2010-03-31,125700.0
2010-02-28,127100.0
2010-01-31,125200.0
2009-12-31,122000.0
2009-11-30,122000.0
2009-10-31,125500.0
2009-09-30,129300.0
2009-08-31,130200.0
2009-07-31,128800.0
2009-06-30,127900.0
2009-05-31,127300.0
2009-04-30,127200.0
2009-03-31,126600.0
2009-02-28,124200.0
2009-01-31,120000.0
2008-12-31,116100.0
2008-11-30,112000.0
2008-10-31,109000.0
2008-09-30,107700.0
2008-08-31,108800.0
2008-07-31,110100.0
2008-06-30,109000.0
2008-05-31,106700.0
2008-04-30,103700.0
2008-03-31,102000.0
2008-02-29,102600.0
2008-01-31,103900.0
2007-12-31,104500.0
2007-11-30,106300.0
2007-10-31,106500.0
2007-09-30,106100.0
2007-08-31,105600.0
2007-07-31,104400.0
2007-06-30,103400.0
2007-05-31,104000.0
2007-04-30,107000.0
2007-03-31,109800.0
2007-02-28,110900.0
2007-01-31,111600.0
2006-12-31,112500.0
2006-11-30,111800.0
2006-10-31,111800.0
2006-09-30,113400.0
2006-08-31,115200.0
2006-07-31,116600.0
2006-06-30,118000.0
2006-05-31,119000.0
2006-04-30,118600.0
2006-03-31,116000.0
2006-02-28,113900.0
2006-01-31,112300.0
2005-12-31,111300.0
2005-11-30,110300.0
2005-10-31,109200.0
2005-09-30,107400.0
2005-08-31,106400.0
2005-07-31,106100.0
2005-06-30,106600.0
2005-05-31,105300.0
2005-04-30,101300.0
2005-03-31,98500.0
2005-02-28,99100.0
2005-01-31,99400.0
2004-12-31,97100.0
2004-11-30,94200.0
2004-10-31,91300.0
2004-09-30,88200.0
2004-08-31,85400.0
2004-07-31,82700.0
2004-06-30,79500.0
2004-05-31,78100.0
2004-04-30,79000.0
2004-03-31,79900.0
2004-02-29,79800.0
2004-01-31,80200.0
2003-12-31,81600.0
2003-11-30,82800.0
2003-10-31,84000.0
2003-09-30,85200.0
2003-08-31,85200.0
2003-07-31,84300.0
2003-06-30,84400.0
2003-05-31,84800.0
2003-04-30,84000.0
2003-03-31,82700.0
2003-02-28,81200.0
2003-01-31,80500.0
2002-12-31,81100.0
2002-11-30,82000.0
2002-10-31,82100.0
2002-09-30,81400.0
2002-08-31,81200.0
2002-07-31,81900.0
2002-06-30,82400.0
2002-05-31,81900.0
2002-04-30,81400.0
2002-03-31,80700.0
2002-02-28,79800.0
2002-01-31,79200.0
2001-12-31,78800.0
2001-11-30,78300.0
2001-10-31,77500.0
2001-09-30,77100.0
2001-08-31,76800.0
2001-07-31,76200.0
2001-06-30,75300.0
2001-05-31,75200.0
2001-04-30,75900.0
2001-03-31,76500.0
2001-02-28,76600.0
2001-01-31,76700.0
2000-12-31,76900.0
2000-11-30,75800.0
2000-10-31,74100.0
2000-09-30,72500.0
2000-08-31,71700.0
2000-07-31,72300.0
2000-06-30,73300.0
2000-05-31,72900.0
2000-04-30,71900.0
2000-03-31,71600.0
2000-02-29,71100.0
2000-01-31,69500.0
1999-12-31,67700.0
1999-11-30,67400.0
1999-10-31,68600.0
1999-09-30,69800.0
1999-08-31,70600.0
1999-07-31,71400.0
1999-06-30,71800.0
1999-05-31,71900.0
1999-04-30,71600.0
1999-03-31,71300.0
1999-02-28,70800.0
1999-01-31,70700.0
1998-12-31,70300.0
1998-11-30,69700.0
1998-10-31,69500.0
1998-09-30,70000.0
1998-08-31,70500.0
1998-07-31,70800.0
1998-06-30,70700.0
1998-05-31,70300.0
1998-04-30,70300.0
1998-03-31,71000.0
1998-02-28,71900.0
