Date,Value
2015-02-28,104000.0
2015-01-31,108000.0
2014-12-31,115500.0
2014-11-30,120000.0
2014-10-31,120000.0
2014-09-30,114950.0
2014-08-31,120000.0
2014-07-31,129999.0
2014-06-30,133600.0
2014-05-31,125000.0
2014-04-30,109000.0
2014-03-31,112900.0
2014-02-28,125000.0
2014-01-31,119000.0
2013-12-31,119900.0
2013-11-30,130000.0
2013-10-31,127000.0
2013-09-30,127000.0
2013-08-31,124900.0
2013-07-31,119900.0
2013-06-30,119000.0
2013-05-31,112000.0
2013-04-30,99000.0
2013-03-31,98900.0
2013-02-28,93500.0
2013-01-31,99000.0
2012-12-31,108000.0
2012-11-30,89900.0
2012-10-31,90000.0
2012-09-30,114000.0
2012-08-31,100000.0
2012-07-31,109000.0
2012-06-30,105000.0
2012-05-31,99000.0
2012-04-30,95000.0
2012-03-31,94900.0
2012-02-29,89900.0
2012-01-31,99000.0
2011-12-31,111500.0
2011-11-30,119000.0
2011-10-31,110000.0
2011-09-30,124900.0
2011-08-31,134000.0
2011-07-31,124900.0
2011-06-30,119900.0
2011-05-31,109900.0
2011-04-30,115000.0
2011-03-31,119000.0
2011-02-28,117000.0
2011-01-31,119900.0
2010-12-31,129500.0
2010-11-30,129900.0
2010-10-31,129000.0
2010-09-30,130000.0
2010-08-31,130000.0
2010-07-31,132000.0
2010-06-30,134500.0
2010-05-31,138950.0
2010-04-30,134500.0
2010-03-31,117900.0
2010-02-28,120000.0
2010-01-31,120000.0
2009-12-31,117900.0
2009-11-30,129000.0
2009-10-31,149000.0
2009-09-30,137000.0
2009-08-31,147900.0
2009-07-31,129900.0
2009-06-30,129000.0
2009-05-31,124500.0
2009-04-30,119900.0
2009-03-31,109987.0
2009-02-28,109900.0
2009-01-31,119500.0
2008-12-31,122600.0
2008-11-30,123000.0
2008-10-31,127500.0
