Date,Value
2015-09-30,234350.0
2015-08-31,236850.0
2015-07-31,254842.5
2015-06-30,270132.5
2015-05-31,268475.0
2015-04-30,243529.4118
2015-03-31,220000.0
2014-12-31,230171.5385
2014-10-31,236065.0
2014-09-30,212588.2353
2014-08-31,222500.0
2014-06-30,240500.0
2014-05-31,232941.1765
2014-04-30,230000.0
2013-10-31,170023.4
2013-09-30,179369.6
2013-08-31,202803.0
2013-07-31,209060.0
2013-06-30,189715.0
2013-05-31,165435.0
2013-04-30,182605.8824
2013-03-31,166076.9231
2013-01-31,162956.05
2012-12-31,159747.45
2012-11-30,164886.4706
2012-10-31,180384.6154
2012-08-31,160769.2308
2012-06-30,178394.1176
2012-05-31,176100.0
2011-09-30,122600.0
2011-08-31,140900.0
2011-07-31,159705.8824
2011-06-30,175000.0
2010-06-30,179180.0
2010-04-30,179780.0
2009-09-30,172114.2
2009-08-31,171470.5882
2009-07-31,145000.0
2008-08-31,188000.0
2008-03-31,190000.0
2007-11-30,238470.5882
2007-10-31,248615.3846
2007-08-31,207890.0
2007-07-31,226100.0
2007-06-30,236350.0
2007-05-31,214100.0
2007-04-30,214900.0
2007-03-31,228150.0
2007-02-28,226200.0
2007-01-31,225450.0
2006-12-31,196400.0
2006-11-30,198950.0
2006-10-31,201150.0
2006-09-30,201950.0
2006-08-31,207750.0
2006-07-31,206735.0
2006-06-30,207700.0
2006-05-31,210515.0
2006-04-30,216450.0
2006-03-31,198900.0
2006-02-28,208450.0
2006-01-31,199900.0
2005-12-31,203600.0
2005-11-30,174725.0
2005-10-31,166150.0
2005-09-30,166075.0
2005-08-31,171125.0
2005-07-31,167175.0
2005-06-30,168400.0
2005-05-31,169550.0
2005-04-30,169571.25
2005-03-31,167737.5
2005-02-28,161703.75
2005-01-31,169322.5
2004-12-31,170015.0
2004-11-30,165975.0
2004-10-31,153975.0
2004-09-30,161000.0
2004-08-31,165900.0
2004-07-31,155612.5
2004-06-30,152287.5
2004-05-31,150835.0
2004-04-30,160200.0
2004-03-31,166370.5882
2004-02-29,181153.8462
2003-12-31,155400.0
2003-11-30,156335.0
2003-10-31,150165.0
2003-09-30,146725.0
2003-08-31,149475.0
2003-07-31,152400.0
2003-06-30,142000.0
2003-05-31,141235.0
2003-04-30,138600.0
2003-03-31,137540.0
2003-02-28,126115.0
2003-01-31,125293.2
2002-12-31,132685.8
2002-11-30,133719.0
2002-10-31,137125.0
2002-09-30,142675.0
2002-08-31,140077.4
2002-07-31,136380.6
2002-06-30,123808.0
2002-05-31,117450.0
2002-04-30,129500.0
2002-03-31,136985.0
2002-02-28,151723.5294
2002-01-31,139623.0769
2001-11-30,138940.0
2001-10-31,139950.0
2001-09-30,142500.0
2001-08-31,130600.0
2001-07-31,131955.0
2001-06-30,132980.0
2001-05-31,129600.0
2001-04-30,125400.0
2001-03-31,121997.5
2001-02-28,120877.5
2001-01-31,113220.0
2000-12-31,117555.0
2000-11-30,123536.6
2000-10-31,130300.4
2000-09-30,134072.0
2000-08-31,124000.0
2000-07-31,114200.0
2000-06-30,109550.0
2000-05-31,128850.0
2000-04-30,129650.0
2000-03-31,104411.7647
2000-02-29,105000.0
1999-11-30,123535.0
1999-10-31,119490.0
1999-09-30,129825.0
1999-08-31,126695.0
1999-07-31,118055.0
1999-06-30,112150.0
1999-05-31,106500.0
1999-04-30,104117.6471
1999-03-31,113000.0
1999-01-31,114452.5
1998-12-31,96222.5
1998-11-30,81500.0
1998-09-30,116010.0
1998-08-31,120690.0
1998-07-31,105075.0
1998-06-30,102700.0
1998-05-31,99862.5
1998-04-30,100014.7059
1998-03-31,87538.4615
1998-01-31,95723.5294
1997-12-31,100307.6923
1997-10-31,103950.0
1997-09-30,102735.0
1997-08-31,103365.0
1997-07-31,102411.7647
1997-06-30,107151.0769
1997-04-30,108003.55
1997-03-31,105093.2
1997-02-28,105380.5882
1997-01-31,104850.0
1996-10-31,95515.3846
1996-08-31,105050.0
1996-07-31,116647.0588
1996-06-30,111823.0769
1996-04-30,91950.0
