Date,Value
2007-06-30,258242.5
2007-05-31,270567.6471
2007-04-30,299950.0
2006-09-30,278100.0
2006-08-31,249705.8824
2006-07-31,257338.5385
2006-05-31,247666.9231
2006-03-31,245000.0
2005-09-30,187692.3077
2005-07-31,191980.0
2005-06-30,185445.0
2005-05-31,185700.0
2005-04-30,186352.9412
2005-03-31,174000.0
2004-09-30,179270.45
2004-08-31,176256.05
2004-07-31,168295.8824
2004-06-30,154000.0
2003-04-30,172550.0
2002-07-31,171650.0
2001-06-30,159950.0
2001-03-31,170914.1176
2001-02-28,191500.0
2000-08-31,164498.6154
2000-06-30,145899.5
2000-05-31,151075.0
2000-04-30,147773.5294
2000-03-31,148950.0
1999-04-30,131750.0
1998-10-31,126450.0
1998-07-31,135461.5385
1998-05-31,128176.4706
1998-04-30,137000.0
1997-10-31,125558.8235
1997-09-30,133500.0
