Date,Value
2015-01-31,105900.0
2014-10-31,135000.0
2014-09-30,144900.0
2014-08-31,135000.0
2014-07-31,144900.0
2014-06-30,144900.0
2014-05-31,144900.0
2014-04-30,74999.0
2014-03-31,74999.0
2013-12-31,154500.0
2013-11-30,158950.0
2013-10-31,140000.0
2013-09-30,139000.0
2013-08-31,139000.0
2013-07-31,129900.0
2013-06-30,129900.0
2013-05-31,135000.0
2013-04-30,139900.0
2012-11-30,175000.0
2012-10-31,175000.0
2012-09-30,99990.0
2012-08-31,160000.0
2012-07-31,145000.0
2012-06-30,145000.0
2012-05-31,164900.0
2012-04-30,145000.0
2012-03-31,108000.0
2012-02-29,108000.0
2012-01-31,100000.0
2011-10-31,115000.0
2011-09-30,139500.0
2011-08-31,169500.0
2011-07-31,150000.0
