Date,Value
2014-01-31,80000.0
2013-12-31,80000.0
2013-11-30,80000.0
2013-10-31,80000.0
2013-09-30,80000.0
2013-08-31,85900.0
2013-07-31,80000.0
2013-06-30,109000.0
2013-05-31,80000.0
2013-04-30,80000.0
2013-03-31,59000.0
2013-02-28,75000.0
2013-01-31,80000.0
2012-12-31,75000.0
2012-04-30,65000.0
2011-11-30,95000.0
2011-10-31,95000.0
