Date,Value
2015-02-28,289950.0
2015-01-31,270000.0
2014-12-31,260000.0
2014-11-30,253000.0
2014-10-31,265000.0
2014-09-30,279900.0
2014-08-31,289888.0
2014-07-31,299000.0
2014-06-30,286500.0
2014-05-31,275000.0
2014-04-30,274000.0
2014-03-31,269950.0
2014-02-28,280000.0
2014-01-31,270000.0
2013-12-31,289000.0
2013-11-30,273900.0
2013-10-31,293900.0
2013-09-30,289000.0
2013-08-31,278000.0
2013-07-31,259950.0
2013-06-30,260000.0
2013-05-31,259900.0
2013-04-30,234995.0
2013-03-31,229000.0
2013-02-28,220000.0
2013-01-31,209000.0
2012-12-31,229900.0
2012-11-30,226000.0
2012-10-31,205000.0
2012-09-30,215000.0
2012-08-31,219950.0
2012-07-31,209000.0
2012-06-30,199995.0
2012-05-31,189900.0
2012-04-30,185000.0
2012-03-31,184800.0
2012-02-29,185000.0
2012-01-31,180000.0
2011-12-31,185000.0
2011-11-30,189000.0
2011-10-31,197500.0
2011-09-30,199999.0
2011-08-31,215500.0
2011-07-31,205000.0
2011-06-30,209950.0
2011-05-31,199967.0
2011-04-30,201500.0
2011-03-31,209900.0
2011-02-28,207000.0
2011-01-31,200000.0
2010-12-31,201500.0
2010-11-30,214500.0
2010-10-31,239900.0
2010-09-30,242950.0
2010-08-31,250000.0
2010-07-31,249950.0
2010-06-30,242950.0
2010-05-31,249950.0
2010-04-30,239999.0
2010-03-31,239900.0
2010-02-28,239900.0
2010-01-31,249900.0
2009-12-31,259000.0
2009-11-30,259000.0
2009-10-31,259380.0
2009-09-30,264900.0
2009-08-31,259995.0
2009-07-31,263000.0
2009-06-30,270000.0
2009-05-31,285000.0
2009-04-30,288000.0
2009-03-31,287500.0
2009-02-28,300000.0
2009-01-31,299900.0
2008-12-31,299950.0
2008-11-30,300000.0
2008-10-31,300000.0
