Date,Value
2015-09-30,354800.0
2015-08-31,355900.0
2015-07-31,353800.0
2015-06-30,348400.0
2015-05-31,345500.0
2015-04-30,342200.0
2015-03-31,343200.0
2015-02-28,343900.0
2015-01-31,344200.0
2014-12-31,344500.0
2014-11-30,344100.0
2014-10-31,343200.0
2014-09-30,343500.0
2014-08-31,343500.0
2014-07-31,342700.0
2014-06-30,341600.0
2014-05-31,340700.0
2014-04-30,340000.0
2014-03-31,339500.0
2014-02-28,339000.0
2014-01-31,338500.0
2013-12-31,336500.0
2013-11-30,332100.0
2013-10-31,326700.0
2013-09-30,322600.0
2013-08-31,320900.0
2013-07-31,319100.0
2013-06-30,315800.0
2013-05-31,311600.0
2013-04-30,308800.0
2013-03-31,307100.0
2013-02-28,306400.0
2013-01-31,307000.0
2012-12-31,309400.0
2012-11-30,312700.0
2012-10-31,315900.0
2012-09-30,317500.0
2012-08-31,318100.0
2012-07-31,317600.0
2012-06-30,316400.0
2012-05-31,316700.0
2012-04-30,317400.0
2012-03-31,316800.0
2012-02-29,316600.0
2012-01-31,317800.0
2011-12-31,318500.0
2011-11-30,317300.0
2011-10-31,316000.0
2011-09-30,315800.0
2011-08-31,316500.0
2011-07-31,318300.0
2011-06-30,321700.0
2011-05-31,326500.0
2011-04-30,332600.0
2011-03-31,337800.0
2011-02-28,341200.0
2011-01-31,344500.0
2010-12-31,346500.0
2010-11-30,344800.0
2010-10-31,341800.0
2010-09-30,340200.0
2010-08-31,339500.0
2010-07-31,339500.0
2010-06-30,339400.0
2010-05-31,339100.0
2010-04-30,339000.0
2010-03-31,340800.0
2010-02-28,343100.0
2010-01-31,346200.0
2009-12-31,351600.0
2009-11-30,359000.0
2009-10-31,363700.0
2009-09-30,365900.0
2009-08-31,367100.0
2009-07-31,368200.0
2009-06-30,369700.0
2009-05-31,372300.0
2009-04-30,374600.0
2009-03-31,375000.0
2009-02-28,372800.0
2009-01-31,365600.0
2008-12-31,358200.0
2008-11-30,356700.0
2008-10-31,361300.0
2008-09-30,365800.0
2008-08-31,370200.0
2008-07-31,375400.0
2008-06-30,380300.0
2008-05-31,382300.0
2008-04-30,382100.0
2008-03-31,380700.0
2008-02-29,380900.0
2008-01-31,383000.0
2007-12-31,385500.0
2007-11-30,387400.0
2007-10-31,389500.0
2007-09-30,391600.0
2007-08-31,392600.0
2007-07-31,392000.0
2007-06-30,391800.0
2007-05-31,392600.0
2007-04-30,394400.0
2007-03-31,396700.0
2007-02-28,398900.0
2007-01-31,400600.0
2006-12-31,402200.0
2006-11-30,404000.0
2006-10-31,404600.0
2006-09-30,401100.0
2006-08-31,395500.0
2006-07-31,391700.0
2006-06-30,388500.0
2006-05-31,384100.0
2006-04-30,377100.0
2006-03-31,370700.0
2006-02-28,366100.0
2006-01-31,362500.0
2005-12-31,357100.0
2005-11-30,351000.0
2005-10-31,345400.0
2005-09-30,341200.0
2005-08-31,337600.0
2005-07-31,332800.0
2005-06-30,326800.0
2005-05-31,321600.0
2005-04-30,318500.0
2005-03-31,314800.0
2005-02-28,309500.0
2005-01-31,303200.0
2004-12-31,297500.0
2004-11-30,292300.0
2004-10-31,287200.0
2004-09-30,284200.0
2004-08-31,282900.0
2004-07-31,281100.0
2004-06-30,278500.0
2004-05-31,275100.0
2004-04-30,270800.0
2004-03-31,267700.0
2004-02-29,265200.0
2004-01-31,262800.0
2003-12-31,261400.0
2003-11-30,259100.0
2003-10-31,255100.0
2003-09-30,251500.0
2003-08-31,248500.0
2003-07-31,245700.0
2003-06-30,243700.0
2003-05-31,242100.0
2003-04-30,240000.0
2003-03-31,238100.0
2003-02-28,237200.0
2003-01-31,237000.0
2002-12-31,236100.0
2002-11-30,235100.0
2002-10-31,234100.0
2002-09-30,232400.0
2002-08-31,229600.0
2002-07-31,226200.0
2002-06-30,223200.0
2002-05-31,222200.0
2002-04-30,223200.0
2002-03-31,223800.0
2002-02-28,223000.0
2002-01-31,222200.0
2001-12-31,221600.0
2001-11-30,220900.0
2001-10-31,219800.0
2001-09-30,218600.0
2001-08-31,217200.0
2001-07-31,215700.0
2001-06-30,214500.0
2001-05-31,213800.0
2001-04-30,213200.0
2001-03-31,212000.0
2001-02-28,210300.0
2001-01-31,208800.0
2000-12-31,207500.0
2000-11-30,205800.0
2000-10-31,204500.0
2000-09-30,203500.0
2000-08-31,203200.0
2000-07-31,204200.0
2000-06-30,205200.0
2000-05-31,204300.0
2000-04-30,202100.0
2000-03-31,199800.0
2000-02-29,197900.0
2000-01-31,195900.0
1999-12-31,193200.0
1999-11-30,190200.0
1999-10-31,188200.0
1999-09-30,187300.0
1999-08-31,186400.0
1999-07-31,185400.0
1999-06-30,184200.0
1999-05-31,182700.0
1999-04-30,182000.0
1999-03-31,182100.0
1999-02-28,181900.0
1999-01-31,182000.0
1998-12-31,182600.0
1998-11-30,182900.0
1998-10-31,182600.0
1998-09-30,182800.0
1998-08-31,184000.0
1998-07-31,185300.0
1998-06-30,186000.0
1998-05-31,185600.0
1998-04-30,185500.0
1998-03-31,185100.0
1998-02-28,184200.0
1998-01-31,182900.0
1997-12-31,182400.0
1997-11-30,182400.0
1997-10-31,183400.0
1997-09-30,183100.0
1997-08-31,181100.0
1997-07-31,179300.0
1997-06-30,178100.0
1997-05-31,176800.0
1997-04-30,174000.0
1997-03-31,171400.0
1997-02-28,170200.0
1997-01-31,169200.0
1996-12-31,167600.0
1996-11-30,166800.0
1996-10-31,165600.0
1996-09-30,164300.0
1996-08-31,162800.0
1996-07-31,160700.0
1996-06-30,158600.0
1996-05-31,157300.0
1996-04-30,156100.0
