Date,Value
2015-02-28,475000.0
2015-01-31,475000.0
2014-12-31,450000.0
2014-11-30,465000.0
2014-10-31,465000.0
2014-09-30,465000.0
2014-08-31,475000.0
2014-07-31,465000.0
2014-06-30,470000.0
2014-05-31,455900.0
2014-04-30,460000.0
2014-03-31,475000.0
2014-02-28,449900.0
2014-01-31,443000.0
2013-12-31,443000.0
2013-11-30,443000.0
2013-10-31,460000.0
2013-09-30,460000.0
2013-08-31,449000.0
2013-07-31,450000.0
2013-06-30,455000.0
2013-05-31,450000.0
2013-04-30,449000.0
2013-03-31,374900.0
2013-02-28,367000.0
2013-01-31,347500.0
2012-12-31,349900.0
2012-11-30,359900.0
2012-10-31,390000.0
2012-09-30,399800.0
2012-08-31,415000.0
2012-07-31,408300.0
2012-06-30,400000.0
2012-05-31,399000.0
2012-04-30,399000.0
2012-03-31,365000.0
2012-02-29,359900.0
2012-01-31,378500.0
2011-12-31,375000.0
2011-11-30,359000.0
2011-10-31,379000.0
2011-09-30,359900.0
2011-08-31,350000.0
2011-07-31,349900.0
2011-06-30,349900.0
2011-05-31,365000.0
2011-04-30,349900.0
2011-03-31,365000.0
2011-02-28,360000.0
2011-01-31,369900.0
2010-12-31,384900.0
2010-11-30,389000.0
2010-10-31,389000.0
2010-09-30,415000.0
2010-08-31,425000.0
2010-07-31,425000.0
2010-06-30,435000.0
2010-05-31,425000.0
2010-04-30,425000.0
2010-03-31,449900.0
2010-02-28,459000.0
2010-01-31,425000.0
2009-12-31,424900.0
2009-11-30,399900.0
2009-10-31,388900.0
2009-09-30,399900.0
2009-08-31,389000.0
2009-07-31,420000.0
2009-06-30,414500.0
2009-05-31,424900.0
2009-04-30,424900.0
2009-03-31,421888.0
2009-02-28,435000.0
2009-01-31,475000.0
2008-12-31,499900.0
2008-11-30,524900.0
2008-10-31,524900.0
