Date,Value
2015-09-30,199300.0
2015-08-31,197500.0
2015-07-31,197500.0
2015-06-30,199400.0
2015-05-31,199100.0
2015-04-30,197000.0
2015-03-31,195700.0
2015-02-28,194300.0
2015-01-31,193700.0
2014-12-31,193700.0
2014-11-30,193800.0
2014-10-31,193400.0
2014-09-30,193300.0
2014-08-31,193500.0
2014-07-31,194200.0
2014-06-30,195400.0
2014-05-31,196200.0
2014-04-30,196100.0
2014-03-31,195800.0
2014-02-28,195600.0
2014-01-31,195000.0
2013-12-31,193600.0
2013-11-30,192600.0
2013-10-31,192600.0
2013-09-30,192800.0
2013-08-31,192800.0
2013-07-31,192700.0
2013-06-30,192000.0
2013-05-31,190500.0
2013-04-30,189300.0
2013-03-31,189100.0
2013-02-28,189300.0
2013-01-31,189600.0
2012-12-31,189400.0
2012-11-30,188800.0
2012-10-31,187600.0
2012-09-30,186100.0
2012-08-31,184300.0
2012-07-31,182600.0
2012-06-30,181600.0
2012-05-31,181400.0
2012-04-30,181800.0
2012-03-31,182500.0
2012-02-29,183200.0
2012-01-31,183400.0
2011-12-31,183900.0
2011-11-30,185000.0
2011-10-31,186200.0
2011-09-30,187400.0
2011-08-31,188600.0
2011-07-31,190200.0
2011-06-30,192200.0
2011-05-31,193700.0
2011-04-30,194500.0
2011-03-31,194900.0
2011-02-28,195100.0
2011-01-31,194900.0
2010-12-31,194300.0
2010-11-30,193700.0
2010-10-31,193500.0
2010-09-30,193500.0
2010-08-31,193400.0
2010-07-31,193700.0
2010-06-30,194300.0
2010-05-31,194700.0
2010-04-30,194400.0
2010-03-31,193600.0
2010-02-28,192400.0
2010-01-31,191300.0
2009-12-31,190700.0
2009-11-30,190400.0
2009-10-31,190600.0
2009-09-30,190900.0
2009-08-31,191100.0
2009-07-31,191500.0
2009-06-30,191900.0
2009-05-31,191700.0
2009-04-30,191900.0
2009-03-31,192700.0
2009-02-28,193800.0
2009-01-31,195100.0
2008-12-31,196600.0
2008-11-30,197700.0
2008-10-31,198000.0
2008-09-30,198400.0
2008-08-31,200000.0
2008-07-31,200500.0
2008-06-30,199300.0
2008-05-31,198000.0
2008-04-30,197500.0
2008-03-31,196800.0
2008-02-29,196700.0
2008-01-31,197100.0
2007-12-31,197400.0
2007-11-30,197700.0
2007-10-31,198800.0
2007-09-30,199600.0
2007-08-31,199400.0
2007-07-31,198200.0
2007-06-30,197300.0
2007-05-31,196400.0
2007-04-30,195300.0
2007-03-31,194800.0
2007-02-28,194800.0
2007-01-31,194300.0
2006-12-31,193400.0
2006-11-30,192200.0
2006-10-31,190400.0
2006-09-30,188700.0
2006-08-31,187100.0
2006-07-31,185600.0
2006-06-30,183800.0
2006-05-31,182000.0
2006-04-30,181100.0
2006-03-31,180600.0
2006-02-28,179900.0
2006-01-31,178900.0
2005-12-31,177400.0
2005-11-30,175700.0
2005-10-31,174100.0
2005-09-30,172200.0
2005-08-31,170400.0
2005-07-31,169400.0
2005-06-30,169200.0
2005-05-31,169600.0
2005-04-30,169900.0
2005-03-31,169600.0
2005-02-28,169100.0
2005-01-31,168000.0
2004-12-31,166600.0
2004-11-30,165600.0
2004-10-31,165000.0
2004-09-30,164100.0
2004-08-31,163500.0
2004-07-31,163200.0
2004-06-30,162600.0
2004-05-31,161700.0
2004-04-30,160900.0
2004-03-31,160000.0
2004-02-29,158800.0
2004-01-31,158100.0
2003-12-31,158200.0
2003-11-30,158900.0
2003-10-31,159200.0
2003-09-30,158900.0
2003-08-31,157300.0
2003-07-31,155300.0
2003-06-30,154100.0
2003-05-31,153500.0
2003-04-30,152900.0
2003-03-31,152500.0
2003-02-28,152200.0
2003-01-31,152200.0
2002-12-31,152300.0
2002-11-30,151200.0
2002-10-31,149000.0
2002-09-30,147500.0
2002-08-31,147600.0
2002-07-31,147800.0
2002-06-30,147600.0
2002-05-31,147000.0
2002-04-30,146100.0
2002-03-31,144500.0
2002-02-28,143100.0
2002-01-31,142600.0
2001-12-31,142500.0
2001-11-30,142500.0
2001-10-31,143500.0
2001-09-30,144800.0
2001-08-31,145400.0
2001-07-31,145800.0
2001-06-30,146500.0
2001-05-31,146900.0
2001-04-30,146900.0
2001-03-31,146500.0
2001-02-28,146100.0
2001-01-31,145600.0
2000-12-31,145100.0
2000-11-30,144700.0
2000-10-31,144500.0
2000-09-30,144400.0
2000-08-31,144400.0
2000-07-31,144600.0
2000-06-30,144900.0
2000-05-31,144600.0
2000-04-30,144100.0
2000-03-31,143900.0
2000-02-29,143600.0
2000-01-31,142800.0
1999-12-31,142100.0
1999-11-30,141900.0
1999-10-31,142000.0
1999-09-30,141900.0
1999-08-31,141800.0
1999-07-31,141800.0
1999-06-30,141600.0
1999-05-31,141400.0
1999-04-30,141400.0
1999-03-31,141700.0
1999-02-28,141900.0
1999-01-31,141900.0
1998-12-31,141400.0
1998-11-30,140900.0
1998-10-31,140600.0
1998-09-30,140400.0
1998-08-31,140200.0
1998-07-31,139800.0
1998-06-30,139400.0
1998-05-31,139200.0
1998-04-30,139400.0
1998-03-31,139300.0
1998-02-28,139300.0
1998-01-31,139200.0
1997-12-31,138800.0
1997-11-30,138100.0
1997-10-31,137600.0
1997-09-30,137100.0
1997-08-31,136700.0
1997-07-31,135700.0
1997-06-30,134500.0
1997-05-31,133900.0
1997-04-30,133600.0
1997-03-31,133300.0
1997-02-28,133100.0
1997-01-31,133100.0
1996-12-31,133100.0
1996-11-30,133300.0
1996-10-31,133600.0
1996-09-30,133900.0
1996-08-31,134100.0
1996-07-31,135000.0
1996-06-30,136400.0
1996-05-31,137400.0
1996-04-30,137800.0
