Date,Value
2015-09-30,651250.0
2015-08-31,656420.0
2015-07-31,664730.0
2015-06-30,626465.0
2015-05-31,634905.0
2015-04-30,624380.0
2015-03-31,590300.0
2015-02-28,582500.0
2015-01-31,638500.0
2014-12-31,633950.0
2014-11-30,585800.0
2014-10-31,600250.0
2014-09-30,621750.0
2014-08-31,612750.0
2014-07-31,624150.0
2014-06-30,646850.0
2014-05-31,659850.0
2014-04-30,664525.0
2014-03-31,663625.0
2014-02-28,623700.0
2014-01-31,605750.0
2013-12-31,548300.0
2013-11-30,579000.0
2013-10-31,561450.0
2013-09-30,569682.5
2013-08-31,587042.5
2013-07-31,589525.0
2013-06-30,612505.0
2013-05-31,570695.0
2013-04-30,523600.0
2013-03-31,503250.0
2013-02-28,504750.0
2013-01-31,480500.0
2012-12-31,517250.0
2012-11-30,549749.85
2012-10-31,514374.65
2012-09-30,525124.5
2012-08-31,524250.0
2012-07-31,510450.0
2012-06-30,499792.5
2012-05-31,508622.5
2012-04-30,507127.5
2012-03-31,485532.5
2012-02-29,479800.0
2012-01-31,478250.0
2011-12-31,454500.0
2011-11-30,488242.5
2011-10-31,495232.5
2011-09-30,519725.0
2011-08-31,516675.0
2011-07-31,510317.5
2011-06-30,485732.5
2011-05-31,466725.0
2011-04-30,516750.0
2011-03-31,553375.0
2011-02-28,561125.0
2011-01-31,502000.0
2010-12-31,510000.0
2010-11-30,504250.0
2010-10-31,506125.0
2010-09-30,514250.0
2010-08-31,542550.0
2010-07-31,530200.0
2010-06-30,535350.0
2010-05-31,530750.0
2010-04-30,534775.0
2010-03-31,524625.0
2010-02-28,531500.0
2010-01-31,540000.0
2009-12-31,516500.0
2009-11-30,492900.0
2009-10-31,490300.0
2009-09-30,484800.0
2009-08-31,503300.0
2009-07-31,531425.0
2009-06-30,528525.0
2009-05-31,495216.25
2009-04-30,542260.2941
2009-03-31,559775.0
2008-12-31,560080.8
2008-11-30,548794.0
2008-10-31,562000.0
2008-09-30,578890.0
2008-08-31,592410.0
2008-07-31,601950.0
2008-06-30,622850.0
2008-05-31,641250.0
2008-04-30,628000.0
2008-03-31,631750.0
2008-02-29,617000.0
2008-01-31,542867.5
2007-12-31,550607.5
2007-11-30,559225.0
2007-10-31,603750.0
2007-09-30,622235.0
2007-08-31,603707.5
2007-07-31,622932.5
2007-06-30,597350.0
2007-05-31,584575.0
2007-04-30,583550.0
2007-03-31,587442.5
2007-02-28,556032.5
2007-01-31,549150.0
2006-12-31,527575.0
2006-11-30,507500.0
2006-10-31,559250.0
2006-09-30,532675.0
2006-08-31,533825.0
2006-07-31,503062.5
2006-06-30,504562.5
2006-05-31,506875.0
2006-04-30,530250.0
2006-03-31,564800.0
2006-02-28,574200.0
2006-01-31,559117.5
2005-12-31,542507.5
2005-11-30,521575.0
2005-10-31,503475.25
2005-09-30,501002.25
2005-08-31,492757.5
2005-07-31,471750.0
2005-06-30,479750.0
2005-05-31,473250.0
2005-04-30,456242.5
2005-03-31,461475.0
2005-02-28,459657.5
2005-01-31,435975.0
2004-12-31,418550.0
2004-11-30,390625.0
2004-10-31,378454.1
2004-09-30,416760.4
2004-08-31,448629.5
2004-07-31,441525.0
2004-06-30,422750.0
2004-05-31,418050.0
2004-04-30,415475.0
2004-03-31,396625.0
2004-02-29,391250.0
2004-01-31,400585.0
2003-12-31,423365.0
2003-11-30,410192.5
2003-10-31,385857.5
2003-09-30,373100.0
2003-08-31,390625.0
2003-07-31,400575.0
2003-06-30,398350.0
2003-05-31,383000.0
2003-04-30,369392.5
2003-03-31,374764.5
2003-02-28,365233.0
2003-01-31,340240.0
2002-12-31,351142.5
2002-11-30,337592.5
2002-10-31,349315.0
2002-09-30,352465.0
2002-08-31,368535.0
2002-07-31,362730.0
2002-06-30,367790.0
2002-05-31,338180.0
2002-04-30,322600.0
2002-03-31,294750.0
2002-02-28,308542.5
2002-01-31,318681.0
2001-12-31,318471.5
2001-11-30,313243.5
2001-10-31,324791.5
2001-09-30,313225.0
2001-08-31,333097.5
2001-07-31,354752.5
2001-06-30,355325.0
2001-05-31,353775.0
2001-04-30,324225.0
2001-03-31,313750.0
2001-02-28,297350.0
2001-01-31,299175.0
2000-12-31,320250.0
2000-11-30,324775.0
2000-10-31,353692.5
2000-09-30,353191.75
2000-08-31,348213.25
2000-07-31,354897.5
2000-06-30,343050.0
2000-05-31,334000.0
2000-04-30,332242.5
2000-03-31,309482.5
2000-02-29,316125.0
2000-01-31,318850.0
1999-12-31,332500.0
1999-11-30,320750.0
1999-10-31,312875.0
1999-09-30,315111.5
1999-08-31,314918.5
1999-07-31,314030.0
1999-06-30,317543.5
1999-05-31,315801.5
1999-04-30,310260.0
1999-03-31,308710.0
1999-02-28,312417.5
1999-01-31,326690.25
1998-12-31,320834.75
1998-11-30,314442.5
1998-10-31,315742.5
1998-09-30,313732.5
1998-08-31,307475.0
1998-07-31,296950.0
1998-06-30,297300.0
1998-05-31,293250.0
1998-04-30,275242.5
1998-03-31,271607.5
1998-02-28,273342.5
1998-01-31,284282.5
1997-12-31,279525.0
1997-11-30,274900.0
1997-10-31,277735.0
1997-09-30,277615.0
1997-08-31,280675.0
1997-07-31,279800.0
1997-06-30,273975.0
1997-05-31,260050.0
1997-04-30,248800.0
1997-03-31,241300.0
1997-02-28,243775.0
1997-01-31,240875.0
1996-12-31,251800.0
1996-11-30,256800.0
1996-10-31,261575.0
1996-09-30,254575.0
1996-08-31,241350.0
1996-07-31,242400.0
1996-06-30,235675.0
1996-05-31,242625.0
1996-04-30,236050.0
