Date,Value
2015-09-30,179000.0
2015-08-31,177800.0
2015-07-31,177500.0
2015-06-30,176800.0
2015-05-31,175900.0
2015-04-30,175900.0
2015-03-31,175800.0
2015-02-28,174800.0
2015-01-31,173000.0
2014-12-31,171700.0
2014-11-30,170100.0
2014-10-31,169700.0
2014-09-30,169600.0
2014-08-31,167800.0
2014-07-31,163900.0
2014-06-30,160500.0
2014-05-31,158100.0
2014-04-30,155600.0
2014-03-31,152600.0
2014-02-28,151500.0
2014-01-31,152400.0
2013-12-31,152100.0
2013-11-30,151400.0
2013-10-31,151300.0
2013-09-30,151300.0
2013-08-31,151600.0
2013-07-31,151900.0
2013-06-30,150800.0
2013-05-31,149000.0
2013-04-30,147100.0
2013-03-31,145700.0
2013-02-28,145300.0
2013-01-31,145000.0
2012-12-31,143700.0
2012-11-30,142000.0
2012-10-31,141500.0
2012-09-30,142300.0
2012-08-31,141800.0
2012-07-31,140100.0
2012-06-30,139000.0
2012-05-31,139000.0
2012-04-30,140200.0
2012-03-31,141500.0
2012-02-29,141900.0
2012-01-31,143400.0
2011-12-31,148200.0
2011-11-30,153100.0
2011-10-31,155800.0
2011-09-30,157100.0
2011-08-31,159200.0
2011-07-31,160800.0
2011-06-30,162100.0
2011-05-31,163900.0
2011-04-30,166600.0
2011-03-31,169400.0
2011-02-28,171300.0
2011-01-31,171200.0
2010-12-31,167900.0
2010-11-30,164700.0
2010-10-31,161800.0
2010-09-30,160000.0
2010-08-31,160800.0
2010-07-31,164400.0
2010-06-30,168500.0
2010-05-31,172400.0
2010-04-30,174000.0
2010-03-31,173900.0
2010-02-28,174600.0
2010-01-31,175600.0
2009-12-31,176700.0
2009-11-30,178000.0
2009-10-31,179700.0
2009-09-30,181600.0
2009-08-31,183200.0
2009-07-31,184900.0
2009-06-30,186800.0
2009-05-31,188500.0
2009-04-30,191100.0
2009-03-31,195100.0
2009-02-28,198600.0
2009-01-31,201500.0
2008-12-31,204900.0
2008-11-30,209000.0
2008-10-31,212600.0
2008-09-30,214900.0
2008-08-31,214700.0
2008-07-31,214200.0
2008-06-30,214200.0
2008-05-31,215000.0
2008-04-30,215800.0
2008-03-31,217000.0
2008-02-29,219300.0
2008-01-31,222500.0
2007-12-31,225800.0
2007-11-30,227700.0
2007-10-31,228600.0
2007-09-30,229400.0
2007-08-31,230500.0
2007-07-31,230600.0
2007-06-30,231200.0
2007-05-31,232400.0
2007-04-30,232800.0
2007-03-31,231300.0
2007-02-28,230600.0
2007-01-31,230400.0
2006-12-31,229700.0
2006-11-30,228700.0
2006-10-31,228100.0
2006-09-30,227500.0
2006-08-31,226100.0
2006-07-31,223600.0
2006-06-30,220900.0
2006-05-31,219200.0
2006-04-30,217900.0
2006-03-31,215400.0
2006-02-28,209500.0
2006-01-31,203200.0
2005-12-31,199200.0
2005-11-30,196500.0
2005-10-31,193300.0
2005-09-30,190800.0
2005-08-31,190000.0
2005-07-31,191400.0
2005-06-30,191900.0
2005-05-31,189800.0
2005-04-30,186900.0
2005-03-31,185300.0
2005-02-28,184400.0
2005-01-31,183600.0
2004-12-31,182400.0
2004-11-30,180700.0
2004-10-31,178600.0
2004-09-30,176500.0
2004-08-31,174300.0
2004-07-31,171700.0
2004-06-30,169200.0
2004-05-31,166900.0
2004-04-30,165600.0
2004-03-31,164500.0
2004-02-29,163100.0
2004-01-31,162200.0
2003-12-31,161900.0
2003-11-30,161600.0
2003-10-31,161600.0
2003-09-30,163100.0
2003-08-31,164800.0
2003-07-31,164900.0
2003-06-30,163200.0
2003-05-31,160700.0
2003-04-30,158300.0
2003-03-31,156600.0
2003-02-28,155900.0
2003-01-31,154700.0
2002-12-31,152800.0
2002-11-30,151400.0
2002-10-31,150300.0
2002-09-30,147800.0
2002-08-31,144900.0
2002-07-31,143800.0
2002-06-30,143900.0
2002-05-31,144200.0
2002-04-30,144200.0
2002-03-31,144300.0
2002-02-28,144800.0
2002-01-31,144900.0
2001-12-31,145400.0
2001-11-30,145800.0
2001-10-31,145500.0
2001-09-30,144800.0
2001-08-31,145400.0
2001-07-31,145800.0
2001-06-30,145500.0
2001-05-31,146200.0
2001-04-30,147500.0
2001-03-31,147200.0
2001-02-28,145800.0
2001-01-31,143800.0
2000-12-31,141400.0
2000-11-30,140800.0
2000-10-31,142100.0
2000-09-30,142800.0
2000-08-31,141500.0
2000-07-31,139100.0
2000-06-30,138200.0
2000-05-31,138300.0
2000-04-30,137700.0
2000-03-31,137200.0
2000-02-29,138000.0
2000-01-31,138200.0
1999-12-31,137200.0
1999-11-30,136200.0
1999-10-31,136000.0
1999-09-30,135600.0
1999-08-31,135100.0
1999-07-31,134800.0
1999-06-30,134700.0
1999-05-31,134100.0
1999-04-30,133500.0
1999-03-31,132800.0
1999-02-28,131900.0
1999-01-31,131400.0
1998-12-31,131200.0
1998-11-30,130500.0
1998-10-31,128900.0
1998-09-30,127500.0
1998-08-31,126000.0
1998-07-31,124100.0
1998-06-30,122200.0
1998-05-31,120900.0
1998-04-30,119900.0
1998-03-31,119200.0
1998-02-28,118300.0
1998-01-31,118400.0
1997-12-31,119200.0
1997-11-30,119100.0
1997-10-31,118300.0
1997-09-30,118600.0
1997-08-31,118800.0
1997-07-31,118800.0
1997-06-30,118100.0
1997-05-31,117300.0
1997-04-30,116600.0
1997-03-31,116500.0
1997-02-28,116600.0
1997-01-31,117000.0
1996-12-31,116700.0
1996-11-30,114900.0
1996-10-31,112800.0
1996-09-30,111400.0
1996-08-31,110800.0
1996-07-31,111000.0
1996-06-30,111500.0
1996-05-31,111300.0
1996-04-30,110800.0
