Date,Value
2015-09-30,323159.5
2015-08-31,302515.65
2015-07-31,299753.0
2015-06-30,299856.5
2015-05-31,301900.0
2015-04-30,286050.0
2015-03-31,288150.0
2015-02-28,289950.0
2015-01-31,299242.5
2014-12-31,265782.5
2014-11-30,276050.0
2014-10-31,291375.0
2014-09-30,301997.75
2014-08-31,314044.75
2014-07-31,310442.5
2014-06-30,296000.0
2014-05-31,288000.0
2014-04-30,280500.0
2014-03-31,300435.0
2014-02-28,308507.5
2014-01-31,272982.5
2013-12-31,292075.0
2013-11-30,282850.0
2013-10-31,282750.0
2013-09-30,265100.0
2013-08-31,268650.0
2013-07-31,260450.0
2013-06-30,260925.0
2013-05-31,253925.0
2013-04-30,263792.5
2013-03-31,257632.5
2013-02-28,271079.5
2013-01-31,265464.0
2012-12-31,275070.0
2012-11-30,261375.0
2012-10-31,267225.0
2012-09-30,240100.0
2012-08-31,255750.0
2012-07-31,274300.0
2012-06-30,277500.0
2012-05-31,269250.0
2012-04-30,262500.0
2012-03-31,254750.0
2012-02-29,242482.5
2012-01-31,232473.5
2011-12-31,238746.5
2011-11-30,246093.0
2011-10-31,245582.5
2011-09-30,268925.0
2011-08-31,271917.5
2011-07-31,255006.0
2011-06-30,254970.75
2011-05-31,250043.25
2011-04-30,251171.0
2011-03-31,254020.75
2011-02-28,247890.95
2011-01-31,254508.05
2010-12-31,264975.5
2010-11-30,267655.25
2010-10-31,266216.5
2010-09-30,276977.5
2010-08-31,292600.0
2010-07-31,285037.5
2010-06-30,283512.5
2010-05-31,267073.5
2010-04-30,268137.5
2010-03-31,280123.5
2010-02-28,290496.5
2010-01-31,286445.0
2009-12-31,281250.0
2009-11-30,279450.0
2009-10-31,276650.0
2009-09-30,282598.5
2009-08-31,276646.5
2009-07-31,284545.0
2009-06-30,294150.0
2009-05-31,290150.0
2009-04-30,282050.0
2009-03-31,281898.5
2009-02-28,289845.0
2009-01-31,299741.5
2008-12-31,294000.35
2008-11-30,298679.15
2008-10-31,302434.5
2008-09-30,279123.45
2008-08-31,293530.55
2008-07-31,312494.0
2008-06-30,325610.0
2008-05-31,308963.5
2008-04-30,313109.6
2008-03-31,328103.2
2008-02-29,325925.95
2008-01-31,325218.75
2007-12-31,307430.2
2007-11-30,306118.8
2007-10-31,305632.25
2007-09-30,290764.25
2007-08-31,310842.5
2007-07-31,324111.75
2007-06-30,331653.25
2007-05-31,336405.0
2007-04-30,328475.0
2007-03-31,330242.5
2007-02-28,329482.5
2007-01-31,338475.0
2006-12-31,325300.0
2006-11-30,320550.0
2006-10-31,322973.5
2006-09-30,323870.0
2006-08-31,326776.5
2006-07-31,316802.5
2006-06-30,317582.5
2006-05-31,308725.0
2006-04-30,313450.0
2006-03-31,301800.0
2006-02-28,286750.0
2006-01-31,285500.0
2005-12-31,285742.5
2005-11-30,295975.0
2005-10-31,293607.5
2005-09-30,283675.0
2005-08-31,274400.0
2005-07-31,264742.5
2005-06-30,257475.0
2005-05-31,249950.0
2005-04-30,250400.0
2005-03-31,248806.25
2005-02-28,244388.75
2005-01-31,238037.5
2004-12-31,242125.0
2004-11-30,245450.0
2004-10-31,239942.5
2004-09-30,234292.5
2004-08-31,225915.0
2004-07-31,222200.0
2004-06-30,228322.1
2004-05-31,233579.9
2004-04-30,226762.0
2004-03-31,221691.8
2004-02-29,215689.2
2004-01-31,203416.0
2003-12-31,206265.0
2003-11-30,210692.5
2003-10-31,222382.5
2003-09-30,225860.0
2003-08-31,218107.5
2003-07-31,216382.5
2003-06-30,208175.0
2003-05-31,208650.0
2003-04-30,200375.0
2003-03-31,206317.5
2003-02-28,207475.0
2003-01-31,212669.3
2002-12-31,206219.2
2002-11-30,207756.0
2002-10-31,207000.0
2002-09-30,204462.25
2002-08-31,203027.7
2002-07-31,203316.55
2002-06-30,190191.5
2002-05-31,184408.0
2002-04-30,189144.5
2002-03-31,191842.5
2002-02-28,187217.5
2002-01-31,190775.0
2001-12-31,188563.75
2001-11-30,187721.25
2001-10-31,183946.95
2001-09-30,181157.05
2001-08-31,182515.8
2001-07-31,184789.2
2001-06-30,183133.95
2001-05-31,181148.55
2001-04-30,181859.0
2001-03-31,175134.25
2001-02-28,173563.25
2001-01-31,176921.0
2000-12-31,193942.95
2000-11-30,183807.95
2000-10-31,187451.6
2000-09-30,187111.75
2000-08-31,185054.4
2000-07-31,176487.35
2000-06-30,179165.5
2000-05-31,174762.5
2000-04-30,170032.5
2000-03-31,167328.95
2000-02-29,165251.15
2000-01-31,164717.4
1999-12-31,159369.5
1999-11-30,159908.2
1999-10-31,172460.8
1999-09-30,180619.0
1999-08-31,171225.0
1999-07-31,166567.65
1999-06-30,171807.85
1999-05-31,171710.5
1999-04-30,165707.5
1999-03-31,157177.5
1999-02-28,158630.0
1999-01-31,157696.25
1998-12-31,158971.55
1998-11-30,161900.7
1998-10-31,160468.5
1998-09-30,156850.0
1998-08-31,158990.0
1998-07-31,157192.5
1998-06-30,154156.9
1998-05-31,151437.75
1998-04-30,147731.85
1998-03-31,146963.0
1998-02-28,151717.5
1998-01-31,156325.0
1997-12-31,161999.05
1997-11-30,159939.45
1997-10-31,157638.5
1997-09-30,159632.5
1997-08-31,152183.0
1997-07-31,148681.9
1997-06-30,144184.85
1997-05-31,145201.25
1997-04-30,143735.25
1997-03-31,138715.85
1997-02-28,130725.9
1997-01-31,130597.0
1996-12-31,143000.0
1996-11-30,150765.0
1996-10-31,148651.8
1996-09-30,140654.2
1996-08-31,137606.0
1996-07-31,141075.0
1996-06-30,136600.0
1996-05-31,135767.5
1996-04-30,133117.5
