Date,Value
2015-09-30,250900.0
2015-08-31,251400.0
2015-07-31,249000.0
2015-06-30,250300.0
2015-05-31,249600.0
2015-04-30,246600.0
2015-03-31,242300.0
2015-02-28,238400.0
2015-01-31,235900.0
2014-12-31,233500.0
2014-11-30,231500.0
2014-10-31,229700.0
2014-09-30,228100.0
2014-08-31,226200.0
2014-07-31,224500.0
2014-06-30,224300.0
2014-05-31,224500.0
2014-04-30,222400.0
2014-03-31,219000.0
2014-02-28,216500.0
2014-01-31,214800.0
2013-12-31,213400.0
2013-11-30,211900.0
2013-10-31,209600.0
2013-09-30,206300.0
2013-08-31,203200.0
2013-07-31,200100.0
2013-06-30,196400.0
2013-05-31,192500.0
2013-04-30,189200.0
2013-03-31,186300.0
2013-02-28,183600.0
2013-01-31,181400.0
2012-12-31,180300.0
2012-11-30,179700.0
2012-10-31,179200.0
2012-09-30,178300.0
2012-08-31,177600.0
2012-07-31,177600.0
2012-06-30,177300.0
2012-05-31,175800.0
2012-04-30,174900.0
2012-03-31,174800.0
2012-02-29,174700.0
2012-01-31,174700.0
2011-12-31,175300.0
2011-11-30,175700.0
2011-10-31,176200.0
2011-09-30,177300.0
2011-08-31,178800.0
2011-07-31,180600.0
2011-06-30,181900.0
2011-05-31,182600.0
2011-04-30,184100.0
2011-03-31,187100.0
2011-02-28,190600.0
2011-01-31,193700.0
2010-12-31,196000.0
2010-11-30,198200.0
2010-10-31,200600.0
2010-09-30,203300.0
2010-08-31,206700.0
2010-07-31,209700.0
2010-06-30,212100.0
2010-05-31,214300.0
2010-04-30,216400.0
2010-03-31,218600.0
2010-02-28,221200.0
2010-01-31,222800.0
2009-12-31,223000.0
2009-11-30,223100.0
2009-10-31,222900.0
2009-09-30,222300.0
2009-08-31,222100.0
2009-07-31,223000.0
2009-06-30,224700.0
2009-05-31,226900.0
2009-04-30,230100.0
2009-03-31,234400.0
2009-02-28,238300.0
2009-01-31,242000.0
2008-12-31,245800.0
2008-11-30,249400.0
2008-10-31,253200.0
2008-09-30,256900.0
2008-08-31,258900.0
2008-07-31,260400.0
2008-06-30,262600.0
2008-05-31,266100.0
2008-04-30,268900.0
2008-03-31,270900.0
2008-02-29,272800.0
2008-01-31,275300.0
2007-12-31,277600.0
2007-11-30,280100.0
2007-10-31,282900.0
2007-09-30,285800.0
2007-08-31,287800.0
2007-07-31,288300.0
2007-06-30,288800.0
2007-05-31,289800.0
2007-04-30,289900.0
2007-03-31,288300.0
2007-02-28,285600.0
2007-01-31,282900.0
2006-12-31,281400.0
2006-11-30,280300.0
2006-10-31,279000.0
2006-09-30,278100.0
2006-08-31,277800.0
2006-07-31,276800.0
2006-06-30,274400.0
2006-05-31,270800.0
2006-04-30,267300.0
2006-03-31,264200.0
2006-02-28,261500.0
2006-01-31,259000.0
2005-12-31,256900.0
2005-11-30,254300.0
2005-10-31,250800.0
2005-09-30,246300.0
2005-08-31,241800.0
2005-07-31,237300.0
2005-06-30,233700.0
2005-05-31,231100.0
2005-04-30,228800.0
2005-03-31,225900.0
2005-02-28,223000.0
2005-01-31,220100.0
2004-12-31,217000.0
2004-11-30,213900.0
2004-10-31,211200.0
2004-09-30,209000.0
2004-08-31,207300.0
2004-07-31,205900.0
2004-06-30,204300.0
2004-05-31,201900.0
2004-04-30,199000.0
2004-03-31,196200.0
2004-02-29,193900.0
2004-01-31,191800.0
2003-12-31,189800.0
2003-11-30,188000.0
2003-10-31,186800.0
2003-09-30,185900.0
2003-08-31,184900.0
2003-07-31,184300.0
2003-06-30,183800.0
2003-05-31,183000.0
2003-04-30,181800.0
2003-03-31,181400.0
2003-02-28,181100.0
2003-01-31,180400.0
2002-12-31,179600.0
2002-11-30,178700.0
2002-10-31,177900.0
2002-09-30,176900.0
2002-08-31,176100.0
2002-07-31,175200.0
2002-06-30,174100.0
2002-05-31,173300.0
2002-04-30,172900.0
2002-03-31,172500.0
2002-02-28,171900.0
2002-01-31,171400.0
2001-12-31,170900.0
2001-11-30,170100.0
2001-10-31,168900.0
2001-09-30,167900.0
2001-08-31,167300.0
2001-07-31,166800.0
2001-06-30,166400.0
2001-05-31,166300.0
2001-04-30,166300.0
2001-03-31,166000.0
2001-02-28,165600.0
2001-01-31,164800.0
2000-12-31,163800.0
2000-11-30,162900.0
2000-10-31,162000.0
2000-09-30,161300.0
2000-08-31,160600.0
2000-07-31,159800.0
2000-06-30,158700.0
2000-05-31,157700.0
2000-04-30,156800.0
2000-03-31,156100.0
2000-02-29,155000.0
2000-01-31,153900.0
1999-12-31,152800.0
1999-11-30,151800.0
1999-10-31,150800.0
1999-09-30,149600.0
1999-08-31,147900.0
1999-07-31,146400.0
1999-06-30,145300.0
1999-05-31,144000.0
1999-04-30,142600.0
1999-03-31,141200.0
1999-02-28,140200.0
1999-01-31,139300.0
1998-12-31,138600.0
1998-11-30,138300.0
1998-10-31,138100.0
1998-09-30,137600.0
1998-08-31,136800.0
1998-07-31,136100.0
1998-06-30,135300.0
1998-05-31,134800.0
1998-04-30,134300.0
1998-03-31,133600.0
1998-02-28,132900.0
1998-01-31,132200.0
1997-12-31,131500.0
1997-11-30,130600.0
1997-10-31,129800.0
1997-09-30,129100.0
1997-08-31,128300.0
1997-07-31,127500.0
1997-06-30,126700.0
1997-05-31,125900.0
1997-04-30,125500.0
1997-03-31,125300.0
1997-02-28,124600.0
1997-01-31,123700.0
1996-12-31,123100.0
1996-11-30,122800.0
1996-10-31,122500.0
1996-09-30,122500.0
1996-08-31,122800.0
1996-07-31,123100.0
1996-06-30,123500.0
1996-05-31,123500.0
1996-04-30,123300.0
