Date,Value
2015-09-30,301700.0
2015-08-31,302100.0
2015-07-31,299400.0
2015-06-30,296300.0
2015-05-31,295200.0
2015-04-30,291400.0
2015-03-31,289300.0
2015-02-28,286200.0
2015-01-31,283200.0
2014-12-31,281700.0
2014-11-30,280600.0
2014-10-31,279900.0
2014-09-30,279900.0
2014-08-31,280400.0
2014-07-31,280500.0
2014-06-30,280000.0
2014-05-31,278100.0
2014-04-30,276600.0
2014-03-31,276600.0
2014-02-28,277300.0
2014-01-31,277600.0
2013-12-31,277600.0
2013-11-30,277500.0
2013-10-31,276900.0
2013-09-30,275600.0
2013-08-31,273500.0
2013-07-31,271300.0
2013-06-30,269400.0
2013-05-31,267500.0
2013-04-30,265300.0
2013-03-31,264000.0
2013-02-28,264300.0
2013-01-31,265400.0
2012-12-31,266200.0
2012-11-30,266400.0
2012-10-31,266300.0
2012-09-30,266500.0
2012-08-31,266900.0
2012-07-31,267400.0
2012-06-30,268100.0
2012-05-31,269100.0
2012-04-30,270200.0
2012-03-31,271100.0
2012-02-29,271400.0
2012-01-31,271200.0
2011-12-31,270500.0
2011-11-30,269700.0
2011-10-31,269600.0
2011-09-30,270100.0
2011-08-31,270600.0
2011-07-31,271000.0
2011-06-30,271200.0
2011-05-31,271700.0
2011-04-30,272300.0
2011-03-31,272900.0
2011-02-28,273700.0
2011-01-31,275000.0
2010-12-31,276600.0
2010-11-30,278300.0
2010-10-31,279500.0
2010-09-30,280000.0
2010-08-31,281000.0
2010-07-31,282200.0
2010-06-30,283100.0
2010-05-31,283400.0
2010-04-30,283700.0
2010-03-31,283900.0
2010-02-28,283900.0
2010-01-31,284000.0
2009-12-31,284000.0
2009-11-30,284300.0
2009-10-31,285100.0
2009-09-30,286100.0
2009-08-31,286900.0
2009-07-31,287600.0
2009-06-30,288500.0
2009-05-31,290300.0
2009-04-30,292400.0
2009-03-31,294400.0
2009-02-28,296500.0
2009-01-31,298800.0
2008-12-31,299800.0
2008-11-30,300300.0
2008-10-31,301200.0
2008-09-30,303000.0
2008-08-31,304000.0
2008-07-31,305800.0
2008-06-30,308800.0
2008-05-31,312600.0
2008-04-30,315900.0
2008-03-31,319100.0
2008-02-29,321000.0
2008-01-31,321800.0
2007-12-31,323600.0
2007-11-30,326200.0
2007-10-31,327800.0
2007-09-30,328800.0
2007-08-31,330600.0
2007-07-31,332000.0
2007-06-30,332800.0
2007-05-31,333400.0
2007-04-30,334300.0
2007-03-31,335500.0
2007-02-28,336400.0
2007-01-31,336400.0
2006-12-31,337000.0
2006-11-30,338400.0
2006-10-31,339400.0
2006-09-30,339000.0
2006-08-31,338500.0
2006-07-31,338400.0
2006-06-30,337100.0
2006-05-31,333500.0
2006-04-30,328600.0
2006-03-31,323400.0
2006-02-28,319200.0
2006-01-31,316600.0
2005-12-31,313900.0
2005-11-30,309600.0
2005-10-31,305300.0
2005-09-30,301800.0
2005-08-31,297700.0
2005-07-31,292200.0
2005-06-30,287400.0
2005-05-31,283700.0
2005-04-30,279900.0
2005-03-31,275800.0
2005-02-28,271900.0
2005-01-31,266800.0
2004-12-31,261200.0
2004-11-30,256700.0
2004-10-31,253600.0
2004-09-30,250900.0
2004-08-31,248200.0
2004-07-31,245000.0
2004-06-30,240900.0
2004-05-31,236300.0
2004-04-30,232300.0
2004-03-31,228800.0
2004-02-29,225800.0
2004-01-31,223900.0
2003-12-31,222500.0
2003-11-30,220300.0
2003-10-31,217500.0
2003-09-30,214600.0
2003-08-31,212200.0
2003-07-31,210400.0
2003-06-30,208800.0
2003-05-31,207200.0
2003-04-30,206000.0
2003-03-31,204900.0
2003-02-28,203500.0
2003-01-31,202000.0
2002-12-31,200400.0
2002-11-30,198500.0
2002-10-31,196200.0
2002-09-30,193700.0
2002-08-31,190900.0
2002-07-31,188200.0
2002-06-30,186000.0
2002-05-31,184500.0
2002-04-30,183200.0
2002-03-31,182400.0
2002-02-28,181200.0
2002-01-31,179800.0
2001-12-31,178600.0
2001-11-30,177900.0
2001-10-31,177200.0
2001-09-30,176600.0
2001-08-31,176100.0
2001-07-31,175600.0
2001-06-30,175200.0
2001-05-31,175200.0
2001-04-30,174700.0
2001-03-31,173400.0
2001-02-28,171900.0
2001-01-31,170500.0
2000-12-31,168900.0
2000-11-30,167600.0
2000-10-31,166600.0
2000-09-30,165500.0
2000-08-31,164800.0
2000-07-31,164400.0
2000-06-30,164200.0
2000-05-31,163800.0
2000-04-30,163300.0
2000-03-31,162300.0
2000-02-29,161500.0
2000-01-31,160700.0
1999-12-31,160200.0
1999-11-30,159500.0
1999-10-31,158800.0
1999-09-30,158200.0
1999-08-31,157500.0
1999-07-31,156500.0
1999-06-30,155600.0
1999-05-31,154900.0
1999-04-30,154700.0
1999-03-31,155200.0
1999-02-28,155700.0
1999-01-31,155900.0
1998-12-31,155400.0
1998-11-30,154800.0
1998-10-31,153900.0
1998-09-30,153000.0
1998-08-31,152400.0
1998-07-31,152000.0
1998-06-30,151400.0
1998-05-31,150400.0
1998-04-30,149300.0
1998-03-31,148500.0
1998-02-28,147500.0
1998-01-31,146600.0
1997-12-31,146300.0
1997-11-30,146700.0
1997-10-31,147400.0
1997-09-30,148200.0
1997-08-31,149000.0
1997-07-31,149800.0
1997-06-30,150700.0
1997-05-31,151500.0
1997-04-30,152100.0
1997-03-31,152500.0
1997-02-28,152200.0
1997-01-31,151200.0
1996-12-31,150500.0
1996-11-30,150300.0
1996-10-31,150000.0
1996-09-30,149700.0
1996-08-31,148900.0
1996-07-31,148400.0
1996-06-30,147800.0
1996-05-31,146800.0
1996-04-30,145500.0
