Date,Value
2015-09-30,235700.0
2015-08-31,236300.0
2015-07-31,234500.0
2015-06-30,234700.0
2015-05-31,231700.0
2015-04-30,231300.0
2015-03-31,230700.0
2015-02-28,229000.0
2015-01-31,227100.0
2014-12-31,225900.0
2014-11-30,225700.0
2014-10-31,225700.0
2014-09-30,225400.0
2014-08-31,225000.0
2014-07-31,224500.0
2014-06-30,223300.0
2014-05-31,221700.0
2014-04-30,219500.0
2014-03-31,216400.0
2014-02-28,214300.0
2014-01-31,213000.0
2013-12-31,211400.0
2013-11-30,210700.0
2013-10-31,211700.0
2013-09-30,211900.0
2013-08-31,210900.0
2013-07-31,210700.0
2013-06-30,211200.0
2013-05-31,210900.0
2013-04-30,210300.0
2013-03-31,209700.0
2013-02-28,208400.0
2013-01-31,207000.0
2012-12-31,206300.0
2012-11-30,205200.0
2012-10-31,204100.0
2012-09-30,203600.0
2012-08-31,203200.0
2012-07-31,202600.0
2012-06-30,202700.0
2012-05-31,203200.0
2012-04-30,203200.0
2012-03-31,202900.0
2012-02-29,203300.0
2012-01-31,204000.0
2011-12-31,204400.0
2011-11-30,204300.0
2011-10-31,204400.0
2011-09-30,205300.0
2011-08-31,206900.0
2011-07-31,208600.0
2011-06-30,210800.0
2011-05-31,213700.0
2011-04-30,216500.0
2011-03-31,220100.0
2011-02-28,223600.0
2011-01-31,225700.0
2010-12-31,226500.0
2010-11-30,227600.0
2010-10-31,228700.0
2010-09-30,229600.0
2010-08-31,230000.0
2010-07-31,230800.0
2010-06-30,231800.0
2010-05-31,231800.0
2010-04-30,231800.0
2010-03-31,233000.0
2010-02-28,234100.0
2010-01-31,234600.0
2009-12-31,234900.0
2009-11-30,235300.0
2009-10-31,235900.0
2009-09-30,237500.0
2009-08-31,239800.0
2009-07-31,241100.0
2009-06-30,241200.0
2009-05-31,241400.0
2009-04-30,242500.0
2009-03-31,244300.0
2009-02-28,246100.0
2009-01-31,248900.0
2008-12-31,251900.0
2008-11-30,253800.0
2008-10-31,253900.0
2008-09-30,253100.0
2008-08-31,251800.0
2008-07-31,251400.0
2008-06-30,251400.0
2008-05-31,251500.0
2008-04-30,250600.0
2008-03-31,249700.0
2008-02-29,249100.0
2008-01-31,249500.0
2007-12-31,250500.0
2007-11-30,252700.0
2007-10-31,255000.0
2007-09-30,257100.0
2007-08-31,259200.0
2007-07-31,260800.0
2007-06-30,262100.0
2007-05-31,263400.0
2007-04-30,263500.0
2007-03-31,262400.0
2007-02-28,260600.0
2007-01-31,259300.0
2006-12-31,258500.0
2006-11-30,258200.0
2006-10-31,257800.0
2006-09-30,256600.0
2006-08-31,255300.0
2006-07-31,253400.0
2006-06-30,250700.0
2006-05-31,247900.0
2006-04-30,246700.0
2006-03-31,245300.0
2006-02-28,243600.0
2006-01-31,240500.0
2005-12-31,236500.0
2005-11-30,231600.0
2005-10-31,226600.0
2005-09-30,221500.0
2005-08-31,216500.0
2005-07-31,211800.0
2005-06-30,208000.0
2005-05-31,204800.0
2005-04-30,202800.0
2005-03-31,200900.0
2005-02-28,198500.0
2005-01-31,196000.0
2004-12-31,194000.0
2004-11-30,191600.0
2004-10-31,189000.0
2004-09-30,186900.0
2004-08-31,185000.0
2004-07-31,182900.0
2004-06-30,181100.0
2004-05-31,179500.0
2004-04-30,177000.0
2004-03-31,174300.0
2004-02-29,172500.0
2004-01-31,171200.0
2003-12-31,169500.0
2003-11-30,168000.0
2003-10-31,167300.0
2003-09-30,166800.0
2003-08-31,166300.0
2003-07-31,165800.0
2003-06-30,164500.0
2003-05-31,162600.0
2003-04-30,161100.0
2003-03-31,159600.0
2003-02-28,157800.0
2003-01-31,155900.0
2002-12-31,154100.0
2002-11-30,152600.0
2002-10-31,151700.0
2002-09-30,150900.0
2002-08-31,150200.0
2002-07-31,150000.0
2002-06-30,150300.0
2002-05-31,151000.0
2002-04-30,151400.0
2002-03-31,151700.0
2002-02-28,152000.0
2002-01-31,152300.0
2001-12-31,152600.0
2001-11-30,152100.0
2001-10-31,150800.0
2001-09-30,149800.0
2001-08-31,148800.0
2001-07-31,147400.0
2001-06-30,146400.0
2001-05-31,145100.0
2001-04-30,142900.0
2001-03-31,141600.0
2001-02-28,140700.0
2001-01-31,139600.0
2000-12-31,139100.0
2000-11-30,139700.0
2000-10-31,140400.0
2000-09-30,140900.0
2000-08-31,140900.0
2000-07-31,140400.0
2000-06-30,139700.0
2000-05-31,139500.0
2000-04-30,139800.0
2000-03-31,139500.0
2000-02-29,139000.0
2000-01-31,138600.0
1999-12-31,138400.0
1999-11-30,138300.0
1999-10-31,138400.0
1999-09-30,138400.0
1999-08-31,138700.0
1999-07-31,139500.0
1999-06-30,140300.0
1999-05-31,140400.0
1999-04-30,139900.0
1999-03-31,139100.0
1999-02-28,138500.0
1999-01-31,138000.0
1998-12-31,137400.0
1998-11-30,136800.0
1998-10-31,136400.0
1998-09-30,135800.0
1998-08-31,134800.0
1998-07-31,134400.0
1998-06-30,134300.0
1998-05-31,133500.0
1998-04-30,132900.0
1998-03-31,133400.0
1998-02-28,134500.0
1998-01-31,135400.0
1997-12-31,135300.0
1997-11-30,134700.0
1997-10-31,133900.0
1997-09-30,133200.0
1997-08-31,132700.0
1997-07-31,131900.0
1997-06-30,130600.0
1997-05-31,130000.0
1997-04-30,129600.0
1997-03-31,128700.0
1997-02-28,127700.0
1997-01-31,127300.0
1996-12-31,127300.0
1996-11-30,127500.0
1996-10-31,127600.0
1996-09-30,127600.0
1996-08-31,127900.0
1996-07-31,128300.0
1996-06-30,128900.0
1996-05-31,130200.0
1996-04-30,131900.0
