Date,Value
2015-03-31,155000.0
2014-10-31,145500.0
2014-09-30,153235.2941
2014-08-31,159000.0
2014-06-30,136529.4118
2014-05-31,131615.3846
2014-03-31,144110.0
2014-02-28,162047.0588
2014-01-31,158346.1538
2013-11-30,141715.0
2013-10-31,149200.0
2013-09-30,142726.5
2013-08-31,140621.7647
2013-07-31,144392.3077
2013-05-31,152050.0
2013-04-30,146411.7647
2013-03-31,127000.0
2012-12-31,143900.0
2012-11-30,139000.0
2012-10-31,119000.0
2012-05-31,119615.3846
2012-03-31,85000.0
2011-11-30,134635.0
2011-10-31,155165.0
2011-08-31,143053.8462
2011-03-31,145000.0
2010-11-30,161565.0
2010-10-31,152185.0
2010-09-30,153865.0
2010-08-31,152775.0
2010-07-31,162450.0
2010-06-30,159325.0
2010-05-31,147900.0
2010-04-30,133529.4118
2010-03-31,140000.0
2009-12-31,143700.0
2009-11-30,149200.0
2009-10-31,148200.0
2009-09-30,160750.0
2009-08-31,155950.0
2009-07-31,172735.0
2009-06-30,166315.0
2009-05-31,147750.0
2009-04-30,152588.2353
2009-03-31,142000.0
2008-09-30,182075.0
2008-08-31,175000.0
2008-07-31,169375.0
2008-06-30,165875.0
2008-05-31,172000.0
2008-04-30,172058.8235
2008-03-31,179615.3846
2008-01-31,189000.0
2007-11-30,191000.0
2007-10-31,205000.0
2007-09-30,186496.55
2007-08-31,189316.95
2007-07-31,193413.5
2007-06-30,194250.0
2007-05-31,197825.0
2007-04-30,199029.4118
2007-03-31,184615.3846
2007-01-31,171450.0
2006-12-31,178900.0
2006-11-30,180448.9
2006-10-31,187163.0
2006-09-30,183718.75
2006-08-31,181875.75
2006-07-31,180668.5
2006-06-30,179561.0
2006-05-31,167141.0
2006-04-30,157877.1
2006-03-31,173663.0
2006-02-28,175850.0
2006-01-31,165573.9
2005-12-31,179873.0
2005-11-30,170547.1
2005-10-31,173966.9
2005-09-30,162728.0
2005-08-31,166127.1
2005-07-31,154914.75
2005-06-30,140130.75
2005-05-31,150637.5
2005-04-30,145395.0
2005-03-31,152785.0
2005-02-28,151620.0
2005-01-31,154222.5
2004-12-31,135277.5
2004-11-30,137137.5
2004-10-31,142287.5
2004-09-30,146775.0
2004-08-31,136850.0
2004-07-31,145250.0
2004-06-30,138700.0
2004-05-31,123175.0
2004-04-30,125735.2941
2004-03-31,119915.3846
2004-01-31,108844.4
2003-12-31,110103.6
2003-11-30,119073.0
2003-10-31,124575.0
2003-09-30,123550.0
2003-08-31,123600.0
2003-07-31,119985.0
2003-06-30,126723.5294
2003-05-31,114900.0
2003-01-31,138846.1538
2002-11-30,113700.0
2002-10-31,110700.0
2002-09-30,107650.0
2002-08-31,117350.0
2002-07-31,115012.5
2002-06-30,103661.7647
2002-05-31,103653.8462
2002-03-31,110000.0
2001-10-31,104000.0
2001-06-30,91000.0
2000-10-31,115000.0
1999-10-31,76000.0
1998-09-30,115769.2308
1998-07-31,85000.0
