Date,Value
2015-02-28,355000.0
2015-01-31,339950.0
2014-12-31,329950.0
2014-11-30,325000.0
2014-10-31,339950.0
2014-09-30,339950.0
2014-08-31,344500.0
2014-07-31,344950.0
2014-06-30,325000.0
2014-05-31,300000.0
2014-04-30,300000.0
2014-03-31,309000.0
2014-02-28,314950.0
2014-01-31,302300.0
2013-12-31,318250.0
2013-11-30,314000.0
2013-10-31,325000.0
2013-09-30,325000.0
2013-08-31,305000.0
2013-07-31,299950.0
2013-06-30,294950.0
2013-05-31,283500.0
2013-04-30,279000.0
2013-03-31,270000.0
2013-02-28,269950.0
2013-01-31,269000.0
2012-12-31,262950.0
2012-11-30,259000.0
2012-10-31,264950.0
2012-09-30,259900.0
2012-08-31,264950.0
2012-07-31,265000.0
2012-06-30,259900.0
2012-05-31,268000.0
2012-04-30,259000.0
2012-03-31,246000.0
2012-02-29,249950.0
2012-01-31,239900.0
2011-12-31,229500.0
2011-11-30,239900.0
2011-10-31,235000.0
2011-09-30,234000.0
2011-08-31,239274.0
2011-07-31,229900.0
2011-06-30,250000.0
2011-05-31,239950.0
2011-04-30,237500.0
2011-03-31,249000.0
2011-02-28,249950.0
2011-01-31,250000.0
2010-12-31,249950.0
2010-11-30,253000.0
2010-10-31,259000.0
2010-09-30,265000.0
2010-08-31,274900.0
2010-07-31,275000.0
2010-06-30,275000.0
2010-05-31,275000.0
2010-04-30,279900.0
2010-03-31,274950.0
2010-02-28,279999.0
2010-01-31,289921.0
2009-12-31,299900.0
2009-11-30,302000.0
2009-10-31,300000.0
2009-09-30,309000.0
2009-08-31,303900.0
2009-07-31,303950.0
2009-06-30,306950.0
2009-05-31,309950.0
2009-04-30,319950.0
2009-03-31,319500.0
2009-02-28,319950.0
2009-01-31,330000.0
2008-12-31,339950.0
2008-11-30,349500.0
2008-10-31,354120.0
