Date,Value
2015-02-28,642000.0
2015-01-31,642000.0
2014-12-31,642000.0
2014-11-30,615000.0
2014-10-31,585000.0
2014-09-30,565000.0
2014-08-31,569500.0
2014-07-31,593950.0
2014-06-30,575000.0
2014-05-31,569000.0
2014-04-30,549000.0
2014-03-31,549000.0
2014-02-28,598888.0
2014-01-31,580000.0
2013-12-31,595000.0
2013-11-30,595000.0
2013-10-31,544000.0
2013-09-30,579000.0
2013-08-31,559000.0
2013-07-31,589000.0
2013-06-30,525000.0
2013-05-31,499000.0
2013-04-30,519922.0
2013-03-31,519922.0
2013-02-28,519990.0
2013-01-31,499999.0
2012-12-31,499950.0
2012-11-30,499900.0
2012-10-31,525000.0
2012-09-30,649990.0
2012-08-31,599000.0
2012-07-31,599000.0
2012-06-30,589000.0
2012-05-31,559000.0
2012-04-30,510000.0
2012-03-31,529000.0
2012-02-29,529000.0
2012-01-31,529000.0
2011-12-31,549000.0
2011-11-30,500000.0
2011-10-31,500000.0
2011-09-30,495000.0
2011-08-31,499000.0
2011-07-31,525000.0
2011-06-30,549900.0
2011-05-31,495000.0
2011-04-30,474950.0
2011-03-31,465000.0
2011-02-28,488950.0
2011-01-31,495000.0
2010-12-31,520000.0
2010-11-30,499950.0
2010-10-31,525000.0
2010-09-30,480000.0
2010-08-31,495500.0
2010-07-31,524900.0
2010-06-30,495500.0
2010-05-31,499000.0
2010-04-30,489950.0
2010-03-31,495500.0
2010-02-28,529950.0
2010-01-31,529950.0
2009-12-31,600000.0
2009-11-30,600000.0
2009-10-31,579950.0
2009-09-30,649000.0
2009-08-31,599950.0
2009-07-31,569950.0
2009-06-30,565430.0
2009-05-31,540000.0
2009-04-30,565000.0
2009-03-31,579950.0
2009-02-28,579950.0
2009-01-31,599999.0
2008-12-31,615000.0
2008-11-30,649500.0
2008-10-31,610000.0
