Date,Value
2015-02-28,399000.0
2015-01-31,399000.0
2014-12-31,392000.0
2014-11-30,360000.0
2014-10-31,360000.0
2014-09-30,355000.0
2014-08-31,385000.0
2014-07-31,325000.0
2014-06-30,335000.0
2014-05-31,349900.0
2014-04-30,344900.0
2014-03-31,325000.0
2014-02-28,317500.0
2014-01-31,299900.0
2013-12-31,309500.0
2013-11-30,339000.0
2013-10-31,339900.0
2013-09-30,344000.0
2013-08-31,339000.0
2013-07-31,339000.0
2013-06-30,324900.0
2013-05-31,320000.0
2013-04-30,324900.0
2013-03-31,304900.0
2013-02-28,304900.0
2013-01-31,304900.0
2012-12-31,303000.0
2012-11-30,299500.0
2012-10-31,299000.0
2012-09-30,329000.0
2012-08-31,329000.0
2012-07-31,329000.0
2012-06-30,339000.0
2012-05-31,337500.0
2012-04-30,320000.0
2012-03-31,319000.0
2012-02-29,299000.0
2012-01-31,319000.0
2011-12-31,319000.0
2011-11-30,319900.0
2011-10-31,329000.0
2011-09-30,329000.0
2011-08-31,339000.0
2011-07-31,349000.0
2011-06-30,347500.0
2011-05-31,349000.0
2011-04-30,349000.0
2011-03-31,359000.0
2011-02-28,374900.0
2011-01-31,385000.0
2010-12-31,385000.0
2010-11-30,396000.0
2010-10-31,396700.0
2010-09-30,399000.0
2010-08-31,396700.0
2010-07-31,399000.0
2010-06-30,395000.0
2010-05-31,395000.0
2010-04-30,395000.0
2010-03-31,399000.0
2010-02-28,379500.0
2010-01-31,399000.0
2009-12-31,399000.0
2009-11-30,425000.0
2009-10-31,399900.0
2009-09-30,425000.0
2009-08-31,419000.0
2009-07-31,399900.0
2009-06-30,399900.0
2009-05-31,399500.0
2009-04-30,419000.0
2009-03-31,425000.0
2009-02-28,429000.0
2009-01-31,429000.0
2008-12-31,425000.0
2008-11-30,425000.0
2008-10-31,425000.0
