Date,Value
2015-09-30,0.844
2015-08-31,0.842
2015-07-31,0.842
2015-06-30,0.842
2015-05-31,0.838
2015-04-30,0.83
2015-03-31,0.824
2015-02-28,0.816
2015-01-31,0.81
2014-12-31,0.806
2014-11-30,0.804
2014-10-31,0.806
2014-09-30,0.804
2014-08-31,0.802
2014-07-31,0.798
2014-06-30,0.794
2014-05-31,0.79
2014-04-30,0.782
2014-03-31,0.778
2014-02-28,0.774
2014-01-31,0.77
2013-12-31,0.768
2013-11-30,0.77
2013-10-31,0.78
2013-09-30,0.786
2013-08-31,0.788
2013-07-31,0.784
2013-06-30,0.782
2013-05-31,0.78
2013-04-30,0.772
2013-03-31,0.764
2013-02-28,0.756
2013-01-31,0.752
2012-12-31,0.75
2012-11-30,0.752
2012-10-31,0.754
2012-09-30,0.754
2012-08-31,0.75
2012-07-31,0.748
2012-06-30,0.746
2012-05-31,0.74
2012-04-30,0.732
2012-03-31,0.728
2012-02-29,0.728
2012-01-31,0.724
2011-12-31,0.72
2011-11-30,0.712
2011-10-31,0.702
2011-09-30,0.692
2011-08-31,0.688
2011-07-31,0.692
2011-06-30,0.698
2011-05-31,0.706
2011-04-30,0.714
2011-03-31,0.73
2011-02-28,0.744
2011-01-31,0.756
2010-12-31,0.762
2010-11-30,0.762
