Date,Value
2015-06-30,1650.0
2015-05-31,1655.0
2015-04-30,1650.0
2015-03-31,1695.0
2015-02-28,1650.0
2015-01-31,1640.0
2014-12-31,1625.0
2014-11-30,1648.0
2014-10-31,1648.0
2014-09-30,1638.0
2014-08-31,1644.0
2014-07-31,1695.0
2014-06-30,1630.0
2014-05-31,1501.0
2014-04-30,1405.0
2014-03-31,1405.0
2014-02-28,1395.0
2014-01-31,1530.0
2013-12-31,1605.0
2013-11-30,1500.0
2013-10-31,1450.0
2013-09-30,1599.0
2013-08-31,1427.0
2013-07-31,1495.0
2013-06-30,1435.0
2013-05-31,1395.0
2013-04-30,1425.0
2013-03-31,1478.0
2013-02-28,1390.0
2013-01-31,1385.0
2012-12-31,1329.0
2012-11-30,1345.0
2012-10-31,1325.0
2012-09-30,1295.0
2012-08-31,1387.0
2012-07-31,1415.0
2012-06-30,1430.0
2012-05-31,1317.0
2012-04-30,1285.0
2012-03-31,1305.0
2012-02-29,1215.0
2012-01-31,1250.0
2011-12-31,1300.0
2011-11-30,1292.0
2011-10-31,1495.0
2011-09-30,1695.0
2011-08-31,1405.0
2011-07-31,1550.0
2011-06-30,1380.0
2011-05-31,1325.0
2011-04-30,1325.0
2011-03-31,1209.0
2011-02-28,1195.0
2011-01-31,1195.0
2010-12-31,1175.0
2010-11-30,1145.0
2010-10-31,1145.0
2010-09-30,1160.0
2010-08-31,1160.0
