Date,Value
2015-02-28,110000.0
2015-01-31,109900.0
2014-12-31,154700.0
2014-11-30,160000.0
2014-10-31,156000.0
2014-09-30,144600.0
2014-08-31,144600.0
2014-07-31,127500.0
2014-06-30,119900.0
2014-05-31,139000.0
2014-04-30,129900.0
2014-03-31,109900.0
2014-02-28,110000.0
2014-01-31,109900.0
2013-12-31,110000.0
2013-11-30,105000.0
2013-10-31,109000.0
2013-09-30,114900.0
2013-08-31,119500.0
2013-07-31,124000.0
2013-06-30,124000.0
2013-05-31,109900.0
2013-04-30,109900.0
2013-03-31,110000.0
2013-02-28,110000.0
2013-01-31,121400.0
2012-12-31,110000.0
2012-11-30,119000.0
2012-10-31,98500.0
2012-09-30,118900.0
2012-08-31,110000.0
2012-07-31,110000.0
2012-06-30,100000.0
2012-05-31,110000.0
2012-04-30,100000.0
2012-03-31,118900.0
2012-02-29,119900.0
2012-01-31,120000.0
2011-12-31,120000.0
2011-11-30,125000.0
2011-10-31,127000.0
2011-09-30,135000.0
2011-08-31,145000.0
2011-07-31,145000.0
2011-06-30,135000.0
2011-05-31,145000.0
2011-04-30,140000.0
2011-03-31,165000.0
2011-02-28,169000.0
2011-01-31,159900.0
2010-12-31,159000.0
2010-11-30,159900.0
2010-10-31,199000.0
2010-09-30,195000.0
2010-08-31,169000.0
2010-07-31,169000.0
2010-06-30,185000.0
2010-05-31,179200.0
2010-04-30,165000.0
2010-03-31,129900.0
2010-02-28,129900.0
2010-01-31,112000.0
2009-12-31,159900.0
2009-11-30,159900.0
2009-10-31,155000.0
2009-09-30,159900.0
2009-08-31,174900.0
2009-07-31,174900.0
2009-06-30,139900.0
2009-05-31,139900.0
2009-04-30,145000.0
2009-03-31,139900.0
2009-02-28,129900.0
2009-01-31,129900.0
2008-12-31,145000.0
2008-11-30,174500.0
2008-10-31,162500.0
