Date,Value
2015-09-30,199592.5
2015-08-31,180582.5
2015-07-31,192625.0
2015-06-30,192750.0
2015-05-31,173823.5294
2015-01-31,189900.0
2014-10-31,167725.0
2014-09-30,148050.0
2014-08-31,142925.0
2014-07-31,154075.0
2014-06-30,167411.7647
2014-05-31,153000.0
2013-12-31,141818.4615
2013-10-31,165330.0
2013-09-30,135605.0
2013-08-31,145780.0
2013-07-31,152523.0769
2013-05-31,126449.2308
2013-03-31,131280.0
2012-11-30,138309.4118
2012-10-31,142180.0
2012-08-31,155868.2353
2012-07-31,171818.4615
2012-05-31,146356.9231
2011-12-31,125280.0
2011-10-31,135280.0
2011-07-31,127280.0
2010-07-31,163265.0
2010-06-30,153417.0
2010-05-31,159304.25
2010-04-30,182871.25
2010-03-31,216397.0588
2010-02-28,179596.6154
2009-12-31,131966.0
2009-11-30,136445.0
2009-10-31,137730.0
2009-09-30,150917.5
2009-08-31,153368.2353
2009-07-31,161114.6154
2009-05-31,156026.1538
2009-03-31,165180.0
2008-10-31,146530.0
2008-09-30,151155.0
2008-08-31,160355.0
2008-07-31,158822.5
2008-06-30,180620.5
2008-05-31,165657.0
2008-04-30,170997.6471
2008-03-31,157203.0769
2008-01-31,157380.0
2007-12-31,178638.0
2007-11-30,162107.0
2007-10-31,165340.0
2007-09-30,160630.0
2007-08-31,166630.0
2007-07-31,174980.0
2007-06-30,167180.0
2007-05-31,146130.0
2007-04-30,160280.0
2007-03-31,170380.0
2007-02-28,161680.0
2007-01-31,131030.0
2006-12-31,136265.0
2006-11-30,144195.0
2006-10-31,141380.0
2006-09-30,142855.0
2006-08-31,152438.0
2006-07-31,153083.25
2006-06-30,175659.25
2006-05-31,163069.5
2006-04-30,137340.0
2006-03-31,143562.25
2006-02-28,147605.25
2006-01-31,148437.5
2005-12-31,143312.0
2005-11-30,157880.5
2005-10-31,150745.0
2005-09-30,142687.5
2005-08-31,142963.0
2005-07-31,135982.5
2005-06-30,129632.5
2005-05-31,121925.0
2005-04-30,119785.0
2005-03-31,118965.0
2005-02-28,131600.0
2005-01-31,133700.0
2004-12-31,136265.55
2004-11-30,132102.95
2004-10-31,134380.9
2004-09-30,129445.6
2004-08-31,122793.0
2004-07-31,109810.0
2004-06-30,105755.0
2004-05-31,107925.0
2004-04-30,103000.0
2004-03-31,103395.05
2004-02-29,115113.45
2004-01-31,112707.85
2003-12-31,100440.15
2003-11-30,114899.5
2003-10-31,113140.0
2003-09-30,117312.5
2003-08-31,109460.3
2003-07-31,116653.2
2003-06-30,113576.0
2003-05-31,117225.0
2003-04-30,112562.5
2003-03-31,110838.2353
2003-02-28,119730.7692
2002-12-31,106150.0
2002-11-30,112900.0
2002-10-31,99250.0
2002-09-30,106400.0
2002-08-31,121125.0
2002-07-31,128625.0
2002-06-30,118100.0
2002-05-31,109000.0
2002-04-30,99250.0
2002-03-31,90985.0
2002-02-28,84665.0
2002-01-31,85092.5
2001-12-31,93232.5
2001-11-30,105045.0
2001-10-31,92630.0
2001-09-30,100605.0
2001-08-31,97720.0
2001-07-31,107475.0
2001-06-30,103411.7647
2001-05-31,95653.8462
2001-03-31,100247.75
2001-02-28,115597.0588
2001-01-31,113500.0
2000-10-31,112687.5
2000-09-30,116662.5
2000-08-31,100475.0
2000-07-31,86767.5
2000-06-30,85232.5
2000-05-31,82050.0
2000-04-30,80050.0
2000-03-31,89750.0
2000-02-29,83242.5
2000-01-31,86762.5
1999-12-31,87245.0
1999-11-30,82750.0
1999-10-31,80402.75
1999-09-30,80089.75
1999-08-31,84492.5
1999-07-31,82285.0
1999-06-30,79490.0
1999-05-31,82475.0
1999-04-30,79117.6471
1999-03-31,86307.6923
1999-01-31,81250.0
1998-12-31,88200.0
1998-11-30,89092.5
1998-10-31,100357.5
1998-09-30,100835.0
1998-08-31,90765.0
1998-07-31,86500.0
1998-06-30,83650.0
1998-05-31,82647.0588
1998-04-30,95000.0
1997-10-31,91353.0
1997-09-30,101579.2
1997-08-31,107668.8
1997-07-31,103042.5
1997-05-31,87232.5
1997-04-30,78794.1176
1997-03-31,73923.0769
1997-01-31,87000.0
1996-08-31,77732.5
1996-07-31,81175.0
1996-06-30,80985.0
1996-05-31,69665.0
1996-04-30,69117.6471
