Date,Value
2015-08-31,307455.8824
2015-07-31,322769.2308
2015-05-31,314500.0
2014-11-30,262500.0
2014-07-31,249280.0
2013-07-31,319280.0
2009-10-31,270000.0
2007-12-31,382900.0
2006-09-30,350000.0
2005-08-31,262142.3077
2005-06-30,252670.0
2005-05-31,251600.0
2005-04-30,233823.5294
2005-03-31,225000.0
2004-12-31,230923.0769
2004-10-31,239692.3077
2004-08-31,227250.0
2004-07-31,228100.0
2004-06-30,221425.0
2004-05-31,231875.0
2004-04-30,243352.9412
2004-03-31,236000.0
2003-10-31,198000.0
