Date,Value
2015-02-28,130000.0
2015-01-31,129900.0
2014-12-31,129900.0
2014-11-30,139900.0
2014-10-31,149000.0
2014-09-30,149000.0
2014-08-31,149900.0
2014-07-31,149000.0
2014-06-30,149900.0
2014-05-31,159900.0
2014-04-30,173900.0
2014-03-31,159900.0
2014-02-28,159500.0
2014-01-31,159500.0
2013-12-31,159900.0
2013-11-30,189900.0
2013-10-31,169000.0
2013-09-30,159500.0
2013-08-31,148000.0
2013-07-31,175000.0
2013-06-30,184500.0
2013-05-31,190000.0
2013-04-30,175000.0
2013-03-31,159900.0
2013-02-28,170000.0
2013-01-31,175000.0
2012-12-31,159900.0
2012-11-30,149900.0
2012-10-31,83184.0
2012-09-30,163000.0
2012-08-31,175000.0
2012-07-31,163000.0
2012-06-30,170000.0
2012-05-31,140000.0
2012-04-30,134900.0
2012-03-31,118000.0
2012-02-29,118000.0
2012-01-31,129900.0
2011-12-31,134900.0
2011-11-30,179900.0
2011-10-31,145000.0
2011-09-30,99900.0
2011-08-31,99000.0
2011-07-31,99900.0
2011-06-30,94900.0
2011-05-31,95000.0
2011-04-30,99500.0
2011-03-31,99500.0
2011-02-28,79900.0
2011-01-31,99900.0
2010-12-31,105500.0
2010-11-30,141500.0
2010-10-31,141500.0
2010-09-30,149950.0
2010-08-31,144900.0
2010-07-31,149500.0
2010-06-30,149500.0
2010-05-31,169900.0
2010-04-30,169900.0
2010-03-31,169900.0
2010-02-28,189000.0
2010-01-31,199900.0
2009-12-31,229950.0
2009-11-30,234900.0
2009-10-31,229950.0
2009-09-30,229950.0
2009-08-31,234000.0
2009-07-31,229950.0
2009-06-30,199900.0
2009-05-31,259000.0
2009-04-30,250000.0
2009-03-31,250000.0
2009-02-28,250000.0
2009-01-31,250000.0
2008-12-31,199900.0
2008-11-30,199900.0
