Date,Value
2015-09-30,286800.0
2015-08-31,263300.0
2015-07-31,249900.0
2015-06-30,265300.0
2015-05-31,269000.0
2015-04-30,272100.0
2015-03-31,267600.0
2015-02-28,260900.0
2015-01-31,253000.0
2014-12-31,246400.0
2014-11-30,241700.0
2014-10-31,238200.0
2014-09-30,235600.0
2014-08-31,233000.0
2014-07-31,230700.0
2014-06-30,228400.0
2014-05-31,226200.0
2014-04-30,223600.0
2014-03-31,220700.0
2014-02-28,217400.0
2014-01-31,214000.0
2013-12-31,210400.0
2013-11-30,206800.0
2013-10-31,203700.0
2013-09-30,201800.0
2013-08-31,200400.0
2013-07-31,198100.0
2013-06-30,196100.0
2013-05-31,195200.0
2013-04-30,195400.0
2013-03-31,195600.0
2013-02-28,195900.0
2013-01-31,197100.0
2012-12-31,199200.0
2012-11-30,200700.0
2012-10-31,201600.0
2012-09-30,203300.0
2012-08-31,205500.0
2012-07-31,207700.0
2012-06-30,209100.0
2012-05-31,209300.0
2012-04-30,209300.0
2012-03-31,210000.0
2012-02-29,211700.0
2012-01-31,213600.0
2011-12-31,215100.0
2011-11-30,215900.0
2011-10-31,215800.0
2011-09-30,215300.0
2011-08-31,215200.0
2011-07-31,215600.0
2011-06-30,216400.0
2011-05-31,216900.0
2011-04-30,217200.0
2011-03-31,217400.0
2011-02-28,217500.0
2011-01-31,217600.0
2010-12-31,218100.0
2010-11-30,218400.0
2010-10-31,218600.0
2010-09-30,218400.0
2010-08-31,218200.0
2010-07-31,217700.0
2010-06-30,217300.0
2010-05-31,217100.0
2010-04-30,217200.0
2010-03-31,217200.0
2010-02-28,217200.0
2010-01-31,216800.0
2009-12-31,216100.0
2009-11-30,215800.0
2009-10-31,215300.0
2009-09-30,214100.0
2009-08-31,212300.0
2009-07-31,210900.0
2009-06-30,209700.0
2009-05-31,208700.0
2009-04-30,207600.0
2009-03-31,206400.0
2009-02-28,206200.0
2009-01-31,206500.0
2008-12-31,206200.0
2008-11-30,205900.0
2008-10-31,206100.0
2008-09-30,205400.0
2008-08-31,204100.0
2008-07-31,203300.0
2008-06-30,202900.0
2008-05-31,202500.0
2008-04-30,202000.0
2008-03-31,202000.0
2008-02-29,202300.0
2008-01-31,202400.0
2007-12-31,202500.0
2007-11-30,202300.0
2007-10-31,201900.0
2007-09-30,202100.0
2007-08-31,202700.0
2007-07-31,203100.0
2007-06-30,203400.0
2007-05-31,203600.0
2007-04-30,203200.0
2007-03-31,202300.0
2007-02-28,201300.0
2007-01-31,200300.0
2006-12-31,199100.0
2006-11-30,198300.0
2006-10-31,197500.0
2006-09-30,196000.0
2006-08-31,194900.0
2006-07-31,194800.0
2006-06-30,194800.0
2006-05-31,194200.0
2006-04-30,194000.0
2006-03-31,194000.0
2006-02-28,193600.0
2006-01-31,193200.0
2005-12-31,192900.0
2005-11-30,192400.0
2005-10-31,192300.0
2005-09-30,192800.0
2005-08-31,193100.0
2005-07-31,193300.0
2005-06-30,194500.0
2005-05-31,195400.0
2005-04-30,195100.0
2005-03-31,194300.0
2005-02-28,193900.0
2005-01-31,193300.0
2004-12-31,192700.0
2004-11-30,192400.0
2004-10-31,192600.0
2004-09-30,193800.0
2004-08-31,194600.0
2004-07-31,193200.0
2004-06-30,189900.0
2004-05-31,187200.0
2004-04-30,185200.0
2004-03-31,184000.0
2004-02-29,182600.0
2004-01-31,181600.0
2003-12-31,181500.0
2003-11-30,181100.0
2003-10-31,180100.0
2003-09-30,179600.0
2003-08-31,180400.0
2003-07-31,181600.0
2003-06-30,182300.0
2003-05-31,182100.0
2003-04-30,181900.0
2003-03-31,181500.0
2003-02-28,180700.0
2003-01-31,180000.0
2002-12-31,179000.0
2002-11-30,177100.0
2002-10-31,175200.0
2002-09-30,173500.0
2002-08-31,171100.0
2002-07-31,169200.0
2002-06-30,168100.0
2002-05-31,167700.0
2002-04-30,167000.0
2002-03-31,166800.0
2002-02-28,167200.0
2002-01-31,167600.0
2001-12-31,167500.0
2001-11-30,167500.0
2001-10-31,167200.0
2001-09-30,165600.0
2001-08-31,162700.0
2001-07-31,160100.0
2001-06-30,159200.0
2001-05-31,158800.0
2001-04-30,158000.0
2001-03-31,157100.0
2001-02-28,156100.0
2001-01-31,154900.0
2000-12-31,154300.0
2000-11-30,154300.0
2000-10-31,153900.0
2000-09-30,153500.0
2000-08-31,154600.0
2000-07-31,155200.0
2000-06-30,154100.0
2000-05-31,153700.0
2000-04-30,154600.0
2000-03-31,154400.0
2000-02-29,153300.0
2000-01-31,151400.0
1999-12-31,149200.0
1999-11-30,148100.0
1999-10-31,147900.0
1999-09-30,147500.0
1999-08-31,146800.0
1999-07-31,146000.0
1999-06-30,145300.0
1999-05-31,144700.0
1999-04-30,144500.0
1999-03-31,144700.0
1999-02-28,144200.0
1999-01-31,143100.0
1998-12-31,142400.0
1998-11-30,141700.0
1998-10-31,140700.0
1998-09-30,139500.0
1998-08-31,138300.0
1998-07-31,138100.0
1998-06-30,138600.0
1998-05-31,138600.0
1998-04-30,138200.0
1998-03-31,138100.0
1998-02-28,137700.0
1998-01-31,137400.0
1997-12-31,137400.0
1997-11-30,137600.0
1997-10-31,137700.0
1997-09-30,137800.0
1997-08-31,138200.0
1997-07-31,138700.0
1997-06-30,138900.0
1997-05-31,139600.0
1997-04-30,140700.0
1997-03-31,141600.0
1997-02-28,141600.0
1997-01-31,141800.0
1996-12-31,142100.0
1996-11-30,142300.0
1996-10-31,142700.0
1996-09-30,143200.0
1996-08-31,142900.0
1996-07-31,141800.0
1996-06-30,140300.0
1996-05-31,137200.0
1996-04-30,132800.0
