Date,Value
2015-09-30,253700.0
2015-08-31,250600.0
2015-07-31,249100.0
2015-06-30,249000.0
2015-05-31,249000.0
2015-04-30,246300.0
2015-03-31,245300.0
2015-02-28,244000.0
2015-01-31,242900.0
2014-12-31,241300.0
2014-11-30,238800.0
2014-10-31,236700.0
2014-09-30,235500.0
2014-08-31,235200.0
2014-07-31,235100.0
2014-06-30,234200.0
2014-05-31,232700.0
2014-04-30,230800.0
2014-03-31,228100.0
2014-02-28,226300.0
2014-01-31,225200.0
2013-12-31,223800.0
2013-11-30,223500.0
2013-10-31,223600.0
2013-09-30,222100.0
2013-08-31,219000.0
2013-07-31,215800.0
2013-06-30,212800.0
2013-05-31,210800.0
2013-04-30,210200.0
2013-03-31,210800.0
2013-02-28,211100.0
2013-01-31,210800.0
2012-12-31,210100.0
2012-11-30,209000.0
2012-10-31,208000.0
2012-09-30,207200.0
2012-08-31,206500.0
2012-07-31,205500.0
2012-06-30,205100.0
2012-05-31,205100.0
2012-04-30,205500.0
2012-03-31,205500.0
2012-02-29,205600.0
2012-01-31,205600.0
2011-12-31,205900.0
2011-11-30,206400.0
2011-10-31,206700.0
2011-09-30,206500.0
2011-08-31,206500.0
2011-07-31,207300.0
2011-06-30,209100.0
2011-05-31,211100.0
2011-04-30,212100.0
2011-03-31,212200.0
2011-02-28,212900.0
2011-01-31,214000.0
2010-12-31,215300.0
2010-11-30,216700.0
2010-10-31,218400.0
2010-09-30,221200.0
2010-08-31,225600.0
2010-07-31,230100.0
2010-06-30,232700.0
2010-05-31,233700.0
2010-04-30,234700.0
2010-03-31,235700.0
2010-02-28,235800.0
2010-01-31,236400.0
2009-12-31,238500.0
2009-11-30,241000.0
2009-10-31,242700.0
2009-09-30,243700.0
2009-08-31,244100.0
2009-07-31,244700.0
2009-06-30,246100.0
2009-05-31,247500.0
2009-04-30,249000.0
2009-03-31,250900.0
2009-02-28,252800.0
2009-01-31,254300.0
2008-12-31,255800.0
2008-11-30,258200.0
2008-10-31,261300.0
2008-09-30,263800.0
2008-08-31,264900.0
2008-07-31,266100.0
2008-06-30,268100.0
2008-05-31,270100.0
2008-04-30,271000.0
2008-03-31,272900.0
2008-02-29,276200.0
2008-01-31,280500.0
2007-12-31,283600.0
2007-11-30,284600.0
2007-10-31,284500.0
2007-09-30,285400.0
2007-08-31,286100.0
2007-07-31,285500.0
2007-06-30,284000.0
2007-05-31,282300.0
2007-04-30,280900.0
2007-03-31,280400.0
2007-02-28,279400.0
2007-01-31,277600.0
2006-12-31,275400.0
2006-11-30,272900.0
2006-10-31,270600.0
2006-09-30,269800.0
2006-08-31,269900.0
2006-07-31,270100.0
2006-06-30,269400.0
2006-05-31,268400.0
2006-04-30,267400.0
2006-03-31,265500.0
2006-02-28,262500.0
2006-01-31,259200.0
2005-12-31,256200.0
2005-11-30,253800.0
2005-10-31,251300.0
2005-09-30,248300.0
2005-08-31,245700.0
2005-07-31,242000.0
2005-06-30,237100.0
2005-05-31,232300.0
2005-04-30,228300.0
2005-03-31,223800.0
2005-02-28,219500.0
2005-01-31,215600.0
2004-12-31,212300.0
2004-11-30,209200.0
2004-10-31,205500.0
2004-09-30,201000.0
2004-08-31,196400.0
2004-07-31,192500.0
2004-06-30,189500.0
2004-05-31,187500.0
2004-04-30,185600.0
2004-03-31,184100.0
2004-02-29,183400.0
2004-01-31,182800.0
2003-12-31,181500.0
2003-11-30,180400.0
2003-10-31,180200.0
2003-09-30,180600.0
2003-08-31,181000.0
2003-07-31,180400.0
2003-06-30,179300.0
2003-05-31,178200.0
2003-04-30,176700.0
2003-03-31,174600.0
2003-02-28,171900.0
2003-01-31,170000.0
2002-12-31,168600.0
2002-11-30,167000.0
2002-10-31,165700.0
2002-09-30,164400.0
2002-08-31,163300.0
2002-07-31,163900.0
2002-06-30,165400.0
2002-05-31,166700.0
2002-04-30,168600.0
2002-03-31,170300.0
2002-02-28,171000.0
2002-01-31,170200.0
2001-12-31,169100.0
2001-11-30,168200.0
2001-10-31,167500.0
2001-09-30,166400.0
2001-08-31,165000.0
2001-07-31,163000.0
2001-06-30,161500.0
2001-05-31,161000.0
2001-04-30,160600.0
2001-03-31,159900.0
2001-02-28,159300.0
2001-01-31,159300.0
2000-12-31,159400.0
2000-11-30,159700.0
2000-10-31,160800.0
2000-09-30,161700.0
2000-08-31,161700.0
2000-07-31,161900.0
2000-06-30,162300.0
2000-05-31,161600.0
2000-04-30,159600.0
2000-03-31,157600.0
2000-02-29,156000.0
2000-01-31,154700.0
1999-12-31,153800.0
1999-11-30,152600.0
1999-10-31,150300.0
1999-09-30,147600.0
1999-08-31,146100.0
1999-07-31,145100.0
1999-06-30,143700.0
1999-05-31,142000.0
1999-04-30,140800.0
1999-03-31,140400.0
1999-02-28,140300.0
1999-01-31,140100.0
1998-12-31,139600.0
1998-11-30,138800.0
1998-10-31,138200.0
1998-09-30,137500.0
1998-08-31,136200.0
1998-07-31,134800.0
1998-06-30,134400.0
1998-05-31,134300.0
1998-04-30,134100.0
1998-03-31,133800.0
1998-02-28,134000.0
1998-01-31,134000.0
1997-12-31,133400.0
1997-11-30,132300.0
1997-10-31,131400.0
1997-09-30,130800.0
1997-08-31,130200.0
1997-07-31,129000.0
1997-06-30,127300.0
1997-05-31,125300.0
1997-04-30,123500.0
1997-03-31,122100.0
1997-02-28,120600.0
1997-01-31,119200.0
1996-12-31,118300.0
1996-11-30,117400.0
1996-10-31,116300.0
1996-09-30,115400.0
1996-08-31,114900.0
1996-07-31,114400.0
1996-06-30,113800.0
1996-05-31,113100.0
1996-04-30,112600.0
