Date,Value
2015-02-28,369000.0
2015-01-31,414000.0
2014-12-31,399000.0
2014-11-30,395000.0
2014-10-31,399000.0
2014-09-30,419950.0
2014-08-31,383250.0
2014-07-31,399000.0
2014-06-30,359950.0
2014-05-31,360000.0
2014-04-30,399800.0
2014-03-31,365000.0
2014-02-28,350000.0
2014-01-31,345000.0
2013-12-31,349900.0
2013-11-30,360000.0
2013-10-31,360000.0
2013-09-30,364950.0
2013-08-31,379990.0
2013-07-31,399950.0
2013-06-30,379950.0
2013-05-31,395000.0
2013-04-30,365000.0
2013-03-31,355000.0
2013-02-28,355000.0
2013-01-31,385000.0
2012-12-31,385000.0
2012-11-30,400000.0
2012-10-31,375000.0
2012-09-30,420000.0
2012-08-31,389950.0
2012-07-31,359000.0
2012-06-30,374950.0
2012-05-31,375000.0
2012-04-30,385000.0
2012-03-31,350000.0
2012-02-29,340200.0
2012-01-31,340200.0
2011-12-31,355000.0
2011-11-30,349500.0
2011-10-31,339990.0
2011-09-30,360000.0
2011-08-31,385000.0
2011-07-31,375000.0
2011-06-30,350000.0
2011-05-31,350000.0
2011-04-30,339000.0
2011-03-31,334950.0
2011-02-28,305000.0
2011-01-31,325000.0
2010-12-31,340000.0
2010-11-30,349990.0
2010-10-31,374999.0
2010-09-30,359000.0
2010-08-31,354990.0
2010-07-31,364990.0
2010-06-30,359000.0
2010-05-31,350000.0
2010-04-30,350000.0
2010-03-31,365000.0
2010-02-28,379990.0
2010-01-31,399000.0
2009-12-31,399000.0
2009-11-30,395000.0
2009-10-31,425000.0
2009-09-30,399000.0
2009-08-31,399950.0
2009-07-31,394000.0
2009-06-30,399950.0
2009-05-31,449950.0
2009-04-30,449000.0
2009-03-31,450000.0
2009-02-28,450000.0
2009-01-31,450000.0
2008-12-31,489950.0
2008-11-30,459000.0
2008-10-31,449500.0
