Date,Value
2015-02-28,259500.0
2015-01-31,270000.0
2014-12-31,259500.0
2014-11-30,220000.0
2014-10-31,229000.0
2014-09-30,229000.0
2014-08-31,199000.0
2014-07-31,199000.0
2014-06-30,199750.0
2014-05-31,199000.0
2014-04-30,225000.0
2014-01-31,225000.0
2013-12-31,225000.0
2013-11-30,225000.0
2013-10-31,189900.0
2013-09-30,198000.0
2013-08-31,225000.0
2013-07-31,225000.0
2013-06-30,199000.0
2013-05-31,199000.0
2013-04-30,225000.0
2013-03-31,199000.0
2013-02-28,199000.0
2012-12-31,199000.0
2012-11-30,199000.0
2012-10-31,115000.0
2012-09-30,222000.0
2012-08-31,182000.0
2012-07-31,150000.0
2012-06-30,175000.0
2012-05-31,169900.0
2012-04-30,169900.0
2012-03-31,209000.0
2012-02-29,251000.0
2012-01-31,209000.0
2011-12-31,215000.0
2011-11-30,245000.0
2011-10-31,220000.0
2011-09-30,220000.0
2011-08-31,220000.0
2011-07-31,230000.0
2011-06-30,255000.0
2011-05-31,239500.0
2011-04-30,235000.0
2011-03-31,206000.0
2011-02-28,206000.0
2011-01-31,215000.0
2010-12-31,215000.0
2010-11-30,215000.0
2010-10-31,215000.0
2010-09-30,225000.0
2010-08-31,219000.0
2010-07-31,219000.0
2010-06-30,219000.0
2010-05-31,219000.0
2010-04-30,219000.0
2010-03-31,215000.0
2010-02-28,215000.0
2010-01-31,199000.0
2009-12-31,199000.0
2009-11-30,215000.0
2009-10-31,215000.0
2009-09-30,215000.0
2009-08-31,215000.0
2009-07-31,199000.0
2009-06-30,215000.0
2009-05-31,215000.0
