Date,Value
2015-09-30,372425.0
2015-08-31,381625.0
2015-07-31,352125.0
2015-06-30,354552.5
2015-05-31,367097.5
2015-04-30,356165.0
2015-03-31,335910.0
2015-02-28,316700.0
2015-01-31,316250.0
2014-12-31,305800.0
2014-11-30,313692.5
2014-10-31,332482.5
2014-09-30,337625.0
2014-08-31,326850.0
2014-07-31,305950.0
2014-06-30,317035.0
2014-05-31,328315.0
2014-04-30,332850.0
2014-03-31,312850.0
2014-02-28,302775.0
2014-01-31,320117.5
2013-12-31,317682.5
2013-11-30,318812.5
2013-10-31,309387.5
2013-09-30,301125.0
2013-08-31,303200.0
2013-07-31,306300.0
2013-06-30,312950.0
2013-05-31,322700.0
2013-04-30,321300.0
2013-03-31,296250.0
2013-02-28,238000.0
2013-01-31,238150.0
2012-12-31,231850.0
2012-11-30,246850.0
2012-10-31,255175.0
2012-09-30,259210.0
2012-08-31,255207.5
2012-07-31,248082.5
2012-06-30,244125.0
2012-05-31,234500.0
2012-04-30,203390.0
2012-03-31,214660.0
2012-02-29,250769.2308
2011-12-31,275550.0
2011-11-30,278300.0
2011-10-31,270000.0
2011-09-30,262450.0
2011-08-31,282800.0
2011-07-31,286750.0
2011-06-30,300100.0
2011-05-31,291650.0
2011-04-30,290750.0
2011-03-31,287000.0
2011-02-28,257860.0
2011-01-31,239340.0
2010-12-31,267650.0
2010-11-30,274850.0
2010-10-31,294825.0
2010-09-30,292875.0
2010-08-31,300742.5
2010-07-31,303482.5
2010-06-30,312725.0
2010-05-31,302050.0
2010-04-30,294700.0
2010-03-31,292992.5
2010-02-28,291932.5
2010-01-31,287375.0
2009-12-31,297350.0
2009-11-30,303800.0
2009-10-31,310500.0
2009-09-30,313350.0
2009-08-31,316892.5
2009-07-31,313825.0
2009-06-30,314307.5
2009-05-31,306017.5
2009-04-30,303632.5
2009-03-31,298402.9412
2009-02-28,280576.9231
2008-12-31,312320.0
2008-11-30,305480.0
2008-10-31,321750.0
2008-09-30,333160.0
2008-08-31,343340.0
2008-07-31,337525.0
2008-06-30,343125.0
2008-05-31,345000.0
2008-04-30,351242.5
2008-03-31,338482.5
2008-02-29,329975.0
2008-01-31,299992.5
2007-12-31,305982.5
2007-11-30,322075.0
2007-10-31,347900.0
2007-09-30,351000.0
2007-08-31,341500.0
2007-07-31,328225.0
2007-06-30,339542.5
2007-05-31,346957.5
2007-04-30,343975.0
2007-03-31,346450.0
2007-02-28,351650.0
2007-01-31,343667.75
2006-12-31,335624.75
2006-11-30,328142.5
2006-10-31,340925.0
2006-09-30,347975.0
2006-08-31,348600.0
2006-07-31,354517.5
2006-06-30,345157.5
2006-05-31,334775.0
2006-04-30,319175.0
2006-03-31,305325.0
2006-02-28,298757.5
2006-01-31,295767.5
2005-12-31,279775.0
2005-11-30,288242.5
2005-10-31,297475.0
2005-09-30,299357.5
2005-08-31,300075.0
2005-07-31,300750.0
2005-06-30,302500.0
2005-05-31,292600.0
2005-04-30,285950.0
2005-03-31,275950.0
2005-02-28,268100.0
2005-01-31,261642.5
2004-12-31,253357.5
2004-11-30,266600.0
2004-10-31,265242.5
2004-09-30,268182.5
2004-08-31,265525.0
2004-07-31,253930.0
2004-06-30,244920.0
2004-05-31,247925.0
2004-04-30,245675.0
2004-03-31,253500.0
2004-02-29,249450.0
2004-01-31,230075.0
2003-12-31,236100.0
2003-11-30,238367.5
2003-10-31,249782.5
2003-09-30,251300.0
2003-08-31,249787.5
2003-07-31,243262.5
2003-06-30,244950.0
2003-05-31,243117.5
2003-04-30,238232.5
2003-03-31,232905.0
2003-02-28,240662.5
2003-01-31,228075.0
2002-12-31,221450.0
2002-11-30,222707.5
2002-10-31,224717.5
2002-09-30,221821.0
2002-08-31,229331.5
2002-07-31,230658.5
2002-06-30,234031.5
2002-05-31,226895.0
2002-04-30,214800.0
2002-03-31,204850.0
2002-02-28,205500.0
2002-01-31,207100.0
2001-12-31,208400.0
2001-11-30,209625.0
2001-10-31,203367.5
2001-09-30,210482.5
2001-08-31,209425.0
2001-07-31,211740.0
2001-06-30,215852.5
2001-05-31,210967.5
2001-04-30,204232.5
2001-03-31,209967.5
2001-02-28,211700.0
2001-01-31,209590.0
2000-12-31,202450.0
2000-11-30,202492.5
2000-10-31,207882.5
2000-09-30,204175.0
2000-08-31,197525.0
2000-07-31,196875.0
2000-06-30,194700.0
2000-05-31,205600.0
2000-04-30,213200.0
2000-03-31,204492.5
2000-02-29,194982.5
2000-01-31,190425.0
1999-12-31,192400.0
1999-11-30,196000.0
1999-10-31,196142.5
1999-09-30,188732.5
1999-08-31,180475.0
1999-07-31,184475.0
1999-06-30,190775.0
1999-05-31,185192.5
1999-04-30,177732.5
1999-03-31,176825.0
1999-02-28,167500.0
1999-01-31,172450.0
1998-12-31,172187.5
1998-11-30,170205.0
1998-10-31,167257.5
1998-09-30,170725.0
1998-08-31,175725.0
1998-07-31,171817.5
1998-06-30,169507.5
1998-05-31,170350.0
1998-04-30,162925.0
1998-03-31,158325.0
1998-02-28,153375.0
1998-01-31,151700.0
1997-12-31,156575.0
1997-11-30,158167.5
1997-10-31,159582.5
1997-09-30,159175.0
1997-08-31,157800.0
1997-07-31,149942.5
1997-06-30,152582.5
1997-05-31,148100.0
1997-04-30,146017.5
1997-03-31,146107.5
1997-02-28,141600.0
1997-01-31,143150.0
1996-12-31,146150.0
1996-11-30,148950.0
1996-10-31,153500.0
1996-09-30,145000.0
1996-08-31,144167.5
1996-07-31,143357.5
1996-06-30,142167.5
1996-05-31,144007.5
1996-04-30,139625.0
