Date,Value
2015-04-30,1425.0
2015-01-31,1275.0
2014-12-31,1275.0
2014-11-30,1250.0
2014-10-31,1295.0
2014-09-30,1295.0
2014-08-31,1345.0
2014-07-31,1345.0
2014-06-30,1245.0
2014-05-31,1295.0
2014-04-30,1125.0
2013-11-30,1195.0
2013-08-31,1450.0
2013-07-31,1295.0
2013-06-30,1295.0
2013-05-31,1245.0
2012-06-30,1245.0
