Date,Value
2015-09-30,247400.0
2015-08-31,236500.0
2015-07-31,231400.0
2015-06-30,233400.0
2015-05-31,233100.0
2015-04-30,229800.0
2015-03-31,226300.0
2015-02-28,223700.0
2015-01-31,223800.0
2014-12-31,223700.0
2014-11-30,223100.0
2014-10-31,222500.0
2014-09-30,223000.0
2014-08-31,222900.0
2014-07-31,221100.0
2014-06-30,217400.0
2014-05-31,213900.0
2014-04-30,210300.0
2014-03-31,206600.0
2014-02-28,204300.0
2014-01-31,201900.0
2013-12-31,198500.0
2013-11-30,196500.0
2013-10-31,196800.0
2013-09-30,196500.0
2013-08-31,195100.0
2013-07-31,193600.0
2013-06-30,192400.0
2013-05-31,187600.0
2013-04-30,180200.0
2013-03-31,174800.0
2013-02-28,173500.0
2013-01-31,173000.0
2012-12-31,171800.0
2012-11-30,169500.0
2012-10-31,167200.0
2012-09-30,166600.0
2012-08-31,167100.0
2012-07-31,165800.0
2012-06-30,163300.0
2012-05-31,161700.0
2012-04-30,161600.0
2012-03-31,162400.0
2012-02-29,162500.0
2012-01-31,162400.0
2011-12-31,164000.0
2011-11-30,166900.0
2011-10-31,169700.0
2011-09-30,171200.0
2011-08-31,173300.0
2011-07-31,177400.0
2011-06-30,182300.0
2011-05-31,186100.0
2011-04-30,189600.0
2011-03-31,192900.0
2011-02-28,195500.0
2011-01-31,197500.0
2010-12-31,200200.0
2010-11-30,203000.0
2010-10-31,204900.0
2010-09-30,206300.0
2010-08-31,208500.0
2010-07-31,210800.0
2010-06-30,212800.0
2010-05-31,215800.0
2010-04-30,220500.0
2010-03-31,224800.0
2010-02-28,226400.0
2010-01-31,226000.0
2009-12-31,225200.0
2009-11-30,225100.0
2009-10-31,225500.0
2009-09-30,227200.0
2009-08-31,229000.0
2009-07-31,231200.0
2009-06-30,235400.0
2009-05-31,240900.0
2009-04-30,245500.0
2009-03-31,249500.0
2009-02-28,254600.0
2009-01-31,262100.0
2008-12-31,268400.0
2008-11-30,271900.0
2008-10-31,273700.0
2008-09-30,275300.0
2008-08-31,276400.0
2008-07-31,278200.0
2008-06-30,280100.0
2008-05-31,281500.0
2008-04-30,283300.0
2008-03-31,285500.0
2008-02-29,287700.0
2008-01-31,288900.0
2007-12-31,290000.0
2007-11-30,292200.0
2007-10-31,294100.0
2007-09-30,295000.0
2007-08-31,295700.0
2007-07-31,295200.0
2007-06-30,293500.0
2007-05-31,292500.0
2007-04-30,291600.0
2007-03-31,290000.0
2007-02-28,288600.0
2007-01-31,287000.0
2006-12-31,284400.0
2006-11-30,281700.0
2006-10-31,279200.0
2006-09-30,276200.0
2006-08-31,272700.0
2006-07-31,269000.0
2006-06-30,265000.0
2006-05-31,261200.0
2006-04-30,257000.0
2006-03-31,251600.0
2006-02-28,245800.0
2006-01-31,240600.0
2005-12-31,236200.0
2005-11-30,232600.0
2005-10-31,229800.0
2005-09-30,227300.0
2005-08-31,224500.0
2005-07-31,221700.0
2005-06-30,219100.0
2005-05-31,215900.0
2005-04-30,212700.0
2005-03-31,210600.0
2005-02-28,208800.0
2005-01-31,207000.0
2004-12-31,206000.0
2004-11-30,204200.0
2004-10-31,201300.0
2004-09-30,198400.0
2004-08-31,196000.0
2004-07-31,193800.0
2004-06-30,192200.0
2004-05-31,191000.0
2004-04-30,190100.0
2004-03-31,189200.0
2004-02-29,188200.0
2004-01-31,186700.0
2003-12-31,185500.0
2003-11-30,185100.0
2003-10-31,184700.0
2003-09-30,184000.0
2003-08-31,183300.0
2003-07-31,182900.0
2003-06-30,183100.0
2003-05-31,182900.0
2003-04-30,182100.0
2003-03-31,182100.0
2003-02-28,182700.0
2003-01-31,183000.0
2002-12-31,183000.0
2002-11-30,182900.0
2002-10-31,182800.0
2002-09-30,182800.0
2002-08-31,182700.0
2002-07-31,182600.0
2002-06-30,182600.0
2002-05-31,182400.0
2002-04-30,181300.0
2002-03-31,179400.0
2002-02-28,178300.0
2002-01-31,177800.0
2001-12-31,176700.0
2001-11-30,175200.0
2001-10-31,174100.0
2001-09-30,173400.0
2001-08-31,172900.0
2001-07-31,172900.0
2001-06-30,172700.0
2001-05-31,173500.0
2001-04-30,175300.0
2001-03-31,175600.0
2001-02-28,174400.0
2001-01-31,173600.0
2000-12-31,173400.0
2000-11-30,173900.0
2000-10-31,174700.0
2000-09-30,175600.0
2000-08-31,175900.0
2000-07-31,175100.0
2000-06-30,172800.0
2000-05-31,170600.0
2000-04-30,169200.0
2000-03-31,168000.0
2000-02-29,166200.0
2000-01-31,164700.0
1999-12-31,163700.0
1999-11-30,162000.0
1999-10-31,160000.0
1999-09-30,159000.0
1999-08-31,159700.0
1999-07-31,160100.0
1999-06-30,157300.0
1999-05-31,153200.0
1999-04-30,151900.0
1999-03-31,152600.0
1999-02-28,153700.0
1999-01-31,153300.0
1998-12-31,150800.0
1998-11-30,147900.0
1998-10-31,146300.0
1998-09-30,144300.0
1998-08-31,141600.0
1998-07-31,139400.0
1998-06-30,138600.0
1998-05-31,138100.0
1998-04-30,136100.0
1998-03-31,134400.0
1998-02-28,133500.0
1998-01-31,132600.0
1997-12-31,131000.0
1997-11-30,131200.0
1997-10-31,132300.0
1997-09-30,132400.0
1997-08-31,130500.0
1997-07-31,128600.0
1997-06-30,128100.0
1997-05-31,127800.0
1997-04-30,126300.0
1997-03-31,125400.0
1997-02-28,124500.0
1997-01-31,123200.0
1996-12-31,122900.0
1996-11-30,122800.0
1996-10-31,121700.0
1996-09-30,121200.0
1996-08-31,121300.0
1996-07-31,122100.0
1996-06-30,124200.0
1996-05-31,125900.0
1996-04-30,127200.0
