Date,Value
2015-09-30,177000.0
2015-08-31,175600.0
2015-07-31,177100.0
2015-06-30,178800.0
2015-05-31,174300.0
2015-04-30,172700.0
2015-03-31,172600.0
2015-02-28,172600.0
2015-01-31,172600.0
2014-12-31,172300.0
2014-11-30,171900.0
2014-10-31,171400.0
2014-09-30,170900.0
2014-08-31,170600.0
2014-07-31,170400.0
2014-06-30,169800.0
2014-05-31,169000.0
2014-04-30,167800.0
2014-03-31,166100.0
2014-02-28,163800.0
2014-01-31,162000.0
2013-12-31,160700.0
2013-11-30,159900.0
2013-10-31,158800.0
2013-09-30,158100.0
2013-08-31,158000.0
2013-07-31,157800.0
2013-06-30,156200.0
2013-05-31,154200.0
2013-04-30,153000.0
2013-03-31,152700.0
2013-02-28,152800.0
2013-01-31,153100.0
2012-12-31,153600.0
2012-11-30,154800.0
2012-10-31,156700.0
2012-09-30,158900.0
2012-08-31,160300.0
2012-07-31,161900.0
2012-06-30,164400.0
2012-05-31,166900.0
2012-04-30,168100.0
2012-03-31,168600.0
2012-02-29,169400.0
2012-01-31,170100.0
2011-12-31,170600.0
2011-11-30,170200.0
2011-10-31,169200.0
2011-09-30,168200.0
2011-08-31,167400.0
2011-07-31,165800.0
2011-06-30,164800.0
2011-05-31,165400.0
2011-04-30,166700.0
2011-03-31,167300.0
2011-02-28,167800.0
2011-01-31,168300.0
2010-12-31,168500.0
2010-11-30,168700.0
2010-10-31,169000.0
2010-09-30,169700.0
2010-08-31,170600.0
2010-07-31,171400.0
2010-06-30,172300.0
2010-05-31,172800.0
2010-04-30,173200.0
2010-03-31,174300.0
2010-02-28,175800.0
2010-01-31,176600.0
2009-12-31,176600.0
2009-11-30,175800.0
2009-10-31,175400.0
2009-09-30,175300.0
2009-08-31,175600.0
2009-07-31,175900.0
2009-06-30,176000.0
2009-05-31,175900.0
2009-04-30,176200.0
2009-03-31,177200.0
2009-02-28,178100.0
2009-01-31,179000.0
2008-12-31,180300.0
2008-11-30,181900.0
2008-10-31,182800.0
2008-09-30,183400.0
2008-08-31,183900.0
2008-07-31,184400.0
2008-06-30,184900.0
2008-05-31,185700.0
2008-04-30,186200.0
2008-03-31,186600.0
2008-02-29,187100.0
2008-01-31,187700.0
2007-12-31,188000.0
2007-11-30,188700.0
2007-10-31,189700.0
2007-09-30,189800.0
2007-08-31,188800.0
2007-07-31,188500.0
2007-06-30,189000.0
2007-05-31,188900.0
2007-04-30,188100.0
2007-03-31,186500.0
2007-02-28,184600.0
2007-01-31,183000.0
2006-12-31,181600.0
2006-11-30,180000.0
2006-10-31,179100.0
2006-09-30,178500.0
2006-08-31,178200.0
2006-07-31,177900.0
2006-06-30,177000.0
2006-05-31,174900.0
2006-04-30,173000.0
2006-03-31,171500.0
2006-02-28,170200.0
2006-01-31,169100.0
2005-12-31,168200.0
2005-11-30,166900.0
2005-10-31,164800.0
2005-09-30,162400.0
2005-08-31,159800.0
2005-07-31,157300.0
2005-06-30,155200.0
2005-05-31,153500.0
2005-04-30,152200.0
2005-03-31,150600.0
2005-02-28,149100.0
2005-01-31,148500.0
2004-12-31,148300.0
2004-11-30,147200.0
2004-10-31,146400.0
2004-09-30,146800.0
2004-08-31,147100.0
2004-07-31,146500.0
2004-06-30,145600.0
2004-05-31,144700.0
2004-04-30,144000.0
2004-03-31,143300.0
2004-02-29,142300.0
2004-01-31,141300.0
2003-12-31,140700.0
2003-11-30,140100.0
2003-10-31,139500.0
2003-09-30,138200.0
2003-08-31,137300.0
2003-07-31,137100.0
2003-06-30,137200.0
2003-05-31,136300.0
2003-04-30,135700.0
2003-03-31,136300.0
2003-02-28,136900.0
2003-01-31,136200.0
2002-12-31,135100.0
2002-11-30,134800.0
2002-10-31,134800.0
2002-09-30,135200.0
2002-08-31,135200.0
2002-07-31,134400.0
2002-06-30,133500.0
2002-05-31,134600.0
2002-04-30,136200.0
2002-03-31,136300.0
2002-02-28,135700.0
2002-01-31,135600.0
2001-12-31,135900.0
2001-11-30,136600.0
2001-10-31,136200.0
2001-09-30,134700.0
2001-08-31,133700.0
2001-07-31,133000.0
2001-06-30,131900.0
2001-05-31,130900.0
2001-04-30,129400.0
2001-03-31,127900.0
2001-02-28,126500.0
2001-01-31,125300.0
2000-12-31,123600.0
2000-11-30,122500.0
2000-10-31,122000.0
2000-09-30,121700.0
2000-08-31,121300.0
2000-07-31,121300.0
2000-06-30,121600.0
2000-05-31,121900.0
2000-04-30,122200.0
2000-03-31,122700.0
2000-02-29,123000.0
2000-01-31,122600.0
1999-12-31,122000.0
1999-11-30,121800.0
1999-10-31,122300.0
1999-09-30,122900.0
1999-08-31,123400.0
1999-07-31,123700.0
1999-06-30,124100.0
1999-05-31,124100.0
1999-04-30,123800.0
1999-03-31,123500.0
1999-02-28,123200.0
1999-01-31,123000.0
1998-12-31,122600.0
1998-11-30,121200.0
1998-10-31,119300.0
1998-09-30,117900.0
1998-08-31,116800.0
1998-07-31,116500.0
1998-06-30,116400.0
1998-05-31,116400.0
1998-04-30,116000.0
1998-03-31,115600.0
1998-02-28,115300.0
1998-01-31,115300.0
1997-12-31,115700.0
1997-11-30,115600.0
1997-10-31,115100.0
1997-09-30,114900.0
1997-08-31,115400.0
1997-07-31,115600.0
1997-06-30,115200.0
1997-05-31,114100.0
1997-04-30,113600.0
1997-03-31,113700.0
1997-02-28,113900.0
1997-01-31,114000.0
1996-12-31,113700.0
1996-11-30,113700.0
1996-10-31,114800.0
1996-09-30,115900.0
1996-08-31,116200.0
1996-07-31,116200.0
1996-06-30,116600.0
1996-05-31,116500.0
1996-04-30,116300.0
