Date,Value
2015-09-30,0.82
2015-08-31,0.8
2015-07-31,0.796
2015-06-30,0.794
2015-05-31,0.798
2015-04-30,0.808
2015-03-31,0.806
2015-02-28,0.8
2015-01-31,0.8
2014-12-31,0.808
2014-11-30,0.824
2014-10-31,0.838
2014-09-30,0.852
2014-08-31,0.856
2014-07-31,0.858
2014-06-30,0.856
2014-05-31,0.854
2014-04-30,0.854
2014-03-31,0.852
2014-02-28,0.848
2014-01-31,0.846
2013-12-31,0.842
2013-11-30,0.832
2013-10-31,0.816
2013-09-30,0.804
2013-08-31,0.802
2013-07-31,0.81
2013-06-30,0.818
2013-05-31,0.824
2013-04-30,0.826
2013-03-31,0.818
2013-02-28,0.806
2013-01-31,0.796
2012-12-31,0.788
2012-11-30,0.782
2012-10-31,0.772
2012-09-30,0.758
2012-08-31,0.742
2012-07-31,0.734
2012-06-30,0.73
2012-05-31,0.732
2012-04-30,0.742
2012-03-31,0.75
2012-02-29,0.752
2012-01-31,0.746
2011-12-31,0.738
2011-11-30,0.738
2011-10-31,0.76
2011-09-30,0.768
2011-08-31,0.778
2011-07-31,0.774
2011-06-30,0.77
2011-05-31,0.756
2011-04-30,0.734
2011-03-31,0.738
2011-02-28,0.76
2011-01-31,0.778
2010-12-31,0.786
2010-11-30,0.786
