Date,Value
2015-09-30,172200.0
2015-08-31,170100.0
2015-07-31,168300.0
2015-06-30,167000.0
2015-05-31,165500.0
2015-04-30,163700.0
2015-03-31,163500.0
2015-02-28,162900.0
2015-01-31,162000.0
2014-12-31,161100.0
2014-11-30,159900.0
2014-10-31,158100.0
2014-09-30,157000.0
2014-08-31,156600.0
2014-07-31,156300.0
2014-06-30,155700.0
2014-05-31,155300.0
2014-04-30,154700.0
2014-03-31,153800.0
2014-02-28,153200.0
2014-01-31,153200.0
2013-12-31,153100.0
2013-11-30,153500.0
2013-10-31,154200.0
2013-09-30,153600.0
2013-08-31,151900.0
2013-07-31,149900.0
2013-06-30,146900.0
2013-05-31,143700.0
2013-04-30,141100.0
2013-03-31,138600.0
2013-02-28,136600.0
2013-01-31,135500.0
2012-12-31,134400.0
2012-11-30,133200.0
2012-10-31,132400.0
2012-09-30,131900.0
2012-08-31,130900.0
2012-07-31,129400.0
2012-06-30,128300.0
2012-05-31,127900.0
2012-04-30,128300.0
2012-03-31,128800.0
2012-02-29,129100.0
2012-01-31,129500.0
2011-12-31,130500.0
2011-11-30,131500.0
2011-10-31,132200.0
2011-09-30,132800.0
2011-08-31,134000.0
2011-07-31,135900.0
2011-06-30,138400.0
2011-05-31,141100.0
2011-04-30,143200.0
2011-03-31,144900.0
2011-02-28,147100.0
2011-01-31,148600.0
2010-12-31,149300.0
2010-11-30,149900.0
2010-10-31,151100.0
2010-09-30,153100.0
2010-08-31,155800.0
2010-07-31,158500.0
2010-06-30,161100.0
2010-05-31,163100.0
2010-04-30,164900.0
2010-03-31,166200.0
2010-02-28,167100.0
2010-01-31,168100.0
2009-12-31,169800.0
2009-11-30,171700.0
2009-10-31,172600.0
2009-09-30,172900.0
2009-08-31,173500.0
2009-07-31,174900.0
2009-06-30,176600.0
2009-05-31,178000.0
2009-04-30,179100.0
2009-03-31,180800.0
2009-02-28,182600.0
2009-01-31,183500.0
2008-12-31,184400.0
2008-11-30,186400.0
2008-10-31,189400.0
2008-09-30,191800.0
2008-08-31,192800.0
2008-07-31,193200.0
2008-06-30,193800.0
2008-05-31,194800.0
2008-04-30,196200.0
2008-03-31,198300.0
2008-02-29,200900.0
2008-01-31,204000.0
2007-12-31,206700.0
2007-11-30,208600.0
2007-10-31,210400.0
2007-09-30,212400.0
2007-08-31,213900.0
2007-07-31,214600.0
2007-06-30,214600.0
2007-05-31,214500.0
2007-04-30,215000.0
2007-03-31,214900.0
2007-02-28,214000.0
2007-01-31,213000.0
2006-12-31,211800.0
2006-11-30,209600.0
2006-10-31,207000.0
2006-09-30,204500.0
2006-08-31,202600.0
2006-07-31,201300.0
2006-06-30,200600.0
2006-05-31,200000.0
2006-04-30,199100.0
2006-03-31,197700.0
2006-02-28,195800.0
2006-01-31,193500.0
2005-12-31,191300.0
2005-11-30,189200.0
2005-10-31,186600.0
2005-09-30,184000.0
2005-08-31,182000.0
2005-07-31,180100.0
2005-06-30,177600.0
2005-05-31,174800.0
2005-04-30,172000.0
2005-03-31,169100.0
2005-02-28,166300.0
2005-01-31,163900.0
2004-12-31,161600.0
2004-11-30,159200.0
2004-10-31,156700.0
2004-09-30,154900.0
2004-08-31,153400.0
2004-07-31,151400.0
2004-06-30,149300.0
2004-05-31,147200.0
2004-04-30,144900.0
2004-03-31,142500.0
2004-02-29,140600.0
2004-01-31,139400.0
2003-12-31,138800.0
2003-11-30,138400.0
2003-10-31,138600.0
2003-09-30,138900.0
2003-08-31,138600.0
2003-07-31,138100.0
2003-06-30,137900.0
2003-05-31,137500.0
2003-04-30,136400.0
2003-03-31,135100.0
2003-02-28,133800.0
2003-01-31,132300.0
2002-12-31,130900.0
2002-11-30,130300.0
2002-10-31,129600.0
2002-09-30,128500.0
2002-08-31,127700.0
2002-07-31,127900.0
2002-06-30,128300.0
2002-05-31,128700.0
2002-04-30,129500.0
2002-03-31,130600.0
2002-02-28,131800.0
2002-01-31,132100.0
2001-12-31,131500.0
2001-11-30,130900.0
2001-10-31,130600.0
2001-09-30,130000.0
2001-08-31,128900.0
2001-07-31,127500.0
2001-06-30,125800.0
2001-05-31,124600.0
2001-04-30,124100.0
2001-03-31,123900.0
2001-02-28,123800.0
2001-01-31,123900.0
2000-12-31,124200.0
2000-11-30,124500.0
2000-10-31,125200.0
2000-09-30,126100.0
2000-08-31,126300.0
2000-07-31,125800.0
2000-06-30,125000.0
2000-05-31,123600.0
2000-04-30,121800.0
2000-03-31,120000.0
2000-02-29,118400.0
2000-01-31,117300.0
1999-12-31,116100.0
1999-11-30,114600.0
1999-10-31,112800.0
1999-09-30,111400.0
1999-08-31,110500.0
1999-07-31,109300.0
1999-06-30,108100.0
1999-05-31,107700.0
1999-04-30,107500.0
1999-03-31,107300.0
1999-02-28,106700.0
1999-01-31,106100.0
1998-12-31,105300.0
1998-11-30,104700.0
1998-10-31,103600.0
1998-09-30,101900.0
1998-08-31,100000.0
1998-07-31,98700.0
1998-06-30,97800.0
1998-05-31,97100.0
1998-04-30,96500.0
1998-03-31,96200.0
1998-02-28,95700.0
1998-01-31,94800.0
1997-12-31,93700.0
1997-11-30,92600.0
1997-10-31,91600.0
1997-09-30,91100.0
1997-08-31,91000.0
1997-07-31,90800.0
1997-06-30,90500.0
1997-05-31,89900.0
1997-04-30,89400.0
1997-03-31,88700.0
1997-02-28,87700.0
1997-01-31,86800.0
1996-12-31,86400.0
1996-11-30,85900.0
1996-10-31,85200.0
1996-09-30,84300.0
1996-08-31,83700.0
1996-07-31,83500.0
1996-06-30,83300.0
1996-05-31,83000.0
1996-04-30,82600.0
