Date,Value
2015-02-28,289000.0
2015-01-31,299000.0
2014-12-31,289000.0
2014-11-30,300000.0
2014-10-31,324950.0
2014-09-30,325000.0
2014-08-31,319500.0
2014-07-31,315000.0
2014-06-30,304999.0
2014-05-31,289995.0
2014-04-30,285000.0
2014-03-31,285000.0
2014-02-28,275000.0
2014-01-31,274500.0
2013-12-31,289000.0
2013-11-30,289950.0
2013-10-31,315000.0
2013-09-30,315000.0
2013-08-31,325000.0
2013-07-31,330000.0
2013-06-30,329950.0
2013-05-31,300000.0
2013-04-30,300000.0
2013-03-31,289900.0
2013-02-28,295000.0
2013-01-31,269000.0
2012-12-31,267000.0
2012-11-30,269000.0
2012-10-31,265000.0
2012-09-30,269000.0
2012-08-31,269000.0
2012-07-31,268000.0
2012-06-30,279900.0
2012-05-31,279000.0
2012-04-30,250000.0
2012-03-31,249950.0
2012-02-29,250000.0
2012-01-31,254950.0
2011-12-31,243300.0
2011-11-30,249950.0
2011-10-31,259950.0
2011-09-30,268000.0
2011-08-31,269000.0
2011-07-31,269950.0
2011-06-30,249950.0
2011-05-31,238888.0
2011-04-30,224950.0
2011-03-31,259900.0
2011-02-28,269900.0
2011-01-31,299000.0
2010-12-31,299000.0
2010-11-30,328000.0
2010-10-31,328000.0
2010-09-30,308000.0
2010-08-31,300000.0
2010-07-31,299000.0
2010-06-30,299950.0
2010-05-31,299950.0
2010-04-30,299000.0
2010-03-31,298500.0
2010-02-28,323000.0
2010-01-31,315000.0
2009-12-31,329900.0
2009-11-30,328900.0
2009-10-31,319950.0
2009-09-30,349500.0
2009-08-31,369900.0
2009-07-31,364000.0
2009-06-30,360000.0
2009-05-31,369900.0
2009-04-30,349500.0
2009-03-31,339950.0
2009-02-28,339950.0
2009-01-31,379900.0
2008-12-31,329950.0
2008-11-30,319950.0
2008-10-31,349000.0
