Date,Value
2015-09-30,409400.0
2015-08-31,417850.0
2015-07-31,425500.0
2015-06-30,416242.5
2015-05-31,417382.5
2015-04-30,411575.0
2015-03-31,425882.3529
2015-02-28,435384.6154
2014-12-31,387100.0
2014-11-30,357025.0
2014-10-31,358000.0
2014-09-30,367750.0
2014-08-31,361450.0
2014-07-31,371550.0
2014-06-30,362500.0
2014-05-31,360000.0
2014-04-30,366500.0
2014-03-31,349550.0
2014-02-28,326950.0
2014-01-31,348800.0
2013-12-31,316475.0
2013-11-30,332500.0
2013-10-31,348725.0
2013-09-30,342625.0
2013-08-31,327375.0
2013-07-31,337500.0
2013-06-30,333250.0
2013-05-31,319500.0
2013-04-30,319500.0
2013-03-31,320900.0
2013-02-28,333987.5
2013-01-31,324737.5
2012-12-31,306125.0
2012-11-30,301200.0
2012-10-31,310575.0
2012-09-30,315475.0
2012-08-31,311374.8
2012-07-31,304944.0
2012-06-30,308681.7
2012-05-31,313313.5
2012-04-30,270662.5
2012-03-31,252744.1176
2012-02-29,259230.7692
2011-12-31,260650.0
2011-11-30,284583.4
2011-10-31,282116.75
2011-09-30,290942.5
2011-08-31,276295.55
2011-07-31,268486.25
2011-06-30,279567.5
2011-05-31,292250.0
2011-04-30,284705.8824
2011-03-31,271153.8462
2011-01-31,285911.7647
2010-12-31,301500.0
2010-08-31,330250.0
2010-07-31,322812.5
2010-06-30,332562.5
2010-05-31,323625.0
2010-04-30,334000.0
2010-03-31,334117.6471
2010-02-28,340000.0
2009-12-31,327900.0
2009-11-30,319300.0
2009-10-31,327400.0
2009-09-30,330616.8
2009-08-31,331826.7
2009-07-31,338273.5
2009-06-30,329737.5
2009-05-31,340391.1765
2009-04-30,310000.0
2009-02-28,325230.7692
2008-12-31,372307.6923
2008-10-31,369750.0
2008-09-30,368750.0
2008-08-31,356450.0
2008-07-31,369675.0
2008-06-30,396875.0
2008-05-31,370000.0
2008-04-30,366750.0
2008-03-31,375250.0
2008-02-29,368250.0
2008-01-31,364000.0
2007-12-31,366250.0
2007-11-30,358825.0
2007-10-31,345850.0
2007-09-30,357075.0
2007-08-31,394750.0
2007-07-31,407000.0
2007-06-30,399400.0
2007-05-31,381550.0
2007-04-30,367948.5
2007-03-31,346021.5
2007-02-28,340062.5
2007-01-31,323322.5
2006-12-31,350285.0
2006-11-30,375392.5
2006-10-31,378382.5
2006-09-30,361125.0
2006-08-31,367842.5
2006-07-31,363882.5
2006-06-30,357350.0
2006-05-31,359773.5
2006-04-30,361146.5
2006-03-31,356320.0
2006-02-28,329875.0
2006-01-31,335175.0
2005-12-31,329325.0
2005-11-30,343450.0
2005-10-31,328325.0
2005-09-30,347725.0
2005-08-31,326750.0
2005-07-31,304022.85
2005-06-30,310436.65
2005-05-31,321709.5
2005-04-30,314750.0
2005-03-31,310892.5
2005-02-28,284832.5
2005-01-31,288125.0
2004-12-31,293000.0
2004-11-30,286050.0
2004-10-31,282750.0
2004-09-30,283300.0
2004-08-31,279650.0
2004-07-31,282342.5
2004-06-30,293132.5
2004-05-31,297967.5
2004-04-30,292082.5
2004-03-31,288476.1
2004-02-29,282885.9
2004-01-31,268037.0
2003-12-31,264150.0
2003-11-30,273742.5
2003-10-31,253975.0
2003-09-30,255707.5
2003-08-31,257075.0
2003-07-31,250150.0
2003-06-30,235750.0
2003-05-31,239742.5
2003-04-30,233757.5
2003-03-31,240100.0
2003-02-28,233092.5
2003-01-31,216907.5
2002-12-31,217800.0
2002-11-30,229900.0
2002-10-31,244850.0
2002-09-30,255155.0
2002-08-31,264087.5
2002-07-31,253182.5
2002-06-30,239725.0
2002-05-31,240980.5
2002-04-30,235907.0
2002-03-31,232157.5
2002-02-28,236925.0
2002-01-31,238900.0
2001-12-31,240600.0
2001-11-30,227500.0
2001-10-31,225050.0
2001-09-30,232700.0
2001-08-31,224425.0
2001-07-31,233325.0
2001-06-30,227075.0
2001-05-31,224675.0
2001-04-30,228700.0
2001-03-31,221550.0
2001-02-28,219475.0
2001-01-31,202525.0
2000-12-31,205742.5
2000-11-30,215482.5
2000-10-31,209040.0
2000-09-30,201877.5
2000-08-31,212882.5
2000-07-31,208675.0
2000-06-30,207920.0
2000-05-31,196880.0
2000-04-30,192050.0
2000-03-31,196000.0
2000-02-29,209000.0
2000-01-31,203750.0
1999-12-31,189050.0
1999-11-30,193875.0
1999-10-31,182350.0
1999-09-30,181725.0
1999-08-31,182025.0
1999-07-31,188890.0
1999-06-30,195785.0
1999-05-31,187150.0
1999-04-30,183500.0
1999-03-31,184350.0
1999-02-28,198400.0
1999-01-31,168775.0
1998-12-31,173575.0
1998-11-30,164025.0
1998-10-31,166150.0
1998-09-30,169217.5
1998-08-31,160432.5
1998-07-31,159260.0
1998-06-30,162907.5
1998-05-31,160975.0
1998-04-30,157057.5
1998-03-31,154613.25
1998-02-28,150474.25
1998-01-31,144242.5
1997-12-31,146450.0
1997-11-30,151500.0
1997-10-31,145300.0
1997-09-30,150100.0
1997-08-31,147239.6
1997-07-31,140692.4
1997-06-30,136574.5
1997-05-31,141882.5
1997-04-30,146200.0
1997-03-31,147967.5
1997-02-28,137657.5
1997-01-31,135550.0
1996-12-31,131500.0
1996-11-30,131750.0
1996-10-31,129900.0
1996-09-30,132542.5
1996-08-31,137232.5
1996-07-31,133017.5
1996-06-30,130732.5
1996-05-31,136800.0
1996-04-30,131925.0
