Date,Value
2015-09-30,215750.0
2015-08-31,219909.5
2015-07-31,221258.0
2015-06-30,217239.0
2015-05-31,215582.5
2015-04-30,209225.0
2015-03-31,209460.0
2015-02-28,202190.0
2015-01-31,201210.0
2014-12-31,205875.0
2014-11-30,200865.0
2014-10-31,205000.0
2014-09-30,202400.0
2014-08-31,207835.0
2014-07-31,207390.0
2014-06-30,202775.0
2014-05-31,200050.0
2014-04-30,211000.0
2014-03-31,210949.25
2014-02-28,207748.1
2014-01-31,201447.15
2013-12-31,199798.0
2013-11-30,199918.0
2013-10-31,203528.5
2013-09-30,195355.0
2013-08-31,202750.0
2013-07-31,200850.0
2013-06-30,195400.0
2013-05-31,190049.25
2013-04-30,187448.25
2013-03-31,177606.2
2013-02-28,169920.3
2013-01-31,163904.0
2012-12-31,162525.0
2012-11-30,168600.0
2012-10-31,168500.0
2012-09-30,164250.0
2012-08-31,170400.0
2012-07-31,167350.0
2012-06-30,169050.0
2012-05-31,175450.0
2012-04-30,165500.0
2012-03-31,170250.0
2012-02-29,177300.0
2012-01-31,198185.0
2011-12-31,198059.0
2011-11-30,182778.55
2011-10-31,181412.45
2011-09-30,178441.75
2011-08-31,181479.25
2011-07-31,186465.75
2011-06-30,194324.05
2011-05-31,195219.45
2011-04-30,188188.5
2011-03-31,182250.0
2011-02-28,189449.25
2011-01-31,193290.75
2010-12-31,195580.0
2010-11-30,182225.0
2010-10-31,186825.0
2010-09-30,196175.0
2010-08-31,208750.0
2010-07-31,198500.0
2010-06-30,193742.5
2010-05-31,196875.0
2010-04-30,207057.5
2010-03-31,206777.5
2010-02-28,209022.5
2010-01-31,195325.0
2009-12-31,201550.0
2009-11-30,202442.5
2009-10-31,205807.5
2009-09-30,204725.0
2009-08-31,208850.0
2009-07-31,205500.0
2009-06-30,214900.0
2009-05-31,212000.0
2009-04-30,218731.25
2009-03-31,225649.5
2009-02-28,235196.75
2009-01-31,230864.0
2008-12-31,233093.5
2008-11-30,230447.5
2008-10-31,233467.55
2008-09-30,233976.85
2008-08-31,238008.1
2008-07-31,240578.0
2008-06-30,242421.75
2008-05-31,249050.75
2008-04-30,249472.5
2008-03-31,253289.25
2008-02-29,258495.85
2008-01-31,254151.9
2007-12-31,256592.0
2007-11-30,257935.0
2007-10-31,266968.0
2007-09-30,269582.0
2007-08-31,263010.0
2007-07-31,260375.0
2007-06-30,260100.0
2007-05-31,263622.5
2007-04-30,266243.0
2007-03-31,262762.0
2007-02-28,262167.5
2007-01-31,260575.0
2006-12-31,261250.0
2006-11-30,258075.0
2006-10-31,258567.5
2006-09-30,261857.5
2006-08-31,258342.5
2006-07-31,256982.5
2006-06-30,255600.0
2006-05-31,253375.0
2006-04-30,246550.0
2006-03-31,245386.5
2006-02-28,244218.5
2006-01-31,239030.0
2005-12-31,233325.0
2005-11-30,228300.0
2005-10-31,228025.0
2005-09-30,227067.5
2005-08-31,225731.0
2005-07-31,219521.5
2005-06-30,213855.0
2005-05-31,210590.0
2005-04-30,205925.0
2005-03-31,199017.5
2005-02-28,200332.5
2005-01-31,199200.0
2004-12-31,192425.0
2004-11-30,193400.0
2004-10-31,192131.9
2004-09-30,186833.6
2004-08-31,185754.0
2004-07-31,185521.5
2004-06-30,184442.5
2004-05-31,182352.5
2004-04-30,181142.5
2004-03-31,178982.5
2004-02-29,177025.0
2004-01-31,173501.65
2003-12-31,172153.85
2003-11-30,171290.5
2003-10-31,168215.0
2003-09-30,164325.0
2003-08-31,165117.5
2003-07-31,168807.5
2003-06-30,163792.5
2003-05-31,162232.5
2003-04-30,161052.4
2003-03-31,165280.6
2003-02-28,161008.0
2003-01-31,154412.5
2002-12-31,152462.5
2002-11-30,158570.0
2002-10-31,156205.0
2002-09-30,148525.0
2002-08-31,152142.5
2002-07-31,154650.0
2002-06-30,155250.0
2002-05-31,152357.5
2002-04-30,153717.5
2002-03-31,158325.0
2002-02-28,156992.5
2002-01-31,150382.5
2001-12-31,143425.0
2001-11-30,151037.5
2001-10-31,151895.0
2001-09-30,152350.0
2001-08-31,148050.0
2001-07-31,150242.5
2001-06-30,149012.5
2001-05-31,148345.0
2001-04-30,144850.0
2001-03-31,147650.0
2001-02-28,148992.5
2001-01-31,146575.0
2000-12-31,143250.0
2000-11-30,145657.5
2000-10-31,145840.0
2000-09-30,143935.0
2000-08-31,142800.0
2000-07-31,143242.5
2000-06-30,146431.0
2000-05-31,146696.5
2000-04-30,143212.5
2000-03-31,142507.5
2000-02-29,140426.9
2000-01-31,140046.1
1999-12-31,139671.5
1999-11-30,137481.5
1999-10-31,134958.5
1999-09-30,135081.5
1999-08-31,135235.0
1999-07-31,134907.5
1999-06-30,134042.5
1999-05-31,134267.5
1999-04-30,134557.5
1999-03-31,130842.5
1999-02-28,126132.5
1999-01-31,126967.5
1998-12-31,130559.85
1998-11-30,131547.15
1998-10-31,132892.0
1998-09-30,132157.5
1998-08-31,132935.0
1998-07-31,131115.0
1998-06-30,127992.5
1998-05-31,123332.5
1998-04-30,127071.85
1998-03-31,127897.55
1998-02-28,129167.6
1998-01-31,128425.5
1997-12-31,126532.5
1997-11-30,125299.7
1997-10-31,121058.6
1997-09-30,124445.7
1997-08-31,124973.5
1997-07-31,123982.5
1997-06-30,122225.0
1997-05-31,120800.0
1997-04-30,118400.0
1997-03-31,118300.0
1997-02-28,118125.0
1997-01-31,120910.0
1996-12-31,122115.0
1996-11-30,119298.5
1996-10-31,120489.0
1996-09-30,125870.0
1996-08-31,126757.5
1996-07-31,127500.0
1996-06-30,125273.5
1996-05-31,125986.0
1996-04-30,123520.5
