Date,Value
2015-02-28,350000.0
2015-01-31,249900.0
2014-12-31,249900.0
2014-11-30,249999.0
2014-10-31,319000.0
2014-09-30,330000.0
2014-08-31,345000.0
2014-07-31,345000.0
2014-06-30,300000.0
2014-05-31,330000.0
2014-04-30,300000.0
2014-03-31,279950.0
2014-02-28,338000.0
2014-01-31,369000.0
2013-12-31,348600.0
2013-11-30,247500.0
2013-10-31,348600.0
2013-09-30,349900.0
2013-08-31,335000.0
2013-07-31,379900.0
2013-06-30,365000.0
2013-05-31,365000.0
2013-04-30,369000.0
2013-03-31,369000.0
2013-02-28,282000.0
2013-01-31,282000.0
2012-12-31,289000.0
2012-11-30,289000.0
2012-10-31,285000.0
2012-09-30,325000.0
2012-08-31,339000.0
2012-07-31,324900.0
2012-06-30,319000.0
2012-05-31,319000.0
2012-04-30,319000.0
2012-03-31,324500.0
2012-02-29,325000.0
2012-01-31,330000.0
2011-12-31,332000.0
2011-11-30,339000.0
2011-10-31,349000.0
2011-09-30,345000.0
2011-08-31,310000.0
2011-07-31,345500.0
2011-06-30,350000.0
2011-05-31,348000.0
2011-04-30,317900.0
2011-03-31,337500.0
2011-02-28,390000.0
2011-01-31,350000.0
2010-12-31,390000.0
2010-11-30,359000.0
2010-10-31,348000.0
2010-09-30,369000.0
2010-08-31,390000.0
2010-07-31,398500.0
2010-06-30,350000.0
2010-05-31,375000.0
2010-04-30,398500.0
2010-03-31,355000.0
2010-02-28,398500.0
2010-01-31,375000.0
2009-12-31,398500.0
2009-11-30,399900.0
2009-10-31,399900.0
2009-09-30,419000.0
2009-08-31,425000.0
2009-07-31,529999.0
2009-06-30,475000.0
2009-05-31,449500.0
2009-04-30,449900.0
2009-03-31,469500.0
2009-02-28,469500.0
2009-01-31,499000.0
2008-12-31,469500.0
2008-11-30,469000.0
2008-10-31,385000.0
