Date,Value
2015-09-30,0.998
2015-08-31,1.038
2015-07-31,1.01
2015-06-30,0.998
2015-05-31,0.99
2015-04-30,0.986
2015-03-31,0.976
2015-02-28,0.964
2015-01-31,0.958
2014-12-31,0.962
2014-11-30,0.964
2014-10-31,0.96
2014-09-30,0.954
2014-08-31,0.948
2014-07-31,0.936
2014-06-30,0.918
2014-05-31,0.908
2014-04-30,0.892
2014-03-31,0.894
2014-02-28,0.888
2014-01-31,0.886
2013-12-31,0.88
2013-11-30,0.874
2013-10-31,0.872
2013-09-30,0.87
2013-08-31,0.87
2013-07-31,0.868
2013-06-30,0.864
2013-05-31,0.854
2013-04-30,0.842
2013-03-31,0.84
2013-02-28,0.84
2013-01-31,0.828
2012-12-31,0.816
2012-11-30,0.804
2012-10-31,0.796
2012-09-30,0.788
2012-08-31,0.782
2012-07-31,0.782
2012-06-30,0.786
2012-05-31,0.792
2012-04-30,0.792
