Date,Value
2015-09-30,344450.0
2015-08-31,353030.0
2015-07-31,382500.0
2015-06-30,397090.0
2015-05-31,367110.0
2015-04-30,386999.65
2015-03-31,379499.5
2015-02-28,355050.0
2015-01-31,338700.0
2014-12-31,354100.0
2014-11-30,332650.0
2014-10-31,334800.0
2014-09-30,372200.0
2014-08-31,374498.5
2014-07-31,377546.5
2014-06-30,383145.0
2014-05-31,399650.0
2014-04-30,389150.0
2014-03-31,335242.5
2014-01-31,355604.8
2013-12-31,420739.0
2013-11-30,391800.0
2013-10-31,332090.0
2013-09-30,369160.0
2013-08-31,392590.3
2013-07-31,365010.7
2013-06-30,386101.0
2013-05-31,375700.0
2013-04-30,357450.0
2013-03-31,315300.0
2013-02-28,259025.0
2013-01-31,288725.0
2012-12-31,268750.0
2012-11-30,291750.0
2012-10-31,289250.0
2012-09-30,307492.5
2012-08-31,293532.5
2012-07-31,296550.0
2012-06-30,240875.0
2012-05-31,268250.0
2012-04-30,271767.5
2012-03-31,239857.5
2012-02-29,240000.0
2012-01-31,283750.0
2011-12-31,246500.0
2011-11-30,247500.0
2011-10-31,278550.0
2011-09-30,303119.0
2011-08-31,307261.0
2011-07-31,326480.0
2011-06-30,281050.0
2011-05-31,258335.0
2011-04-30,277865.0
2011-03-31,277870.0
2011-02-28,296980.0
2011-01-31,302962.5
2010-12-31,325812.5
2010-11-30,335375.0
2010-10-31,327050.0
2010-09-30,356442.5
2010-08-31,321307.5
2010-07-31,342275.0
2010-06-30,326875.0
2010-05-31,310092.5
2010-04-30,287082.5
2010-03-31,287382.3529
2010-02-28,299807.6923
2009-12-31,340905.0
2009-11-30,302945.0
2009-10-31,280950.0
2009-09-30,293400.0
2009-08-31,302742.5
2009-07-31,337232.5
2009-06-30,328975.0
2009-05-31,308250.0
2009-04-30,302000.0
2009-03-31,292310.0
2009-02-28,311526.85
2009-01-31,317602.65
2008-12-31,323024.5
2008-11-30,335940.0
2008-10-31,354975.0
2008-09-30,356850.0
2008-08-31,382200.0
2008-07-31,360250.0
2008-06-30,352800.0
2008-05-31,362150.0
2008-04-30,366625.0
2008-03-31,346875.0
2008-02-29,351500.0
2007-12-31,427232.5
2007-11-30,416475.0
2007-10-31,339150.0
2007-09-30,363225.0
2007-08-31,366223.0
2007-07-31,399812.0
2007-06-30,407910.0
2007-05-31,394275.0
2007-04-30,384400.0
2007-03-31,378125.0
2007-02-28,374750.0
2007-01-31,365700.0
2006-12-31,340250.0
2006-11-30,362100.0
2006-10-31,349100.0
2006-09-30,344542.5
2006-08-31,363270.0
2006-07-31,374812.5
2006-06-30,350375.0
2006-05-31,351000.0
2006-04-30,334000.0
2006-03-31,326242.5
2006-02-28,330975.0
2006-01-31,366007.5
2005-12-31,357167.5
2005-11-30,342544.5
2005-10-31,316878.0
2005-09-30,312607.5
2005-08-31,319975.0
2005-07-31,312600.0
2005-06-30,302907.5
2005-05-31,298860.7
2005-04-30,290508.3
2005-03-31,292594.0
2005-02-28,286300.5
2005-01-31,286783.0
2004-12-31,263731.5
2004-11-30,265295.0
2004-10-31,261350.0
2004-09-30,265842.5
2004-08-31,260482.5
2004-07-31,275125.0
2004-06-30,273535.3
2004-05-31,269578.95
2004-04-30,265015.25
2004-03-31,272512.5
2004-02-29,280665.0
2004-01-31,280662.5
2003-12-31,263712.5
2003-11-30,257070.0
2003-10-31,242047.5
2003-09-30,237375.0
2003-08-31,250442.5
2003-07-31,267682.5
2003-06-30,270875.5
2003-05-31,262392.0
2003-04-30,260835.0
2003-03-31,263472.5
2003-02-28,248327.5
2003-01-31,233275.0
2002-12-31,217077.5
2002-11-30,228147.5
2002-10-31,240592.5
2002-09-30,238332.5
2002-08-31,231400.0
2002-07-31,234500.0
2002-06-30,245650.0
2002-05-31,246585.0
2002-04-30,251707.5
2002-03-31,244282.5
2002-02-28,247225.0
2002-01-31,228575.0
2001-12-31,214325.0
2001-11-30,207000.0
2001-10-31,213025.0
2001-09-30,222732.5
2001-08-31,227517.5
2001-07-31,232225.0
2001-06-30,232350.0
2001-05-31,225698.5
2001-04-30,222746.5
2001-03-31,232180.0
2001-02-28,252240.0
2001-01-31,238518.0
2000-12-31,215812.0
2000-11-30,191265.0
2000-10-31,204175.0
2000-09-30,208925.0
2000-08-31,225950.0
2000-07-31,202385.0
2000-06-30,198113.5
2000-05-31,189221.5
2000-04-30,193168.5
2000-03-31,198246.5
2000-02-29,189743.5
2000-01-31,188246.5
1999-12-31,172495.0
1999-11-30,172000.0
1999-10-31,174000.0
1999-09-30,179000.0
1999-08-31,196050.0
1999-07-31,174600.0
1999-06-30,172600.0
1999-05-31,168450.0
1999-04-30,179850.0
1999-03-31,178550.0
1999-02-28,176625.0
1999-01-31,181767.5
1998-12-31,183832.5
1998-11-30,180325.0
1998-10-31,175650.0
1998-09-30,162892.5
1998-08-31,154982.5
1998-07-31,161467.5
1998-06-30,174330.0
1998-05-31,177551.0
1998-04-30,171971.5
1998-03-31,164795.0
1998-02-28,155154.3
1998-01-31,154726.7
1997-12-31,149431.0
1997-11-30,148335.0
1997-10-31,145115.0
1997-09-30,154296.55
1997-08-31,141516.95
1997-07-31,143248.5
1997-06-30,145261.85
1997-05-31,141092.65
1997-04-30,146382.0
1997-03-31,150732.5
1997-02-28,147967.5
1997-01-31,153657.5
1996-12-31,143775.0
1996-11-30,155575.0
1996-10-31,157685.0
1996-09-30,171440.0
1996-08-31,152525.0
1996-07-31,146575.0
1996-06-30,147875.0
1996-05-31,154242.5
1996-04-30,154457.5
