Date,Value
2015-09-30,109800.0
2015-08-31,109700.0
2015-07-31,102900.0
2015-06-30,109400.0
2015-05-31,111800.0
2015-04-30,114100.0
2015-03-31,112500.0
2015-02-28,110200.0
2015-01-31,108100.0
2014-12-31,106000.0
2014-11-30,104100.0
2014-10-31,103000.0
2014-09-30,102600.0
2014-08-31,101700.0
2014-07-31,100500.0
2014-06-30,100100.0
2014-05-31,100000.0
2014-04-30,99500.0
2014-03-31,98300.0
2014-02-28,97500.0
2014-01-31,95300.0
2013-12-31,92700.0
2013-11-30,91500.0
2013-10-31,92000.0
2013-09-30,92300.0
2013-08-31,91900.0
2013-07-31,90900.0
2013-06-30,90100.0
2013-05-31,89100.0
2013-04-30,88200.0
2013-03-31,87700.0
2013-02-28,88000.0
2013-01-31,89100.0
2012-12-31,90600.0
2012-11-30,91100.0
2012-10-31,89500.0
2012-09-30,85600.0
2012-08-31,82400.0
2012-07-31,82000.0
2012-06-30,82800.0
2012-05-31,82800.0
2012-04-30,82700.0
2012-03-31,83200.0
2012-02-29,84000.0
2012-01-31,84600.0
2011-12-31,84800.0
2011-11-30,84800.0
2011-10-31,84900.0
2011-09-30,85500.0
2011-08-31,86900.0
2011-07-31,88200.0
2011-06-30,89400.0
2011-05-31,90200.0
2011-04-30,91100.0
2011-03-31,91100.0
2011-02-28,90400.0
2011-01-31,90200.0
2010-12-31,90800.0
2010-11-30,90600.0
2010-10-31,89900.0
2010-09-30,89700.0
2010-08-31,89300.0
2010-07-31,88700.0
2010-06-30,88000.0
2010-05-31,87300.0
2010-04-30,86500.0
2010-03-31,86200.0
2010-02-28,86200.0
2010-01-31,86100.0
2009-12-31,86100.0
2009-11-30,87000.0
2009-10-31,88100.0
2009-09-30,88200.0
2009-08-31,87900.0
2009-07-31,87800.0
2009-06-30,87700.0
2009-05-31,87400.0
2009-04-30,86700.0
2009-03-31,86200.0
2009-02-28,86200.0
2009-01-31,85500.0
2008-12-31,84400.0
2008-11-30,84100.0
2008-10-31,84000.0
2008-09-30,83800.0
2008-08-31,83400.0
2008-07-31,83100.0
2008-06-30,82300.0
2008-05-31,81600.0
2008-04-30,81400.0
2008-03-31,82100.0
2008-02-29,83000.0
2008-01-31,83400.0
2007-12-31,83500.0
2007-11-30,83900.0
2007-10-31,84100.0
2007-09-30,84800.0
2007-08-31,85600.0
2007-07-31,85300.0
2007-06-30,85000.0
2007-05-31,85000.0
2007-04-30,83900.0
2007-03-31,82300.0
2007-02-28,81500.0
2007-01-31,81100.0
2006-12-31,80700.0
2006-11-30,80700.0
2006-10-31,81000.0
2006-09-30,81200.0
2006-08-31,81500.0
2006-07-31,82100.0
2006-06-30,82400.0
2006-05-31,83500.0
2006-04-30,85300.0
2006-03-31,85400.0
2006-02-28,84600.0
2006-01-31,84800.0
2005-12-31,84900.0
2005-11-30,84100.0
2005-10-31,83200.0
2005-09-30,81900.0
2005-08-31,80700.0
2005-07-31,80400.0
2005-06-30,80800.0
2005-05-31,81200.0
2005-04-30,81500.0
2005-03-31,81600.0
2005-02-28,81800.0
2005-01-31,82600.0
2004-12-31,83000.0
2004-11-30,82100.0
2004-10-31,81400.0
2004-09-30,82900.0
2004-08-31,84900.0
2004-07-31,85700.0
2004-06-30,85300.0
2004-05-31,84000.0
2004-04-30,82700.0
2004-03-31,82600.0
2004-02-29,82600.0
2004-01-31,80900.0
2003-12-31,78900.0
2003-11-30,77800.0
2003-10-31,77900.0
2003-09-30,77800.0
2003-08-31,77200.0
2003-07-31,76100.0
2003-06-30,75300.0
2003-05-31,75200.0
2003-04-30,75900.0
2003-03-31,76300.0
2003-02-28,76500.0
2003-01-31,77900.0
2002-12-31,79700.0
2002-11-30,80500.0
2002-10-31,80300.0
2002-09-30,79900.0
2002-08-31,79400.0
2002-07-31,79100.0
2002-06-30,78700.0
2002-05-31,78000.0
2002-04-30,76900.0
2002-03-31,75700.0
2002-02-28,74200.0
2002-01-31,72500.0
2001-12-31,72200.0
2001-11-30,72600.0
2001-10-31,71600.0
2001-09-30,69700.0
2001-08-31,68600.0
2001-07-31,68200.0
2001-06-30,67900.0
2001-05-31,67400.0
2001-04-30,67300.0
2001-03-31,67300.0
2001-02-28,67200.0
2001-01-31,67300.0
2000-12-31,67600.0
2000-11-30,67500.0
2000-10-31,67400.0
2000-09-30,66900.0
2000-08-31,65800.0
2000-07-31,65100.0
2000-06-30,64900.0
2000-05-31,64200.0
2000-04-30,63400.0
2000-03-31,63200.0
2000-02-29,63600.0
2000-01-31,63600.0
1999-12-31,62200.0
1999-11-30,61200.0
1999-10-31,61500.0
1999-09-30,62200.0
1999-08-31,62500.0
1999-07-31,62600.0
1999-06-30,62600.0
1999-05-31,62900.0
1999-04-30,63100.0
1999-03-31,63300.0
1999-02-28,63100.0
1999-01-31,62800.0
1998-12-31,63400.0
1998-11-30,64700.0
1998-10-31,65500.0
1998-09-30,65500.0
1998-08-31,65200.0
1998-07-31,64700.0
1998-06-30,64700.0
1998-05-31,65500.0
1998-04-30,65800.0
1998-03-31,65200.0
1998-02-28,64600.0
1998-01-31,64300.0
1997-12-31,64000.0
1997-11-30,63800.0
1997-10-31,63700.0
1997-09-30,63600.0
1997-08-31,63900.0
1997-07-31,63900.0
1997-06-30,63300.0
1997-05-31,62300.0
1997-04-30,61000.0
1997-03-31,59900.0
1997-02-28,60600.0
1997-01-31,61100.0
1996-12-31,60100.0
1996-11-30,59100.0
1996-10-31,58900.0
1996-09-30,59300.0
1996-08-31,60000.0
1996-07-31,60500.0
1996-06-30,61500.0
1996-05-31,62600.0
1996-04-30,64000.0
