Date,Value
2015-09-30,453700.0
2015-08-31,454900.0
2015-07-31,451100.0
2015-06-30,452400.0
2015-05-31,450100.0
2015-04-30,451600.0
2015-03-31,447500.0
2015-02-28,444300.0
2015-01-31,442100.0
2014-12-31,439600.0
2014-11-30,437800.0
2014-10-31,434700.0
2014-09-30,431400.0
2014-08-31,430300.0
2014-07-31,430200.0
2014-06-30,431300.0
2014-05-31,428500.0
2014-04-30,418900.0
2014-03-31,411700.0
2014-02-28,411200.0
2014-01-31,409700.0
2013-12-31,405200.0
2013-11-30,400800.0
2013-10-31,397000.0
2013-09-30,392300.0
2013-08-31,385400.0
2013-07-31,377400.0
2013-06-30,369300.0
2013-05-31,361400.0
2013-04-30,355400.0
2013-03-31,349400.0
2013-02-28,342800.0
2013-01-31,337300.0
2012-12-31,332900.0
2012-11-30,327500.0
2012-10-31,322900.0
2012-09-30,319200.0
2012-08-31,316600.0
2012-07-31,314600.0
2012-06-30,312600.0
2012-05-31,310700.0
2012-04-30,309900.0
2012-03-31,308400.0
2012-02-29,305100.0
2012-01-31,302900.0
2011-12-31,304200.0
2011-11-30,306800.0
2011-10-31,308100.0
2011-09-30,310500.0
2011-08-31,314500.0
2011-07-31,318100.0
2011-06-30,319900.0
2011-05-31,322000.0
2011-04-30,325600.0
2011-03-31,329600.0
2011-02-28,332500.0
2011-01-31,334800.0
2010-12-31,338000.0
2010-11-30,341700.0
2010-10-31,345400.0
2010-09-30,347900.0
2010-08-31,347500.0
2010-07-31,348800.0
2010-06-30,353600.0
2010-05-31,358200.0
2010-04-30,360400.0
2010-03-31,363700.0
2010-02-28,366100.0
2010-01-31,367200.0
2009-12-31,367100.0
2009-11-30,367900.0
2009-10-31,370800.0
2009-09-30,377000.0
2009-08-31,382300.0
2009-07-31,385400.0
2009-06-30,388200.0
2009-05-31,392000.0
2009-04-30,396700.0
2009-03-31,402600.0
2009-02-28,409500.0
2009-01-31,416700.0
2008-12-31,422700.0
2008-11-30,426700.0
2008-10-31,429400.0
2008-09-30,431400.0
2008-08-31,433300.0
2008-07-31,435900.0
2008-06-30,437900.0
2008-05-31,440700.0
2008-04-30,443700.0
2008-03-31,446300.0
2008-02-29,449200.0
2008-01-31,449900.0
2007-12-31,447500.0
2007-11-30,443900.0
2007-10-31,442500.0
2007-09-30,442200.0
2007-08-31,442400.0
2007-07-31,441300.0
2007-06-30,441800.0
2007-05-31,443600.0
2007-04-30,440200.0
2007-03-31,433600.0
2007-02-28,429200.0
2007-01-31,426900.0
2006-12-31,425600.0
2006-11-30,425600.0
2006-10-31,426200.0
2006-09-30,423700.0
2006-08-31,418200.0
2006-07-31,408400.0
2006-06-30,397400.0
2006-05-31,386200.0
2006-04-30,378900.0
2006-03-31,372100.0
2006-02-28,365600.0
2006-01-31,360100.0
2005-12-31,355800.0
2005-11-30,350400.0
2005-10-31,343100.0
2005-09-30,334300.0
2005-08-31,327800.0
2005-07-31,325400.0
2005-06-30,323000.0
2005-05-31,320300.0
2005-04-30,318800.0
2005-03-31,318400.0
2005-02-28,316900.0
2005-01-31,315000.0
2004-12-31,311900.0
2004-11-30,308500.0
2004-10-31,304800.0
2004-09-30,302600.0
2004-08-31,301000.0
2004-07-31,299100.0
2004-06-30,296300.0
2004-05-31,293600.0
2004-04-30,291300.0
2004-03-31,288700.0
2004-02-29,283900.0
2004-01-31,278700.0
2003-12-31,276000.0
2003-11-30,274700.0
2003-10-31,272900.0
2003-09-30,272400.0
2003-08-31,273500.0
2003-07-31,275400.0
2003-06-30,276800.0
2003-05-31,276700.0
2003-04-30,274500.0
2003-03-31,270600.0
2003-02-28,266200.0
2003-01-31,262200.0
2002-12-31,261000.0
2002-11-30,261600.0
2002-10-31,261200.0
2002-09-30,260200.0
2002-08-31,259700.0
2002-07-31,258700.0
2002-06-30,258100.0
2002-05-31,257700.0
2002-04-30,256500.0
2002-03-31,255200.0
2002-02-28,255000.0
2002-01-31,257100.0
2001-12-31,260600.0
2001-11-30,262800.0
2001-10-31,263600.0
2001-09-30,264500.0
2001-08-31,264100.0
2001-07-31,263200.0
2001-06-30,261200.0
2001-05-31,260900.0
2001-04-30,260500.0
2001-03-31,260100.0
2001-02-28,259800.0
2001-01-31,262000.0
2000-12-31,263400.0
2000-11-30,263700.0
2000-10-31,262100.0
2000-09-30,261000.0
2000-08-31,263100.0
2000-07-31,268200.0
2000-06-30,270700.0
2000-05-31,269200.0
2000-04-30,266100.0
2000-03-31,264600.0
2000-02-29,265600.0
2000-01-31,267700.0
1999-12-31,268400.0
1999-11-30,265300.0
1999-10-31,260300.0
1999-09-30,253600.0
1999-08-31,248000.0
1999-07-31,245000.0
1999-06-30,243700.0
1999-05-31,243000.0
1999-04-30,244200.0
1999-03-31,245000.0
1999-02-28,241600.0
1999-01-31,236900.0
1998-12-31,234700.0
1998-11-30,236100.0
1998-10-31,237700.0
1998-09-30,241200.0
1998-08-31,240400.0
1998-07-31,230400.0
1998-06-30,221600.0
1998-05-31,222100.0
1998-04-30,225800.0
1998-03-31,229800.0
1998-02-28,239900.0
