Date,Value
2015-09-30,873100.0
2015-08-31,874100.0
2015-07-31,870100.0
2015-06-30,879100.0
2015-05-31,882400.0
2015-04-30,873600.0
2015-03-31,858800.0
2015-02-28,848900.0
2015-01-31,847800.0
2014-12-31,844700.0
2014-11-30,840100.0
2014-10-31,833500.0
2014-09-30,825900.0
2014-08-31,818400.0
2014-07-31,810500.0
2014-06-30,802300.0
2014-05-31,792900.0
2014-04-30,781100.0
2014-03-31,771700.0
2014-02-28,768300.0
2014-01-31,765900.0
2013-12-31,760400.0
2013-11-30,755300.0
2013-10-31,751400.0
2013-09-30,748000.0
2013-08-31,742600.0
2013-07-31,736900.0
2013-06-30,731300.0
2013-05-31,724500.0
2013-04-30,717400.0
2013-03-31,714000.0
2013-02-28,710200.0
2013-01-31,703400.0
2012-12-31,695400.0
2012-11-30,687200.0
2012-10-31,680400.0
2012-09-30,675700.0
2012-08-31,671600.0
2012-07-31,667700.0
2012-06-30,663900.0
2012-05-31,659200.0
2012-04-30,655900.0
2012-03-31,652000.0
2012-02-29,646000.0
2012-01-31,640900.0
2011-12-31,641000.0
2011-11-30,643000.0
2011-10-31,644000.0
2011-09-30,644400.0
2011-08-31,644500.0
2011-07-31,642900.0
2011-06-30,642500.0
2011-05-31,645400.0
2011-04-30,649600.0
2011-03-31,654000.0
2011-02-28,657800.0
2011-01-31,660000.0
2010-12-31,659600.0
2010-11-30,658400.0
2010-10-31,656500.0
2010-09-30,655600.0
2010-08-31,656400.0
2010-07-31,657900.0
2010-06-30,657500.0
2010-05-31,654900.0
2010-04-30,651300.0
2010-03-31,645600.0
2010-02-28,641000.0
2010-01-31,639300.0
2009-12-31,639000.0
2009-11-30,636900.0
2009-10-31,637300.0
2009-09-30,640500.0
2009-08-31,645200.0
2009-07-31,652000.0
2009-06-30,660600.0
2009-05-31,668900.0
2009-04-30,677300.0
2009-03-31,685700.0
2009-02-28,692300.0
2009-01-31,698200.0
2008-12-31,705500.0
2008-11-30,713700.0
2008-10-31,720900.0
2008-09-30,724400.0
2008-08-31,727000.0
2008-07-31,731600.0
2008-06-30,737400.0
2008-05-31,742700.0
2008-04-30,750200.0
2008-03-31,758400.0
2008-02-29,763300.0
2008-01-31,765300.0
2007-12-31,769100.0
2007-11-30,773200.0
2007-10-31,777300.0
2007-09-30,780500.0
2007-08-31,784000.0
2007-07-31,785200.0
2007-06-30,781900.0
2007-05-31,775600.0
2007-04-30,771100.0
2007-03-31,769500.0
2007-02-28,769500.0
2007-01-31,768300.0
2006-12-31,766300.0
2006-11-30,765600.0
2006-10-31,762300.0
2006-09-30,754100.0
2006-08-31,741900.0
2006-07-31,729400.0
2006-06-30,720900.0
2006-05-31,717700.0
2006-04-30,716900.0
2006-03-31,717100.0
2006-02-28,716500.0
2006-01-31,712900.0
2005-12-31,704100.0
2005-11-30,694500.0
2005-10-31,685700.0
2005-09-30,678300.0
2005-08-31,669100.0
2005-07-31,659000.0
2005-06-30,649700.0
2005-05-31,641700.0
2005-04-30,630700.0
2005-03-31,617200.0
2005-02-28,605500.0
2005-01-31,597900.0
2004-12-31,590300.0
2004-11-30,580300.0
2004-10-31,573000.0
2004-09-30,570600.0
2004-08-31,570500.0
2004-07-31,569500.0
2004-06-30,566000.0
2004-05-31,559300.0
2004-04-30,551500.0
2004-03-31,545200.0
2004-02-29,540900.0
2004-01-31,536200.0
2003-12-31,532300.0
2003-11-30,529400.0
2003-10-31,526300.0
2003-09-30,523000.0
2003-08-31,522400.0
2003-07-31,523700.0
2003-06-30,524900.0
2003-05-31,524500.0
2003-04-30,521800.0
2003-03-31,516400.0
2003-02-28,509600.0
2003-01-31,503400.0
2002-12-31,499500.0
2002-11-30,497300.0
2002-10-31,495200.0
2002-09-30,493200.0
2002-08-31,490500.0
2002-07-31,486900.0
2002-06-30,483800.0
2002-05-31,482500.0
2002-04-30,483200.0
2002-03-31,484300.0
2002-02-28,484300.0
2002-01-31,484400.0
2001-12-31,486900.0
2001-11-30,489700.0
2001-10-31,489600.0
2001-09-30,486900.0
2001-08-31,483900.0
2001-07-31,481600.0
2001-06-30,479700.0
2001-05-31,478400.0
2001-04-30,477700.0
2001-03-31,477000.0
2001-02-28,475600.0
2001-01-31,473300.0
2000-12-31,470700.0
2000-11-30,468700.0
2000-10-31,466100.0
2000-09-30,462400.0
2000-08-31,459900.0
2000-07-31,459800.0
2000-06-30,458600.0
2000-05-31,454500.0
2000-04-30,449500.0
2000-03-31,446100.0
2000-02-29,443000.0
2000-01-31,438100.0
1999-12-31,430700.0
1999-11-30,423300.0
1999-10-31,417800.0
1999-09-30,413700.0
1999-08-31,408900.0
1999-07-31,402600.0
1999-06-30,396100.0
1999-05-31,390200.0
1999-04-30,385300.0
1999-03-31,381100.0
1999-02-28,377800.0
1999-01-31,375300.0
1998-12-31,372000.0
1998-11-30,368700.0
1998-10-31,366100.0
1998-09-30,362800.0
1998-08-31,357800.0
1998-07-31,352900.0
1998-06-30,348800.0
1998-05-31,344200.0
1998-04-30,337200.0
1998-03-31,330100.0
1998-02-28,324700.0
1998-01-31,320400.0
1997-12-31,317100.0
1997-11-30,314600.0
1997-10-31,311900.0
1997-09-30,309200.0
1997-08-31,305700.0
1997-07-31,301100.0
1997-06-30,296300.0
1997-05-31,292400.0
1997-04-30,289600.0
1997-03-31,287700.0
1997-02-28,285500.0
1997-01-31,282200.0
1996-12-31,278100.0
1996-11-30,273700.0
1996-10-31,270300.0
1996-09-30,268500.0
1996-08-31,266400.0
1996-07-31,263200.0
1996-06-30,260500.0
1996-05-31,259700.0
1996-04-30,260000.0
