Date,Value
2015-09-30,285300.0
2015-08-31,305475.0
2015-07-31,300392.5
2015-06-30,287057.5
2015-05-31,284000.0
2015-04-30,287007.5
2015-03-31,275517.5
2015-02-28,268775.0
2015-01-31,263775.0
2014-12-31,280225.0
2014-11-30,283750.0
2014-10-31,275875.0
2014-09-30,264875.0
2014-08-31,264500.0
2014-07-31,279750.0
2014-06-30,257992.5
2014-05-31,257274.5
2014-04-30,256573.0
2014-03-31,274490.0
2014-02-28,275282.0
2014-01-31,236090.0
2013-12-31,234148.0
2013-11-30,249032.0
2013-10-31,245233.0
2013-09-30,252697.0
2013-08-31,261032.5
2013-07-31,249812.5
2013-06-30,252330.5
2013-05-31,269989.5
2013-04-30,284715.0
2013-03-31,263388.0
2013-02-28,255740.0
2013-01-31,242900.0
2012-12-31,237250.0
2012-11-30,247284.5
2012-10-31,252580.5
2012-09-30,230357.0
2012-08-31,225398.0
2012-07-31,223198.75
2012-06-30,249717.0
2012-05-31,250723.0
2012-04-30,252517.6471
2012-03-31,196142.3077
2012-01-31,204075.0
2011-12-31,210742.0
2011-11-30,228107.5
2011-10-31,221224.5
2011-09-30,235615.0
2011-08-31,211890.0
2011-07-31,224061.5385
2011-05-31,214074.5
2011-04-30,204497.6471
2011-03-31,193292.3077
2011-01-31,235480.0
2010-12-31,245570.0
2010-11-30,237900.0
2010-10-31,232665.0
2010-09-30,242510.0
2010-08-31,245325.0
2010-07-31,254600.0
2010-06-30,242267.5
2010-05-31,251457.5
2010-04-30,281975.0
2010-03-31,262400.0
2010-02-28,246642.0
2010-01-31,238090.5
2009-12-31,253872.5
2009-11-30,259850.0
2009-10-31,261225.0
2009-09-30,227838.0
2009-08-31,225390.0
2009-07-31,234042.0
2009-06-30,248550.0
2009-05-31,256500.0
2009-04-30,253542.0
2009-03-31,246690.0
2009-02-28,248288.0
2009-01-31,257440.0
2008-12-31,286100.0
2008-11-30,263392.0
2008-10-31,290190.5
2008-09-30,280172.5
2008-08-31,287860.0
2008-07-31,295793.4
2008-06-30,286349.6
2008-05-31,289128.0
2008-04-30,279150.0
2008-03-31,280450.0
2008-02-29,274650.0
2008-01-31,285350.0
2007-12-31,304000.0
2007-11-30,306750.0
2007-10-31,313000.0
2007-09-30,324700.0
2007-08-31,310800.0
2007-07-31,312502.7
2007-06-30,317848.8
2007-05-31,317421.5
2007-04-30,319787.5
2007-03-31,312225.0
2007-02-28,309457.5
2007-01-31,313075.0
2006-12-31,296650.0
2006-11-30,301100.0
2006-10-31,296200.0
2006-09-30,295050.0
2006-08-31,292392.5
2006-07-31,297825.0
2006-06-30,296332.5
2006-05-31,282850.0
2006-04-30,267242.5
2006-03-31,268160.0
2006-02-28,283165.0
2006-01-31,276457.5
2005-12-31,273467.5
2005-11-30,271182.5
2005-10-31,262775.0
2005-09-30,262492.5
2005-08-31,254232.5
2005-07-31,248217.5
2005-06-30,244932.5
2005-05-31,244025.0
2005-04-30,241050.0
2005-03-31,242192.5
2005-02-28,229282.5
2005-01-31,214917.5
2004-12-31,223475.0
2004-11-30,219507.5
2004-10-31,219097.5
2004-09-30,218902.5
2004-08-31,220575.0
2004-07-31,219242.5
2004-06-30,221831.0
2004-05-31,224596.5
2004-04-30,232012.5
2004-03-31,221232.5
2004-02-29,221825.0
2004-01-31,202642.65
2003-12-31,198807.85
2003-11-30,208873.0
2003-10-31,206452.5
2003-09-30,202825.0
2003-08-31,194275.0
2003-07-31,197875.0
2003-06-30,204000.0
2003-05-31,196750.0
2003-04-30,188992.5
2003-03-31,192532.5
2003-02-28,199611.6
2003-01-31,199685.4
2002-12-31,187664.65
2002-11-30,188767.85
2002-10-31,188015.5
2002-09-30,188960.0
2002-08-31,187507.5
2002-07-31,183932.5
2002-06-30,179967.5
2002-05-31,178227.5
2002-04-30,175055.0
2002-03-31,172975.0
2002-02-28,181250.0
2002-01-31,187742.5
2001-12-31,188195.0
2001-11-30,182912.5
2001-10-31,186392.95
2001-09-30,187141.05
2001-08-31,185392.7
2001-07-31,184285.3
2001-06-30,185849.6
2001-05-31,184670.6
2001-04-30,181389.3
2001-03-31,175439.0
2001-02-28,176955.85
2001-01-31,180421.15
2000-12-31,180894.5
2000-11-30,180925.0
2000-10-31,178112.05
2000-09-30,177236.45
2000-08-31,175128.35
2000-07-31,175187.15
2000-06-30,171932.9
2000-05-31,175077.1
2000-04-30,170753.0
2000-03-31,170100.0
2000-02-29,173986.65
2000-01-31,176268.85
1999-12-31,173730.35
1999-11-30,167767.15
1999-10-31,158224.5
1999-09-30,161456.0
1999-08-31,167589.0
1999-07-31,177152.5
1999-06-30,181175.0
1999-05-31,173800.0
1999-04-30,171442.5
1999-03-31,173025.0
1999-02-28,179907.5
1999-01-31,188825.0
1998-12-31,197400.0
1998-11-30,174975.0
1998-10-31,161481.5
1998-09-30,152141.0
1998-08-31,150152.5
1998-07-31,155702.5
1998-06-30,154532.5
1998-05-31,150623.0
1998-04-30,147937.0
1998-03-31,150012.5
1998-02-28,148872.5
1998-01-31,147475.0
1997-12-31,155970.0
1997-11-30,162590.0
1997-10-31,156596.75
1997-09-30,156140.75
1997-08-31,160772.5
1997-07-31,163850.0
1997-06-30,165800.0
1997-05-31,158235.0
1997-04-30,146640.0
1997-03-31,142275.0
1997-02-28,143275.0
1997-01-31,148930.15
1996-12-31,154730.35
1996-11-30,148015.5
1996-10-31,150325.0
1996-09-30,148910.0
1996-08-31,139750.0
1996-07-31,139462.5
1996-06-30,139327.5
1996-05-31,146225.0
1996-04-30,144800.0
