Date,Value
2015-02-28,229900.0
2015-01-31,225000.0
2014-12-31,199950.0
2014-11-30,199950.0
2014-10-31,229950.0
2014-09-30,239870.0
2014-08-31,229950.0
2014-07-31,234500.0
2014-06-30,234500.0
2014-05-31,249900.0
2014-04-30,229900.0
2014-03-31,212000.0
2014-02-28,199950.0
2014-01-31,154000.0
2013-12-31,189000.0
2013-11-30,215000.0
2013-10-31,215000.0
2013-09-30,219500.0
2013-08-31,206500.0
2013-07-31,219900.0
2013-06-30,205000.0
2013-05-31,189950.0
2013-04-30,174900.0
2013-03-31,150000.0
2013-02-28,145000.0
2013-01-31,138900.0
2012-12-31,125000.0
2012-11-30,125000.0
2012-10-31,125000.0
2012-09-30,119000.0
2012-08-31,138900.0
2012-07-31,144950.0
2012-06-30,143950.0
2012-05-31,129950.0
2012-04-30,139950.0
2012-03-31,155000.0
2012-02-29,142900.0
2012-01-31,143000.0
2011-12-31,144000.0
2011-11-30,148900.0
2011-10-31,139000.0
2011-09-30,139500.0
2011-08-31,149900.0
2011-07-31,149000.0
2011-06-30,150000.0
2011-05-31,145000.0
2011-04-30,145000.0
2011-03-31,159900.0
2011-02-28,159900.0
2011-01-31,158000.0
2010-12-31,160000.0
2010-11-30,165000.0
2010-10-31,174900.0
2010-09-30,179000.0
2010-08-31,175000.0
2010-07-31,176000.0
2010-06-30,179950.0
2010-05-31,189950.0
2010-04-30,190000.0
2010-03-31,194750.0
2010-02-28,195000.0
2010-01-31,195000.0
2009-12-31,199950.0
2009-11-30,209000.0
2009-10-31,223000.0
2009-09-30,215000.0
2009-08-31,224000.0
2009-07-31,225000.0
2009-06-30,230000.0
2009-05-31,239900.0
2009-04-30,239950.0
2009-03-31,237000.0
2009-02-28,239950.0
2009-01-31,244950.0
2008-12-31,250000.0
2008-11-30,254900.0
2008-10-31,259000.0
