Date,Value
2015-09-30,157100.0
2015-08-31,157200.0
2015-07-31,157000.0
2015-06-30,156700.0
2015-05-31,155300.0
2015-04-30,155100.0
2015-03-31,154900.0
2015-02-28,154900.0
2015-01-31,154900.0
2014-12-31,154600.0
2014-11-30,154500.0
2014-10-31,153400.0
2014-09-30,152400.0
2014-08-31,152600.0
2014-07-31,152500.0
2014-06-30,150000.0
2014-05-31,148000.0
2014-04-30,147000.0
2014-03-31,147400.0
2014-02-28,147200.0
2014-01-31,146200.0
2013-12-31,146100.0
2013-11-30,145500.0
2013-10-31,144100.0
2013-09-30,143300.0
2013-08-31,142000.0
2013-07-31,139600.0
2013-06-30,139100.0
2013-05-31,139000.0
2013-04-30,138300.0
2013-03-31,136900.0
2013-02-28,136700.0
2013-01-31,137100.0
2012-12-31,136600.0
2012-11-30,135200.0
2012-10-31,135600.0
2012-09-30,136600.0
2012-08-31,137300.0
2012-07-31,137700.0
2012-06-30,138800.0
2012-05-31,139500.0
2012-04-30,139600.0
2012-03-31,139700.0
2012-02-29,139900.0
2012-01-31,139700.0
2011-12-31,139300.0
2011-11-30,140200.0
2011-10-31,140800.0
2011-09-30,140600.0
2011-08-31,140300.0
2011-07-31,141100.0
2011-06-30,141700.0
2011-05-31,142000.0
2011-04-30,141900.0
2011-03-31,141500.0
2011-02-28,141200.0
2011-01-31,140800.0
2010-12-31,140700.0
2010-11-30,141000.0
2010-10-31,141600.0
2010-09-30,142100.0
2010-08-31,142800.0
2010-07-31,144400.0
2010-06-30,146300.0
2010-05-31,147500.0
2010-04-30,148400.0
2010-03-31,150300.0
2010-02-28,152800.0
2010-01-31,155200.0
2009-12-31,156900.0
2009-11-30,158000.0
2009-10-31,158900.0
2009-09-30,160600.0
2009-08-31,161700.0
2009-07-31,161700.0
2009-06-30,162300.0
2009-05-31,164100.0
2009-04-30,166300.0
2009-03-31,167300.0
2009-02-28,167200.0
2009-01-31,167700.0
2008-12-31,169000.0
2008-11-30,170000.0
2008-10-31,169800.0
2008-09-30,168600.0
2008-08-31,168100.0
2008-07-31,169500.0
2008-06-30,171700.0
2008-05-31,173200.0
2008-04-30,174100.0
2008-03-31,174600.0
2008-02-29,173800.0
2008-01-31,172500.0
2007-12-31,172200.0
2007-11-30,172200.0
2007-10-31,171900.0
2007-09-30,171200.0
2007-08-31,170400.0
2007-07-31,168000.0
2007-06-30,164600.0
2007-05-31,162300.0
2007-04-30,161500.0
2007-03-31,160900.0
2007-02-28,160800.0
2007-01-31,160400.0
2006-12-31,160100.0
2006-11-30,160000.0
2006-10-31,160300.0
2006-09-30,161800.0
2006-08-31,163800.0
2006-07-31,164900.0
2006-06-30,165100.0
2006-05-31,164500.0
2006-04-30,163000.0
2006-03-31,160700.0
2006-02-28,158500.0
2006-01-31,155900.0
2005-12-31,152600.0
2005-11-30,149500.0
2005-10-31,147300.0
2005-09-30,145300.0
2005-08-31,143000.0
2005-07-31,140500.0
2005-06-30,138300.0
2005-05-31,136800.0
2005-04-30,134500.0
2005-03-31,131500.0
2005-02-28,129800.0
2005-01-31,129600.0
2004-12-31,129200.0
2004-11-30,127100.0
2004-10-31,124200.0
2004-09-30,121400.0
2004-08-31,118100.0
2004-07-31,115100.0
2004-06-30,112800.0
2004-05-31,110700.0
2004-04-30,109600.0
2004-03-31,109900.0
2004-02-29,109400.0
2004-01-31,107900.0
2003-12-31,106200.0
2003-11-30,105700.0
2003-10-31,105600.0
2003-09-30,104800.0
2003-08-31,104400.0
2003-07-31,105000.0
2003-06-30,104000.0
2003-05-31,101400.0
2003-04-30,99100.0
2003-03-31,97200.0
2003-02-28,95500.0
2003-01-31,93900.0
2002-12-31,92700.0
2002-11-30,92000.0
2002-10-31,92300.0
2002-09-30,92200.0
2002-08-31,91500.0
2002-07-31,90600.0
2002-06-30,90400.0
2002-05-31,91100.0
2002-04-30,91800.0
2002-03-31,92400.0
2002-02-28,93100.0
2002-01-31,93700.0
2001-12-31,93800.0
2001-11-30,93700.0
2001-10-31,92300.0
2001-09-30,91300.0
2001-08-31,91900.0
2001-07-31,92700.0
2001-06-30,92600.0
2001-05-31,92000.0
2001-04-30,91000.0
2001-03-31,89900.0
2001-02-28,89200.0
2001-01-31,89600.0
2000-12-31,90800.0
2000-11-30,91500.0
2000-10-31,91100.0
2000-09-30,90400.0
2000-08-31,89500.0
2000-07-31,89100.0
2000-06-30,89300.0
2000-05-31,90300.0
2000-04-30,91400.0
2000-03-31,91700.0
2000-02-29,91000.0
2000-01-31,90700.0
1999-12-31,90700.0
1999-11-30,91000.0
1999-10-31,92700.0
1999-09-30,94900.0
1999-08-31,95400.0
1999-07-31,94700.0
1999-06-30,94200.0
1999-05-31,94300.0
1999-04-30,94600.0
1999-03-31,94900.0
1999-02-28,95000.0
1999-01-31,94500.0
1998-12-31,93600.0
1998-11-30,92400.0
1998-10-31,91300.0
1998-09-30,89800.0
1998-08-31,88600.0
1998-07-31,88300.0
1998-06-30,88400.0
1998-05-31,87000.0
1998-04-30,84800.0
1998-03-31,82800.0
1998-02-28,81900.0
1998-01-31,81500.0
1997-12-31,81100.0
1997-11-30,80200.0
1997-10-31,80200.0
1997-09-30,81100.0
1997-08-31,81700.0
1997-07-31,81800.0
1997-06-30,82200.0
1997-05-31,83000.0
1997-04-30,84400.0
1997-03-31,85800.0
1997-02-28,86700.0
1997-01-31,86800.0
1996-12-31,86500.0
1996-11-30,86000.0
1996-10-31,85600.0
1996-09-30,85600.0
1996-08-31,85300.0
1996-07-31,84900.0
1996-06-30,85100.0
1996-05-31,86100.0
1996-04-30,87100.0
