Date,Value
2015-06-30,1255.0
2015-05-31,1255.0
2015-04-30,1135.0
2015-03-31,1325.0
2015-02-28,1400.0
2015-01-31,1330.0
2014-12-31,1312.0
2014-11-30,1275.0
2014-10-31,1460.0
2014-09-30,1540.0
2014-08-31,1430.0
2014-07-31,1450.0
2014-06-30,1500.0
2014-05-31,1445.0
2014-04-30,1465.0
2014-03-31,1420.0
2014-02-28,1410.0
2014-01-31,1475.0
2013-12-31,1495.0
2013-11-30,1050.0
2013-10-31,1195.0
2013-09-30,1525.0
2013-08-31,979.0
2013-07-31,909.0
2013-06-30,1130.0
2013-05-31,1075.0
2013-04-30,910.0
2013-03-31,1050.0
2013-02-28,899.0
2013-01-31,899.0
2012-12-31,935.0
2012-11-30,995.0
2012-10-31,995.0
2012-09-30,1090.0
2012-08-31,1080.0
2012-07-31,1080.0
2012-06-30,1125.0
2012-05-31,1135.0
2012-04-30,1040.0
2012-03-31,925.0
2012-02-29,825.0
2012-01-31,825.0
2011-12-31,825.0
2011-11-30,860.0
2011-10-31,990.0
2011-09-30,1125.0
2011-08-31,1125.0
2011-07-31,1195.0
2011-06-30,845.0
2011-05-31,860.0
2011-04-30,869.0
2011-03-31,860.0
2011-02-28,850.0
2011-01-31,875.0
2010-12-31,925.0
2010-11-30,875.0
2010-10-31,995.0
2010-09-30,925.0
2010-08-31,995.0
