Date,Value
2015-02-28,274950.0
2015-01-31,264950.0
2014-12-31,259950.0
2014-11-30,273950.0
2014-10-31,274950.0
2014-09-30,279900.0
2014-08-31,279500.0
2014-07-31,279000.0
2014-06-30,273950.0
2014-05-31,264900.0
2014-04-30,265990.0
2014-03-31,260990.0
2014-02-28,250000.0
2014-01-31,245950.0
2013-12-31,247950.0
2013-11-30,239645.0
2013-10-31,252900.0
2013-09-30,252900.0
2013-08-31,246950.0
2013-07-31,249900.0
2013-06-30,245000.0
2013-05-31,244900.0
2013-04-30,234950.0
2013-03-31,232950.0
2013-02-28,229950.0
2013-01-31,234950.0
2012-12-31,244950.0
2012-11-30,244950.0
2012-10-31,252200.0
2012-09-30,279000.0
2012-08-31,279000.0
2012-07-31,279000.0
2012-06-30,279900.0
2012-05-31,279900.0
2012-04-30,274900.0
2012-03-31,274900.0
2012-02-29,265000.0
2012-01-31,269000.0
2011-12-31,279000.0
2011-11-30,285000.0
2011-10-31,294950.0
2011-09-30,295000.0
2011-08-31,299900.0
2011-07-31,299950.0
2011-06-30,299000.0
2011-05-31,289900.0
2011-04-30,284900.0
2011-03-31,267900.0
2011-02-28,260000.0
2011-01-31,259000.0
2010-12-31,262500.0
2010-11-30,256500.0
2010-10-31,264900.0
2010-09-30,279900.0
2010-08-31,276000.0
2010-07-31,274900.0
2010-06-30,276000.0
2010-05-31,268900.0
2010-04-30,264000.0
2010-03-31,260000.0
2010-02-28,260000.0
2010-01-31,283000.0
2009-12-31,274500.0
2009-11-30,289900.0
2009-10-31,289900.0
2009-09-30,295000.0
2009-08-31,295000.0
2009-07-31,319900.0
2009-06-30,335000.0
2009-05-31,325000.0
2009-04-30,325000.0
2009-03-31,309950.0
2009-02-28,319950.0
2009-01-31,325000.0
2008-12-31,329900.0
2008-11-30,349800.0
2008-10-31,349800.0
