Date,Value
2015-02-28,189000.0
2015-01-31,185000.0
2014-12-31,195000.0
2014-11-30,189000.0
2014-10-31,199900.0
2014-09-30,199900.0
2014-08-31,199900.0
2014-07-31,206000.0
2014-06-30,195000.0
2014-05-31,187000.0
2014-04-30,197900.0
2014-03-31,173500.0
2014-02-28,169000.0
2014-01-31,179500.0
2013-12-31,189500.0
2013-11-30,184500.0
2013-10-31,192900.0
2013-09-30,184900.0
2013-08-31,185000.0
2013-07-31,192900.0
2013-06-30,195000.0
2013-05-31,190000.0
2013-04-30,190000.0
2013-03-31,189500.0
2013-02-28,185000.0
2013-01-31,174900.0
2012-12-31,169900.0
2012-11-30,174900.0
2012-10-31,159000.0
2012-09-30,178500.0
2012-08-31,179900.0
2012-07-31,179900.0
2012-06-30,179900.0
2012-05-31,179900.0
2012-04-30,179000.0
2012-03-31,174900.0
2012-02-29,180000.0
2012-01-31,179900.0
2011-12-31,169999.0
2011-11-30,175000.0
2011-10-31,170000.0
2011-09-30,169999.0
2011-08-31,179900.0
2011-07-31,189500.0
2011-06-30,185990.0
2011-05-31,179900.0
2011-04-30,183900.0
2011-03-31,179900.0
2011-02-28,183900.0
2011-01-31,183900.0
2010-12-31,184990.0
2010-11-30,184990.0
2010-10-31,184990.0
2010-09-30,190900.0
2010-08-31,189000.0
2010-07-31,189000.0
2010-06-30,196900.0
2010-05-31,185000.0
2010-04-30,187700.0
2010-03-31,189900.0
2010-02-28,189900.0
2010-01-31,189900.0
2009-12-31,189900.0
2009-11-30,198500.0
2009-10-31,199900.0
2009-09-30,199500.0
2009-08-31,200000.0
2009-07-31,205000.0
2009-06-30,205000.0
2009-05-31,205000.0
2009-04-30,200000.0
2009-03-31,214950.0
2009-02-28,215000.0
2009-01-31,215000.0
2008-12-31,218400.0
2008-11-30,219000.0
2008-10-31,219500.0
