Date,Value
2015-02-28,149000.0
2015-01-31,140000.0
2014-12-31,140000.0
2014-11-30,145000.0
2014-10-31,150000.0
2014-09-30,149950.0
2014-08-31,150000.0
2014-07-31,154900.0
2014-06-30,159000.0
2014-05-31,164500.0
2014-04-30,164900.0
2014-03-31,159000.0
2014-02-28,159000.0
2014-01-31,154900.0
2013-12-31,154900.0
2013-11-30,159000.0
2013-10-31,159900.0
2013-09-30,179000.0
2013-08-31,182900.0
2013-07-31,175000.0
2013-06-30,175000.0
2013-05-31,178000.0
2013-04-30,175000.0
2013-03-31,169900.0
2013-02-28,152000.0
2013-01-31,144500.0
2012-12-31,150000.0
2012-11-30,144500.0
2012-10-31,89500.0
2012-09-30,150000.0
2012-08-31,135000.0
2012-07-31,135000.0
2012-06-30,144500.0
2012-05-31,150000.0
2012-04-30,150000.0
2012-03-31,186500.0
2012-02-29,149950.0
2012-01-31,180000.0
2011-12-31,148000.0
2011-11-30,180000.0
2011-10-31,180000.0
2011-09-30,180000.0
2011-08-31,195000.0
2011-07-31,195000.0
2011-06-30,189500.0
2011-05-31,150000.0
2011-04-30,189500.0
2011-03-31,144900.0
2011-02-28,137500.0
2011-01-31,144900.0
2010-12-31,154900.0
2010-11-30,154900.0
2010-10-31,169000.0
2010-09-30,139900.0
2010-08-31,154950.0
2010-07-31,169000.0
2010-06-30,174900.0
2010-05-31,160000.0
2010-04-30,185000.0
2010-03-31,188500.0
2010-02-28,174900.0
2010-01-31,188500.0
2009-12-31,174900.0
2009-11-30,190000.0
2009-10-31,174900.0
2009-09-30,190000.0
2009-08-31,209000.0
2009-07-31,169900.0
2009-06-30,138500.0
2009-05-31,112500.0
2009-04-30,115000.0
2009-03-31,115000.0
2009-02-28,149950.0
2009-01-31,161000.0
2008-12-31,149950.0
2008-11-30,225750.0
2008-10-31,225750.0
