Date,Value
2015-09-30,380075.0
2015-08-31,394825.0
2015-07-31,344250.0
2015-06-30,357250.0
2015-05-31,333700.0
2015-04-30,359705.8824
2015-03-31,395000.0
2014-11-30,361325.0
2014-10-31,323250.0
2014-09-30,315250.0
2014-08-31,301225.0
2014-07-31,299400.0
2014-06-30,339300.0
2014-05-31,336975.0
2014-04-30,342764.7059
2014-03-31,376000.0
2013-12-31,362000.0
2013-10-31,415000.0
2013-07-31,297900.0
2013-06-30,274700.0
2013-05-31,291470.5882
2013-04-30,255000.0
2013-01-31,256000.0
2012-10-31,257196.75
2012-09-30,261810.0
2012-08-31,264225.0
2012-07-31,244250.0
2012-06-30,278529.4118
2012-05-31,305000.0
2011-10-31,256692.3077
2011-08-31,275769.2308
2011-06-30,265000.0
2011-02-28,272000.0
2010-09-30,322000.0
2010-06-30,308823.5294
2010-05-31,324615.3846
2010-03-31,240000.0
2009-12-31,316750.0
2009-11-30,308000.0
2009-10-31,299350.0
2009-09-30,293900.0
2009-08-31,306250.0
2009-07-31,299125.0
2009-06-30,288375.0
2009-05-31,276470.5882
2009-04-30,275000.0
2008-12-31,330000.0
2008-09-30,338492.5
2008-08-31,327982.5
2008-07-31,314475.0
2008-06-30,332300.0
2008-05-31,341450.0
2008-04-30,331370.0
2008-03-31,345030.0
2008-02-29,367823.5294
2008-01-31,409615.3846
2007-11-30,314207.5
2007-10-31,313475.0
2007-09-30,339600.0
2007-08-31,361150.0
2007-07-31,360950.0
2007-06-30,348235.0
2007-05-31,362007.5
2007-04-30,359407.5
2007-03-31,392242.5
2007-02-28,382302.5
2007-01-31,367305.0
2006-12-31,348650.0
2006-11-30,333250.0
2006-10-31,355850.0
2006-09-30,351800.0
2006-08-31,339400.0
2006-07-31,330350.0
2006-06-30,328350.0
2006-05-31,323100.0
2006-04-30,303400.0
2006-03-31,289092.5
2006-02-28,285882.5
2006-01-31,299717.5
2005-12-31,308232.5
2005-11-30,300225.0
2005-10-31,300050.0
2005-09-30,297750.0
2005-08-31,302692.5
2005-07-31,292232.5
2005-06-30,279050.0
2005-05-31,268675.0
2005-04-30,269050.0
2005-03-31,259950.0
2005-02-28,256483.2
2005-01-31,257913.3
2004-12-31,267116.5
2004-11-30,263975.0
2004-10-31,261450.0
2004-09-30,240842.5
2004-08-31,242632.5
2004-07-31,252525.0
2004-06-30,241200.0
2004-05-31,224742.5
2004-04-30,225482.5
2004-03-31,229475.0
2004-02-29,227292.5
2004-01-31,226475.0
2003-12-31,223457.5
2003-11-30,245837.5
2003-10-31,237512.5
2003-09-30,233275.0
2003-08-31,224625.0
2003-07-31,235575.0
2003-06-30,223250.0
2003-05-31,221400.0
2003-04-30,210850.0
2003-03-31,210425.0
2003-02-28,204905.0
2003-01-31,227170.0
2002-12-31,230975.0
2002-11-30,227875.0
2002-10-31,219000.0
2002-09-30,201750.0
2002-08-31,192500.0
2002-07-31,199225.0
2002-06-30,215108.5
2002-05-31,232111.5
2002-04-30,210445.0
2002-03-31,203200.0
2002-02-28,194825.0
2002-01-31,191717.5
2001-12-31,196732.5
2001-11-30,206275.0
2001-10-31,216200.0
2001-09-30,222025.0
2001-08-31,201467.5
2001-07-31,195032.5
2001-06-30,205475.0
2001-05-31,196450.0
2001-04-30,198500.0
2001-03-31,175500.0
2001-02-28,174000.0
2001-01-31,177750.0
2000-12-31,200250.0
2000-11-30,192375.0
2000-10-31,192575.0
2000-09-30,200850.0
2000-08-31,188200.0
2000-07-31,183585.0
2000-06-30,171950.0
2000-05-31,159715.0
2000-04-30,154750.0
2000-03-31,153050.0
2000-02-29,172550.0
2000-01-31,175500.0
1999-12-31,169000.0
1999-11-30,155825.0
1999-10-31,154975.0
1999-09-30,167650.0
1999-08-31,166325.0
1999-07-31,161017.5
1999-06-30,155632.5
1999-05-31,149710.0
1999-04-30,145965.0
1999-03-31,135775.0
1999-02-28,137175.0
1999-01-31,145750.0
1998-12-31,154500.0
1998-11-30,150375.0
1998-10-31,161375.0
1998-09-30,152750.0
1998-08-31,136820.0
1998-07-31,136980.0
1998-06-30,133442.5
1998-05-31,141775.0
1998-04-30,140832.5
1998-03-31,135117.6471
1998-02-28,141923.0769
1997-12-31,136132.0
1997-11-30,133558.0
1997-10-31,137607.5
1997-09-30,134866.0
1997-08-31,135811.5
1997-07-31,133670.0
1997-06-30,131267.5
1997-05-31,117632.5
1997-04-30,114025.0
1997-03-31,128050.0
1997-02-28,135300.0
1997-01-31,128885.0
1996-12-31,132915.0
1996-11-30,127950.0
1996-10-31,118802.5
1996-09-30,128615.0
1996-08-31,134557.5
1996-07-31,133950.0
1996-06-30,118225.0
1996-05-31,114800.0
1996-04-30,122450.0
