Date,Value
2015-09-30,267142.5
2015-07-31,288342.0
2015-06-30,323300.0
2015-05-31,285259.5
2015-04-30,277058.8235
2015-03-31,278935.1538
2015-01-31,294081.0
2014-12-31,282995.0
2014-11-30,289200.0
2014-10-31,269150.0
2014-09-30,258200.0
2014-08-31,262500.0
2014-07-31,267200.0
2014-06-30,275500.0
2014-05-31,264600.0
2014-04-30,263850.0
2014-03-31,251550.0
2014-02-28,266100.0
2014-01-31,288150.0
2013-12-31,258500.0
2013-11-30,245500.0
2013-10-31,270250.0
2013-09-30,262100.0
2013-08-31,270900.0
2013-07-31,260650.0
2013-06-30,266900.0
2013-05-31,247250.0
2013-04-30,226850.0
2013-03-31,213850.0
2013-02-28,224250.0
2013-01-31,207350.0
2012-12-31,222635.0
2012-11-30,238165.0
2012-10-31,258975.0
2012-09-30,269925.0
2012-08-31,245705.8824
2012-07-31,260115.3846
2012-05-31,227750.0
2012-04-30,219742.5
2012-03-31,235567.6471
2012-02-29,233884.6154
2011-12-31,297000.0
2011-10-31,222050.0
2011-09-30,217150.0
2011-08-31,219900.0
2011-07-31,243600.0
2011-06-30,246400.0
2011-05-31,271423.05
2011-04-30,277141.7059
2011-03-31,276836.1538
2011-01-31,243230.0
2010-12-31,276400.0
2010-11-30,285775.0
2010-10-31,292957.5
2010-09-30,268250.0
2010-08-31,272500.0
2010-07-31,280450.0
2010-06-30,264650.0
2010-05-31,247135.0
2010-04-30,255515.0
2010-03-31,252823.5294
2010-02-28,249384.6154
2009-12-31,244212.5
2009-11-30,259687.5
2009-10-31,249117.6471
2009-09-30,248038.4615
2009-07-31,279565.0
2009-06-30,293647.0588
2009-05-31,286767.8462
2009-03-31,245994.0
2008-11-30,260825.0
2008-10-31,264000.0
2008-09-30,258000.0
2008-08-31,254000.0
2008-07-31,262355.0
2008-06-30,293695.0
2008-05-31,297392.5
2008-04-30,294982.5
2008-03-31,303367.5
2008-02-29,290332.5
2008-01-31,282475.0
2007-12-31,301500.0
2007-11-30,290050.0
2007-10-31,288000.0
2007-09-30,287325.0
2007-08-31,311375.0
2007-07-31,317875.0
2007-06-30,301112.5
2007-05-31,294437.5
2007-04-30,304317.5
2007-03-31,310975.0
2007-02-28,323007.5
2007-01-31,322075.0
2006-12-31,316350.0
2006-11-30,315450.0
2006-10-31,298597.5
2006-09-30,308527.5
2006-08-31,297517.5
2006-07-31,296840.0
2006-06-30,291935.0
2006-05-31,291507.5
2006-04-30,275475.0
2006-03-31,274550.0
2006-02-28,259598.75
2006-01-31,261888.75
2005-12-31,269237.5
2005-11-30,275542.5
2005-10-31,277475.0
2005-09-30,277695.0
2005-08-31,277862.5
2005-07-31,281110.0
2005-06-30,268457.5
2005-05-31,253417.5
2005-04-30,246440.0
2005-03-31,246750.0
2005-02-28,253825.0
2005-01-31,253325.0
2004-12-31,242300.0
2004-11-30,234100.0
2004-10-31,228650.0
2004-09-30,223675.0
2004-08-31,228825.0
2004-07-31,227500.0
2004-06-30,229750.0
2004-05-31,226375.0
2004-04-30,229424.65
2004-03-31,220421.15
2004-02-29,213147.2
2004-01-31,208310.0
2003-12-31,204095.0
2003-11-30,192142.5
2003-10-31,195832.5
2003-09-30,194042.65
2003-08-31,199693.3
2003-07-31,193241.55
2003-06-30,194351.5
2003-05-31,199750.0
2003-04-30,204650.0
2003-03-31,193875.0
2003-02-28,193750.0
2003-01-31,203400.0
2002-12-31,197325.0
2002-11-30,182025.0
2002-10-31,182225.0
2002-09-30,180350.0
2002-08-31,180425.0
2002-07-31,183725.0
2002-06-30,168992.5
2002-05-31,155982.5
2002-04-30,162217.5
2002-03-31,162332.5
2002-02-28,172175.0
2002-01-31,176990.35
2001-12-31,183819.15
2001-11-30,180533.95
2001-10-31,181369.95
2001-09-30,183497.05
2001-08-31,185338.4
2001-07-31,181579.15
2001-06-30,174497.0
2001-05-31,180465.15
2001-04-30,181528.95
2001-03-31,181143.9
2001-02-28,187052.15
2001-01-31,179545.35
2000-12-31,172015.5
2000-11-30,168192.5
2000-10-31,159659.0
2000-09-30,167603.5
2000-08-31,175980.0
2000-07-31,175888.65
2000-06-30,173034.85
2000-05-31,167952.5
2000-04-30,166297.25
2000-03-31,160034.1
2000-02-29,156035.3
2000-01-31,161907.85
1999-12-31,162117.0
1999-11-30,161358.5
1999-10-31,164697.5
1999-09-30,154045.0
1999-08-31,155050.0
1999-07-31,155398.55
1999-06-30,157657.9
1999-05-31,148943.25
1999-04-30,159239.4
1999-03-31,161303.4
1999-02-28,163181.75
1999-01-31,158342.75
1998-12-31,151282.5
1998-11-30,151199.0
1998-10-31,147838.75
1998-09-30,148728.35
1998-08-31,146528.4
1998-07-31,144840.55
1998-06-30,147187.45
1998-05-31,148703.5
1998-04-30,152200.0
1998-03-31,139560.75
1998-02-28,148249.5
1998-01-31,152753.85
1997-12-31,149897.9
1997-11-30,141722.0
1997-10-31,143754.85
1997-09-30,139094.65
1997-08-31,133849.5
1997-07-31,136285.2
1997-06-30,146474.35
1997-05-31,145593.0
1997-04-30,138705.95
1997-03-31,143127.0
1997-02-28,143319.4118
1997-01-31,142107.6923
1996-11-30,124300.0
1996-10-31,131050.0
1996-09-30,128535.0
1996-08-31,131790.0
1996-07-31,125275.0
1996-06-30,125700.0
1996-05-31,127907.5
1996-04-30,122102.5
