Date,Value
2015-09-30,206200.0
2015-08-31,207000.0
2015-07-31,204700.0
2015-06-30,203600.0
2015-05-31,202500.0
2015-04-30,200200.0
2015-03-31,199600.0
2015-02-28,198900.0
2015-01-31,198600.0
2014-12-31,198000.0
2014-11-30,196900.0
2014-10-31,195700.0
2014-09-30,195100.0
2014-08-31,194800.0
2014-07-31,194600.0
2014-06-30,194000.0
2014-05-31,194000.0
2014-04-30,194900.0
2014-03-31,194400.0
2014-02-28,191800.0
2014-01-31,189200.0
2013-12-31,187300.0
2013-11-30,186600.0
2013-10-31,187000.0
2013-09-30,187100.0
2013-08-31,187000.0
2013-07-31,186200.0
2013-06-30,183800.0
2013-05-31,180700.0
2013-04-30,178200.0
2013-03-31,177800.0
2013-02-28,179400.0
2013-01-31,181400.0
2012-12-31,182300.0
2012-11-30,182600.0
2012-10-31,182500.0
2012-09-30,182500.0
2012-08-31,183000.0
2012-07-31,184200.0
2012-06-30,185500.0
2012-05-31,186400.0
2012-04-30,187000.0
2012-03-31,187400.0
2012-02-29,187600.0
2012-01-31,187700.0
2011-12-31,187000.0
2011-11-30,185400.0
2011-10-31,184200.0
2011-09-30,183300.0
2011-08-31,181600.0
2011-07-31,179200.0
2011-06-30,176500.0
2011-05-31,174800.0
2011-04-30,175600.0
2011-03-31,177700.0
2011-02-28,179200.0
2011-01-31,181500.0
2010-12-31,184200.0
2010-11-30,186300.0
2010-10-31,188400.0
2010-09-30,191100.0
2010-08-31,193000.0
2010-07-31,194400.0
2010-06-30,195800.0
2010-05-31,196700.0
2010-04-30,197100.0
2010-03-31,197900.0
2010-02-28,198600.0
2010-01-31,199100.0
2009-12-31,200100.0
2009-11-30,201100.0
2009-10-31,201800.0
2009-09-30,203000.0
2009-08-31,203900.0
2009-07-31,204700.0
2009-06-30,206700.0
2009-05-31,208600.0
2009-04-30,208400.0
2009-03-31,207400.0
2009-02-28,206600.0
2009-01-31,204000.0
2008-12-31,201900.0
2008-11-30,201900.0
2008-10-31,202600.0
2008-09-30,202200.0
2008-08-31,202200.0
2008-07-31,202700.0
2008-06-30,204100.0
2008-05-31,205400.0
2008-04-30,206600.0
2008-03-31,207900.0
2008-02-29,208700.0
2008-01-31,208500.0
2007-12-31,207900.0
2007-11-30,207400.0
2007-10-31,207100.0
2007-09-30,207600.0
2007-08-31,208500.0
2007-07-31,209100.0
2007-06-30,209200.0
2007-05-31,209200.0
2007-04-30,208700.0
2007-03-31,207500.0
2007-02-28,206400.0
2007-01-31,206400.0
2006-12-31,207100.0
2006-11-30,207100.0
2006-10-31,206600.0
2006-09-30,206200.0
2006-08-31,205500.0
2006-07-31,204200.0
2006-06-30,201600.0
2006-05-31,198100.0
2006-04-30,194400.0
2006-03-31,190800.0
2006-02-28,188100.0
2006-01-31,185800.0
2005-12-31,183300.0
2005-11-30,180500.0
2005-10-31,177000.0
2005-09-30,172900.0
2005-08-31,168800.0
2005-07-31,165000.0
2005-06-30,161800.0
2005-05-31,159300.0
2005-04-30,157100.0
2005-03-31,155300.0
2005-02-28,153500.0
2005-01-31,152000.0
2004-12-31,150600.0
2004-11-30,149300.0
2004-10-31,147700.0
2004-09-30,146200.0
2004-08-31,144900.0
2004-07-31,144000.0
2004-06-30,143300.0
2004-05-31,142900.0
2004-04-30,142500.0
2004-03-31,141900.0
2004-02-29,141500.0
2004-01-31,141200.0
2003-12-31,140300.0
2003-11-30,139400.0
2003-10-31,138700.0
2003-09-30,137700.0
2003-08-31,136500.0
2003-07-31,135400.0
2003-06-30,133900.0
2003-05-31,132700.0
2003-04-30,131900.0
2003-03-31,131400.0
2003-02-28,130700.0
2003-01-31,130000.0
2002-12-31,129200.0
2002-11-30,128800.0
2002-10-31,128400.0
2002-09-30,128100.0
2002-08-31,127800.0
2002-07-31,127300.0
2002-06-30,127200.0
2002-05-31,127300.0
2002-04-30,127500.0
2002-03-31,127400.0
2002-02-28,126800.0
2002-01-31,126500.0
2001-12-31,126700.0
2001-11-30,126400.0
2001-10-31,125300.0
2001-09-30,123800.0
2001-08-31,122600.0
2001-07-31,122300.0
2001-06-30,122100.0
2001-05-31,121600.0
2001-04-30,121000.0
2001-03-31,120200.0
2001-02-28,119100.0
2001-01-31,118000.0
2000-12-31,117300.0
2000-11-30,117000.0
2000-10-31,117300.0
2000-09-30,118200.0
2000-08-31,118900.0
2000-07-31,118900.0
2000-06-30,118600.0
2000-05-31,119200.0
2000-04-30,120000.0
2000-03-31,120600.0
2000-02-29,121100.0
2000-01-31,121200.0
1999-12-31,120300.0
1999-11-30,118900.0
1999-10-31,117900.0
1999-09-30,117500.0
1999-08-31,117500.0
1999-07-31,117500.0
1999-06-30,117100.0
1999-05-31,116200.0
1999-04-30,114800.0
1999-03-31,113700.0
1999-02-28,113100.0
1999-01-31,112800.0
1998-12-31,112400.0
1998-11-30,112100.0
1998-10-31,112000.0
1998-09-30,112100.0
1998-08-31,112300.0
1998-07-31,112900.0
1998-06-30,113100.0
1998-05-31,112600.0
1998-04-30,112200.0
1998-03-31,111900.0
1998-02-28,111500.0
1998-01-31,111300.0
1997-12-31,111700.0
1997-11-30,112000.0
1997-10-31,112300.0
1997-09-30,113000.0
1997-08-31,113600.0
1997-07-31,113900.0
1997-06-30,114200.0
1997-05-31,114600.0
1997-04-30,114500.0
1997-03-31,114300.0
1997-02-28,114400.0
1997-01-31,114900.0
1996-12-31,115100.0
1996-11-30,115300.0
1996-10-31,115600.0
1996-09-30,115700.0
1996-08-31,115700.0
1996-07-31,115900.0
1996-06-30,116400.0
1996-05-31,117000.0
1996-04-30,117800.0
