Date,Value
2015-09-30,562700.0
2015-08-31,559300.0
2015-07-31,557400.0
2015-06-30,565500.0
2015-05-31,567400.0
2015-04-30,559000.0
2015-03-31,547800.0
2015-02-28,538000.0
2015-01-31,533100.0
2014-12-31,528400.0
2014-11-30,524300.0
2014-10-31,521600.0
2014-09-30,519800.0
2014-08-31,518000.0
2014-07-31,515500.0
2014-06-30,513100.0
2014-05-31,508500.0
2014-04-30,502800.0
2014-03-31,499200.0
2014-02-28,499000.0
2014-01-31,498200.0
2013-12-31,496600.0
2013-11-30,493400.0
2013-10-31,487200.0
2013-09-30,480200.0
2013-08-31,474300.0
2013-07-31,467200.0
2013-06-30,458700.0
2013-05-31,452900.0
2013-04-30,449500.0
2013-03-31,445700.0
2013-02-28,440900.0
2013-01-31,436800.0
2012-12-31,434400.0
2012-11-30,432600.0
2012-10-31,430400.0
2012-09-30,427400.0
2012-08-31,424400.0
2012-07-31,422600.0
2012-06-30,421800.0
2012-05-31,419500.0
2012-04-30,416100.0
2012-03-31,412900.0
2012-02-29,409600.0
2012-01-31,406300.0
2011-12-31,404900.0
2011-11-30,404200.0
2011-10-31,403200.0
2011-09-30,402800.0
2011-08-31,404500.0
2011-07-31,406900.0
2011-06-30,408800.0
2011-05-31,409400.0
2011-04-30,410500.0
2011-03-31,411900.0
2011-02-28,413600.0
2011-01-31,415200.0
2010-12-31,416300.0
2010-11-30,416800.0
2010-10-31,418800.0
2010-09-30,423100.0
2010-08-31,427800.0
2010-07-31,431900.0
2010-06-30,434400.0
2010-05-31,435900.0
2010-04-30,438400.0
2010-03-31,442500.0
2010-02-28,444700.0
2010-01-31,443700.0
2009-12-31,441400.0
2009-11-30,441100.0
2009-10-31,442600.0
2009-09-30,444200.0
2009-08-31,444700.0
2009-07-31,445800.0
2009-06-30,448400.0
2009-05-31,452900.0
2009-04-30,459500.0
2009-03-31,467500.0
2009-02-28,475000.0
2009-01-31,481000.0
2008-12-31,486000.0
2008-11-30,489800.0
2008-10-31,492800.0
2008-09-30,495600.0
2008-08-31,497200.0
2008-07-31,499400.0
2008-06-30,503700.0
2008-05-31,509000.0
2008-04-30,511600.0
2008-03-31,514500.0
2008-02-29,520700.0
2008-01-31,527400.0
2007-12-31,532700.0
2007-11-30,537500.0
2007-10-31,541000.0
2007-09-30,542500.0
2007-08-31,543400.0
2007-07-31,541900.0
2007-06-30,539000.0
2007-05-31,536200.0
2007-04-30,533400.0
2007-03-31,529200.0
2007-02-28,523800.0
2007-01-31,519100.0
2006-12-31,516100.0
2006-11-30,512100.0
2006-10-31,507800.0
2006-09-30,505300.0
2006-08-31,504100.0
2006-07-31,501400.0
2006-06-30,496100.0
2006-05-31,488700.0
2006-04-30,481300.0
2006-03-31,476500.0
2006-02-28,473900.0
2006-01-31,470200.0
2005-12-31,465600.0
2005-11-30,462000.0
2005-10-31,458200.0
2005-09-30,452000.0
2005-08-31,445800.0
2005-07-31,441900.0
2005-06-30,438700.0
2005-05-31,435700.0
2005-04-30,431000.0
2005-03-31,422400.0
2005-02-28,413000.0
2005-01-31,407600.0
2004-12-31,402400.0
2004-11-30,396000.0
2004-10-31,390600.0
2004-09-30,387300.0
2004-08-31,384000.0
2004-07-31,381000.0
2004-06-30,378700.0
2004-05-31,375100.0
2004-04-30,371000.0
2004-03-31,367600.0
2004-02-29,364200.0
2004-01-31,360200.0
2003-12-31,357900.0
2003-11-30,356800.0
2003-10-31,355200.0
2003-09-30,352300.0
2003-08-31,348800.0
2003-07-31,345100.0
2003-06-30,342800.0
2003-05-31,342700.0
2003-04-30,342900.0
2003-03-31,342200.0
2003-02-28,340300.0
2003-01-31,337600.0
2002-12-31,335000.0
2002-11-30,332800.0
2002-10-31,331400.0
2002-09-30,331100.0
2002-08-31,330600.0
2002-07-31,328800.0
2002-06-30,325600.0
2002-05-31,322300.0
2002-04-30,319300.0
2002-03-31,317000.0
2002-02-28,315400.0
2002-01-31,314900.0
2001-12-31,315300.0
2001-11-30,315700.0
2001-10-31,315100.0
2001-09-30,313900.0
2001-08-31,313300.0
2001-07-31,313700.0
2001-06-30,314300.0
2001-05-31,314000.0
2001-04-30,313600.0
2001-03-31,313600.0
2001-02-28,313400.0
2001-01-31,311700.0
2000-12-31,309900.0
2000-11-30,308600.0
2000-10-31,307700.0
2000-09-30,306300.0
2000-08-31,305100.0
2000-07-31,304100.0
2000-06-30,303000.0
2000-05-31,301200.0
2000-04-30,298500.0
2000-03-31,296400.0
2000-02-29,295600.0
2000-01-31,294500.0
1999-12-31,291300.0
1999-11-30,286700.0
1999-10-31,282300.0
1999-09-30,279200.0
1999-08-31,276200.0
1999-07-31,272700.0
1999-06-30,269600.0
1999-05-31,267000.0
1999-04-30,264600.0
1999-03-31,262600.0
1999-02-28,261100.0
1999-01-31,259600.0
1998-12-31,258200.0
1998-11-30,257500.0
1998-10-31,256900.0
1998-09-30,255300.0
1998-08-31,252800.0
1998-07-31,249900.0
1998-06-30,245300.0
1998-05-31,241500.0
1998-04-30,240000.0
1998-03-31,239300.0
1998-02-28,237200.0
1998-01-31,234700.0
1997-12-31,232900.0
1997-11-30,231200.0
1997-10-31,229500.0
1997-09-30,227500.0
1997-08-31,224600.0
1997-07-31,221600.0
1997-06-30,219100.0
1997-05-31,217300.0
1997-04-30,216500.0
1997-03-31,215500.0
1997-02-28,213800.0
1997-01-31,212100.0
1996-12-31,210100.0
1996-11-30,207300.0
1996-10-31,204500.0
1996-09-30,202200.0
1996-08-31,200600.0
1996-07-31,200100.0
1996-06-30,200300.0
1996-05-31,200800.0
1996-04-30,201200.0
