Date,Value
2015-02-28,239000.0
2015-01-31,239000.0
2014-12-31,239000.0
2014-11-30,229000.0
2014-10-31,179900.0
2014-09-30,179900.0
2014-08-31,179900.0
2014-07-31,175000.0
2014-06-30,175000.0
2014-05-31,179900.0
2014-04-30,175000.0
2014-03-31,159900.0
2014-02-28,169000.0
2013-09-30,179900.0
2013-08-31,195000.0
2013-07-31,200000.0
2013-06-30,200000.0
2013-05-31,200000.0
2013-04-30,200000.0
2013-03-31,189000.0
2013-02-28,200000.0
2013-01-31,245000.0
2012-12-31,200000.0
2012-11-30,245000.0
2012-10-31,245000.0
2012-09-30,249750.0
2012-06-30,227500.0
2012-05-31,199000.0
2012-04-30,269450.0
2012-03-31,269000.0
2012-02-29,449000.0
2012-01-31,449000.0
2011-11-30,259000.0
2011-10-31,199000.0
2011-09-30,259000.0
2011-08-31,345000.0
2010-05-31,219000.0
2010-04-30,200000.0
2010-03-31,200000.0
2010-02-28,200000.0
2010-01-31,219000.0
2009-10-31,219000.0
2009-08-31,219000.0
