Date,Value
2015-09-30,1.276
2015-08-31,1.266
2015-07-31,1.258
2015-06-30,1.25
2015-05-31,1.246
2015-04-30,1.244
2015-03-31,1.242
2015-02-28,1.232
2015-01-31,1.224
2014-12-31,1.214
2014-11-30,1.206
2014-10-31,1.192
2014-09-30,1.178
2014-08-31,1.166
2014-07-31,1.158
2014-06-30,1.156
2014-05-31,1.156
2014-04-30,1.154
2014-03-31,1.154
2014-02-28,1.152
2014-01-31,1.15
2013-12-31,1.142
2013-11-30,1.136
2013-10-31,1.124
2013-09-30,1.12
2013-08-31,1.114
2013-07-31,1.108
2013-06-30,1.096
2013-05-31,1.088
2013-04-30,1.08
2013-03-31,1.072
2013-02-28,1.06
2013-01-31,1.054
2012-12-31,1.052
2012-11-30,1.05
2012-10-31,1.052
2012-09-30,1.054
2012-08-31,1.058
2012-07-31,1.054
2012-06-30,1.048
2012-05-31,1.034
2012-04-30,1.022
2012-03-31,1.016
2012-02-29,1.016
2012-01-31,1.016
2011-12-31,1.018
2011-11-30,1.016
2011-10-31,1.008
2011-09-30,1.0
2011-08-31,0.994
2011-07-31,0.99
2011-06-30,0.988
2011-05-31,0.988
2011-04-30,0.984
2011-03-31,0.976
2011-02-28,0.972
2011-01-31,0.962
2010-12-31,0.954
2010-11-30,0.944
