Date,Value
2015-09-30,318800.0
2015-08-31,317800.0
2015-07-31,317000.0
2015-06-30,320800.0
2015-05-31,321900.0
2015-04-30,315900.0
2015-03-31,310300.0
2015-02-28,307100.0
2015-01-31,307300.0
2014-12-31,305600.0
2014-11-30,301800.0
2014-10-31,297400.0
2014-09-30,295800.0
2014-08-31,296900.0
2014-07-31,297100.0
2014-06-30,294300.0
2014-05-31,289500.0
2014-04-30,285200.0
2014-03-31,283500.0
2014-02-28,283000.0
2014-01-31,280700.0
2013-12-31,277200.0
2013-11-30,276900.0
2013-10-31,279100.0
2013-09-30,279100.0
2013-08-31,275100.0
2013-07-31,270100.0
2013-06-30,263900.0
2013-05-31,256700.0
2013-04-30,251700.0
2013-03-31,249400.0
2013-02-28,247000.0
2013-01-31,244800.0
2012-12-31,243400.0
2012-11-30,241300.0
2012-10-31,238600.0
2012-09-30,237000.0
2012-08-31,235300.0
2012-07-31,232200.0
2012-06-30,229500.0
2012-05-31,227800.0
2012-04-30,225400.0
2012-03-31,222700.0
2012-02-29,221400.0
2012-01-31,221100.0
2011-12-31,224000.0
2011-11-30,228500.0
2011-10-31,231200.0
2011-09-30,231100.0
2011-08-31,231500.0
2011-07-31,233200.0
2011-06-30,236300.0
2011-05-31,239700.0
2011-04-30,242100.0
2011-03-31,244600.0
2011-02-28,246900.0
2011-01-31,248700.0
2010-12-31,249800.0
2010-11-30,250700.0
2010-10-31,251500.0
2010-09-30,252500.0
2010-08-31,254500.0
2010-07-31,257600.0
2010-06-30,260800.0
2010-05-31,263800.0
2010-04-30,266600.0
2010-03-31,269900.0
2010-02-28,272500.0
2010-01-31,274500.0
2009-12-31,275900.0
2009-11-30,277200.0
2009-10-31,277900.0
2009-09-30,278100.0
2009-08-31,277800.0
2009-07-31,277700.0
2009-06-30,278700.0
2009-05-31,281800.0
2009-04-30,285900.0
2009-03-31,289300.0
2009-02-28,292800.0
2009-01-31,296800.0
2008-12-31,299700.0
2008-11-30,302600.0
2008-10-31,306900.0
2008-09-30,311000.0
2008-08-31,314600.0
2008-07-31,319600.0
2008-06-30,324900.0
2008-05-31,328900.0
2008-04-30,334700.0
2008-03-31,340300.0
2008-02-29,343800.0
2008-01-31,346100.0
2007-12-31,346600.0
2007-11-30,343900.0
2007-10-31,342000.0
2007-09-30,342900.0
2007-08-31,344400.0
2007-07-31,345600.0
2007-06-30,347400.0
2007-05-31,347600.0
2007-04-30,342500.0
2007-03-31,335300.0
2007-02-28,328800.0
2007-01-31,322100.0
2006-12-31,315900.0
2006-11-30,311700.0
2006-10-31,307600.0
2006-09-30,303300.0
2006-08-31,300200.0
2006-07-31,296900.0
2006-06-30,291800.0
2006-05-31,284900.0
2006-04-30,279900.0
2006-03-31,276300.0
2006-02-28,272300.0
2006-01-31,267600.0
2005-12-31,264800.0
2005-11-30,262300.0
2005-10-31,259200.0
2005-09-30,254500.0
2005-08-31,248900.0
2005-07-31,243800.0
2005-06-30,240000.0
2005-05-31,237000.0
2005-04-30,233700.0
2005-03-31,230600.0
2005-02-28,228600.0
2005-01-31,228100.0
2004-12-31,227500.0
2004-11-30,225600.0
2004-10-31,224800.0
2004-09-30,225400.0
2004-08-31,224700.0
2004-07-31,220800.0
2004-06-30,216900.0
2004-05-31,214600.0
2004-04-30,213200.0
2004-03-31,211600.0
2004-02-29,210100.0
2004-01-31,208000.0
2003-12-31,205300.0
2003-11-30,203200.0
2003-10-31,201200.0
2003-09-30,198900.0
2003-08-31,197100.0
2003-07-31,196500.0
2003-06-30,196300.0
2003-05-31,195900.0
2003-04-30,195700.0
2003-03-31,195400.0
2003-02-28,194600.0
2003-01-31,193400.0
2002-12-31,192900.0
2002-11-30,194400.0
2002-10-31,194500.0
2002-09-30,192800.0
2002-08-31,192600.0
2002-07-31,193900.0
2002-06-30,193500.0
2002-05-31,192100.0
2002-04-30,191400.0
2002-03-31,190800.0
2002-02-28,189600.0
2002-01-31,188600.0
2001-12-31,188600.0
2001-11-30,187100.0
2001-10-31,184800.0
2001-09-30,184300.0
2001-08-31,184600.0
2001-07-31,183800.0
2001-06-30,183400.0
2001-05-31,183900.0
2001-04-30,184300.0
2001-03-31,184000.0
2001-02-28,182300.0
2001-01-31,180600.0
2000-12-31,179700.0
2000-11-30,178700.0
2000-10-31,177100.0
2000-09-30,176700.0
2000-08-31,176100.0
2000-07-31,175500.0
2000-06-30,175500.0
2000-05-31,175700.0
2000-04-30,174600.0
2000-03-31,173100.0
2000-02-29,172700.0
2000-01-31,173200.0
1999-12-31,173700.0
1999-11-30,173700.0
1999-10-31,173000.0
1999-09-30,171600.0
1999-08-31,170200.0
1999-07-31,167700.0
1999-06-30,164600.0
1999-05-31,162500.0
1999-04-30,160700.0
1999-03-31,161600.0
1999-02-28,165000.0
1999-01-31,167000.0
1998-12-31,163900.0
1998-11-30,161400.0
1998-10-31,161700.0
1998-09-30,163000.0
1998-08-31,161700.0
1998-07-31,159100.0
1998-06-30,156800.0
1998-05-31,155900.0
1998-04-30,155000.0
1998-03-31,152800.0
1998-02-28,149700.0
1998-01-31,146700.0
1997-12-31,144000.0
1997-11-30,142600.0
1997-10-31,142300.0
1997-09-30,142300.0
1997-08-31,143100.0
1997-07-31,143700.0
1997-06-30,143800.0
1997-05-31,142100.0
1997-04-30,140100.0
1997-03-31,139600.0
1997-02-28,139400.0
1997-01-31,138400.0
1996-12-31,138500.0
1996-11-30,138800.0
1996-10-31,138800.0
1996-09-30,136900.0
1996-08-31,134900.0
1996-07-31,135800.0
1996-06-30,138100.0
1996-05-31,138100.0
1996-04-30,138300.0
