Date,Value
2015-09-30,378525.0
2015-08-31,367975.0
2015-07-31,370300.0
2015-06-30,359942.5
2015-05-31,349415.0
2015-04-30,329635.0
2015-03-31,341425.0
2015-02-28,320800.0
2015-01-31,333025.0
2014-12-31,335725.0
2014-11-30,342592.5
2014-10-31,340907.5
2014-09-30,340775.0
2014-08-31,337998.5
2014-07-31,349246.5
2014-06-30,351520.0
2014-05-31,348925.0
2014-04-30,343280.0
2014-03-31,335620.0
2014-02-28,311875.0
2014-01-31,314725.0
2013-12-31,320000.0
2013-11-30,347932.25
2013-10-31,356225.25
2013-09-30,326500.0
2013-08-31,325859.7
2013-07-31,310771.8
2013-06-30,309974.0
2013-05-31,299850.0
2013-04-30,286632.1
2013-03-31,281499.9
2013-02-28,275982.0
2013-01-31,257750.0
2012-12-31,258150.0
2012-11-30,271079.9
2012-10-31,282803.1
2012-09-30,280083.0
2012-08-31,272500.0
2012-07-31,263548.0
2012-06-30,268612.0
2012-05-31,264660.0
2012-04-30,264750.0
2012-03-31,263000.0
2012-02-29,247535.0
2012-01-31,251965.0
2011-12-31,271450.0
2011-11-30,269000.0
2011-10-31,272600.0
2011-09-30,276891.25
2011-08-31,277596.25
2011-07-31,286496.45
2011-06-30,282887.55
2011-05-31,294821.5
2011-04-30,284074.25
2011-03-31,306747.5
2011-02-28,302345.75
2011-01-31,313142.5
2010-12-31,324907.5
2010-11-30,292300.0
2010-10-31,290749.85
2010-09-30,304899.65
2010-08-31,292474.5
2010-07-31,299617.5
2010-06-30,297532.5
2010-05-31,293155.0
2010-04-30,283612.5
2010-03-31,281067.5
2010-02-28,291940.0
2010-01-31,302200.0
2009-12-31,293750.0
2009-11-30,296625.0
2009-10-31,292617.5
2009-09-30,305532.5
2009-08-31,305075.0
2009-07-31,312592.5
2009-06-30,315725.0
2009-05-31,320207.5
2009-04-30,305361.95
2009-03-31,295096.85
2009-02-28,302012.7
2009-01-31,326893.5
2008-12-31,348805.0
2008-11-30,337500.0
2008-10-31,341500.0
2008-09-30,352389.0
2008-08-31,363857.25
2008-07-31,360551.25
2008-06-30,362637.5
2008-05-31,364030.0
2008-04-30,361870.0
2008-03-31,368550.0
2008-02-29,364654.9
2008-01-31,349528.1
2007-12-31,343533.0
2007-11-30,358880.0
2007-10-31,372370.0
2007-09-30,385150.0
2007-08-31,387692.5
2007-07-31,391757.5
2007-06-30,389550.0
2007-05-31,370642.5
2007-04-30,391256.0
2007-03-31,393296.5
2007-02-28,403577.8
2007-01-31,400393.2
2006-12-31,417226.0
2006-11-30,398375.0
2006-10-31,399875.0
2006-09-30,403342.5
2006-08-31,383367.5
2006-07-31,380560.0
2006-06-30,365072.5
2006-05-31,362732.5
2006-04-30,369329.25
2006-03-31,379688.15
2006-02-28,375134.9
2006-01-31,357445.25
2005-12-31,331253.95
2005-11-30,316408.5
2005-10-31,313955.0
2005-09-30,327245.0
2005-08-31,325025.0
2005-07-31,309742.5
2005-06-30,301782.5
2005-05-31,291917.5
2005-04-30,287882.5
2005-03-31,271317.5
2005-02-28,268482.5
2005-01-31,269375.0
2004-12-31,277250.0
2004-11-30,273342.5
2004-10-31,271682.5
2004-09-30,272987.25
2004-08-31,274495.1
2004-07-31,268607.15
2004-06-30,263888.25
2004-05-31,258666.25
2004-04-30,259370.0
2004-03-31,254500.0
2004-02-29,247286.0
2004-01-31,244734.0
2003-12-31,242270.0
2003-11-30,244050.0
2003-10-31,242550.0
2003-09-30,247948.5
2003-08-31,254371.5
2003-07-31,244070.0
2003-06-30,245025.0
2003-05-31,251332.05
2003-04-30,253758.95
2003-03-31,243631.15
2003-02-28,242485.35
2003-01-31,239898.6
2002-12-31,235793.9
2002-11-30,232617.4
2002-10-31,234191.1
2002-09-30,243134.5
2002-08-31,242630.0
2002-07-31,242030.0
2002-06-30,238350.0
2002-05-31,229700.0
2002-04-30,225502.5
2002-03-31,225515.0
2002-02-28,232900.0
2002-01-31,228957.5
2001-12-31,229942.5
2001-11-30,227492.5
2001-10-31,219782.5
2001-09-30,231332.5
2001-08-31,226525.0
2001-07-31,225930.0
2001-06-30,229920.0
2001-05-31,232042.5
2001-04-30,218182.5
2001-03-31,203025.0
2001-02-28,210000.0
2001-01-31,220600.0
2000-12-31,216325.0
2000-11-30,216525.0
2000-10-31,212550.0
2000-09-30,214992.5
2000-08-31,221832.5
2000-07-31,230125.0
2000-06-30,212305.0
2000-05-31,203795.0
2000-04-30,210800.0
2000-03-31,205525.0
2000-02-29,198475.0
2000-01-31,191500.0
1999-12-31,187975.0
1999-11-30,190875.0
1999-10-31,197800.0
1999-09-30,198200.0
1999-08-31,202399.25
1999-07-31,207365.75
1999-06-30,199140.0
1999-05-31,190940.0
1999-04-30,192450.0
1999-03-31,192735.0
1999-02-28,188207.5
1999-01-31,180182.5
1998-12-31,179567.5
1998-11-30,176375.0
1998-10-31,181950.0
1998-09-30,181382.5
1998-08-31,185925.0
1998-07-31,190642.5
1998-06-30,188957.5
1998-05-31,178717.5
1998-04-30,176632.5
1998-03-31,169545.0
1998-02-28,172780.0
1998-01-31,167735.0
1997-12-31,165096.25
1997-11-30,164381.25
1997-10-31,172105.0
1997-09-30,177239.5
1997-08-31,179658.0
1997-07-31,180790.0
1997-06-30,171400.0
1997-05-31,166700.0
1997-04-30,163100.0
1997-03-31,160442.5
1997-02-28,158857.5
1997-01-31,161127.5
1996-12-31,161146.0
1996-11-30,159621.5
1996-10-31,159293.5
1996-09-30,165046.5
1996-08-31,166692.0
1996-07-31,165843.0
1996-06-30,158952.25
1996-05-31,158345.25
1996-04-30,158982.5
