Date,Value
2015-03-31,950.0
2015-02-28,950.0
2015-01-31,1250.0
2014-12-31,1250.0
2014-10-31,975.0
2014-09-30,1150.0
2014-08-31,1275.0
2014-07-31,1100.0
2014-05-31,950.0
2014-04-30,1000.0
2014-02-28,850.0
2013-07-31,850.0
2013-06-30,850.0
2012-11-30,1140.0
2012-10-31,1100.0
2012-09-30,1100.0
2012-08-31,1100.0
2012-07-31,1140.0
2011-03-31,775.0
2011-02-28,775.0
2010-12-31,1100.0
2010-11-30,1150.0
