Date,Value
2015-02-28,229900.0
2015-01-31,219900.0
2014-12-31,212000.0
2014-11-30,219900.0
2014-10-31,219900.0
2014-09-30,219900.0
2014-08-31,224900.0
2014-07-31,219000.0
2014-06-30,220000.0
2014-05-31,224900.0
2014-04-30,219000.0
2014-03-31,214900.0
2014-02-28,215000.0
2014-01-31,220000.0
2013-12-31,229900.0
2013-11-30,230000.0
2013-10-31,229900.0
2013-09-30,220000.0
2013-08-31,229900.0
2013-07-31,224900.0
2013-06-30,228000.0
2013-05-31,223900.0
2013-04-30,219900.0
2013-03-31,201160.0
2013-02-28,192000.0
2013-01-31,189000.0
2012-12-31,179900.0
2012-11-30,175000.0
2012-10-31,169900.0
2012-09-30,185000.0
2012-08-31,189900.0
2012-07-31,190000.0
2012-06-30,189900.0
2012-05-31,190000.0
2012-04-30,189947.0
2012-03-31,206000.0
2012-02-29,192000.0
2012-01-31,196500.0
2011-12-31,189900.0
2011-11-30,196900.0
2011-10-31,179900.0
2011-09-30,179900.0
2011-08-31,184000.0
2011-07-31,179000.0
2011-06-30,189800.0
2011-05-31,179900.0
2011-04-30,189900.0
2011-03-31,191900.0
2011-02-28,189900.0
2011-01-31,195000.0
2010-12-31,199900.0
2010-11-30,200000.0
2010-10-31,195900.0
2010-09-30,195900.0
2010-08-31,195900.0
2010-07-31,199999.0
2010-06-30,209000.0
2010-05-31,209900.0
2010-04-30,210900.0
2010-03-31,210000.0
2010-02-28,215000.0
2010-01-31,220000.0
2009-12-31,224900.0
2009-11-30,224900.0
2009-10-31,228284.0
2009-09-30,230000.0
2009-08-31,229900.0
2009-07-31,230000.0
2009-06-30,236900.0
2009-05-31,234900.0
2009-04-30,236900.0
2009-03-31,234500.0
2009-02-28,234900.0
2009-01-31,239900.0
2008-12-31,249900.0
2008-11-30,249900.0
2008-10-31,249900.0
