Date,Value
2015-09-30,119700.0
2015-08-31,114800.0
2015-07-31,113300.0
2015-06-30,112000.0
2015-05-31,111800.0
2015-04-30,111500.0
2015-03-31,109500.0
2015-02-28,107000.0
2015-01-31,105400.0
2014-12-31,105100.0
2014-11-30,105200.0
2014-10-31,105300.0
2014-09-30,106200.0
2014-08-31,107700.0
2014-07-31,109300.0
2014-06-30,110500.0
2014-05-31,111700.0
2014-04-30,113000.0
2014-03-31,113800.0
2014-02-28,114700.0
2014-01-31,115700.0
2013-12-31,115700.0
2013-11-30,115000.0
2013-10-31,114700.0
2013-09-30,114100.0
2013-08-31,114000.0
2013-07-31,114500.0
2013-06-30,114200.0
2013-05-31,110400.0
2013-04-30,105800.0
2013-03-31,103900.0
2013-02-28,104400.0
2013-01-31,104200.0
2012-12-31,104200.0
2012-11-30,103600.0
2012-10-31,103300.0
2012-09-30,104000.0
2012-08-31,104700.0
2012-07-31,105000.0
2012-06-30,106200.0
2012-05-31,107900.0
2012-04-30,109200.0
2012-03-31,110800.0
2012-02-29,112400.0
2012-01-31,113100.0
2011-12-31,113200.0
2011-11-30,112900.0
2011-10-31,112300.0
2011-09-30,112200.0
2011-08-31,112400.0
2011-07-31,113100.0
2011-06-30,113800.0
2011-05-31,113600.0
2011-04-30,113800.0
2011-03-31,115100.0
2011-02-28,116400.0
2011-01-31,117400.0
2010-12-31,118300.0
2010-11-30,119000.0
2010-10-31,120400.0
2010-09-30,122300.0
2010-08-31,123500.0
2010-07-31,123500.0
2010-06-30,123300.0
2010-05-31,124100.0
2010-04-30,125800.0
2010-03-31,126600.0
2010-02-28,126900.0
2010-01-31,128400.0
2009-12-31,130000.0
2009-11-30,131100.0
2009-10-31,131800.0
2009-09-30,132400.0
2009-08-31,132500.0
2009-07-31,132600.0
2009-06-30,132500.0
2009-05-31,132400.0
2009-04-30,131400.0
2009-03-31,130900.0
2009-02-28,131400.0
2009-01-31,132100.0
2008-12-31,132000.0
2008-11-30,132000.0
2008-10-31,132400.0
2008-09-30,133300.0
2008-08-31,133900.0
2008-07-31,134200.0
2008-06-30,134600.0
2008-05-31,135300.0
2008-04-30,136200.0
2008-03-31,137000.0
2008-02-29,137100.0
2008-01-31,136800.0
2007-12-31,136300.0
2007-11-30,135900.0
2007-10-31,135900.0
2007-09-30,136100.0
2007-08-31,135700.0
2007-07-31,135700.0
2007-06-30,136700.0
2007-05-31,138400.0
2007-04-30,139300.0
2007-03-31,138500.0
2007-02-28,136100.0
2007-01-31,133200.0
2006-12-31,133400.0
2006-11-30,136500.0
2006-10-31,137600.0
2006-09-30,135300.0
2006-08-31,134100.0
2006-07-31,133700.0
2006-06-30,133100.0
2006-05-31,131700.0
2006-04-30,129400.0
2006-03-31,127900.0
2006-02-28,127300.0
2006-01-31,126800.0
2005-12-31,125500.0
2005-11-30,122800.0
2005-10-31,119600.0
2005-09-30,117100.0
2005-08-31,114300.0
2005-07-31,111100.0
2005-06-30,107900.0
2005-05-31,104300.0
2005-04-30,101500.0
2005-03-31,99100.0
2005-02-28,98300.0
2005-01-31,98300.0
2004-12-31,98000.0
2004-11-30,97700.0
2004-10-31,98000.0
2004-09-30,98500.0
2004-08-31,98800.0
2004-07-31,98400.0
2004-06-30,97600.0
2004-05-31,97800.0
2004-04-30,98700.0
2004-03-31,99000.0
2004-02-29,98700.0
2004-01-31,97200.0
2003-12-31,96300.0
2003-11-30,95700.0
2003-10-31,94200.0
2003-09-30,92200.0
2003-08-31,91200.0
2003-07-31,89900.0
2003-06-30,88200.0
2003-05-31,87600.0
2003-04-30,86400.0
2003-03-31,84200.0
2003-02-28,81900.0
2003-01-31,81000.0
2002-12-31,79700.0
2002-11-30,78000.0
2002-10-31,76800.0
2002-09-30,76600.0
2002-08-31,76500.0
2002-07-31,76900.0
2002-06-30,76300.0
2002-05-31,74400.0
2002-04-30,73500.0
2002-03-31,74500.0
2002-02-28,75500.0
2002-01-31,75700.0
2001-12-31,75500.0
2001-11-30,75400.0
2001-10-31,75900.0
2001-09-30,75700.0
2001-08-31,75100.0
2001-07-31,76000.0
2001-06-30,78800.0
2001-05-31,80600.0
2001-04-30,81400.0
2001-03-31,81700.0
2001-02-28,83500.0
2001-01-31,84900.0
2000-12-31,85000.0
2000-11-30,84600.0
2000-10-31,84400.0
2000-09-30,84400.0
2000-08-31,84900.0
2000-07-31,85700.0
2000-06-30,85900.0
2000-05-31,85700.0
2000-04-30,85800.0
2000-03-31,87200.0
2000-02-29,87300.0
2000-01-31,86700.0
1999-12-31,86700.0
1999-11-30,86300.0
1999-10-31,85700.0
1999-09-30,85600.0
1999-08-31,85900.0
1999-07-31,84900.0
1999-06-30,84000.0
1999-05-31,84700.0
1999-04-30,86800.0
1999-03-31,87300.0
1999-02-28,85500.0
1999-01-31,84200.0
1998-12-31,83600.0
1998-11-30,83000.0
1998-10-31,82300.0
1998-09-30,82800.0
1998-08-31,82100.0
1998-07-31,81000.0
1998-06-30,80100.0
1998-05-31,80500.0
1998-04-30,80700.0
1998-03-31,79600.0
1998-02-28,77800.0
1998-01-31,77300.0
1997-12-31,77500.0
1997-11-30,78000.0
1997-10-31,79300.0
1997-09-30,79700.0
1997-08-31,79500.0
1997-07-31,78700.0
1997-06-30,78500.0
1997-05-31,78900.0
1997-04-30,78800.0
1997-03-31,78200.0
1997-02-28,78400.0
1997-01-31,78100.0
1996-12-31,77300.0
1996-11-30,77100.0
1996-10-31,77200.0
1996-09-30,78300.0
1996-08-31,79100.0
1996-07-31,79500.0
1996-06-30,79900.0
1996-05-31,79200.0
1996-04-30,77200.0
