Date,Value
2015-09-30,131800.0
2015-08-31,124300.0
2015-07-31,119300.0
2015-06-30,120300.0
2015-04-30,112700.0
2015-03-31,106800.0
2015-02-28,102800.0
2015-01-31,101900.0
2014-12-31,99700.0
2014-11-30,97900.0
2014-10-31,96800.0
2014-09-30,96700.0
2014-08-31,97900.0
2014-07-31,100900.0
2014-06-30,101800.0
2014-05-31,103100.0
2014-04-30,105600.0
2014-03-31,109000.0
2014-02-28,109900.0
2014-01-31,109800.0
2013-12-31,110100.0
2013-11-30,112400.0
2013-10-31,113300.0
2013-09-30,112800.0
2013-08-31,111700.0
2013-07-31,109200.0
2013-06-30,107400.0
2013-05-31,104500.0
2013-04-30,99600.0
2013-03-31,96100.0
2013-02-28,96300.0
2013-01-31,97600.0
2012-12-31,99600.0
2012-11-30,101900.0
2012-10-31,105500.0
2012-09-30,110700.0
2012-08-31,114800.0
2012-07-31,115300.0
2012-06-30,114500.0
2012-05-31,113400.0
2012-04-30,112900.0
2012-03-31,112700.0
2012-02-29,112700.0
2012-01-31,112400.0
2011-12-31,112300.0
2011-11-30,112300.0
2011-10-31,113300.0
2011-09-30,115200.0
2011-08-31,117100.0
2011-07-31,118600.0
2011-06-30,119200.0
2011-05-31,117400.0
2011-04-30,115900.0
2011-03-31,116600.0
2011-02-28,118800.0
2011-01-31,121500.0
2010-12-31,124400.0
2010-11-30,125100.0
2010-10-31,124200.0
2010-09-30,123300.0
2010-08-31,124100.0
2010-07-31,126900.0
2010-06-30,130300.0
2010-05-31,133000.0
2010-04-30,135800.0
2010-03-31,138600.0
2010-02-28,140200.0
2010-01-31,141100.0
2009-12-31,142500.0
2009-11-30,144800.0
2009-10-31,146800.0
2009-09-30,146800.0
2009-08-31,145400.0
2009-07-31,145300.0
2009-06-30,146300.0
2009-05-31,147200.0
2009-04-30,148800.0
2009-03-31,150500.0
2009-02-28,151700.0
2009-01-31,152100.0
2008-12-31,152400.0
2008-11-30,152900.0
2008-10-31,153800.0
2008-09-30,154800.0
2008-08-31,156200.0
2008-07-31,158400.0
2008-06-30,161100.0
2008-05-31,163900.0
2008-04-30,165700.0
2008-03-31,166400.0
2008-02-29,167000.0
2008-01-31,167100.0
2007-12-31,165900.0
2007-11-30,165400.0
2007-10-31,165200.0
2007-09-30,164700.0
2007-08-31,164600.0
2007-07-31,164900.0
2007-06-30,163700.0
2007-05-31,161800.0
2007-04-30,161400.0
2007-03-31,161300.0
2007-02-28,160000.0
2007-01-31,158500.0
2006-12-31,156800.0
2006-11-30,154100.0
2006-10-31,151200.0
2006-09-30,148900.0
2006-08-31,145600.0
2006-07-31,141000.0
2006-06-30,138100.0
2006-05-31,136900.0
2006-04-30,135000.0
2006-03-31,133200.0
2006-02-28,132100.0
2006-01-31,131700.0
2005-12-31,132200.0
2005-11-30,132700.0
2005-10-31,131900.0
2005-09-30,130400.0
2005-08-31,128400.0
2005-07-31,124900.0
2005-06-30,121300.0
2005-05-31,118600.0
2005-04-30,115800.0
2005-03-31,113300.0
2005-02-28,111200.0
2005-01-31,109200.0
2004-12-31,107100.0
2004-11-30,105400.0
2004-10-31,103900.0
2004-09-30,103400.0
2004-08-31,103200.0
2004-07-31,103000.0
2004-06-30,103500.0
2004-05-31,103700.0
2004-04-30,103600.0
2004-03-31,103600.0
2004-02-29,103900.0
2004-01-31,103000.0
2003-12-31,101400.0
2003-11-30,100300.0
2003-10-31,99600.0
2003-09-30,98600.0
2003-08-31,97700.0
2003-07-31,97600.0
2003-06-30,98100.0
2003-05-31,98400.0
2003-04-30,98300.0
2003-03-31,98200.0
2003-02-28,98200.0
2003-01-31,98200.0
2002-12-31,98300.0
2002-11-30,97300.0
2002-10-31,95600.0
2002-09-30,94200.0
2002-08-31,93200.0
2002-07-31,92100.0
2002-06-30,90800.0
2002-05-31,89700.0
2002-04-30,88800.0
2002-03-31,88100.0
2002-02-28,87600.0
2002-01-31,86700.0
2001-12-31,85900.0
2001-11-30,86100.0
2001-10-31,87000.0
2001-09-30,87100.0
2001-08-31,87300.0
2001-07-31,88100.0
2001-06-30,88100.0
2001-05-31,87500.0
2001-04-30,87600.0
2001-03-31,87100.0
2001-02-28,85900.0
2001-01-31,84800.0
2000-12-31,84000.0
2000-11-30,83100.0
2000-10-31,82500.0
2000-09-30,82400.0
2000-08-31,83200.0
2000-07-31,84100.0
2000-06-30,84000.0
2000-05-31,83100.0
2000-04-30,81500.0
2000-03-31,79900.0
2000-02-29,78800.0
2000-01-31,78300.0
1999-12-31,77100.0
1999-11-30,75300.0
1999-10-31,74200.0
1999-09-30,73900.0
1999-08-31,73600.0
1999-07-31,73000.0
1999-06-30,72000.0
1999-05-31,71500.0
1999-04-30,72200.0
1999-03-31,72500.0
1999-02-28,71900.0
1999-01-31,71500.0
1998-12-31,71800.0
1998-11-30,71900.0
1998-10-31,71500.0
1998-09-30,70700.0
1998-08-31,69900.0
1998-07-31,69500.0
1998-06-30,69300.0
1998-05-31,69200.0
1998-04-30,69600.0
1998-03-31,70100.0
1998-02-28,70000.0
1998-01-31,70000.0
1997-12-31,70600.0
1997-11-30,71200.0
1997-10-31,71000.0
1997-09-30,70300.0
1997-08-31,68800.0
1997-07-31,67200.0
1997-06-30,66400.0
1997-05-31,66300.0
1997-04-30,65600.0
1997-03-31,64900.0
1997-02-28,64800.0
1997-01-31,65000.0
1996-12-31,64900.0
1996-11-30,65400.0
1996-10-31,66900.0
1996-09-30,68200.0
1996-08-31,68200.0
1996-07-31,68100.0
1996-06-30,68700.0
1996-05-31,69200.0
1996-04-30,69000.0
