Date,Value
2015-09-30,242800.0
2015-08-31,239400.0
2015-07-31,238200.0
2015-06-30,238100.0
2015-05-31,236100.0
2015-04-30,235300.0
2015-03-31,235200.0
2015-02-28,234900.0
2015-01-31,234500.0
2014-12-31,234300.0
2014-11-30,234400.0
2014-10-31,234500.0
2014-09-30,234500.0
2014-08-31,234600.0
2014-07-31,234000.0
2014-06-30,233100.0
2014-05-31,233000.0
2014-04-30,231700.0
2014-03-31,229600.0
2014-02-28,229000.0
2014-01-31,229100.0
2013-12-31,228200.0
2013-11-30,228000.0
2013-10-31,228000.0
2013-09-30,227300.0
2013-08-31,225600.0
2013-07-31,223700.0
2013-06-30,221700.0
2013-05-31,219500.0
2013-04-30,217700.0
2013-03-31,217200.0
2013-02-28,217700.0
2013-01-31,218300.0
2012-12-31,218800.0
2012-11-30,218800.0
2012-10-31,218100.0
2012-09-30,217300.0
2012-08-31,216900.0
2012-07-31,216500.0
2012-06-30,216700.0
2012-05-31,217000.0
2012-04-30,217600.0
2012-03-31,218000.0
2012-02-29,218400.0
2012-01-31,218900.0
2011-12-31,219300.0
2011-11-30,218900.0
2011-10-31,218000.0
2011-09-30,217800.0
2011-08-31,218100.0
2011-07-31,218700.0
2011-06-30,219700.0
2011-05-31,221900.0
2011-04-30,224500.0
2011-03-31,226700.0
2011-02-28,227900.0
2011-01-31,228700.0
2010-12-31,229400.0
2010-11-30,230400.0
2010-10-31,231200.0
2010-09-30,232200.0
2010-08-31,232600.0
2010-07-31,232600.0
2010-06-30,232900.0
2010-05-31,233500.0
2010-04-30,233700.0
2010-03-31,233700.0
2010-02-28,234400.0
2010-01-31,235900.0
2009-12-31,237100.0
2009-11-30,238400.0
2009-10-31,240400.0
2009-09-30,242800.0
2009-08-31,245800.0
2009-07-31,249200.0
2009-06-30,252100.0
2009-05-31,254000.0
2009-04-30,255800.0
2009-03-31,257000.0
2009-02-28,257000.0
2009-01-31,256600.0
2008-12-31,257000.0
2008-11-30,257600.0
2008-10-31,258400.0
2008-09-30,258800.0
2008-08-31,259500.0
2008-07-31,261100.0
2008-06-30,263800.0
2008-05-31,265900.0
2008-04-30,267400.0
2008-03-31,268600.0
2008-02-29,269100.0
2008-01-31,268800.0
2007-12-31,269300.0
2007-11-30,270600.0
2007-10-31,272100.0
2007-09-30,273300.0
2007-08-31,273300.0
2007-07-31,271900.0
2007-06-30,270200.0
2007-05-31,269200.0
2007-04-30,268200.0
2007-03-31,266900.0
2007-02-28,265700.0
2007-01-31,264800.0
2006-12-31,263200.0
2006-11-30,260900.0
2006-10-31,259300.0
2006-09-30,259000.0
2006-08-31,259400.0
2006-07-31,259700.0
2006-06-30,258400.0
2006-05-31,256400.0
2006-04-30,255000.0
2006-03-31,254200.0
2006-02-28,253100.0
2006-01-31,252100.0
2005-12-31,250800.0
2005-11-30,249000.0
2005-10-31,245800.0
2005-09-30,241700.0
2005-08-31,237700.0
2005-07-31,234300.0
2005-06-30,230800.0
2005-05-31,226800.0
2005-04-30,221900.0
2005-03-31,217300.0
2005-02-28,213700.0
2005-01-31,210100.0
2004-12-31,206100.0
2004-11-30,202300.0
2004-10-31,198700.0
2004-09-30,194600.0
2004-08-31,189600.0
2004-07-31,184500.0
2004-06-30,181000.0
2004-05-31,178800.0
2004-04-30,177300.0
2004-03-31,176000.0
2004-02-29,174000.0
2004-01-31,171300.0
2003-12-31,168600.0
2003-11-30,166900.0
2003-10-31,165700.0
2003-09-30,164100.0
2003-08-31,162300.0
2003-07-31,161000.0
2003-06-30,159000.0
2003-05-31,155700.0
2003-04-30,152700.0
2003-03-31,150800.0
2003-02-28,149100.0
2003-01-31,147700.0
2002-12-31,146900.0
2002-11-30,145600.0
2002-10-31,144200.0
2002-09-30,143600.0
2002-08-31,143200.0
2002-07-31,143000.0
2002-06-30,143300.0
2002-05-31,143900.0
2002-04-30,144200.0
2002-03-31,143700.0
2002-02-28,142700.0
2002-01-31,142100.0
2001-12-31,141700.0
2001-11-30,140700.0
2001-10-31,139100.0
2001-09-30,137500.0
2001-08-31,136700.0
2001-07-31,135500.0
2001-06-30,134000.0
2001-05-31,132800.0
2001-04-30,131400.0
2001-03-31,130100.0
2001-02-28,129700.0
2001-01-31,130000.0
2000-12-31,130600.0
2000-11-30,130700.0
2000-10-31,130500.0
2000-09-30,131000.0
2000-08-31,132200.0
2000-07-31,132900.0
2000-06-30,132700.0
2000-05-31,132300.0
2000-04-30,132700.0
2000-03-31,133000.0
2000-02-29,133400.0
2000-01-31,133400.0
1999-12-31,132700.0
1999-11-30,132400.0
1999-10-31,133200.0
1999-09-30,133700.0
1999-08-31,133300.0
1999-07-31,132600.0
1999-06-30,132300.0
1999-05-31,132000.0
1999-04-30,131700.0
1999-03-31,131600.0
1999-02-28,131300.0
1999-01-31,130500.0
1998-12-31,130000.0
1998-11-30,130000.0
1998-10-31,129300.0
1998-09-30,127800.0
1998-08-31,127100.0
1998-07-31,126800.0
1998-06-30,126600.0
1998-05-31,126800.0
1998-04-30,127300.0
1998-03-31,127400.0
1998-02-28,127300.0
1998-01-31,127100.0
1997-12-31,126800.0
1997-11-30,126700.0
1997-10-31,127400.0
1997-09-30,128200.0
1997-08-31,128300.0
1997-07-31,128300.0
1997-06-30,128700.0
1997-05-31,129100.0
1997-04-30,128500.0
1997-03-31,127400.0
1997-02-28,126400.0
1997-01-31,125800.0
1996-12-31,125400.0
1996-11-30,125400.0
1996-10-31,125200.0
1996-09-30,125200.0
1996-08-31,125300.0
1996-07-31,125200.0
1996-06-30,125400.0
1996-05-31,125800.0
1996-04-30,126200.0
