Date,Value
2015-09-30,328900.0
2015-08-31,330100.0
2015-07-31,326700.0
2015-06-30,320400.0
2015-05-31,319100.0
2015-04-30,317400.0
2015-03-31,317300.0
2015-02-28,316000.0
2015-01-31,314000.0
2014-12-31,313400.0
2014-11-30,313700.0
2014-10-31,313100.0
2014-09-30,312300.0
2014-08-31,311200.0
2014-07-31,309800.0
2014-06-30,308600.0
2014-05-31,308300.0
2014-04-30,309400.0
2014-03-31,312100.0
2014-02-28,313800.0
2014-01-31,312600.0
2013-12-31,309400.0
2013-11-30,305400.0
2013-10-31,301300.0
2013-09-30,297200.0
2013-08-31,294100.0
2013-07-31,292100.0
2013-06-30,289900.0
2013-05-31,286800.0
2013-04-30,283700.0
2013-03-31,281500.0
2013-02-28,280700.0
2013-01-31,280400.0
2012-12-31,279500.0
2012-11-30,278300.0
2012-10-31,278500.0
2012-09-30,279700.0
2012-08-31,281100.0
2012-07-31,281800.0
2012-06-30,281700.0
2012-05-31,281300.0
2012-04-30,281500.0
2012-03-31,281800.0
2012-02-29,282000.0
2012-01-31,283300.0
2011-12-31,286800.0
2011-11-30,291300.0
2011-10-31,295700.0
2011-09-30,299700.0
2011-08-31,302900.0
2011-07-31,303900.0
2011-06-30,304300.0
2011-05-31,305700.0
2011-04-30,309200.0
2011-03-31,312300.0
2011-02-28,314400.0
2011-01-31,316400.0
2010-12-31,318200.0
2010-11-30,317800.0
2010-10-31,316400.0
2010-09-30,316600.0
2010-08-31,318800.0
2010-07-31,322600.0
2010-06-30,327300.0
2010-05-31,330300.0
2010-04-30,330300.0
2010-03-31,329900.0
2010-02-28,331900.0
2010-01-31,335400.0
2009-12-31,338200.0
2009-11-30,340100.0
2009-10-31,340000.0
2009-09-30,338100.0
2009-08-31,336000.0
2009-07-31,334700.0
2009-06-30,334100.0
2009-05-31,335100.0
2009-04-30,336600.0
2009-03-31,337200.0
2009-02-28,336200.0
2009-01-31,335200.0
2008-12-31,334600.0
2008-11-30,335200.0
2008-10-31,338400.0
2008-09-30,341600.0
2008-08-31,342800.0
2008-07-31,344900.0
2008-06-30,349600.0
2008-05-31,354600.0
2008-04-30,358000.0
2008-03-31,359800.0
2008-02-29,361300.0
2008-01-31,361800.0
2007-12-31,362800.0
2007-11-30,366800.0
2007-10-31,371600.0
2007-09-30,375500.0
2007-08-31,378600.0
2007-07-31,380700.0
2007-06-30,380500.0
2007-05-31,378700.0
2007-04-30,377800.0
2007-03-31,378700.0
2007-02-28,379700.0
2007-01-31,379200.0
2006-12-31,376900.0
2006-11-30,373900.0
2006-10-31,370600.0
2006-09-30,367600.0
2006-08-31,365200.0
2006-07-31,363200.0
2006-06-30,360600.0
2006-05-31,357900.0
2006-04-30,355200.0
2006-03-31,351800.0
2006-02-28,347500.0
2006-01-31,344500.0
2005-12-31,342900.0
2005-11-30,340000.0
2005-10-31,335700.0
2005-09-30,331200.0
2005-08-31,326600.0
2005-07-31,321200.0
2005-06-30,316500.0
2005-05-31,312400.0
2005-04-30,307900.0
2005-03-31,302100.0
2005-02-28,296300.0
2005-01-31,289900.0
2004-12-31,283600.0
2004-11-30,277500.0
2004-10-31,272400.0
2004-09-30,268800.0
2004-08-31,266200.0
2004-07-31,262700.0
2004-06-30,258100.0
2004-05-31,253400.0
2004-04-30,249000.0
2004-03-31,245000.0
2004-02-29,242000.0
2004-01-31,239900.0
2003-12-31,238800.0
2003-11-30,237600.0
2003-10-31,235900.0
2003-09-30,233500.0
2003-08-31,230800.0
2003-07-31,228600.0
2003-06-30,226500.0
2003-05-31,224400.0
2003-04-30,222400.0
2003-03-31,221300.0
2003-02-28,221000.0
2003-01-31,221500.0
2002-12-31,220900.0
2002-11-30,219400.0
2002-10-31,217300.0
2002-09-30,214900.0
2002-08-31,211500.0
2002-07-31,208300.0
2002-06-30,205600.0
2002-05-31,203800.0
2002-04-30,202800.0
2002-03-31,201900.0
2002-02-28,200000.0
2002-01-31,198300.0
2001-12-31,197000.0
2001-11-30,195500.0
2001-10-31,193700.0
2001-09-30,193200.0
2001-08-31,193600.0
2001-07-31,193500.0
2001-06-30,194000.0
2001-05-31,195400.0
2001-04-30,196300.0
2001-03-31,197800.0
2001-02-28,199600.0
2001-01-31,198900.0
2000-12-31,196800.0
2000-11-30,195900.0
2000-10-31,195500.0
2000-09-30,194500.0
2000-08-31,193000.0
2000-07-31,191600.0
2000-06-30,189500.0
2000-05-31,186200.0
2000-04-30,182700.0
2000-03-31,181200.0
2000-02-29,180300.0
2000-01-31,178600.0
1999-12-31,177100.0
1999-11-30,176900.0
1999-10-31,176600.0
1999-09-30,176700.0
1999-08-31,177700.0
1999-07-31,179100.0
1999-06-30,180000.0
1999-05-31,180700.0
1999-04-30,181400.0
1999-03-31,181600.0
1999-02-28,180500.0
1999-01-31,179000.0
1998-12-31,178300.0
1998-11-30,177900.0
1998-10-31,177200.0
1998-09-30,176100.0
1998-08-31,175100.0
1998-07-31,173900.0
1998-06-30,172700.0
1998-05-31,171600.0
1998-04-30,171600.0
1998-03-31,171300.0
1998-02-28,169800.0
1998-01-31,167500.0
1997-12-31,165500.0
1997-11-30,164500.0
1997-10-31,164500.0
1997-09-30,163700.0
1997-08-31,161900.0
1997-07-31,160800.0
1997-06-30,161100.0
1997-05-31,161700.0
1997-04-30,162100.0
1997-03-31,162800.0
1997-02-28,163100.0
1997-01-31,163100.0
1996-12-31,162800.0
1996-11-30,162800.0
1996-10-31,162400.0
1996-09-30,162900.0
1996-08-31,164100.0
1996-07-31,166000.0
1996-06-30,167300.0
1996-05-31,166700.0
1996-04-30,164500.0
