Date,Value
2015-02-28,228400.0
2015-01-31,224900.0
2014-12-31,205000.0
2014-11-30,219900.0
2014-10-31,220000.0
2014-09-30,219000.0
2014-08-31,224900.0
2014-07-31,220000.0
2014-06-30,219900.0
2014-05-31,215000.0
2014-04-30,220000.0
2014-03-31,220000.0
2014-02-28,220000.0
2014-01-31,220000.0
2013-12-31,220000.0
2013-11-30,220000.0
2013-10-31,219900.0
2013-09-30,214850.0
2013-08-31,220000.0
2013-07-31,210000.0
2013-06-30,210000.0
2013-05-31,210000.0
2013-04-30,199900.0
2013-03-31,184900.0
2013-02-28,180000.0
2013-01-31,180000.0
2012-12-31,189900.0
2012-11-30,193000.0
2012-10-31,184500.0
2012-09-30,179900.0
2012-08-31,174500.0
2012-07-31,169900.0
2012-06-30,169900.0
2012-05-31,169000.0
2012-04-30,170000.0
2012-03-31,165000.0
2012-02-29,159900.0
2012-01-31,165000.0
2011-12-31,164800.0
2011-11-30,157900.0
2011-10-31,164000.0
2011-09-30,164900.0
2011-08-31,164900.0
2011-07-31,164900.0
2011-06-30,164900.0
2011-05-31,169000.0
2011-04-30,165000.0
2011-03-31,165000.0
2011-02-28,164900.0
2011-01-31,169900.0
2010-12-31,174900.0
2010-11-30,179900.0
2010-10-31,170000.0
2010-09-30,174900.0
2010-08-31,174900.0
2010-07-31,179000.0
2010-06-30,179900.0
2010-05-31,180000.0
2010-04-30,179900.0
2010-03-31,179900.0
2010-02-28,179900.0
2010-01-31,189000.0
2009-12-31,194900.0
2009-11-30,197000.0
2009-10-31,200000.0
2009-09-30,209000.0
2009-08-31,199900.0
2009-07-31,200000.0
2009-06-30,199900.0
2009-05-31,209900.0
2009-04-30,209900.0
2009-03-31,212900.0
2009-02-28,217500.0
2009-01-31,220000.0
2008-12-31,224900.0
2008-11-30,229900.0
2008-10-31,229900.0
