Date,Value
2015-09-30,172100.0
2015-08-31,173600.0
2015-07-31,173800.0
2015-06-30,176000.0
2015-05-31,175400.0
2015-04-30,173600.0
2015-03-31,172800.0
2015-02-28,171500.0
2015-01-31,170700.0
2014-12-31,170500.0
2014-11-30,169500.0
2014-10-31,168800.0
2014-09-30,168700.0
2014-08-31,168300.0
2014-07-31,168200.0
2014-06-30,168700.0
2014-05-31,169100.0
2014-04-30,169400.0
2014-03-31,169600.0
2014-02-28,169600.0
2014-01-31,169100.0
2013-12-31,168300.0
2013-11-30,168100.0
2013-10-31,168000.0
2013-09-30,167600.0
2013-08-31,167400.0
2013-07-31,166900.0
2013-06-30,165200.0
2013-05-31,163500.0
2013-04-30,162600.0
2013-03-31,162500.0
2013-02-28,162500.0
2013-01-31,162500.0
2012-12-31,162400.0
2012-11-30,162500.0
2012-10-31,162600.0
2012-09-30,162300.0
2012-08-31,161900.0
2012-07-31,162000.0
2012-06-30,162700.0
2012-05-31,163300.0
2012-04-30,163100.0
2012-03-31,163000.0
2012-02-29,162800.0
2012-01-31,162200.0
2011-12-31,161700.0
2011-11-30,161600.0
2011-10-31,161800.0
2011-09-30,162000.0
2011-08-31,162000.0
2011-07-31,161800.0
2011-06-30,161500.0
2011-05-31,160800.0
2011-04-30,159800.0
2011-03-31,159900.0
2011-02-28,160900.0
2011-01-31,161800.0
2010-12-31,161900.0
2010-11-30,161700.0
2010-10-31,161400.0
2010-09-30,161900.0
2010-08-31,162300.0
2010-07-31,162400.0
2010-06-30,162400.0
2010-05-31,162600.0
2010-04-30,162300.0
2010-03-31,160900.0
2010-02-28,159000.0
2010-01-31,158400.0
2009-12-31,158900.0
2009-11-30,159500.0
2009-10-31,159600.0
2009-09-30,159500.0
2009-08-31,159300.0
2009-07-31,159300.0
2009-06-30,159500.0
2009-05-31,160000.0
2009-04-30,160700.0
2009-03-31,161400.0
2009-02-28,162100.0
2009-01-31,162400.0
2008-12-31,162600.0
2008-11-30,163000.0
2008-10-31,163800.0
2008-09-30,164100.0
2008-08-31,164000.0
2008-07-31,163700.0
2008-06-30,163300.0
2008-05-31,163000.0
2008-04-30,162400.0
2008-03-31,161500.0
2008-02-29,161400.0
2008-01-31,161400.0
2007-12-31,161300.0
2007-11-30,161400.0
2007-10-31,161800.0
2007-09-30,161800.0
2007-08-31,161500.0
2007-07-31,160600.0
2007-06-30,159600.0
2007-05-31,158200.0
2007-04-30,157300.0
2007-03-31,157300.0
2007-02-28,157400.0
2007-01-31,156900.0
2006-12-31,155900.0
2006-11-30,154100.0
2006-10-31,151700.0
2006-09-30,149800.0
2006-08-31,148400.0
2006-07-31,146600.0
2006-06-30,144000.0
2006-05-31,142100.0
2006-04-30,140900.0
2006-03-31,139900.0
2006-02-28,139000.0
2006-01-31,138600.0
2005-12-31,137900.0
2005-11-30,136400.0
2005-10-31,134400.0
2005-09-30,132500.0
2005-08-31,131100.0
2005-07-31,130600.0
2005-06-30,130400.0
2005-05-31,130100.0
2005-04-30,129700.0
2005-03-31,129400.0
2005-02-28,128800.0
2005-01-31,127600.0
2004-12-31,125900.0
2004-11-30,125200.0
2004-10-31,126200.0
2004-09-30,127500.0
2004-08-31,129300.0
2004-07-31,132000.0
2004-06-30,133700.0
2004-05-31,134500.0
2004-04-30,135400.0
2004-03-31,135600.0
2004-02-29,134000.0
2004-01-31,132800.0
2003-12-31,132300.0
2003-11-30,132300.0
2003-10-31,132200.0
2003-09-30,131600.0
2003-08-31,129400.0
2003-07-31,127500.0
2003-06-30,126500.0
2003-05-31,125800.0
2003-04-30,124700.0
2003-03-31,123900.0
2003-02-28,123900.0
2003-01-31,124400.0
2002-12-31,124900.0
2002-11-30,124400.0
2002-10-31,122700.0
2002-09-30,120800.0
2002-08-31,119900.0
2002-07-31,118400.0
2002-06-30,116900.0
2002-05-31,115800.0
2002-04-30,114800.0
2002-03-31,114100.0
2002-02-28,113900.0
2002-01-31,113600.0
2001-12-31,113400.0
2001-11-30,113600.0
2001-10-31,114000.0
2001-09-30,114800.0
2001-08-31,115900.0
2001-07-31,116700.0
2001-06-30,117900.0
2001-05-31,119400.0
2001-04-30,120000.0
2001-03-31,119300.0
2001-02-28,118800.0
2001-01-31,118500.0
2000-12-31,118600.0
2000-11-30,118700.0
2000-10-31,118800.0
2000-09-30,118900.0
2000-08-31,118700.0
2000-07-31,117800.0
2000-06-30,117100.0
2000-05-31,116300.0
2000-04-30,115500.0
2000-03-31,114900.0
2000-02-29,114600.0
2000-01-31,113800.0
1999-12-31,112900.0
1999-11-30,112100.0
1999-10-31,111800.0
1999-09-30,111700.0
1999-08-31,111600.0
1999-07-31,111500.0
1999-06-30,111500.0
1999-05-31,111600.0
1999-04-30,112100.0
1999-03-31,112400.0
1999-02-28,112500.0
1999-01-31,113100.0
1998-12-31,113900.0
1998-11-30,114300.0
1998-10-31,114500.0
1998-09-30,114100.0
1998-08-31,113600.0
1998-07-31,113000.0
1998-06-30,111900.0
1998-05-31,110300.0
1998-04-30,108600.0
1998-03-31,107300.0
1998-02-28,107300.0
1998-01-31,108200.0
1997-12-31,109100.0
1997-11-30,109900.0
1997-10-31,110900.0
1997-09-30,113000.0
1997-08-31,114400.0
1997-07-31,113900.0
1997-06-30,112500.0
1997-05-31,111500.0
1997-04-30,110500.0
1997-03-31,109400.0
1997-02-28,108600.0
1997-01-31,107800.0
1996-12-31,106200.0
1996-11-30,104400.0
1996-10-31,102600.0
1996-09-30,99600.0
1996-08-31,96900.0
1996-07-31,96800.0
1996-06-30,97900.0
1996-05-31,99100.0
1996-04-30,100900.0
