Date,Value
2015-02-28,535000.0
2015-01-31,365000.0
2014-12-31,439000.0
2014-11-30,520000.0
2014-10-31,699000.0
2014-09-30,736000.0
2014-08-31,675000.0
2014-07-31,665000.0
2014-06-30,699900.0
2014-05-31,625000.0
2014-04-30,629000.0
2014-03-31,650000.0
2014-02-28,630000.0
2014-01-31,598000.0
2013-12-31,658000.0
2013-11-30,625000.0
2013-10-31,619900.0
2013-09-30,629000.0
2013-08-31,598878.0
2013-07-31,599000.0
2013-06-30,598878.0
2013-05-31,585000.0
2013-04-30,585000.0
2013-03-31,549000.0
2013-02-28,600000.0
2013-01-31,399999.0
2012-12-31,450000.0
2012-11-30,499950.0
2012-10-31,549000.0
2012-09-30,599950.0
2012-08-31,589950.0
2012-07-31,595000.0
2012-06-30,499950.0
2012-05-31,489995.0
2012-04-30,489000.0
2012-03-31,489995.0
2012-02-29,449995.0
2012-01-31,429000.0
2011-12-31,458000.0
2011-11-30,449900.0
2011-10-31,439900.0
2011-09-30,465000.0
2011-08-31,499900.0
2011-07-31,425000.0
2011-06-30,385000.0
2011-05-31,380000.0
2011-04-30,365000.0
2011-03-31,389950.0
2011-02-28,419900.0
2011-01-31,399950.0
2010-12-31,425000.0
2010-11-30,399888.0
2010-10-31,399888.0
2010-09-30,394000.0
2010-08-31,395000.0
2010-07-31,399950.0
2010-06-30,430000.0
2010-05-31,430000.0
2010-04-30,395000.0
2010-03-31,389000.0
2010-02-28,389000.0
2010-01-31,375000.0
2009-12-31,389900.0
2009-11-30,444900.0
2009-10-31,459000.0
2009-09-30,439500.0
2009-08-31,454900.0
2009-07-31,459000.0
2009-06-30,479000.0
2009-05-31,495000.0
2009-04-30,459000.0
2009-03-31,459000.0
2009-02-28,459000.0
2009-01-31,549000.0
2008-12-31,569900.0
2008-11-30,599000.0
2008-10-31,638000.0
