Date,Value
2015-09-30,541300.0
2015-08-31,537900.0
2015-07-31,534300.0
2015-06-30,536400.0
2015-05-31,536100.0
2015-04-30,527700.0
2015-03-31,514500.0
2015-02-28,503200.0
2015-01-31,498100.0
2014-12-31,494400.0
2014-11-30,491200.0
2014-10-31,486900.0
2014-09-30,483400.0
2014-08-31,481800.0
2014-07-31,479000.0
2014-06-30,475500.0
2014-05-31,471300.0
2014-04-30,468500.0
2014-03-31,466100.0
2014-02-28,463900.0
2014-01-31,460500.0
2013-12-31,457600.0
2013-11-30,455000.0
2013-10-31,453600.0
2013-09-30,452000.0
2013-08-31,449700.0
2013-07-31,447300.0
2013-06-30,445700.0
2013-05-31,442200.0
2013-04-30,436400.0
2013-03-31,430100.0
2013-02-28,424700.0
2013-01-31,419900.0
2012-12-31,416100.0
2012-11-30,411600.0
2012-10-31,407200.0
2012-09-30,404200.0
2012-08-31,401600.0
2012-07-31,397300.0
2012-06-30,391700.0
2012-05-31,385600.0
2012-04-30,380500.0
2012-03-31,377200.0
2012-02-29,375000.0
2012-01-31,374100.0
2011-12-31,374700.0
2011-11-30,375200.0
2011-10-31,375000.0
2011-09-30,374400.0
2011-08-31,373400.0
2011-07-31,373500.0
2011-06-30,374600.0
2011-05-31,374700.0
2011-04-30,374800.0
2011-03-31,376200.0
2011-02-28,378200.0
2011-01-31,379700.0
2010-12-31,380600.0
2010-11-30,381800.0
2010-10-31,383700.0
2010-09-30,385800.0
2010-08-31,388000.0
2010-07-31,390800.0
2010-06-30,393900.0
2010-05-31,396000.0
2010-04-30,396600.0
2010-03-31,396900.0
2010-02-28,396300.0
2010-01-31,394300.0
2009-12-31,391600.0
2009-11-30,389400.0
2009-10-31,386900.0
2009-09-30,384600.0
2009-08-31,383400.0
2009-07-31,384100.0
2009-06-30,385700.0
2009-05-31,388400.0
2009-04-30,392300.0
2009-03-31,397700.0
2009-02-28,403300.0
2009-01-31,408300.0
2008-12-31,412900.0
2008-11-30,417400.0
2008-10-31,421500.0
2008-09-30,425700.0
2008-08-31,429800.0
2008-07-31,434000.0
2008-06-30,438200.0
2008-05-31,442700.0
2008-04-30,447300.0
2008-03-31,452300.0
2008-02-29,456700.0
2008-01-31,460700.0
2007-12-31,463600.0
2007-11-30,466700.0
2007-10-31,470500.0
2007-09-30,472500.0
2007-08-31,471800.0
2007-07-31,468300.0
2007-06-30,464200.0
2007-05-31,460700.0
2007-04-30,458300.0
2007-03-31,456000.0
2007-02-28,454000.0
2007-01-31,452100.0
2006-12-31,450200.0
2006-11-30,447900.0
2006-10-31,446200.0
2006-09-30,445100.0
2006-08-31,443400.0
2006-07-31,441100.0
2006-06-30,438200.0
2006-05-31,434500.0
2006-04-30,430900.0
2006-03-31,427300.0
2006-02-28,423300.0
2006-01-31,419200.0
2005-12-31,415400.0
2005-11-30,411300.0
2005-10-31,405800.0
2005-09-30,400400.0
2005-08-31,395900.0
2005-07-31,392000.0
2005-06-30,388400.0
2005-05-31,384700.0
2005-04-30,379200.0
2005-03-31,372300.0
2005-02-28,366500.0
2005-01-31,362300.0
2004-12-31,358900.0
2004-11-30,355400.0
2004-10-31,351500.0
2004-09-30,347200.0
2004-08-31,343000.0
2004-07-31,339100.0
2004-06-30,335600.0
2004-05-31,332700.0
2004-04-30,330000.0
2004-03-31,327300.0
2004-02-29,324400.0
2004-01-31,320600.0
2003-12-31,316000.0
2003-11-30,312100.0
2003-10-31,309400.0
2003-09-30,306900.0
2003-08-31,304800.0
2003-07-31,303500.0
2003-06-30,302100.0
2003-05-31,300900.0
2003-04-30,300300.0
2003-03-31,299500.0
2003-02-28,298100.0
2003-01-31,296700.0
2002-12-31,295400.0
2002-11-30,293600.0
2002-10-31,291800.0
2002-09-30,290700.0
2002-08-31,290300.0
2002-07-31,288900.0
2002-06-30,286500.0
2002-05-31,283500.0
2002-04-30,280100.0
2002-03-31,277400.0
2002-02-28,275700.0
2002-01-31,274900.0
2001-12-31,274100.0
2001-11-30,273000.0
2001-10-31,272900.0
2001-09-30,273700.0
2001-08-31,273900.0
2001-07-31,273800.0
2001-06-30,274900.0
2001-05-31,275900.0
2001-04-30,276300.0
2001-03-31,276300.0
2001-02-28,275700.0
2001-01-31,274700.0
2000-12-31,273800.0
2000-11-30,273100.0
2000-10-31,271700.0
2000-09-30,268900.0
2000-08-31,265500.0
2000-07-31,263300.0
2000-06-30,260700.0
2000-05-31,256800.0
2000-04-30,252800.0
2000-03-31,251000.0
2000-02-29,249700.0
2000-01-31,247500.0
1999-12-31,244900.0
1999-11-30,242600.0
1999-10-31,240500.0
1999-09-30,238500.0
1999-08-31,236500.0
1999-07-31,234000.0
1999-06-30,232400.0
1999-05-31,231600.0
1999-04-30,231000.0
1999-03-31,229600.0
1999-02-28,227500.0
1999-01-31,225000.0
1998-12-31,223100.0
1998-11-30,221800.0
1998-10-31,219300.0
1998-09-30,215600.0
1998-08-31,212500.0
1998-07-31,209700.0
1998-06-30,205900.0
1998-05-31,202500.0
1998-04-30,199800.0
1998-03-31,196900.0
1998-02-28,193600.0
1998-01-31,190500.0
1997-12-31,187900.0
1997-11-30,185500.0
1997-10-31,183900.0
1997-09-30,183000.0
1997-08-31,181900.0
1997-07-31,180400.0
1997-06-30,178300.0
1997-05-31,176200.0
1997-04-30,174400.0
1997-03-31,172600.0
1997-02-28,170900.0
1997-01-31,169800.0
1996-12-31,169000.0
1996-11-30,167800.0
1996-10-31,166500.0
1996-09-30,165700.0
1996-08-31,165200.0
1996-07-31,164600.0
1996-06-30,164500.0
1996-05-31,165100.0
1996-04-30,165900.0
