Date,Value
2015-09-30,171200.0
2015-08-31,168700.0
2015-07-31,168400.0
2015-06-30,166100.0
2015-05-31,163600.0
2015-04-30,162400.0
2015-03-31,160200.0
2015-02-28,157700.0
2015-01-31,156000.0
2014-12-31,154900.0
2014-11-30,154400.0
2014-10-31,153400.0
2014-09-30,151400.0
2014-08-31,150500.0
2014-07-31,150800.0
2014-06-30,151100.0
2014-05-31,152000.0
2014-04-30,152100.0
2014-03-31,150700.0
2014-02-28,148600.0
2014-01-31,146800.0
2013-12-31,145600.0
2013-11-30,144900.0
2013-10-31,143900.0
2013-09-30,142800.0
2013-08-31,141300.0
2013-07-31,140600.0
2013-06-30,141400.0
2013-05-31,141100.0
2013-04-30,139100.0
2013-03-31,138400.0
2013-02-28,139100.0
2013-01-31,139600.0
2012-12-31,139700.0
2012-11-30,140000.0
2012-10-31,140400.0
2012-09-30,140700.0
2012-08-31,140600.0
2012-07-31,140900.0
2012-06-30,141400.0
2012-05-31,142300.0
2012-04-30,143600.0
2012-03-31,144800.0
2012-02-29,145000.0
2012-01-31,144400.0
2011-12-31,143900.0
2011-11-30,143900.0
2011-10-31,144400.0
2011-09-30,146000.0
2011-08-31,148400.0
2011-07-31,150300.0
2011-06-30,151500.0
2011-05-31,152000.0
2011-04-30,152600.0
2011-03-31,154000.0
2011-02-28,155800.0
2011-01-31,158000.0
2010-12-31,160400.0
2010-11-30,162200.0
2010-10-31,164000.0
2010-09-30,167400.0
2010-08-31,171200.0
2010-07-31,173000.0
2010-06-30,172300.0
2010-05-31,172000.0
2010-04-30,174000.0
2010-03-31,176900.0
2010-02-28,179300.0
2010-01-31,181200.0
2009-12-31,182200.0
2009-11-30,182600.0
2009-10-31,182500.0
2009-09-30,181900.0
2009-08-31,181400.0
2009-07-31,182000.0
2009-06-30,184000.0
2009-05-31,186600.0
2009-04-30,189000.0
2009-03-31,191000.0
2009-02-28,191700.0
2009-01-31,191900.0
2008-12-31,193600.0
2008-11-30,196500.0
2008-10-31,198700.0
2008-09-30,199100.0
2008-08-31,198900.0
2008-07-31,199600.0
2008-06-30,201400.0
2008-05-31,203600.0
2008-04-30,205300.0
2008-03-31,206900.0
2008-02-29,209300.0
2008-01-31,210800.0
2007-12-31,211000.0
2007-11-30,210500.0
2007-10-31,210100.0
2007-09-30,209800.0
2007-08-31,209400.0
2007-07-31,208400.0
2007-06-30,206700.0
2007-05-31,204500.0
2007-04-30,201700.0
2007-03-31,199600.0
2007-02-28,199600.0
2007-01-31,201400.0
2006-12-31,201200.0
2006-11-30,199000.0
2006-10-31,197200.0
2006-09-30,196700.0
2006-08-31,195600.0
2006-07-31,193600.0
2006-06-30,191500.0
2006-05-31,189800.0
2006-04-30,187600.0
2006-03-31,183900.0
2006-02-28,180000.0
2006-01-31,176800.0
2005-12-31,176000.0
2005-11-30,176800.0
2005-10-31,176800.0
2005-09-30,174900.0
2005-08-31,172600.0
2005-07-31,170700.0
2005-06-30,168600.0
2005-05-31,166000.0
2005-04-30,164300.0
2005-03-31,163200.0
2005-02-28,160700.0
2005-01-31,157000.0
2004-12-31,153500.0
2004-11-30,151000.0
2004-10-31,148700.0
2004-09-30,146800.0
2004-08-31,146100.0
2004-07-31,146100.0
2004-06-30,145800.0
2004-05-31,146200.0
2004-04-30,146700.0
2004-03-31,145900.0
2004-02-29,144800.0
2004-01-31,145300.0
2003-12-31,146000.0
2003-11-30,145600.0
2003-10-31,144200.0
2003-09-30,142100.0
2003-08-31,139600.0
2003-07-31,137500.0
2003-06-30,135700.0
2003-05-31,133600.0
2003-04-30,131600.0
2003-03-31,130500.0
2003-02-28,130600.0
2003-01-31,130300.0
2002-12-31,129600.0
2002-11-30,129500.0
2002-10-31,130700.0
2002-09-30,132100.0
2002-08-31,131900.0
2002-07-31,130400.0
2002-06-30,130400.0
2002-05-31,130700.0
2002-04-30,130900.0
2002-03-31,130400.0
2002-02-28,129300.0
2002-01-31,126700.0
2001-12-31,124100.0
2001-11-30,122200.0
2001-10-31,122000.0
2001-09-30,122400.0
2001-08-31,123400.0
2001-07-31,124300.0
2001-06-30,124400.0
2001-05-31,125000.0
2001-04-30,126800.0
2001-03-31,129600.0
2001-02-28,132600.0
2001-01-31,135300.0
2000-12-31,135500.0
2000-11-30,134300.0
2000-10-31,133600.0
2000-09-30,133800.0
2000-08-31,134400.0
2000-07-31,136700.0
2000-06-30,137400.0
2000-05-31,134700.0
2000-04-30,130900.0
2000-03-31,128400.0
2000-02-29,125600.0
2000-01-31,122600.0
1999-12-31,121500.0
1999-11-30,122000.0
1999-10-31,121300.0
1999-09-30,121500.0
1999-08-31,121800.0
1999-07-31,120900.0
1999-06-30,120400.0
1999-05-31,120700.0
1999-04-30,118900.0
1999-03-31,116700.0
1999-02-28,115200.0
1999-01-31,114800.0
1998-12-31,114600.0
1998-11-30,113400.0
1998-10-31,110500.0
1998-09-30,107700.0
1998-08-31,106600.0
1998-07-31,104700.0
1998-06-30,102500.0
1998-05-31,102100.0
1998-04-30,102400.0
1998-03-31,101700.0
1998-02-28,101000.0
1998-01-31,101000.0
1997-12-31,102400.0
1997-11-30,103100.0
1997-10-31,102600.0
1997-09-30,101900.0
1997-08-31,101000.0
1997-07-31,100500.0
1997-06-30,101200.0
1997-05-31,101800.0
1997-04-30,102000.0
1997-03-31,102100.0
1997-02-28,103500.0
1997-01-31,105200.0
1996-12-31,104900.0
1996-11-30,104300.0
1996-10-31,105000.0
1996-09-30,104900.0
1996-08-31,104300.0
1996-07-31,104400.0
1996-06-30,104400.0
1996-05-31,104300.0
1996-04-30,105000.0
