Date,Value
2015-09-30,2.72
2015-08-31,2.68
2015-07-31,2.648
2015-06-30,2.618
2015-05-31,2.602
2015-04-30,2.576
2015-03-31,2.572
2015-02-28,2.576
2015-01-31,2.582
2014-12-31,2.572
2014-11-30,2.556
2014-10-31,2.55
2014-09-30,2.552
2014-08-31,2.544
2014-07-31,2.528
2014-06-30,2.5
2014-05-31,2.48
2014-04-30,2.454
2014-03-31,2.45
2014-02-28,2.446
2014-01-31,2.45
2013-12-31,2.442
2013-11-30,2.426
2013-10-31,2.414
2013-09-30,2.422
2013-08-31,2.424
2013-07-31,2.406
2013-06-30,2.372
2013-05-31,2.354
2013-04-30,2.342
2013-03-31,2.34
2013-02-28,2.328
2013-01-31,2.294
2012-12-31,2.24
2012-11-30,2.194
2012-10-31,2.156
2012-09-30,2.15
2012-08-31,2.152
2012-07-31,2.14
2012-06-30,2.144
2012-05-31,2.116
2012-04-30,2.098
2012-03-31,2.074
2012-02-29,2.086
2012-01-31,2.104
2011-12-31,2.13
2011-11-30,2.142
2011-10-31,2.106
2011-09-30,2.048
2011-08-31,1.996
2011-07-31,1.982
2011-06-30,1.986
2011-05-31,1.994
2011-04-30,2.01
2011-03-31,1.968
2011-02-28,1.898
2011-01-31,1.83
2010-12-31,1.804
2010-11-30,1.8
