year,month,influence,largestInfluencer,largestInfluencerPercent
2009,6,138.77512358791986,FRAUD,41.18513694874394
2009,4,816.6593715432444,FRAUD,94.34039769218134
2009,12,111.75628743522817,CAR PROWL,57.23399397889376
2009,11,110.3366152069704,CAR PROWL,44.40078007863525
2009,9,886.9485205265414,CAR PROWL,94.2471712947873
2009,3,64.2115920038894,BURGLARY,22.14895696085741
2009,1,61.979039576993905,CAR PROWL,22.469589190005394
2009,8,818.9553572474496,BURGLARY,94.911245785961
2009,10,77.43759657909521,BURGLARY,17.91233568774633
2009,5,64.64938151017465,BURGLARY,25.255124513693428
2009,2,60.410628766630396,FRAUD,24.688308766368298
2009,7,63.790422676952105,CAR PROWL,14.72609839553537
1994,6,0.0065690386865739775,PROPERTY DAMAGE,85.93062597839527
1994,1,0.012563984717779194,FRAUD,54.854410457066315
1994,10,0.0027730427389061198,FRAUD,100.0
1995,9,9.807149777626577,FRAUD,100.0
1995,2,0.0025042525272447754,FRAUD,99.99999999999999
2015,6,87.82423675388392,BURGLARY,18.922516342099282
2015,11,75.29973132919925,CAR PROWL,31.34257055062327
2015,12,3.4460697853933335,VEHICLE THEFT,29.119930284644163
2015,4,67.07959861678341,BURGLARY,18.226557738245717
2015,9,73.9633294397687,OTHER PROPERTY,21.80485767979959
2015,3,87.18464720291627,BURGLARY,15.519783694610457
2015,1,103.62624440232457,BURGLARY,21.553710274328786
2015,8,155.0216987840255,CAR PROWL,47.77537366024088
2015,10,81.66343814821283,CAR PROWL,29.271425915650838
2015,5,85.89001757971953,CAR PROWL,20.644121492493788
2015,2,63.09965580351717,CAR PROWL,16.56012116686798
2015,7,95.04128931488279,THREATS,13.868188994058336
2013,6,137.5566118589174,CAR PROWL,15.916819493592628
2013,11,1797.4017227528793,BURGLARY,86.10166134612066
2013,12,155.63746486637035,VEHICLE THEFT,20.24118886206153
2013,4,127.48941201311726,CAR PROWL,23.25463565197928
2013,9,183.39337297796288,PROPERTY DAMAGE,26.32750300583524
2013,3,1721.166945829198,MAIL THEFT,89.3666370047193
2013,1,1663.24660062034,WARRANT ARREST,92.68372086949795
2013,8,133.1432400248515,BURGLARY,16.62132399312013
2013,10,230.8441343462871,CAR PROWL,46.36164709446112
2013,5,202.14619727556646,CAR PROWL,26.173240060889032
2013,2,178.21824333796206,OTHER PROPERTY,24.054696200956343
2013,7,241.20975152443853,CAR PROWL,49.37138278322595
1990,5,0.004137187055705424,THREATS,100.0
1990,1,0.03886345566489613,LOST PROPERTY,100.0
1990,11,0.00206413098034807,[INC - CASE DC USE ONLY],100.0
2011,6,226.6210623164534,CAR PROWL,22.493462535862406
2011,4,145.95369509504656,ASSAULT,37.17655626349555
2011,12,119.03764754229341,BURGLARY,21.471955184272588
2011,11,1716.3299366410333,BURGLARY,94.44604979951269
2011,9,548.144899401612,BURGLARY,42.97050385175261
2011,3,1661.2466635531184,TRESPASS,92.59836359495972
2011,1,72.9071435083191,PROPERTY DAMAGE,23.466967435017313
2011,8,1756.8607712489625,CAR PROWL,94.37821867842693
2011,10,173.88130959720704,CAR PROWL,27.791791690129998
2011,5,158.67298333863906,CAR PROWL,28.37969809531158
2011,2,82.09212757857127,FRAUD,20.510435029809024
2011,7,196.90835293136112,OTHER PROPERTY,26.28025981817877
2001,6,0.15561292864701348,FRAUD,61.80507356188017
2001,11,0.3646035271723737,FRAUD,92.31011068139706
2001,12,0.04311544547669666,FRAUD,100.0
2001,4,0.1874119629793568,OTHER PROPERTY,72.01675287108615
2001,9,0.03179482424003115,OTHER PROPERTY,52.74747613908171
2001,3,0.030872982158611905,BURGLARY,48.438697751903916
2001,1,0.13596237364437777,FRAUD,52.15165522001083
2001,8,0.018635647466155817,FRAUD,57.299196480206675
2001,10,0.0868864979878152,FRAUD,60.23333609695698
2001,5,0.12965874227406937,FRAUD,96.29966980435937
2001,2,0.014647941762352172,LOST PROPERTY,46.88141921246162
2001,7,0.03230173057525331,BURGLARY-SECURE PARKING-RES,78.10629884706155
2003,6,0.01208594149861428,FRAUD,100.0
2003,11,0.020832977235900437,FRAUD,78.23998660484767
2003,12,0.0191737777273056,FRAUD,96.83899590937405
2003,4,0.0023604063207302373,CAR PROWL,100.0
2003,9,0.008682237218191453,OTHER PROPERTY,52.94522320443413
2003,3,0.08109665800875063,OTHER PROPERTY,81.30488083652197
2003,1,0.760464244343601,FRAUD,95.86311352762715
2003,8,0.021666207893320823,FRAUD,89.27488373981323
2003,10,0.0009933669662525882,FRAUD,100.0
2003,5,0.004135183861887476,FRAUD,100.0
2003,2,0.006646511202524297,OTHER PROPERTY,66.38980472326591
2003,7,0.01120781325298473,FRAUD,66.33287657216502
1965,1,0.0050514635661087805,LOST PROPERTY,100.0
1998,1,0.023790775488820106,FRAUD,58.23083711854656
1998,11,0.0036819871040770858,FRAUD,69.58130514090607
1998,5,0.001318322051520333,OTHER PROPERTY,99.99999999999999
1998,3,0.07667806043486754,OTHER PROPERTY,86.45912580572892
1998,8,0.008205319744965007,[INC - CASE DC USE ONLY],100.0
2002,1,0.13599218728444024,FRAUD,88.34772108993099
2002,8,0.041391914753394175,FRAUD,57.394182278720685
2002,10,0.005086085620295343,FRAUD,100.00000000000001
2002,12,0.01968155150290072,FRAUD,100.0
2002,4,0.006824412554855404,FRAUD,100.0
2002,11,0.006833344140923733,CAR PROWL,100.0
2002,6,0.006707885858606957,PROPERTY DAMAGE,39.23557207240331
2002,3,0.03427629442041351,[INC - CASE DC USE ONLY],94.28155722152485
2002,2,0.011557142168187366,[INC - CASE DC USE ONLY],40.71566690985785
2007,6,0.40528940063651375,FRAUD,39.064557248892996
2007,4,0.2381667398698763,FRAUD,37.48530072812718
2007,12,9.305784075561366,OTHER PROPERTY,46.62399871108405
2007,11,3.51657787709616,OTHER PROPERTY,68.72347307959284
2007,9,0.9982211043565482,FRAUD,44.98385749363454
2007,3,0.4788907487177483,FRAUD,63.517882121982595
2007,1,768.8194506040184,FRAUD,99.9350524151957
2007,8,0.4550879442649435,FRAUD,55.47255266249829
2007,10,0.7456902865542278,FRAUD,29.80312017515541
2007,5,0.3544891162918792,FRAUD,52.460802472126865
2007,2,0.27591387385151506,FRAUD,42.186323981635695
2007,7,0.4473143367582575,FRAUD,72.16857332253684
2004,6,0.005932335020788075,FRAUD,68.92002871353347
2004,4,0.007522813329842155,LOST PROPERTY,37.69922636627285
2004,12,0.0009944514144862,VEHICLE THEFT,100.0
2004,11,0.04853851669475116,LOST PROPERTY,38.362286892563134
2004,9,0.13594054102911426,FRAUD,76.75015899105686
2004,3,0.03834530215765696,BURGLARY-SECURE PARKING-RES,64.90822486575516
2004,1,0.31374390543729225,FRAUD,57.94701004081991
2004,8,0.6802643439262904,PROPERTY DAMAGE,96.14922868589285
2004,10,0.05282158357409268,[INC - CASE DC USE ONLY],43.469446326028965
2004,5,0.05452098819157556,FRAUD,49.285084684250066
2004,2,0.01444995401879862,FORGERY,43.243921582715814
2004,7,0.31402936467706033,FRAUD,100.0
1997,1,0.02176918038111602,FORGERY,82.87375983977725
1997,11,0.0017103326614070716,FRAUD,100.0
1997,10,0.019578756298956182,FRAUD,100.0
1997,5,0.004790967793301437,FRAUD,100.0
1997,9,0.0009103659625346784,FRAUD,100.0
1997,2,0.0029051895802920595,FRAUD,100.0
2006,6,0.09174531093278093,FRAUD,52.4716828551931
2006,4,0.09380405477910969,LOST PROPERTY,56.63827530745096
2006,12,0.5208964279877722,STOLEN PROPERTY,72.67885369337525
2006,11,0.04813955037640326,FRAUD,46.810818619473125
2006,9,0.14218926977477547,LOST PROPERTY,57.74403075039978
2006,3,0.23067485629199652,FRAUD,89.33337994823019
2006,1,0.5397186166696637,FRAUD,73.77670756228889
2006,8,0.14065997848009826,FRAUD,90.87838941930893
2006,10,0.07233935475161266,[INC - CASE DC USE ONLY],57.27092632358413
2006,5,0.11481236059385574,THREATS,54.8725159028558
2006,2,0.163384219075964,FRAUD,72.6168587305749
2006,7,0.030036960494213134,FRAUD,45.39732520508523
1991,1,0.027495611112576448,FRAUD,100.0
1991,11,0.00594876381072639,FRAUD,100.0
1991,9,0.0008308577073256036,FRAUD,100.0
2005,6,0.08834344434566271,FRAUD,57.830849626614736
2005,11,0.09540855408127892,VEHICLE THEFT,58.16260509676175
2005,12,0.046153951164131284,LOST PROPERTY,71.43000476810703
2005,4,0.037482992616363314,FRAUD,61.54518134357542
2005,9,0.05524806394868281,FRAUD,59.09381123947685
2005,3,0.0258479742820844,FRAUD,72.84516623160877
2005,1,0.3901623008036244,FRAUD,49.06170643152762
2005,8,0.1280417857796118,OTHER PROPERTY,77.43488092908238
2005,10,0.06089334215706569,FRAUD,94.3178346923777
2005,5,0.0067904536142449744,FRAUD,87.78832448367096
2005,2,0.020509588217985826,FRAUD,92.27331382946959
2005,7,0.05397370672946291,FRAUD,78.88508796136769
1996,6,0.007709474947270839,FRAUD,100.0
1996,8,0.0020028875036018985,FRAUD,100.0
1996,12,0.0018457285485449697,CAR PROWL,100.0
1900,01,2.620517701848216e-09,STOLEN PROPERTY,100.0
2000,1,0.29686887622227587,FRAUD,57.50107090378589
2000,8,0.026184108988265755,STOLEN PROPERTY,32.25392764088906
2000,7,0.01644688475527994,FRAUD,82.35985087539032
2000,10,0.3521878008827377,CAR PROWL,100.00000000000001
2000,3,0.030956870945929874,OTHER PROPERTY,93.42823761025647
2000,4,0.0071455083827431706,FRAUD,100.0
2000,5,0.013697142433132853,FRAUD,64.83424117803393
2000,6,0.11551843062806993,FRAUD,97.37856942373529
2000,9,0.01247290157999694,FRAUD,57.10741601197828
2000,2,0.006501184578777349,FRAUD,58.74400216977903
2000,11,0.03096219760136449,FRAUD,77.57496881537752
2014,6,338.37599994390973,MAIL THEFT,23.146914840896343
2014,11,115.14498425245696,CAR PROWL,23.36072270940661
2014,12,176.647950721268,CAR PROWL,42.0001258507895
2014,4,180.7608063200354,CAR PROWL,16.576938089158812
2014,9,212.10709358553717,CAR PROWL,31.531699832192828
2014,3,243.9541962667581,FRAUD,50.52415661387576
2014,1,3236.5629103068845,MAIL THEFT,95.05372110749751
2014,8,925.9137826222766,CAR PROWL,86.08983384201869
2014,10,139.59228531165306,CAR PROWL,23.71166708874668
2014,5,176.1561867099699,CAR PROWL,20.064328308174744
2014,2,117.30240765705508,CAR PROWL,19.644816574987043
2014,7,150.2087569278579,CAR PROWL,15.516120200398387
1989,6,0.0033250082032380826,[INC - CASE DC USE ONLY],99.99999999999999
1983,2,0.001608557724735453,RECOVERED PROPERTY,100.0
2008,6,62.08146678266312,CAR PROWL,19.85308652983099
2008,4,102.21286262118777,BURGLARY,58.14569164625513
2008,12,875.2074734395283,OTHER PROPERTY,88.48992813281494
2008,11,45.8466448320124,CAR PROWL,26.907366974837775
2008,9,110.76366597483131,OTHER PROPERTY,54.53737258242511
2008,3,60.86048299837086,OTHER PROPERTY,18.631834993506455
2008,1,60.62366456537873,CAR PROWL,20.754139852813456
2008,8,47.91035926692555,CAR PROWL,15.225106103331782
2008,10,58.81663114069132,BURGLARY,21.43271209840076
2008,5,54.98109913706814,CAR PROWL,20.397365560337853
2008,2,88.35936617825747,CAR PROWL,23.046923948855053
2008,7,68.499282787493,CAR PROWL,26.773666318648363
1992,7,0.0009425125294747772,LOST PROPERTY,100.0
1993,1,0.0014313376711284664,FRAUD,100.0
1993,10,0.00631473744410226,FRAUD,78.33428495158692
2010,6,77.33972814315864,CAR PROWL,13.499050220152856
2010,11,67.25595890098519,CAR PROWL,23.825789522460983
2010,12,73.66800484164393,BURGLARY,28.949799648532704
2010,4,100.24526469664119,CAR PROWL,57.726344326385735
2010,9,68.79297496639379,BURGLARY,22.367194975518686
2010,3,72.79874121908983,BURGLARY,15.907773777058889
2010,1,56.30110184318657,CAR PROWL,30.921407161215754
2010,8,93.19801232199583,BURGLARY,19.918047258149013
2010,10,140.82732296663468,FRAUD,43.22970297055982
2010,5,156.0360812621436,CAR PROWL,60.14954847607128
2010,2,60.6376262266996,BURGLARY,18.33302055651044
2010,7,27.873977161182253,OTHER PROPERTY,22.538580848674226
2012,6,125.6817567738309,OTHER PROPERTY,16.02223955849491
2012,4,118.75030287657671,TRESPASS,17.448825157548058
2012,12,68.01097567085412,VEHICLE THEFT,23.53299831778046
2012,11,52.18893523384847,BURGLARY,26.333875211579233
2012,9,108.34964340830159,BIKE THEFT,30.46827020725861
2012,3,124.99270313503696,CAR PROWL,21.355925753494144
2012,1,1673.2729131634708,MAIL THEFT,91.80197342029737
2012,8,215.8941543343806,CAR PROWL,52.64350012613224
2012,10,93.61423170116194,BURGLARY,48.88062496903845
2012,5,143.36592932775434,OTHER PROPERTY,18.511611758278754
2012,2,202.03627238596334,STOLEN PROPERTY,50.8447958407714
2012,7,155.05399947436715,BURGLARY,25.89674408977149
1999,1,0.012683278079778221,FRAUD,100.0
1999,11,0.010800885192574721,FRAUD,100.0
1999,9,0.005940815321731174,FRAUD,100.0
1999,6,0.0013408614616005677,[INC - CASE DC USE ONLY],100.0
