year,month,influence,largestInfluencer,largestInfluencerPercent
2009,6,88.05697934107793,CAR PROWL,19.66120393369046
2009,4,91.13566181173718,CAR PROWL,23.69725742314395
2009,12,53.8654378956663,CAR PROWL,22.752026711964678
2009,11,96.23870543692274,CAR PROWL,22.469189656805977
2009,9,105.8192354610461,CAR PROWL,26.741838706535873
2009,3,82.3309322512074,CAR PROWL,23.720417636447085
2009,1,86.2404984367635,CAR PROWL,20.76010189761947
2009,8,84.22852917236554,CAR PROWL,20.064983410084594
2009,10,97.78518792205286,CAR PROWL,26.504900659695828
2009,5,91.6235069947844,CAR PROWL,25.253760066565093
2009,2,76.9630734588327,CAR PROWL,22.222094767282456
2009,7,100.07453042818236,CAR PROWL,18.645312305734514
1994,6,0.12486492032067359,PROPERTY DAMAGE,97.98668874100846
1994,1,0.07766150071358333,THREATS,60.18201402284372
1994,10,0.01661343522409237,FRAUD,100.0
1995,9,0.0032068957695700743,FRAUD,100.0
1995,2,0.017691106402587885,FRAUD,100.0
2015,6,103.58037016991392,CAR PROWL,23.885130251355662
2015,11,108.14759537831917,CAR PROWL,35.51571799392965
2015,12,4.734177296402783,VEHICLE THEFT,15.630601321348731
2015,4,117.68530454848602,FRAUD,18.966711293679772
2015,9,173.71816424673403,FRAUD,38.83834675185782
2015,3,107.42052086953743,CAR PROWL,20.921713358008937
2015,1,140.7675423000099,CAR PROWL,27.484041775249956
2015,8,120.52955801082732,CAR PROWL,24.24088161220776
2015,10,120.98717946940876,CAR PROWL,25.850259413079034
2015,5,114.30477340285756,CAR PROWL,21.458593481300333
2015,2,97.34041090665231,CAR PROWL,22.88112978005708
2015,7,123.30489097782586,CAR PROWL,22.12977485435428
2013,6,260.94934149750395,OTHER PROPERTY,29.265875117438387
2013,11,221.9774104339221,CAR PROWL,31.704739141779996
2013,12,198.67545116465755,CAR PROWL,25.462598565030408
2013,4,198.06721797201797,CAR PROWL,19.376191181248405
2013,9,222.44361343079834,CAR PROWL,20.503516492424147
2013,3,185.61406985943444,CAR PROWL,22.0163220166876
2013,1,201.2752173272877,FRAUD,18.869435874681674
2013,8,223.3891567963897,CAR PROWL,24.038295677025975
2013,10,239.30968616554037,CAR PROWL,23.832828676708914
2013,5,238.1487685459122,CAR PROWL,23.437458583255832
2013,2,285.2674178015951,BURGLARY,46.982951651334616
2013,7,275.5757372537139,BURGLARY,26.121813395590618
1990,5,0.06619894137847028,THREATS,100.0
1990,1,0.006124356576746721,LOST PROPERTY,100.0
1990,11,0.01725181761287769,[INC - CASE DC USE ONLY],100.0
2011,6,202.98162245842067,CAR PROWL,22.718021255744155
2011,4,111.52803419672367,CAR PROWL,21.468727058609552
2011,12,155.96067197067347,CAR PROWL,21.508172678268306
2011,11,153.9400956596206,CAR PROWL,19.988502304726484
2011,9,200.61511856039402,CAR PROWL,24.211104292274218
2011,3,177.48022024939436,CAR PROWL,18.66826737966844
2011,1,79.94079181499916,CAR PROWL,18.549234575470887
2011,8,594.1496571706558,FRAUD,72.2390460175667
2011,10,208.6719937311915,CAR PROWL,22.55637890698031
2011,5,313.7749699387674,BURGLARY,46.450126938966285
2011,2,109.77817619392091,BURGLARY,18.169894577582305
2011,7,182.6761925844924,CAR PROWL,16.256032217416358
2001,6,0.3135940523830999,PROPERTY DAMAGE,49.29300569259915
2001,11,0.07171428172755302,BURGLARY,71.06679271116595
2001,12,0.03072644094572382,FRAUD,100.0
2001,4,0.06013838415131017,THREATS,37.722059112762444
2001,9,0.13370649789657832,FRAUD,63.52657396700667
2001,3,0.30032746415632056,FRAUD,61.48420882792813
2001,1,0.15789068165883163,FRAUD,47.08080169222996
2001,8,0.0602932950786865,CAR PROWL,65.97739303544819
2001,10,0.16140154191655176,FRAUD,50.4864205909115
2001,5,0.05689321310457364,FRAUD,81.33377068387664
2001,2,0.05298529906501991,OTHER PROPERTY,30.89608696778623
2001,7,0.130770519033793,FRAUD,68.56255117372429
2003,6,0.01408814504019499,FRAUD,100.0
2003,11,0.24511521037776188,FRAUD,84.92970402970408
2003,12,0.07996119864527519,FRAUD,97.8317929732755
2003,4,0.015412302960731976,CAR PROWL,100.0
2003,9,0.11261931196270678,LOST PROPERTY,85.40159645836118
2003,3,0.08498253256605338,FRAUD,86.85778722113653
2003,1,1.8628243088538592,STOLEN PROPERTY,79.88384872119353
2003,8,0.027495967359915573,FRAUD,56.76900545116616
2003,10,0.004309576531206788,FRAUD,100.0
2003,5,0.0062557683353748035,FRAUD,100.0
2003,2,0.036105473894246426,FRAUD,58.020549318154906
2003,7,0.04116470321469273,LOST PROPERTY,59.970046432660325
1965,1,0.05114677182682709,LOST PROPERTY,100.0
1998,1,0.17336904068853826,FRAUD,44.6895974754484
1998,11,0.044641701291217646,FRAUD,93.58460128199133
1998,5,0.0028617584811682657,OTHER PROPERTY,100.0
1998,3,0.0677359467657378,WARRANT ARREST,51.76205471868476
1998,8,0.01767776974133731,[INC - CASE DC USE ONLY],100.0
2002,1,0.18601589580378008,OTHER PROPERTY,27.407079063573097
2002,8,0.03154728549330044,FRAUD,77.6097413439056
2002,10,0.04267225202389528,FRAUD,100.0
2002,12,0.005516928034625403,FRAUD,100.0
2002,4,0.03401097621220306,FRAUD,100.0
2002,11,0.027499535750837602,CAR PROWL,100.0
2002,6,0.05612461149417995,PROPERTY DAMAGE,58.51343191205053
2002,3,0.032620524056384416,DUI,81.8879935567292
2002,2,0.050102765435176985,FRAUD,48.3572070903424
2007,6,0.6466104575535967,FRAUD,34.144246372295605
2007,4,0.481617308312458,FRAUD,37.76663471019439
2007,12,7.800978860326013,OTHER PROPERTY,29.24189560808051
2007,11,1.640936602974532,FRAUD,32.360901281021924
2007,9,3.286997616198775,PROPERTY DAMAGE,67.48387346651177
2007,3,0.34628731188011785,FRAUD,42.35257283351543
2007,1,1.0762312011866604,FRAUD,39.69179860934462
2007,8,0.7668492438608661,FRAUD,59.75491600881587
2007,10,1.310276834958892,FRAUD,46.692971079622545
2007,5,0.9561921763147977,FRAUD,53.473020222837924
2007,2,0.589707787613821,FRAUD,55.115955191823126
2007,7,1.3517349041471491,FRAUD,50.69065709197526
2004,6,0.071218806086255,FRAUD,93.63030568059484
2004,4,0.056098921494461815,LOST PROPERTY,41.65699987380944
2004,12,0.004241468903705808,VEHICLE THEFT,100.0
2004,11,0.09009957131917362,CAR PROWL,51.29211409302659
2004,9,0.2706363318097448,CAR PROWL,73.90029427653477
2004,3,0.14854300488710115,BURGLARY-SECURE PARKING-RES,46.5761291342538
2004,1,0.40855907075456216,FRAUD,69.66436803474018
2004,8,0.15317699751468059,FRAUD,53.3593504707837
2004,10,0.06699604537667117,[INC - CASE DC USE ONLY],39.1743569407969
2004,5,0.19728848328210524,FRAUD,83.85997732017525
2004,2,0.10613675273944208,[INC - CASE DC USE ONLY],41.317360301828444
2004,7,0.10648206005817282,FRAUD,99.99999999999999
1997,1,0.024234800121146094,FRAUD,67.22249176600623
1997,11,0.005356527434139268,FRAUD,100.0
1997,10,0.015183968246675839,FRAUD,100.0
1997,5,0.04617414080462,FRAUD,100.0
1997,9,0.0034154062104126137,FRAUD,100.0
1997,2,0.035106784766345836,FRAUD,100.0
2006,6,0.9797421575329778,CAR PROWL,61.146922274565604
2006,4,0.5926162744036396,FRAUD,83.48590267683961
2006,12,0.7733404957913045,FRAUD,82.6163247003077
2006,11,0.14379804630295817,FRAUD,63.373712989352626
2006,9,0.2420159816832261,FRAUD,59.827785366055465
2006,3,0.3076697194300597,FRAUD,60.20747893246296
2006,1,0.5825319621364761,FRAUD,60.342650427220796
2006,8,0.14524474725639722,FRAUD,71.1699663482658
2006,10,0.19302140308120774,FRAUD,47.30238419517
2006,5,0.7204456306024762,[INC - CASE DC USE ONLY],75.18450045497934
2006,2,0.3707982402863641,FRAUD,51.291191765765134
2006,7,0.7211588144927535,OTHER PROPERTY,51.604535971927874
1991,1,0.013776779244346924,FRAUD,100.0
1991,11,0.15414047456481947,FRAUD,100.0
1991,9,0.0029799691495179166,FRAUD,100.0
2005,6,0.09708869361719547,OTHER PROPERTY,46.04106638006029
2005,11,0.04076928353410419,CAR PROWL,37.53245462457626
2005,12,0.2981892250044324,FRAUD,74.13102671603366
2005,4,0.14591863289043536,FRAUD,64.69019776717134
2005,9,0.09199773932753011,[INC - CASE DC USE ONLY],53.24527903225118
2005,3,0.17900505284967286,FRAUD,77.19699842516931
2005,1,0.47680379416657526,FRAUD,48.94895136224301
2005,8,0.18293257459656762,FRAUD,53.481617772400156
2005,10,0.09164114205782609,FRAUD,78.52213629854572
2005,5,0.04017247062614513,FRAUD,93.47153173409309
2005,2,0.1990298023082612,FRAUD,94.53205883520643
2005,7,0.03285181384167971,FRAUD,47.499479482768606
1996,6,0.025258754458021514,FRAUD,100.0
1996,8,0.009199347617688699,FRAUD,100.0
1996,12,0.012407358129980369,CAR PROWL,100.0
1900,01,2.621064868620231e-09,STOLEN PROPERTY,99.99999999999999
2000,1,0.1805429465631671,FRAUD,82.34092958269817
2000,8,0.1524984420657379,OTHER PROPERTY,50.074020556518306
2000,7,0.06888996380848691,FRAUD,78.81028465983704
2000,10,0.0057964024948041854,CAR PROWL,100.00000000000001
2000,3,0.07779393298907088,OTHER PROPERTY,79.52297995413207
2000,4,0.02753972825269211,FRAUD,100.0
2000,5,0.2078304697190982,FRAUD,82.68954614286261
2000,6,0.026714871925300122,CAR PROWL,57.51669710431501
2000,9,0.05776023402602866,FRAUD,63.50959542085007
2000,2,0.06817258092868983,FRAUD,72.95221721125485
2000,11,0.16478426720375808,THEFT OF SERVICES,92.84260662257715
2014,6,250.50630095513634,CAR PROWL,24.097833054158155
2014,11,114.66875498124953,CAR PROWL,24.135218016817642
2014,12,198.24231624753938,OTHER PROPERTY,23.029938573608224
2014,4,249.8100739375117,CAR PROWL,29.811689621829082
2014,9,211.53352100458915,CAR PROWL,28.797894577319184
2014,3,569.6316994461424,FRAUD,41.12684781560695
2014,1,235.42844359495217,CAR PROWL,31.499285594280952
2014,8,205.3765162039422,CAR PROWL,25.843176684959694
2014,10,194.53952674106287,CAR PROWL,30.790663894307198
2014,5,236.60233509791334,CAR PROWL,25.96181550117001
2014,2,207.95401448277303,CAR PROWL,33.447956345211125
2014,7,243.3451077037726,CAR PROWL,21.686849090071714
1989,6,0.04500366097838854,[INC - CASE DC USE ONLY],100.0
1983,2,0.009228172820779729,RECOVERED PROPERTY,100.0
2008,6,95.44173017881945,CAR PROWL,17.254466603751542
2008,4,80.47170970904129,CAR PROWL,18.655281274878472
2008,12,78.41845716378332,CAR PROWL,21.04282181094353
2008,11,90.574228518267,CAR PROWL,22.917870877006447
2008,9,97.19932429902471,CAR PROWL,22.126784720895383
2008,3,83.86419562461407,CAR PROWL,17.323700242169483
2008,1,170.89155529908592,THREATS,28.735857190141996
2008,8,103.9663584072655,OTHER PROPERTY,22.77382293899479
2008,10,80.29406275724179,CAR PROWL,17.341835146808904
2008,5,276.41443205011313,DISTURBANCE,65.89849719595804
2008,2,78.08467537247914,CAR PROWL,15.65908838054987
2008,7,91.83144688642331,BURGLARY,18.42565008942999
1992,7,0.0025835682589696466,LOST PROPERTY,100.00000000000001
1993,1,0.0036967311891400274,FRAUD,100.0
1993,10,0.11422413639577123,FRAUD,92.59047369112824
2010,6,115.30495660773552,CAR PROWL,20.648050474665546
2010,11,93.62277652277207,CAR PROWL,23.627570934480527
2010,12,76.75040477831385,CAR PROWL,15.536550929100729
2010,4,66.84929556181876,CAR PROWL,20.74167353807344
2010,9,117.19570597809177,CAR PROWL,26.126319853888912
2010,3,85.00290826469886,CAR PROWL,20.767022484993138
2010,1,68.9022345932192,CAR PROWL,27.774409880469783
2010,8,110.46088975834807,CAR PROWL,19.45052421570498
2010,10,152.24958165429862,FRAUD,20.982234559900892
2010,5,79.62239576166323,CAR PROWL,25.730368779139372
2010,2,90.98778246750258,CAR PROWL,26.50680828236577
2010,7,33.14650445170406,BURGLARY,13.564248805013921
2012,6,185.5302245187736,CAR PROWL,18.24931742503472
2012,4,184.46574158379082,CAR PROWL,24.082818093423793
2012,12,111.79758215344708,OTHER PROPERTY,15.542853822792306
2012,11,90.3530480851969,FRAUD,21.856040301947946
2012,9,149.85552445596954,BURGLARY,29.239901062284982
2012,3,279.197121291332,BURGLARY,47.60261419451739
2012,1,183.33723334227724,THREATS,18.46190703757257
2012,8,189.17767576952832,OTHER PROPERTY,13.725244581733811
2012,10,101.89833107556608,BURGLARY,12.692352313211787
2012,5,184.45248887687356,CAR PROWL,19.85749646818044
2012,2,157.87388946686855,CAR PROWL,18.01336740823464
2012,7,187.74270481171672,CAR PROWL,18.65233252429028
1999,1,0.22077461051370995,FRAUD,100.0
1999,11,0.010379679338346968,FRAUD,100.0
1999,9,0.04624830754264754,FRAUD,100.0
1999,6,0.008496226898846607,[INC - CASE DC USE ONLY],100.0
