year,month,influence,largestInfluencer,largestInfluencerPercent
2009,6,446.0859234135163,PROPERTY DAMAGE,28.087228078268883
2009,4,94.08854451921965,WARRANT ARREST,16.831657573253374
2009,12,267.23790595861334,BURGLARY,39.48097943473841
2009,11,82.17806347994834,BURGLARY,16.837080526135072
2009,9,589.7485209007045,PROPERTY DAMAGE,21.789626915852672
2009,3,251.03823263460114,BURGLARY,62.924218389146816
2009,1,117.76866484943281,BURGLARY,17.324682773653343
2009,8,325.85442019354565,PROPERTY DAMAGE,36.34907745037925
2009,10,108.30968118046962,BIKE THEFT,20.077265274236975
2009,5,317.8241469705358,PROPERTY DAMAGE,72.13734331236931
2009,2,249.45202207983323,VEHICLE THEFT,54.873775631888876
2009,7,332.6368822053927,STOLEN PROPERTY,34.03475365434773
1994,6,0.05101174899411037,OTHER PROPERTY,78.6000458000332
1994,1,0.014069449325764108,THREATS,85.14298699951799
1994,10,0.006178347540257787,FRAUD,100.0
1995,9,0.000980185592482138,FRAUD,100.0
1995,2,0.007308256823788455,FRAUD,100.0
2015,6,216.7429468557288,BIKE THEFT,51.91278371053858
2015,11,615.0305771477601,DISTURBANCE,36.588044306450676
2015,12,6.13373963509037,VEHICLE THEFT,42.83287262341152
2015,4,427.18785599288555,OTHER PROPERTY,25.456765909975168
2015,9,311.39100144649257,OTHER PROPERTY,70.21894139404425
2015,3,299.8894883966633,OTHER PROPERTY,40.58451750478093
2015,1,518.6652672300245,BIKE THEFT,43.06282702411723
2015,8,605.1855912194346,DISTURBANCE,50.582904465311266
2015,10,112.660442111723,CAR PROWL,19.413851395359924
2015,5,326.60321440099693,DISTURBANCE,37.23347406186462
2015,2,196.22936037205065,TRESPASS,51.03192371764227
2015,7,285.7447209265623,PROPERTY DAMAGE,42.57885821868569
2013,6,925.6335354408615,CAR PROWL,26.803775397054263
2013,11,1181.4238104718982,FRAUD,28.216529452320206
2013,12,859.3794610872332,PROPERTY DAMAGE,27.345174323904665
2013,4,655.3555672794643,OTHER PROPERTY,36.50855347776151
2013,9,688.6204457151456,DISTURBANCE,33.65592445441256
2013,3,607.8199875830633,BURGLARY,40.05426599591717
2013,1,763.2964820383562,OTHER PROPERTY,30.951942896389774
2013,8,681.1071178993966,DISPUTE,32.82633374467855
2013,10,916.0895204591205,PROPERTY DAMAGE,25.989577204973145
2013,5,475.4892503129582,THREATS,51.848040400375474
2013,2,1298.7730257497628,BURGLARY,58.93623243815336
2013,7,702.2980455691655,THREATS,32.791202718175384
1990,5,0.002346378586381173,THREATS,100.0
1990,1,0.0012735927273121491,LOST PROPERTY,100.0
1990,11,0.010309545730007735,[INC - CASE DC USE ONLY],100.0
2011,6,506.2189073942701,THREATS,40.78405835183125
2011,4,161.80473388762186,FRAUD,20.429210000105996
2011,12,1060.2198979824498,OTHER PROPERTY,24.57951914155062
2011,11,725.9056897513905,VEHICLE THEFT,44.143319494649184
2011,9,568.4216042780662,VEHICLE THEFT,44.087160441096295
2011,3,495.2435277367672,PROPERTY DAMAGE,42.073166355129025
2011,1,310.5702274348016,ASSAULT,66.3959950822845
2011,8,799.136829927041,ASSAULT,27.714848652456997
2011,10,1130.7169283390576,BURGLARY,47.73652404331778
2011,5,188.2175973911209,FRAUD,12.143728996340249
2011,2,153.066974427506,VEHICLE THEFT,22.717713333950336
2011,7,494.92160102263995,DISTURBANCE,47.05675685156355
2001,6,0.12654671791714103,FRAUD,74.61710774189062
2001,11,0.027053298077474204,OTHER PROPERTY,49.36944309155501
2001,12,0.012657455968477303,FRAUD,100.0
2001,4,0.3146799598732396,FRAUD,64.69600508607195
2001,9,0.16434496000406662,FRAUD,60.347732703135925
2001,3,0.1051123054515542,CAR PROWL,64.27014062884237
2001,1,0.09673027272263357,FRAUD,59.9701001931282
2001,8,0.07228394293012416,TRESPASS,39.48104443990917
2001,10,0.17239986266448956,FRAUD,82.14999750621769
2001,5,0.07505055587069119,FRAUD,95.78773853622208
2001,2,0.21629488067151184,FRAUD,73.56235800262081
2001,7,0.02416971317192816,FRAUD,56.41348183933586
2003,6,0.0017655118300410875,FRAUD,100.0
2003,11,0.12807626145550174,FRAUD,86.46173900918491
2003,12,0.02037295904918225,FRAUD,53.53918602460075
2003,4,0.008115354208341035,CAR PROWL,100.0
2003,9,0.04313630918433934,FRAUD,79.85338795946014
2003,3,0.06594356801236004,FRAUD,96.4151535671172
2003,1,0.0855468702441743,FRAUD,62.50761179138717
2003,8,0.03689633437798644,OTHER PROPERTY,53.471574084687965
2003,10,0.04185417924631491,FRAUD,100.00000000000001
2003,5,0.002982725926047629,FRAUD,100.0
2003,2,0.012263256656443693,FRAUD,70.98379729586506
2003,7,0.028948462181992287,LOST PROPERTY,91.4393160644112
1965,1,0.0030416434539211157,LOST PROPERTY,100.0
1998,1,0.048782403037170616,LOST PROPERTY,41.41510949312955
1998,11,0.024125601120090108,OTHER PROPERTY,73.48462386669678
1998,5,0.008123095306461962,OTHER PROPERTY,100.0
1998,3,0.009076837560782248,CAR PROWL,48.80360141274941
1998,8,0.0023264392145433918,[INC - CASE DC USE ONLY],100.0
2002,1,0.36476803769099214,FRAUD,92.1551063452095
2002,8,0.052753113010524724,THREATS,92.22133752448664
2002,10,0.01415524451857693,FRAUD,100.0
2002,12,0.001563302919838582,FRAUD,100.0
2002,4,0.002206462454030955,FRAUD,100.0
2002,11,0.001980418010681344,CAR PROWL,100.0
2002,6,0.1714798672780843,FRAUD,78.55004714750824
2002,3,0.009888780816512654,DUI,87.6771442497137
2002,2,0.014588089034165686,EMBEZZLE,59.668164516996626
2007,6,0.7388306247847494,EMBEZZLE,31.137061097920878
2007,4,0.8568974569389181,ASSAULT,66.71338907070337
2007,12,6.122978250054634,THREATS,32.103527533099346
2007,11,1.7250171255708573,OTHER PROPERTY,32.017342791649305
2007,9,1.1297381471453678,FRAUD,52.73274649123822
2007,3,0.6799748227794631,FRAUD,70.31652407160671
2007,1,4.939663245444565,OTHER PROPERTY,50.62743389425983
2007,8,1.3412939156373178,FRAUD,87.47064121262146
2007,10,113.22719935239527,CAR PROWL,98.34090673610383
2007,5,1.0855207338019162,EMBEZZLE,36.50939342198164
2007,2,0.5164747959736864,FRAUD,86.56654747375472
2007,7,0.5944195183891864,FRAUD,45.593136942778905
2004,6,0.010843047415146728,LOST PROPERTY,66.21344291476382
2004,4,0.1124635535972749,FRAUD,88.60173712458871
2004,12,0.05225914401741822,VEHICLE THEFT,100.00000000000001
2004,11,0.02794289209755066,[INC - CASE DC USE ONLY],42.06719301073994
2004,9,0.26865665191744487,BURGLARY,52.29057759445669
2004,3,0.018033071218345784,BURGLARY-SECURE PARKING-RES,33.2683661239075
2004,1,0.23691287705409858,FRAUD,78.94413676627985
2004,8,0.03932550869545044,FRAUD,68.41614617059128
2004,10,0.17701677132576382,OTHER PROPERTY,76.57967530633466
2004,5,0.13318919355033967,FRAUD,91.94558536654891
2004,2,0.07986885865796423,FRAUD,53.71416108273038
2004,7,0.01486594245697109,FRAUD,100.0
1997,1,0.005913339735987337,FRAUD,71.24739335057671
1997,11,0.30393985786541033,FRAUD,100.0
1997,10,0.00406409295336289,FRAUD,100.0
1997,5,0.015403058531106472,FRAUD,100.0
1997,9,0.08396135992284046,FRAUD,100.0
1997,2,0.005637383798412162,FRAUD,100.0
2006,6,0.6480446966066247,FRAUD,78.24779983063536
2006,4,0.14336495596215004,FRAUD,72.7309152811261
2006,12,0.17831796412565148,FRAUD,64.31935792807528
2006,11,0.7785411317423884,EMBEZZLE,86.12147977297428
2006,9,0.14221016453233726,FRAUD,71.2860772546512
2006,3,111.96282941243894,FRAUD,99.45392466055732
2006,1,0.5767704499972633,FRAUD,70.52413204974401
2006,8,0.190774511011759,[INC - CASE DC USE ONLY],50.451008818147734
2006,10,0.32089628414309884,FRAUD,39.29263380374362
2006,5,0.3706845675682462,FRAUD,59.99182174291419
2006,2,0.14695055011984032,FRAUD,57.039890901291436
2006,7,0.1537078544400628,[INC - CASE DC USE ONLY],39.30913014547295
1991,1,0.004881082707709111,FRAUD,100.0
1991,11,0.010069221322297614,FRAUD,100.00000000000001
1991,9,0.036824950857559484,FRAUD,100.0
2005,6,0.06162359290516397,FRAUD,69.22050485849319
2005,11,0.7530767355183071,THREATS,94.97658182726434
2005,12,0.08384160518450445,[INC - CASE DC USE ONLY],36.90096882437404
2005,4,0.04573579505199643,FRAUD,63.875583181751395
2005,9,0.11708490281606393,FRAUD,60.45071771762139
2005,3,0.0709486138887736,FRAUD,60.8483639332762
2005,1,0.576885796284023,FRAUD,69.76349117520782
2005,8,0.24084306325366125,FRAUD,89.96479244510492
2005,10,0.018447210581468833,FRAUD,74.9067855886492
2005,5,0.11767884769123127,ASSAULT,90.5009223463306
2005,2,0.05280563613291632,FRAUD,63.644691302069106
2005,7,0.02480705055038151,OTHER PROPERTY,69.42745171337835
1996,6,0.002280002047981302,FRAUD,100.0
1996,8,0.048866947693560495,FRAUD,100.0
1996,12,0.01389744308240918,CAR PROWL,100.0
1900,01,2.618276423937067e-09,STOLEN PROPERTY,100.0
2000,1,0.1843476453744997,FRAUD,77.18151876334355
2000,8,0.03211177156479905,OTHER PROPERTY,58.95215546118874
2000,7,0.0472007947419516,BURGLARY,46.08164963021192
2000,10,0.021433764109367863,CAR PROWL,100.0
2000,3,0.01930326357809605,CAR PROWL,55.8164280757007
2000,4,0.008665367656442033,FRAUD,100.0
2000,5,0.032586617964704974,FRAUD,48.41621469207664
2000,6,0.00796347285187981,CAR PROWL,67.75013379847974
2000,9,0.04070716495289989,FRAUD,92.42643750227427
2000,2,0.024455483246717917,FRAUD,73.28752464932701
2000,11,0.6706717988146697,PROPERTY DAMAGE,98.26724069956471
2014,6,926.7941131239446,VEHICLE THEFT,30.127444028433583
2014,11,248.72190297732112,BURGLARY,44.90108603298743
2014,12,804.0762653481772,OTHER PROPERTY,29.128755531869132
2014,4,282.194622219173,FRAUD,18.763138604397863
2014,9,920.935133669689,BIKE THEFT,48.54400725718154
2014,3,1154.574580232865,CAR PROWL,62.926598665229626
2014,1,982.0435767560411,STOLEN PROPERTY,23.55973874772203
2014,8,991.9795362545922,STOLEN PROPERTY,23.076083938885674
2014,10,606.738248018447,DISTURBANCE,33.76600266021731
2014,5,1476.0192933695855,DISPUTE,30.242325688717518
2014,2,203.24831566645918,CAR PROWL,18.84465144412844
2014,7,495.9814002047834,OTHER PROPERTY,51.17530603810552
1989,6,0.004704539512643415,[INC - CASE DC USE ONLY],100.0
1983,2,0.021533837198378182,RECOVERED PROPERTY,100.0
2008,6,387.77402502304693,BURGLARY,33.171455508380255
2008,4,201.85241614887778,ASSAULT,57.26132730202322
2008,12,199.08796699237726,DISTURBANCE,56.32085482521478
2008,11,315.58718815622024,VEHICLE THEFT,40.47318676125713
2008,9,282.0630006420776,BURGLARY,42.591087633148454
2008,3,362.08638869135143,OTHER PROPERTY,63.96331954437728
2008,1,361.7253381222761,VEHICLE THEFT,33.78196679196435
2008,8,353.3262907996711,BURGLARY,59.70882969346306
2008,10,288.4167741754522,OTHER PROPERTY,39.61114407154038
2008,5,546.9985001410214,PROPERTY DAMAGE,38.66238469481764
2008,2,341.6582726657618,OTHER PROPERTY,34.9523769114848
2008,7,411.45600065138035,BURGLARY,27.25647456142363
1992,7,0.041037860969402915,LOST PROPERTY,100.0
1993,1,0.011371633696986887,FRAUD,100.0
1993,10,0.03788364660324094,HOMICIDE,66.80596689567314
2010,6,538.69479883731,VEHICLE THEFT,40.088993840458066
2010,11,434.4226467112463,OTHER PROPERTY,28.05865243410355
2010,12,236.51303671806815,THREATS,47.79056832746621
2010,4,326.2462001835293,OTHER PROPERTY,36.72759873803596
2010,9,437.090716900258,BURGLARY,47.23385129317771
2010,3,385.7328046937875,WARRANT ARREST,34.1365779821153
2010,1,516.050393931816,CAR PROWL,64.42266433662358
2010,8,539.6546019454572,BURGLARY,43.99069899954986
2010,10,541.6858844115422,BURGLARY,39.408230864758366
2010,5,336.16986241173845,BURGLARY,42.65743415758032
2010,2,359.07008470086095,PROPERTY DAMAGE,30.28812991862024
2010,7,221.22398739817837,THREATS,90.08616479598322
2012,6,270.363635091272,VEHICLE THEFT,22.759498135888467
2012,4,558.9522172245603,BIKE THEFT,40.100108569497976
2012,12,97.81472531202775,OTHER PROPERTY,19.247013203903535
2012,11,929.2187222598919,BURGLARY,44.285412024461564
2012,9,422.6964005134694,CAR PROWL,49.34870933493714
2012,3,945.3751766151177,BURGLARY,48.774521895800575
2012,1,2057.3644950395615,CAR PROWL,30.060524884664968
2012,8,915.4268493877742,CAR PROWL,25.01330075769944
2012,10,276.9246081131404,BURGLARY,45.11777483222047
2012,5,622.6623475566412,ASSAULT,37.572107735597974
2012,2,650.2360001515909,CAR PROWL,36.380136209367585
2012,7,839.9071206068344,PROPERTY DAMAGE,31.294310649381558
1999,1,0.01973646515593763,FRAUD,100.0
1999,11,0.0014497357111349818,FRAUD,100.0
1999,9,0.011239764818683018,FRAUD,100.0
1999,6,0.022236249538684,[INC - CASE DC USE ONLY],100.0
