year,month,influence,largestInfluencer,largestInfluencerPercent
2009,6,362.64657663933957,VEHICLE THEFT,32.37784430160666
2009,4,153.6780318317625,CAR PROWL,13.748931399113355
2009,12,231.70904006838964,WARRANT ARREST,48.21576199989674
2009,11,459.06498397645566,CAR PROWL,61.06871202902243
2009,9,293.2159126917341,OTHER PROPERTY,46.734647879521155
2009,3,212.51209221952195,PROPERTY DAMAGE,16.942239299285266
2009,1,325.3286938001638,OTHER PROPERTY,50.09592439608636
2009,8,263.1212656873995,OTHER PROPERTY,49.150466883504684
2009,10,354.08188391070246,BURGLARY,34.75651794771747
2009,5,136.09760853858884,BURGLARY,16.66710932337577
2009,2,173.7778679453518,BURGLARY,22.674751899216883
2009,7,304.7626971801033,OTHER PROPERTY,42.084789382995574
1994,6,0.010833774639883616,PROPERTY DAMAGE,88.79133848695689
1994,1,0.024990714841443856,FRAUD,61.435060500579034
1994,10,0.00464634189765457,FRAUD,100.0
1995,9,0.046362905336571204,FRAUD,99.99999999999999
1995,2,0.0040943432530371835,FRAUD,100.0
2015,6,357.1815758665222,VEHICLE THEFT,32.20099048922608
2015,11,520.0122539967402,OTHER PROPERTY,54.11674285310396
2015,12,6.692352443204839,VEHICLE THEFT,33.73857423809115
2015,4,255.30782704824506,CAR PROWL,26.184008751040558
2015,9,316.6235667107913,BURGLARY,38.35905962948496
2015,3,828.4851581736149,CAR PROWL,62.68653472432623
2015,1,434.3568236785722,OTHER PROPERTY,31.63153391689515
2015,8,455.24274860305724,BURGLARY,29.828080226961514
2015,10,670.0141733073921,OTHER PROPERTY,39.78199617235156
2015,5,388.70721854657717,TRAFFIC,27.967708980624916
2015,2,237.93588683355978,CAR PROWL,16.114438526348895
2015,7,278.36675849968566,CAR PROWL,19.86635704279791
2013,6,985.8910456011075,BURGLARY,54.86258978801589
2013,11,406.6498416666926,CAR PROWL,20.179336170210593
2013,12,1106.904668918131,THREATS,20.51560788699475
2013,4,376.3650891051032,CAR PROWL,18.33237623461218
2013,9,819.0619703730345,VEHICLE THEFT,29.63766148488777
2013,3,958.517077236016,CAR PROWL,41.6759616966149
2013,1,1070.790785980569,OTHER PROPERTY,50.869646390427484
2013,8,752.4060610586552,PROPERTY DAMAGE,30.59857621450414
2013,10,457.98570763510173,BURGLARY,17.413065424737272
2013,5,841.9585803116174,CAR PROWL,36.02304538124775
2013,2,616.7880719798225,OTHER PROPERTY,50.11838800738887
2013,7,699.9335755028665,BURGLARY,39.64797226489829
1990,5,0.007260557488626498,THREATS,100.0
1990,1,0.13360603564100973,LOST PROPERTY,100.0
1990,11,0.003222432561595928,[INC - CASE DC USE ONLY],100.0
2011,6,611.2545137373452,TRESPASS,36.067843473560806
2011,4,804.5460424487023,OTHER PROPERTY,63.448779423846545
2011,12,1746.9337674151952,FRAUD,40.73144501158867
2011,11,548.5095191801099,ASSAULT,41.253517240814745
2011,9,575.6861368189429,WARRANT ARREST,38.66931424006949
2011,3,1142.5249180838132,OTHER PROPERTY,65.08340542699287
2011,1,648.5039406521933,SHOPLIFTING,34.27922002570086
2011,8,374.0619652948579,PROPERTY DAMAGE,21.87216270824889
2011,10,851.5524011646004,DISTURBANCE,26.46407494229946
2011,5,483.98438405996,BURGLARY,34.20238153409639
2011,2,336.88144034614646,BURGLARY,36.73304706307893
2011,7,704.0324782774552,DISTURBANCE,36.105802756984815
2001,6,0.25951375714459024,FRAUD,48.73328352571542
2001,11,0.13077617101870143,FRAUD,60.03763048873807
2001,12,0.1279113735291669,FRAUD,100.0
2001,4,0.7247005197764754,PROPERTY DAMAGE,62.577863354286755
2001,9,0.07464905051053682,OTHER PROPERTY,63.0906436627102
2001,3,0.056849123516621754,BURGLARY,55.65811677682728
2001,1,4.255059613386279,FRAUD,60.094585962413
2001,8,0.03918714821525962,FRAUD,69.76060305102786
2001,10,9.672110449633072,FRAUD,99.22567629656237
2001,5,0.1340318117156615,FRAUD,93.0924569789985
2001,2,0.02197462506861811,LOST PROPERTY,47.69085024495279
2001,7,0.06912267389444916,BURGLARY-SECURE PARKING-RES,83.47572256048726
2003,6,0.038858450997920305,FRAUD,100.0
2003,11,0.03820995619703982,FRAUD,81.05404915536053
2003,12,0.04360688416744477,FRAUD,98.25121041909232
2003,4,0.0037926655657418555,CAR PROWL,100.0
2003,9,0.015089965207690249,OTHER PROPERTY,58.547427985999875
2003,3,0.14189677710247528,OTHER PROPERTY,77.45384237267096
2003,1,0.3909013413590836,FRAUD,84.2602256094143
2003,8,0.043987240243883424,FRAUD,92.69292097788767
2003,10,0.0013396531504938068,FRAUD,100.0
2003,5,0.006987421450411937,FRAUD,100.0
2003,2,0.012102058687844312,OTHER PROPERTY,70.58485848771042
2003,7,0.024843331313136287,FRAUD,76.85032371115959
1965,1,0.010679777694739006,LOST PROPERTY,100.0
1998,1,0.04479122077065125,FRAUD,63.74941988203205
1998,11,0.005742766310529437,FRAUD,73.90622375728137
1998,5,0.0017740766407276598,OTHER PROPERTY,100.0
1998,3,0.42080435497303226,OTHER PROPERTY,94.6736954566719
1998,8,0.022704006047781323,[INC - CASE DC USE ONLY],100.0
2002,1,0.5330221344172559,FRAUD,94.83010501703343
2002,8,0.07460161087650137,FRAUD,79.55557363246128
2002,10,0.008376374028285742,FRAUD,100.0
2002,12,0.060501771971168045,FRAUD,100.0
2002,4,0.015683233193255295,FRAUD,100.0
2002,11,0.014510389150814458,CAR PROWL,100.0
2002,6,0.010358321185780204,PROPERTY DAMAGE,42.405333324373196
2002,3,0.06756518844060484,[INC - CASE DC USE ONLY],95.52951708117294
2002,2,0.020561396216903248,FRAUD,45.379425510392096
2007,6,2.285339235114126,FRAUD,82.15996936055659
2007,4,0.7262295028536058,FRAUD,42.35321923859478
2007,12,42.73943148861426,OTHER PROPERTY,56.43338177732433
2007,11,2.3243935371516273,FRAUD,36.03105337041999
2007,9,3.292979558063926,OTHER PROPERTY,63.656048712350334
2007,3,0.6205014829703439,FRAUD,42.57242039838616
2007,1,3.3100745828605636,CAR PROWL,33.64954603638672
2007,8,1.6974546793662268,FRAUD,81.98640481467365
2007,10,1.8417141503148406,FRAUD,49.24416466877497
2007,5,1.6547339386410236,THREATS,57.178941737629344
2007,2,1.0275718253747326,THREATS,44.22747389143255
2007,7,2.061538568316456,FRAUD,74.09738051140079
2004,6,0.010575809921767557,FRAUD,74.88965974690225
2004,4,0.011964354041835176,LOST PROPERTY,40.27653213562998
2004,12,0.001341411079392178,VEHICLE THEFT,100.0
2004,11,0.1399936814227411,LOST PROPERTY,44.07953990899333
2004,9,0.24766644843768104,FRAUD,53.68729913812329
2004,3,0.09032630397220255,BURGLARY-SECURE PARKING-RES,69.12198820425942
2004,1,0.7862743562557066,FRAUD,60.17008051356861
2004,8,0.09413831834961618,OTHER PROPERTY,40.267229251047496
2004,10,0.14633084777597685,[INC - CASE DC USE ONLY],64.23916103311389
2004,5,0.31522149089570767,FORGERY,80.42972036027389
2004,2,0.025755589044362134,FORGERY,52.99446077604283
2004,7,0.06610904697689579,FRAUD,100.0
1997,1,0.1020383827181522,FORGERY,93.31852457919605
1997,11,0.002244824878101653,FRAUD,100.0
1997,10,0.04932179218493095,FRAUD,100.00000000000001
1997,5,0.007776421958510865,FRAUD,100.0
1997,9,0.0012106500926699392,FRAUD,100.0
1997,2,0.004993200842257372,FRAUD,100.0
2006,6,0.17619201824794706,FRAUD,55.725469840319946
2006,4,0.21878435829558734,LOST PROPERTY,58.182116814263814
2006,12,0.6930054705462247,OTHER PROPERTY,66.29082654371541
2006,11,0.07158169399796226,FRAUD,41.57577499763474
2006,9,0.15942787677203668,FRAUD,51.74315718837148
2006,3,0.14729051487967526,FRAUD,78.00693957210486
2006,1,2.9450508975262903,FRAUD,78.52298872942686
2006,8,2.5681716775541155,FRAUD,99.03468609140128
2006,10,0.08334319573669008,[INC - CASE DC USE ONLY],32.608913250412826
2006,5,4.04544672442253,THREATS,96.61389073880754
2006,2,0.6162995740913564,FRAUD,73.14984179395996
2006,7,0.057389369974757666,FRAUD,53.0502154024964
1991,1,0.0372749815032599,FRAUD,100.0
1991,11,0.010298568004165606,FRAUD,100.0
1991,9,0.0010902582644750963,FRAUD,100.0
2005,6,0.6183884936134229,FRAUD,88.0539395798106
2005,11,0.5894673752010616,VEHICLE THEFT,81.03316521702428
2005,12,0.0765208357114099,LOST PROPERTY,71.8134509167449
2005,4,0.08515879813233641,FRAUD,58.31813144813513
2005,9,0.17350226460042092,FRAUD,76.57482963259493
2005,3,0.04834311159735845,FRAUD,75.99692907214748
2005,1,0.6514798168093665,THREATS,39.32915999384382
2005,8,0.08625979610066546,OTHER PROPERTY,46.94659208930412
2005,10,0.17577980737552543,FRAUD,96.46101104116902
2005,5,0.01130956339416633,FRAUD,90.40784940392366
2005,2,0.03703341935190498,FRAUD,93.70776455989997
2005,7,0.08764442306555711,FRAUD,67.06775791534116
1996,6,0.020139136214449477,FRAUD,99.99999999999999
1996,8,0.0027026924721427472,FRAUD,99.99999999999999
1996,12,0.002801148414502829,CAR PROWL,100.00000000000001
1900,01,2.620366078697303e-09,STOLEN PROPERTY,100.0
2000,1,0.7929272906713318,THREATS,88.81521993762883
2000,8,0.057242271041239516,STOLEN PROPERTY,37.586995864161445
2000,7,0.03257576586161291,FRAUD,87.25780484684292
2000,10,0.03922223756570713,CAR PROWL,100.0
2000,3,0.10944508923027359,OTHER PROPERTY,97.11015013313175
2000,4,0.012765834304455891,FRAUD,100.0
2000,5,0.023228053660607716,FRAUD,65.84740553918064
2000,6,1.2427472441111491,FRAUD,99.5830196158809
2000,9,0.023202410760105468,FRAUD,50.35539323566107
2000,2,0.010314645271339327,FRAUD,56.69194340629115
2000,11,0.12057860646452215,FRAUD,90.3915129829921
2014,6,1090.2324729863112,BIKE THEFT,20.581125445374997
2014,11,264.8205544990687,OTHER PROPERTY,16.59543728206459
2014,12,237.71729075036643,VEHICLE THEFT,15.907937278527838
2014,4,834.129775235183,VEHICLE THEFT,37.51249193699387
2014,9,662.2236169323279,SHOPLIFTING,35.74411203476195
2014,3,627.7021003649239,FRAUD,23.832399406906628
2014,1,674.4670376833607,CAR PROWL,39.9173502416434
2014,8,507.056789805677,WARRANT ARREST,22.534013432947145
2014,10,440.45232621189353,VEHICLE THEFT,18.317957275260838
2014,5,788.4888420248367,VEHICLE THEFT,52.29003605015161
2014,2,407.1676285111286,CAR PROWL,16.897733856299727
2014,7,517.8641781837024,CAR PROWL,14.003365046388229
1989,6,0.005975046944530008,[INC - CASE DC USE ONLY],100.0
1983,2,0.002366711822006682,RECOVERED PROPERTY,100.0
2008,6,160.70894032026024,CAR PROWL,17.48441864995404
2008,4,145.60915597804237,CAR PROWL,12.65366724265382
2008,12,336.62942827948183,FRAUD,33.43295221862132
2008,11,275.9584987266846,PROPERTY DAMAGE,45.12277041417063
2008,9,626.8040966334964,CAR PROWL,21.431991163045698
2008,3,298.59411249041966,CAR PROWL,45.326074923675776
2008,1,394.2339819034128,PROPERTY DAMAGE,29.976745387254617
2008,8,320.82522005952984,THREATS,35.82137078828996
2008,10,256.35467826250505,VEHICLE THEFT,47.51064962887909
2008,5,200.98814727816065,OTHER PROPERTY,17.91900515545788
2008,2,254.98907624389,NARCOTICS,45.800692126948576
2008,7,282.2361065128703,PROPERTY DAMAGE,45.960750524893484
1992,7,0.0012417636527608797,LOST PROPERTY,100.0
1993,1,0.0019831983698686845,FRAUD,100.0
1993,10,0.01005607851006554,FRAUD,80.57927124457208
2010,6,312.70574379465785,CAR PROWL,36.407978608825324
2010,11,197.04808582722924,BURGLARY,19.92402165157602
2010,12,293.8120402573362,BURGLARY,40.95244688654921
2010,4,300.10724954084236,OTHER PROPERTY,49.51200622919881
2010,9,232.93496165820244,VEHICLE THEFT,18.578627439300455
2010,3,274.73743354383976,FALSE REPORT,39.32859488538451
2010,1,160.2354422680466,FRAUD,21.61667395326312
2010,8,218.41709815352473,OTHER PROPERTY,17.49499070367148
2010,10,461.2126259433907,THREATS,28.039413850483594
2010,5,264.7976222571799,FRAUD,43.54973963667316
2010,2,579.3085998919433,FRAUD,42.593943683302506
2010,7,327.6602062863823,NARCOTICS,68.25631497463654
2012,6,1122.0925008701067,VEHICLE THEFT,47.27504471926356
2012,4,853.2207379779863,WARRANT ARREST,28.4266807181392
2012,12,224.3947173048411,BURGLARY,25.19797142973494
2012,11,152.5960213995551,BURGLARY,20.015826282373055
2012,9,444.38054012120216,SHOPLIFTING,26.427285549415448
2012,3,320.49700262609355,OTHER PROPERTY,14.641020426232068
2012,1,1420.6844817940942,CAR PROWL,38.09403067647952
2012,8,965.2995994310792,PROPERTY DAMAGE,26.326130157922687
2012,10,319.0655029068744,SHOPLIFTING,35.87845874932633
2012,5,342.7350210329911,BURGLARY,18.32402805335577
2012,2,442.3794562011641,FRAUD,27.593458438624978
2012,7,964.8634175100873,CAR PROWL,58.76656349238916
1999,1,0.022051915920087248,FRAUD,100.0
1999,11,0.021161876007158274,FRAUD,100.0
1999,9,0.010228900573901176,FRAUD,100.0
1999,6,0.001906092265177298,[INC - CASE DC USE ONLY],100.0
