year,month,influence,largestInfluencer,largestInfluencerPercent
2009,6,108.16523732921587,CAR PROWL,46.181652916393354
2009,4,188.1661284089096,BURGLARY,38.97714364927356
2009,12,63.51434288754817,BURGLARY,25.031859868073607
2009,11,141.10946144624452,PROPERTY DAMAGE,32.585337973806745
2009,9,137.95291356653198,PROPERTY DAMAGE,29.35990612733451
2009,3,97.21165673760521,PROPERTY DAMAGE,19.10555562061123
2009,1,150.68426125031343,PROPERTY DAMAGE,29.70403254257229
2009,8,5270.957215646287,PROPERTY DAMAGE,98.45355512717836
2009,10,5413.913713881008,DISPUTE,95.72924803881102
2009,5,5332.416546826905,OTHER PROPERTY,97.51931335995697
2009,2,152.3315527127262,VEHICLE THEFT,53.09112209796834
2009,7,193.98478792961248,BURGLARY,24.744180377658406
1994,6,0.17315217612509592,OTHER PROPERTY,96.0847448362051
1994,1,0.00924956126125072,THREATS,83.37499338118106
1994,10,0.004083356252988958,FRAUD,100.0
1995,9,0.0008238617925074004,FRAUD,100.00000000000001
1995,2,0.00455820625548713,FRAUD,100.0
2015,6,140.2034337717767,ANIMAL COMPLAINT,23.78569599816352
2015,11,84.43406794472338,CAR PROWL,24.666487133027886
2015,12,3.3397972922388663,VEHICLE THEFT,36.73340105286643
2015,4,167.7500245349408,CAR PROWL,43.33374636396904
2015,9,132.79809114305218,ANIMAL COMPLAINT,28.36754150009582
2015,3,151.3625350071215,CAR PROWL,21.466146926958643
2015,1,328.8277284873207,BURGLARY,28.053347325689742
2015,8,260.84552945999184,CAR PROWL,46.72331693676112
2015,10,175.93320621727813,VEHICLE THEFT,41.341033827852556
2015,5,389.604269331877,STOLEN PROPERTY,36.93188513193803
2015,2,272.60987432353164,BURGLARY,23.371042067714423
2015,7,190.2015828313536,DISTURBANCE,22.311518664300383
2013,6,278.47263652557234,DISTURBANCE,22.05325937192258
2013,11,259.859694552569,CAR PROWL,24.691391274259207
2013,12,455.6678933805478,OTHER PROPERTY,21.877743395281485
2013,4,10755.345057166247,PROPERTY DAMAGE,96.78357866157081
2013,9,252.06298601067664,CAR PROWL,27.313812209824093
2013,3,321.9599346561173,OTHER PROPERTY,34.96329068392889
2013,1,318.5409846390422,VEHICLE THEFT,25.8505883351818
2013,8,229.70002958268483,OTHER PROPERTY,17.172118504006203
2013,10,10685.688211644043,OTHER PROPERTY,97.21540314028884
2013,5,305.6708855395329,OTHER PROPERTY,31.61939335301125
2013,2,343.6423377282645,WEAPON,22.50533278518102
2013,7,366.5254072396915,VEHICLE THEFT,25.994923078678948
1990,5,0.0016541025239263402,THREATS,100.0
1990,1,0.0010233246876904774,LOST PROPERTY,100.0
1990,11,0.005589566226975168,[INC - CASE DC USE ONLY],100.0
2011,6,686.2418822224673,VEHICLE THEFT,66.87860235729431
2011,4,181.46729230209326,BURGLARY,23.81150750633995
2011,12,306.80691450317363,VEHICLE THEFT,29.55912325171985
2011,11,161.83779349828802,VEHICLE THEFT,19.468588832412184
2011,9,1080.8346232851943,VEHICLE THEFT,44.505043709293524
2011,3,10694.493699902087,FRAUD,96.96874332916228
2011,1,109.49442176038309,WARRANT ARREST,26.851482897190962
2011,8,281.4436168947778,BURGLARY,33.84628099105326
2011,10,307.0256942739529,FRAUD,26.631361415937086
2011,5,6098.118502104086,OTHER PROPERTY,95.95987302414007
2011,2,126.11518213215426,WARRANT ARREST,24.458850054792997
2011,7,220.07579377300243,OTHER PROPERTY,19.557826231874138
2001,6,0.6609499191802399,FRAUD,96.5483637061063
2001,11,0.02674969032642355,OTHER PROPERTY,53.6205580484707
2001,12,0.007777226383990996,FRAUD,100.0
2001,4,0.6111377937883555,FRAUD,93.62504008916424
2001,9,0.18234037101416173,FRAUD,84.45608311327844
2001,3,0.053265121759571266,CAR PROWL,51.62398809937184
2001,1,0.2809960099154172,FRAUD,90.42557917128836
2001,8,0.08326068550907342,LOST PROPERTY,64.89598451804783
2001,10,0.0717147733894769,FRAUD,73.2268657398789
2001,5,0.029100846454923803,FRAUD,91.63428631541133
2001,2,0.05624501284441931,FRAUD,52.10400826791171
2001,7,0.01471304254167192,FRAUD,53.19560801488021
2003,6,0.0013532897192255946,FRAUD,100.0
2003,11,0.04075437605323714,FRAUD,75.27712989713406
2003,12,0.01620479476214609,VEHICLE THEFT,53.12500767618747
2003,4,0.0049809861064450235,CAR PROWL,100.0
2003,9,0.028921174683560917,FRAUD,79.97136301968122
2003,3,0.02929471394478105,FRAUD,93.50949091471092
2003,1,0.0471513519300487,FRAUD,55.711720203534824
2003,8,0.04228250545959217,ASSAULT,74.33880069230655
2003,10,0.013003543359259847,FRAUD,99.99999999999999
2003,5,0.002449767977768915,FRAUD,100.0
2003,2,0.007573251709827126,FRAUD,65.30500753788499
2003,7,0.015602048749619455,LOST PROPERTY,87.98013026706352
1965,1,0.002155599226526203,LOST PROPERTY,100.0
1998,1,0.027559478186097115,LOST PROPERTY,32.796737477927344
1998,11,0.027471966480300248,OTHER PROPERTY,86.04308537358375
1998,5,0.009085118498461735,OTHER PROPERTY,100.0
1998,3,0.006652794622312587,CAR PROWL,46.32546514314727
1998,8,0.001758310437208827,[INC - CASE DC USE ONLY],100.0
2002,1,0.11925961233247889,FRAUD,84.84347771914122
2002,8,0.020326679223819366,THREATS,84.26670761202982
2002,10,0.008721238341777605,FRAUD,100.0
2002,12,0.0012884667926074717,FRAUD,100.0
2002,4,0.0016178333821361083,FRAUD,100.0
2002,11,0.001461541614354787,CAR PROWL,100.0
2002,6,0.0444637600736347,FRAUD,59.40668154620771
2002,3,0.005558738786530536,DUI,82.41062722861433
2002,2,0.009487420350322396,EMBEZZLE,52.12643532073111
2007,6,0.830619460613808,FRAUD,47.847131150454544
2007,4,0.21028695436233488,FRAUD,25.284369288320715
2007,12,3.649334333985784,FRAUD,30.49989178308018
2007,11,1.3137150590423015,FRAUD,44.89424268018527
2007,9,1.5575529772642713,FRAUD,76.4111078260535
2007,3,4.309989318356559,FRAUD,95.9466416759061
2007,1,1.203115590433297,FRAUD,64.53943711274894
2007,8,0.5571052926752051,FRAUD,78.85647272917318
2007,10,3.510292406009972,FRAUD,82.70088199781193
2007,5,0.717763407396331,LOST PROPERTY,38.696129503513184
2007,2,7.635213570826834,FRAUD,99.04718168980433
2007,7,0.39325530762461597,FRAUD,43.13640534550234
2004,6,0.008666336724530828,LOST PROPERTY,71.05706552943127
2004,4,0.03523081194022552,FRAUD,77.08013341560599
2004,12,0.014617213943714237,VEHICLE THEFT,100.0
2004,11,0.018022057160872868,[INC - CASE DC USE ONLY],36.18237350915409
2004,9,0.060346295986552535,PROPERTY DAMAGE,46.89943048724296
2004,3,0.012904161499405844,BURGLARY-SECURE PARKING-RES,34.707401499437786
2004,1,0.18500732295793737,FRAUD,85.22068984903682
2004,8,0.06233435087610928,FRAUD,86.3167276626265
2004,10,0.06077430092131668,OTHER PROPERTY,49.5337125849481
2004,5,0.050721388382475634,FRAUD,87.92697532654593
2004,2,0.05152918363360283,FRAUD,63.67078001759359
2004,7,0.009598799823379932,FRAUD,100.0
1997,1,0.004381300375432348,FRAUD,68.97775312333762
1997,11,0.24947159551463294,FRAUD,100.0
1997,10,0.003273170983253749,FRAUD,100.00000000000001
1997,5,0.009104167890912056,FRAUD,100.0
1997,9,0.022347390225602486,FRAUD,100.0
1997,2,0.003580060710516324,FRAUD,100.0
2006,6,0.3372575107417138,FRAUD,68.42305348469671
2006,4,0.1231236782847449,FRAUD,77.53456483569508
2006,12,37.7251068510244,FRAUD,99.89799469178058
2006,11,0.12808081019523992,EMBEZZLE,49.378077312544654
2006,9,0.23463104446514912,FRAUD,90.05621162491472
2006,3,0.37489250878268066,OTHER PROPERTY,42.56521842882396
2006,1,1.0213488030870794,FRAUD,90.75091423908879
2006,8,11.89053603789188,[INC - CASE DC USE ONLY],94.33258348229488
2006,10,1.6045994803035522,FRAUD,80.93310104574311
2006,5,0.4645973174474776,FRAUD,85.69264327521661
2006,2,0.10216211938161018,FRAUD,69.11705178699293
2006,7,0.1230755468735245,FRAUD,48.931713988308964
1991,1,0.004076275353442689,FRAUD,100.0
1991,11,0.006358437927199872,FRAUD,100.0
1991,9,0.01649563315060936,FRAUD,100.0
2005,6,0.06832301733579244,FRAUD,81.15552127463583
2005,11,0.08958312574895742,THREATS,70.22544671206306
2005,12,0.18783921696845138,ROBBERY,79.2280981411205
2005,4,0.027279136935535058,FRAUD,61.24792437137312
2005,9,0.4577507445179543,FRAUD,92.46324689341903
2005,3,0.05026680393236895,FRAUD,54.01540925550164
2005,1,0.4127744205679277,FRAUD,77.51252415112295
2005,8,0.19963813246161682,FRAUD,91.97051535188658
2005,10,0.012999366549322999,FRAUD,75.26173512771409
2005,5,0.08027880967246491,ASSAULT,90.68012431182376
2005,2,0.027854652833341167,FRAUD,71.28978417570127
2005,7,0.017770270527189103,OTHER PROPERTY,65.07683219861214
1996,6,0.0016935688761177106,FRAUD,100.0
1996,8,0.01886907109640179,FRAUD,100.0
1996,12,0.0069936835851128615,CAR PROWL,100.00000000000001
1900,01,2.6172201206795834e-09,STOLEN PROPERTY,100.0
2000,1,0.08101342801432188,FRAUD,66.32620560905325
2000,8,0.019989225046883958,OTHER PROPERTY,60.807632030385456
2000,7,0.025108447668533276,ASSAULT,55.38865915592501
2000,10,0.013067676683034414,CAR PROWL,100.0
2000,3,0.011919776253367717,OTHER PROPERTY,51.215362054607205
2000,4,0.006284597520472873,FRAUD,100.0
2000,5,0.019340538096740696,FRAUD,52.64236705771585
2000,6,0.0057982980838306875,CAR PROWL,64.0939926712788
2000,9,0.019130331336803065,FRAUD,88.17152561363879
2000,2,0.013544076110774829,FRAUD,68.99219771196115
2000,11,0.05593221275970476,PROPERTY DAMAGE,86.51247111311939
2014,6,10574.827457478916,VEHICLE THEFT,98.22721030261927
2014,11,153.48340732835865,BURGLARY,23.239982934562356
2014,12,504.15619121935873,VEHICLE THEFT,55.9519232862786
2014,4,311.8789676238052,CAR PROWL,31.442612704374845
2014,9,318.6191164759681,VEHICLE THEFT,35.72584088692741
2014,3,5710.548986992659,VEHICLE THEFT,92.849432349339
2014,1,10664.094790467518,VEHICLE THEFT,97.53756820849411
2014,8,305.2780597648947,VEHICLE THEFT,28.157595846498594
2014,10,358.5512567588293,VEHICLE THEFT,26.581526225346135
2014,5,404.0745106538592,CAR PROWL,20.864275273360498
2014,2,298.76867153972944,BURGLARY,29.468620982682076
2014,7,466.3260698705993,VEHICLE THEFT,27.825004032844614
1989,6,0.0030978792154333487,[INC - CASE DC USE ONLY],99.99999999999999
1983,2,0.00930295851037563,RECOVERED PROPERTY,100.0
2008,6,5315.95903170381,WARRANT ARREST,97.64495368136758
2008,4,124.66154290281307,WARRANT ARREST,26.66510112836102
2008,12,97.35628846889405,PROPERTY DAMAGE,33.85360921090729
2008,11,10512.145463283665,ASSAULT,49.322905470013076
2008,9,5353.846918456977,VEHICLE THEFT,96.93826480489838
2008,3,195.50869369840183,OTHER PROPERTY,41.26901562506604
2008,1,5273.1378326515405,CAR PROWL,98.67065753740434
2008,8,5322.778527515307,OTHER PROPERTY,97.52065669915282
2008,10,125.968687771173,WARRANT ARREST,29.639997295257846
2008,5,107.08962959249762,OTHER PROPERTY,19.898246693539136
2008,2,5306.948449817125,PROPERTY DAMAGE,97.8959732071525
2008,7,152.03004405196984,CAR PROWL,37.041421419499635
1992,7,0.13732506196378833,LOST PROPERTY,100.0
1993,1,0.010729578970425094,FRAUD,100.00000000000001
1993,10,0.01643352811114078,HOMICIDE,54.81216469615423
2010,6,130.12304874416188,ILLEGAL DUMPING,25.617315117076902
2010,11,142.5046699270485,STOLEN PROPERTY,47.128389690383194
2010,12,124.77601234873273,FRAUD,55.20914017787284
2010,4,5314.099847135303,OTHER PROPERTY,97.72000357822901
2010,9,202.18265012998984,VEHICLE THEFT,32.116940370231525
2010,3,257.3125456768743,BURGLARY,34.29761790663027
2010,1,154.07245911390143,OTHER PROPERTY,25.02799502982173
2010,8,96.16109350068275,CAR PROWL,20.63876188074633
2010,10,195.04608480004973,PROPERTY DAMAGE,20.774673143545883
2010,5,91.99019185950608,VEHICLE THEFT,21.436567318554104
2010,2,121.50789384213003,OTHER PROPERTY,29.892845088843185
2010,7,78.71518818225857,ASSAULT,74.12235710071008
2012,6,233.63244535930352,BURGLARY,17.518408473981644
2012,4,208.82523329906903,CAR PROWL,19.86244909335534
2012,12,228.05944607287114,VEHICLE THEFT,34.8143409846152
2012,11,96.28354578744057,SHOPLIFTING,29.886894085838595
2012,9,230.07819072777775,DISPUTE,24.13462522868026
2012,3,279.2837505177533,VIOLATION OF COURT ORDER,19.874123210180638
2012,1,211.2969928475643,PROPERTY DAMAGE,30.147078955308626
2012,8,259.22644701779626,CAR PROWL,40.96398977652421
2012,10,242.52591626972813,PROPERTY DAMAGE,32.14051998745166
2012,5,5929.098159864469,BURGLARY,95.03483251347534
2012,2,285.3887254838937,OTHER PROPERTY,35.31345159213373
2012,7,274.992442315041,OTHER PROPERTY,26.699242451645095
1999,1,0.01240197870614394,FRAUD,100.0
1999,11,0.0011188249863795087,FRAUD,100.0
1999,9,0.00737194204544616,FRAUD,100.0
1999,6,0.008262161027295037,[INC - CASE DC USE ONLY],100.0
