year,month,influence,largestInfluencer,largestInfluencerPercent
2009,6,128.30486400655752,BURGLARY,20.074687960498306
2009,4,148.780242534641,OTHER PROPERTY,21.054754904252636
2009,12,75.23459579843288,CAR PROWL,21.3897252535948
2009,11,126.25419115076936,BURGLARY,32.90645026303314
2009,9,104.62870286142068,BURGLARY,17.183721602200947
2009,3,139.2134784535809,CAR PROWL,28.17895228804657
2009,1,123.85743644993495,PROPERTY DAMAGE,23.38860252623834
2009,8,116.27675536044867,CAR PROWL,18.367324588866243
2009,10,147.57184631486538,OTHER PROPERTY,33.75287230649459
2009,5,86.29025303146065,CAR PROWL,25.265612963104996
2009,2,117.92123121497943,ASSAULT,20.248606513635753
2009,7,422.3173664998639,BURGLARY,73.23521157185017
1994,6,0.053402056299768484,OTHER PROPERTY,73.24578489088866
1994,1,0.02231309722467937,THREATS,88.53645533410196
1994,10,0.011516924175735539,FRAUD,100.0
1995,9,0.0012631128620359084,FRAUD,100.0
1995,2,0.01299674852765315,FRAUD,100.00000000000001
2015,6,98.20072641169169,CAR PROWL,19.338197276869668
2015,11,84.60232760212226,CAR PROWL,21.148448363950017
2015,12,3.475244879463827,VEHICLE THEFT,24.16638780439404
2015,4,98.07261944657462,BURGLARY,16.31838497383565
2015,9,100.62499285275103,OTHER PROPERTY,15.323442189023728
2015,3,82.63540324377037,CAR PROWL,18.195943707689096
2015,1,148.21768355024136,CAR PROWL,23.608331083076088
2015,8,93.0164799225071,CAR PROWL,18.774521838239696
2015,10,112.55500701044815,CAR PROWL,19.98861744163306
2015,5,103.4345047288182,CAR PROWL,16.33552718680596
2015,2,76.50180503569028,CAR PROWL,13.241830967374073
2015,7,93.6896142901749,CAR PROWL,14.947793015812593
2013,6,853.1713612562519,CAR PROWL,72.66389513139669
2013,11,171.7015791650819,CAR PROWL,20.70572142325955
2013,12,254.9174721554252,CAR PROWL,22.04805059407571
2013,4,316.7215174005413,OTHER PROPERTY,30.558693979647085
2013,9,370.88825945565577,CAR PROWL,18.46856188483622
2013,3,862.4909399765711,PROPERTY DAMAGE,68.45978078744437
2013,1,286.96649495021387,CAR PROWL,22.09534828669786
2013,8,634.8318565724455,VIOLATION OF COURT ORDER,43.48684630202275
2013,10,222.86585232788056,CAR PROWL,24.97033490776659
2013,5,293.12650677760496,OTHER PROPERTY,15.232408562104169
2013,2,333.6661128699266,OTHER PROPERTY,15.849505035627878
2013,7,249.42198016412405,OTHER PROPERTY,15.67950546800669
1990,5,0.002602088605280658,THREATS,100.0
1990,1,0.0016150713064341843,LOST PROPERTY,100.0
1990,11,0.014878350615651176,[INC - CASE DC USE ONLY],100.0
2011,6,195.55169886026044,CAR PROWL,15.907602093984051
2011,4,153.76634459325675,BURGLARY,25.968468162046648
2011,12,160.05060052633755,CAR PROWL,18.438417350337943
2011,11,185.6226444788491,CAR PROWL,21.352442951223374
2011,9,224.89769995165383,VEHICLE THEFT,14.087441480698127
2011,3,226.03538469037338,OTHER PROPERTY,21.475451577720456
2011,1,121.40196168873446,OTHER PROPERTY,36.58645678011438
2011,8,238.22876138680107,CAR PROWL,21.69261877478852
2011,10,295.8602144252459,OTHER PROPERTY,26.668073584136984
2011,5,209.53085747088636,OTHER PROPERTY,19.98267949887959
2011,2,698.5818845399823,BURGLARY,81.88792066893333
2011,7,252.39409393208078,OTHER PROPERTY,25.346791373519938
2001,6,0.1179863066237106,FRAUD,59.86282861265344
2001,11,0.15748151149312584,OTHER PROPERTY,78.2664421990053
2001,12,0.01752856607868718,FRAUD,100.0
2001,4,0.09982598949341673,FRAUD,65.40621886934849
2001,9,0.12876971288367992,BURGLARY,79.53473220159387
2001,3,0.09032955019679151,CAR PROWL,61.534547542832705
2001,1,0.14689895022621888,FRAUD,41.988887775014724
2001,8,0.10349711512510919,BURGLARY,48.26940269299003
2001,10,0.11021374420548972,FRAUD,52.18176293119231
2001,5,0.04896116113669249,FRAUD,88.69226596525225
2001,2,0.12467733966330231,OTHER PROPERTY,61.2997795895332
2001,7,0.0317074391039514,FRAUD,49.313814067673626
2003,6,0.0022596912822015003,FRAUD,100.0
2003,11,0.08364416848610819,FRAUD,66.77270455743624
2003,12,0.02024005256025783,FRAUD,81.46688845764947
2003,4,0.015151570056796442,CAR PROWL,100.0
2003,9,0.022651366737361137,FRAUD,46.5728198422059
2003,3,0.02306923887354692,FRAUD,87.33708436374927
2003,1,0.08444796859037966,FRAUD,51.66464872062207
2003,8,0.042506562197547046,ASSAULT,56.71047227826831
2003,10,0.009727838235944173,FRAUD,100.0
2003,5,0.0057389220494549805,FRAUD,100.0
2003,2,0.018732878622506097,FRAUD,67.73673814840515
2003,7,0.04657995534682389,LOST PROPERTY,92.20179840316023
1965,1,0.004130723029491423,LOST PROPERTY,100.0
1998,1,0.050767754892628664,FRAUD,39.207317616738464
1998,11,0.12138908169096195,OTHER PROPERTY,93.06854683442316
1998,5,0.03680493400398492,OTHER PROPERTY,100.0
1998,3,0.01319024548550617,CAR PROWL,56.001869436628596
1998,8,0.0032862979813238825,[INC - CASE DC USE ONLY],100.0
2002,1,0.4229621051876162,FRAUD,89.18205771953656
2002,8,0.014058781740912385,THREATS,64.5396603893709
2002,10,0.02321427252672915,FRAUD,100.0
2002,12,0.002266375771292659,FRAUD,100.0
2002,4,0.0027552594420568307,FRAUD,99.99999999999999
2002,11,0.002374642288083103,CAR PROWL,100.0
2002,6,0.04602869251586749,[INC - CASE DC USE ONLY],36.2792514559099
2002,3,0.01015888579929752,DUI,85.10133486437553
2002,2,0.02245093879567906,EMBEZZLE,56.512932659088754
2007,6,0.8098511897501501,FRAUD,41.415468718703636
2007,4,0.34842740851329596,FRAUD,37.38006965944437
2007,12,7.749036100043804,BURGLARY,31.50061561685651
2007,11,4.815715500542098,OTHER PROPERTY,67.03419263217585
2007,9,1.1697264932659737,FRAUD,53.10580352070095
2007,3,0.9597675912006661,FRAUD,70.87531222445304
2007,1,0.8802154373419104,FRAUD,33.54128012540834
2007,8,5.295174996417959,FRAUD,93.43343222755814
2007,10,9.519237821162207,OTHER PROPERTY,83.42599847909601
2007,5,0.3847528931631193,FRAUD,35.52132223584756
2007,2,0.25895775906988977,FRAUD,50.741883629353396
2007,7,1.9537239939430455,FRAUD,76.28893346708485
2004,6,0.03414549541004155,LOST PROPERTY,85.28315439461079
2004,4,0.04355737872281551,FRAUD,52.26209954134276
2004,12,0.010646100537258027,VEHICLE THEFT,100.00000000000001
2004,11,0.04879202550914179,[INC - CASE DC USE ONLY],45.69242539479017
2004,9,0.06798701162623232,PROPERTY DAMAGE,36.25915197674242
2004,3,0.028013458856796205,STOLEN PROPERTY,40.9648631036291
2004,1,0.4250388359955987,FRAUD,84.71313391411826
2004,8,0.06424460499151423,FRAUD,68.3062044302384
2004,10,0.05945875307820319,OTHER PROPERTY,58.88836413119257
2004,5,0.05157250744451979,FRAUD,75.44542768977244
2004,2,3.174338579700325,FRAUD,98.74898089710756
2004,7,0.020361112959624384,FRAUD,100.00000000000001
1997,1,0.00980564976195937,FRAUD,75.63736319247135
1997,11,0.03290573169512169,FRAUD,100.0
1997,10,0.006261640097639219,FRAUD,100.0
1997,5,0.02326481584197848,FRAUD,100.0
1997,9,0.011183236304378348,FRAUD,100.0
1997,2,0.008344264027379493,FRAUD,100.0
2006,6,0.4548025337787432,[INC - CASE DC USE ONLY],44.2829360079923
2006,4,0.34441961993460807,FRAUD,72.63860232128533
2006,12,0.1695159356717566,FRAUD,58.29196022925927
2006,11,0.3485917795434186,VEHICLE THEFT,65.23764599777009
2006,9,0.15197019785573562,FRAUD,76.76195274288077
2006,3,0.16838590008510207,FRAUD,43.58810635197103
2006,1,0.7782533102937155,FRAUD,59.59208240956679
2006,8,0.2456886154226471,FRAUD,81.68728114076923
2006,10,1.0127250369138905,FRAUD,91.86074565662572
2006,5,0.16961143107464827,FRAUD,35.91550547079801
2006,2,0.15959561164232172,FRAUD,59.35945842675153
2006,7,0.6436977225553903,[INC - CASE DC USE ONLY],74.99987161671476
1991,1,0.007600953903662019,FRAUD,100.0
1991,11,0.013104290694950567,FRAUD,100.0
1991,9,0.00782586771143355,FRAUD,100.0
2005,6,0.05032921960874823,FRAUD,39.566360232611366
2005,11,2.7438818628618056,FORGERY,98.98388710359245
2005,12,4.23644012509238,[INC - CASE DC USE ONLY],98.46052720914409
2005,4,0.06451985180393661,FRAUD,57.42033203953977
2005,9,1.805043394871941,FORGERY,95.30419099196273
2005,3,0.2718160500485002,OTHER PROPERTY,57.587913690231325
2005,1,0.5191851365452864,FRAUD,49.63604381118291
2005,8,0.28913452647072874,FRAUD,85.79627260934937
2005,10,0.028092172927022686,FRAUD,71.70709420044001
2005,5,0.0330544298699948,FRAUD,60.12448168274441
2005,2,0.07210899150020474,FRAUD,75.97478354093941
2005,7,0.017235794984092223,FRAUD,57.064134474981685
1996,6,0.003027781345149443,FRAUD,99.99999999999999
1996,8,0.015408007455657503,FRAUD,100.0
1996,12,0.0208489928728097,CAR PROWL,100.00000000000001
1900,01,2.6174105742458616e-09,STOLEN PROPERTY,100.0
2000,1,0.07130479276906168,FRAUD,76.58064063347051
2000,8,0.04749648618146647,OTHER PROPERTY,69.73493185531807
2000,7,0.33776525868365403,ASSAULT,94.41841030419097
2000,10,0.007014908480537358,CAR PROWL,100.0
2000,3,0.028417321189278782,CAR PROWL,56.648165487438625
2000,4,0.016052385135080106,FRAUD,100.0
2000,5,0.043253194861391994,FRAUD,54.248422470071276
2000,6,0.013555072660749911,CAR PROWL,75.3572314799518
2000,9,0.038787272424981284,FRAUD,87.8626553366455
2000,2,0.028951763913179475,FRAUD,59.80587399551732
2000,11,0.05592125848241326,PROPERTY DAMAGE,73.12204164009448
2014,6,283.8694064916503,OTHER PROPERTY,23.55579357309106
2014,11,143.77679951985354,OTHER PROPERTY,24.899170336872704
2014,12,734.7013541067217,BURGLARY,77.17115064885833
2014,4,221.05109537626174,CAR PROWL,30.489673813702645
2014,9,177.11306281036417,OTHER PROPERTY,26.46267756613065
2014,3,259.2370873566962,FRAUD,17.123863857230834
2014,1,248.1664534595265,CAR PROWL,24.522387792312532
2014,8,169.47877924320676,ASSAULT,20.919416251812653
2014,10,141.5325673775105,CAR PROWL,14.997769081235875
2014,5,209.77131884534347,CAR PROWL,22.95978760483253
2014,2,213.81646370920825,PROPERTY DAMAGE,19.029994811669038
2014,7,214.74694698228316,BURGLARY,12.311872839670288
1989,6,0.0068171551485788915,[INC - CASE DC USE ONLY],100.0
1983,2,0.028442369382430843,RECOVERED PROPERTY,100.0
2008,6,133.91336060492188,BURGLARY,18.91285779293605
2008,4,110.44898081568978,CAR PROWL,23.953975686664844
2008,12,115.84397893522181,OTHER PROPERTY,21.963934989060082
2008,11,116.11084351283577,OTHER PROPERTY,18.203360534653658
2008,9,180.74833042780728,CAR PROWL,24.936588361887708
2008,3,84.92281275023764,OTHER PROPERTY,21.516474479192905
2008,1,116.0082551352092,OTHER PROPERTY,26.784840147983235
2008,8,123.27675022765122,PROPERTY DAMAGE,26.03980977788159
2008,10,164.29012355288503,CAR PROWL,36.45843793963007
2008,5,374.60322265207645,ASSAULT,74.74064131379316
2008,2,65.99952048999918,OTHER PROPERTY,18.468509199148485
2008,7,101.73079793040272,CAR PROWL,15.0627863478392
1992,7,0.0446224191978889,LOST PROPERTY,100.0
1993,1,0.09553920171643024,FRAUD,99.99999999999999
1993,10,0.029204792464362708,FRAUD,51.81967888989427
2010,6,155.5220573233663,CAR PROWL,23.96816683607117
2010,11,118.14763760572886,OTHER PROPERTY,35.480091926223054
2010,12,72.80520429896544,OTHER PROPERTY,24.766549120229634
2010,4,81.9037335074487,CAR PROWL,20.1515544769573
2010,9,712.2359531757612,FRAUD,77.85127504300507
2010,3,376.71448151978376,BURGLARY,76.61249346779343
2010,1,99.76757489410397,OTHER PROPERTY,20.13019672880532
2010,8,120.34889222196716,CAR PROWL,21.88083034586962
2010,10,119.73708969521181,CAR PROWL,13.41163757433303
2010,5,88.76112319773952,CAR PROWL,14.749626091356202
2010,2,115.64650852572754,CAR PROWL,27.413896650070217
2010,7,40.372463318582675,BURGLARY,20.52793210739524
2012,6,244.93575340858825,OTHER PROPERTY,32.03869698960877
2012,4,246.7378966044348,BURGLARY,30.392091225503783
2012,12,116.29327568244732,CAR PROWL,16.687460973747733
2012,11,139.82802408779486,CAR PROWL,47.90243019518857
2012,9,223.0789764382919,BURGLARY,16.187287865463645
2012,3,227.11721167573236,OTHER PROPERTY,22.52769091946466
2012,1,290.2349870142315,OTHER PROPERTY,37.59236782955115
2012,8,285.4489528830379,OTHER PROPERTY,18.839141322873186
2012,10,515.1351605207357,CAR PROWL,65.9025592325182
2012,5,234.29776342910887,OTHER PROPERTY,17.097847467770276
2012,2,199.61746250282837,CAR PROWL,26.071863242913
2012,7,845.2118985453587,WARRANT ARREST,66.73766862029996
1999,1,0.026139289417577396,FRAUD,99.99999999999999
1999,11,0.001723877722520835,FRAUD,99.99999999999999
1999,9,0.018716690774927776,FRAUD,100.0
1999,6,0.01176707891724798,[INC - CASE DC USE ONLY],100.0
