year,month,influence,largestInfluencer,largestInfluencerPercent
2009,6,2080.9315370923646,CAR PROWL,29.687227011732976
2009,4,1649.5600693242727,OTHER PROPERTY,16.441585083951573
2009,12,1744.6168259617993,CAR PROWL,38.276096120534625
2009,11,1867.0127302696285,CAR PROWL,49.04988226560057
2009,9,2242.2245632387917,CAR PROWL,40.60593789122966
2009,3,1756.6029682531819,CAR PROWL,27.08266335715127
2009,1,1719.8376304397877,OTHER PROPERTY,21.92041473468823
2009,8,2282.3197450298676,CAR PROWL,28.155656729015742
2009,10,2206.2210900649275,CAR PROWL,31.932796183559805
2009,5,1660.9966924683988,CAR PROWL,14.280904734067887
2009,2,1930.7357857030277,FRAUD,25.013084935423464
2009,7,2847.56692014931,CAR PROWL,17.22937680495134
1994,6,0.1966065741014677,PROPERTY DAMAGE,97.09310168399645
1994,1,0.6269862519903503,THREATS,98.72387992882399
1994,10,0.22239531017699105,FRAUD,100.0
1995,9,0.0023058648040821437,FRAUD,100.0
1995,2,1.2864118725820357,FRAUD,99.99999999999999
2015,6,1999.1309646819523,ASSAULT,19.225220788020476
2015,11,2105.791101080414,OTHER PROPERTY,17.437996659394244
2015,12,97.97112068378,ASSAULT,22.652364035651736
2015,4,2498.7635560310255,ASSAULT,13.565328672331102
2015,9,3080.457096798126,OTHER PROPERTY,21.089258280474176
2015,3,2912.0508341048567,OTHER PROPERTY,15.677436203746117
2015,1,2897.7523154181795,OTHER PROPERTY,21.883093728679068
2015,8,1988.6742849599684,OTHER PROPERTY,21.99018190633499
2015,10,2508.8852375629403,OTHER PROPERTY,17.71000178539748
2015,5,2390.7913278009723,OTHER PROPERTY,16.833295413656682
2015,2,2341.1119452786047,WARRANT ARREST,13.80805493621808
2015,7,2765.0906531722367,OTHER PROPERTY,17.766973911473528
2013,6,3597.9759913601597,CAR PROWL,24.054622511568585
2013,11,2809.501233687813,CAR PROWL,23.56610677049986
2013,12,4137.795761235723,CAR PROWL,26.728588971883898
2013,4,3511.6523778908777,OTHER PROPERTY,28.163139284243684
2013,9,3678.247436868321,CAR PROWL,27.712016591459072
2013,3,4675.98407862687,OTHER PROPERTY,30.066367274468792
2013,1,3988.312252596534,CAR PROWL,19.02775533675876
2013,8,5858.0485900873955,CAR PROWL,24.01520767583037
2013,10,5536.889603524224,CAR PROWL,38.450070441807526
2013,5,4335.947742714808,PROPERTY DAMAGE,18.42921206377747
2013,2,3667.1412116268034,WARRANT ARREST,14.235255594386214
2013,7,5361.627567654482,WARRANT ARREST,17.30276540364986
1990,5,0.008271901256108516,THREATS,100.0
1990,1,0.003500341651530274,LOST PROPERTY,100.0
1990,11,0.37646287446099796,[INC - CASE DC USE ONLY],100.0
2011,6,3544.363999774858,SHOPLIFTING,18.72587739666453
2011,4,2447.219151124648,CAR PROWL,18.386188439556022
2011,12,4117.453635973031,CAR PROWL,24.69971012516198
2011,11,3591.0853235987324,PROPERTY DAMAGE,20.548812270078795
2011,9,4185.017244132328,CAR PROWL,21.242965161979523
2011,3,5164.010583809256,CAR PROWL,25.915036306499687
2011,1,1609.9728143995073,FRAUD,15.810423225696821
2011,8,3237.4107919631065,OTHER PROPERTY,16.192873043961402
2011,10,4188.943487649722,CAR PROWL,15.771764336921919
2011,5,3269.9373356716087,CAR PROWL,19.231969216889848
2011,2,2148.1840419491427,VIOLATION OF COURT ORDER,18.77941436757496
2011,7,2933.7805787499174,OTHER PROPERTY,14.51263221700759
2001,6,0.3422473353863158,PROPERTY DAMAGE,73.94427565128876
2001,11,0.03908733911545521,BURGLARY,35.55624618963696
2001,12,0.34735345922774225,FRAUD,100.0
2001,4,0.1004608881690004,THREATS,41.313118752328656
2001,9,0.10824405083605887,BURGLARY,61.251281858007246
2001,3,9.85677493129628,EMBEZZLE,88.25746615897093
2001,1,6.441278088789199,[INC - CASE DC USE ONLY],65.9161755119217
2001,8,0.8644167630339579,CAR PROWL,95.10586671258615
2001,10,11.609188280304817,OTHER PROPERTY,86.32860113654982
2001,5,0.3877116434235347,FRAUD,95.26822528809161
2001,2,1.3858893663967091,PICKPOCKET,91.18045871491893
2001,7,8.029259051719166,ASSAULT,97.93333039783394
2003,6,0.0061411271625417905,FRAUD,100.0
2003,11,9.384330938733747,OTHER PROPERTY,90.59726196903497
2003,12,0.15185041557449222,FRAUD,98.39943941897546
2003,4,1.154182338741478,CAR PROWL,100.0
2003,9,0.08112072988720222,LOST PROPERTY,65.12116265776716
2003,3,0.03384463565933915,FRAUD,81.80971757985667
2003,1,0.9893652029557466,FRAUD,59.487843852122104
2003,8,0.04063740925573576,OTHER PROPERTY,57.10217848266258
2003,10,0.007474636394211836,FRAUD,100.0
2003,5,0.012066742752609593,FRAUD,100.00000000000001
2003,2,0.875534946283248,FRAUD,96.81955982834616
2003,7,0.34410851023229094,LOST PROPERTY,96.39187236115283
1965,1,0.019762321095446563,LOST PROPERTY,100.0
1998,1,2.244100603338335,THREATS,45.57707706817956
1998,11,0.1718674642331192,FRAUD,95.59264379293533
1998,5,0.007597510626399263,OTHER PROPERTY,100.0
1998,3,0.07796133480360001,CAR PROWL,79.54000939809889
1998,8,0.0108771996326945,[INC - CASE DC USE ONLY],100.00000000000001
2002,1,5.2029558544450145,STOLEN PROPERTY,94.39372866021822
2002,8,0.017665345171367516,FRAUD,55.90839923691925
2002,10,3.6334579454832787,FRAUD,100.0
2002,12,0.004788147900210139,FRAUD,100.0
2002,4,0.009078038057198872,FRAUD,100.0
2002,11,0.007065587208880369,CAR PROWL,100.0
2002,6,1.3089298580657178,[INC - CASE DC USE ONLY],74.5093139649311
2002,3,0.056048241122791734,DUI,94.22423775960287
2002,2,0.8843175226522312,EMBEZZLE,95.80928474319188
2007,6,9.026721322414257,FRAUD,45.91616676828535
2007,4,29.280000993178263,FRAUD,56.8362767147661
2007,12,177.23745697247148,SHOPLIFTING,53.34038662461392
2007,11,35.29718628954272,FRAUD,46.83995478021503
2007,9,29.100095435813735,FRAUD,38.06614605867868
2007,3,2.300609658827538,FRAUD,65.12638546724004
2007,1,16.23193796257095,OTHER PROPERTY,70.15797742844948
2007,8,11.073709417682677,FRAUD,37.96574777472999
2007,10,7.915860164449427,FRAUD,47.014929703298364
2007,5,5.3060646099383,EMBEZZLE,54.99881796224125
2007,2,3.1508426496312087,ASSAULT,69.14092740485839
2007,7,8.126558149304657,FRAUD,64.65535153412391
2004,6,0.048307700715312235,FRAUD,67.01310357978721
2004,4,1.389330687242218,THREATS,76.45967979723213
2004,12,0.007630860779988547,VEHICLE THEFT,100.0
2004,11,0.5040822258085125,[INC - CASE DC USE ONLY],46.90811515241191
2004,9,0.1517462109032795,CAR PROWL,65.66895641339711
2004,3,0.19042190472424214,STOLEN PROPERTY,63.30815892927019
2004,1,7.6637498824450025,FRAUD,55.07114741106556
2004,8,0.8896862420285968,CAR PROWL,59.61272635742996
2004,10,0.07129242608509571,OTHER PROPERTY,35.83915047720624
2004,5,0.34554431653220935,FRAUD,64.86223320034846
2004,2,0.22222296644550982,[INC - CASE DC USE ONLY],44.85431074857923
2004,7,0.5117348382226631,FRAUD,100.0
1997,1,0.05143455432216018,FRAUD,88.80153414386875
1997,11,0.010671460008353402,FRAUD,100.0
1997,10,0.015241763409784954,FRAUD,100.0
1997,5,3.428374489107722,FRAUD,100.0
1997,9,0.006224748013872524,FRAUD,100.0
1997,2,0.18689530153072043,FRAUD,100.0
2006,6,7.521679864083893,FRAUD,80.2305653268055
2006,4,2.69310285933803,OTHER PROPERTY,49.94100761772243
2006,12,1.8098461856730548,THREATS,46.86493182999429
2006,11,3.3030896183841607,FRAUD,73.33118794925123
2006,9,1.5789503139893855,FRAUD,79.20520542994899
2006,3,2.2642607871183187,FRAUD,72.8731845133399
2006,1,32.59213565135741,FRAUD,52.37269934111477
2006,8,4.167562267637849,FRAUD,87.40125852510303
2006,10,1.4797154292710657,FRAUD,88.40200936557478
2006,5,5.3986496556595265,[INC - CASE DC USE ONLY],54.369653687058225
2006,2,7.04250143245469,FRAUD,50.838576092340205
2006,7,0.7864764925187502,HOMICIDE,48.97229791266232
1991,1,0.014891556038546947,FRAUD,100.0
1991,11,0.1442953449065611,FRAUD,100.0
1991,9,0.00486250558565024,FRAUD,100.0
2005,6,0.8492441481521341,OTHER PROPERTY,58.270265183455784
2005,11,0.039954570014369466,FORGERY,35.07270700166097
2005,12,1.9953924352642514,FRAUD,95.52017816420498
2005,4,4.3152192381070344,FORGERY,67.36801723493468
2005,9,0.3877358519894911,THREATS,51.42046779619856
2005,3,1.4976007437550372,FRAUD,84.67866357667778
2005,1,16.69113005896723,EMBEZZLE,84.45341038912231
2005,8,11.153882297029948,FRAUD,86.49165402783844
2005,10,0.6155530079993987,FRAUD,88.62266015618133
2005,5,0.31850546690978504,FRAUD,98.43668568689212
2005,2,0.9069702695798113,FRAUD,95.28071792936721
2005,7,0.028206354006318123,FRAUD,67.49640488588324
1996,6,0.010246013711788567,FRAUD,99.99999999999999
1996,8,0.014299357218844556,FRAUD,100.0
1996,12,0.1360886255832296,CAR PROWL,100.0
1900,01,2.619247466192843e-09,STOLEN PROPERTY,99.99999999999999
2000,1,0.1738198079242991,FRAUD,88.00256619325475
2000,8,1.1435643833515818,OTHER PROPERTY,93.58806208944995
2000,7,0.05996195790012698,BURGLARY,42.077258083208065
2000,10,0.006072241914112129,CAR PROWL,100.0
2000,3,0.4524613891640059,CAR PROWL,78.70411786620139
2000,4,0.08804801374668082,FRAUD,100.0
2000,5,0.47321171889491265,FRAUD,64.64412423832871
2000,6,0.10796258493164837,CAR PROWL,93.40576837711694
2000,9,0.25796795359208785,FRAUD,91.88280180801392
2000,2,0.534323825098434,INJURY,82.20669257749
2000,11,0.16080919961572684,THEFT OF SERVICES,91.41334649650175
2014,6,3910.5738394864416,OTHER PROPERTY,20.48480408054123
2014,11,2540.0073481545774,OTHER PROPERTY,15.058573205094767
2014,12,2372.9737459964713,OTHER PROPERTY,16.971099250273404
2014,4,5409.873099693126,CAR PROWL,30.110395112588716
2014,9,3836.223329690879,OTHER PROPERTY,15.640222700931837
2014,3,5272.540466941533,FRAUD,20.044040179218705
2014,1,4344.478385117303,CAR PROWL,18.66377668777056
2014,8,5247.6713247384105,OTHER PROPERTY,15.114970027190052
2014,10,4230.809783953084,OTHER PROPERTY,20.24092589520721
2014,5,5145.977322722326,CAR PROWL,30.0530597256355
2014,2,4695.5634917321395,SHOPLIFTING,17.93091613814546
2014,7,4301.949201998329,OTHER PROPERTY,29.41012081550585
1989,6,0.07946184522974926,[INC - CASE DC USE ONLY],100.0
1983,2,0.052539299342485926,RECOVERED PROPERTY,100.0
2008,6,2152.818036311074,CAR PROWL,27.14979512815963
2008,4,2421.5262365671,CAR PROWL,29.214676792852558
2008,12,1280.284591047216,OTHER PROPERTY,16.411939965672577
2008,11,1414.286411505321,OTHER PROPERTY,15.7635764501108
2008,9,2071.0580720749854,CAR PROWL,19.509627906972707
2008,3,1694.5530433987622,OTHER PROPERTY,20.706521579493366
2008,1,1623.1070285593996,SHOPLIFTING,14.178679727114652
2008,8,2078.3144422787864,OTHER PROPERTY,20.548209096626795
2008,10,1566.859889082252,OTHER PROPERTY,18.43536956012692
2008,5,2446.426128098178,CAR PROWL,33.44486670583483
2008,2,1394.9274894696114,OTHER PROPERTY,13.977267390799138
2008,7,2162.9500657986346,OTHER PROPERTY,26.052618730011353
1992,7,0.005980472491348591,LOST PROPERTY,100.0
1993,1,0.011861897334103125,FRAUD,99.99999999999999
1993,10,0.19738822910975082,FRAUD,89.5566061241829
2010,6,2515.474663028947,CAR PROWL,24.67963442020353
2010,11,2265.186436889638,CAR PROWL,22.83207213874544
2010,12,1735.9731161195837,CAR PROWL,22.129405304766856
2010,4,2138.9740010804444,OTHER PROPERTY,23.1731855594962
2010,9,2413.103419966191,OTHER PROPERTY,24.490084438862002
2010,3,1919.80263958792,CAR PROWL,16.219561577767458
2010,1,1941.9999352944396,CAR PROWL,30.86502112658958
2010,8,2134.000259945549,CAR PROWL,22.22804944818149
2010,10,3260.226378057404,OTHER PROPERTY,38.180069998904834
2010,5,1550.7899243750294,CAR PROWL,30.200589295009873
2010,2,1756.2419306904383,CAR PROWL,20.63759526823424
2010,7,984.9698381541415,SHOPLIFTING,21.024403888486034
2012,6,3932.796479893491,CAR PROWL,25.065709171831163
2012,4,5970.923668026585,CAR PROWL,35.86694911260762
2012,12,2379.906585986082,OTHER PROPERTY,15.30604003973389
2012,11,1496.0896063195037,OTHER PROPERTY,20.975268458889346
2012,9,2828.1372215917327,OTHER PROPERTY,29.11017578423574
2012,3,3854.7283031599923,CAR PROWL,37.06567092555695
2012,1,3320.1759658154137,CAR PROWL,32.972366711357886
2012,8,2550.05105961247,OTHER PROPERTY,15.353419965423598
2012,10,1710.4554040189523,ASSAULT,15.880017514501835
2012,5,4707.139947537707,CAR PROWL,19.050640465354956
2012,2,4579.246497546424,CAR PROWL,35.98784296766126
2012,7,4052.1357307822127,CAR PROWL,14.802784165311417
1999,1,0.40653502303464367,FRAUD,100.0
1999,11,0.004137545632388797,FRAUD,100.0
1999,9,0.39637338154043367,FRAUD,100.00000000000001
1999,6,0.017818495698816213,[INC - CASE DC USE ONLY],100.0
