year,month,influence,largestInfluencer,largestInfluencerPercent
2009,6,528.4351026013147,CAR PROWL,36.57379971430025
2009,4,544.6588814866815,CAR PROWL,48.644841498274126
2009,12,361.69870286810396,CAR PROWL,35.70130554035217
2009,11,514.2687269003493,CAR PROWL,39.5712076078057
2009,9,623.3151340223633,CAR PROWL,40.766758947034305
2009,3,574.981676573348,CAR PROWL,40.56892095610275
2009,1,547.4258642290205,CAR PROWL,43.78822266042528
2009,8,528.1121522778516,CAR PROWL,35.030761448992656
2009,10,8718.452844817171,BURGLARY,93.00742941769933
2009,5,618.813441261671,CAR PROWL,60.90578226469624
2009,2,695.3164247959633,TRAFFIC,30.228519758239507
2009,7,520.4991993961409,CAR PROWL,22.828522232891864
1994,6,0.29515531687542096,PROPERTY DAMAGE,98.7520414069959
1994,1,0.7184892957417081,THREATS,97.880759975385
1994,10,0.15947300446418772,FRAUD,100.0
1995,9,0.00328890464337873,FRAUD,100.0
1995,2,0.11189960897212015,FRAUD,100.0
2015,6,24986.981510621663,BURGLARY,64.95003097467821
2015,11,621.4182590572082,VIOLATION OF COURT ORDER,32.41760871780119
2015,12,109.91321416249382,BURGLARY,64.6525720137541
2015,4,16731.83432823187,BURGLARY,48.594198422052685
2015,9,8704.797765862511,BURGLARY,93.16005169426977
2015,3,16788.816156738227,BURGLARY,49.33539826998045
2015,1,16913.563152779858,BURGLARY,96.10633337253512
2015,8,33532.62785825554,BURGLARY,74.0537882580669
2015,10,33448.673037124,BURGLARY,98.42647431457374
2015,5,547.5649765342878,CAR PROWL,21.031960222511202
2015,2,538.0100135589948,CAR PROWL,17.77060270626029
2015,7,42307.08781868422,BURGLARY,39.93582059759695
2013,6,1069.1866811803156,CAR PROWL,27.745955152959734
2013,11,17111.624362239454,CAR PROWL,95.85360849026955
2013,12,918.3727409315213,CAR PROWL,27.175712266096557
2013,4,935.5212005758069,CAR PROWL,17.4882417144667
2013,9,972.7798187639413,CAR PROWL,22.16069759013476
2013,3,1093.4371920054261,BURGLARY,22.476332031422942
2013,1,964.7712120513225,CAR PROWL,28.108417408158324
2013,8,17144.705534480203,OTHER PROPERTY,94.89591355177373
2013,10,17453.12592748681,ASSAULT,93.0739706473786
2013,5,999.6814992627992,CAR PROWL,19.875777060491256
2013,2,854.1810053884697,CAR PROWL,19.291095367679105
2013,7,1051.50374599425,CAR PROWL,25.186344598735626
1990,5,0.013193229554197553,THREATS,100.00000000000001
1990,1,0.005490363291297811,LOST PROPERTY,100.00000000000001
1990,11,0.04290295132898255,[INC - CASE DC USE ONLY],100.00000000000001
2011,6,17699.29491598037,BURGLARY,91.5413953062484
2011,4,543.3154388286024,CAR PROWL,23.028822510956886
2011,12,33168.739187985826,BURGLARY,97.66264514113196
2011,11,17171.588686812745,BURGLARY,94.50902136688892
2011,9,1015.5005720552876,CAR PROWL,27.064626962506548
2011,3,984.8017983139538,CAR PROWL,19.971589572092036
2011,1,16629.598951149223,BURGLARY,97.45479045282705
2011,8,1217.7300700091027,CAR PROWL,45.89483899549428
2011,10,792.2180138209143,CAR PROWL,25.50312837489194
2011,5,1432.4707434544512,CAR PROWL,44.16787810734449
2011,2,491.9345112907381,CAR PROWL,25.67541574382055
2011,7,1038.3857024814831,CAR PROWL,19.935529887306405
2001,6,0.7510955107522816,PROPERTY DAMAGE,76.21906831120492
2001,11,0.04833105207736568,BURGLARY,51.743373092946456
2001,12,0.06208488182823385,FRAUD,100.0
2001,4,0.1691296945947084,THREATS,56.96625948548306
2001,9,0.10705382134666655,OTHER PROPERTY,47.042987784523035
2001,3,0.4847397600351194,CAR PROWL,64.20606259334892
2001,1,0.5854340255042494,FRAUD,53.0678455907368
2001,8,0.13232885895964017,CAR PROWL,74.71430709407947
2001,10,0.732479024354378,CAR PROWL,63.32165112950657
2001,5,0.11785789040725976,FRAUD,65.68997966970791
2001,2,0.11119359668262774,PICKPOCKET,55.05902796273328
2001,7,0.217325706208033,ASSAULT,49.152705776474725
2003,6,0.011297929052172377,FRAUD,100.0
2003,11,0.7263937594358174,FRAUD,81.19544711321446
2003,12,12.128554794962186,FRAUD,99.98511013026385
2003,4,0.07541385784119035,CAR PROWL,100.0
2003,9,0.11634249757197038,LOST PROPERTY,51.66461951287069
2003,3,0.04871519184451551,FRAUD,80.85584035645878
2003,1,1.5020810020114532,EMBEZZLE,55.36903680698739
2003,8,0.03512696716942608,FRAUD,59.5699414754831
2003,10,0.004622910257915875,FRAUD,100.0
2003,5,0.017698026628485915,FRAUD,100.0
2003,2,0.1539489851095917,OTHER PROPERTY,59.13092497038799
2003,7,0.08984095530637523,LOST PROPERTY,64.66323152542759
1965,1,0.06751945048476915,LOST PROPERTY,100.0
1998,1,0.6881054221539831,FRAUD,56.113553423564674
1998,11,0.11122892725976431,FRAUD,95.63865349521261
1998,5,0.005386476868566883,OTHER PROPERTY,100.0
1998,3,0.5736956820403883,CAR PROWL,94.73603137633053
1998,8,0.02619468234615106,[INC - CASE DC USE ONLY],100.0
2002,1,0.5065288492274542,STOLEN PROPERTY,40.27717670060685
2002,8,0.023194913837372523,FRAUD,71.6334357563781
2002,10,0.2794326300762149,FRAUD,100.0
2002,12,0.007851261046661217,FRAUD,100.0
2002,4,0.01847092810839697,FRAUD,100.0
2002,11,0.012653247147865376,CAR PROWL,100.0
2002,6,0.22656662319683338,PROPERTY DAMAGE,73.60380151090048
2002,3,0.031012031545573856,DUI,83.991211139779
2002,2,0.2282594286746798,FRAUD,67.4969950138518
2007,6,24.63252722209532,EMBEZZLE,75.88125937859051
2007,4,3.6484440671193425,FRAUD,53.967480310874734
2007,12,44.97704507933742,FRAUD,50.75456307657288
2007,11,23.944030688651967,OTHER PROPERTY,84.44478549097919
2007,9,3.3586317142748965,FRAUD,21.365249077625975
2007,3,1.2825338482232185,OTHER PROPERTY,32.91790879208322
2007,1,30.30866303513837,FRAUD,64.02365387611906
2007,8,3.1223549316593755,FRAUD,58.18511612802989
2007,10,7.088786447597006,FRAUD,55.650972478654474
2007,5,1.4483695554720042,FRAUD,40.86701040428651
2007,2,2.2186761874662237,FRAUD,58.19856683621534
2007,7,3.1842930709895714,FRAUD,47.82747909959764
2004,6,0.1735609642420316,FRAUD,93.62310091500862
2004,4,0.527133943671412,LOST PROPERTY,66.70625732918305
2004,12,0.0046667620095488666,VEHICLE THEFT,100.0
2004,11,17.849038765935724,CAR PROWL,98.93817842634814
2004,9,0.16958506163028364,CAR PROWL,66.08632140455295
2004,3,0.4312036810543046,FRAUD,54.57476002203935
2004,1,1.2012951531685447,FRAUD,52.32714524197493
2004,8,0.6035442609819817,FRAUD,78.13763649888348
2004,10,0.09852007806447377,PROPERTY DAMAGE,44.93581600402186
2004,5,0.4295902535034649,FRAUD,89.57656210123076
2004,2,0.1028544547826518,[INC - CASE DC USE ONLY],44.367896129901986
2004,7,0.363562305633633,FRAUD,99.99999999999999
1997,1,0.17693691074073678,FRAUD,94.15522367727803
1997,11,0.006835719068926606,FRAUD,100.00000000000001
1997,10,0.02811636456496147,FRAUD,100.0
1997,5,0.18914814972738914,FRAUD,100.0
1997,9,0.003916189708661505,FRAUD,100.0
1997,2,0.4515123227577323,FRAUD,100.00000000000001
2006,6,1.6774588750681312,FRAUD,39.85755227252001
2006,4,0.6926083601267361,FRAUD,36.027073835698495
2006,12,10.780706883038022,FRAUD,56.48459651759537
2006,11,0.6390978977378233,FRAUD,65.23117722946957
2006,9,0.848554859389259,FRAUD,42.356937646756684
2006,3,2.871980888343919,FRAUD,46.08405435882057
2006,1,3.291273425528946,FRAUD,75.16934757978288
2006,8,0.49540002056046895,FRAUD,77.61725017842076
2006,10,0.7573361321444776,OTHER PROPERTY,64.92535102837775
2006,5,1.2403251612673496,FRAUD,45.992036605613926
2006,2,1.7206757974033535,FRAUD,74.3218526633743
2006,7,0.7360004452678208,FRAUD,41.521090799253834
1991,1,0.02283061419353819,FRAUD,100.0
1991,11,0.30613149247887006,FRAUD,100.0
1991,9,0.0032337370242545736,FRAUD,100.0
2005,6,0.3746297772623899,[INC - CASE DC USE ONLY],52.71356176598642
2005,11,0.043508904193520104,[INC - CASE DC USE ONLY],25.120026653209493
2005,12,0.6744799195514286,FRAUD,52.434370385429965
2005,4,0.6316621642710715,FRAUD,54.93406806507155
2005,9,0.384163328695463,THREATS,58.639079707882
2005,3,1.0786830767414886,FRAUD,84.31403522415593
2005,1,1.301709204111871,FRAUD,65.6094453824498
2005,8,1.4776809811343001,PICKPOCKET,44.01047377648845
2005,10,0.6644521573473041,OTHER PROPERTY,61.443772888841444
2005,5,0.5802039496546214,FRAUD,99.4423875829476
2005,2,0.4596939181258447,FRAUD,96.59488547521437
2005,7,0.04073164052584382,FRAUD,69.35503079552487
1996,6,0.023497832140477806,FRAUD,100.0
1996,8,0.009141331578213112,FRAUD,100.0
1996,12,0.02688735114576153,CAR PROWL,100.0
1900,01,2.6195673267643943e-09,STOLEN PROPERTY,100.00000000000001
2000,1,0.25301662450331364,FRAUD,88.76000038595153
2000,8,1.0437279217004554,OTHER PROPERTY,94.12362315515988
2000,7,0.04623854382105127,FRAUD,53.19798363908055
2000,10,0.005830595230496494,CAR PROWL,100.00000000000001
2000,3,2.6694542424487797,OTHER PROPERTY,98.49148976122878
2000,4,0.21747903715658284,FRAUD,100.0
2000,5,0.8588038378392138,FRAUD,62.19037343556836
2000,6,0.17080210675371266,CAR PROWL,93.42738122063543
2000,9,0.34698440167318345,FRAUD,77.68788386780489
2000,2,0.21518884994170243,INJURY,78.00496389981103
2000,11,0.3015310083845123,THEFT OF SERVICES,95.89110310432008
2014,6,17547.446857287767,BURGLARY,92.77979904023141
2014,11,16723.57126410984,STOLEN PROPERTY,96.77526406865732
2014,12,8648.794274606864,BURGLARY,94.59027856688834
2014,4,1037.99085948099,CAR PROWL,26.685651103211587
2014,9,1386.833045919624,VEHICLE THEFT,32.170586011088076
2014,3,1486.5927684230498,CAR PROWL,44.30434131864275
2014,1,1089.5888512434906,CAR PROWL,29.26967639848053
2014,8,17216.05189015144,VIOLATION OF COURT ORDER,93.93581172135809
2014,10,8915.547267020787,BURGLARY,91.24570236779115
2014,5,1665.4033837209226,PROPERTY DAMAGE,32.06136516952415
2014,2,836.2778763211436,CAR PROWL,27.91653041045374
2014,7,1123.954147196758,CAR PROWL,16.422630119229083
1989,6,1.1568772570722474,[INC - CASE DC USE ONLY],100.0
1983,2,0.01658973493827592,RECOVERED PROPERTY,100.0
2008,6,16888.510436799457,HARBOR CALLS,95.75137064696297
2008,4,847.0446607251951,VEHICLE THEFT,23.370807009511207
2008,12,8679.350745444815,STOLEN PROPERTY,93.32421151129122
2008,11,515.0648878221967,CAR PROWL,27.288743706084514
2008,9,765.9646514666503,CAR PROWL,41.27831422684428
2008,3,723.618135979249,CAR PROWL,29.35238757217579
2008,1,830.2187813905811,CAR PROWL,39.12766452786073
2008,8,9197.735566077674,ASSAULT,88.2634685964034
2008,10,967.7288138698424,CAR PROWL,60.254550984023396
2008,5,8592.448998720203,STOLEN PROPERTY,94.20315623627312
2008,2,620.5724723333472,CAR PROWL,35.19709556729625
2008,7,8946.626538329798,VEHICLE THEFT,90.78053117032948
1992,7,0.0038237476678669126,LOST PROPERTY,100.0
1993,1,0.007451909738458533,FRAUD,100.0
1993,10,0.14139187286980104,FRAUD,92.95246897013234
2010,6,896.0680227560492,BURGLARY,26.638395780481485
2010,11,711.0973351570991,CAR PROWL,49.6921809826497
2010,12,586.3285425006378,VEHICLE THEFT,19.05021309099371
2010,4,737.5187614096811,CAR PROWL,36.034146950159375
2010,9,502.68752840610426,CAR PROWL,17.846061425271277
2010,3,554.0736812296972,CAR PROWL,25.43226257289504
2010,1,380.21514862830423,CAR PROWL,29.50660626899614
2010,8,8562.512867543883,ASSAULT,94.67203844844194
2010,10,879.1359206803957,WARRANT ARREST,26.43677439182328
2010,5,349.73594350655475,CAR PROWL,18.876719071115115
2010,2,597.4266301881424,PROPERTY DAMAGE,21.390399827292693
2010,7,157.28404963111845,BURGLARY,15.335184185320847
2012,6,17159.184506899648,BURGLARY,94.55252011467823
2012,4,17146.89585820489,BURGLARY,94.5804308894704
2012,12,610.6116625841503,CAR PROWL,42.908518791638265
2012,11,357.1587996540757,CAR PROWL,22.135277406782244
2012,9,730.5809256541405,BIKE THEFT,14.369850162433679
2012,3,974.641684028248,CAR PROWL,26.062420485908504
2012,1,753.060210734945,CAR PROWL,21.969538545537727
2012,8,940.6469829430624,CAR PROWL,30.03636896789968
2012,10,451.73490024004906,OTHER PROPERTY,13.106300400907768
2012,5,17488.1228120071,BURGLARY,92.69025675113481
2012,2,1222.4627449257846,ASSAULT,37.20334419460543
2012,7,887.83649316692,CAR PROWL,16.413293173526036
1999,1,0.7353491244221384,FRAUD,100.0
1999,11,0.006528146177154614,FRAUD,100.0
1999,9,1.0583267765135362,FRAUD,100.0
1999,6,0.009217975391941476,[INC - CASE DC USE ONLY],100.0
