Date,Value
2015-09-30,122500.0
2015-08-31,129600.0
2015-07-31,134500.0
2015-06-30,133800.0
2015-05-31,121700.0
2015-04-30,118600.0
2015-03-31,123600.0
2015-02-28,122900.0
2015-01-31,125200.0
2014-12-31,124600.0
2014-11-30,124100.0
2014-10-31,123500.0
2014-09-30,123000.0
2014-08-31,122300.0
2014-07-31,121700.0
2014-06-30,121500.0
2014-05-31,121300.0
2014-04-30,120400.0
2014-03-31,119400.0
2014-02-28,119200.0
2014-01-31,119100.0
2013-12-31,118800.0
2013-11-30,118300.0
2013-10-31,117600.0
2013-09-30,117400.0
2013-08-31,117500.0
2013-07-31,117500.0
2013-06-30,117700.0
2013-05-31,118100.0
2013-04-30,118600.0
2013-03-31,119100.0
2013-02-28,119600.0
2013-01-31,120200.0
2012-12-31,120500.0
2012-11-30,120800.0
2012-10-31,121300.0
2012-09-30,122000.0
2012-08-31,122500.0
2012-07-31,122500.0
2012-06-30,122000.0
2012-05-31,121200.0
2012-04-30,121100.0
2012-03-31,121500.0
2012-02-29,121500.0
2012-01-31,121100.0
2011-12-31,121100.0
2011-11-30,121200.0
2011-10-31,121300.0
2011-09-30,122000.0
2011-08-31,123400.0
2011-07-31,124700.0
2011-06-30,125900.0
2011-05-31,127500.0
2011-04-30,129400.0
2011-03-31,130200.0
2011-02-28,130300.0
2011-01-31,130900.0
2010-12-31,132200.0
2010-11-30,133300.0
2010-10-31,133800.0
2010-09-30,133800.0
2010-08-31,134000.0
2010-07-31,134200.0
2010-06-30,134100.0
2010-05-31,133800.0
2010-04-30,134200.0
2010-03-31,135500.0
2010-02-28,136600.0
2010-01-31,137400.0
2009-12-31,138100.0
2009-11-30,138500.0
2009-10-31,138900.0
2009-09-30,139500.0
2009-08-31,140300.0
2009-07-31,141200.0
2009-06-30,142200.0
2009-05-31,143000.0
2009-04-30,144100.0
2009-03-31,144700.0
2009-02-28,143900.0
2009-01-31,143100.0
2008-12-31,143000.0
2008-11-30,143100.0
2008-10-31,143400.0
2008-09-30,144400.0
2008-08-31,145800.0
2008-07-31,147700.0
2008-06-30,149500.0
2008-05-31,150500.0
2008-04-30,151100.0
2008-03-31,151800.0
2008-02-29,153400.0
2008-01-31,154900.0
2007-12-31,156300.0
2007-11-30,157800.0
2007-10-31,159100.0
2007-09-30,159800.0
2007-08-31,159800.0
2007-07-31,159500.0
2007-06-30,159300.0
2007-05-31,159200.0
2007-04-30,158100.0
2007-03-31,157300.0
2007-02-28,157100.0
2007-01-31,156200.0
2006-12-31,154900.0
2006-11-30,154600.0
2006-10-31,154900.0
2006-09-30,154100.0
2006-08-31,152700.0
2006-07-31,151400.0
2006-06-30,150500.0
2006-05-31,148900.0
2006-04-30,147500.0
2006-03-31,147000.0
2006-02-28,147200.0
2006-01-31,147700.0
2005-12-31,147700.0
2005-11-30,147100.0
2005-10-31,145500.0
2005-09-30,143300.0
2005-08-31,140100.0
2005-07-31,136200.0
2005-06-30,131200.0
2005-05-31,126400.0
2005-04-30,122000.0
2005-03-31,117700.0
2005-02-28,113600.0
2005-01-31,109300.0
2004-12-31,104800.0
2004-11-30,100900.0
2004-10-31,98500.0
2004-09-30,96800.0
2004-08-31,95500.0
2004-07-31,94500.0
2004-06-30,93600.0
2004-05-31,93300.0
2004-04-30,93000.0
2004-03-31,92600.0
2004-02-29,92800.0
2004-01-31,93600.0
2003-12-31,94100.0
2003-11-30,93900.0
2003-10-31,93400.0
2003-09-30,92800.0
2003-08-31,92300.0
2003-07-31,91400.0
2003-06-30,90900.0
2003-05-31,91100.0
2003-04-30,91400.0
2003-03-31,90900.0
2003-02-28,89000.0
2003-01-31,87200.0
2002-12-31,86700.0
2002-11-30,86200.0
2002-10-31,85200.0
2002-09-30,84500.0
2002-08-31,83700.0
2002-07-31,83300.0
2002-06-30,83900.0
2002-05-31,84800.0
2002-04-30,85000.0
2002-03-31,84400.0
2002-02-28,84800.0
2002-01-31,85800.0
2001-12-31,85700.0
2001-11-30,85000.0
2001-10-31,84300.0
2001-09-30,83600.0
2001-08-31,83200.0
2001-07-31,83300.0
2001-06-30,83900.0
2001-05-31,84600.0
2001-04-30,84700.0
2001-03-31,84500.0
2001-02-28,83900.0
2001-01-31,83200.0
2000-12-31,82900.0
2000-11-30,82900.0
2000-10-31,82500.0
2000-09-30,82100.0
2000-08-31,81900.0
2000-07-31,81600.0
2000-06-30,80500.0
2000-05-31,79000.0
2000-04-30,78300.0
2000-03-31,78600.0
2000-02-29,78600.0
2000-01-31,77500.0
1999-12-31,77000.0
1999-11-30,77200.0
1999-10-31,77500.0
1999-09-30,77600.0
1999-08-31,78000.0
1999-07-31,78400.0
1999-06-30,78900.0
1999-05-31,79500.0
1999-04-30,80500.0
1999-03-31,81200.0
1999-02-28,81500.0
1999-01-31,81900.0
1998-12-31,82600.0
1998-11-30,84200.0
1998-10-31,86000.0
1998-09-30,86800.0
1998-08-31,87400.0
1998-07-31,88400.0
1998-06-30,89500.0
1998-05-31,89900.0
1998-04-30,89500.0
1998-03-31,88600.0
1998-02-28,88200.0
1998-01-31,87400.0
1997-12-31,86100.0
1997-11-30,84900.0
1997-10-31,83900.0
1997-09-30,83200.0
1997-08-31,82900.0
1997-07-31,82500.0
1997-06-30,80600.0
1997-05-31,78200.0
1997-04-30,77500.0
1997-03-31,78100.0
1997-02-28,78600.0
1997-01-31,80100.0
1996-12-31,81500.0
1996-11-30,81400.0
1996-10-31,81100.0
1996-09-30,82200.0
1996-08-31,83200.0
1996-07-31,83800.0
1996-06-30,83900.0
1996-05-31,83400.0
1996-04-30,82700.0
