Date,Value
2015-08-31,403400.0
2015-07-31,398100.0
2015-06-30,400200.0
2015-05-31,397000.0
2015-04-30,393400.0
2015-03-31,393200.0
2015-02-28,392300.0
2015-01-31,388300.0
2014-12-31,386100.0
2014-11-30,383400.0
2014-10-31,381100.0
2014-09-30,379200.0
2014-08-31,377200.0
2014-07-31,374800.0
2014-06-30,373600.0
2014-05-31,372700.0
2014-04-30,370900.0
2014-03-31,367800.0
2014-02-28,365000.0
2014-01-31,363800.0
2013-12-31,362900.0
2013-11-30,360600.0
2013-10-31,358200.0
2013-09-30,356200.0
2013-08-31,351800.0
2013-07-31,346000.0
2013-06-30,339500.0
2013-05-31,332800.0
2013-04-30,328000.0
2013-03-31,326200.0
2013-02-28,325900.0
2013-01-31,324500.0
2012-12-31,320700.0
2012-11-30,317100.0
2012-10-31,314300.0
2012-09-30,311000.0
2012-08-31,307700.0
2012-07-31,305600.0
2012-06-30,303500.0
2012-05-31,300500.0
2012-04-30,295800.0
2012-03-31,289800.0
2012-02-29,284000.0
2012-01-31,279600.0
2011-12-31,277800.0
2011-11-30,278500.0
2011-10-31,279800.0
2011-09-30,281200.0
2011-08-31,283200.0
2011-07-31,285400.0
2011-06-30,287300.0
2011-05-31,289200.0
2011-04-30,292300.0
2011-03-31,296400.0
2011-02-28,300200.0
2011-01-31,302800.0
2010-12-31,304700.0
2010-11-30,306200.0
2010-10-31,307900.0
2010-09-30,310000.0
2010-08-31,312700.0
2010-07-31,315700.0
2010-06-30,318400.0
2010-05-31,320800.0
2010-04-30,322700.0
2010-03-31,324600.0
2010-02-28,326900.0
2010-01-31,329300.0
2009-12-31,330900.0
2009-11-30,331400.0
2009-10-31,331500.0
2009-09-30,332800.0
2009-08-31,335200.0
2009-07-31,337700.0
2009-06-30,340600.0
2009-05-31,344100.0
2009-04-30,348300.0
2009-03-31,353200.0
2009-02-28,357700.0
2009-01-31,362600.0
2008-12-31,367600.0
2008-11-30,371500.0
2008-10-31,374200.0
2008-09-30,377700.0
2008-08-31,381000.0
2008-07-31,384200.0
2008-06-30,387700.0
2008-05-31,391400.0
2008-04-30,394600.0
2008-03-31,397500.0
2008-02-29,400300.0
2008-01-31,403000.0
2007-12-31,405400.0
2007-11-30,408500.0
2007-10-31,412000.0
2007-09-30,414300.0
2007-08-31,415700.0
2007-07-31,416400.0
2007-06-30,416700.0
2007-05-31,417300.0
2007-04-30,417800.0
2007-03-31,416400.0
2007-02-28,413700.0
2007-01-31,411400.0
2006-12-31,409400.0
2006-11-30,407300.0
2006-10-31,404900.0
2006-09-30,401800.0
2006-08-31,398300.0
2006-07-31,395100.0
2006-06-30,391500.0
2006-05-31,386700.0
2006-04-30,380800.0
2006-03-31,374600.0
2006-02-28,368500.0
2006-01-31,362800.0
2005-12-31,357800.0
2005-11-30,353300.0
2005-10-31,348400.0
2005-09-30,342800.0
2005-08-31,336600.0
2005-07-31,330100.0
2005-06-30,324100.0
2005-05-31,318600.0
2005-04-30,314200.0
2005-03-31,311200.0
2005-02-28,308600.0
2005-01-31,305100.0
2004-12-31,301400.0
2004-11-30,298100.0
2004-10-31,294900.0
2004-09-30,291600.0
2004-08-31,288900.0
2004-07-31,287200.0
2004-06-30,285500.0
2004-05-31,283300.0
2004-04-30,280700.0
2004-03-31,278600.0
2004-02-29,276800.0
2004-01-31,274900.0
2003-12-31,272900.0
2003-11-30,270600.0
2003-10-31,268800.0
2003-09-30,267800.0
2003-08-31,266900.0
2003-07-31,264900.0
2003-06-30,262900.0
2003-05-31,261900.0
2003-04-30,261200.0
2003-03-31,259900.0
2003-02-28,258800.0
2003-01-31,257900.0
2002-12-31,256900.0
2002-11-30,255700.0
2002-10-31,254600.0
2002-09-30,253400.0
2002-08-31,252400.0
2002-07-31,251400.0
2002-06-30,251100.0
2002-05-31,251700.0
2002-04-30,252800.0
2002-03-31,253300.0
2002-02-28,252900.0
2002-01-31,252100.0
2001-12-31,251800.0
2001-11-30,251500.0
2001-10-31,250900.0
2001-09-30,250100.0
2001-08-31,249800.0
2001-07-31,249700.0
2001-06-30,248600.0
2001-05-31,245500.0
2001-04-30,241600.0
2001-03-31,238500.0
2001-02-28,236500.0
2001-01-31,235000.0
2000-12-31,233600.0
2000-11-30,232500.0
2000-10-31,231800.0
2000-09-30,230900.0
2000-08-31,229800.0
2000-07-31,228800.0
2000-06-30,228100.0
2000-05-31,227600.0
2000-04-30,227100.0
2000-03-31,226500.0
2000-02-29,225700.0
2000-01-31,225000.0
1999-12-31,224000.0
1999-11-30,222800.0
1999-10-31,221600.0
1999-09-30,220200.0
1999-08-31,217800.0
1999-07-31,215600.0
1999-06-30,213700.0
1999-05-31,212100.0
1999-04-30,210300.0
1999-03-31,208300.0
1999-02-28,206400.0
1999-01-31,204800.0
1998-12-31,203400.0
1998-11-30,202100.0
1998-10-31,200900.0
1998-09-30,200000.0
1998-08-31,199300.0
1998-07-31,197800.0
1998-06-30,196300.0
1998-05-31,195000.0
1998-04-30,193700.0
1998-03-31,192300.0
1998-02-28,191100.0
1998-01-31,189200.0
1997-12-31,186900.0
1997-11-30,184600.0
1997-10-31,182700.0
1997-09-30,180700.0
1997-08-31,178800.0
1997-07-31,177500.0
1997-06-30,176400.0
1997-05-31,175100.0
1997-04-30,174200.0
1997-03-31,173100.0
1997-02-28,171500.0
1997-01-31,170200.0
1996-12-31,169400.0
1996-11-30,168700.0
1996-10-31,168200.0
1996-09-30,168000.0
1996-08-31,168100.0
1996-07-31,168400.0
1996-06-30,168700.0
1996-05-31,169000.0
1996-04-30,169600.0
