Date,Value
2015-09-30,249900.0
2015-08-31,246400.0
2015-07-31,245100.0
2015-06-30,245500.0
2015-05-31,243900.0
2015-04-30,243000.0
2015-03-31,244300.0
2015-02-28,245900.0
2015-01-31,244900.0
2014-12-31,243900.0
2014-11-30,242500.0
2014-10-31,241800.0
2014-09-30,241600.0
2014-08-31,241500.0
2014-07-31,240900.0
2014-06-30,239900.0
2014-05-31,239300.0
2014-04-30,238200.0
2014-03-31,236600.0
2014-02-28,236000.0
2014-01-31,236100.0
2013-12-31,235800.0
2013-11-30,235500.0
2013-10-31,235000.0
2013-09-30,234100.0
2013-08-31,232900.0
2013-07-31,231100.0
2013-06-30,228700.0
2013-05-31,226100.0
2013-04-30,224500.0
2013-03-31,224200.0
2013-02-28,224300.0
2013-01-31,225000.0
2012-12-31,226100.0
2012-11-30,226500.0
2012-10-31,225600.0
2012-09-30,224400.0
2012-08-31,223400.0
2012-07-31,223100.0
2012-06-30,223200.0
2012-05-31,223500.0
2012-04-30,223700.0
2012-03-31,224300.0
2012-02-29,224900.0
2012-01-31,225500.0
2011-12-31,225800.0
2011-11-30,225500.0
2011-10-31,224800.0
2011-09-30,224600.0
2011-08-31,225400.0
2011-07-31,226400.0
2011-06-30,227800.0
2011-05-31,229600.0
2011-04-30,231200.0
2011-03-31,232700.0
2011-02-28,234000.0
2011-01-31,235200.0
2010-12-31,236200.0
2010-11-30,237100.0
2010-10-31,237600.0
2010-09-30,238300.0
2010-08-31,239200.0
2010-07-31,239900.0
2010-06-30,240400.0
2010-05-31,240800.0
2010-04-30,240900.0
2010-03-31,240700.0
2010-02-28,241300.0
2010-01-31,242500.0
2009-12-31,243800.0
2009-11-30,245100.0
2009-10-31,247700.0
2009-09-30,250600.0
2009-08-31,253200.0
2009-07-31,255800.0
2009-06-30,258800.0
2009-05-31,261000.0
2009-04-30,262600.0
2009-03-31,263600.0
2009-02-28,264100.0
2009-01-31,263600.0
2008-12-31,263500.0
2008-11-30,264500.0
2008-10-31,265900.0
2008-09-30,266200.0
2008-08-31,266400.0
2008-07-31,267600.0
2008-06-30,270400.0
2008-05-31,272800.0
2008-04-30,274500.0
2008-03-31,276000.0
2008-02-29,276300.0
2008-01-31,275700.0
2007-12-31,275700.0
2007-11-30,276800.0
2007-10-31,278300.0
2007-09-30,280200.0
2007-08-31,280800.0
2007-07-31,279100.0
2007-06-30,276800.0
2007-05-31,275600.0
2007-04-30,275100.0
2007-03-31,274200.0
2007-02-28,273100.0
2007-01-31,272000.0
2006-12-31,270100.0
2006-11-30,267600.0
2006-10-31,265500.0
2006-09-30,265000.0
2006-08-31,265400.0
2006-07-31,266100.0
2006-06-30,265000.0
2006-05-31,263100.0
2006-04-30,261800.0
2006-03-31,260800.0
2006-02-28,259300.0
2006-01-31,258100.0
2005-12-31,257200.0
2005-11-30,255400.0
2005-10-31,251900.0
2005-09-30,247400.0
2005-08-31,243200.0
2005-07-31,239900.0
2005-06-30,236100.0
2005-05-31,231500.0
2005-04-30,226500.0
2005-03-31,221900.0
2005-02-28,218300.0
2005-01-31,215100.0
2004-12-31,211600.0
2004-11-30,208400.0
2004-10-31,205200.0
2004-09-30,200900.0
2004-08-31,195400.0
2004-07-31,190100.0
2004-06-30,186600.0
2004-05-31,184400.0
2004-04-30,182600.0
2004-03-31,181200.0
2004-02-29,179300.0
2004-01-31,176300.0
2003-12-31,173000.0
2003-11-30,170700.0
2003-10-31,168900.0
2003-09-30,166900.0
2003-08-31,165400.0
2003-07-31,164100.0
2003-06-30,161800.0
2003-05-31,158900.0
2003-04-30,156600.0
2003-03-31,154200.0
2003-02-28,152000.0
2003-01-31,150400.0
2002-12-31,149500.0
2002-11-30,148400.0
2002-10-31,147200.0
2002-09-30,146700.0
2002-08-31,146100.0
2002-07-31,145700.0
2002-06-30,146300.0
2002-05-31,147300.0
2002-04-30,147500.0
2002-03-31,147100.0
2002-02-28,146300.0
2002-01-31,145500.0
2001-12-31,145000.0
2001-11-30,143700.0
2001-10-31,142100.0
2001-09-30,140900.0
2001-08-31,140000.0
2001-07-31,138800.0
2001-06-30,137500.0
2001-05-31,136200.0
2001-04-30,134500.0
2001-03-31,132900.0
2001-02-28,132700.0
2001-01-31,133500.0
2000-12-31,134100.0
2000-11-30,134100.0
2000-10-31,134100.0
2000-09-30,134800.0
2000-08-31,135600.0
2000-07-31,136000.0
2000-06-30,135700.0
2000-05-31,135200.0
2000-04-30,135700.0
2000-03-31,136500.0
2000-02-29,136800.0
2000-01-31,136600.0
1999-12-31,136300.0
1999-11-30,136000.0
1999-10-31,136200.0
1999-09-30,136400.0
1999-08-31,136300.0
1999-07-31,136200.0
1999-06-30,136000.0
1999-05-31,135500.0
1999-04-30,134700.0
1999-03-31,134300.0
1999-02-28,134000.0
1999-01-31,133400.0
1998-12-31,132800.0
1998-11-30,132600.0
1998-10-31,131800.0
1998-09-30,130600.0
1998-08-31,130100.0
1998-07-31,129900.0
1998-06-30,129700.0
1998-05-31,129900.0
1998-04-30,130300.0
1998-03-31,130600.0
1998-02-28,131100.0
1998-01-31,131100.0
1997-12-31,130600.0
1997-11-30,130600.0
1997-10-31,131400.0
1997-09-30,132000.0
1997-08-31,131900.0
1997-07-31,131800.0
1997-06-30,131800.0
1997-05-31,131700.0
1997-04-30,131100.0
1997-03-31,130300.0
1997-02-28,129200.0
1997-01-31,128200.0
1996-12-31,127400.0
1996-11-30,127500.0
1996-10-31,127600.0
1996-09-30,127800.0
1996-08-31,127800.0
1996-07-31,127600.0
1996-06-30,127800.0
1996-05-31,128300.0
1996-04-30,128700.0
