Date,Value
2015-09-30,295000.0
2015-08-31,290400.0
2015-07-31,289500.0
2015-06-30,289100.0
2015-05-31,288500.0
2015-04-30,286200.0
2015-03-31,285400.0
2015-02-28,285600.0
2015-01-31,284100.0
2014-12-31,282600.0
2014-11-30,280000.0
2014-10-31,278400.0
2014-09-30,278800.0
2014-08-31,279000.0
2014-07-31,278100.0
2014-06-30,276600.0
2014-05-31,274500.0
2014-04-30,273200.0
2014-03-31,272000.0
2014-02-28,270900.0
2014-01-31,268500.0
2013-12-31,265300.0
2013-11-30,262900.0
2013-10-31,261800.0
2013-09-30,260700.0
2013-08-31,259400.0
2013-07-31,258200.0
2013-06-30,257000.0
2013-05-31,254900.0
2013-04-30,252200.0
2013-03-31,251200.0
2013-02-28,251100.0
2013-01-31,250500.0
2012-12-31,249400.0
2012-11-30,248300.0
2012-10-31,247500.0
2012-09-30,248600.0
2012-08-31,249600.0
2012-07-31,247900.0
2012-06-30,245300.0
2012-05-31,244200.0
2012-04-30,244200.0
2012-03-31,243600.0
2012-02-29,242400.0
2012-01-31,242200.0
2011-12-31,244100.0
2011-11-30,246600.0
2011-10-31,247800.0
2011-09-30,248100.0
2011-08-31,248500.0
2011-07-31,250400.0
2011-06-30,253900.0
2011-05-31,259100.0
2011-04-30,262900.0
2011-03-31,265400.0
2011-02-28,268100.0
2011-01-31,271100.0
2010-12-31,272600.0
2010-11-30,273500.0
2010-10-31,274600.0
2010-09-30,276200.0
2010-08-31,278200.0
2010-07-31,278600.0
2010-06-30,278100.0
2010-05-31,278000.0
2010-04-30,280100.0
2010-03-31,281300.0
2010-02-28,280400.0
2010-01-31,279200.0
2009-12-31,280200.0
2009-11-30,281600.0
2009-10-31,282200.0
2009-09-30,280900.0
2009-08-31,280000.0
2009-07-31,281300.0
2009-06-30,283300.0
2009-05-31,283500.0
2009-04-30,283000.0
2009-03-31,284000.0
2009-02-28,287500.0
2009-01-31,290900.0
2008-12-31,291900.0
2008-11-30,293000.0
2008-10-31,296000.0
2008-09-30,299700.0
2008-08-31,303300.0
2008-07-31,307100.0
2008-06-30,310000.0
2008-05-31,312900.0
2008-04-30,315200.0
2008-03-31,317000.0
2008-02-29,318400.0
2008-01-31,320400.0
2007-12-31,323400.0
2007-11-30,327200.0
2007-10-31,329600.0
2007-09-30,330800.0
2007-08-31,331500.0
2007-07-31,332400.0
2007-06-30,333100.0
2007-05-31,332900.0
2007-04-30,332700.0
2007-03-31,331900.0
2007-02-28,330600.0
2007-01-31,329800.0
2006-12-31,330700.0
2006-11-30,330900.0
2006-10-31,331100.0
2006-09-30,331100.0
2006-08-31,330100.0
2006-07-31,327500.0
2006-06-30,324600.0
2006-05-31,322000.0
2006-04-30,320800.0
2006-03-31,320100.0
2006-02-28,318500.0
2006-01-31,315500.0
2005-12-31,311100.0
2005-11-30,306200.0
2005-10-31,300200.0
2005-09-30,293700.0
2005-08-31,287500.0
2005-07-31,283200.0
2005-06-30,280700.0
2005-05-31,278500.0
2005-04-30,274800.0
2005-03-31,270400.0
2005-02-28,266200.0
2005-01-31,261400.0
2004-12-31,256800.0
2004-11-30,252600.0
2004-10-31,248600.0
2004-09-30,245100.0
2004-08-31,242000.0
2004-07-31,238500.0
2004-06-30,235000.0
2004-05-31,232000.0
2004-04-30,229000.0
2004-03-31,226200.0
2004-02-29,224800.0
2004-01-31,225200.0
2003-12-31,225000.0
2003-11-30,223200.0
2003-10-31,222000.0
2003-09-30,222100.0
2003-08-31,221900.0
2003-07-31,220200.0
2003-06-30,217700.0
2003-05-31,214900.0
2003-04-30,212500.0
2003-03-31,210400.0
2003-02-28,208600.0
2003-01-31,207100.0
2002-12-31,205900.0
2002-11-30,205600.0
2002-10-31,204500.0
2002-09-30,203900.0
2002-08-31,204900.0
2002-07-31,207500.0
2002-06-30,209700.0
2002-05-31,210500.0
2002-04-30,210800.0
2002-03-31,211400.0
2002-02-28,211200.0
2002-01-31,209000.0
2001-12-31,206200.0
2001-11-30,204400.0
2001-10-31,203100.0
2001-09-30,201300.0
2001-08-31,198900.0
2001-07-31,196500.0
2001-06-30,194100.0
2001-05-31,192700.0
2001-04-30,192000.0
2001-03-31,191500.0
2001-02-28,191300.0
2001-01-31,191000.0
2000-12-31,190800.0
2000-11-30,191000.0
2000-10-31,192200.0
2000-09-30,193100.0
2000-08-31,192800.0
2000-07-31,191600.0
2000-06-30,190700.0
2000-05-31,189900.0
2000-04-30,189000.0
2000-03-31,188000.0
2000-02-29,186700.0
2000-01-31,185900.0
1999-12-31,185800.0
1999-11-30,185100.0
1999-10-31,183500.0
1999-09-30,181600.0
1999-08-31,179800.0
1999-07-31,177900.0
1999-06-30,176700.0
1999-05-31,175700.0
1999-04-30,174800.0
1999-03-31,174200.0
1999-02-28,173200.0
1999-01-31,172500.0
1998-12-31,172600.0
1998-11-30,173100.0
1998-10-31,173500.0
1998-09-30,173800.0
1998-08-31,174100.0
1998-07-31,174300.0
1998-06-30,174300.0
1998-05-31,174000.0
1998-04-30,173200.0
1998-03-31,171400.0
1998-02-28,170000.0
1998-01-31,168800.0
1997-12-31,166700.0
1997-11-30,163800.0
1997-10-31,161400.0
1997-09-30,159400.0
1997-08-31,157500.0
1997-07-31,155500.0
1997-06-30,153300.0
1997-05-31,152000.0
1997-04-30,151100.0
1997-03-31,149400.0
1997-02-28,147600.0
1997-01-31,145700.0
1996-12-31,144200.0
1996-11-30,143200.0
1996-10-31,142300.0
1996-09-30,141200.0
1996-08-31,140700.0
1996-07-31,140900.0
1996-06-30,140800.0
1996-05-31,140200.0
1996-04-30,140000.0
