Date,Value
2015-09-30,322925.0
2015-08-31,332625.0
2015-07-31,326825.0
2015-06-30,322950.0
2015-05-31,322450.0
2015-04-30,301075.0
2015-02-28,292538.4615
2014-12-31,268340.0
2014-11-30,267575.0
2014-10-31,281515.0
2014-09-30,294910.0
2014-08-31,291410.0
2014-07-31,306200.0
2014-06-30,339615.0
2014-05-31,337750.0
2014-04-30,338050.0
2014-03-31,328302.0
2014-02-28,315388.0
2014-01-31,278265.0
2013-12-31,292775.0
2013-11-30,270225.0
2013-10-31,272925.0
2013-09-30,276750.0
2013-08-31,295125.0
2013-07-31,313225.0
2013-06-30,289525.0
2013-05-31,269875.0
2013-04-30,241250.0
2013-03-31,233000.0
2013-02-28,246000.0
2013-01-31,266700.0
2012-12-31,282300.0
2012-11-30,268500.0
2012-10-31,259500.0
2012-09-30,230628.55
2012-08-31,232985.75
2012-07-31,231018.25
2012-06-30,259329.95
2012-05-31,296415.0
2012-04-30,277941.1765
2012-03-31,268000.0
2011-12-31,262429.4118
2011-11-30,268000.0
2011-09-30,246375.0
2011-08-31,222625.0
2011-07-31,230000.0
2011-06-30,241750.0
2011-05-31,226000.0
2011-04-30,225250.0
2011-03-31,214411.7647
2011-02-28,249976.9231
2010-12-31,299900.0
2010-09-30,207600.0
2010-08-31,220500.0
2010-07-31,240442.0
2010-06-30,282663.75
2010-05-31,275876.75
2010-04-30,283552.5
2010-03-31,269000.0
2010-02-28,275200.0
2010-01-31,244675.0
2009-12-31,232425.0
2009-11-30,247700.0
2009-10-31,266300.0
2009-09-30,284400.0
2009-08-31,271300.0
2009-07-31,291000.0
2009-06-30,282941.1765
2009-05-31,336987.6923
2009-03-31,360280.0
2008-12-31,361178.65
2008-11-30,359269.5
2008-10-31,361000.0
2008-09-30,378000.0
2008-08-31,391200.0
2008-07-31,354300.0
2008-06-30,354500.0
2008-05-31,332250.0
2008-04-30,310750.0
2008-02-29,409692.3077
2007-12-31,398235.0
2007-11-30,339240.0
2007-10-31,303475.0
2007-09-30,345700.0
2007-08-31,343884.3
2007-07-31,337546.7
2007-06-30,364031.0
2007-05-31,402750.0
2007-04-30,380600.0
2007-03-31,390500.0
2007-02-28,333000.0
2007-01-31,309398.7
2006-12-31,314930.3
2006-11-30,315579.0
2006-10-31,339500.0
2006-09-30,329850.0
2006-08-31,315950.1
2006-07-31,305961.6
2006-06-30,291706.3
2006-05-31,286095.5
2006-04-30,282573.5
2006-03-31,274377.65
2006-02-28,280052.85
2006-01-31,292325.5
2005-12-31,322485.0
2005-11-30,324397.3
2005-10-31,315458.7
2005-09-30,296376.0
2005-08-31,293500.0
2005-07-31,268260.1
2005-06-30,270718.9
2005-05-31,235262.5
2005-04-30,224772.85
2005-03-31,218794.15
2005-02-28,229239.5
2005-01-31,226273.05
2004-12-31,239819.2
2004-11-30,221657.25
2004-10-31,206820.6
2004-09-30,204918.9
2004-08-31,211269.2
2004-07-31,200128.4
2004-06-30,200206.5
2004-05-31,211521.9
2004-04-30,220207.0
2004-03-31,240250.0
2004-02-29,227125.0
2004-01-31,235147.0588
2003-12-31,273923.0769
2003-10-31,231372.25
2003-09-30,239182.5
2003-08-31,220675.0
2003-07-31,208175.0
2003-06-30,221900.0
2003-05-31,201050.0
2003-04-30,233950.0
2003-03-31,249500.0
2003-02-28,278125.0
2003-01-31,244425.0
2002-12-31,235400.0
2002-11-30,237550.0
2002-10-31,230750.0
2002-09-30,227500.0
2002-08-31,183700.0
2002-07-31,201600.0
2002-06-30,220200.0
2002-05-31,211485.0
2002-04-30,219965.0
2002-03-31,249682.3
2002-02-28,241105.65
2002-01-31,232272.1
2001-12-31,241753.7
2001-11-30,235510.75
2001-10-31,230599.15
2001-09-30,237688.85
2001-08-31,238805.5
2001-07-31,218633.25
2001-06-30,213110.8824
2001-05-31,220426.9231
2001-03-31,244000.0
2001-02-28,264000.0
2000-11-30,197925.0
2000-10-31,218575.0
2000-09-30,212011.25
2000-08-31,207287.25
2000-07-31,194871.6
2000-06-30,180736.9
2000-05-31,188932.6
2000-02-29,2640.0
1999-11-30,210807.0
1999-10-31,216500.0
1999-09-30,200550.0
1999-08-31,218950.0
1999-07-31,235440.0
1999-06-30,225654.0
1999-05-31,202486.0
1999-04-30,180980.0
1999-03-31,170000.0
1999-02-28,170000.0
1998-11-30,253736.35
1998-10-31,214389.4
1998-09-30,217879.5
1998-08-31,233075.0
1998-07-31,245950.0
1998-06-30,216545.2
1998-05-31,211433.8
1998-04-30,198979.45
1998-03-31,186914.85
1998-02-28,178639.6471
1998-01-31,168692.0
1997-10-31,208589.8235
1997-09-30,213408.4615
1997-07-31,232298.55
1997-06-30,219330.35
1997-05-31,215412.2
1997-04-30,214880.65
1997-03-31,180414.5
1997-02-28,202352.9412
1997-01-31,235438.4615
1996-11-30,181592.3077
1996-09-30,180700.0
1996-08-31,186235.0
1996-07-31,156865.0
1996-06-30,163885.0
1996-05-31,155540.0
1996-04-30,147382.3529
