Date,Value
2014-10-31,199000.0
2011-05-31,4333650.0
2007-06-30,265225.0
2007-05-31,278529.4118
2007-04-30,305000.0
2006-12-31,260175.0
2006-11-30,249650.0
2006-10-31,259100.0
2006-09-30,262700.0
2006-08-31,274300.0
2006-07-31,269575.0
2006-06-30,262425.0
2006-05-31,252075.0
2006-04-30,261867.5
2006-03-31,261282.5
2006-02-28,255110.0
2006-01-31,226927.5
2005-12-31,227475.0
2005-11-30,232222.5
2005-10-31,229240.0
2005-09-30,218175.0
2005-08-31,222117.5
2005-07-31,218482.35
2005-06-30,210774.65
2005-05-31,198449.5
2005-04-30,205000.0
2005-03-31,195000.0
2004-11-30,193346.1538
2004-09-30,190342.5
2004-08-31,182232.5
2004-07-31,175250.0
2004-06-30,177975.0
2004-05-31,184700.0
2004-04-30,181235.2941
2004-03-31,183000.0
2003-07-31,159840.7692
2003-05-31,178438.2353
2003-04-30,173350.0
2002-10-31,164538.2353
2002-09-30,159950.0
2002-05-31,164200.0
2001-09-30,158517.5
2001-08-31,157995.0
2001-07-31,161444.7
2001-06-30,161916.8
2001-05-31,161622.05
2001-04-30,163082.8824
2001-03-31,161220.7692
2001-01-31,157000.0
2000-10-31,162425.0
2000-09-30,164242.5
2000-08-31,167920.5882
2000-07-31,163219.2308
2000-05-31,157601.4
2000-04-30,159708.2353
2000-03-31,170000.0
1999-11-30,150384.6154
1999-09-30,156192.3077
1999-07-31,143037.5
1999-06-30,143437.5
1999-05-31,148325.0
1999-04-30,152411.7647
1999-03-31,163000.0
1998-03-31,132500.0
1997-08-31,131970.5882
1997-07-31,127680.7692
1997-05-31,129558.8235
1997-04-30,129000.0
1996-09-30,124000.0
