Date,Value
2015-09-30,0.918
2015-08-31,0.888
2015-07-31,0.846
2015-06-30,0.842
2015-05-31,0.838
2015-04-30,0.832
2015-03-31,0.824
2015-02-28,0.812
2015-01-31,0.806
2014-12-31,0.806
2014-11-30,0.812
2014-10-31,0.81
2014-09-30,0.818
2014-08-31,0.826
2014-07-31,0.826
2014-06-30,0.812
2014-05-31,0.798
2014-04-30,0.786
2014-03-31,0.784
2014-02-28,0.78
2014-01-31,0.792
2013-12-31,0.804
2013-11-30,0.806
2013-10-31,0.782
2013-09-30,0.764
2013-08-31,0.75
2013-07-31,0.74
2013-06-30,0.736
2013-05-31,0.734
2013-04-30,0.736
2013-03-31,0.738
2013-02-28,0.746
2013-01-31,0.754
2012-12-31,0.762
2012-11-30,0.77
2012-10-31,0.758
2012-09-30,0.756
2012-08-31,0.75
2012-07-31,0.76
2012-06-30,0.768
2012-05-31,0.776
2012-04-30,0.778
2012-03-31,0.776
2012-02-29,0.77
2012-01-31,0.764
2011-12-31,0.762
2011-11-30,0.76
2011-10-31,0.752
2011-09-30,0.76
2011-08-31,0.768
2011-07-31,0.762
2011-06-30,0.762
2011-05-31,0.764
2011-04-30,0.762
2011-03-31,0.758
2011-02-28,0.75
2011-01-31,0.736
2010-12-31,0.708
2010-11-30,0.684
