Date,Value
2015-02-28,166500.0
2015-01-31,174000.0
2014-12-31,174000.0
2014-11-30,159900.0
2014-10-31,169500.0
2014-09-30,160000.0
2014-08-31,179000.0
2014-07-31,168500.0
2014-06-30,168500.0
2014-05-31,169900.0
2014-04-30,189900.0
2014-03-31,189900.0
2014-02-28,189900.0
2014-01-31,146999.0
2013-12-31,159000.0
2013-11-30,179900.0
2013-10-31,197000.0
2013-09-30,189500.0
2013-08-31,194740.0
2013-07-31,197000.0
2013-06-30,194740.0
2013-05-31,169900.0
2013-04-30,155000.0
2013-03-31,169000.0
2013-02-28,174900.0
2013-01-31,169000.0
2012-12-31,174900.0
2012-11-30,169000.0
2012-10-31,169000.0
2012-09-30,179990.0
2012-08-31,180000.0
2012-07-31,199000.0
2012-06-30,175000.0
2012-05-31,163000.0
2012-04-30,163000.0
2012-03-31,167212.0
2012-02-29,167212.0
2012-01-31,150000.0
2011-12-31,133500.0
2011-11-30,150000.0
2011-10-31,175000.0
2011-09-30,179000.0
2011-08-31,177500.0
2011-07-31,174900.0
2011-06-30,150000.0
2011-05-31,159204.0
2011-04-30,159204.0
2011-03-31,127500.0
2011-02-28,128000.0
2011-01-31,124900.0
2010-12-31,124900.0
2010-11-30,74900.0
2010-10-31,99900.0
2010-09-30,62500.0
2010-08-31,182500.0
2010-07-31,195000.0
2010-06-30,210000.0
2010-05-31,195500.0
2010-04-30,184500.0
2010-03-31,189500.0
2010-02-28,189500.0
2010-01-31,189900.0
2009-12-31,195500.0
2009-11-30,205000.0
2009-10-31,205000.0
2009-09-30,224500.0
2009-08-31,217000.0
2009-07-31,209900.0
2009-06-30,209900.0
2009-05-31,209900.0
2009-04-30,209900.0
2009-03-31,213950.0
2009-02-28,213950.0
2009-01-31,215950.0
2008-12-31,215950.0
2008-11-30,215950.0
2008-10-31,215000.0
