Date,Value
2015-08-31,2497.5
2015-07-31,2397.5
2015-06-30,1995.0
2015-05-31,2030.0
2015-04-30,1950.0
2015-03-31,1950.0
2015-02-28,1995.0
2015-01-31,1900.0
2014-12-31,1845.0
2014-11-30,1835.0
2014-10-31,1795.0
2014-09-30,1825.0
2014-08-31,1895.0
2014-07-31,1995.0
2014-06-30,2000.0
2014-05-31,1950.0
2014-04-30,1840.0
2014-03-31,1735.0
2014-02-28,1785.0
2014-01-31,1670.0
2013-12-31,1670.0
2013-11-30,1800.0
2013-10-31,1750.0
2013-09-30,1800.0
2013-08-31,1750.0
2013-07-31,1895.0
2013-06-30,1695.0
2013-05-31,1639.0
2013-04-30,1635.0
2013-03-31,1635.0
2013-02-28,1575.0
2013-01-31,1440.0
2012-12-31,1515.0
2012-11-30,1550.0
2012-10-31,1550.0
2012-09-30,1575.0
2012-08-31,1610.0
2012-07-31,1685.0
2012-06-30,1700.0
2012-05-31,1550.0
2012-04-30,1600.0
2012-03-31,1575.0
2012-02-29,1529.0
2012-01-31,1595.0
2011-12-31,1795.0
2011-11-30,1690.0
2011-10-31,1800.0
2011-09-30,1895.0
2011-08-31,2000.0
2011-07-31,1999.0
2011-06-30,1850.0
2011-05-31,1895.0
2011-04-30,1995.0
2011-03-31,1695.0
2011-02-28,1600.0
2011-01-31,1495.0
2010-12-31,1495.0
2010-11-30,1465.0
2010-10-31,1565.0
2010-09-30,1565.0
2010-08-31,1540.0
2010-07-31,2295.0
2010-06-30,2100.0
2010-05-31,1700.0
2010-03-31,1375.0
