Date,Value
2015-09-30,218700.0
2015-08-31,219000.0
2015-07-31,219100.0
2015-06-30,221500.0
2015-05-31,217200.0
2015-04-30,216000.0
2015-03-31,216300.0
2015-02-28,216400.0
2015-01-31,215400.0
2014-12-31,213700.0
2014-11-30,211500.0
2014-10-31,209200.0
2014-09-30,207300.0
2014-08-31,206700.0
2014-07-31,206200.0
2014-06-30,204800.0
2014-05-31,203100.0
2014-04-30,201200.0
2014-03-31,199000.0
2014-02-28,197200.0
2014-01-31,195500.0
2013-12-31,193900.0
2013-11-30,193800.0
2013-10-31,194700.0
2013-09-30,194700.0
2013-08-31,193000.0
2013-07-31,191000.0
2013-06-30,189400.0
2013-05-31,188500.0
2013-04-30,188700.0
2013-03-31,189000.0
2013-02-28,188500.0
2013-01-31,188200.0
2012-12-31,188200.0
2012-11-30,187900.0
2012-10-31,187600.0
2012-09-30,187700.0
2012-08-31,187700.0
2012-07-31,187800.0
2012-06-30,188300.0
2012-05-31,189300.0
2012-04-30,189700.0
2012-03-31,189800.0
2012-02-29,190700.0
2012-01-31,192300.0
2011-12-31,193700.0
2011-11-30,194700.0
2011-10-31,195500.0
2011-09-30,196600.0
2011-08-31,198200.0
2011-07-31,200000.0
2011-06-30,202000.0
2011-05-31,204100.0
2011-04-30,206100.0
2011-03-31,207700.0
2011-02-28,208800.0
2011-01-31,209400.0
2010-12-31,210100.0
2010-11-30,211300.0
2010-10-31,212400.0
2010-09-30,213700.0
2010-08-31,215100.0
2010-07-31,216800.0
2010-06-30,218800.0
2010-05-31,220100.0
2010-04-30,221100.0
2010-03-31,222600.0
2010-02-28,224600.0
2010-01-31,226200.0
2009-12-31,227500.0
2009-11-30,228400.0
2009-10-31,229200.0
2009-09-30,230100.0
2009-08-31,231600.0
2009-07-31,232800.0
2009-06-30,232900.0
2009-05-31,232300.0
2009-04-30,232000.0
2009-03-31,232700.0
2009-02-28,233900.0
2009-01-31,234500.0
2008-12-31,235100.0
2008-11-30,236000.0
2008-10-31,237200.0
2008-09-30,238300.0
2008-08-31,239100.0
2008-07-31,240300.0
2008-06-30,241300.0
2008-05-31,241600.0
2008-04-30,242200.0
2008-03-31,242900.0
2008-02-29,242900.0
2008-01-31,243400.0
2007-12-31,244600.0
2007-11-30,245800.0
2007-10-31,246700.0
2007-09-30,247900.0
2007-08-31,248800.0
2007-07-31,249000.0
2007-06-30,249300.0
2007-05-31,250200.0
2007-04-30,251100.0
2007-03-31,250900.0
2007-02-28,250300.0
2007-01-31,249600.0
2006-12-31,249000.0
2006-11-30,248100.0
2006-10-31,247000.0
2006-09-30,245300.0
2006-08-31,242900.0
2006-07-31,240500.0
2006-06-30,238300.0
2006-05-31,236600.0
2006-04-30,235000.0
2006-03-31,232900.0
2006-02-28,230300.0
2006-01-31,227100.0
2005-12-31,223500.0
2005-11-30,219600.0
2005-10-31,215400.0
2005-09-30,211000.0
2005-08-31,207000.0
2005-07-31,202900.0
2005-06-30,198700.0
2005-05-31,194500.0
2005-04-30,190400.0
2005-03-31,186900.0
2005-02-28,184300.0
2005-01-31,182100.0
2004-12-31,180300.0
2004-11-30,178500.0
2004-10-31,176600.0
2004-09-30,174700.0
2004-08-31,173200.0
2004-07-31,171400.0
2004-06-30,169500.0
2004-05-31,167700.0
2004-04-30,166200.0
2004-03-31,164300.0
2004-02-29,162700.0
2004-01-31,161300.0
2003-12-31,159900.0
2003-11-30,158900.0
2003-10-31,158200.0
2003-09-30,157100.0
2003-08-31,155500.0
2003-07-31,154000.0
2003-06-30,153100.0
2003-05-31,152200.0
2003-04-30,151300.0
2003-03-31,150400.0
2003-02-28,149100.0
2003-01-31,147400.0
2002-12-31,145600.0
2002-11-30,143800.0
2002-10-31,142300.0
2002-09-30,141600.0
2002-08-31,141200.0
2002-07-31,140900.0
2002-06-30,140400.0
2002-05-31,139900.0
2002-04-30,139700.0
2002-03-31,139700.0
2002-02-28,139600.0
2002-01-31,139300.0
2001-12-31,138700.0
2001-11-30,137500.0
2001-10-31,136200.0
2001-09-30,135400.0
2001-08-31,135000.0
2001-07-31,134600.0
2001-06-30,134400.0
2001-05-31,133900.0
2001-04-30,133500.0
2001-03-31,133100.0
2001-02-28,132500.0
2001-01-31,131500.0
2000-12-31,130900.0
2000-11-30,130500.0
2000-10-31,130500.0
2000-09-30,130600.0
2000-08-31,130800.0
2000-07-31,130800.0
2000-06-30,130400.0
2000-05-31,129200.0
2000-04-30,128200.0
2000-03-31,127800.0
2000-02-29,127600.0
2000-01-31,127200.0
1999-12-31,127300.0
1999-11-30,128100.0
1999-10-31,129200.0
1999-09-30,129400.0
1999-08-31,129300.0
1999-07-31,129800.0
1999-06-30,131000.0
1999-05-31,132000.0
1999-04-30,131900.0
1999-03-31,130600.0
1999-02-28,129400.0
1999-01-31,129100.0
1998-12-31,128900.0
1998-11-30,128300.0
1998-10-31,127400.0
1998-09-30,126800.0
1998-08-31,126000.0
1998-07-31,124900.0
1998-06-30,123900.0
1998-05-31,123500.0
1998-04-30,123700.0
1998-03-31,124200.0
1998-02-28,125000.0
1998-01-31,125600.0
1997-12-31,126100.0
1997-11-30,126600.0
1997-10-31,126600.0
1997-09-30,125800.0
1997-08-31,125200.0
1997-07-31,124400.0
1997-06-30,123500.0
1997-05-31,123100.0
1997-04-30,122800.0
1997-03-31,122000.0
1997-02-28,121200.0
1997-01-31,121000.0
1996-12-31,120800.0
1996-11-30,120500.0
1996-10-31,120200.0
1996-09-30,120000.0
1996-08-31,119700.0
1996-07-31,119900.0
1996-06-30,120000.0
1996-05-31,120300.0
1996-04-30,120000.0
