Date,Value
2014-12-31,99500.0
2014-11-30,99300.0
2014-10-31,99300.0
2014-09-30,99600.0
2014-08-31,100500.0
2014-07-31,100600.0
2014-06-30,99900.0
2014-05-31,99500.0
2014-04-30,100100.0
2014-03-31,99900.0
2014-02-28,98400.0
2014-01-31,96500.0
2013-12-31,95500.0
2013-11-30,94700.0
2013-10-31,93700.0
2013-09-30,92400.0
2013-08-31,90800.0
2013-07-31,89000.0
2013-06-30,87600.0
2013-05-31,87300.0
2013-04-30,87900.0
2013-03-31,88500.0
2013-02-28,88900.0
2013-01-31,89300.0
2012-12-31,89500.0
2012-11-30,89300.0
2012-10-31,89100.0
2012-09-30,89100.0
2012-08-31,89300.0
2012-07-31,90000.0
2012-06-30,90000.0
2012-05-31,87400.0
2012-04-30,84400.0
2012-03-31,83300.0
2012-02-29,82800.0
2012-01-31,81700.0
2011-12-31,80700.0
2011-11-30,80500.0
2011-10-31,80900.0
2011-09-30,80700.0
2011-08-31,79500.0
2011-07-31,78400.0
2011-06-30,77900.0
2011-05-31,78300.0
2011-04-30,79400.0
2011-03-31,80500.0
2011-02-28,81300.0
2011-01-31,82400.0
2010-12-31,83400.0
2010-11-30,84200.0
2010-10-31,85200.0
2010-09-30,87100.0
2010-08-31,89800.0
2010-07-31,92700.0
2010-06-30,95700.0
2010-05-31,98400.0
2010-04-30,99600.0
2010-03-31,99600.0
2010-02-28,99600.0
2010-01-31,99500.0
2009-12-31,99700.0
2009-11-30,100300.0
2009-10-31,101200.0
2009-09-30,102500.0
2009-08-31,104100.0
2009-07-31,105200.0
2009-06-30,106200.0
2009-05-31,107400.0
2009-04-30,108500.0
2009-03-31,109100.0
2009-02-28,109800.0
2009-01-31,110500.0
2008-12-31,110700.0
2008-11-30,110700.0
2008-10-31,110200.0
2008-09-30,108400.0
2008-08-31,106000.0
2008-07-31,104100.0
2008-06-30,102900.0
2008-05-31,102300.0
2008-04-30,102000.0
2008-03-31,101500.0
2008-02-29,100900.0
2008-01-31,101200.0
2007-12-31,102800.0
2007-11-30,104300.0
2007-10-31,104700.0
2007-09-30,104900.0
2007-08-31,105500.0
2007-07-31,106300.0
2007-06-30,106300.0
2007-05-31,106100.0
2007-04-30,106600.0
2007-03-31,107500.0
2007-02-28,108200.0
2007-01-31,108900.0
2006-12-31,109600.0
2006-11-30,109100.0
2006-10-31,108000.0
2006-09-30,107400.0
2006-08-31,106600.0
2006-07-31,105300.0
2006-06-30,104500.0
2006-05-31,103900.0
2006-04-30,103700.0
2006-03-31,104600.0
2006-02-28,105600.0
2006-01-31,106000.0
2005-12-31,105800.0
2005-11-30,106300.0
2005-10-31,107600.0
2005-09-30,110200.0
2005-08-31,112800.0
2005-07-31,114300.0
2005-06-30,116200.0
2005-05-31,118400.0
2005-04-30,118200.0
2005-03-31,117600.0
2005-02-28,118000.0
2005-01-31,118100.0
2004-12-31,117700.0
2004-11-30,118000.0
2004-10-31,117900.0
2004-09-30,116800.0
2004-08-31,116200.0
2004-07-31,116600.0
2004-06-30,116400.0
2004-05-31,115900.0
2004-04-30,116000.0
2004-03-31,115500.0
2004-02-29,114700.0
2004-01-31,114500.0
2003-12-31,114600.0
2003-11-30,114000.0
2003-10-31,113000.0
2003-09-30,110600.0
2003-08-31,108800.0
2003-07-31,109400.0
2003-06-30,110300.0
2003-05-31,109800.0
2003-04-30,109500.0
2003-03-31,109000.0
2003-02-28,108100.0
2003-01-31,107700.0
2002-12-31,107000.0
2002-11-30,105700.0
2002-10-31,105600.0
2002-09-30,106900.0
2002-08-31,107500.0
2002-07-31,106800.0
2002-06-30,105500.0
2002-05-31,103900.0
2002-04-30,102800.0
2002-03-31,102500.0
2002-02-28,102100.0
2002-01-31,101200.0
2001-12-31,100400.0
2001-11-30,100100.0
2001-10-31,100100.0
2001-09-30,100400.0
2001-08-31,100500.0
2001-07-31,99700.0
2001-06-30,99100.0
2001-05-31,99800.0
2001-04-30,100800.0
2001-03-31,101000.0
2001-02-28,101300.0
2001-01-31,101700.0
2000-12-31,102000.0
2000-11-30,101800.0
2000-10-31,101000.0
2000-09-30,100000.0
2000-08-31,99100.0
2000-07-31,97600.0
2000-06-30,96200.0
2000-05-31,95300.0
2000-04-30,94600.0
2000-03-31,93600.0
2000-02-29,92300.0
2000-01-31,90800.0
1999-12-31,89200.0
1999-11-30,86700.0
1999-10-31,84300.0
1999-09-30,83200.0
1999-08-31,82800.0
1999-07-31,81900.0
1999-06-30,80900.0
1999-05-31,79500.0
1999-04-30,78400.0
1999-03-31,78300.0
1999-02-28,78200.0
1999-01-31,78100.0
1998-12-31,79200.0
1998-11-30,82300.0
1998-10-31,85100.0
1998-09-30,85800.0
1998-08-31,85300.0
1998-07-31,84700.0
1998-06-30,84300.0
1998-05-31,84100.0
1998-04-30,84100.0
1998-03-31,84400.0
1998-02-28,84800.0
1998-01-31,85100.0
1997-12-31,84600.0
1997-11-30,84200.0
1997-10-31,84300.0
1997-09-30,84200.0
1997-08-31,83600.0
1997-07-31,83300.0
1997-06-30,83300.0
1997-05-31,83600.0
1997-04-30,83700.0
1997-03-31,83600.0
1997-02-28,83100.0
1997-01-31,82500.0
1996-12-31,81800.0
1996-11-30,81200.0
1996-10-31,80500.0
1996-09-30,80100.0
1996-08-31,80400.0
1996-07-31,82100.0
1996-06-30,83900.0
1996-05-31,84900.0
1996-04-30,84800.0
