Date,Value
2015-08-31,292000.0
2015-07-31,304884.6154
2015-05-31,314500.0
2014-11-30,262500.0
2014-07-31,252280.0
2013-07-31,319280.0
2009-10-31,270000.0
2006-09-30,385000.0
2005-08-31,265123.5
2005-07-31,261567.5
2005-06-30,252670.0
2005-05-31,251600.0
2005-04-30,233823.5294
2005-03-31,225000.0
2004-12-31,241176.9231
2004-10-31,240740.3846
2004-08-31,237687.5
2004-07-31,228100.0
2004-06-30,222250.0
2004-05-31,233800.0
2004-04-30,246588.2353
2004-03-31,236000.0
2003-10-31,198000.0
