Date,Value
2015-09-30,192600.0
2015-08-31,200400.0
2015-07-31,197100.0
2015-04-30,189000.0
2015-03-31,185700.0
2015-02-28,184800.0
2015-01-31,182000.0
2014-12-31,180800.0
2014-11-30,180100.0
2014-10-31,181400.0
2014-09-30,183800.0
2014-08-31,185200.0
2014-07-31,185100.0
2014-06-30,185400.0
2014-05-31,186500.0
2014-04-30,188100.0
2014-03-31,188700.0
2014-02-28,187000.0
2014-01-31,185500.0
2013-12-31,184400.0
2013-11-30,182500.0
2013-10-31,181500.0
2013-09-30,179900.0
2013-08-31,172000.0
2013-07-31,161900.0
2013-06-30,155900.0
2013-05-31,154000.0
2013-04-30,153000.0
2013-03-31,153700.0
2013-02-28,155600.0
2013-01-31,156600.0
2012-12-31,156000.0
2012-11-30,155600.0
2012-10-31,156100.0
2012-09-30,157400.0
2012-08-31,160600.0
2012-07-31,164300.0
2012-06-30,166200.0
2012-05-31,166500.0
2012-04-30,166000.0
2012-03-31,163700.0
2012-02-29,161300.0
2012-01-31,159700.0
2011-12-31,159900.0
2011-11-30,161800.0
2011-10-31,163200.0
2011-09-30,164800.0
2011-08-31,167400.0
2011-07-31,169600.0
2011-06-30,171100.0
2011-05-31,174000.0
2011-04-30,177300.0
2011-03-31,179300.0
2011-02-28,180900.0
2011-01-31,183700.0
2010-12-31,187700.0
2010-11-30,191600.0
2010-10-31,192300.0
2010-09-30,189800.0
2010-08-31,189200.0
2010-07-31,193200.0
2010-06-30,198000.0
2010-05-31,199600.0
2010-04-30,200400.0
2010-03-31,202700.0
2010-02-28,205700.0
2010-01-31,207800.0
2009-12-31,207700.0
2009-11-30,205500.0
2009-10-31,204100.0
2009-09-30,204500.0
2009-08-31,205600.0
2009-07-31,206400.0
2009-06-30,206700.0
2009-05-31,206500.0
2009-04-30,206500.0
2009-03-31,208100.0
2009-02-28,211000.0
2009-01-31,214600.0
2008-12-31,218300.0
2008-11-30,221800.0
2008-10-31,223700.0
2008-09-30,224800.0
2008-08-31,227500.0
2008-07-31,230800.0
2008-06-30,232400.0
2008-05-31,233900.0
2008-04-30,236800.0
2008-03-31,240500.0
2008-02-29,242900.0
2008-01-31,243400.0
2007-12-31,243800.0
2007-11-30,245900.0
2007-10-31,249000.0
2007-09-30,250300.0
2007-08-31,250300.0
2007-07-31,250000.0
2007-06-30,250600.0
2007-05-31,249100.0
2007-04-30,245600.0
2007-03-31,241800.0
2007-02-28,239500.0
2007-01-31,237600.0
2006-12-31,235700.0
2006-11-30,233900.0
2006-10-31,231700.0
2006-09-30,228000.0
2006-08-31,223300.0
2006-07-31,219400.0
2006-06-30,216700.0
2006-05-31,215000.0
2006-04-30,214000.0
2006-03-31,211600.0
2006-02-28,207700.0
2006-01-31,203700.0
2005-12-31,200000.0
2005-11-30,194800.0
2005-10-31,190000.0
2005-09-30,189100.0
2005-08-31,188400.0
2005-07-31,184700.0
2005-06-30,181100.0
2005-05-31,179300.0
2005-04-30,177200.0
2005-03-31,175100.0
2005-02-28,172800.0
2005-01-31,170600.0
2004-12-31,168900.0
2004-11-30,167600.0
2004-10-31,167000.0
2004-09-30,167200.0
2004-08-31,167000.0
2004-07-31,166200.0
2004-06-30,165200.0
2004-05-31,164300.0
2004-04-30,162900.0
2004-03-31,161300.0
2004-02-29,160500.0
2004-01-31,159800.0
2003-12-31,158900.0
2003-11-30,158600.0
2003-10-31,158700.0
2003-09-30,157700.0
2003-08-31,156700.0
2003-07-31,156200.0
2003-06-30,155800.0
2003-05-31,155200.0
2003-04-30,154500.0
2003-03-31,154000.0
2003-02-28,153800.0
2003-01-31,153500.0
2002-12-31,153000.0
2002-11-30,152800.0
2002-10-31,152500.0
2002-09-30,151800.0
2002-08-31,151400.0
2002-07-31,151400.0
2002-06-30,150200.0
2002-05-31,148400.0
2002-04-30,147900.0
2002-03-31,148200.0
2002-02-28,147900.0
2002-01-31,147900.0
2001-12-31,147900.0
2001-11-30,147600.0
2001-10-31,147300.0
2001-09-30,147100.0
2001-08-31,146800.0
2001-07-31,146400.0
2001-06-30,146000.0
2001-05-31,145800.0
2001-04-30,145700.0
2001-03-31,145500.0
2001-02-28,145500.0
2001-01-31,145300.0
2000-12-31,144700.0
2000-11-30,143700.0
2000-10-31,142700.0
2000-09-30,141200.0
2000-08-31,139600.0
2000-07-31,138900.0
2000-06-30,139100.0
2000-05-31,138900.0
2000-04-30,138600.0
2000-03-31,138700.0
2000-02-29,138700.0
2000-01-31,138300.0
1999-12-31,138100.0
1999-11-30,137900.0
1999-10-31,137600.0
1999-09-30,137300.0
1999-08-31,136800.0
1999-07-31,136300.0
1999-06-30,136100.0
1999-05-31,136100.0
1999-04-30,135600.0
1999-03-31,134500.0
1999-02-28,133300.0
1999-01-31,132500.0
1998-12-31,131500.0
1998-11-30,130200.0
1998-10-31,129000.0
1998-09-30,128100.0
1998-08-31,127600.0
1998-07-31,127200.0
1998-06-30,126300.0
1998-05-31,125000.0
1998-04-30,122400.0
1998-03-31,119800.0
1998-02-28,118500.0
1998-01-31,118200.0
1997-12-31,117700.0
1997-11-30,118000.0
1997-10-31,118200.0
1997-09-30,118100.0
1997-08-31,118200.0
1997-07-31,117900.0
1997-06-30,117100.0
1997-05-31,116300.0
1997-04-30,116000.0
1997-03-31,114700.0
1997-02-28,112600.0
1997-01-31,110900.0
1996-12-31,110700.0
1996-11-30,110200.0
1996-10-31,109400.0
1996-09-30,108700.0
1996-08-31,108200.0
1996-07-31,107700.0
1996-06-30,107800.0
1996-05-31,108200.0
1996-04-30,109200.0
