Date,Value
2015-02-28,94000.0
2015-01-31,119900.0
2014-12-31,138900.0
2014-11-30,149900.0
2014-10-31,139900.0
2014-09-30,138900.0
2014-08-31,137900.0
2014-07-31,139900.0
2014-06-30,139000.0
2014-05-31,139000.0
2014-04-30,138900.0
2014-03-31,115000.0
2014-02-28,139900.0
2014-01-31,115000.0
2013-12-31,99900.0
2013-11-30,95650.0
2013-10-31,99900.0
2013-09-30,139900.0
2013-08-31,139900.0
2013-07-31,115000.0
2013-06-30,125000.0
2013-05-31,135000.0
2013-04-30,160000.0
2013-03-31,168500.0
2013-02-28,168500.0
2013-01-31,169000.0
2012-12-31,160000.0
2012-11-30,168500.0
2012-10-31,169900.0
2012-09-30,189000.0
2012-08-31,185000.0
2012-07-31,185000.0
2012-06-30,184990.0
2012-05-31,179000.0
2012-04-30,179000.0
2012-03-31,179900.0
2012-02-29,129900.0
2012-01-31,129900.0
2011-12-31,129900.0
2011-11-30,129900.0
2011-10-31,99500.0
2011-09-30,89950.0
2011-08-31,89500.0
2011-07-31,95000.0
2011-06-30,109000.0
2011-05-31,109950.0
2011-04-30,109500.0
2011-03-31,99900.0
2011-02-28,99500.0
2011-01-31,99500.0
2010-12-31,109000.0
2010-11-30,112500.0
2010-10-31,114000.0
2010-09-30,159900.0
2010-08-31,129900.0
2010-07-31,155000.0
2010-06-30,155000.0
2010-05-31,129900.0
2010-04-30,159900.0
2010-03-31,165000.0
2010-02-28,165000.0
2010-01-31,199000.0
2009-12-31,199000.0
2009-11-30,165000.0
2009-10-31,159900.0
2009-09-30,175000.0
2009-08-31,199000.0
2009-07-31,176500.0
2009-06-30,176500.0
2009-05-31,176500.0
2009-04-30,245000.0
2009-03-31,176500.0
2009-02-28,269000.0
2009-01-31,269000.0
2008-12-31,245000.0
2008-11-30,275000.0
2008-10-31,275000.0
