Date,Value
2015-09-30,123800.0
2015-08-31,124500.0
2015-07-31,123400.0
2015-06-30,122200.0
2015-05-31,121500.0
2015-04-30,119400.0
2015-03-31,118300.0
2015-02-28,118500.0
2015-01-31,116700.0
2014-12-31,116900.0
2014-11-30,117900.0
2014-10-31,116300.0
2014-09-30,112800.0
2014-08-31,110900.0
2014-07-31,111000.0
2014-06-30,109800.0
2014-05-31,107800.0
2014-04-30,106400.0
2014-03-31,106400.0
2014-02-28,107100.0
2014-01-31,107600.0
2013-12-31,107300.0
2013-11-30,107500.0
2013-10-31,108600.0
2013-09-30,108200.0
2013-08-31,106000.0
2013-07-31,104400.0
2013-06-30,104200.0
2013-05-31,104100.0
2013-04-30,103900.0
2013-03-31,103600.0
2013-02-28,103100.0
2013-01-31,103200.0
2012-12-31,102800.0
2012-11-30,101400.0
2012-10-31,101200.0
2012-09-30,103700.0
2012-08-31,106500.0
2012-07-31,107700.0
2012-06-30,107400.0
2012-05-31,107700.0
2012-04-30,109300.0
2012-03-31,112400.0
2012-02-29,115200.0
2012-01-31,116500.0
2011-12-31,116000.0
2011-11-30,116400.0
2011-10-31,117600.0
2011-09-30,118900.0
2011-08-31,120700.0
2011-07-31,123600.0
2011-06-30,128400.0
2011-05-31,132400.0
2011-04-30,134900.0
2011-03-31,135500.0
2011-02-28,134800.0
2011-01-31,134200.0
2010-12-31,135700.0
2010-11-30,137500.0
2010-10-31,139400.0
2010-09-30,142500.0
2010-08-31,145000.0
2010-07-31,145700.0
2010-06-30,146700.0
2010-05-31,148800.0
2010-04-30,151200.0
2010-03-31,152400.0
2010-02-28,153000.0
2010-01-31,154300.0
2009-12-31,156600.0
2009-11-30,158600.0
2009-10-31,159800.0
2009-09-30,160500.0
2009-08-31,161800.0
2009-07-31,164200.0
2009-06-30,166900.0
2009-05-31,168800.0
2009-04-30,170400.0
2009-03-31,172400.0
2009-02-28,175100.0
2009-01-31,178100.0
2008-12-31,181100.0
2008-11-30,184500.0
2008-10-31,187900.0
2008-09-30,190800.0
2008-08-31,193000.0
2008-07-31,193400.0
2008-06-30,193100.0
2008-05-31,193800.0
2008-04-30,194900.0
2008-03-31,196300.0
2008-02-29,198200.0
2008-01-31,200700.0
2007-12-31,203500.0
2007-11-30,206000.0
2007-10-31,207400.0
2007-09-30,208400.0
2007-08-31,208800.0
2007-07-31,208700.0
2007-06-30,208400.0
2007-05-31,207900.0
2007-04-30,207600.0
2007-03-31,207400.0
2007-02-28,207100.0
2007-01-31,205100.0
2006-12-31,202600.0
2006-11-30,200700.0
2006-10-31,197900.0
2006-09-30,192800.0
2006-08-31,189100.0
2006-07-31,187900.0
2006-06-30,187400.0
2006-05-31,186300.0
2006-04-30,184500.0
2006-03-31,182500.0
2006-02-28,180600.0
2006-01-31,179600.0
2005-12-31,178300.0
2005-11-30,175700.0
2005-10-31,172800.0
2005-09-30,169700.0
2005-08-31,165800.0
2005-07-31,162600.0
2005-06-30,159700.0
2005-05-31,157500.0
2005-04-30,155900.0
2005-03-31,154600.0
2005-02-28,152700.0
2005-01-31,150800.0
2004-12-31,148000.0
2004-11-30,145300.0
2004-10-31,143900.0
2004-09-30,144300.0
2004-08-31,145100.0
2004-07-31,144600.0
2004-06-30,143100.0
2004-05-31,141000.0
2004-04-30,137900.0
2004-03-31,134700.0
2004-02-29,132700.0
2004-01-31,131700.0
2003-12-31,131500.0
2003-11-30,131300.0
2003-10-31,131200.0
2003-09-30,131800.0
2003-08-31,132800.0
2003-07-31,133000.0
2003-06-30,132400.0
2003-05-31,131800.0
2003-04-30,131000.0
2003-03-31,130100.0
2003-02-28,129600.0
2003-01-31,129000.0
2002-12-31,127900.0
2002-11-30,127400.0
2002-10-31,127000.0
2002-09-30,126900.0
2002-08-31,126500.0
2002-07-31,126200.0
2002-06-30,126300.0
2002-05-31,126700.0
2002-04-30,127200.0
2002-03-31,127800.0
2002-02-28,127600.0
2002-01-31,126800.0
2001-12-31,126500.0
2001-11-30,126000.0
2001-10-31,124700.0
2001-09-30,123400.0
2001-08-31,122600.0
2001-07-31,122100.0
2001-06-30,121000.0
2001-05-31,119600.0
2001-04-30,119200.0
2001-03-31,119300.0
2001-02-28,118800.0
2001-01-31,118200.0
2000-12-31,118000.0
2000-11-30,118200.0
2000-10-31,119100.0
2000-09-30,119600.0
2000-08-31,119100.0
2000-07-31,117800.0
2000-06-30,116900.0
2000-05-31,116400.0
2000-04-30,115300.0
2000-03-31,113600.0
2000-02-29,112500.0
2000-01-31,112000.0
1999-12-31,111000.0
1999-11-30,110500.0
1999-10-31,109400.0
1999-09-30,107700.0
1999-08-31,106500.0
1999-07-31,106400.0
1999-06-30,106300.0
1999-05-31,106500.0
1999-04-30,106700.0
1999-03-31,106900.0
1999-02-28,107100.0
1999-01-31,106500.0
1998-12-31,105600.0
1998-11-30,104700.0
1998-10-31,103900.0
1998-09-30,102800.0
1998-08-31,101600.0
1998-07-31,100600.0
1998-06-30,100200.0
1998-05-31,99900.0
1998-04-30,99700.0
1998-03-31,99700.0
1998-02-28,100100.0
1998-01-31,100400.0
1997-12-31,100300.0
1997-11-30,99500.0
1997-10-31,99100.0
1997-09-30,99300.0
1997-08-31,98700.0
1997-07-31,97300.0
1997-06-30,96200.0
1997-05-31,95200.0
1997-04-30,94500.0
1997-03-31,94600.0
1997-02-28,94700.0
1997-01-31,94100.0
1996-12-31,93700.0
1996-11-30,93000.0
1996-10-31,92100.0
1996-09-30,90900.0
1996-08-31,90300.0
1996-07-31,90500.0
1996-06-30,91000.0
1996-05-31,91700.0
1996-04-30,92300.0
