Date,Value
2015-09-30,318232.5
2015-08-31,301750.0
2015-07-31,303000.0
2015-06-30,287647.0588
2015-05-31,270000.0
2015-04-30,325000.0
2014-10-31,288643.9
2014-09-30,276669.5
2014-08-31,274214.7059
2014-07-31,277269.2308
2014-05-31,284117.6471
2014-04-30,240000.0
2013-09-30,287500.0
2013-08-31,250000.0
2013-07-31,260384.6154
2013-05-31,268400.0
2013-04-30,242470.5882
2013-03-31,246000.0
2012-12-31,320000.0
2012-08-31,178911.7647
2012-07-31,234500.0
2011-10-31,178823.5294
2011-09-30,220000.0
2010-12-31,210000.0
2010-06-30,226500.0
2010-05-31,220705.8824
2010-04-30,256000.0
2009-12-31,245461.5385
2009-10-31,242205.8824
2009-09-30,292500.0
2009-05-31,239000.0
2008-10-31,291500.0
2008-09-30,286500.0
2008-08-31,313250.0
2008-07-31,309700.0
2008-06-30,295300.0
2008-05-31,301250.0
2008-04-30,276176.4706
2008-03-31,285000.0
2007-11-30,309242.5
2007-10-31,308407.5
2007-09-30,328500.0
2007-08-31,356300.0
2007-07-31,363250.0
2007-06-30,330300.0
2007-05-31,331050.0
2007-04-30,301650.0
2007-03-31,295882.3529
2007-02-28,325076.9231
2006-12-31,336300.0
2006-11-30,333748.5
2006-10-31,338746.5
2006-09-30,317745.0
2006-08-31,321250.0
2006-07-31,342190.0
2006-06-30,346559.85
2006-05-31,342849.65
2006-04-30,349999.5
2006-03-31,331750.0
2006-02-28,283950.0
2006-01-31,289050.0
2005-12-31,265450.0
2005-11-30,279450.0
2005-10-31,283100.0
2005-09-30,282625.0
2005-08-31,248625.0
2005-07-31,255742.5
2005-06-30,267232.5
2005-05-31,254960.0
2005-04-30,253065.0
2005-03-31,243350.0
2005-02-28,260950.0
2005-01-31,248300.0
2004-12-31,248250.0
2004-11-30,251150.0
2004-10-31,245342.5
2004-09-30,241975.0
2004-08-31,243457.5
2004-07-31,242291.5
2004-06-30,236138.5
2004-05-31,236655.0
2004-04-30,252200.0
2004-03-31,246800.0
2004-02-29,247750.0
2004-01-31,223890.0
2003-12-31,218160.0
2003-11-30,196560.0
2003-10-31,207940.0
2003-09-30,217575.0
2003-08-31,213675.0
2003-07-31,213700.0
2003-06-30,207175.0
2003-05-31,226825.0
2003-04-30,221825.5
2003-03-31,196509.5
2003-02-28,203885.0
2003-01-31,181637.5
2002-12-31,186187.5
2002-11-30,191625.0
2002-10-31,195900.0
2002-09-30,195850.0
2002-08-31,205800.0
2002-07-31,212550.0
2002-06-30,204555.0
2002-05-31,189687.5
2002-04-30,189067.5
2002-03-31,194215.0
2002-02-28,206088.2353
2002-01-31,196615.3846
2001-11-30,201150.0
2001-10-31,194250.0
2001-09-30,192875.0
2001-08-31,178425.0
2001-07-31,179980.0
2001-06-30,183570.0
2001-05-31,178792.5
2001-04-30,197682.5
2001-03-31,187412.5
2001-02-28,199787.5
2001-01-31,177375.0
2000-12-31,186742.5
2000-11-30,167232.5
2000-10-31,159217.5
2000-09-30,157313.45
2000-08-31,178680.55
2000-07-31,177336.5
2000-06-30,172492.5
2000-05-31,166407.5
2000-04-30,153180.0
2000-03-31,155258.8235
2000-02-29,152615.3846
1999-12-31,168925.0
1999-11-30,171525.0
1999-10-31,164625.0
1999-09-30,157867.5
1999-08-31,146982.5
1999-07-31,141900.0
1999-06-30,152155.0
1999-05-31,161795.0
1999-04-30,157075.0
1999-03-31,163800.0
1999-02-28,167600.0
1999-01-31,166700.0
1998-12-31,164075.0
1998-11-30,159325.0
1998-10-31,138850.0
1998-09-30,138425.0
1998-08-31,135375.0
1998-07-31,142533.25
1998-06-30,152044.25
1998-05-31,175320.0
1998-04-30,157825.0
1998-03-31,148655.8824
1998-02-28,153026.9231
1997-12-31,132650.0
1997-11-30,115696.85
1997-10-31,118292.65
1997-09-30,124289.5
1997-08-31,130475.0
1997-07-31,129725.0
1997-06-30,126742.5
1997-05-31,122282.5
1997-04-30,120624.25
1997-03-31,120540.75
1997-02-28,132623.5294
1997-01-31,119769.2308
1996-11-30,115787.5
1996-10-31,127187.5
1996-09-30,120025.0
1996-08-31,122000.0
1996-07-31,115450.0
1996-06-30,116800.0
1996-05-31,115242.5
1996-04-30,111157.5
