Date,Value
2014-07-31,69900.0
2012-09-30,119000.0
2012-08-31,89000.0
2012-06-30,129000.0
2012-02-29,165000.0
2012-01-31,111500.0
2011-12-31,126500.0
2011-11-30,133500.0
2011-10-31,189000.0
2011-06-30,121000.0
2011-01-31,107000.0
2010-12-31,99900.0
2010-10-31,99000.0
2010-09-30,97500.0
2010-08-31,99000.0
2010-07-31,99900.0
2010-06-30,99900.0
2010-04-30,99900.0
2010-03-31,102500.0
2010-02-28,102500.0
2010-01-31,99900.0
2009-12-31,99900.0
2009-11-30,118500.0
2009-10-31,129500.0
2009-09-30,129500.0
2009-08-31,123000.0
2009-06-30,149000.0
2008-10-31,159900.0
