Date,Value
2015-09-30,171750.0
2015-08-31,165125.0
2015-07-31,169770.95
2015-06-30,157565.55
2015-05-31,149886.5
2015-04-30,151075.0
2015-03-31,155235.0
2015-02-28,151165.0
2015-01-31,143925.0
2014-12-31,147510.0
2014-11-30,148815.0
2014-10-31,150700.0
2014-09-30,154600.0
2014-08-31,151985.0
2014-07-31,157615.0
2014-06-30,154435.0
2014-05-31,149665.0
2014-04-30,147375.0
2014-03-31,140902.0
2014-02-28,133530.0
2014-01-31,131955.0
2013-12-31,138405.0
2013-11-30,139997.5
2013-10-31,145512.5
2013-09-30,151740.0
2013-08-31,149795.0
2013-07-31,152080.0
2013-06-30,145655.0
2013-05-31,138805.0
2013-04-30,138063.0
2013-03-31,140515.0
2013-02-28,134975.0
2013-01-31,130052.0
2012-12-31,132840.0
2012-11-30,141140.0
2012-10-31,135360.0
2012-09-30,143254.7
2012-08-31,148514.3
2012-07-31,143369.0
2012-06-30,133590.0
2012-05-31,128595.0
2012-04-30,138855.0
2012-03-31,144938.0
2012-02-29,131174.5
2012-01-31,135122.5
2011-12-31,126955.0
2011-11-30,138932.0
2011-10-31,142223.0
2011-09-30,149207.0
2011-08-31,151150.0
2011-07-31,151645.0
2011-06-30,138999.15
2011-05-31,138041.35
2011-04-30,142460.5
2011-03-31,136922.0
2011-02-28,128087.5
2011-01-31,129880.0
2010-12-31,135830.0
2010-11-30,145980.0
2010-10-31,147630.0
2010-09-30,149105.0
2010-08-31,150605.0
2010-07-31,145330.0
2010-06-30,140980.0
2010-05-31,140488.0
2010-04-30,139917.0
2010-03-31,140655.0
2010-02-28,143580.0
2010-01-31,137379.85
2009-12-31,138279.65
2009-11-30,139529.5
2009-10-31,139280.0
2009-09-30,140988.0
2009-08-31,148945.0
2009-07-31,153015.0
2009-06-30,153645.0
2009-05-31,148613.0
2009-04-30,148387.0
2009-03-31,150360.0
2009-02-28,146630.0
2009-01-31,150472.5
2008-12-31,153797.5
2008-11-30,159905.0
2008-10-31,156178.0
2008-09-30,153847.0
2008-08-31,159735.0
2008-07-31,158845.0
2008-06-30,161080.0
2008-05-31,156622.5
2008-04-30,155012.5
2008-03-31,151555.0
2008-02-29,148405.5
2008-01-31,148064.5
2007-12-31,152940.0
2007-11-30,151463.0
2007-10-31,156169.5
2007-09-30,159702.5
2007-08-31,159805.0
2007-07-31,159480.0
2007-06-30,154205.0
2007-05-31,152640.0
2007-04-30,151045.0
2007-03-31,148280.0
2007-02-28,145363.0
2007-01-31,143457.0
2006-12-31,143090.0
2006-11-30,145405.0
2006-10-31,146580.0
2006-09-30,148785.0
2006-08-31,146550.0
2006-07-31,145805.0
2006-06-30,145005.0
2006-05-31,139790.0
2006-04-30,132870.0
2006-03-31,131630.0
2006-02-28,129780.0
2006-01-31,125973.0
2005-12-31,127632.0
2005-11-30,130040.0
2005-10-31,130495.0
2005-09-30,130922.5
2005-08-31,130620.5
2005-07-31,126990.0
2005-06-30,120975.0
2005-05-31,113500.0
2005-04-30,107800.0
2005-03-31,106450.0
2005-02-28,107510.0
2005-01-31,108365.0
2004-12-31,109010.0
2004-11-30,114415.0
2004-10-31,112780.0
2004-09-30,109550.0
2004-08-31,106715.0
2004-07-31,108430.0
2004-06-30,107700.0
2004-05-31,104525.0
2004-04-30,97875.0
2004-03-31,94125.0
2004-02-29,94950.0
2004-01-31,98400.0
2003-12-31,101900.0
2003-11-30,101700.0
2003-10-31,103775.0
2003-09-30,102382.6
2003-08-31,101734.4
2003-07-31,100627.0
2003-06-30,99115.0
2003-05-31,98400.0
2003-04-30,100150.0
2003-03-31,94100.0
2003-02-28,91000.0
2003-01-31,93300.0
2002-12-31,94150.0
2002-11-30,95681.5
2002-10-31,96123.5
2002-09-30,95455.0
2002-08-31,93800.0
2002-07-31,93775.0
2002-06-30,93935.0
2002-05-31,92090.0
2002-04-30,90200.0
2002-03-31,88700.0
2002-02-28,88450.0
2002-01-31,88500.0
2001-12-31,89775.0
2001-11-30,90150.0
2001-10-31,91575.0
2001-09-30,94750.0
2001-08-31,94550.0
2001-07-31,93455.0
2001-06-30,91595.0
2001-05-31,91262.5
2001-04-30,91487.5
2001-03-31,92825.0
2001-02-28,92260.0
2001-01-31,90400.0
2000-12-31,88690.0
2000-11-30,88100.0
2000-10-31,89125.0
2000-09-30,91100.0
2000-08-31,89200.0
2000-07-31,88300.0
2000-06-30,87100.0
2000-05-31,85700.0
2000-04-30,82450.0
2000-03-31,81885.0
2000-02-29,82415.0
2000-01-31,81600.0
1999-12-31,83425.0
1999-11-30,83975.0
1999-10-31,85000.0
1999-09-30,87350.0
1999-08-31,89800.0
1999-07-31,88950.0
1999-06-30,88385.0
1999-05-31,85990.0
1999-04-30,87187.5
1999-03-31,84555.0
1999-02-28,84782.5
1999-01-31,83025.0
1998-12-31,83425.0
1998-11-30,84250.0
1998-10-31,84300.0
1998-09-30,85225.0
1998-08-31,86367.5
1998-07-31,86532.5
1998-06-30,85675.0
1998-05-31,85625.0
1998-04-30,83290.85
1998-03-31,81788.65
1998-02-28,81419.5
1998-01-31,82865.0
1997-12-31,81000.0
1997-11-30,81335.0
1997-10-31,80650.0
1997-09-30,83200.0
1997-08-31,87135.0
1997-07-31,86080.0
1997-06-30,82975.0
1997-05-31,81875.0
1997-04-30,81250.0
1997-03-31,79985.0
1997-02-28,79950.0
1997-01-31,80065.0
1996-12-31,80180.0
1996-11-30,80820.0
1996-10-31,81000.0
1996-09-30,82375.0
1996-08-31,81400.0
1996-07-31,82460.0
1996-06-30,82390.0
1996-05-31,81749.25
1996-04-30,83373.25
