Date,Value
2015-06-30,750.0
2015-05-31,625.0
2015-04-30,575.0
2015-03-31,695.0
2015-02-28,630.0
2015-01-31,595.0
2014-12-31,650.0
2014-11-30,625.0
2014-10-31,1195.0
2014-09-30,650.0
2014-08-31,625.0
2014-07-31,620.0
2014-06-30,700.0
2014-05-31,695.0
2014-04-30,675.0
2014-03-31,675.0
2014-02-28,635.0
2014-01-31,575.0
2013-12-31,575.0
2013-11-30,550.0
2013-10-31,595.0
2013-09-30,595.0
2013-08-31,635.0
2013-07-31,795.0
2013-06-30,670.0
2013-05-31,750.0
2013-04-30,750.0
2013-03-31,550.0
2013-02-28,610.0
2013-01-31,650.0
2012-12-31,575.0
2012-11-30,575.0
2012-10-31,625.0
2012-09-30,695.0
2012-08-31,675.0
2012-07-31,650.0
2012-06-30,700.0
2012-05-31,650.0
2012-04-30,650.0
2012-03-31,700.0
2012-02-29,700.0
2012-01-31,650.0
2011-12-31,625.0
2011-11-30,625.0
2011-10-31,650.0
2011-09-30,695.0
2011-08-31,650.0
2011-07-31,650.0
2011-05-31,600.0
2011-04-30,750.0
2011-03-31,695.0
2011-02-28,650.0
2011-01-31,650.0
2010-12-31,875.0
2010-11-30,865.0
2010-10-31,865.0
2010-09-30,865.0
2010-08-31,865.0
