Date,Value
2015-09-30,0.794
2015-08-31,0.778
2015-07-31,0.754
2015-06-30,0.758
2015-05-31,0.772
2015-04-30,0.774
2015-03-31,0.784
2015-02-28,0.786
2015-01-31,0.788
2014-12-31,0.786
2014-11-30,0.784
2014-10-31,0.78
2014-09-30,0.768
2014-08-31,0.754
2014-07-31,0.734
2014-06-30,0.716
2014-05-31,0.712
2014-04-30,0.712
2014-03-31,0.724
2014-02-28,0.734
2014-01-31,0.748
2013-12-31,0.762
2013-11-30,0.766
2013-10-31,0.764
2013-09-30,0.752
2013-08-31,0.746
2013-07-31,0.746
2013-06-30,0.758
2013-05-31,0.766
2013-04-30,0.774
2013-03-31,0.766
2013-02-28,0.738
2013-01-31,0.712
2012-12-31,0.704
2012-11-30,0.716
2012-10-31,0.718
2012-09-30,0.72
2012-08-31,0.716
2012-07-31,0.72
2012-06-30,0.724
2012-05-31,0.72
2012-04-30,0.712
2012-03-31,0.716
2012-02-29,0.72
2012-01-31,0.714
2011-12-31,0.7
2011-11-30,0.686
2011-10-31,0.682
2011-09-30,0.702
2011-08-31,0.722
2011-07-31,0.732
2011-06-30,0.728
2011-05-31,0.724
2011-04-30,0.718
2011-03-31,0.706
2011-02-28,0.714
2011-01-31,0.724
2010-12-31,0.73
2010-11-30,0.726
