Date,Value
2015-09-30,0.94
2015-08-31,0.92
2015-07-31,0.902
2015-06-30,0.89
2015-05-31,0.876
2015-04-30,0.862
2015-03-31,0.852
2015-02-28,0.844
2015-01-31,0.842
2014-12-31,0.846
2014-11-30,0.85
2014-10-31,0.856
2014-09-30,0.858
2014-08-31,0.854
2014-07-31,0.844
2014-06-30,0.83
2014-05-31,0.822
2014-04-30,0.814
2014-03-31,0.816
2014-02-28,0.814
2014-01-31,0.816
2013-12-31,0.818
2013-11-30,0.818
2013-10-31,0.814
2013-09-30,0.798
2013-08-31,0.782
2013-07-31,0.776
2013-06-30,0.78
2013-05-31,0.788
2013-04-30,0.79
2013-03-31,0.788
2013-02-28,0.782
2013-01-31,0.78
2012-12-31,0.776
2012-11-30,0.772
2012-10-31,0.78
2012-09-30,0.788
2012-08-31,0.796
2012-07-31,0.802
2012-06-30,0.806
2012-05-31,0.806
2012-04-30,0.804
2012-03-31,0.804
2012-02-29,0.81
2012-01-31,0.816
2011-12-31,0.806
2011-11-30,0.792
2011-10-31,0.778
2011-09-30,0.778
2011-08-31,0.784
2011-07-31,0.786
2011-06-30,0.788
2011-05-31,0.78
2011-04-30,0.78
2011-03-31,0.772
2011-02-28,0.768
2011-01-31,0.764
2010-12-31,0.762
2010-11-30,0.768
