Date,Value
2015-09-30,1.042
2015-08-31,1.07
2015-07-31,1.066
2015-06-30,1.064
2015-05-31,1.062
2015-04-30,1.056
2015-03-31,1.046
2015-02-28,1.038
2015-01-31,1.036
2014-12-31,1.038
2014-11-30,1.042
2014-10-31,1.044
2014-09-30,1.038
2014-08-31,1.034
2014-07-31,1.026
2014-06-30,1.02
2014-05-31,1.02
2014-04-30,1.014
2014-03-31,1.01
2014-02-28,1.006
2014-01-31,1.006
2013-12-31,1.004
2013-11-30,1.002
2013-10-31,1.0
2013-09-30,0.994
2013-08-31,0.984
2013-07-31,0.974
2013-06-30,0.962
2013-05-31,0.954
2013-04-30,0.948
2013-03-31,0.944
2013-02-28,0.942
2013-01-31,0.938
2012-12-31,0.932
2012-11-30,0.928
2012-10-31,0.922
2012-09-30,0.922
2012-08-31,0.924
2012-07-31,0.93
2012-06-30,0.938
2012-05-31,0.934
2012-04-30,0.928
2012-03-31,0.914
2012-02-29,0.906
2012-01-31,0.896
2011-12-31,0.882
2011-11-30,0.87
2011-10-31,0.856
2011-09-30,0.85
2011-08-31,0.842
2011-07-31,0.834
2011-06-30,0.822
2011-05-31,0.816
2011-04-30,0.81
