Date,Value
2015-09-30,467000.0
2015-08-31,465600.0
2015-07-31,465400.0
2015-06-30,468200.0
2015-05-31,466100.0
2015-04-30,460800.0
2015-03-31,454300.0
2015-02-28,451900.0
2015-01-31,447300.0
2014-12-31,444500.0
2014-11-30,441000.0
2014-10-31,438100.0
2014-09-30,435600.0
2014-08-31,432800.0
2014-07-31,430000.0
2014-06-30,428300.0
2014-05-31,426300.0
2014-04-30,422500.0
2014-03-31,418100.0
2014-02-28,414600.0
2014-01-31,411800.0
2013-12-31,409200.0
2013-11-30,406600.0
2013-10-31,403500.0
2013-09-30,400400.0
2013-08-31,398300.0
2013-07-31,395200.0
2013-06-30,390800.0
2013-05-31,386200.0
2013-04-30,380900.0
2013-03-31,374400.0
2013-02-28,368100.0
2013-01-31,362800.0
2012-12-31,357900.0
2012-11-30,352800.0
2012-10-31,348300.0
2012-09-30,345000.0
2012-08-31,342300.0
2012-07-31,339400.0
2012-06-30,336400.0
2012-05-31,333300.0
2012-04-30,330800.0
2012-03-31,328800.0
2012-02-29,327300.0
2012-01-31,327400.0
2011-12-31,328600.0
2011-11-30,329400.0
2011-10-31,329900.0
2011-09-30,330600.0
2011-08-31,331400.0
2011-07-31,332200.0
2011-06-30,332800.0
2011-05-31,333100.0
2011-04-30,333700.0
2011-03-31,335400.0
2011-02-28,337700.0
2011-01-31,340100.0
2010-12-31,342000.0
2010-11-30,343500.0
2010-10-31,345600.0
2010-09-30,348700.0
2010-08-31,351900.0
2010-07-31,355400.0
2010-06-30,359300.0
2010-05-31,362200.0
2010-04-30,364100.0
2010-03-31,366000.0
2010-02-28,367000.0
2010-01-31,367300.0
2009-12-31,367900.0
2009-11-30,369000.0
2009-10-31,369400.0
2009-09-30,369500.0
2009-08-31,370600.0
2009-07-31,373100.0
2009-06-30,376400.0
2009-05-31,380700.0
2009-04-30,386400.0
2009-03-31,391900.0
2009-02-28,396600.0
2009-01-31,400100.0
2008-12-31,403400.0
2008-11-30,408200.0
2008-10-31,413400.0
2008-09-30,415900.0
2008-08-31,416500.0
2008-07-31,418800.0
2008-06-30,423300.0
2008-05-31,428700.0
2008-04-30,433200.0
2008-03-31,436700.0
2008-02-29,440100.0
2008-01-31,443900.0
2007-12-31,447100.0
2007-11-30,450100.0
2007-10-31,453000.0
2007-09-30,455900.0
2007-08-31,458100.0
2007-07-31,459100.0
2007-06-30,458900.0
2007-05-31,456900.0
2007-04-30,455300.0
2007-03-31,455100.0
2007-02-28,454000.0
2007-01-31,451700.0
2006-12-31,450300.0
2006-11-30,447600.0
2006-10-31,443800.0
2006-09-30,440700.0
2006-08-31,437900.0
2006-07-31,433100.0
2006-06-30,427300.0
2006-05-31,421600.0
2006-04-30,415900.0
2006-03-31,410300.0
2006-02-28,405400.0
2006-01-31,400500.0
2005-12-31,396100.0
2005-11-30,392700.0
2005-10-31,389000.0
2005-09-30,384700.0
2005-08-31,379400.0
2005-07-31,373000.0
2005-06-30,366200.0
2005-05-31,360100.0
2005-04-30,354100.0
2005-03-31,348500.0
2005-02-28,344400.0
2005-01-31,341400.0
2004-12-31,337300.0
2004-11-30,331600.0
2004-10-31,326800.0
2004-09-30,323800.0
2004-08-31,321900.0
2004-07-31,320500.0
2004-06-30,318800.0
2004-05-31,316700.0
2004-04-30,314100.0
2004-03-31,311100.0
2004-02-29,308100.0
2004-01-31,305200.0
2003-12-31,302100.0
2003-11-30,299300.0
2003-10-31,297100.0
2003-09-30,295000.0
2003-08-31,292900.0
2003-07-31,291300.0
2003-06-30,290800.0
2003-05-31,290800.0
2003-04-30,290400.0
2003-03-31,289300.0
2003-02-28,287300.0
2003-01-31,285100.0
2002-12-31,283700.0
2002-11-30,283000.0
2002-10-31,281200.0
2002-09-30,279100.0
2002-08-31,277400.0
2002-07-31,275700.0
2002-06-30,273300.0
2002-05-31,271400.0
2002-04-30,270500.0
2002-03-31,270100.0
2002-02-28,269900.0
2002-01-31,269900.0
2001-12-31,270500.0
2001-11-30,270600.0
2001-10-31,270100.0
2001-09-30,269400.0
2001-08-31,267600.0
2001-07-31,265300.0
2001-06-30,263300.0
2001-05-31,262400.0
2001-04-30,262300.0
2001-03-31,261500.0
2001-02-28,259600.0
2001-01-31,257500.0
2000-12-31,255200.0
2000-11-30,253700.0
2000-10-31,253100.0
2000-09-30,252500.0
2000-08-31,252100.0
2000-07-31,253200.0
2000-06-30,254600.0
2000-05-31,253900.0
2000-04-30,251500.0
2000-03-31,249800.0
2000-02-29,248100.0
2000-01-31,244900.0
1999-12-31,241000.0
1999-11-30,237800.0
1999-10-31,235500.0
1999-09-30,233800.0
1999-08-31,233000.0
1999-07-31,232400.0
1999-06-30,231500.0
1999-05-31,229700.0
1999-04-30,227400.0
1999-03-31,225800.0
1999-02-28,225100.0
1999-01-31,224000.0
1998-12-31,222600.0
1998-11-30,222200.0
1998-10-31,221800.0
1998-09-30,220200.0
1998-08-31,217200.0
1998-07-31,214300.0
1998-06-30,211200.0
1998-05-31,208600.0
1998-04-30,206700.0
1998-03-31,205000.0
1998-02-28,203300.0
1998-01-31,202400.0
1997-12-31,201600.0
1997-11-30,200000.0
1997-10-31,197700.0
1997-09-30,195700.0
1997-08-31,193400.0
1997-07-31,190800.0
1997-06-30,187900.0
1997-05-31,185700.0
1997-04-30,184400.0
1997-03-31,182900.0
1997-02-28,181600.0
1997-01-31,180900.0
1996-12-31,180500.0
1996-11-30,179400.0
1996-10-31,178400.0
1996-09-30,177800.0
1996-08-31,178000.0
1996-07-31,178100.0
1996-06-30,178300.0
1996-05-31,178600.0
1996-04-30,179100.0
