Date,Value
2015-09-30,158300.0
2015-08-31,138700.0
2015-07-31,140000.0
2015-06-30,144800.0
2015-05-31,148100.0
2015-04-30,151100.0
2015-03-31,152600.0
2015-02-28,154800.0
2015-01-31,153800.0
2014-12-31,152300.0
2014-11-30,149800.0
2014-10-31,150600.0
2014-09-30,154700.0
2014-08-31,156500.0
2014-07-31,153200.0
2014-06-30,147900.0
2014-05-31,141100.0
2014-04-30,136100.0
2014-03-31,134600.0
2014-02-28,136000.0
2014-01-31,138300.0
2013-12-31,141300.0
2013-11-30,141400.0
2013-10-31,140000.0
2013-09-30,140100.0
2013-08-31,141300.0
2013-07-31,140600.0
2013-06-30,141800.0
2013-05-31,144600.0
2013-04-30,146200.0
2013-03-31,146600.0
2013-02-28,147600.0
2013-01-31,148300.0
2012-12-31,147800.0
2012-11-30,147600.0
2012-10-31,147200.0
2012-09-30,145700.0
2012-08-31,145600.0
2012-07-31,148500.0
2012-06-30,146600.0
2012-05-31,141500.0
2012-04-30,141500.0
2012-03-31,144200.0
2012-02-29,141200.0
2012-01-31,136900.0
2011-12-31,135700.0
2011-11-30,134300.0
2011-10-31,131200.0
2011-09-30,130300.0
2011-08-31,132600.0
2011-07-31,136100.0
2011-06-30,140700.0
2011-05-31,145200.0
2011-04-30,147700.0
2011-03-31,148300.0
2011-02-28,149300.0
2011-01-31,152100.0
2010-12-31,154500.0
2010-11-30,154600.0
2010-10-31,153400.0
2010-09-30,152500.0
2010-08-31,150900.0
2010-07-31,150100.0
2010-06-30,149600.0
2010-05-31,149000.0
2010-04-30,147400.0
2010-03-31,145200.0
2010-02-28,145100.0
2010-01-31,144500.0
2009-12-31,141200.0
2009-11-30,139000.0
2009-10-31,141200.0
2009-09-30,144300.0
2009-08-31,145700.0
2009-07-31,145900.0
2009-06-30,146300.0
2009-05-31,146500.0
2009-04-30,145900.0
2009-03-31,145400.0
2009-02-28,145600.0
2009-01-31,146300.0
2008-12-31,147500.0
2008-11-30,148500.0
2008-10-31,148200.0
2008-09-30,147600.0
2008-08-31,149000.0
2008-07-31,151500.0
2008-06-30,154600.0
2008-05-31,157600.0
2008-04-30,158700.0
2008-03-31,158900.0
2008-02-29,160400.0
2008-01-31,159200.0
2007-12-31,155200.0
2007-11-30,153400.0
2007-10-31,151300.0
2007-09-30,147000.0
2007-08-31,144800.0
2007-07-31,146000.0
2007-06-30,145500.0
2007-05-31,144100.0
2007-04-30,143000.0
2007-03-31,141300.0
2007-02-28,138600.0
2007-01-31,137900.0
2006-12-31,138600.0
2006-11-30,138800.0
2006-10-31,137500.0
2006-09-30,133600.0
2006-08-31,128100.0
2006-07-31,122200.0
2006-06-30,118000.0
2006-05-31,115300.0
2006-04-30,113900.0
2006-03-31,112600.0
2006-02-28,111200.0
2006-01-31,110600.0
2005-12-31,110900.0
2005-11-30,109900.0
2005-10-31,108600.0
2005-09-30,111000.0
2005-08-31,112400.0
2005-07-31,107600.0
2005-06-30,99900.0
2005-05-31,96500.0
2005-04-30,96400.0
2005-03-31,96800.0
2005-02-28,96600.0
2005-01-31,96400.0
2004-12-31,96500.0
2004-11-30,96900.0
2004-10-31,99600.0
2004-09-30,103500.0
2004-08-31,104300.0
2004-07-31,104200.0
2004-06-30,107700.0
2004-05-31,111600.0
2004-04-30,112900.0
2004-03-31,115300.0
2004-02-29,117900.0
2004-01-31,115700.0
2003-12-31,110000.0
2003-11-30,108800.0
2003-10-31,108900.0
2003-09-30,103400.0
2003-08-31,97700.0
2003-07-31,97600.0
2003-06-30,100300.0
2003-05-31,100500.0
2003-04-30,101000.0
2003-03-31,99200.0
2003-02-28,94600.0
2003-01-31,91700.0
2002-12-31,94800.0
2002-11-30,96100.0
2002-10-31,94000.0
2002-09-30,92200.0
2002-08-31,92800.0
2002-07-31,94600.0
2002-06-30,94500.0
2002-05-31,90800.0
2002-04-30,86000.0
2002-03-31,84600.0
2002-02-28,86700.0
2002-01-31,88500.0
2001-12-31,86200.0
2001-11-30,83800.0
2001-10-31,82700.0
2001-09-30,83000.0
2001-08-31,83200.0
2001-07-31,83000.0
2001-06-30,83400.0
2001-05-31,84200.0
2001-04-30,82600.0
2001-03-31,79500.0
2001-02-28,77300.0
2001-01-31,76200.0
2000-12-31,76200.0
2000-11-30,76200.0
2000-10-31,75700.0
2000-09-30,75300.0
2000-08-31,76000.0
2000-07-31,76700.0
2000-06-30,76700.0
2000-05-31,76600.0
2000-04-30,77500.0
2000-03-31,78300.0
2000-02-29,77900.0
2000-01-31,77800.0
1999-12-31,78600.0
1999-11-30,79300.0
1999-10-31,79600.0
1999-09-30,79500.0
1999-08-31,79300.0
1999-07-31,79200.0
1999-06-30,78800.0
1999-05-31,78400.0
1999-04-30,78600.0
1999-03-31,78600.0
1999-02-28,79000.0
1999-01-31,79300.0
1998-12-31,78600.0
1998-11-30,76900.0
1998-10-31,76300.0
1998-09-30,76600.0
1998-08-31,78000.0
1998-07-31,78600.0
1998-06-30,78300.0
1998-05-31,77700.0
1998-04-30,76000.0
1998-03-31,74700.0
1998-02-28,75000.0
1998-01-31,76400.0
1997-12-31,77500.0
1997-11-30,77400.0
1997-10-31,76300.0
1997-09-30,76000.0
1997-08-31,75600.0
1997-07-31,75000.0
1997-06-30,74100.0
1997-05-31,74100.0
1997-04-30,76200.0
1997-03-31,78500.0
1997-02-28,77400.0
