Date,Value
2014-12-31,550.0
2014-11-30,575.0
2014-10-31,800.0
2014-08-31,1100.0
2014-07-31,1100.0
2014-06-30,1100.0
2014-05-31,1100.0
2014-04-30,1100.0
2014-03-31,1100.0
2014-02-28,1100.0
2014-01-31,1100.0
2013-12-31,1100.0
2013-11-30,675.0
2013-10-31,1100.0
2013-09-30,1044.0
2013-08-31,1000.0
2013-07-31,925.0
2013-06-30,840.0
2013-05-31,1000.0
2013-04-30,800.0
2013-03-31,820.0
2013-02-28,820.0
2013-01-31,800.0
2012-12-31,840.0
2012-11-30,1044.0
2012-10-31,960.0
2012-09-30,910.0
2012-08-31,750.0
2012-07-31,650.0
2012-06-30,970.0
2012-05-31,900.0
2012-04-30,940.0
2011-11-30,450.0
2011-10-31,451.0
