Date,Value
2015-09-30,158700.0
2015-08-31,162400.0
2015-07-31,164300.0
2015-06-30,167200.0
2015-05-31,167900.0
2015-04-30,169000.0
2015-03-31,171400.0
2015-02-28,173400.0
2015-01-31,173000.0
2014-12-31,173400.0
2014-11-30,174500.0
2014-10-31,175600.0
2014-09-30,176900.0
2014-08-31,176100.0
2014-07-31,173200.0
2014-06-30,171800.0
2014-05-31,174900.0
2014-04-30,181700.0
2014-03-31,191500.0
2014-02-28,199100.0
2014-01-31,203500.0
2013-12-31,207000.0
2013-11-30,213100.0
2013-10-31,215300.0
2013-09-30,210900.0
2013-08-31,206900.0
2013-07-31,206300.0
2013-06-30,202800.0
2013-05-31,199200.0
2013-04-30,198800.0
2013-03-31,197400.0
2013-02-28,193000.0
2013-01-31,188200.0
2012-12-31,186200.0
2012-11-30,185200.0
2012-10-31,183900.0
2012-09-30,183300.0
2012-08-31,185000.0
2012-07-31,185900.0
2012-06-30,186800.0
2012-05-31,186800.0
2012-04-30,188100.0
2012-03-31,189500.0
2012-02-29,191000.0
2012-01-31,191700.0
2011-12-31,192700.0
2011-11-30,192100.0
2011-10-31,192700.0
2011-09-30,194400.0
2011-08-31,196100.0
2011-07-31,197500.0
2011-06-30,200600.0
2011-05-31,203300.0
2011-04-30,202500.0
2011-03-31,199100.0
2011-02-28,197800.0
2011-01-31,200600.0
2010-12-31,203400.0
2010-11-30,205700.0
2010-10-31,208100.0
2010-09-30,211900.0
2010-08-31,215500.0
2010-07-31,220100.0
2010-06-30,223900.0
2010-05-31,225100.0
2010-04-30,222600.0
2010-03-31,221300.0
2010-02-28,222600.0
2010-01-31,224900.0
2009-12-31,226800.0
2009-11-30,229400.0
2009-10-31,230600.0
2009-09-30,230200.0
2009-08-31,232200.0
2009-07-31,235100.0
2009-06-30,235100.0
2009-05-31,234000.0
2009-04-30,236200.0
2009-03-31,239700.0
2009-02-28,242000.0
2009-01-31,239500.0
2008-12-31,236100.0
2008-11-30,238700.0
2008-10-31,245100.0
2008-09-30,248900.0
2008-08-31,249700.0
2008-07-31,252200.0
2008-06-30,254600.0
2008-05-31,258000.0
2008-04-30,260800.0
2008-03-31,263900.0
2008-02-29,265300.0
2008-01-31,269500.0
2007-12-31,273700.0
2007-11-30,275100.0
2007-10-31,277100.0
2007-09-30,280800.0
2007-08-31,280100.0
2007-07-31,277000.0
2007-06-30,279000.0
2007-05-31,282700.0
2007-04-30,284300.0
2007-03-31,284400.0
2007-02-28,284200.0
2007-01-31,283400.0
2006-12-31,282900.0
2006-11-30,279200.0
2006-10-31,273900.0
2006-09-30,270500.0
2006-08-31,267700.0
2006-07-31,262600.0
2006-06-30,257400.0
2006-05-31,252100.0
2006-04-30,247500.0
2006-03-31,245200.0
2006-02-28,244500.0
2006-01-31,244100.0
2005-12-31,243100.0
2005-11-30,238600.0
2005-10-31,233700.0
2005-09-30,231400.0
2005-08-31,229200.0
2005-07-31,225700.0
2005-06-30,223400.0
2005-05-31,220700.0
2005-04-30,217600.0
2005-03-31,214500.0
2005-02-28,212400.0
2005-01-31,208100.0
2004-12-31,203100.0
2004-11-30,200800.0
2004-10-31,199100.0
2004-09-30,196800.0
2004-08-31,195800.0
2004-07-31,194600.0
2004-06-30,192400.0
2004-05-31,191100.0
2004-04-30,189000.0
2004-03-31,186600.0
2004-02-29,184700.0
2004-01-31,182900.0
2003-12-31,182600.0
2003-11-30,184100.0
2003-10-31,184400.0
2003-09-30,182500.0
2003-08-31,183300.0
2003-07-31,185300.0
2003-06-30,185200.0
2003-05-31,183900.0
2003-04-30,183300.0
2003-03-31,181700.0
2003-02-28,180100.0
2003-01-31,179500.0
2002-12-31,177200.0
2002-11-30,174000.0
2002-10-31,171400.0
2002-09-30,169700.0
2002-08-31,168000.0
2002-07-31,168000.0
2002-06-30,167500.0
2002-05-31,166800.0
2002-04-30,166900.0
2002-03-31,167100.0
2002-02-28,166100.0
2002-01-31,166500.0
2001-12-31,167400.0
2001-11-30,167800.0
2001-10-31,166400.0
2001-09-30,165100.0
2001-08-31,163800.0
2001-07-31,162400.0
2001-06-30,160300.0
2001-05-31,158900.0
2001-04-30,158100.0
2001-03-31,156600.0
2001-02-28,154700.0
2001-01-31,153100.0
2000-12-31,152000.0
2000-11-30,151400.0
2000-10-31,152800.0
2000-09-30,154800.0
2000-08-31,155700.0
2000-07-31,155300.0
2000-06-30,154800.0
2000-05-31,153700.0
2000-04-30,152900.0
2000-03-31,152500.0
2000-02-29,150700.0
2000-01-31,148700.0
1999-12-31,147700.0
1999-11-30,147300.0
1999-10-31,146100.0
1999-09-30,143900.0
1999-08-31,141300.0
1999-07-31,139900.0
1999-06-30,139600.0
1999-05-31,139400.0
1999-04-30,139100.0
1999-03-31,139300.0
1999-02-28,139800.0
1999-01-31,139600.0
1998-12-31,138600.0
1998-11-30,136900.0
1998-10-31,136100.0
1998-09-30,136200.0
1998-08-31,135500.0
1998-07-31,134300.0
1998-06-30,133500.0
1998-05-31,133000.0
1998-04-30,132500.0
1998-03-31,131500.0
1998-02-28,130400.0
1998-01-31,130000.0
1997-12-31,130400.0
1997-11-30,130000.0
1997-10-31,128800.0
1997-09-30,127100.0
1997-08-31,125300.0
1997-07-31,123600.0
1997-06-30,123000.0
1997-05-31,122900.0
1997-04-30,122800.0
1997-03-31,122000.0
1997-02-28,121200.0
1997-01-31,120900.0
1996-12-31,120700.0
1996-11-30,120400.0
1996-10-31,120400.0
1996-09-30,120500.0
1996-08-31,120400.0
1996-07-31,120300.0
1996-06-30,121300.0
1996-05-31,122400.0
1996-04-30,122100.0
