Date,Value
2015-09-30,0.794
2015-08-31,0.804
2015-07-31,0.804
2015-06-30,0.806
2015-05-31,0.804
2015-04-30,0.8
2015-03-31,0.798
2015-02-28,0.794
2015-01-31,0.786
2014-12-31,0.784
2014-11-30,0.79
2014-10-31,0.8
2014-09-30,0.802
2014-08-31,0.802
2014-07-31,0.792
2014-06-30,0.78
2014-05-31,0.768
2014-04-30,0.762
2014-03-31,0.76
2014-02-28,0.76
2014-01-31,0.758
2013-12-31,0.752
2013-11-30,0.748
2013-10-31,0.754
2013-09-30,0.758
2013-08-31,0.758
2013-07-31,0.752
2013-06-30,0.75
2013-05-31,0.752
2013-04-30,0.752
2013-03-31,0.744
2013-02-28,0.728
2013-01-31,0.72
2012-12-31,0.72
2012-11-30,0.72
2012-10-31,0.722
2012-09-30,0.72
2012-08-31,0.716
2012-07-31,0.714
2012-06-30,0.714
2012-05-31,0.706
2012-04-30,0.698
2012-03-31,0.688
2012-02-29,0.68
2012-01-31,0.676
2011-12-31,0.67
2011-11-30,0.664
2011-10-31,0.652
2011-09-30,0.642
2011-08-31,0.64
2011-07-31,0.654
2011-06-30,0.664
2011-05-31,0.678
2011-04-30,0.684
2011-03-31,0.704
2011-02-28,0.722
2011-01-31,0.74
2010-12-31,0.752
2010-11-30,0.752
