Date,Value
2015-09-30,150500.0
2015-08-31,153300.0
2015-07-31,150300.0
2015-06-30,151700.0
2015-05-31,149900.0
2015-04-30,142000.0
2015-03-31,141600.0
2015-02-28,145000.0
2015-01-31,144500.0
2014-12-31,144700.0
2014-11-30,145100.0
2014-10-31,145800.0
2014-09-30,146200.0
2014-08-31,145900.0
2014-07-31,145900.0
2014-06-30,146900.0
2014-05-31,148000.0
2014-04-30,148300.0
2014-03-31,148500.0
2014-02-28,148600.0
2014-01-31,148500.0
2013-12-31,148400.0
2013-11-30,147800.0
2013-10-31,146600.0
2013-09-30,145800.0
2013-08-31,146300.0
2013-07-31,146400.0
2013-06-30,145300.0
2013-05-31,143700.0
2013-04-30,142500.0
2013-03-31,141500.0
2013-02-28,140900.0
2013-01-31,140900.0
2012-12-31,141300.0
2012-11-30,141700.0
2012-10-31,141700.0
2012-09-30,140800.0
2012-08-31,139700.0
2012-07-31,138700.0
2012-06-30,137800.0
2012-05-31,136600.0
2012-04-30,135900.0
2012-03-31,135400.0
2012-02-29,134800.0
2012-01-31,134200.0
2011-12-31,133800.0
2011-11-30,133400.0
2011-10-31,132900.0
2011-09-30,133100.0
2011-08-31,134700.0
2011-07-31,136100.0
2011-06-30,136900.0
2011-05-31,137800.0
2011-04-30,140100.0
2011-03-31,143000.0
2011-02-28,145800.0
2011-01-31,148200.0
2010-12-31,150000.0
2010-11-30,151200.0
2010-10-31,153000.0
2010-09-30,155500.0
2010-08-31,157700.0
2010-07-31,158600.0
2010-06-30,158900.0
2010-05-31,159600.0
2010-04-30,160000.0
2010-03-31,159800.0
2010-02-28,159200.0
2010-01-31,158900.0
2009-12-31,158800.0
2009-11-30,158700.0
2009-10-31,157900.0
2009-09-30,157600.0
2009-08-31,158300.0
2009-07-31,158800.0
2009-06-30,158900.0
2009-05-31,159200.0
2009-04-30,160200.0
2009-03-31,160800.0
2009-02-28,160900.0
2009-01-31,160200.0
2008-12-31,160000.0
2008-11-30,161400.0
2008-10-31,162800.0
2008-09-30,162800.0
2008-08-31,162000.0
2008-07-31,161400.0
2008-06-30,161600.0
2008-05-31,163000.0
2008-04-30,164400.0
2008-03-31,165600.0
2008-02-29,165900.0
2008-01-31,166500.0
2007-12-31,167000.0
2007-11-30,167600.0
2007-10-31,168600.0
2007-09-30,170000.0
2007-08-31,169800.0
2007-07-31,170200.0
2007-06-30,170800.0
2007-05-31,169700.0
2007-04-30,168700.0
2007-03-31,169500.0
2007-02-28,169900.0
2007-01-31,169000.0
2006-12-31,167800.0
2006-11-30,166800.0
2006-10-31,166800.0
2006-09-30,166800.0
2006-08-31,166000.0
2006-07-31,164000.0
2006-06-30,162400.0
2006-05-31,161400.0
2006-04-30,159500.0
2006-03-31,156200.0
2006-02-28,153400.0
2006-01-31,151700.0
2005-12-31,149600.0
2005-11-30,146900.0
2005-10-31,144000.0
2005-09-30,140900.0
2005-08-31,138500.0
2005-07-31,137200.0
2005-06-30,136200.0
2005-05-31,135000.0
2005-04-30,133400.0
2005-03-31,132000.0
2005-02-28,131700.0
2005-01-31,131100.0
2004-12-31,130500.0
2004-11-30,130200.0
2004-10-31,129300.0
2004-09-30,127200.0
2004-08-31,125700.0
2004-07-31,125600.0
2004-06-30,125500.0
2004-05-31,124300.0
2004-04-30,122800.0
2004-03-31,121800.0
2004-02-29,120500.0
2004-01-31,119200.0
2003-12-31,118000.0
2003-11-30,116400.0
2003-10-31,114600.0
2003-09-30,112700.0
2003-08-31,110400.0
2003-07-31,107800.0
2003-06-30,105800.0
2003-05-31,104300.0
2003-04-30,102900.0
2003-03-31,101900.0
2003-02-28,102000.0
2003-01-31,102200.0
2002-12-31,101900.0
2002-11-30,101000.0
2002-10-31,100600.0
2002-09-30,101300.0
2002-08-31,102600.0
2002-07-31,103100.0
2002-06-30,103200.0
2002-05-31,103900.0
2002-04-30,104600.0
2002-03-31,104600.0
2002-02-28,103800.0
2002-01-31,103300.0
2001-12-31,103800.0
2001-11-30,104200.0
2001-10-31,103700.0
2001-09-30,103800.0
2001-08-31,104400.0
2001-07-31,104400.0
2001-06-30,103400.0
2001-05-31,102200.0
2001-04-30,101500.0
2001-03-31,100700.0
2001-02-28,99600.0
2001-01-31,98500.0
2000-12-31,97900.0
2000-11-30,98100.0
2000-10-31,98900.0
2000-09-30,99300.0
2000-08-31,99400.0
2000-07-31,99700.0
2000-06-30,100900.0
2000-05-31,103300.0
2000-04-30,105500.0
2000-03-31,107200.0
2000-02-29,108800.0
2000-01-31,110100.0
1999-12-31,110600.0
1999-11-30,110000.0
1999-10-31,108700.0
1999-09-30,107500.0
1999-08-31,105300.0
1999-07-31,102600.0
1999-06-30,99800.0
1999-05-31,96900.0
1999-04-30,94400.0
1999-03-31,92700.0
1999-02-28,90700.0
1999-01-31,88100.0
1998-12-31,86200.0
1998-11-30,85400.0
1998-10-31,85400.0
1998-09-30,86200.0
1998-08-31,87300.0
1998-07-31,88600.0
1998-06-30,89800.0
1998-05-31,90400.0
1998-04-30,90000.0
1998-03-31,90000.0
1998-02-28,91100.0
1998-01-31,92500.0
1997-12-31,93500.0
1997-11-30,95100.0
1997-10-31,96600.0
1997-09-30,97600.0
1997-08-31,98500.0
1997-07-31,100200.0
1997-06-30,101800.0
1997-05-31,103600.0
1997-04-30,105500.0
1997-03-31,106400.0
1997-02-28,106100.0
1997-01-31,105600.0
1996-12-31,105600.0
1996-11-30,105400.0
1996-10-31,105000.0
1996-09-30,104400.0
1996-08-31,104700.0
1996-07-31,104700.0
1996-06-30,103500.0
1996-05-31,101600.0
1996-04-30,100500.0
