Date,Value
2014-12-31,220300.0
2014-11-30,217900.0
2014-10-31,215600.0
2014-09-30,213400.0
2014-08-31,212100.0
2014-07-31,211700.0
2014-06-30,209600.0
2014-05-31,207300.0
2014-04-30,205600.0
2014-03-31,204100.0
2014-02-28,201800.0
2014-01-31,199100.0
2013-12-31,196100.0
2013-11-30,195000.0
2013-10-31,195100.0
2013-09-30,196100.0
2013-08-31,198400.0
2013-07-31,202900.0
2013-06-30,207200.0
2013-05-31,209500.0
2013-04-30,209200.0
2013-03-31,206300.0
2013-02-28,203400.0
2013-01-31,202000.0
2012-12-31,200500.0
2012-11-30,199200.0
2012-10-31,198400.0
2012-09-30,197000.0
2012-08-31,195200.0
2012-07-31,192200.0
2012-06-30,189900.0
2012-05-31,186800.0
2012-04-30,184100.0
2012-03-31,182400.0
2012-02-29,182200.0
2012-01-31,181300.0
2011-12-31,181800.0
2011-11-30,183400.0
2011-10-31,187800.0
2011-09-30,193500.0
2011-08-31,195900.0
2011-07-31,196900.0
2011-06-30,199600.0
2011-05-31,202400.0
2011-04-30,203800.0
2011-03-31,206000.0
2011-02-28,209600.0
2011-01-31,213600.0
2010-12-31,215300.0
2010-11-30,213800.0
2010-10-31,212300.0
2010-09-30,211900.0
2010-08-31,212400.0
2010-07-31,211600.0
2010-06-30,209400.0
2010-05-31,207900.0
2010-04-30,209100.0
2010-03-31,211800.0
2010-02-28,215700.0
2010-01-31,218900.0
2009-12-31,223300.0
2009-11-30,227200.0
2009-10-31,228400.0
2009-09-30,230000.0
2009-08-31,234300.0
2009-07-31,237300.0
2009-06-30,239200.0
2009-05-31,242900.0
2009-04-30,246000.0
2009-03-31,246700.0
2009-02-28,246600.0
2009-01-31,249800.0
2008-12-31,253400.0
2008-11-30,253100.0
2008-10-31,247200.0
2008-09-30,242300.0
2008-08-31,242100.0
2008-07-31,245600.0
2008-06-30,249100.0
2008-05-31,252500.0
2008-04-30,255200.0
2008-03-31,257300.0
2008-02-29,260200.0
2008-01-31,264300.0
2007-12-31,270000.0
2007-11-30,274800.0
2007-10-31,277000.0
2007-09-30,278100.0
2007-08-31,280800.0
2007-07-31,284500.0
2007-06-30,290800.0
2007-05-31,297700.0
2007-04-30,306400.0
2007-03-31,315600.0
2007-02-28,318100.0
2007-01-31,313200.0
2006-12-31,310400.0
2006-11-30,317300.0
2006-10-31,336800.0
2006-09-30,354800.0
2006-08-31,359700.0
2006-07-31,360700.0
2006-06-30,365400.0
2006-05-31,368100.0
2006-04-30,364400.0
2006-03-31,360200.0
2006-02-28,361800.0
2006-01-31,364800.0
2005-12-31,363100.0
2005-11-30,359500.0
2005-10-31,354600.0
2005-09-30,347500.0
2005-08-31,342800.0
2005-07-31,340400.0
2005-06-30,335500.0
2005-05-31,331500.0
2005-04-30,330600.0
2005-03-31,329700.0
2005-02-28,329700.0
2005-01-31,330600.0
2004-12-31,328600.0
2004-11-30,326200.0
2004-10-31,321000.0
2004-09-30,316000.0
2004-08-31,311600.0
2004-07-31,305800.0
2004-06-30,297100.0
2004-05-31,289800.0
2004-04-30,287700.0
2004-03-31,288300.0
2004-02-29,285200.0
2004-01-31,281200.0
2003-12-31,279000.0
2003-11-30,274800.0
2003-10-31,270800.0
2003-09-30,269000.0
2003-08-31,266500.0
2003-07-31,262000.0
2003-06-30,257000.0
2003-05-31,252100.0
2003-04-30,244200.0
2003-03-31,234900.0
2003-02-28,229100.0
2003-01-31,227000.0
2002-12-31,222600.0
2002-11-30,217000.0
2002-10-31,212400.0
2002-09-30,208800.0
2002-08-31,204500.0
2002-07-31,200200.0
2002-06-30,195500.0
2002-05-31,189200.0
2002-04-30,182100.0
2002-03-31,176500.0
2002-02-28,170200.0
2002-01-31,162900.0
2001-12-31,158700.0
2001-11-30,156600.0
2001-10-31,153100.0
2001-09-30,149900.0
2001-08-31,148700.0
2001-07-31,148100.0
2001-06-30,147200.0
2001-05-31,146100.0
2001-04-30,144600.0
2001-03-31,142900.0
2001-02-28,142100.0
2001-01-31,140900.0
2000-12-31,138500.0
2000-11-30,136300.0
2000-10-31,135800.0
2000-09-30,135000.0
2000-08-31,133900.0
2000-07-31,133700.0
2000-06-30,134400.0
2000-05-31,134300.0
2000-04-30,134100.0
2000-03-31,133500.0
2000-02-29,132200.0
2000-01-31,130400.0
1999-12-31,128300.0
1999-11-30,125500.0
1999-10-31,122800.0
1999-09-30,120200.0
1999-08-31,117900.0
1999-07-31,116300.0
1999-06-30,115600.0
1999-05-31,116300.0
1999-04-30,119000.0
1999-03-31,121500.0
1999-02-28,121900.0
1999-01-31,121800.0
1998-12-31,124700.0
1998-11-30,128300.0
1998-10-31,128500.0
1998-09-30,127300.0
1998-08-31,126700.0
1998-07-31,126200.0
1998-06-30,125900.0
1998-05-31,125200.0
1998-04-30,122600.0
1998-03-31,119100.0
1998-02-28,117600.0
1998-01-31,117700.0
1997-12-31,117500.0
1997-11-30,117400.0
1997-10-31,118300.0
1997-09-30,119400.0
1997-08-31,120600.0
1997-07-31,120800.0
1997-06-30,119800.0
1997-05-31,119000.0
1997-04-30,118500.0
1997-03-31,117700.0
1997-02-28,117400.0
1997-01-31,117700.0
1996-12-31,116800.0
1996-11-30,115200.0
1996-10-31,114300.0
1996-09-30,113700.0
1996-08-31,112100.0
1996-07-31,110800.0
1996-06-30,111400.0
1996-05-31,112800.0
1996-04-30,114700.0
