Date,Value
2015-09-30,286600.0
2015-08-31,283400.0
2015-07-31,278000.0
2015-06-30,280700.0
2015-05-31,276400.0
2015-04-30,273400.0
2015-03-31,273700.0
2015-02-28,272100.0
2015-01-31,273300.0
2014-12-31,273300.0
2014-11-30,272300.0
2014-10-31,271500.0
2014-09-30,271700.0
2014-08-31,271600.0
2014-07-31,269500.0
2014-06-30,267900.0
2014-05-31,268100.0
2014-04-30,268800.0
2014-03-31,269400.0
2014-02-28,270300.0
2014-01-31,270600.0
2013-12-31,269500.0
2013-11-30,267800.0
2013-10-31,265200.0
2013-09-30,263000.0
2013-08-31,261700.0
2013-07-31,260900.0
2013-06-30,258900.0
2013-05-31,256400.0
2013-04-30,255000.0
2013-03-31,254900.0
2013-02-28,254200.0
2013-01-31,252300.0
2012-12-31,251000.0
2012-11-30,251600.0
2012-10-31,252600.0
2012-09-30,253200.0
2012-08-31,253400.0
2012-07-31,253700.0
2012-06-30,253900.0
2012-05-31,253800.0
2012-04-30,253900.0
2012-03-31,256000.0
2012-02-29,259500.0
2012-01-31,262700.0
2011-12-31,264900.0
2011-11-30,266200.0
2011-10-31,266800.0
2011-09-30,268000.0
2011-08-31,270000.0
2011-07-31,272500.0
2011-06-30,274700.0
2011-05-31,276100.0
2011-04-30,276600.0
2011-03-31,276200.0
2011-02-28,276300.0
2011-01-31,277700.0
2010-12-31,279100.0
2010-11-30,280100.0
2010-10-31,282200.0
2010-09-30,284800.0
2010-08-31,286800.0
2010-07-31,287900.0
2010-06-30,288700.0
2010-05-31,289400.0
2010-04-30,291100.0
2010-03-31,293000.0
2010-02-28,293700.0
2010-01-31,293300.0
2009-12-31,293500.0
2009-11-30,294900.0
2009-10-31,296800.0
2009-09-30,298900.0
2009-08-31,301400.0
2009-07-31,303200.0
2009-06-30,304800.0
2009-05-31,306900.0
2009-04-30,308000.0
2009-03-31,308200.0
2009-02-28,308900.0
2009-01-31,310200.0
2008-12-31,311300.0
2008-11-30,311700.0
2008-10-31,312200.0
2008-09-30,313700.0
2008-08-31,315700.0
2008-07-31,317200.0
2008-06-30,318000.0
2008-05-31,318500.0
2008-04-30,319100.0
2008-03-31,318900.0
2008-02-29,318500.0
2008-01-31,319700.0
2007-12-31,321800.0
2007-11-30,322800.0
2007-10-31,322400.0
2007-09-30,320600.0
2007-08-31,318200.0
2007-07-31,317700.0
2007-06-30,320100.0
2007-05-31,323500.0
2007-04-30,326000.0
2007-03-31,326600.0
2007-02-28,327500.0
2007-01-31,328700.0
2006-12-31,329000.0
2006-11-30,328900.0
2006-10-31,329400.0
2006-09-30,328700.0
2006-08-31,326400.0
2006-07-31,324500.0
2006-06-30,323500.0
2006-05-31,320800.0
2006-04-30,315800.0
2006-03-31,312300.0
2006-02-28,310800.0
2006-01-31,308400.0
2005-12-31,303700.0
2005-11-30,298300.0
2005-10-31,292700.0
2005-09-30,288000.0
2005-08-31,285100.0
2005-07-31,282100.0
2005-06-30,278300.0
2005-05-31,273500.0
2005-04-30,267100.0
2005-03-31,260300.0
2005-02-28,255800.0
2005-01-31,252500.0
2004-12-31,248500.0
2004-11-30,244100.0
2004-10-31,240100.0
2004-09-30,236800.0
2004-08-31,234800.0
2004-07-31,233100.0
2004-06-30,231800.0
2004-05-31,232100.0
2004-04-30,235000.0
2004-03-31,236700.0
2004-02-29,233600.0
2004-01-31,228400.0
2003-12-31,226500.0
2003-11-30,225500.0
2003-10-31,225300.0
2003-09-30,226500.0
2003-08-31,226600.0
2003-07-31,223500.0
2003-06-30,219100.0
2003-05-31,216000.0
2003-04-30,216200.0
2003-03-31,218200.0
2003-02-28,218100.0
2003-01-31,216200.0
2002-12-31,216200.0
2002-11-30,218900.0
2002-10-31,219700.0
2002-09-30,217400.0
2002-08-31,214000.0
2002-07-31,212000.0
2002-06-30,210700.0
2002-05-31,208300.0
2002-04-30,205500.0
2002-03-31,205000.0
2002-02-28,205200.0
2002-01-31,204500.0
2001-12-31,203400.0
2001-11-30,203100.0
2001-10-31,203300.0
2001-09-30,204600.0
2001-08-31,204700.0
2001-07-31,204700.0
2001-06-30,204300.0
2001-05-31,205000.0
2001-04-30,205300.0
2001-03-31,204700.0
2001-02-28,204700.0
2001-01-31,207400.0
2000-12-31,208100.0
2000-11-30,208200.0
2000-10-31,208600.0
2000-09-30,208000.0
2000-08-31,209500.0
2000-07-31,212900.0
2000-06-30,213900.0
2000-05-31,214100.0
2000-04-30,213400.0
2000-03-31,211700.0
2000-02-29,210900.0
2000-01-31,210300.0
1999-12-31,208800.0
1999-11-30,207700.0
1999-10-31,206200.0
1999-09-30,204800.0
1999-08-31,204300.0
1999-07-31,205500.0
1999-06-30,205300.0
1999-05-31,203600.0
1999-04-30,202000.0
1999-03-31,203500.0
1999-02-28,206300.0
1999-01-31,208200.0
1998-12-31,207500.0
1998-11-30,205600.0
1998-10-31,204500.0
1998-09-30,203500.0
1998-08-31,199900.0
1998-07-31,193600.0
1998-06-30,189500.0
1998-05-31,186400.0
1998-04-30,182000.0
1998-03-31,174900.0
1998-02-28,166300.0
1998-01-31,72000.0
1997-12-31,72100.0
1997-11-30,72100.0
1997-10-31,72000.0
1997-09-30,72000.0
1997-08-31,71700.0
1997-07-31,71600.0
1997-06-30,71900.0
1997-05-31,71800.0
1997-04-30,71400.0
1997-03-31,71500.0
1997-02-28,71400.0
1997-01-31,70300.0
1996-12-31,69300.0
1996-11-30,69000.0
1996-10-31,69000.0
1996-09-30,68700.0
1996-08-31,68600.0
1996-07-31,68600.0
1996-06-30,68500.0
1996-05-31,68400.0
1996-04-30,67800.0
