Date,Value
2015-09-30,284600.0
2015-08-31,276700.0
2015-07-31,274200.0
2015-06-30,273900.0
2015-05-31,272400.0
2015-04-30,271500.0
2015-03-31,272100.0
2015-02-28,273400.0
2015-01-31,270900.0
2014-12-31,270400.0
2014-11-30,269400.0
2014-10-31,268200.0
2014-09-30,267500.0
2014-08-31,266700.0
2014-07-31,265100.0
2014-06-30,263000.0
2014-05-31,260900.0
2014-04-30,259200.0
2014-03-31,257700.0
2014-02-28,256300.0
2014-01-31,255100.0
2013-12-31,253800.0
2013-11-30,252700.0
2013-10-31,251800.0
2013-09-30,250300.0
2013-08-31,249000.0
2013-07-31,248200.0
2013-06-30,247100.0
2013-05-31,245700.0
2013-04-30,245000.0
2013-03-31,245100.0
2013-02-28,246000.0
2013-01-31,246500.0
2012-12-31,246000.0
2012-11-30,245400.0
2012-10-31,244800.0
2012-09-30,244100.0
2012-08-31,243600.0
2012-07-31,243400.0
2012-06-30,243500.0
2012-05-31,243600.0
2012-04-30,243500.0
2012-03-31,243100.0
2012-02-29,243000.0
2012-01-31,243600.0
2011-12-31,244000.0
2011-11-30,243500.0
2011-10-31,242700.0
2011-09-30,242600.0
2011-08-31,243100.0
2011-07-31,244500.0
2011-06-30,246400.0
2011-05-31,248400.0
2011-04-30,249800.0
2011-03-31,251200.0
2011-02-28,252700.0
2011-01-31,254000.0
2010-12-31,255000.0
2010-11-30,256300.0
2010-10-31,257800.0
2010-09-30,259200.0
2010-08-31,260800.0
2010-07-31,262000.0
2010-06-30,262600.0
2010-05-31,262900.0
2010-04-30,263400.0
2010-03-31,264500.0
2010-02-28,266000.0
2010-01-31,267500.0
2009-12-31,268500.0
2009-11-30,268800.0
2009-10-31,268400.0
2009-09-30,267700.0
2009-08-31,267500.0
2009-07-31,267700.0
2009-06-30,268500.0
2009-05-31,269300.0
2009-04-30,269900.0
2009-03-31,270300.0
2009-02-28,270500.0
2009-01-31,270600.0
2008-12-31,271300.0
2008-11-30,272900.0
2008-10-31,275800.0
2008-09-30,278200.0
2008-08-31,279400.0
2008-07-31,280800.0
2008-06-30,283600.0
2008-05-31,286100.0
2008-04-30,287800.0
2008-03-31,288600.0
2008-02-29,288100.0
2008-01-31,287000.0
2007-12-31,286700.0
2007-11-30,287500.0
2007-10-31,288300.0
2007-09-30,289400.0
2007-08-31,289800.0
2007-07-31,288900.0
2007-06-30,287700.0
2007-05-31,287500.0
2007-04-30,288000.0
2007-03-31,288100.0
2007-02-28,287100.0
2007-01-31,285800.0
2006-12-31,284700.0
2006-11-30,283200.0
2006-10-31,282400.0
2006-09-30,283100.0
2006-08-31,284400.0
2006-07-31,285200.0
2006-06-30,285200.0
2006-05-31,284800.0
2006-04-30,284500.0
2006-03-31,283900.0
2006-02-28,282900.0
2006-01-31,282300.0
2005-12-31,282000.0
2005-11-30,281300.0
2005-10-31,278700.0
2005-09-30,274900.0
2005-08-31,271300.0
2005-07-31,268100.0
2005-06-30,264300.0
2005-05-31,259900.0
2005-04-30,254800.0
2005-03-31,250200.0
2005-02-28,247300.0
2005-01-31,245300.0
2004-12-31,243000.0
2004-11-30,240200.0
2004-10-31,237200.0
2004-09-30,234100.0
2004-08-31,229900.0
2004-07-31,225400.0
2004-06-30,221600.0
2004-05-31,218500.0
2004-04-30,216000.0
2004-03-31,214200.0
2004-02-29,211900.0
2004-01-31,208400.0
2003-12-31,204000.0
2003-11-30,199900.0
2003-10-31,196400.0
2003-09-30,193200.0
2003-08-31,190600.0
2003-07-31,188400.0
2003-06-30,185500.0
2003-05-31,182200.0
2003-04-30,178700.0
2003-03-31,175400.0
2003-02-28,173100.0
2003-01-31,171700.0
2002-12-31,170300.0
2002-11-30,169000.0
2002-10-31,168300.0
2002-09-30,167600.0
2002-08-31,167000.0
2002-07-31,166400.0
2002-06-30,166000.0
2002-05-31,165500.0
2002-04-30,165900.0
2002-03-31,166100.0
2002-02-28,165500.0
2002-01-31,164400.0
2001-12-31,163800.0
2001-11-30,162700.0
2001-10-31,161200.0
2001-09-30,159800.0
2001-08-31,159000.0
2001-07-31,158500.0
2001-06-30,158300.0
2001-05-31,157700.0
2001-04-30,156400.0
2001-03-31,155200.0
2001-02-28,155200.0
2001-01-31,155900.0
2000-12-31,156700.0
2000-11-30,157500.0
2000-10-31,158100.0
2000-09-30,158200.0
2000-08-31,158000.0
2000-07-31,157500.0
2000-06-30,157000.0
2000-05-31,157300.0
2000-04-30,158100.0
2000-03-31,158200.0
2000-02-29,157100.0
2000-01-31,155900.0
1999-12-31,155200.0
1999-11-30,154800.0
1999-10-31,154400.0
1999-09-30,154300.0
1999-08-31,154300.0
1999-07-31,154100.0
1999-06-30,154000.0
1999-05-31,153800.0
1999-04-30,153700.0
1999-03-31,153300.0
1999-02-28,152500.0
1999-01-31,151200.0
1998-12-31,150200.0
1998-11-30,149400.0
1998-10-31,148700.0
1998-09-30,147500.0
1998-08-31,146000.0
1998-07-31,145000.0
1998-06-30,144600.0
1998-05-31,144400.0
1998-04-30,144300.0
1998-03-31,144200.0
1998-02-28,143700.0
1998-01-31,142900.0
1997-12-31,141800.0
1997-11-30,141000.0
1997-10-31,140800.0
1997-09-30,140900.0
1997-08-31,141100.0
1997-07-31,141000.0
1997-06-30,140600.0
1997-05-31,140600.0
1997-04-30,140500.0
1997-03-31,139900.0
1997-02-28,139400.0
1997-01-31,139000.0
1996-12-31,138700.0
1996-11-30,138600.0
1996-10-31,138500.0
1996-09-30,138300.0
1996-08-31,138300.0
1996-07-31,138100.0
1996-06-30,138100.0
1996-05-31,137200.0
1996-04-30,135900.0
