Date,Value
2015-09-30,477500.0
2015-08-31,471600.0
2015-07-31,465100.0
2015-06-30,465200.0
2015-05-31,458200.0
2015-04-30,450600.0
2015-03-31,447100.0
2015-02-28,446800.0
2015-01-31,441300.0
2014-12-31,438200.0
2014-11-30,434400.0
2014-10-31,430800.0
2014-09-30,427200.0
2014-08-31,423100.0
2014-07-31,420300.0
2014-06-30,421100.0
2014-05-31,423600.0
2014-04-30,422400.0
2014-03-31,417500.0
2014-02-28,413000.0
2014-01-31,410500.0
2013-12-31,407400.0
2013-11-30,404900.0
2013-10-31,402700.0
2013-09-30,400100.0
2013-08-31,395400.0
2013-07-31,387500.0
2013-06-30,377700.0
2013-05-31,368600.0
2013-04-30,359600.0
2013-03-31,351400.0
2013-02-28,345500.0
2013-01-31,341700.0
2012-12-31,340300.0
2012-11-30,340100.0
2012-10-31,340100.0
2012-09-30,340500.0
2012-08-31,340700.0
2012-07-31,338600.0
2012-06-30,334500.0
2012-05-31,329200.0
2012-04-30,326200.0
2012-03-31,325400.0
2012-02-29,325000.0
2012-01-31,324500.0
2011-12-31,325400.0
2011-11-30,326500.0
2011-10-31,327500.0
2011-09-30,328600.0
2011-08-31,330200.0
2011-07-31,332800.0
2011-06-30,336000.0
2011-05-31,340500.0
2011-04-30,345400.0
2011-03-31,349700.0
2011-02-28,352700.0
2011-01-31,355000.0
2010-12-31,356500.0
2010-11-30,357900.0
2010-10-31,359700.0
2010-09-30,361900.0
2010-08-31,364300.0
2010-07-31,367500.0
2010-06-30,371800.0
2010-05-31,376700.0
2010-04-30,381400.0
2010-03-31,386500.0
2010-02-28,389600.0
2010-01-31,390200.0
2009-12-31,389500.0
2009-11-30,388300.0
2009-10-31,386300.0
2009-09-30,386600.0
2009-08-31,389500.0
2009-07-31,392600.0
2009-06-30,395000.0
2009-05-31,397900.0
2009-04-30,402500.0
2009-03-31,407400.0
2009-02-28,411600.0
2009-01-31,414600.0
2008-12-31,416900.0
2008-11-30,420900.0
2008-10-31,425400.0
2008-09-30,426900.0
2008-08-31,427600.0
2008-07-31,430900.0
2008-06-30,434300.0
2008-05-31,437100.0
2008-04-30,440700.0
2008-03-31,444100.0
2008-02-29,447100.0
2008-01-31,451200.0
2007-12-31,456100.0
2007-11-30,460200.0
2007-10-31,463700.0
2007-09-30,466500.0
2007-08-31,469000.0
2007-07-31,471800.0
2007-06-30,474400.0
2007-05-31,474300.0
2007-04-30,471200.0
2007-03-31,466600.0
2007-02-28,463500.0
2007-01-31,462700.0
2006-12-31,462400.0
2006-11-30,459600.0
2006-10-31,455900.0
2006-09-30,453200.0
2006-08-31,449800.0
2006-07-31,444300.0
2006-06-30,437900.0
2006-05-31,430900.0
2006-04-30,422900.0
2006-03-31,416200.0
2006-02-28,411500.0
2006-01-31,406700.0
2005-12-31,402400.0
2005-11-30,399900.0
2005-10-31,397600.0
2005-09-30,393300.0
2005-08-31,386800.0
2005-07-31,379300.0
2005-06-30,372300.0
2005-05-31,367000.0
2005-04-30,363300.0
2005-03-31,360900.0
2005-02-28,358900.0
2005-01-31,355700.0
2004-12-31,350300.0
2004-11-30,343200.0
2004-10-31,337600.0
2004-09-30,334800.0
2004-08-31,333200.0
2004-07-31,331600.0
2004-06-30,330700.0
2004-05-31,329500.0
2004-04-30,328300.0
2004-03-31,326700.0
2004-02-29,323400.0
2004-01-31,319400.0
2003-12-31,316600.0
2003-11-30,314800.0
2003-10-31,313000.0
2003-09-30,310800.0
2003-08-31,309000.0
2003-07-31,308100.0
2003-06-30,307600.0
2003-05-31,307400.0
2003-04-30,306400.0
2003-03-31,304100.0
2003-02-28,301100.0
2003-01-31,299400.0
2002-12-31,298000.0
2002-11-30,296200.0
2002-10-31,293600.0
2002-09-30,291100.0
2002-08-31,290000.0
2002-07-31,289400.0
2002-06-30,288600.0
2002-05-31,287200.0
2002-04-30,285900.0
2002-03-31,285100.0
2002-02-28,285300.0
2002-01-31,285100.0
2001-12-31,285000.0
2001-11-30,285300.0
2001-10-31,285800.0
2001-09-30,285900.0
2001-08-31,284800.0
2001-07-31,283000.0
2001-06-30,281300.0
2001-05-31,280300.0
2001-04-30,278800.0
2001-03-31,277100.0
2001-02-28,275700.0
2001-01-31,274700.0
2000-12-31,273500.0
2000-11-30,273100.0
2000-10-31,272900.0
2000-09-30,272400.0
2000-08-31,271600.0
2000-07-31,270400.0
2000-06-30,269100.0
2000-05-31,267900.0
2000-04-30,267000.0
2000-03-31,266000.0
2000-02-29,264400.0
2000-01-31,262900.0
1999-12-31,262200.0
1999-11-30,261500.0
1999-10-31,259400.0
1999-09-30,257400.0
1999-08-31,256700.0
1999-07-31,255700.0
1999-06-30,252700.0
1999-05-31,249200.0
1999-04-30,246500.0
1999-03-31,244300.0
1999-02-28,242700.0
1999-01-31,241700.0
1998-12-31,240900.0
1998-11-30,240300.0
1998-10-31,239900.0
1998-09-30,238900.0
1998-08-31,237000.0
1998-07-31,234300.0
1998-06-30,231500.0
1998-05-31,229400.0
1998-04-30,227900.0
1998-03-31,226500.0
1998-02-28,225000.0
1998-01-31,222800.0
1997-12-31,219200.0
1997-11-30,215300.0
1997-10-31,212900.0
1997-09-30,211200.0
1997-08-31,208700.0
1997-07-31,207200.0
1997-06-30,207000.0
1997-05-31,206600.0
1997-04-30,205100.0
1997-03-31,203200.0
1997-02-28,201800.0
1997-01-31,201200.0
1996-12-31,200700.0
1996-11-30,199500.0
1996-10-31,198400.0
1996-09-30,197200.0
1996-08-31,196800.0
1996-07-31,197400.0
1996-06-30,198800.0
1996-05-31,200400.0
1996-04-30,202100.0
