Date,Value
2015-02-28,199900.0
2015-01-31,199900.0
2014-12-31,219000.0
2014-11-30,219900.0
2014-10-31,225000.0
2014-09-30,219900.0
2014-08-31,159900.0
2014-07-31,159900.0
2014-06-30,169900.0
2014-05-31,159000.0
2014-04-30,156500.0
2014-03-31,162500.0
2014-02-28,156500.0
2014-01-31,109900.0
2013-12-31,162500.0
2013-11-30,219000.0
2013-10-31,219000.0
2013-09-30,225000.0
2013-08-31,210000.0
2013-07-31,225000.0
2013-06-30,194000.0
2013-05-31,194000.0
2013-04-30,221000.0
2013-03-31,225000.0
2013-02-28,235000.0
2013-01-31,225000.0
2012-12-31,225000.0
2012-11-30,219000.0
2012-10-31,175000.0
2012-09-30,194900.0
2012-08-31,199000.0
2012-07-31,199999.0
2012-06-30,182500.0
2012-05-31,182500.0
2012-04-30,179900.0
2012-03-31,179900.0
2012-02-29,179900.0
2012-01-31,194900.0
2011-12-31,189900.0
2011-11-30,199900.0
2011-10-31,194900.0
2011-09-30,194900.0
2011-08-31,194900.0
2011-07-31,194900.0
2011-06-30,189950.0
2011-05-31,194900.0
2011-04-30,219950.0
2011-03-31,229000.0
2011-02-28,235000.0
2011-01-31,226000.0
2010-12-31,265000.0
2010-11-30,226000.0
2010-10-31,265000.0
2010-09-30,265000.0
2010-08-31,226000.0
2010-07-31,225000.0
2010-06-30,225000.0
2010-05-31,224000.0
2010-04-30,225000.0
2010-03-31,225000.0
2010-02-28,225000.0
2010-01-31,209000.0
2009-12-31,189000.0
2009-11-30,190000.0
2009-10-31,169000.0
2009-09-30,199000.0
2009-08-31,189000.0
2009-07-31,199000.0
2009-06-30,224000.0
2009-05-31,224000.0
2009-04-30,224000.0
2009-03-31,285000.0
2009-02-28,295000.0
2009-01-31,285000.0
2008-12-31,349000.0
2008-11-30,375000.0
2008-10-31,349000.0
