Date,Value
2014-12-31,154900.0
2014-11-30,154900.0
2014-10-31,154900.0
2014-09-30,122480.0
2014-06-30,122480.0
2014-05-31,120000.0
2014-04-30,99000.0
2014-03-31,119000.0
2014-02-28,119000.0
2014-01-31,119000.0
2013-12-31,119000.0
2013-11-30,118900.0
2013-10-31,119000.0
2013-09-30,140000.0
2013-08-31,140000.0
2013-07-31,139950.0
2013-06-30,139900.0
2013-05-31,120000.0
2013-04-30,169000.0
2013-03-31,169000.0
2013-02-28,139900.0
2013-01-31,139900.0
2012-12-31,139900.0
2012-11-30,139900.0
2012-10-31,139900.0
2012-09-30,167900.0
2012-08-31,163900.0
2012-07-31,158000.0
2012-06-30,159900.0
2012-05-31,167900.0
2012-04-30,157900.0
2012-03-31,139900.0
2012-02-29,143500.0
2012-01-31,149999.0
2011-12-31,163900.0
2011-11-30,163900.0
2011-10-31,163900.0
2011-09-30,159900.0
2011-08-31,163900.0
2011-07-31,169000.0
2011-06-30,169000.0
2011-05-31,169000.0
2011-04-30,163900.0
2011-03-31,163900.0
2011-02-28,163900.0
2011-01-31,159900.0
2010-12-31,159900.0
2010-11-30,145000.0
2010-10-31,159900.0
2010-09-30,140000.0
2010-08-31,133900.0
2010-07-31,140000.0
2010-06-30,140000.0
2010-05-31,163900.0
2010-04-30,145000.0
2010-03-31,163900.0
2010-02-28,145000.0
2010-01-31,129900.0
2009-12-31,123000.0
2009-11-30,140000.0
2009-10-31,144000.0
2009-09-30,142000.0
2009-08-31,124000.0
2009-06-30,144000.0
2009-05-31,169500.0
2009-04-30,180000.0
2009-03-31,180000.0
2008-11-30,185000.0
2008-10-31,185000.0
