Date,Value
2015-09-30,0.774
2015-08-31,0.748
2015-07-31,0.732
2015-06-30,0.736
2015-05-31,0.744
2015-04-30,0.752
2015-03-31,0.756
2015-02-28,0.756
2015-01-31,0.758
2014-12-31,0.766
2014-11-30,0.772
2014-10-31,0.764
2014-09-30,0.744
2014-08-31,0.718
2014-07-31,0.694
2014-06-30,0.694
2014-05-31,0.716
2014-04-30,0.736
2014-03-31,0.738
2014-02-28,0.716
2014-01-31,0.702
2013-12-31,0.688
2013-11-30,0.684
2013-10-31,0.686
2013-09-30,0.682
2013-08-31,0.68
2013-07-31,0.676
2013-06-30,0.684
2013-05-31,0.686
2013-04-30,0.692
2013-03-31,0.69
2013-02-28,0.69
2013-01-31,0.688
2012-12-31,0.688
2012-11-30,0.69
2012-10-31,0.688
2012-09-30,0.688
2012-08-31,0.704
2012-07-31,0.724
2012-06-30,0.742
2012-05-31,0.724
2012-04-30,0.708
2012-03-31,0.692
2012-02-29,0.694
2012-01-31,0.692
2011-12-31,0.694
2011-11-30,0.704
2011-10-31,0.718
2011-09-30,0.746
2011-08-31,0.756
2011-07-31,0.762
2011-06-30,0.738
2011-05-31,0.738
2011-04-30,0.736
2011-03-31,0.76
2011-02-28,0.786
2011-01-31,0.816
2010-12-31,0.826
2010-11-30,0.818
