Date,Value
2015-09-30,309307.6923
2015-07-31,294615.3846
2015-05-31,310883.6154
2013-07-31,234538.4615
2013-05-31,250000.0
2013-03-31,242500.0
2013-01-31,217500.0
2009-08-31,258000.0
2007-08-31,406660.55
2007-07-31,345260.2353
2007-06-30,361755.3846
2007-04-30,295000.0
2006-10-31,344100.15
2006-09-30,308400.35
2006-08-31,347750.5
2006-07-31,386300.0
2006-06-30,380735.0
2006-05-31,361915.0
2006-04-30,339941.1765
2006-03-31,330000.0
2005-10-31,319673.0
2005-09-30,365752.9412
2005-08-31,310307.6923
2005-06-30,272294.6
2005-05-31,263082.95
2005-04-30,262498.2353
2005-03-31,215533.9231
2005-01-31,227557.0588
2004-12-31,263461.5385
2004-10-31,252225.0
2004-09-30,240117.6471
2004-08-31,206692.3077
2004-06-30,236056.65
2004-05-31,205168.85
2004-04-30,200322.55
2004-02-29,248455.3077
2003-12-31,235541.5
2003-11-30,229532.25
2003-10-31,198560.25
2003-09-30,207252.1
2003-08-31,239227.4
2003-07-31,221441.2
2003-06-30,237429.8
2003-05-31,235034.0
2003-04-30,249564.7059
2003-03-31,221800.0
2002-12-31,217573.5294
2002-11-30,191250.0
2002-07-31,183556.6154
2002-05-31,184387.4615
2002-03-31,193788.95
2002-02-28,198248.9412
2002-01-31,232296.9231
2001-11-30,190958.4615
2001-09-30,169861.5385
2001-07-31,188781.3
2001-06-30,174674.0
2001-05-31,178600.0
2001-03-31,229000.0
1999-10-31,190530.0
1999-09-30,191547.0588
1999-08-31,219900.0
1998-12-31,193250.0
1998-10-31,187692.3077
1998-08-31,186800.0
1998-07-31,181500.0
1998-06-30,170000.0
1998-05-31,170000.0
1997-12-31,184996.5385
1997-10-31,173633.55
1997-09-30,167478.6
1997-08-31,179682.4118
1997-07-31,176671.5385
1997-05-31,140750.0
1997-04-30,127941.1765
1997-03-31,125000.0
1996-09-30,159230.7692
1996-07-31,144600.0
1996-05-31,136600.0
