Date,Value
2015-01-31,285000.0
2014-12-31,129000.0
2014-11-30,129000.0
2014-10-31,120000.0
2014-09-30,105000.0
2014-08-31,99500.0
2014-07-31,99500.0
2014-06-30,119500.0
2014-05-31,99500.0
2014-04-30,99500.0
2014-03-31,95000.0
2014-02-28,95000.0
2014-01-31,99500.0
2013-12-31,99500.0
2013-11-30,99500.0
2013-10-31,95000.0
2013-09-30,89500.0
2013-08-31,89000.0
2013-07-31,89000.0
2013-06-30,125000.0
2013-05-31,89500.0
2013-04-30,85000.0
2013-03-31,85000.0
2013-02-28,89500.0
2013-01-31,85000.0
2012-12-31,85000.0
2012-11-30,85000.0
2012-10-31,89500.0
2012-09-30,85000.0
2012-08-31,105000.0
2012-07-31,105000.0
2012-06-30,89500.0
2012-05-31,105000.0
2012-03-31,114000.0
2012-02-29,114000.0
2012-01-31,149500.0
2011-12-31,105000.0
2011-11-30,149500.0
2011-10-31,149500.0
2011-09-30,149500.0
2011-08-31,149500.0
2011-07-31,149900.0
2011-06-30,139500.0
2011-05-31,149500.0
2011-04-30,130000.0
2011-03-31,127500.0
2011-02-28,139500.0
2011-01-31,127500.0
2010-12-31,125000.0
2010-11-30,127500.0
2010-10-31,125000.0
2010-09-30,125000.0
2010-08-31,120000.0
2010-07-31,130000.0
2010-06-30,127500.0
2010-05-31,125000.0
2010-04-30,125000.0
2010-03-31,120000.0
2010-02-28,124900.0
2010-01-31,125000.0
2009-12-31,125500.0
2009-11-30,125500.0
2009-10-31,154900.0
2009-09-30,154900.0
2009-08-31,154900.0
2009-07-31,154900.0
2009-06-30,154900.0
2009-05-31,154900.0
2009-04-30,175000.0
2009-03-31,199000.0
2009-02-28,175000.0
2009-01-31,199000.0
2008-12-31,199000.0
2008-11-30,179000.0
2008-10-31,184777.0
