Date,Value
2015-06-30,1850.0
2015-05-31,1850.0
2015-04-30,1750.0
2015-03-31,1765.0
2015-02-28,1775.0
2015-01-31,1775.0
2014-12-31,1965.0
2014-11-30,1950.0
2014-10-31,1695.0
2014-09-30,1950.0
2014-08-31,1900.0
2014-07-31,1825.0
2014-06-30,2000.0
2014-05-31,1550.0
2014-04-30,3750.0
2014-03-31,1900.0
2014-02-28,1950.0
2014-01-31,1950.0
2013-12-31,1750.0
2013-11-30,1450.0
2013-10-31,1725.0
2013-09-30,1500.0
2013-08-31,1395.0
2013-07-31,1695.0
2013-06-30,1690.0
2013-05-31,1425.0
2013-04-30,1392.0
2013-03-31,1345.0
2013-02-28,1345.0
2013-01-31,1235.0
2012-12-31,1235.0
2012-11-30,1250.0
2012-10-31,1650.0
2012-09-30,2195.0
2012-08-31,1895.0
2012-07-31,1550.0
2012-06-30,1430.0
2012-05-31,1900.0
2012-04-30,1495.0
2012-03-31,1500.0
2012-02-29,1500.0
2012-01-31,1495.0
2011-12-31,1500.0
2011-11-30,1595.0
2011-10-31,1700.0
2011-09-30,1895.0
2011-08-31,1500.0
2011-07-31,1500.0
2011-06-30,1450.0
2011-05-31,1995.0
2011-04-30,2095.0
2011-03-31,1600.0
2011-02-28,1300.0
2011-01-31,1550.0
2010-12-31,1695.0
2010-11-30,3000.0
2010-10-31,3000.0
2010-09-30,2900.0
2010-08-31,3000.0
2010-07-31,2800.0
2010-06-30,2750.0
2010-05-31,2600.0
2010-04-30,2500.0
2010-03-31,2500.0
2010-02-28,2450.0
