Date,Value
2015-09-30,0.75
2015-08-31,0.756
2015-07-31,0.754
2015-06-30,0.752
2015-05-31,0.748
2015-04-30,0.744
2015-03-31,0.742
2015-02-28,0.736
2015-01-31,0.734
2014-12-31,0.732
2014-11-30,0.732
2014-10-31,0.732
2014-09-30,0.728
2014-08-31,0.724
2014-07-31,0.72
2014-06-30,0.714
2014-05-31,0.706
2014-04-30,0.702
2014-03-31,0.7
2014-02-28,0.698
2014-01-31,0.698
2013-12-31,0.698
2013-11-30,0.7
2013-10-31,0.704
2013-09-30,0.704
2013-08-31,0.702
2013-07-31,0.7
2013-06-30,0.7
2013-05-31,0.7
2013-04-30,0.698
2013-03-31,0.692
2013-02-28,0.682
2013-01-31,0.672
2012-12-31,0.668
2012-11-30,0.668
2012-10-31,0.672
2012-09-30,0.674
2012-08-31,0.672
2012-07-31,0.668
2012-06-30,0.664
2012-05-31,0.658
2012-04-30,0.654
2012-03-31,0.65
2012-02-29,0.648
2012-01-31,0.646
2011-12-31,0.64
2011-11-30,0.632
2011-10-31,0.626
2011-09-30,0.622
2011-08-31,0.622
2011-07-31,0.628
2011-06-30,0.636
2011-05-31,0.646
2011-04-30,0.654
2011-03-31,0.658
2011-02-28,0.67
2011-01-31,0.678
2010-12-31,0.686
2010-11-30,0.684
