Date,Value
2015-09-30,371700.0
2015-08-31,358200.0
2015-07-31,354700.0
2015-06-30,357200.0
2015-05-31,356700.0
2015-04-30,355300.0
2015-03-31,354500.0
2015-02-28,354000.0
2015-01-31,351100.0
2014-12-31,349900.0
2014-11-30,348400.0
2014-10-31,347000.0
2014-09-30,345900.0
2014-08-31,344600.0
2014-07-31,343100.0
2014-06-30,340900.0
2014-05-31,338100.0
2014-04-30,335600.0
2014-03-31,333000.0
2014-02-28,330800.0
2014-01-31,329000.0
2013-12-31,327000.0
2013-11-30,325000.0
2013-10-31,323200.0
2013-09-30,321000.0
2013-08-31,319000.0
2013-07-31,316000.0
2013-06-30,309900.0
2013-05-31,304200.0
2013-04-30,300900.0
2013-03-31,299100.0
2013-02-28,296500.0
2013-01-31,293700.0
2012-12-31,290300.0
2012-11-30,285900.0
2012-10-31,281700.0
2012-09-30,279300.0
2012-08-31,278200.0
2012-07-31,277900.0
2012-06-30,277700.0
2012-05-31,276300.0
2012-04-30,273900.0
2012-03-31,272500.0
2012-02-29,273300.0
2012-01-31,274500.0
2011-12-31,275400.0
2011-11-30,276000.0
2011-10-31,276100.0
2011-09-30,275600.0
2011-08-31,275100.0
2011-07-31,275000.0
2011-06-30,276100.0
2011-05-31,277800.0
2011-04-30,280200.0
2011-03-31,283700.0
2011-02-28,287300.0
2011-01-31,290300.0
2010-12-31,293800.0
2010-11-30,296700.0
2010-10-31,297600.0
2010-09-30,297900.0
2010-08-31,299400.0
2010-07-31,302000.0
2010-06-30,304700.0
2010-05-31,306700.0
2010-04-30,307800.0
2010-03-31,308400.0
2010-02-28,307600.0
2010-01-31,306400.0
2009-12-31,305100.0
2009-11-30,304900.0
2009-10-31,305300.0
2009-09-30,306400.0
2009-08-31,307000.0
2009-07-31,308000.0
2009-06-30,310000.0
2009-05-31,313100.0
2009-04-30,315800.0
2009-03-31,317500.0
2009-02-28,319300.0
2009-01-31,320500.0
2008-12-31,322100.0
2008-11-30,326100.0
2008-10-31,331300.0
2008-09-30,335000.0
2008-08-31,337000.0
2008-07-31,338600.0
2008-06-30,341500.0
2008-05-31,345500.0
2008-04-30,349600.0
2008-03-31,353200.0
2008-02-29,356700.0
2008-01-31,359600.0
2007-12-31,362300.0
2007-11-30,364500.0
2007-10-31,367400.0
2007-09-30,370800.0
2007-08-31,374300.0
2007-07-31,375900.0
2007-06-30,376000.0
2007-05-31,376200.0
2007-04-30,376500.0
2007-03-31,375900.0
2007-02-28,375800.0
2007-01-31,376800.0
2006-12-31,377500.0
2006-11-30,377200.0
2006-10-31,377100.0
2006-09-30,376900.0
2006-08-31,376300.0
2006-07-31,375900.0
2006-06-30,375700.0
2006-05-31,373600.0
2006-04-30,371200.0
2006-03-31,368300.0
2006-02-28,364500.0
2006-01-31,360100.0
2005-12-31,356600.0
2005-11-30,353500.0
2005-10-31,349200.0
2005-09-30,343600.0
2005-08-31,337800.0
2005-07-31,332200.0
2005-06-30,326300.0
2005-05-31,320200.0
2005-04-30,313900.0
2005-03-31,308000.0
2005-02-28,303200.0
2005-01-31,299300.0
2004-12-31,295200.0
2004-11-30,290700.0
2004-10-31,286200.0
2004-09-30,282400.0
2004-08-31,278700.0
2004-07-31,275400.0
2004-06-30,272300.0
2004-05-31,269500.0
2004-04-30,267000.0
2004-03-31,264800.0
2004-02-29,262600.0
2004-01-31,261300.0
2003-12-31,260200.0
2003-11-30,258400.0
2003-10-31,256400.0
2003-09-30,254800.0
2003-08-31,253200.0
2003-07-31,250700.0
2003-06-30,248000.0
2003-05-31,245700.0
2003-04-30,243900.0
2003-03-31,242800.0
2003-02-28,242000.0
2003-01-31,240500.0
2002-12-31,237900.0
2002-11-30,235400.0
2002-10-31,233200.0
2002-09-30,231900.0
2002-08-31,231500.0
2002-07-31,231100.0
2002-06-30,230100.0
2002-05-31,229700.0
2002-04-30,230400.0
2002-03-31,230500.0
2002-02-28,229800.0
2002-01-31,228500.0
2001-12-31,228000.0
2001-11-30,227900.0
2001-10-31,227600.0
2001-09-30,227000.0
2001-08-31,226100.0
2001-07-31,225500.0
2001-06-30,226000.0
2001-05-31,226400.0
2001-04-30,225800.0
2001-03-31,225100.0
2001-02-28,224700.0
2001-01-31,224300.0
2000-12-31,223800.0
2000-11-30,223700.0
2000-10-31,223800.0
2000-09-30,223600.0
2000-08-31,223600.0
2000-07-31,224200.0
2000-06-30,224300.0
2000-05-31,223200.0
2000-04-30,222000.0
2000-03-31,221300.0
2000-02-29,220900.0
2000-01-31,220600.0
1999-12-31,220500.0
1999-11-30,220900.0
1999-10-31,221900.0
1999-09-30,222900.0
1999-08-31,224000.0
1999-07-31,225000.0
1999-06-30,225900.0
1999-05-31,227100.0
1999-04-30,227900.0
1999-03-31,227900.0
1999-02-28,227900.0
1999-01-31,228100.0
1998-12-31,228200.0
1998-11-30,227700.0
1998-10-31,226800.0
1998-09-30,226000.0
1998-08-31,225400.0
1998-07-31,224500.0
1998-06-30,223300.0
1998-05-31,221900.0
1998-04-30,221100.0
1998-03-31,220900.0
1998-02-28,221100.0
1998-01-31,221200.0
1997-12-31,220500.0
1997-11-30,218500.0
1997-10-31,216100.0
1997-09-30,213800.0
1997-08-31,211600.0
1997-07-31,209400.0
1997-06-30,207400.0
1997-05-31,205700.0
1997-04-30,204800.0
1997-03-31,204200.0
1997-02-28,202800.0
1997-01-31,200600.0
1996-12-31,199500.0
1996-11-30,199400.0
1996-10-31,199800.0
1996-09-30,200600.0
1996-08-31,201500.0
1996-07-31,202600.0
1996-06-30,204200.0
1996-05-31,206500.0
1996-04-30,207200.0
