Date,Value
2015-09-30,0.934
2015-08-31,0.958
2015-07-31,0.94
2015-06-30,0.932
2015-05-31,0.936
2015-04-30,0.942
2015-03-31,0.942
2015-02-28,0.932
2015-01-31,0.926
2014-12-31,0.922
2014-11-30,0.918
2014-10-31,0.906
2014-09-30,0.892
2014-08-31,0.88
2014-07-31,0.87
2014-06-30,0.86
2014-05-31,0.862
2014-04-30,0.87
2014-03-31,0.882
2014-02-28,0.886
2014-01-31,0.88
2013-12-31,0.88
2013-11-30,0.876
2013-10-31,0.874
2013-09-30,0.874
2013-08-31,0.872
2013-07-31,0.868
2013-06-30,0.864
2013-05-31,0.862
2013-04-30,0.856
2013-03-31,0.848
2013-02-28,0.836
2013-01-31,0.83
2012-12-31,0.83
2012-11-30,0.834
2012-10-31,0.836
2012-09-30,0.842
2012-08-31,0.842
2012-07-31,0.846
2012-06-30,0.846
2012-05-31,0.822
2012-04-30,0.802
2012-03-31,0.782
2012-02-29,0.78
2012-01-31,0.766
2011-12-31,0.762
2011-11-30,0.76
2011-10-31,0.758
2011-09-30,0.756
2011-08-31,0.758
2011-07-31,0.76
2011-06-30,0.764
2011-05-31,0.78
2011-04-30,0.79
2011-03-31,0.8
2011-02-28,0.802
2011-01-31,0.806
2010-12-31,0.806
2010-11-30,0.802
