Date,Value
2015-09-30,641050.0
2015-08-31,684450.0
2015-07-31,622742.5
2015-06-30,543732.5
2015-05-31,538375.0
2015-04-30,532225.0
2015-03-31,477500.0
2015-02-28,562692.3077
2014-12-31,544411.7647
2014-11-30,554384.6154
2014-09-30,533400.0
2014-08-31,550800.0
2014-07-31,542750.0
2014-06-30,597250.0
2014-05-31,550588.2353
2014-04-30,530000.0
2013-12-31,423204.9231
2013-10-31,427379.8
2013-09-30,476669.0
2013-08-31,502882.3529
2013-07-31,445000.0
2013-03-31,785000.0
2012-11-30,529461.5385
2012-09-30,493625.0
2012-08-31,502900.0
2012-07-31,458941.1765
2012-06-30,436000.0
2011-09-30,443017.5
2011-08-31,507507.5
2011-07-31,561970.5882
2011-06-30,467000.0
2011-01-31,568035.2941
2010-12-31,523800.0
2010-09-30,618200.0
2010-06-30,419100.0
2010-05-31,503700.0
2010-04-30,599470.5882
2010-03-31,563000.0
2009-10-31,405000.0
2009-07-31,627058.8235
2009-06-30,603461.5385
2009-04-30,515000.0
2008-10-31,425538.4615
2008-08-31,457200.0
2008-07-31,476470.5882
2008-06-30,550961.5385
2008-04-30,658529.4118
2008-03-31,760000.0
2007-11-30,548307.6923
2007-09-30,660800.0
2007-08-31,700000.0
2007-07-31,697992.5
2007-06-30,667482.5
2007-05-31,572725.0
2007-04-30,535220.0
2007-02-28,753775.0
2007-01-31,708500.0
2006-12-31,631492.5
2006-11-30,587282.5
2006-10-31,584275.0
2006-09-30,600400.0
2006-08-31,542250.0
2006-06-30,382407.5
2006-05-31,341342.5
2006-04-30,314210.0
2006-03-31,291680.0
2006-02-28,325535.0
2006-01-31,362665.0
2005-12-31,334750.0
2005-11-30,395550.0
2005-10-31,376950.0
2005-09-30,447985.0
2005-08-31,499035.0
2005-07-31,494780.0
2005-06-30,532392.5
2005-05-31,508975.0
2005-04-30,490457.5
2005-03-31,471425.0
2005-02-28,494550.0
2005-01-31,490092.5
2004-12-31,569507.5
2004-11-30,485925.0
2004-10-31,485975.0
2004-09-30,472950.0
2004-08-31,412942.5
2004-07-31,403282.5
2004-06-30,428889.65
2004-05-31,370520.85
2004-04-30,350420.5
2004-02-29,449225.0
2004-01-31,490517.5
2003-12-31,420675.0
2003-11-30,451807.5
2003-10-31,446675.0
2003-09-30,416200.0
2003-08-31,398000.0
2003-07-31,425050.0
2003-06-30,414450.0
2003-05-31,416550.0
2003-04-30,385250.0
2003-03-31,375294.1176
2003-02-28,391153.8462
2002-12-31,390384.6154
2002-10-31,397975.0
2002-09-30,407892.5
2002-08-31,375610.0
2002-07-31,380572.5
2002-06-30,387725.0
2002-05-31,386250.0
2002-04-30,347000.0
2002-03-31,349850.0
2002-02-28,338411.7647
2002-01-31,302296.1538
2001-11-30,386325.0
2001-10-31,376650.0
2001-09-30,337137.5
2001-08-31,276737.5
2001-07-31,299230.0
2001-06-30,347487.5
2001-05-31,369707.5
2001-04-30,311600.0
2001-02-28,358807.6923
2000-12-31,337550.0
2000-11-30,309200.0
2000-10-31,333772.5
2000-09-30,334852.5
2000-08-31,353325.0
2000-07-31,322375.0
2000-06-30,304725.0
2000-05-31,295385.0
2000-04-30,340465.0
2000-03-31,366411.7647
2000-02-29,373153.8462
1999-12-31,314425.0
1999-11-30,287025.0
1999-10-31,231750.0
1999-09-30,232550.0
1999-08-31,249942.5
1999-07-31,262482.5
1999-06-30,285767.5
1999-05-31,339107.5
1999-04-30,300800.0
1999-03-31,267000.0
1999-02-28,295592.5
1999-01-31,257582.5
1998-12-31,262675.0
1998-11-30,236600.0
1998-10-31,261200.0
1998-09-30,240058.8235
1998-08-31,238065.3846
1998-06-30,263807.5
1998-05-31,277475.0
1998-04-30,276850.0
1998-03-31,267050.0
1998-02-28,245771.75
1998-01-31,261975.75
1997-12-31,231897.5
1997-11-30,202350.0
1997-10-31,213900.0
1997-09-30,244275.0
1997-08-31,229825.0
1997-07-31,246892.5
1997-06-30,233182.5
1997-05-31,235050.0
1997-04-30,219400.0
1997-03-31,229567.5
1997-02-28,218508.8235
1997-01-31,240807.6923
1996-11-30,203032.2
1996-10-31,227959.3
1996-09-30,221656.5
1996-08-31,194425.0
1996-07-31,186867.5
1996-06-30,200507.5
1996-05-31,213217.5
1996-04-30,183267.5
