Date,Value
2015-09-30,0.942
2015-08-31,0.938
2015-07-31,0.932
2015-06-30,0.928
2015-05-31,0.922
2015-04-30,0.916
2015-03-31,0.918
2015-02-28,0.922
2015-01-31,0.92
2014-12-31,0.91
2014-11-30,0.892
2014-10-31,0.872
2014-09-30,0.86
2014-08-31,0.85
2014-07-31,0.828
2014-06-30,0.804
2014-05-31,0.788
2014-04-30,0.782
2014-03-31,0.798
2014-02-28,0.816
2014-01-31,0.832
2013-12-31,0.838
2013-11-30,0.846
2013-10-31,0.832
2013-09-30,0.826
2013-08-31,0.82
2013-07-31,0.82
2013-06-30,0.824
2013-05-31,0.824
2013-04-30,0.822
2013-03-31,0.824
2013-02-28,0.838
2013-01-31,0.836
2012-12-31,0.83
2012-11-30,0.82
2012-10-31,0.808
2012-09-30,0.81
2012-08-31,0.804
2012-07-31,0.794
2012-06-30,0.792
2012-05-31,0.79
2012-04-30,0.788
2012-03-31,0.788
2012-02-29,0.802
2012-01-31,0.808
2011-12-31,0.8
2011-11-30,0.786
2011-10-31,0.76
2011-09-30,0.76
2011-08-31,0.764
2011-07-31,0.768
2011-06-30,0.762
2011-05-31,0.75
2011-04-30,0.732
2011-03-31,0.682
2011-02-28,0.604
2011-01-31,0.526
2010-12-31,0.508
2010-11-30,0.508
