Date,Value
2015-02-28,950.0
2014-01-31,2400.0
2013-06-30,3050.0
2013-05-31,2495.0
2013-04-30,2395.0
2013-03-31,2500.0
2013-02-28,870.0
2013-01-31,870.0
2012-12-31,870.0
2012-11-30,870.0
2012-10-31,870.0
2012-09-30,950.0
2012-08-31,2900.0
2012-07-31,950.0
2012-06-30,2400.0
2012-05-31,2200.0
2012-04-30,2600.0
2012-03-31,850.0
2012-01-31,2900.0
2011-12-31,2200.0
2011-11-30,2750.0
2011-09-30,2187.0
2011-08-31,2150.0
2011-06-30,2900.0
