Date,Value
2015-09-30,192700.0
2015-08-31,192800.0
2015-07-31,187200.0
2015-06-30,189100.0
2015-05-31,188500.0
2015-04-30,189500.0
2015-03-31,189700.0
2015-02-28,188800.0
2015-01-31,188000.0
2014-12-31,188400.0
2014-11-30,188600.0
2014-10-31,188800.0
2014-09-30,188400.0
2014-08-31,187400.0
2014-07-31,187000.0
2014-06-30,187300.0
2014-05-31,187700.0
2014-04-30,188900.0
2014-03-31,190200.0
2014-02-28,191100.0
2014-01-31,191100.0
2013-12-31,190400.0
2013-11-30,189500.0
2013-10-31,188900.0
2013-09-30,187600.0
2013-08-31,185800.0
2013-07-31,183900.0
2013-06-30,181400.0
2013-05-31,179000.0
2013-04-30,177900.0
2013-03-31,177800.0
2013-02-28,177000.0
2013-01-31,175600.0
2012-12-31,174300.0
2012-11-30,173300.0
2012-10-31,172900.0
2012-09-30,172700.0
2012-08-31,172600.0
2012-07-31,172600.0
2012-06-30,172600.0
2012-05-31,173000.0
2012-04-30,173700.0
2012-03-31,173700.0
2012-02-29,172900.0
2012-01-31,172300.0
2011-12-31,172600.0
2011-11-30,173000.0
2011-10-31,173200.0
2011-09-30,173300.0
2011-08-31,173900.0
2011-07-31,175200.0
2011-06-30,176500.0
2011-05-31,177800.0
2011-04-30,179000.0
2011-03-31,179800.0
2011-02-28,179800.0
2011-01-31,179600.0
2010-12-31,179800.0
2010-11-30,181000.0
2010-10-31,182500.0
2010-09-30,183100.0
2010-08-31,182600.0
2010-07-31,182200.0
2010-06-30,182900.0
2010-05-31,184300.0
2010-04-30,185100.0
2010-03-31,185500.0
2010-02-28,185300.0
2010-01-31,184600.0
2009-12-31,183800.0
2009-11-30,183300.0
2009-10-31,182800.0
2009-09-30,182500.0
2009-08-31,182300.0
2009-07-31,181800.0
2009-06-30,180800.0
2009-05-31,180000.0
2009-04-30,179600.0
2009-03-31,180200.0
2009-02-28,181600.0
2009-01-31,184700.0
2008-12-31,187700.0
2008-11-30,188500.0
2008-10-31,188300.0
2008-09-30,189100.0
2008-08-31,189600.0
2008-07-31,189400.0
2008-06-30,190200.0
2008-05-31,191600.0
2008-04-30,191600.0
2008-03-31,190000.0
2008-02-29,189300.0
2008-01-31,189300.0
2007-12-31,189000.0
2007-11-30,189800.0
2007-10-31,191100.0
2007-09-30,191400.0
2007-08-31,192300.0
2007-07-31,194300.0
2007-06-30,195700.0
2007-05-31,194400.0
2007-04-30,192100.0
2007-03-31,190800.0
2007-02-28,191000.0
2007-01-31,191500.0
2006-12-31,192400.0
2006-11-30,190500.0
2006-10-31,187900.0
2006-09-30,188200.0
2006-08-31,188200.0
2006-07-31,186500.0
2006-06-30,186500.0
2006-05-31,187500.0
2006-04-30,187600.0
2006-03-31,187700.0
2006-02-28,187100.0
2006-01-31,184100.0
2005-12-31,180200.0
2005-11-30,178400.0
2005-10-31,178100.0
2005-09-30,177100.0
2005-08-31,175800.0
2005-07-31,172000.0
2005-06-30,166200.0
2005-05-31,163600.0
2005-04-30,164000.0
2005-03-31,163700.0
2005-02-28,163400.0
2005-01-31,162800.0
2004-12-31,161900.0
2004-11-30,160300.0
2004-10-31,158000.0
2004-09-30,155100.0
2004-08-31,153300.0
2004-07-31,152800.0
2004-06-30,153400.0
2004-05-31,153800.0
2004-04-30,153200.0
2004-03-31,151800.0
2004-02-29,149600.0
2004-01-31,147900.0
2003-12-31,147000.0
2003-11-30,146300.0
2003-10-31,144800.0
2003-09-30,142100.0
2003-08-31,139700.0
2003-07-31,139600.0
2003-06-30,139100.0
2003-05-31,135900.0
2003-04-30,132800.0
2003-03-31,132000.0
2003-02-28,130700.0
2003-01-31,129000.0
2002-12-31,127000.0
2002-11-30,126000.0
2002-10-31,126500.0
2002-09-30,128500.0
2002-08-31,129700.0
2002-07-31,130100.0
2002-06-30,129500.0
2002-05-31,127200.0
2002-04-30,124200.0
2002-03-31,122000.0
2002-02-28,121300.0
2002-01-31,119800.0
2001-12-31,118900.0
2001-11-30,120600.0
2001-10-31,123200.0
2001-09-30,122800.0
2001-08-31,121300.0
2001-07-31,120800.0
2001-06-30,120900.0
2001-05-31,121700.0
2001-04-30,122500.0
2001-03-31,122800.0
2001-02-28,123000.0
2001-01-31,124700.0
2000-12-31,125900.0
2000-11-30,123600.0
2000-10-31,119000.0
2000-09-30,116400.0
2000-08-31,115700.0
2000-07-31,115200.0
2000-06-30,114400.0
2000-05-31,114400.0
2000-04-30,113900.0
2000-03-31,111900.0
2000-02-29,110300.0
2000-01-31,110300.0
1999-12-31,111000.0
1999-11-30,111500.0
1999-10-31,112300.0
1999-09-30,114000.0
1999-08-31,116200.0
1999-07-31,116700.0
1999-06-30,116000.0
1999-05-31,115300.0
1999-04-30,115000.0
1999-03-31,114400.0
1999-02-28,113700.0
1999-01-31,112900.0
1998-12-31,112200.0
1998-11-30,112000.0
1998-10-31,112100.0
1998-09-30,111500.0
1998-08-31,110400.0
1998-07-31,110200.0
1998-06-30,111400.0
1998-05-31,112800.0
1998-04-30,113600.0
1998-03-31,114400.0
1998-02-28,116100.0
1998-01-31,117600.0
1997-12-31,117400.0
1997-11-30,116500.0
1997-10-31,116300.0
1997-09-30,116300.0
1997-08-31,115100.0
1997-07-31,112900.0
1997-06-30,111700.0
1997-05-31,111900.0
1997-04-30,113800.0
1997-03-31,114700.0
1997-02-28,112800.0
1997-01-31,110400.0
1996-12-31,109700.0
1996-11-30,108700.0
1996-10-31,106700.0
1996-09-30,105100.0
1996-08-31,103800.0
1996-07-31,102600.0
1996-06-30,101100.0
1996-05-31,99900.0
1996-04-30,99200.0
