Date,Value
2014-12-31,1400.0
2014-11-30,1325.0
2014-10-31,1275.0
2014-09-30,1300.0
2014-08-31,1450.0
2014-06-30,1500.0
2014-05-31,1345.0
2014-04-30,950.0
2014-03-31,1250.0
2014-01-31,1450.0
2013-07-31,1650.0
2013-06-30,1500.0
2013-01-31,895.0
2012-12-31,1195.0
2012-11-30,1225.0
2012-10-31,1300.0
2012-09-30,1180.0
2012-05-31,1225.0
2011-10-31,1250.0
2011-09-30,1350.0
2011-03-31,1145.0
2011-02-28,1145.0
2011-01-31,955.0
