Date,Value
2014-12-31,110800.0
2014-11-30,110500.0
2014-10-31,110500.0
2014-09-30,110400.0
2014-08-31,110900.0
2014-07-31,113000.0
2014-06-30,114600.0
2014-05-31,114700.0
2014-04-30,114600.0
2014-03-31,114700.0
2014-02-28,114600.0
2014-01-31,114500.0
2013-12-31,114700.0
2013-11-30,114600.0
2013-10-31,114000.0
2013-09-30,113600.0
2013-08-31,113200.0
2013-07-31,112400.0
2013-06-30,111400.0
2013-05-31,110200.0
2013-04-30,109600.0
2013-03-31,109700.0
2013-02-28,109900.0
2013-01-31,110800.0
2012-12-31,112300.0
2012-11-30,112800.0
2012-10-31,111800.0
2012-09-30,110900.0
2012-08-31,110300.0
2012-07-31,109800.0
2012-06-30,109500.0
2012-05-31,110000.0
2012-04-30,110700.0
2012-03-31,111600.0
2012-02-29,112300.0
2012-01-31,112900.0
2011-12-31,113300.0
2011-11-30,113900.0
2011-10-31,115500.0
2011-09-30,117300.0
2011-08-31,117700.0
2011-07-31,117600.0
2011-06-30,118600.0
2011-05-31,120400.0
2011-04-30,121100.0
2011-03-31,121400.0
2011-02-28,121600.0
2011-01-31,121800.0
2010-12-31,122400.0
2010-11-30,123300.0
2010-10-31,123500.0
2010-09-30,123900.0
2010-08-31,124900.0
2010-07-31,124500.0
2010-06-30,122100.0
2010-05-31,119600.0
2010-04-30,119000.0
2010-03-31,119100.0
2010-02-28,118900.0
2010-01-31,118700.0
2009-12-31,118400.0
2009-11-30,117700.0
2009-10-31,117200.0
2009-09-30,117000.0
2009-08-31,116000.0
2009-07-31,114900.0
2009-06-30,114400.0
2009-05-31,114200.0
2009-04-30,113600.0
2009-03-31,113000.0
2009-02-28,111900.0
2009-01-31,110300.0
2008-12-31,109000.0
2008-11-30,109000.0
2008-10-31,109100.0
2008-09-30,108500.0
2008-08-31,108000.0
2008-07-31,108900.0
2008-06-30,109800.0
2008-05-31,109500.0
2008-04-30,108400.0
2008-03-31,107000.0
2008-02-29,105800.0
2008-01-31,104500.0
2007-12-31,103500.0
2007-11-30,102800.0
2007-10-31,103400.0
2007-09-30,103900.0
2007-08-31,103400.0
2007-07-31,102700.0
2007-06-30,101900.0
2007-05-31,101000.0
2007-04-30,101000.0
2007-03-31,102400.0
2007-02-28,103500.0
2007-01-31,103300.0
2006-12-31,102800.0
2006-11-30,102900.0
2006-10-31,103800.0
2006-09-30,106600.0
2006-08-31,110000.0
2006-07-31,109400.0
2006-06-30,109000.0
2006-05-31,112300.0
2006-04-30,115000.0
2006-03-31,113600.0
2006-02-28,112200.0
2006-01-31,112200.0
2005-12-31,112200.0
2005-11-30,110600.0
2005-10-31,107200.0
2005-09-30,102100.0
2005-08-31,98400.0
2005-07-31,98200.0
2005-06-30,99100.0
2005-05-31,97000.0
2005-04-30,93800.0
2005-03-31,90900.0
2005-02-28,89200.0
2005-01-31,87900.0
2004-12-31,86400.0
2004-11-30,84400.0
2004-10-31,82600.0
2004-09-30,81400.0
2004-08-31,79900.0
2004-07-31,78800.0
2004-06-30,78700.0
2004-05-31,79600.0
2004-04-30,80800.0
2004-03-31,81800.0
2004-02-29,83100.0
2004-01-31,83700.0
2003-12-31,84500.0
2003-11-30,85500.0
2003-10-31,85300.0
2003-09-30,84900.0
2003-08-31,86200.0
2003-07-31,87400.0
2003-06-30,85900.0
2003-05-31,83300.0
2003-04-30,81600.0
2003-03-31,81600.0
2003-02-28,81800.0
2003-01-31,82200.0
2002-12-31,82200.0
2002-11-30,82300.0
2002-10-31,82500.0
2002-09-30,82200.0
2002-08-31,81100.0
2002-07-31,80500.0
2002-06-30,80700.0
2002-05-31,81100.0
2002-04-30,81000.0
2002-03-31,80600.0
2002-02-28,80200.0
2002-01-31,79700.0
2001-12-31,79200.0
2001-11-30,79000.0
2001-10-31,79200.0
2001-09-30,79400.0
2001-08-31,79100.0
2001-07-31,77200.0
2001-06-30,74100.0
2001-05-31,71900.0
2001-04-30,71300.0
2001-03-31,71100.0
2001-02-28,70500.0
2001-01-31,69800.0
2000-12-31,69300.0
2000-11-30,69000.0
2000-10-31,69000.0
2000-09-30,69800.0
2000-08-31,69900.0
2000-07-31,70500.0
2000-06-30,71100.0
2000-05-31,71600.0
2000-04-30,72300.0
2000-03-31,73900.0
2000-02-29,74500.0
2000-01-31,74600.0
1999-12-31,74800.0
1999-11-30,75900.0
1999-10-31,76900.0
1999-09-30,77300.0
1999-08-31,77600.0
1999-07-31,77700.0
1999-06-30,77700.0
1999-05-31,77900.0
1999-04-30,78400.0
1999-03-31,78400.0
1999-02-28,78000.0
1999-01-31,77800.0
1998-12-31,77500.0
1998-11-30,76800.0
1998-10-31,76100.0
1998-09-30,76200.0
1998-08-31,76100.0
1998-07-31,75600.0
1998-06-30,76100.0
1998-05-31,77700.0
1998-04-30,78600.0
1998-03-31,78400.0
1998-02-28,77500.0
1998-01-31,76800.0
1997-12-31,76700.0
1997-11-30,76900.0
1997-10-31,76800.0
1997-09-30,76300.0
1997-08-31,74600.0
1997-07-31,72600.0
1997-06-30,72100.0
1997-05-31,73000.0
1997-04-30,74000.0
1997-03-31,74800.0
1997-02-28,74600.0
