Date,Value
2013-05-31,670.0
2013-01-31,520.0
2012-12-31,535.0
2012-11-30,600.0
2012-09-30,610.0
2012-08-31,515.0
2012-05-31,520.0
2012-04-30,540.0
2012-03-31,540.0
2012-02-29,520.0
2012-01-31,520.0
2011-12-31,520.0
2011-11-30,570.0
2011-10-31,530.0
