Date,Value
2015-09-30,1.002
2015-08-31,1.038
2015-07-31,1.01
2015-06-30,1.0
2015-05-31,0.994
2015-04-30,0.99
2015-03-31,0.976
2015-02-28,0.966
2015-01-31,0.96
2014-12-31,0.964
2014-11-30,0.966
2014-10-31,0.962
2014-09-30,0.956
2014-08-31,0.948
2014-07-31,0.936
2014-06-30,0.918
2014-05-31,0.908
2014-04-30,0.898
2014-03-31,0.898
2014-02-28,0.89
2014-01-31,0.89
2013-12-31,0.882
2013-11-30,0.876
2013-10-31,0.874
2013-09-30,0.872
2013-08-31,0.87
2013-07-31,0.868
2013-06-30,0.864
2013-05-31,0.854
2013-04-30,0.846
2013-03-31,0.844
2013-02-28,0.84
2013-01-31,0.83
2012-12-31,0.818
2012-11-30,0.806
2012-10-31,0.798
2012-09-30,0.79
2012-08-31,0.784
2012-07-31,0.782
2012-06-30,0.786
2012-05-31,0.792
2012-04-30,0.796
2012-03-31,0.642
2012-02-29,0.644
2012-01-31,0.642
2011-12-31,0.638
2011-11-30,0.638
2011-10-31,0.636
2011-09-30,0.636
2011-08-31,0.634
2011-07-31,0.634
2011-06-30,0.636
2011-05-31,0.638
2011-04-30,0.638
2011-03-31,0.634
2011-02-28,0.634
2011-01-31,0.632
2010-12-31,0.63
2010-11-30,0.626
