Date,Value
2015-09-30,298461.5385
2015-08-31,283000.0
2015-07-31,279500.0
2015-06-30,293500.0
2015-05-31,286500.0
2015-04-30,278867.5
2015-03-31,256597.0588
2015-02-28,315307.6923
2014-12-31,280230.7692
2014-10-31,271500.0
2014-09-30,266500.0
2014-08-31,261367.5
2014-07-31,228607.5
2014-06-30,240500.0
2014-05-31,226147.0588
2014-04-30,213500.0
2014-01-31,219705.8824
2013-12-31,243450.0
2013-10-31,203807.6923
2013-08-31,209215.0
2013-07-31,219950.0
2013-06-30,226115.3846
2013-04-30,220000.0
2012-12-31,183400.0
2012-08-31,172941.1765
2012-07-31,165000.0
2011-08-31,160000.0
2011-02-28,210000.0
2010-08-31,220000.0
2010-05-31,238450.0
2010-03-31,199950.0
2009-10-31,230250.0
2009-09-30,246175.0
2009-08-31,245088.2353
2009-07-31,259500.0
2008-09-30,261275.0
2008-08-31,282705.8824
2008-07-31,280000.0
2008-05-31,275642.3077
2008-03-31,295730.7692
2008-01-31,293475.0
2007-12-31,283457.5
2007-11-30,278725.0
2007-10-31,281000.0
2007-09-30,292250.0
2007-08-31,296250.0
2007-07-31,313250.0
2007-06-30,319475.0
2007-05-31,305267.5
2007-04-30,287732.5
2007-03-31,303175.0
2007-02-28,308150.0
2007-01-31,290750.0
2006-12-31,277842.5
2006-11-30,286832.5
2006-10-31,285667.5
2006-09-30,274482.5
2006-08-31,268725.0
2006-07-31,277150.0
2006-06-30,293600.0
2006-05-31,293750.0
2006-04-30,268750.0
2006-03-31,265200.0
2006-02-28,260800.0
2006-01-31,270992.5
2005-12-31,266982.5
2005-11-30,249225.0
2005-10-31,240350.0
2005-09-30,244050.0
2005-08-31,252350.0
2005-07-31,246750.0
2005-06-30,237507.5
2005-05-31,228017.5
2005-04-30,231725.0
2005-03-31,236100.0
2005-02-28,228335.0
2005-01-31,230640.0
2004-12-31,220575.0
2004-11-30,217150.0
2004-10-31,216650.0
2004-09-30,222992.5
2004-08-31,205807.5
2004-07-31,204150.0
2004-06-30,208750.0
2004-05-31,210750.0
2004-04-30,199850.0
2004-03-31,193328.55
2004-02-29,187849.95
2004-01-31,210828.5
2003-12-31,196445.0
2003-11-30,180205.0
2003-10-31,183900.0
2003-09-30,191225.0
2003-08-31,192325.0
2003-07-31,188442.5
2003-06-30,186432.5
2003-05-31,175275.0
2003-04-30,180142.5
2003-03-31,185607.5
2003-02-28,192700.0
2003-01-31,173550.0
2002-12-31,174450.0
2002-11-30,184300.0
2002-10-31,188400.0
2002-09-30,178800.0
2002-08-31,182650.0
2002-07-31,177225.0
2002-06-30,177875.0
2002-05-31,185200.0
2002-04-30,183950.0
2002-03-31,176667.5
2002-02-28,174657.5
2002-01-31,181395.5
2001-12-31,176864.5
2001-11-30,165935.0
2001-10-31,170625.0
2001-09-30,178375.0
2001-08-31,175875.0
2001-07-31,173375.0
2001-06-30,169750.0
2001-05-31,164812.5
2001-04-30,163312.5
2001-03-31,167825.0
2001-02-28,168800.0
2001-01-31,153275.0
2000-12-31,151775.0
2000-11-30,162200.0
2000-10-31,159250.0
2000-09-30,165250.0
2000-08-31,164415.5
2000-07-31,160512.0
2000-06-30,163817.5
2000-05-31,158325.0
2000-04-30,151650.0
2000-03-31,143442.5
2000-02-29,133470.0
2000-01-31,133662.5
1999-12-31,139655.0
1999-11-30,142545.0
1999-10-31,150275.0
1999-09-30,149555.0
1999-08-31,137795.0
1999-07-31,138150.0
1999-06-30,144000.0
1999-05-31,140850.0
1999-04-30,134192.5
1999-03-31,136732.5
1999-02-28,127775.0
1999-01-31,131390.0
1998-12-31,133210.0
1998-11-30,133175.0
1998-10-31,132267.5
1998-09-30,130420.0
1998-08-31,129253.75
1998-07-31,117921.25
1998-06-30,115665.0
1998-05-31,117997.5
1998-04-30,115725.0
1998-03-31,112900.0
1998-02-28,111700.0
1998-01-31,112200.0
1997-12-31,123850.0
1997-11-30,126225.0
1997-10-31,123725.0
1997-09-30,121750.0
1997-08-31,123875.0
1997-07-31,121475.0
1997-06-30,118025.0
1997-05-31,117425.0
1997-04-30,115575.0
1997-03-31,111675.0
1997-02-28,109500.0
1997-01-31,105400.0
1996-12-31,114250.0
1996-11-30,114150.0
1996-10-31,110450.0
1996-09-30,110950.0
1996-08-31,116925.0
1996-07-31,116325.0
1996-06-30,113550.0
1996-05-31,115400.0
1996-04-30,107150.0
