Date,Value
2015-09-30,240800.0
2015-08-31,242500.0
2015-07-31,240800.0
2015-06-30,242400.0
2015-05-31,242200.0
2015-04-30,241300.0
2015-03-31,242300.0
2015-02-28,241500.0
2015-01-31,239800.0
2014-12-31,243700.0
2014-11-30,245000.0
2014-10-31,243500.0
2014-09-30,241400.0
2014-08-31,239000.0
2014-07-31,236300.0
2014-06-30,233900.0
2014-05-31,226200.0
2014-04-30,217300.0
2014-03-31,212600.0
2014-02-28,212100.0
2014-01-31,212600.0
2013-12-31,214500.0
2013-11-30,216100.0
2013-10-31,218200.0
2013-09-30,219300.0
2013-08-31,217000.0
2013-07-31,212000.0
2013-06-30,208600.0
2013-05-31,207400.0
2013-04-30,207500.0
2013-03-31,207900.0
2013-02-28,208500.0
2013-01-31,208800.0
2012-12-31,207400.0
2012-11-30,205200.0
2012-10-31,202700.0
2012-09-30,201100.0
2012-08-31,200600.0
2012-07-31,201700.0
2012-06-30,203100.0
2012-05-31,205000.0
2012-04-30,206400.0
2012-03-31,206400.0
2012-02-29,205300.0
2012-01-31,205100.0
2011-12-31,205100.0
2011-11-30,203900.0
2011-10-31,201200.0
2011-09-30,198600.0
2011-08-31,197100.0
2011-07-31,196100.0
2011-06-30,196200.0
2011-05-31,198700.0
2011-04-30,202400.0
2011-03-31,204500.0
2011-02-28,205200.0
2011-01-31,208200.0
2010-12-31,213600.0
2010-11-30,218100.0
2010-10-31,220100.0
2010-09-30,221600.0
2010-08-31,224000.0
2010-07-31,226700.0
2010-06-30,228400.0
2010-05-31,229000.0
2010-04-30,228200.0
2010-03-31,227800.0
2010-02-28,228600.0
2010-01-31,229200.0
2009-12-31,227900.0
2009-11-30,227100.0
2009-10-31,229100.0
2009-09-30,234500.0
2009-08-31,239400.0
2009-07-31,241100.0
2009-06-30,240200.0
2009-05-31,239800.0
2009-04-30,240300.0
2009-03-31,239800.0
2009-02-28,239800.0
2009-01-31,235900.0
2008-12-31,230300.0
2008-11-30,230000.0
2008-10-31,234600.0
2008-09-30,235900.0
2008-08-31,236400.0
2008-07-31,240400.0
2008-06-30,246300.0
2008-05-31,251200.0
2008-04-30,253400.0
2008-03-31,254800.0
2008-02-29,255000.0
2008-01-31,254700.0
2007-12-31,254900.0
2007-11-30,254100.0
2007-10-31,252300.0
2007-09-30,252100.0
2007-08-31,252300.0
2007-07-31,249500.0
2007-06-30,246100.0
2007-05-31,243800.0
2007-04-30,242700.0
2007-03-31,241600.0
2007-02-28,240200.0
2007-01-31,238900.0
2006-12-31,237200.0
2006-11-30,234800.0
2006-10-31,232500.0
2006-09-30,231400.0
2006-08-31,230800.0
2006-07-31,228700.0
2006-06-30,224100.0
2006-05-31,219400.0
2006-04-30,215400.0
2006-03-31,213400.0
2006-02-28,212500.0
2006-01-31,211700.0
2005-12-31,209600.0
2005-11-30,206300.0
2005-10-31,201300.0
2005-09-30,195500.0
2005-08-31,190300.0
2005-07-31,186800.0
2005-06-30,184200.0
2005-05-31,180600.0
2005-04-30,177600.0
2005-03-31,175000.0
2005-02-28,172800.0
2005-01-31,170400.0
2004-12-31,168700.0
2004-11-30,166400.0
2004-10-31,162700.0
2004-09-30,157600.0
2004-08-31,151900.0
2004-07-31,147300.0
2004-06-30,144600.0
2004-05-31,143200.0
2004-04-30,141600.0
2004-03-31,139400.0
2004-02-29,136100.0
2004-01-31,133500.0
2003-12-31,132300.0
2003-11-30,132400.0
2003-10-31,133300.0
2003-09-30,133700.0
2003-08-31,134200.0
2003-07-31,135200.0
2003-06-30,134700.0
2003-05-31,132200.0
2003-04-30,130400.0
2003-03-31,129500.0
2003-02-28,128500.0
2003-01-31,126900.0
2002-12-31,125100.0
2002-11-30,123200.0
2002-10-31,122100.0
2002-09-30,121200.0
2002-08-31,120100.0
2002-07-31,118600.0
2002-06-30,117400.0
2002-05-31,116700.0
2002-04-30,116500.0
2002-03-31,116100.0
2002-02-28,115200.0
2002-01-31,113700.0
2001-12-31,111200.0
2001-11-30,108600.0
2001-10-31,106500.0
2001-09-30,105100.0
2001-08-31,103900.0
2001-07-31,102500.0
2001-06-30,101400.0
2001-05-31,101400.0
2001-04-30,100100.0
2001-03-31,98100.0
2001-02-28,98500.0
2001-01-31,100900.0
2000-12-31,103300.0
2000-11-30,105000.0
2000-10-31,106500.0
2000-09-30,107800.0
2000-08-31,108500.0
2000-07-31,109100.0
2000-06-30,110700.0
2000-05-31,112800.0
2000-04-30,114500.0
2000-03-31,115300.0
2000-02-29,115300.0
2000-01-31,115700.0
1999-12-31,115400.0
1999-11-30,113400.0
1999-10-31,111300.0
1999-09-30,111400.0
1999-08-31,112600.0
1999-07-31,113700.0
1999-06-30,113000.0
1999-05-31,111800.0
1999-04-30,111300.0
1999-03-31,111900.0
1999-02-28,111700.0
1999-01-31,110700.0
1998-12-31,110000.0
1998-11-30,110200.0
1998-10-31,109900.0
1998-09-30,109300.0
1998-08-31,108900.0
1998-07-31,107900.0
1998-06-30,108100.0
1998-05-31,108200.0
1998-04-30,107100.0
1998-03-31,105300.0
1998-02-28,104500.0
1998-01-31,104000.0
1997-12-31,103700.0
1997-11-30,103600.0
1997-10-31,103700.0
1997-09-30,103100.0
1997-08-31,102200.0
1997-07-31,101100.0
1997-06-30,100100.0
1997-05-31,99100.0
1997-04-30,98600.0
1997-03-31,98400.0
1997-02-28,97600.0
1997-01-31,96300.0
1996-12-31,95800.0
1996-11-30,96400.0
1996-10-31,97200.0
1996-09-30,97700.0
1996-08-31,98200.0
1996-07-31,99600.0
1996-06-30,101000.0
1996-05-31,101800.0
1996-04-30,102700.0
