Date,Value
2015-01-31,149989.0
2014-12-31,175000.0
2014-11-30,225000.0
2014-10-31,175000.0
2014-09-30,175000.0
2014-08-31,225000.0
2014-07-31,225000.0
2014-06-30,139900.0
2014-05-31,139900.0
2014-04-30,165000.0
2014-03-31,169000.0
2014-02-28,159900.0
2014-01-31,154000.0
2013-12-31,130000.0
2013-11-30,115000.0
2013-10-31,89900.0
2013-09-30,89900.0
2013-08-31,97999.0
2013-07-31,87500.0
2013-06-30,89000.0
2013-05-31,89900.0
2013-04-30,98500.0
2013-03-31,98500.0
2013-02-28,108300.0
2013-01-31,98000.0
2012-12-31,95000.0
2012-11-30,98500.0
2012-10-31,98500.0
2012-09-30,98000.0
2012-08-31,98500.0
2012-07-31,99000.0
2012-06-30,99950.0
2012-05-31,99900.0
2012-04-30,108300.0
2012-03-31,99900.0
2012-02-29,109000.0
2012-01-31,109000.0
2011-12-31,110000.0
2011-11-30,115000.0
2011-10-31,115000.0
2011-09-30,115000.0
2011-08-31,135000.0
2011-07-31,139000.0
2011-06-30,133500.0
2011-03-31,137900.0
2011-02-28,137900.0
2011-01-31,135000.0
2010-12-31,134000.0
2010-11-30,135000.0
2010-10-31,139000.0
2010-09-30,139000.0
2010-08-31,139000.0
2010-07-31,149000.0
2010-06-30,149900.0
2010-05-31,159000.0
2010-04-30,149900.0
2010-03-31,149000.0
2010-02-28,145000.0
2010-01-31,139000.0
2009-12-31,149000.0
2009-11-30,159000.0
2009-10-31,159000.0
2009-09-30,159000.0
2009-08-31,165000.0
2009-07-31,170000.0
2009-06-30,165000.0
2009-05-31,175000.0
2009-04-30,175000.0
2009-03-31,179000.0
2009-02-28,175000.0
2009-01-31,160000.0
2008-12-31,189900.0
2008-11-30,179000.0
2008-10-31,179000.0
