Date,Value
2015-09-30,1.04
2015-08-31,1.018
2015-07-31,1.006
2015-06-30,1.006
2015-05-31,1.006
2015-04-30,1.002
2015-03-31,0.996
2015-02-28,0.996
2015-01-31,0.996
2014-12-31,0.994
2014-11-30,0.994
2014-10-31,0.998
2014-09-30,0.996
2014-08-31,0.99
2014-07-31,0.986
2014-06-30,0.984
2014-05-31,0.976
2014-04-30,0.966
2014-03-31,0.952
2014-02-28,0.944
2014-01-31,0.936
2013-12-31,0.928
2013-11-30,0.918
2013-10-31,0.92
2013-09-30,0.916
2013-08-31,0.912
2013-07-31,0.908
2013-06-30,0.902
2013-05-31,0.896
2013-04-30,0.888
2013-03-31,0.886
2013-02-28,0.89
2013-01-31,0.9
2012-12-31,0.902
2012-11-30,0.9
2012-10-31,0.9
2012-09-30,0.896
2012-08-31,0.89
2012-07-31,0.882
2012-06-30,0.88
2012-05-31,0.882
2012-04-30,0.89
2012-03-31,0.898
2012-02-29,0.896
2012-01-31,0.886
2011-12-31,0.87
2011-11-30,0.856
2011-10-31,0.854
2011-09-30,0.852
2011-08-31,0.856
2011-07-31,0.862
2011-06-30,0.864
2011-05-31,0.864
2011-04-30,0.864
2011-03-31,0.862
2011-02-28,0.858
2011-01-31,0.866
2010-12-31,0.876
2010-11-30,0.892
