Date,Value
2014-12-31,397900.0
2014-11-30,394400.0
2014-10-31,389700.0
2014-09-30,387500.0
2014-08-31,389800.0
2014-07-31,393000.0
2014-06-30,398000.0
2014-05-31,405200.0
2014-04-30,407900.0
2014-03-31,399900.0
2014-02-28,388400.0
2014-01-31,382200.0
2013-12-31,380100.0
2013-11-30,378000.0
2013-10-31,374300.0
2013-09-30,373600.0
2013-08-31,374500.0
2013-07-31,368200.0
2013-06-30,355600.0
2013-05-31,348100.0
2013-04-30,347400.0
2013-03-31,345500.0
2013-02-28,342300.0
2013-01-31,342200.0
2012-12-31,344200.0
2012-11-30,342300.0
2012-10-31,341000.0
2012-09-30,344000.0
2012-08-31,350200.0
2012-07-31,357300.0
2012-06-30,361200.0
2012-05-31,359900.0
2012-04-30,358900.0
2012-03-31,359000.0
2012-02-29,355400.0
2012-01-31,350500.0
2011-12-31,349800.0
2011-11-30,353000.0
2011-10-31,354800.0
2011-09-30,354600.0
2011-08-31,353600.0
2011-07-31,351800.0
2011-06-30,346100.0
2011-05-31,337700.0
2011-04-30,328300.0
2011-03-31,326000.0
2011-02-28,328900.0
2011-01-31,331000.0
2010-12-31,330700.0
2010-11-30,332600.0
2010-10-31,330600.0
2010-09-30,323700.0
2010-08-31,319300.0
2010-07-31,321000.0
2010-06-30,325200.0
2010-05-31,325000.0
2010-04-30,323700.0
2010-03-31,324500.0
2010-02-28,324400.0
2010-01-31,322600.0
2009-12-31,323700.0
2009-11-30,325600.0
2009-10-31,325200.0
2009-09-30,323500.0
2009-08-31,321900.0
2009-07-31,325500.0
2009-06-30,336900.0
2009-05-31,350300.0
2009-04-30,358100.0
2009-03-31,360800.0
2009-02-28,365600.0
2009-01-31,373500.0
2008-12-31,379800.0
2008-11-30,380500.0
2008-10-31,379600.0
2008-09-30,379900.0
2008-08-31,378900.0
2008-07-31,374200.0
2008-06-30,373500.0
2008-05-31,378600.0
2008-04-30,386200.0
2008-03-31,395100.0
2008-02-29,406100.0
2008-01-31,414300.0
2007-12-31,416700.0
2007-11-30,415600.0
2007-10-31,416200.0
2007-09-30,423400.0
2007-08-31,427500.0
2007-07-31,426500.0
2007-06-30,426700.0
2007-05-31,429300.0
2007-04-30,425500.0
2007-03-31,418200.0
2007-02-28,411700.0
2007-01-31,409200.0
2006-12-31,408800.0
2006-11-30,406000.0
2006-10-31,404000.0
2006-09-30,404900.0
2006-08-31,406800.0
