Date,Value
2015-02-28,74900.0
2015-01-31,79900.0
2014-12-31,79900.0
2014-11-30,85000.0
2014-10-31,90000.0
2014-09-30,95500.0
2014-08-31,90000.0
2014-07-31,90000.0
2014-06-30,90000.0
2014-05-31,90000.0
2014-04-30,80000.0
2014-03-31,84900.0
2014-02-28,74900.0
2014-01-31,74900.0
2013-12-31,74900.0
2013-11-30,74900.0
2013-10-31,74900.0
2013-09-30,74900.0
2013-08-31,69900.0
2013-07-31,69900.0
2013-06-30,69900.0
2012-12-31,74900.0
2012-11-30,77900.0
2012-10-31,79900.0
2012-09-30,83500.0
2012-08-31,83500.0
2012-07-31,78900.0
2012-06-30,59900.0
2012-05-31,65500.0
2012-04-30,79900.0
2012-03-31,79900.0
2012-02-29,79900.0
2012-01-31,79900.0
2011-12-31,81000.0
2011-11-30,79900.0
2011-10-31,81000.0
2011-09-30,81000.0
2011-08-31,81000.0
2011-07-31,89000.0
2011-06-30,99900.0
2011-05-31,89900.0
2011-04-30,87000.0
2011-03-31,87000.0
2011-02-28,89900.0
2011-01-31,89900.0
2010-12-31,89900.0
2010-11-30,89900.0
2010-10-31,97900.0
2010-09-30,99900.0
2010-08-31,97900.0
2010-07-31,99900.0
2010-06-30,99900.0
2010-05-31,109500.0
2010-04-30,109500.0
2010-03-31,109500.0
2010-02-28,114000.0
2010-01-31,114000.0
2009-12-31,109900.0
2009-10-31,109900.0
2009-08-31,109900.0
