Date,Value
2015-09-30,272900.0
2015-08-31,271300.0
2015-07-31,269400.0
2015-06-30,269100.0
2015-05-31,270200.0
2015-04-30,270800.0
2015-03-31,274000.0
2015-02-28,275100.0
2015-01-31,273000.0
2014-12-31,272100.0
2014-11-30,270300.0
2014-10-31,268300.0
2014-09-30,267000.0
2014-08-31,266100.0
2014-07-31,265500.0
2014-06-30,265500.0
2014-05-31,266500.0
2014-04-30,267000.0
2014-03-31,266400.0
2014-02-28,266900.0
2014-01-31,268300.0
2013-12-31,267200.0
2013-11-30,266000.0
2013-10-31,266900.0
2013-09-30,267600.0
2013-08-31,267100.0
2013-07-31,266300.0
2013-06-30,265100.0
2013-05-31,261200.0
2013-04-30,256600.0
2013-03-31,252700.0
2013-02-28,249700.0
2013-01-31,247400.0
2012-12-31,246700.0
2012-11-30,245500.0
2012-10-31,244300.0
2012-09-30,243800.0
2012-08-31,243000.0
2012-07-31,241000.0
2012-06-30,239600.0
2012-05-31,239400.0
2012-04-30,239900.0
2012-03-31,239100.0
2012-02-29,236700.0
2012-01-31,234900.0
2011-12-31,235400.0
2011-11-30,236300.0
2011-10-31,236500.0
2011-09-30,237700.0
2011-08-31,240500.0
2011-07-31,241900.0
2011-06-30,240400.0
2011-05-31,239600.0
2011-04-30,241500.0
2011-03-31,246900.0
2011-02-28,254200.0
2011-01-31,258900.0
2010-12-31,258600.0
2010-11-30,257600.0
2010-10-31,256900.0
2010-09-30,257400.0
2010-08-31,259000.0
2010-07-31,260700.0
2010-06-30,262600.0
2010-05-31,265300.0
2010-04-30,267900.0
2010-03-31,268900.0
2010-02-28,268900.0
2010-01-31,270000.0
2009-12-31,273600.0
2009-11-30,277300.0
2009-10-31,279700.0
2009-09-30,280500.0
2009-08-31,280000.0
2009-07-31,280400.0
2009-06-30,281500.0
2009-05-31,282600.0
2009-04-30,283800.0
2009-03-31,285100.0
2009-02-28,284900.0
2009-01-31,283800.0
2008-12-31,284000.0
2008-11-30,287700.0
2008-10-31,293600.0
2008-09-30,297600.0
2008-08-31,299800.0
2008-07-31,303200.0
2008-06-30,306500.0
2008-05-31,308100.0
2008-04-30,309800.0
2008-03-31,312200.0
2008-02-29,314500.0
2008-01-31,317400.0
2007-12-31,320800.0
2007-11-30,322600.0
2007-10-31,322700.0
2007-09-30,323300.0
2007-08-31,325600.0
2007-07-31,329200.0
2007-06-30,334000.0
2007-05-31,337800.0
2007-04-30,339500.0
2007-03-31,339900.0
2007-02-28,339500.0
2007-01-31,338300.0
2006-12-31,336500.0
2006-11-30,334700.0
2006-10-31,332700.0
2006-09-30,330100.0
2006-08-31,326300.0
2006-07-31,322500.0
2006-06-30,320200.0
2006-05-31,318100.0
2006-04-30,313400.0
2006-03-31,307500.0
2006-02-28,301800.0
2006-01-31,297100.0
2005-12-31,292000.0
2005-11-30,286600.0
2005-10-31,281300.0
2005-09-30,277400.0
2005-08-31,273900.0
2005-07-31,270000.0
2005-06-30,265800.0
2005-05-31,262400.0
2005-04-30,260800.0
2005-03-31,260300.0
2005-02-28,260600.0
2005-01-31,259600.0
2004-12-31,257500.0
2004-11-30,254200.0
2004-10-31,251300.0
2004-09-30,248500.0
2004-08-31,246300.0
2004-07-31,242300.0
2004-06-30,238100.0
2004-05-31,234900.0
2004-04-30,232000.0
2004-03-31,229000.0
2004-02-29,226700.0
2004-01-31,225100.0
2003-12-31,223700.0
2003-11-30,221700.0
2003-10-31,220100.0
2003-09-30,219200.0
2003-08-31,218600.0
2003-07-31,217400.0
2003-06-30,214800.0
2003-05-31,211500.0
2003-04-30,209200.0
2003-03-31,207500.0
2003-02-28,205500.0
2003-01-31,203300.0
2002-12-31,201500.0
2002-11-30,201200.0
2002-10-31,201500.0
2002-09-30,200900.0
2002-08-31,199400.0
2002-07-31,197800.0
2002-06-30,196800.0
2002-05-31,195300.0
2002-04-30,192300.0
2002-03-31,188900.0
2002-02-28,187000.0
2002-01-31,186500.0
2001-12-31,186900.0
2001-11-30,187800.0
2001-10-31,188100.0
2001-09-30,187800.0
2001-08-31,187500.0
2001-07-31,186900.0
2001-06-30,186100.0
2001-05-31,184700.0
2001-04-30,183500.0
2001-03-31,182400.0
2001-02-28,181200.0
2001-01-31,180000.0
2000-12-31,179100.0
2000-11-30,178400.0
2000-10-31,177200.0
2000-09-30,175300.0
2000-08-31,173100.0
2000-07-31,172400.0
2000-06-30,172200.0
2000-05-31,172300.0
2000-04-30,173000.0
2000-03-31,174000.0
2000-02-29,173900.0
2000-01-31,173100.0
1999-12-31,172500.0
1999-11-30,171800.0
1999-10-31,169600.0
1999-09-30,167500.0
1999-08-31,166400.0
1999-07-31,165800.0
1999-06-30,165500.0
1999-05-31,165600.0
1999-04-30,165700.0
1999-03-31,165600.0
1999-02-28,165600.0
1999-01-31,165200.0
1998-12-31,163800.0
1998-11-30,161900.0
1998-10-31,161100.0
1998-09-30,161600.0
1998-08-31,161500.0
1998-07-31,160800.0
1998-06-30,160100.0
1998-05-31,159700.0
1998-04-30,159300.0
1998-03-31,158300.0
1998-02-28,156700.0
1998-01-31,155400.0
1997-12-31,154000.0
1997-11-30,152000.0
1997-10-31,150200.0
1997-09-30,149400.0
1997-08-31,148800.0
1997-07-31,147900.0
1997-06-30,147600.0
1997-05-31,148300.0
1997-04-30,149500.0
1997-03-31,150100.0
1997-02-28,149800.0
1997-01-31,149000.0
1996-12-31,147900.0
1996-11-30,147100.0
1996-10-31,146800.0
1996-09-30,146400.0
1996-08-31,146500.0
1996-07-31,147800.0
1996-06-30,148700.0
1996-05-31,148500.0
1996-04-30,148100.0
