Date,Value
2014-05-31,1100.0
2013-09-30,1800.0
2013-08-31,1800.0
2013-03-31,1725.0
2013-02-28,1800.0
2013-01-31,1725.0
2012-12-31,1800.0
2012-11-30,1800.0
2012-10-31,1850.0
2012-08-31,1250.0
2012-06-30,950.0
2012-03-31,1950.0
2012-02-29,1850.0
2012-01-31,895.0
2011-12-31,1800.0
2011-11-30,1800.0
2011-10-31,895.0
2011-09-30,1800.0
2011-07-31,1900.0
2011-06-30,999.0
2011-04-30,1850.0
2011-03-31,1850.0
2011-02-28,1850.0
2011-01-31,1825.0
2010-12-31,1800.0
2010-11-30,1800.0
2010-10-31,1900.0
2010-09-30,1900.0
2010-08-31,1910.0
2010-05-31,1900.0
2010-04-30,1900.0
