Date,Value
2015-08-31,124300.0
2015-07-31,123700.0
2015-06-30,125900.0
2015-05-31,127700.0
2015-04-30,126200.0
2015-03-31,129400.0
2015-02-28,135300.0
2015-01-31,136600.0
2014-12-31,137700.0
2014-11-30,137200.0
2014-10-31,136800.0
2014-09-30,137100.0
2014-08-31,136800.0
2014-07-31,135500.0
2014-06-30,135200.0
2014-05-31,132600.0
2014-04-30,126900.0
2014-03-31,121500.0
2014-02-28,120100.0
2014-01-31,120700.0
2013-12-31,121000.0
2013-11-30,120800.0
2013-10-31,119200.0
2013-09-30,117800.0
2013-08-31,118500.0
2013-07-31,120900.0
2013-06-30,122200.0
2013-05-31,122400.0
2013-04-30,122900.0
2013-03-31,123700.0
2013-02-28,123800.0
2013-01-31,123400.0
2012-12-31,122800.0
2012-11-30,122200.0
2012-10-31,122200.0
2012-09-30,122700.0
2012-08-31,123200.0
2012-07-31,122800.0
2012-06-30,121300.0
2012-05-31,119900.0
2012-04-30,119200.0
2012-03-31,119500.0
2012-02-29,120200.0
2012-01-31,120300.0
2011-12-31,119800.0
2011-11-30,119400.0
2011-10-31,118000.0
2011-09-30,115900.0
2011-08-31,113900.0
2011-07-31,112800.0
2011-06-30,112200.0
2011-05-31,112600.0
2011-04-30,114100.0
2011-03-31,115700.0
2011-02-28,117100.0
2011-01-31,118100.0
2010-12-31,118300.0
2010-11-30,118500.0
2010-10-31,119100.0
2010-09-30,120200.0
2010-08-31,122100.0
2010-07-31,123700.0
2010-06-30,124200.0
2010-05-31,124800.0
2010-04-30,126000.0
2010-03-31,127500.0
2010-02-28,128300.0
2010-01-31,128100.0
2009-12-31,127600.0
2009-11-30,128100.0
2009-10-31,128700.0
2009-09-30,128600.0
2009-08-31,127600.0
2009-07-31,126500.0
2009-06-30,125800.0
2009-05-31,125800.0
2009-04-30,126100.0
2009-03-31,125300.0
2009-02-28,123300.0
2009-01-31,120600.0
2008-12-31,119400.0
2008-11-30,120600.0
2008-10-31,122500.0
2008-09-30,124400.0
2008-08-31,126800.0
2008-07-31,129300.0
2008-06-30,131300.0
2008-05-31,133700.0
2008-04-30,136000.0
2008-03-31,136700.0
2008-02-29,136500.0
2008-01-31,137200.0
2007-12-31,137500.0
2007-11-30,136700.0
2007-10-31,136700.0
2007-09-30,137200.0
2007-08-31,134900.0
2007-07-31,130700.0
2007-06-30,128200.0
2007-05-31,126800.0
2007-04-30,125500.0
2007-03-31,125800.0
2007-02-28,126300.0
2007-01-31,125400.0
2006-12-31,124600.0
2006-11-30,123600.0
2006-10-31,122100.0
2006-09-30,120900.0
2006-08-31,120800.0
2006-07-31,120800.0
2006-06-30,120000.0
2006-05-31,119700.0
2006-04-30,119300.0
2006-03-31,118000.0
2006-02-28,116300.0
2006-01-31,114900.0
2005-12-31,112800.0
2005-11-30,109500.0
2005-10-31,106400.0
2005-09-30,103000.0
2005-08-31,99400.0
2005-07-31,96700.0
2005-06-30,95400.0
2005-05-31,93500.0
2005-04-30,91500.0
2005-03-31,89200.0
2005-02-28,88000.0
2005-01-31,88600.0
2004-12-31,90200.0
2004-11-30,91000.0
2004-10-31,90800.0
2004-09-30,90600.0
2004-08-31,91100.0
2004-07-31,92100.0
2004-06-30,92900.0
2004-05-31,92600.0
2004-04-30,90200.0
2004-03-31,86900.0
2004-02-29,84000.0
2004-01-31,82000.0
2003-12-31,80200.0
2003-11-30,78800.0
2003-10-31,77300.0
2003-09-30,75900.0
2003-08-31,75200.0
2003-07-31,74600.0
2003-06-30,73800.0
2003-05-31,73000.0
2003-04-30,72700.0
2003-03-31,73600.0
2003-02-28,75200.0
2003-01-31,75800.0
2002-12-31,75400.0
2002-11-30,75300.0
2002-10-31,75600.0
2002-09-30,75800.0
2002-08-31,76000.0
2002-07-31,76700.0
2002-06-30,76200.0
2002-05-31,74100.0
2002-04-30,73700.0
2002-03-31,75200.0
2002-02-28,76300.0
2002-01-31,76900.0
2001-12-31,77500.0
2001-11-30,77600.0
2001-10-31,77700.0
2001-09-30,77200.0
2001-08-31,76000.0
2001-07-31,74500.0
2001-06-30,73600.0
2001-05-31,73300.0
2001-04-30,72700.0
2001-03-31,72000.0
2001-02-28,72400.0
2001-01-31,72700.0
2000-12-31,72900.0
2000-11-30,72800.0
2000-10-31,72000.0
2000-09-30,70300.0
2000-08-31,68500.0
2000-07-31,67500.0
2000-06-30,68300.0
2000-05-31,70800.0
2000-04-30,74300.0
2000-03-31,77500.0
2000-02-29,79100.0
2000-01-31,79800.0
1999-12-31,79600.0
1999-11-30,78600.0
1999-10-31,77400.0
1999-09-30,75800.0
1999-08-31,74300.0
1999-07-31,71300.0
1999-06-30,72000.0
1999-05-31,72500.0
1999-04-30,72400.0
1999-03-31,72000.0
1999-02-28,71400.0
1999-01-31,70800.0
1998-12-31,70400.0
1998-11-30,69600.0
1998-10-31,68600.0
1998-09-30,67500.0
1998-08-31,66800.0
1998-07-31,65800.0
1998-06-30,64700.0
1998-05-31,64600.0
1998-04-30,65300.0
1998-03-31,65500.0
1998-02-28,65200.0
1998-01-31,64500.0
1997-12-31,63700.0
1997-11-30,62500.0
1997-10-31,61800.0
1997-09-30,61700.0
1997-08-31,62300.0
1997-07-31,63000.0
1997-06-30,63900.0
1997-05-31,64600.0
1997-04-30,65000.0
1997-03-31,64800.0
1997-02-28,64000.0
1997-01-31,64000.0
1996-12-31,65300.0
1996-11-30,67200.0
1996-10-31,68400.0
1996-09-30,68600.0
1996-08-31,67800.0
1996-07-31,66500.0
1996-06-30,65300.0
1996-05-31,64100.0
1996-04-30,62700.0
