Date,Value
2015-02-28,269900.0
2015-01-31,275000.0
2014-12-31,269900.0
2014-11-30,249900.0
2014-10-31,249900.0
2014-09-30,249900.0
2014-08-31,239000.0
2014-07-31,215000.0
2014-06-30,249000.0
2014-05-31,199000.0
2014-04-30,164900.0
2014-03-31,164900.0
2014-02-28,199000.0
2014-01-31,224944.0
2013-12-31,199900.0
2013-11-30,155000.0
2013-10-31,199900.0
2013-09-30,179000.0
2013-08-31,226500.0
2013-07-31,199000.0
2013-06-30,199000.0
2013-05-31,209999.0
2013-04-30,186000.0
2013-03-31,210000.0
2013-02-28,214900.0
2013-01-31,199900.0
2012-12-31,210000.0
2012-11-30,170000.0
2012-10-31,146215.0
2012-09-30,234400.0
2012-08-31,170000.0
2012-07-31,189000.0
2012-06-30,215000.0
2012-05-31,189000.0
2012-04-30,163500.0
2012-03-31,164900.0
2012-02-29,189900.0
2012-01-31,189900.0
2011-12-31,196950.0
2011-11-30,219900.0
2011-10-31,242900.0
2011-09-30,242900.0
2011-08-31,244900.0
2011-07-31,244900.0
2011-06-30,242900.0
2011-05-31,239500.0
2011-04-30,229900.0
2011-03-31,238500.0
2011-02-28,238500.0
2011-01-31,249000.0
2010-12-31,249950.0
2010-11-30,249500.0
2010-10-31,249600.0
2010-09-30,249500.0
2010-08-31,249500.0
2010-07-31,249990.0
2010-06-30,245000.0
2010-05-31,249900.0
2010-04-30,240000.0
2010-03-31,240000.0
2010-02-28,239900.0
2010-01-31,238500.0
2009-12-31,235000.0
2009-11-30,235000.0
2009-10-31,235000.0
2009-09-30,235000.0
2009-08-31,259995.0
2009-07-31,270000.0
2009-06-30,273900.0
2009-05-31,270000.0
2009-04-30,269000.0
2009-03-31,269000.0
2009-02-28,259995.0
2009-01-31,289000.0
2008-12-31,259995.0
2008-11-30,284500.0
2008-10-31,284500.0
