Date,Value
2015-09-30,468850.0
2015-08-31,488900.0
2015-07-31,509100.0
2015-06-30,513600.0
2015-05-31,500535.0
2015-04-30,496465.0
2015-03-31,478700.0
2015-02-28,434775.0
2015-01-31,467500.0
2014-12-31,457700.0
2014-11-30,452550.0
2014-10-31,447500.0
2014-09-30,463550.0
2014-08-31,458600.0
2014-07-31,492100.0
2014-06-30,489250.0
2014-05-31,448050.0
2014-04-30,423400.0
2014-03-31,409176.4706
2014-02-28,436000.0
2013-12-31,388875.0
2013-11-30,385000.0
2013-10-31,394675.0
2013-09-30,411725.0
2013-08-31,421425.0
2013-07-31,424425.0
2013-06-30,432250.0
2013-05-31,419500.0
2013-04-30,409992.5
2013-03-31,374979.4118
2013-02-28,374950.0
2012-11-30,426750.0
2012-10-31,455750.0
2012-09-30,432800.0
2012-08-31,404475.0
2012-07-31,398125.0
2012-06-30,391750.0
2012-05-31,422835.0
2012-04-30,412115.0
2012-03-31,402117.6471
2011-11-30,431500.0
2011-10-31,436435.0
2011-09-30,418965.0
2011-08-31,413900.0
2011-07-31,397117.6471
2011-06-30,396923.0769
2011-04-30,443346.7647
2011-03-31,498835.0
2010-12-31,408500.0
2010-11-30,414798.5
2010-09-30,478750.0
2010-08-31,494998.5
2010-07-31,469496.5
2010-06-30,446745.0
2010-05-31,441000.0
2010-04-30,417203.0
2010-03-31,424772.9412
2010-02-28,450592.3077
2009-12-31,414821.5
2009-11-30,407920.0
2009-10-31,462250.0
2009-09-30,488000.0
2009-08-31,444848.75
2009-07-31,368056.25
2009-06-30,389843.5
2009-05-31,398260.5882
2009-04-30,402990.0
2008-12-31,399990.0
2008-09-30,444248.5
2008-08-31,463496.5
2008-07-31,425745.0
2008-06-30,452336.0
2008-05-31,454534.0
2008-04-30,447370.0
2008-03-31,419003.75
2008-02-29,399818.45
2008-01-31,360901.8
2007-11-30,460523.25
2007-10-31,466579.0
2007-09-30,473863.5
2007-08-31,477305.0
2007-07-31,458600.0
2007-06-30,455400.0
2007-05-31,470750.0
2007-04-30,478250.0
2007-03-31,511250.0
2007-02-28,485242.5
2007-01-31,518655.0
2006-12-31,538877.5
2006-11-30,516825.0
2006-10-31,529100.0
2006-09-30,551642.5
2006-08-31,523975.0
2006-07-31,517950.0
2006-06-30,489207.5
2006-05-31,492258.0
2006-04-30,478927.0
2006-03-31,459510.0
2006-02-28,463992.5
2006-01-31,477975.0
2005-12-31,512207.5
2005-11-30,492250.0
2005-10-31,441525.0
2005-09-30,419300.0
2005-08-31,383494.05
2005-07-31,370022.95
2005-06-30,376905.0
2005-05-31,398787.5
2005-04-30,420225.0
2005-03-31,419278.25
2005-02-28,428799.75
2005-01-31,403762.0
2004-12-31,382985.0
2004-11-30,372017.5
2004-10-31,355490.0
2004-09-30,320657.3
2004-08-31,308358.7
2004-07-31,297691.0
2004-06-30,318037.75
2004-05-31,342522.0
2004-04-30,332751.75
2004-03-31,311092.25
2004-02-29,305418.75
2004-01-31,312412.5
2003-12-31,345992.5
2003-11-30,353223.5
2003-10-31,354382.6
2003-09-30,329265.0
2003-08-31,327803.4
2003-07-31,331061.0
2003-06-30,310201.6
2003-05-31,291770.5
2003-04-30,300483.9
2003-03-31,298330.5
2003-02-28,300870.0
2003-01-31,305701.5
2002-12-31,308995.0
2002-11-30,295828.45
2002-10-31,315084.85
2002-09-30,313414.7
2002-08-31,299231.0
2002-07-31,301002.6
2002-06-30,294215.4
2002-05-31,305214.1
2002-04-30,320550.4
2002-03-31,325050.5
2002-02-28,331796.0
2002-01-31,347030.0
2001-11-30,257529.15
2001-09-30,304773.0
2001-08-31,295062.5
2001-07-31,281362.5
2001-06-30,290307.5
2001-05-31,301230.0
2001-04-30,292064.6
2001-03-31,278872.4
2001-02-28,259950.8
2001-01-31,226042.2
2000-12-31,239835.7
2000-11-30,254351.3
2000-10-31,263653.0
2000-09-30,265639.0
2000-08-31,286926.05
2000-07-31,291762.3
2000-06-30,288205.15
2000-05-31,294887.5
2000-04-30,291618.5
2000-03-31,279130.5
2000-02-29,280011.0
2000-01-31,276005.0
1999-12-31,270086.65
1999-11-30,274536.0
1999-10-31,272853.85
1999-09-30,263940.5
1999-08-31,253392.5
1999-07-31,248467.5
1999-05-31,330529.4118
1999-04-30,360000.0
1998-12-31,259991.5
1998-11-30,254745.0
1998-10-31,241750.0
1998-09-30,222500.0
1998-08-31,219997.3
1998-07-31,210993.7
1998-06-30,198991.0
1998-05-31,184705.8824
1998-04-30,220000.0
