Date,Value
2015-06-30,1325.0
2015-05-31,1250.0
2015-04-30,1250.0
2015-03-31,1275.0
2015-02-28,1275.0
2015-01-31,1275.0
2014-12-31,1325.0
2014-11-30,1400.0
2014-10-31,1495.0
2014-09-30,1550.0
2014-08-31,1630.0
2014-07-31,1550.0
2014-06-30,1150.0
2014-05-31,1200.0
2014-04-30,1375.0
2014-03-31,1250.0
2014-02-28,1495.0
2014-01-31,1375.0
2013-12-31,1300.0
2013-11-30,1375.0
2013-10-31,1445.0
2013-09-30,1050.0
2013-08-31,1095.0
2013-07-31,1050.0
2013-06-30,1025.0
2013-05-31,1025.0
2013-04-30,999.0
2013-03-31,1295.0
2013-02-28,1050.0
2013-01-31,951.0
2012-12-31,948.0
2012-11-30,948.0
2012-10-31,953.0
2012-09-30,969.0
2012-08-31,969.0
2012-07-31,969.0
2012-06-30,875.0
2012-05-31,969.0
2012-04-30,1050.0
2012-03-31,1200.0
2012-02-29,1050.0
2012-01-31,1025.0
2011-12-31,1050.0
2011-11-30,1200.0
2011-10-31,1150.0
2011-09-30,875.0
2011-08-31,1240.0
2011-07-31,1240.0
2011-06-30,1150.0
