Date,Value
2015-09-30,291150.0
2015-06-30,281985.0
2015-05-31,262025.0
2015-02-28,250000.0
2014-11-30,276000.0
2014-10-31,274625.0
2014-09-30,297475.0
2014-08-31,292575.0
2014-07-31,282775.0
2014-06-30,271992.5
2014-05-31,257332.5
2014-04-30,255175.0
2014-03-31,249411.7647
2014-02-28,260000.0
2013-11-30,252126.1538
2013-09-30,259488.0
2013-08-31,256932.0
2013-07-31,249278.0
2013-06-30,243327.0
2013-05-31,237190.0
2013-04-30,222063.0
2013-03-31,234576.4706
2013-02-28,220000.0
2012-10-31,214512.3529
2012-09-30,226230.7692
2012-07-31,231100.0
2012-06-30,235000.0
2012-02-29,200000.0
2011-08-31,199280.0
2011-03-31,211049.2308
2010-12-31,203600.0
2010-06-30,258523.0769
2010-04-30,257880.0
2010-03-31,246280.0
2009-11-30,238049.2308
2009-09-30,251023.0769
2009-07-31,257000.0
2009-04-30,277780.0
2008-08-31,300025.0
2008-07-31,289942.0
2008-06-30,289232.9412
2008-05-31,286061.5385
2008-03-31,315769.2308
2008-01-31,299250.0
2007-12-31,302050.0
2007-11-30,304361.25
2007-10-31,312476.25
2007-09-30,321937.5
2007-08-31,308500.0
2007-07-31,304750.0
2007-06-30,295625.0
2007-05-31,280875.0
2007-04-30,289742.5
2007-03-31,313582.5
2007-02-28,314117.5
2007-01-31,318620.0
2006-12-31,307812.5
2006-11-30,305267.5
2006-10-31,304895.0
2006-09-30,302062.5
2006-08-31,304000.0
2006-07-31,304500.0
2006-06-30,297250.0
2006-05-31,287875.0
2006-04-30,272975.0
2006-03-31,276720.3
2006-02-28,276080.7
2006-01-31,267071.0
2005-12-31,263630.0
2005-11-30,271075.0
2005-10-31,270425.0
2005-09-30,269417.0
2005-08-31,269958.0
2005-07-31,260335.0
2005-06-30,261006.1
2005-05-31,256219.75
2005-04-30,254247.65
2005-03-31,254272.55
2005-02-28,254129.8
2005-01-31,248378.65
2004-12-31,239764.5
2004-11-30,233875.0
2004-10-31,240125.0
2004-09-30,233749.85
2004-08-31,231587.1
2004-07-31,233621.05
2004-06-30,232774.0
2004-05-31,220970.0
2004-04-30,213730.0
2004-03-31,215831.8
2004-02-29,220524.2
2004-01-31,213806.0
2003-12-31,207700.0
2003-11-30,212950.0
2003-10-31,217100.0
2003-09-30,224992.5
2003-08-31,227425.0
2003-07-31,226807.5
2003-06-30,223425.0
2003-05-31,215949.1
2003-04-30,214240.4
2003-03-31,215229.5
2003-02-28,212025.0
2003-01-31,205824.85
2002-12-31,208549.65
2002-11-30,213064.5
2002-10-31,206085.0
2002-09-30,200717.5
2002-08-31,195732.5
2002-07-31,198275.0
2002-06-30,198700.0
2002-05-31,199517.5
2002-04-30,198757.5
2002-03-31,198825.0
2002-02-28,196647.0588
2002-01-31,198192.3077
2001-11-30,190762.5
2001-10-31,188725.0
2001-09-30,196250.0
2001-08-31,195940.0
2001-07-31,193960.0
2001-06-30,187392.5
2001-05-31,184520.15
2001-04-30,184857.9
2001-03-31,182666.45
2001-02-28,186201.3
2001-01-31,181230.7
2000-12-31,180601.0
2000-11-30,175150.0
2000-10-31,177900.0
2000-09-30,175000.45
2000-08-31,179251.05
2000-07-31,186294.0
2000-06-30,183675.0
2000-05-31,185850.1
2000-04-30,193599.4
2000-03-31,187517.0
2000-02-29,179100.0
2000-01-31,173156.75
1999-12-31,175833.85
1999-11-30,166438.15
1999-10-31,164071.0
1999-09-30,177814.25
1999-08-31,178702.5
1999-07-31,172300.0
1999-06-30,171100.0
1999-05-31,169727.5
1999-04-30,177097.5
1999-03-31,180275.0
1999-02-28,178307.5
1999-01-31,165475.0
1998-12-31,152250.0
1998-11-30,158842.5
1998-10-31,169407.5
1998-09-30,173649.25
1998-08-31,172340.75
1998-07-31,170055.0
1998-06-30,165350.0
1998-05-31,161542.5
1998-04-30,156725.0
1998-03-31,158400.0
1998-02-28,155457.5
1998-01-31,146025.0
1997-12-31,140174.0
1997-11-30,147211.0
1997-10-31,151667.5
1997-09-30,150125.0
1997-08-31,149800.0
1997-07-31,150450.0
1997-06-30,149830.0
1997-05-31,149520.0
1997-04-30,146500.0
1997-03-31,142400.0
1997-02-28,137302.9412
1997-01-31,144950.0
1996-08-31,143434.0
1996-07-31,140294.1176
1996-06-30,138834.6154
1996-04-30,134138.75
