Date,Value
2015-06-30,1795.0
2015-05-31,1795.0
2015-04-30,1795.0
2015-03-31,1800.0
2015-02-28,1890.0
2015-01-31,1950.0
2014-12-31,1570.0
2014-11-30,1525.0
2014-10-31,1570.0
2014-09-30,1850.0
2014-08-31,1775.0
2014-07-31,1875.0
2014-06-30,1525.0
2014-05-31,1450.0
2014-04-30,1450.0
2014-03-31,1450.0
2014-02-28,1525.0
2014-01-31,1685.0
2013-12-31,1695.0
2013-11-30,2100.0
2013-10-31,1895.0
2013-09-30,1900.0
2013-08-31,1650.0
2013-07-31,1525.0
2013-06-30,1650.0
2013-05-31,1650.0
2013-04-30,1575.0
2013-03-31,1995.0
2013-02-28,1540.0
2013-01-31,1525.0
2012-12-31,1695.0
2012-11-30,1580.0
2012-10-31,1525.0
2012-09-30,1549.0
2012-08-31,1651.0
2012-07-31,1895.0
2012-06-30,1649.0
2012-05-31,1333.0
2012-04-30,1205.0
2012-03-31,1300.0
2012-02-29,1429.0
2012-01-31,1429.0
2011-12-31,1458.0
2011-11-30,1494.0
2011-10-31,1578.0
2011-09-30,1479.0
2011-08-31,1450.0
2011-03-31,1103.0
2011-02-28,1122.0
2011-01-31,1122.0
2010-12-31,1103.0
2010-11-30,1122.0
2010-10-31,1250.0
2010-09-30,1250.0
2010-08-31,1305.0
