Date,Value
2014-12-31,950.0
2014-11-30,950.0
2014-10-31,950.0
2014-09-30,810.0
2014-08-31,750.0
2014-07-31,1000.0
2014-06-30,1050.0
2014-05-31,975.0
2014-04-30,900.0
2014-03-31,999.0
2014-02-28,950.0
2014-01-31,850.0
2013-12-31,850.0
2013-11-30,845.0
2013-10-31,875.0
2013-09-30,875.0
2013-08-31,684.0
2013-07-31,675.0
2013-06-30,675.0
2013-05-31,585.0
2013-04-30,635.0
2013-03-31,684.0
2013-02-28,615.0
2013-01-31,684.0
2012-12-31,684.0
2012-11-30,800.0
2012-10-31,800.0
2012-09-30,750.0
2012-08-31,649.0
2012-07-31,680.0
2012-06-30,780.0
2012-05-31,900.0
2012-04-30,700.0
2012-03-31,675.0
2012-02-29,750.0
2012-01-31,844.0
2011-12-31,900.0
2011-11-30,804.0
2011-10-31,800.0
2011-09-30,850.0
