Date,Value
2015-09-30,0.884
2015-08-31,0.93
2015-07-31,0.926
2015-06-30,0.916
2015-05-31,0.922
2015-04-30,0.928
2015-03-31,0.93
2015-02-28,0.934
2015-01-31,0.94
2014-12-31,0.95
2014-11-30,0.958
2014-10-31,0.968
2014-09-30,0.97
2014-08-31,0.972
2014-07-31,0.972
2014-06-30,0.978
2014-05-31,0.972
2014-04-30,0.952
2014-03-31,0.926
2014-02-28,0.916
2014-01-31,0.924
2013-12-31,0.916
2013-11-30,0.904
2013-10-31,0.892
2013-09-30,0.884
2013-08-31,0.876
2013-07-31,0.872
2013-06-30,0.868
2013-05-31,0.87
2013-04-30,0.874
2013-03-31,0.874
2013-02-28,0.874
2013-01-31,0.876
2012-12-31,0.864
2012-11-30,0.852
2012-10-31,0.838
2012-09-30,0.834
2012-08-31,0.84
2012-07-31,0.844
2012-06-30,0.848
2012-05-31,0.85
2012-04-30,0.858
2012-03-31,0.86
2012-02-29,0.86
2012-01-31,0.866
2011-12-31,0.864
2011-11-30,0.87
2011-10-31,0.876
2011-09-30,0.88
2011-08-31,0.87
2011-07-31,0.858
2011-06-30,0.844
2011-05-31,0.842
2011-04-30,0.84
