Date,Value
2015-08-31,181815.0
2015-07-31,194035.0
2015-06-30,176700.0
2015-05-31,165200.0
2015-04-30,170300.0
2015-01-31,194686.0
2014-12-31,177150.0
2014-11-30,181900.0
2014-10-31,187625.0
2014-09-30,188075.0
2014-08-31,173000.0
2014-07-31,182500.0
2014-06-30,185900.0
2014-05-31,184400.0
2014-04-30,181117.6471
2014-03-31,165384.6154
2014-01-31,171150.0
2013-12-31,186000.0
2013-11-30,191250.0
2013-10-31,186000.0
2013-09-30,170595.05
2013-08-31,166388.45
2013-07-31,168483.5
2013-06-30,164750.0
2013-05-31,160588.2353
2013-04-30,140000.0
2011-12-31,161875.0
2011-11-30,176485.0
2011-10-31,159815.0
2011-09-30,150350.0
2011-08-31,157550.0
2011-07-31,171700.0
2011-06-30,183735.0
2011-05-31,175450.0
2011-04-30,174915.0
2011-03-31,187200.0
2011-02-28,187752.5
2011-01-31,182772.5
2010-12-31,167125.0
