Date,Value
2015-09-30,501200.0
2015-08-31,496300.0
2015-07-31,495500.0
2015-06-30,501900.0
2015-05-31,501700.0
2015-04-30,495600.0
2015-03-31,487000.0
2015-02-28,482800.0
2015-01-31,477500.0
2014-12-31,474700.0
2014-11-30,471000.0
2014-10-31,468400.0
2014-09-30,467900.0
2014-08-31,467900.0
2014-07-31,467000.0
2014-06-30,465100.0
2014-05-31,463000.0
2014-04-30,459700.0
2014-03-31,455300.0
2014-02-28,451200.0
2014-01-31,447700.0
2013-12-31,444000.0
2013-11-30,440100.0
2013-10-31,435000.0
2013-09-30,430100.0
2013-08-31,427900.0
2013-07-31,426200.0
2013-06-30,423100.0
2013-05-31,419400.0
2013-04-30,415600.0
2013-03-31,410300.0
2013-02-28,404100.0
2013-01-31,398200.0
2012-12-31,393900.0
2012-11-30,389800.0
2012-10-31,385200.0
2012-09-30,382000.0
2012-08-31,380000.0
2012-07-31,377300.0
2012-06-30,374300.0
2012-05-31,370500.0
2012-04-30,365300.0
2012-03-31,360500.0
2012-02-29,358000.0
2012-01-31,357700.0
2011-12-31,358400.0
2011-11-30,358700.0
2011-10-31,357900.0
2011-09-30,356000.0
2011-08-31,354100.0
2011-07-31,353500.0
2011-06-30,354000.0
2011-05-31,356100.0
2011-04-30,359600.0
2011-03-31,363300.0
2011-02-28,367100.0
2011-01-31,370300.0
2010-12-31,372200.0
2010-11-30,374400.0
2010-10-31,378800.0
2010-09-30,384100.0
2010-08-31,388500.0
2010-07-31,391400.0
2010-06-30,393700.0
2010-05-31,395300.0
2010-04-30,396400.0
2010-03-31,396900.0
2010-02-28,396600.0
2010-01-31,396100.0
2009-12-31,396100.0
2009-11-30,396500.0
2009-10-31,396200.0
2009-09-30,395300.0
2009-08-31,395100.0
2009-07-31,395800.0
2009-06-30,397400.0
2009-05-31,399600.0
2009-04-30,403600.0
2009-03-31,409200.0
2009-02-28,415300.0
2009-01-31,421300.0
2008-12-31,427200.0
2008-11-30,433200.0
2008-10-31,439500.0
2008-09-30,444600.0
2008-08-31,447500.0
2008-07-31,451400.0
2008-06-30,457200.0
2008-05-31,464800.0
2008-04-30,470600.0
2008-03-31,474100.0
2008-02-29,477500.0
2008-01-31,482000.0
2007-12-31,485700.0
2007-11-30,489400.0
2007-10-31,492300.0
2007-09-30,493700.0
2007-08-31,494800.0
2007-07-31,496200.0
2007-06-30,496100.0
2007-05-31,494400.0
2007-04-30,493200.0
2007-03-31,492400.0
2007-02-28,489800.0
2007-01-31,486100.0
2006-12-31,482300.0
2006-11-30,478100.0
2006-10-31,474900.0
2006-09-30,473800.0
2006-08-31,472100.0
2006-07-31,467700.0
2006-06-30,461200.0
2006-05-31,452600.0
2006-04-30,444100.0
2006-03-31,438300.0
2006-02-28,435100.0
2006-01-31,430500.0
2005-12-31,425100.0
2005-11-30,420700.0
2005-10-31,416700.0
2005-09-30,411200.0
2005-08-31,405100.0
2005-07-31,398800.0
2005-06-30,392300.0
2005-05-31,386900.0
2005-04-30,382900.0
2005-03-31,379600.0
2005-02-28,375400.0
2005-01-31,370800.0
2004-12-31,366600.0
2004-11-30,361900.0
2004-10-31,357100.0
2004-09-30,353400.0
2004-08-31,350300.0
2004-07-31,347300.0
2004-06-30,344700.0
2004-05-31,342000.0
2004-04-30,338100.0
2004-03-31,333800.0
2004-02-29,329900.0
2004-01-31,326600.0
2003-12-31,323900.0
2003-11-30,321200.0
2003-10-31,317900.0
2003-09-30,315000.0
2003-08-31,313300.0
2003-07-31,312300.0
2003-06-30,312300.0
2003-05-31,312400.0
2003-04-30,310600.0
2003-03-31,307200.0
2003-02-28,304600.0
2003-01-31,303300.0
2002-12-31,302200.0
2002-11-30,300800.0
2002-10-31,299300.0
2002-09-30,297700.0
2002-08-31,296200.0
2002-07-31,294900.0
2002-06-30,293300.0
2002-05-31,293000.0
2002-04-30,294200.0
2002-03-31,295000.0
2002-02-28,294000.0
2002-01-31,293300.0
2001-12-31,292900.0
2001-11-30,291400.0
2001-10-31,289200.0
2001-09-30,287400.0
2001-08-31,286400.0
2001-07-31,285700.0
2001-06-30,284500.0
2001-05-31,282600.0
2001-04-30,281400.0
2001-03-31,280100.0
2001-02-28,278400.0
2001-01-31,276600.0
2000-12-31,275300.0
2000-11-30,274900.0
2000-10-31,274700.0
2000-09-30,274000.0
2000-08-31,273000.0
2000-07-31,272500.0
2000-06-30,272400.0
2000-05-31,271300.0
2000-04-30,269200.0
2000-03-31,268000.0
2000-02-29,267300.0
2000-01-31,265000.0
1999-12-31,261800.0
1999-11-30,258900.0
1999-10-31,257200.0
1999-09-30,255600.0
1999-08-31,253900.0
1999-07-31,252500.0
1999-06-30,252100.0
1999-05-31,251700.0
1999-04-30,250900.0
1999-03-31,249700.0
1999-02-28,248200.0
1999-01-31,246700.0
1998-12-31,245000.0
1998-11-30,244300.0
1998-10-31,244100.0
1998-09-30,243000.0
1998-08-31,240500.0
1998-07-31,237500.0
1998-06-30,233400.0
1998-05-31,229300.0
1998-04-30,226200.0
1998-03-31,223900.0
1998-02-28,221600.0
1998-01-31,218900.0
1997-12-31,217000.0
1997-11-30,215200.0
1997-10-31,212600.0
1997-09-30,210100.0
1997-08-31,207700.0
1997-07-31,204600.0
1997-06-30,201500.0
1997-05-31,199500.0
1997-04-30,198200.0
1997-03-31,197700.0
1997-02-28,197400.0
1997-01-31,196700.0
1996-12-31,195500.0
1996-11-30,194200.0
1996-10-31,193200.0
1996-09-30,192100.0
1996-08-31,191400.0
1996-07-31,191300.0
1996-06-30,191500.0
1996-05-31,191400.0
1996-04-30,191400.0
