Date,Value
2015-09-30,226322.3077
2015-07-31,239117.6471
2015-06-30,238307.6923
2015-04-30,212911.7647
2014-09-30,198461.5385
2014-07-31,213952.5385
2014-05-31,210461.0
2013-07-31,227000.0
2011-06-30,227000.0
2010-04-30,215000.0
2009-11-30,198000.0
2008-09-30,227920.5882
2008-08-31,234950.0
2008-05-31,248115.3846
2008-03-31,242000.0
2007-10-31,276615.3846
2007-08-31,271410.0
2007-07-31,261765.0
2007-06-30,259400.0
2007-05-31,264292.0
2007-04-30,252174.1176
2007-03-31,265600.0
2007-01-31,267800.0
2006-12-31,236450.0
2006-11-30,238425.0
2006-10-31,241317.5
2006-09-30,243802.9412
2006-08-31,239576.9231
2006-06-30,232428.85
2006-05-31,252262.35
2006-04-30,242292.65
2006-03-31,241404.5
2006-02-28,261200.0
2006-01-31,249705.8824
2005-12-31,235000.0
2005-10-31,225722.5
2005-09-30,215817.5
2005-08-31,216725.0
2005-07-31,215957.5
2005-06-30,213870.0
2005-05-31,195880.0
2005-04-30,179525.0
2005-03-31,185588.2353
2005-02-28,190000.0
2004-11-30,173769.2308
2004-09-30,170275.0
2004-08-31,168940.0
2004-07-31,167792.95
2004-06-30,155258.55
2004-05-31,159681.5
2004-04-30,156000.0
2004-03-31,158494.1176
2004-02-29,153200.0
2003-10-31,153475.0
2003-09-30,157925.0
2003-08-31,152025.0
2003-07-31,148075.0
2003-06-30,154625.0
2003-05-31,158029.4118
2003-04-30,153869.2308
2003-02-28,135100.0
2002-11-30,140964.25
2002-10-31,138220.0
2002-09-30,137357.5
2002-08-31,134950.0
2002-07-31,138010.0
2002-06-30,132430.8
2002-05-31,130095.2
2002-04-30,127983.5294
2002-03-31,129000.0
2001-09-30,129967.0
2001-08-31,132137.0
2001-07-31,129707.8
2001-06-30,129750.75
2001-05-31,127635.2353
2001-04-30,123497.0
2000-10-31,132000.0
2000-06-30,139000.0
2000-03-31,119100.0
1999-05-31,117500.0
1998-07-31,112691.1765
1998-06-30,112250.0
