Date,Value
2015-02-28,269950.0
2015-01-31,258500.0
2014-12-31,275000.0
2014-11-30,255000.0
2014-10-31,270000.0
2014-09-30,289500.0
2014-08-31,299000.0
2014-07-31,299950.0
2014-06-30,289900.0
2014-05-31,274000.0
2014-04-30,262500.0
2014-03-31,258000.0
2014-02-28,285000.0
2014-01-31,270000.0
2013-12-31,264950.0
2013-11-30,249975.0
2013-10-31,270000.0
2013-09-30,275900.0
2013-08-31,280000.0
2013-07-31,259950.0
2013-06-30,260000.0
2013-05-31,259950.0
2013-04-30,234995.0
2013-03-31,220000.0
2013-02-28,225200.0
2013-01-31,220000.0
2012-12-31,229950.0
2012-11-30,220000.0
2012-10-31,219950.0
2012-09-30,209950.0
2012-08-31,203500.0
2012-07-31,193200.0
2012-06-30,193200.0
2012-05-31,189000.0
2012-04-30,185000.0
2012-03-31,179967.0
2012-02-29,179900.0
2012-01-31,185000.0
2011-12-31,189900.0
2011-11-30,189900.0
2011-10-31,199995.0
2011-09-30,210000.0
2011-08-31,225879.0
2011-07-31,219900.0
2011-06-30,219900.0
2011-05-31,209950.0
2011-04-30,209950.0
2011-03-31,209900.0
2011-02-28,207000.0
2011-01-31,200000.0
2010-12-31,209950.0
2010-11-30,215000.0
2010-10-31,230000.0
2010-09-30,237500.0
2010-08-31,240000.0
2010-07-31,239900.0
2010-06-30,239000.0
2010-05-31,242950.0
2010-04-30,239999.0
2010-03-31,239900.0
2010-02-28,239000.0
2010-01-31,239950.0
2009-12-31,254950.0
2009-11-30,254950.0
2009-10-31,254950.0
2009-09-30,255000.0
2009-08-31,253986.0
2009-07-31,259000.0
2009-06-30,269000.0
2009-05-31,275000.0
2009-04-30,275000.0
2009-03-31,265000.0
2009-02-28,275000.0
2009-01-31,275000.0
2008-12-31,279950.0
2008-11-30,288000.0
2008-10-31,299000.0
