Date,Value
2015-09-30,262800.0
2015-08-31,265500.0
2015-07-31,264300.0
2015-06-30,266900.0
2015-05-31,265300.0
2015-04-30,262200.0
2015-03-31,261900.0
2015-02-28,260800.0
2015-01-31,257500.0
2014-12-31,255300.0
2014-11-30,252700.0
2014-10-31,250800.0
2014-09-30,249700.0
2014-08-31,249100.0
2014-07-31,247900.0
2014-06-30,247100.0
2014-05-31,246400.0
2014-04-30,243500.0
2014-03-31,237600.0
2014-02-28,232400.0
2014-01-31,229900.0
2013-12-31,228200.0
2013-11-30,225500.0
2013-10-31,221700.0
2013-09-30,217900.0
2013-08-31,213200.0
2013-07-31,207100.0
2013-06-30,201300.0
2013-05-31,197500.0
2013-04-30,195700.0
2013-03-31,194500.0
2013-02-28,193300.0
2013-01-31,191900.0
2012-12-31,191000.0
2012-11-30,190400.0
2012-10-31,189800.0
2012-09-30,188000.0
2012-08-31,185100.0
2012-07-31,183400.0
2012-06-30,184000.0
2012-05-31,185200.0
2012-04-30,185000.0
2012-03-31,184000.0
2012-02-29,183600.0
2012-01-31,183400.0
2011-12-31,183300.0
2011-11-30,185300.0
2011-10-31,189400.0
2011-09-30,193900.0
2011-08-31,196800.0
2011-07-31,199600.0
2011-06-30,203000.0
2011-05-31,206900.0
2011-04-30,211500.0
2011-03-31,216400.0
2011-02-28,220100.0
2011-01-31,222400.0
2010-12-31,223800.0
2010-11-30,224700.0
2010-10-31,225800.0
2010-09-30,227200.0
2010-08-31,230200.0
2010-07-31,234200.0
2010-06-30,237000.0
2010-05-31,237600.0
2010-04-30,238000.0
2010-03-31,239200.0
2010-02-28,241300.0
2010-01-31,244000.0
2009-12-31,246100.0
2009-11-30,246700.0
2009-10-31,246300.0
2009-09-30,246700.0
2009-08-31,248600.0
2009-07-31,251300.0
2009-06-30,253900.0
2009-05-31,256600.0
2009-04-30,260600.0
2009-03-31,265400.0
2009-02-28,268900.0
2009-01-31,271300.0
2008-12-31,274700.0
2008-11-30,278800.0
2008-10-31,282200.0
2008-09-30,285200.0
2008-08-31,288100.0
2008-07-31,291100.0
2008-06-30,293800.0
2008-05-31,296200.0
2008-04-30,299100.0
2008-03-31,302200.0
2008-02-29,305300.0
2008-01-31,308100.0
2007-12-31,311100.0
2007-11-30,313800.0
2007-10-31,316100.0
2007-09-30,318400.0
2007-08-31,320200.0
2007-07-31,320400.0
2007-06-30,319700.0
2007-05-31,318400.0
2007-04-30,315700.0
2007-03-31,312300.0
2007-02-28,309600.0
2007-01-31,307800.0
2006-12-31,306500.0
2006-11-30,305500.0
2006-10-31,303800.0
2006-09-30,301800.0
2006-08-31,298400.0
2006-07-31,294000.0
2006-06-30,289200.0
2006-05-31,284900.0
2006-04-30,281100.0
2006-03-31,278000.0
2006-02-28,274900.0
2006-01-31,272500.0
2005-12-31,269300.0
2005-11-30,264900.0
2005-10-31,260400.0
2005-09-30,256900.0
2005-08-31,254000.0
2005-07-31,251600.0
2005-06-30,249000.0
2005-05-31,245900.0
2005-04-30,242600.0
2005-03-31,239100.0
2005-02-28,236400.0
2005-01-31,233400.0
2004-12-31,230500.0
2004-11-30,227500.0
2004-10-31,224400.0
2004-09-30,221700.0
2004-08-31,220100.0
2004-07-31,218300.0
2004-06-30,216800.0
2004-05-31,216000.0
2004-04-30,215300.0
2004-03-31,215000.0
2004-02-29,214400.0
2004-01-31,212800.0
2003-12-31,210400.0
2003-11-30,209300.0
2003-10-31,209000.0
2003-09-30,207400.0
2003-08-31,205500.0
2003-07-31,204500.0
2003-06-30,203800.0
2003-05-31,203500.0
2003-04-30,203400.0
2003-03-31,202200.0
2003-02-28,201300.0
2003-01-31,200900.0
2002-12-31,200700.0
2002-11-30,200600.0
2002-10-31,200300.0
2002-09-30,199900.0
2002-08-31,198800.0
2002-07-31,197000.0
2002-06-30,195300.0
2002-05-31,193900.0
2002-04-30,192600.0
2002-03-31,191700.0
2002-02-28,191200.0
2002-01-31,190900.0
2001-12-31,189700.0
2001-11-30,188300.0
2001-10-31,188000.0
2001-09-30,188200.0
2001-08-31,188000.0
2001-07-31,187900.0
2001-06-30,187400.0
2001-05-31,185600.0
2001-04-30,183900.0
2001-03-31,182600.0
2001-02-28,180800.0
2001-01-31,179400.0
2000-12-31,178400.0
2000-11-30,177300.0
2000-10-31,176500.0
2000-09-30,176600.0
2000-08-31,176300.0
2000-07-31,175900.0
2000-06-30,175600.0
2000-05-31,175500.0
2000-04-30,175200.0
2000-03-31,175500.0
2000-02-29,175800.0
2000-01-31,174900.0
1999-12-31,173500.0
1999-11-30,172200.0
1999-10-31,170800.0
1999-09-30,169000.0
1999-08-31,167900.0
1999-07-31,167400.0
1999-06-30,166900.0
1999-05-31,166700.0
1999-04-30,166400.0
1999-03-31,165400.0
1999-02-28,163600.0
1999-01-31,161600.0
1998-12-31,160400.0
1998-11-30,159900.0
1998-10-31,158400.0
1998-09-30,157100.0
1998-08-31,156300.0
1998-07-31,155400.0
1998-06-30,154100.0
1998-05-31,152700.0
1998-04-30,150900.0
1998-03-31,148800.0
1998-02-28,146400.0
1998-01-31,144900.0
1997-12-31,144500.0
1997-11-30,144100.0
1997-10-31,143100.0
1997-09-30,141400.0
1997-08-31,139500.0
1997-07-31,138200.0
1997-06-30,137700.0
1997-05-31,137200.0
1997-04-30,137100.0
1997-03-31,136900.0
1997-02-28,136200.0
1997-01-31,135600.0
1996-12-31,135900.0
1996-11-30,136100.0
1996-10-31,135700.0
1996-09-30,135500.0
1996-08-31,135400.0
1996-07-31,134900.0
1996-06-30,134700.0
1996-05-31,134900.0
1996-04-30,134600.0
