Date,Value
2015-09-30,209335.0
2015-08-31,216540.0
2015-07-31,211975.0
2015-06-30,212050.0
2015-05-31,225250.0
2015-04-30,218067.5
2015-02-28,213818.05
2014-12-31,177550.0
2014-11-30,194950.0
2014-10-31,197250.0
2014-09-30,197085.0
2014-08-31,202365.0
2014-07-31,193950.0
2014-06-30,204025.0
2014-05-31,196475.0
2014-04-30,204475.0
2014-03-31,220967.05
2014-02-28,223881.45
2014-01-31,224123.5
2013-12-31,216050.0
2013-11-30,195450.0
2013-10-31,187750.0
2013-09-30,195500.0
2013-08-31,194900.0
2013-07-31,201700.0
2013-06-30,198398.5
2013-05-31,210646.5
2013-04-30,188645.0
2013-03-31,188050.0
2013-02-28,195150.0
2013-01-31,190375.0
2012-12-31,194525.0
2012-11-30,180050.0
2012-10-31,180800.0
2012-09-30,190725.0
2012-08-31,188275.0
2012-07-31,191848.5
2012-06-30,188545.0
2012-05-31,189096.5
2012-04-30,178523.5294
2012-03-31,178923.0769
2011-11-30,181000.0
2011-10-31,190800.0
2011-09-30,175050.0
2011-08-31,172775.0
2011-07-31,173775.0
2011-06-30,176800.0
2011-05-31,186750.0
2011-04-30,199176.4706
2011-03-31,200846.1538
2011-01-31,198448.5
2010-12-31,216747.25
2010-11-30,198945.25
2010-10-31,207549.0
2010-09-30,180743.5
2010-08-31,185196.5
2010-07-31,185093.5
2010-06-30,185761.5
2010-05-31,173855.0
2010-04-30,178175.0
2010-03-31,184200.0
2010-02-28,196653.75
2010-01-31,197608.75
2009-12-31,196912.5
2009-11-30,195400.0
2009-10-31,197000.0
2009-09-30,197925.0
2009-08-31,201074.85
2009-07-31,203149.65
2009-06-30,192699.5
2009-05-31,193950.0
2009-04-30,189300.0
2009-03-31,183705.8824
2009-02-28,178769.2308
2008-12-31,178000.0
2008-09-30,183600.0
2008-08-31,199750.0
2008-07-31,216250.0
2008-06-30,219342.5
2008-05-31,221632.5
2008-04-30,206725.0
2008-03-31,197298.9
2008-02-29,206864.1
2008-01-31,218613.0
2007-12-31,253800.0
2007-11-30,234000.0
2007-10-31,226124.85
2007-09-30,228224.65
2007-08-31,233149.5
2007-07-31,233100.0
2007-06-30,232900.0
2007-05-31,225750.0
2007-04-30,226250.0
2007-03-31,215173.9
2007-02-28,187288.0
2007-01-31,204226.0
2006-12-31,217052.1
2006-11-30,220488.0
2006-10-31,224798.9
2006-09-30,226663.0
2006-08-31,224978.05
2006-07-31,217596.85
2006-06-30,197289.1
2006-05-31,189278.0
2006-04-30,179971.0
2006-03-31,179177.1
2006-02-28,187386.9
2006-01-31,178487.85
2005-12-31,186475.65
2005-11-30,181226.6
2005-10-31,186213.0
2005-09-30,182250.0
2005-08-31,184750.0
2005-07-31,185525.0
2005-06-30,179225.0
2005-05-31,155450.0
2005-04-30,149000.0
2005-03-31,132650.0
2005-02-28,143942.5
2005-01-31,159200.0
2004-12-31,158532.5
2004-11-30,156225.0
2004-10-31,159120.0
2004-09-30,160165.0
2004-08-31,160715.0
2004-07-31,159622.5
2004-06-30,153052.5
2004-05-31,147825.0
2004-04-30,139225.0
2004-03-31,136275.0
2004-02-29,146100.0
2004-01-31,146220.0
2003-12-31,144080.0
2003-11-30,130800.0
2003-10-31,152200.0
2003-09-30,149790.0
2003-08-31,160660.0
2003-07-31,153800.0
2003-06-30,143350.0
2003-05-31,141600.0
2003-04-30,139764.7059
2003-03-31,148000.0
2002-12-31,148100.0
2002-11-30,139550.0
2002-10-31,123062.5
2002-09-30,132147.5
2002-08-31,130840.0
2002-07-31,127200.0
2002-06-30,124500.0
2002-05-31,129050.0
2002-04-30,127225.0
2002-03-31,132725.0
2002-02-28,120350.0
2002-01-31,111400.0
2001-12-31,123263.75
2001-11-30,124223.75
2001-10-31,128387.5
2001-09-30,127500.0
2001-08-31,125725.0
2001-07-31,123075.0
2001-06-30,119100.0
2001-05-31,116670.0
2001-04-30,118682.3529
2001-03-31,138307.6923
2001-01-31,115900.0
2000-12-31,122100.0
2000-11-30,125250.0
2000-10-31,126150.0
2000-09-30,130635.0
2000-08-31,127965.0
2000-07-31,128650.0
2000-06-30,127425.0
2000-05-31,115325.0
2000-04-30,114100.0
2000-03-31,110400.0
2000-02-29,127900.0
2000-01-31,132700.0
1999-12-31,133500.0
1999-11-30,130650.0
1999-10-31,129050.0
1999-09-30,132450.0
1999-08-31,128350.0
1999-07-31,118500.0
1999-06-30,108800.0
1999-05-31,100150.0
1999-04-30,110650.0
1999-02-28,78000.0
