Date,Value
2015-09-30,278100.0
2015-08-31,278500.0
2015-07-31,275100.0
2015-06-30,274600.0
2015-05-31,272600.0
2015-04-30,270400.0
2015-03-31,268600.0
2015-02-28,267600.0
2015-01-31,264600.0
2014-12-31,264000.0
2014-11-30,263400.0
2014-10-31,262900.0
2014-09-30,262100.0
2014-08-31,261000.0
2014-07-31,259700.0
2014-06-30,257500.0
2014-05-31,254800.0
2014-04-30,253100.0
2014-03-31,252000.0
2014-02-28,251200.0
2014-01-31,250000.0
2013-12-31,248000.0
2013-11-30,245800.0
2013-10-31,244100.0
2013-09-30,241600.0
2013-08-31,238400.0
2013-07-31,235100.0
2013-06-30,232500.0
2013-05-31,230000.0
2013-04-30,227300.0
2013-03-31,225000.0
2013-02-28,223600.0
2013-01-31,222400.0
2012-12-31,220700.0
2012-11-30,218600.0
2012-10-31,216900.0
2012-09-30,216000.0
2012-08-31,215600.0
2012-07-31,215200.0
2012-06-30,214000.0
2012-05-31,211800.0
2012-04-30,208700.0
2012-03-31,205900.0
2012-02-29,204400.0
2012-01-31,204000.0
2011-12-31,203500.0
2011-11-30,203100.0
2011-10-31,203000.0
2011-09-30,202800.0
2011-08-31,202200.0
2011-07-31,201700.0
2011-06-30,201600.0
2011-05-31,202400.0
2011-04-30,204500.0
2011-03-31,207100.0
2011-02-28,209000.0
2011-01-31,210000.0
2010-12-31,211400.0
2010-11-30,212900.0
2010-10-31,214100.0
2010-09-30,215300.0
2010-08-31,216400.0
2010-07-31,217600.0
2010-06-30,219600.0
2010-05-31,221600.0
2010-04-30,222600.0
2010-03-31,223300.0
2010-02-28,223800.0
2010-01-31,224200.0
2009-12-31,224300.0
2009-11-30,224300.0
2009-10-31,223700.0
2009-09-30,224100.0
2009-08-31,225500.0
2009-07-31,227200.0
2009-06-30,228500.0
2009-05-31,231100.0
2009-04-30,234500.0
2009-03-31,237600.0
2009-02-28,239500.0
2009-01-31,240900.0
2008-12-31,243100.0
2008-11-30,246600.0
2008-10-31,250500.0
2008-09-30,253300.0
2008-08-31,256000.0
2008-07-31,259100.0
2008-06-30,262700.0
2008-05-31,266100.0
2008-04-30,269800.0
2008-03-31,272900.0
2008-02-29,275900.0
2008-01-31,279200.0
2007-12-31,282200.0
2007-11-30,284300.0
2007-10-31,286200.0
2007-09-30,288200.0
2007-08-31,290500.0
2007-07-31,292800.0
2007-06-30,294500.0
2007-05-31,295600.0
2007-04-30,296800.0
2007-03-31,297900.0
2007-02-28,299100.0
2007-01-31,300800.0
2006-12-31,302500.0
2006-11-30,303800.0
2006-10-31,304800.0
2006-09-30,306300.0
2006-08-31,307000.0
2006-07-31,307400.0
2006-06-30,306900.0
2006-05-31,305200.0
2006-04-30,302200.0
2006-03-31,298700.0
2006-02-28,294600.0
2006-01-31,290200.0
2005-12-31,285900.0
2005-11-30,281300.0
2005-10-31,276100.0
2005-09-30,269800.0
2005-08-31,262800.0
2005-07-31,256100.0
2005-06-30,250000.0
2005-05-31,244000.0
2005-04-30,238600.0
2005-03-31,234600.0
2005-02-28,231900.0
2005-01-31,229200.0
2004-12-31,226400.0
2004-11-30,223800.0
2004-10-31,221400.0
2004-09-30,219200.0
2004-08-31,217200.0
2004-07-31,214800.0
2004-06-30,212300.0
2004-05-31,210300.0
2004-04-30,207700.0
2004-03-31,204500.0
2004-02-29,201500.0
2004-01-31,198800.0
2003-12-31,196300.0
2003-11-30,194500.0
2003-10-31,192800.0
2003-09-30,191500.0
2003-08-31,190800.0
2003-07-31,190100.0
2003-06-30,189000.0
2003-05-31,188000.0
2003-04-30,187400.0
2003-03-31,186600.0
2003-02-28,185800.0
2003-01-31,185100.0
2002-12-31,184300.0
2002-11-30,183000.0
2002-10-31,181800.0
2002-09-30,180800.0
2002-08-31,179700.0
2002-07-31,178400.0
2002-06-30,177700.0
2002-05-31,177300.0
2002-04-30,177200.0
2002-03-31,177000.0
2002-02-28,176200.0
2002-01-31,175100.0
2001-12-31,174400.0
2001-11-30,173900.0
2001-10-31,173500.0
2001-09-30,173100.0
2001-08-31,173000.0
2001-07-31,173500.0
2001-06-30,174200.0
2001-05-31,174300.0
2001-04-30,173900.0
2001-03-31,173400.0
2001-02-28,173200.0
2001-01-31,173200.0
2000-12-31,172800.0
2000-11-30,171900.0
2000-10-31,171300.0
2000-09-30,171100.0
2000-08-31,170400.0
2000-07-31,169500.0
2000-06-30,168300.0
2000-05-31,166700.0
2000-04-30,165300.0
2000-03-31,164400.0
2000-02-29,163800.0
2000-01-31,163100.0
1999-12-31,162500.0
1999-11-30,162100.0
1999-10-31,162400.0
1999-09-30,162900.0
1999-08-31,162900.0
1999-07-31,162400.0
1999-06-30,161800.0
1999-05-31,161800.0
1999-04-30,162200.0
1999-03-31,163100.0
1999-02-28,163400.0
1999-01-31,162600.0
1998-12-31,161600.0
1998-11-30,161400.0
1998-10-31,161000.0
1998-09-30,160300.0
1998-08-31,159600.0
1998-07-31,158800.0
1998-06-30,158300.0
1998-05-31,158800.0
1998-04-30,160000.0
1998-03-31,161400.0
1998-02-28,162500.0
1998-01-31,162900.0
1997-12-31,162900.0
1997-11-30,163000.0
1997-10-31,162600.0
1997-09-30,161600.0
1997-08-31,161200.0
1997-07-31,161100.0
1997-06-30,161000.0
1997-05-31,161100.0
1997-04-30,160700.0
1997-03-31,159900.0
1997-02-28,158700.0
1997-01-31,157600.0
1996-12-31,157100.0
1996-11-30,156900.0
1996-10-31,156300.0
1996-09-30,155800.0
1996-08-31,155500.0
1996-07-31,155800.0
1996-06-30,155700.0
1996-05-31,154700.0
1996-04-30,152800.0
