Date,Value
2015-06-30,1100.0
2015-05-31,1017.0
2015-04-30,1067.0
2015-03-31,1075.0
2015-02-28,1050.0
2015-01-31,900.0
2014-12-31,900.0
2014-11-30,900.0
2014-10-31,888.0
2014-09-30,975.0
2014-08-31,1000.0
2014-07-31,1025.0
2014-06-30,841.0
2014-05-31,975.0
2014-04-30,900.0
2014-03-31,950.0
2014-02-28,825.0
2014-01-31,780.0
2013-12-31,795.0
2013-11-30,795.0
2013-10-31,850.0
2013-09-30,800.0
2013-08-31,795.0
2013-07-31,865.0
2013-06-30,850.0
2013-05-31,850.0
2013-04-30,899.0
2013-03-31,900.0
2013-02-28,775.0
2013-01-31,775.0
2012-12-31,800.0
2012-11-30,875.0
2012-10-31,900.0
2012-09-30,900.0
2012-08-31,950.0
2012-07-31,900.0
2012-06-30,895.0
2012-05-31,900.0
2012-04-30,950.0
2012-03-31,875.0
2012-02-29,900.0
2012-01-31,950.0
2011-12-31,1000.0
2011-11-30,1150.0
2011-10-31,1150.0
2011-09-30,1150.0
2011-08-31,1150.0
2011-07-31,1250.0
2011-06-30,1295.0
2011-05-31,1150.0
2011-04-30,750.0
2011-03-31,799.0
2011-02-28,765.0
2011-01-31,855.0
2010-12-31,850.0
2010-11-30,899.0
2010-10-31,849.0
2010-09-30,899.0
2010-08-31,850.0
2010-07-31,1250.0
2010-06-30,1467.0
2010-05-31,1467.0
2010-04-30,1195.0
2010-03-31,1550.0
2010-02-28,1467.0
