Date,Value
2015-09-30,339550.0
2015-08-31,358500.0
2015-07-31,344600.0
2015-06-30,337642.5
2015-05-31,335532.5
2015-04-30,333558.8235
2014-12-31,279000.0
2014-04-30,328500.0
2012-12-31,225000.0
2010-06-30,287909.0
2010-05-31,260486.4706
2010-04-30,256110.0
2009-11-30,266057.0
2009-10-31,262938.8235
2009-09-30,267280.0
2008-12-31,289000.0
2008-09-30,314432.6471
2008-08-31,331365.6923
2008-06-30,339832.8
2008-05-31,337822.95
2008-04-30,338457.55
2008-03-31,362113.5294
2008-02-29,400000.0
2007-11-30,340000.0
2007-08-31,361916.9
2007-07-31,377557.35
2007-06-30,387145.0
2007-05-31,373521.4615
2007-03-31,363682.75
2007-02-28,363825.2941
2007-01-31,362840.3077
2006-11-30,351064.7
2006-10-31,342747.85
2006-09-30,346041.65
2006-08-31,345917.0
2006-07-31,359750.0
2006-06-30,361365.5
2006-05-31,368442.05
2006-04-30,312948.55
2006-03-31,320468.1176
2006-02-28,344449.2308
2005-12-31,347296.1538
2005-10-31,364825.0
2005-09-30,406550.0
2005-08-31,400775.0
2005-07-31,325875.0
2005-06-30,336500.0
2005-05-31,300075.0
2005-04-30,304617.6471
2005-03-31,275500.0
2004-11-30,319042.5
2004-10-31,355488.2353
2004-09-30,307153.8462
2004-07-31,325539.3
2004-06-30,301149.0
2004-05-31,322117.6471
2004-04-30,306000.0
2004-02-29,266000.0
2003-09-30,287150.0
2003-08-31,261352.9412
2003-07-31,309000.0
2003-03-31,208180.0
2002-11-30,257941.1765
2002-10-31,246142.3077
2002-08-31,268088.2353
2002-07-31,275769.2308
2002-05-31,237647.0588
2002-04-30,270000.0
2001-11-30,245294.1176
2001-10-31,244653.8462
2001-08-31,213461.5385
2001-06-30,259877.5
2001-05-31,239825.0
2001-04-30,240000.0
2001-03-31,240000.0
2000-10-31,241923.0769
2000-08-31,243235.2941
2000-07-31,253384.6154
2000-05-31,245950.0
2000-04-30,243676.4706
2000-03-31,242500.0
1999-12-31,223823.5294
1999-11-30,222269.2308
1999-09-30,248150.0
1999-08-31,247000.0
1999-07-31,238425.0
1999-06-30,233925.0
1999-05-31,223900.0
1999-04-30,213675.0
1999-03-31,202735.2941
1999-02-28,210692.3077
1998-12-31,234391.1765
1998-11-30,216115.3846
1998-09-30,216232.5
1998-08-31,210467.5
1998-07-31,204982.5
1998-06-30,212200.0
1998-05-31,207382.3529
1998-04-30,186923.0769
1998-02-28,171153.8462
1997-12-31,220615.3846
1997-10-31,200732.5
1997-09-30,196225.0
1997-08-31,194350.0
1997-07-31,201352.9412
1997-06-30,196153.8462
1997-04-30,213000.0
1997-03-31,204615.3846
1997-01-31,217125.0
1996-12-31,216210.0
1996-11-30,202289.0
1996-10-31,202606.0
1996-09-30,220280.0
1996-08-31,211592.5
1996-07-31,200182.5
1996-06-30,174325.0
1996-05-31,177100.0
1996-04-30,163117.6471
