Date,Value
2015-09-30,148700.0
2015-08-31,150300.0
2015-07-31,151800.0
2015-06-30,155000.0
2015-05-31,160000.0
2015-04-30,163000.0
2015-03-31,164300.0
2015-02-28,163500.0
2015-01-31,160900.0
2014-12-31,160700.0
2014-11-30,159800.0
2014-10-31,158200.0
2014-09-30,156000.0
2014-08-31,153000.0
2014-07-31,149300.0
2014-06-30,146100.0
2014-05-31,142900.0
2014-04-30,139700.0
2014-03-31,138000.0
2014-02-28,138000.0
2014-01-31,138300.0
2013-12-31,137300.0
2013-11-30,136100.0
2013-10-31,135600.0
2013-09-30,135500.0
2013-08-31,134700.0
2013-07-31,133300.0
2013-06-30,131400.0
2013-05-31,130500.0
2013-04-30,130600.0
2013-03-31,129700.0
2013-02-28,128200.0
2013-01-31,127800.0
2012-12-31,127800.0
2012-11-30,126800.0
2012-10-31,126700.0
2012-09-30,127700.0
2012-08-31,129500.0
2012-07-31,131300.0
2012-06-30,132900.0
2012-05-31,134400.0
2012-04-30,136300.0
2012-03-31,138000.0
2012-02-29,139300.0
2012-01-31,140000.0
2011-12-31,142100.0
2011-11-30,146100.0
2011-10-31,148800.0
2011-09-30,149200.0
2011-08-31,148400.0
2011-07-31,148100.0
2011-06-30,149600.0
2011-05-31,153000.0
2011-04-30,155800.0
2011-03-31,157800.0
2011-02-28,159800.0
2011-01-31,161600.0
2010-12-31,162100.0
2010-11-30,162300.0
2010-10-31,163200.0
2010-09-30,164900.0
2010-08-31,167600.0
2010-07-31,170700.0
2010-06-30,173600.0
2010-05-31,176100.0
2010-04-30,178800.0
2010-03-31,180300.0
2010-02-28,180800.0
2010-01-31,181500.0
2009-12-31,183100.0
2009-11-30,184900.0
2009-10-31,186300.0
2009-09-30,186500.0
2009-08-31,185800.0
2009-07-31,187100.0
2009-06-30,189300.0
2009-05-31,189900.0
2009-04-30,189100.0
2009-03-31,189200.0
2009-02-28,190400.0
2009-01-31,192000.0
2008-12-31,193500.0
2008-11-30,194900.0
2008-10-31,196000.0
2008-09-30,197100.0
2008-08-31,198400.0
2008-07-31,199000.0
2008-06-30,198700.0
2008-05-31,197900.0
2008-04-30,197400.0
2008-03-31,198000.0
2008-02-29,199800.0
2008-01-31,201400.0
2007-12-31,202600.0
2007-11-30,203500.0
2007-10-31,204200.0
2007-09-30,205000.0
2007-08-31,206900.0
2007-07-31,208900.0
2007-06-30,209100.0
2007-05-31,208300.0
2007-04-30,208600.0
2007-03-31,208900.0
2007-02-28,207600.0
2007-01-31,205200.0
2006-12-31,203500.0
2006-11-30,202300.0
2006-10-31,200800.0
2006-09-30,199300.0
2006-08-31,197800.0
2006-07-31,196200.0
2006-06-30,195600.0
2006-05-31,195400.0
2006-04-30,194500.0
2006-03-31,193200.0
2006-02-28,192300.0
2006-01-31,191200.0
2005-12-31,188700.0
2005-11-30,184900.0
2005-10-31,180900.0
2005-09-30,177500.0
2005-08-31,173800.0
2005-07-31,169900.0
2005-06-30,166700.0
2005-05-31,164600.0
2005-04-30,162300.0
2005-03-31,159300.0
2005-02-28,156400.0
2005-01-31,154200.0
2004-12-31,152700.0
2004-11-30,150900.0
2004-10-31,149900.0
2004-09-30,150000.0
2004-08-31,150000.0
2004-07-31,149000.0
2004-06-30,147500.0
2004-05-31,145300.0
2004-04-30,142900.0
2004-03-31,141000.0
2004-02-29,139500.0
2004-01-31,138700.0
2003-12-31,138200.0
2003-11-30,138000.0
2003-10-31,137900.0
2003-09-30,138200.0
2003-08-31,138400.0
2003-07-31,138100.0
2003-06-30,137600.0
2003-05-31,137200.0
2003-04-30,136600.0
2003-03-31,136200.0
2003-02-28,136000.0
2003-01-31,134900.0
2002-12-31,133200.0
2002-11-30,132200.0
2002-10-31,131600.0
2002-09-30,130000.0
2002-08-31,127800.0
2002-07-31,126000.0
2002-06-30,124700.0
2002-05-31,123900.0
2002-04-30,124300.0
2002-03-31,125100.0
2002-02-28,124900.0
2002-01-31,124000.0
2001-12-31,123700.0
2001-11-30,123900.0
2001-10-31,123500.0
2001-09-30,122900.0
2001-08-31,122900.0
2001-07-31,123300.0
2001-06-30,123300.0
2001-05-31,123100.0
2001-04-30,122500.0
2001-03-31,121500.0
2001-02-28,120400.0
2001-01-31,119700.0
2000-12-31,119200.0
2000-11-30,118800.0
2000-10-31,118800.0
2000-09-30,118800.0
2000-08-31,118700.0
2000-07-31,118300.0
2000-06-30,117700.0
2000-05-31,116900.0
2000-04-30,115500.0
2000-03-31,114600.0
2000-02-29,114200.0
2000-01-31,114000.0
1999-12-31,113800.0
1999-11-30,114100.0
1999-10-31,114200.0
1999-09-30,113700.0
1999-08-31,113300.0
1999-07-31,113500.0
1999-06-30,113300.0
1999-05-31,112600.0
1999-04-30,112700.0
1999-03-31,112500.0
1999-02-28,111500.0
1999-01-31,110000.0
1998-12-31,109100.0
1998-11-30,107600.0
1998-10-31,105700.0
1998-09-30,103700.0
1998-08-31,102500.0
1998-07-31,101800.0
1998-06-30,101000.0
1998-05-31,100000.0
1998-04-30,99400.0
1998-03-31,99300.0
1998-02-28,99600.0
1998-01-31,100100.0
1997-12-31,100100.0
1997-11-30,99300.0
1997-10-31,98800.0
1997-09-30,99100.0
1997-08-31,98500.0
1997-07-31,96800.0
1997-06-30,96300.0
1997-05-31,96800.0
1997-04-30,96900.0
1997-03-31,96600.0
1997-02-28,96900.0
1997-01-31,97200.0
1996-12-31,96900.0
1996-11-30,96100.0
1996-10-31,95100.0
1996-09-30,94100.0
1996-08-31,93800.0
1996-07-31,94600.0
1996-06-30,95600.0
1996-05-31,96400.0
1996-04-30,96500.0
