Date,Value
2015-09-30,438100.0
2015-08-31,435000.0
2015-07-31,428700.0
2015-06-30,429400.0
2015-05-31,423900.0
2015-04-30,418800.0
2015-03-31,418600.0
2015-02-28,418300.0
2015-01-31,413400.0
2014-12-31,410900.0
2014-11-30,407500.0
2014-10-31,404600.0
2014-09-30,402800.0
2014-08-31,401600.0
2014-07-31,399900.0
2014-06-30,398500.0
2014-05-31,397900.0
2014-04-30,397500.0
2014-03-31,395400.0
2014-02-28,392400.0
2014-01-31,391300.0
2013-12-31,390400.0
2013-11-30,387900.0
2013-10-31,385100.0
2013-09-30,382800.0
2013-08-31,378000.0
2013-07-31,371400.0
2013-06-30,365100.0
2013-05-31,360100.0
2013-04-30,356100.0
2013-03-31,354500.0
2013-02-28,354200.0
2013-01-31,351300.0
2012-12-31,346400.0
2012-11-30,342400.0
2012-10-31,339000.0
2012-09-30,334900.0
2012-08-31,331900.0
2012-07-31,330600.0
2012-06-30,330100.0
2012-05-31,328100.0
2012-04-30,323800.0
2012-03-31,317900.0
2012-02-29,312300.0
2012-01-31,308000.0
2011-12-31,306500.0
2011-11-30,307900.0
2011-10-31,310300.0
2011-09-30,312200.0
2011-08-31,314400.0
2011-07-31,317000.0
2011-06-30,319100.0
2011-05-31,320800.0
2011-04-30,323500.0
2011-03-31,326200.0
2011-02-28,328200.0
2011-01-31,330200.0
2010-12-31,332400.0
2010-11-30,334100.0
2010-10-31,335600.0
2010-09-30,337000.0
2010-08-31,338700.0
2010-07-31,341200.0
2010-06-30,342700.0
2010-05-31,343200.0
2010-04-30,344000.0
2010-03-31,346300.0
2010-02-28,348700.0
2010-01-31,350800.0
2009-12-31,351900.0
2009-11-30,352200.0
2009-10-31,352200.0
2009-09-30,354000.0
2009-08-31,356500.0
2009-07-31,359000.0
2009-06-30,362000.0
2009-05-31,366400.0
2009-04-30,371200.0
2009-03-31,375800.0
2009-02-28,379100.0
2009-01-31,381400.0
2008-12-31,384600.0
2008-11-30,388100.0
2008-10-31,390700.0
2008-09-30,393200.0
2008-08-31,396500.0
2008-07-31,399800.0
2008-06-30,403500.0
2008-05-31,406900.0
2008-04-30,410100.0
2008-03-31,412800.0
2008-02-29,415100.0
2008-01-31,416900.0
2007-12-31,418800.0
2007-11-30,421400.0
2007-10-31,424600.0
2007-09-30,426400.0
2007-08-31,426200.0
2007-07-31,424800.0
2007-06-30,423200.0
2007-05-31,421900.0
2007-04-30,420000.0
2007-03-31,417600.0
2007-02-28,416000.0
2007-01-31,416200.0
2006-12-31,417000.0
2006-11-30,416500.0
2006-10-31,414000.0
2006-09-30,410900.0
2006-08-31,407900.0
2006-07-31,404900.0
2006-06-30,401900.0
2006-05-31,399100.0
2006-04-30,394800.0
2006-03-31,389000.0
2006-02-28,383100.0
2006-01-31,378000.0
2005-12-31,372800.0
2005-11-30,367400.0
2005-10-31,362300.0
2005-09-30,357800.0
2005-08-31,353200.0
2005-07-31,348200.0
2005-06-30,342400.0
2005-05-31,335900.0
2005-04-30,331800.0
2005-03-31,330500.0
2005-02-28,330000.0
2005-01-31,327800.0
2004-12-31,324300.0
2004-11-30,320400.0
2004-10-31,317700.0
2004-09-30,315300.0
2004-08-31,311900.0
2004-07-31,307400.0
2004-06-30,302900.0
2004-05-31,299100.0
2004-04-30,294900.0
2004-03-31,291200.0
2004-02-29,288400.0
2004-01-31,285800.0
2003-12-31,282800.0
2003-11-30,280900.0
2003-10-31,279000.0
2003-09-30,276300.0
2003-08-31,273800.0
2003-07-31,272500.0
2003-06-30,271800.0
2003-05-31,271400.0
2003-04-30,270500.0
2003-03-31,269100.0
2003-02-28,267500.0
2003-01-31,266300.0
2002-12-31,265200.0
2002-11-30,263900.0
2002-10-31,262200.0
2002-09-30,261200.0
2002-08-31,261400.0
2002-07-31,261600.0
2002-06-30,261900.0
2002-05-31,262300.0
2002-04-30,262300.0
2002-03-31,261600.0
2002-02-28,260400.0
2002-01-31,259100.0
2001-12-31,257600.0
2001-11-30,256200.0
2001-10-31,254800.0
2001-09-30,253700.0
2001-08-31,253500.0
2001-07-31,253500.0
2001-06-30,252600.0
2001-05-31,251200.0
2001-04-30,250200.0
2001-03-31,248800.0
2001-02-28,246700.0
2001-01-31,244800.0
2000-12-31,243500.0
2000-11-30,242100.0
2000-10-31,240600.0
2000-09-30,238900.0
2000-08-31,236800.0
2000-07-31,235000.0
2000-06-30,234100.0
2000-05-31,233400.0
2000-04-30,232400.0
2000-03-31,231500.0
2000-02-29,230300.0
2000-01-31,229100.0
1999-12-31,228100.0
1999-11-30,227400.0
1999-10-31,225900.0
1999-09-30,224000.0
1999-08-31,222400.0
1999-07-31,220900.0
1999-06-30,219300.0
1999-05-31,217700.0
1999-04-30,215900.0
1999-03-31,213900.0
1999-02-28,212000.0
1999-01-31,210700.0
1998-12-31,209800.0
1998-11-30,209100.0
1998-10-31,209100.0
1998-09-30,208800.0
1998-08-31,207600.0
1998-07-31,205800.0
1998-06-30,203800.0
1998-05-31,201400.0
1998-04-30,199200.0
1998-03-31,197000.0
1998-02-28,194900.0
1998-01-31,192600.0
1997-12-31,190300.0
1997-11-30,188300.0
1997-10-31,187000.0
1997-09-30,185800.0
1997-08-31,184300.0
1997-07-31,182800.0
1997-06-30,181700.0
1997-05-31,181000.0
1997-04-30,180400.0
1997-03-31,179400.0
1997-02-28,178300.0
1997-01-31,177500.0
1996-12-31,176600.0
1996-11-30,175600.0
1996-10-31,174800.0
1996-09-30,174500.0
1996-08-31,174400.0
1996-07-31,174300.0
1996-06-30,174200.0
1996-05-31,174300.0
1996-04-30,174500.0
