Date,Value
2015-09-30,1.108
2015-08-31,1.1
2015-07-31,1.092
2015-06-30,1.086
2015-05-31,1.08
2015-04-30,1.072
2015-03-31,1.068
2015-02-28,1.062
2015-01-31,1.06
2014-12-31,1.056
2014-11-30,1.054
2014-10-31,1.05
2014-09-30,1.048
2014-08-31,1.044
2014-07-31,1.036
2014-06-30,1.028
2014-05-31,1.022
2014-04-30,1.016
2014-03-31,1.014
2014-02-28,1.01
2014-01-31,1.01
2013-12-31,1.01
2013-11-30,1.004
2013-10-31,0.99
2013-09-30,0.978
2013-08-31,0.966
2013-07-31,0.958
2013-06-30,0.952
2013-05-31,0.95
2013-04-30,0.948
2013-03-31,0.942
2013-02-28,0.936
2013-01-31,0.93
2012-12-31,0.924
2012-11-30,0.924
2012-10-31,0.92
2012-09-30,0.92
2012-08-31,0.92
2012-07-31,0.92
2012-06-30,0.922
2012-05-31,0.922
2012-04-30,0.922
2012-03-31,0.92
2012-02-29,0.918
2012-01-31,0.914
2011-12-31,0.91
2011-11-30,0.908
2011-10-31,0.906
2011-09-30,0.908
2011-08-31,0.912
2011-07-31,0.914
2011-06-30,0.908
2011-05-31,0.904
2011-04-30,0.9
2011-03-31,0.898
2011-02-28,0.894
2011-01-31,0.89
2010-12-31,0.884
2010-11-30,0.878
