Date,Value
2015-08-31,219000.0
2015-07-31,216000.0
2015-06-30,216300.0
2015-05-31,215300.0
2015-04-30,215700.0
2015-03-31,216500.0
2015-02-28,217700.0
2015-01-31,216100.0
2014-12-31,214700.0
2014-11-30,213800.0
2014-10-31,214100.0
2014-09-30,213200.0
2014-08-31,208600.0
2014-07-31,203700.0
2014-06-30,201200.0
2014-05-31,200000.0
2014-04-30,196800.0
2014-03-31,192700.0
2014-02-28,190200.0
2014-01-31,190200.0
2013-12-31,188900.0
2013-11-30,185700.0
2013-10-31,182700.0
2013-09-30,179600.0
2013-08-31,174900.0
2013-07-31,168500.0
2013-06-30,160700.0
2013-05-31,153900.0
2013-04-30,149900.0
2013-03-31,148000.0
2013-02-28,146900.0
2013-01-31,146800.0
2012-12-31,146400.0
2012-11-30,145500.0
2012-10-31,145100.0
2012-09-30,146600.0
2012-08-31,152400.0
2012-07-31,160500.0
2012-06-30,166200.0
2012-05-31,167400.0
2012-04-30,164300.0
2012-03-31,158800.0
2012-02-29,154900.0
2012-01-31,153000.0
2011-12-31,153400.0
2011-11-30,156100.0
2011-10-31,159000.0
2011-09-30,162300.0
2011-08-31,165800.0
2011-07-31,169000.0
2011-06-30,171700.0
2011-05-31,174600.0
2011-04-30,177900.0
2011-03-31,181800.0
2011-02-28,185500.0
2011-01-31,187800.0
2010-12-31,188800.0
2010-11-30,189100.0
2010-10-31,189800.0
2010-09-30,190100.0
2010-08-31,190000.0
2010-07-31,190800.0
2010-06-30,193300.0
2010-05-31,196700.0
2010-04-30,201000.0
2010-03-31,204200.0
2010-02-28,205500.0
2010-01-31,206400.0
2009-12-31,208000.0
2009-11-30,208600.0
2009-10-31,209000.0
2009-09-30,209900.0
2009-08-31,210800.0
2009-07-31,211000.0
2009-06-30,211100.0
2009-05-31,211700.0
2009-04-30,213500.0
2009-03-31,217700.0
2009-02-28,222000.0
2009-01-31,225600.0
2008-12-31,229000.0
2008-11-30,232200.0
2008-10-31,234400.0
2008-09-30,235900.0
2008-08-31,236700.0
2008-07-31,237400.0
2008-06-30,238200.0
2008-05-31,239300.0
2008-04-30,241000.0
2008-03-31,243000.0
2008-02-29,245300.0
2008-01-31,247700.0
2007-12-31,249500.0
2007-11-30,251500.0
2007-10-31,253600.0
2007-09-30,255400.0
2007-08-31,256600.0
2007-07-31,257500.0
2007-06-30,257300.0
2007-05-31,256300.0
2007-04-30,254900.0
2007-03-31,253100.0
2007-02-28,251100.0
2007-01-31,249500.0
2006-12-31,247900.0
2006-11-30,245400.0
2006-10-31,242600.0
2006-09-30,240300.0
2006-08-31,238000.0
2006-07-31,235000.0
2006-06-30,232900.0
2006-05-31,232100.0
2006-04-30,231500.0
2006-03-31,229700.0
2006-02-28,227200.0
2006-01-31,224100.0
2005-12-31,220300.0
2005-11-30,215900.0
2005-10-31,211900.0
2005-09-30,208200.0
2005-08-31,204500.0
2005-07-31,201300.0
2005-06-30,198600.0
2005-05-31,195600.0
2005-04-30,192900.0
2005-03-31,190500.0
2005-02-28,188100.0
2005-01-31,185400.0
2004-12-31,183000.0
2004-11-30,181600.0
2004-10-31,180200.0
2004-09-30,178500.0
2004-08-31,177500.0
2004-07-31,177100.0
2004-06-30,176500.0
2004-05-31,175100.0
2004-04-30,173100.0
2004-03-31,171300.0
2004-02-29,170300.0
2004-01-31,169500.0
2003-12-31,168600.0
2003-11-30,168300.0
2003-10-31,167600.0
2003-09-30,166200.0
2003-08-31,165600.0
2003-07-31,165600.0
2003-06-30,165500.0
2003-05-31,165700.0
2003-04-30,165700.0
2003-03-31,165100.0
2003-02-28,164900.0
2003-01-31,165200.0
2002-12-31,165200.0
2002-11-30,164900.0
2002-10-31,165300.0
2002-09-30,165400.0
2002-08-31,163800.0
2002-07-31,161000.0
2002-06-30,159500.0
2002-05-31,158900.0
2002-04-30,158500.0
2002-03-31,158100.0
2002-02-28,157200.0
2002-01-31,156100.0
2001-12-31,155300.0
2001-11-30,154400.0
2001-10-31,153400.0
2001-09-30,152700.0
2001-08-31,152700.0
2001-07-31,152800.0
2001-06-30,152400.0
2001-05-31,151800.0
2001-04-30,151200.0
2001-03-31,150900.0
2001-02-28,150400.0
2001-01-31,150000.0
2000-12-31,149900.0
2000-11-30,149700.0
2000-10-31,149000.0
2000-09-30,148600.0
2000-08-31,148300.0
2000-07-31,148300.0
2000-06-30,148400.0
2000-05-31,148400.0
2000-04-30,148100.0
2000-03-31,147700.0
2000-02-29,147300.0
2000-01-31,146700.0
1999-12-31,146000.0
1999-11-30,145000.0
1999-10-31,144200.0
1999-09-30,143800.0
1999-08-31,143700.0
1999-07-31,143100.0
1999-06-30,142300.0
1999-05-31,141400.0
1999-04-30,140300.0
1999-03-31,139200.0
1999-02-28,138400.0
1999-01-31,137600.0
1998-12-31,136900.0
1998-11-30,135800.0
1998-10-31,134900.0
1998-09-30,134600.0
1998-08-31,134700.0
1998-07-31,134700.0
1998-06-30,134300.0
1998-05-31,133000.0
1998-04-30,131800.0
1998-03-31,131500.0
1998-02-28,131200.0
1998-01-31,130500.0
1997-12-31,129800.0
1997-11-30,129800.0
1997-10-31,130300.0
1997-09-30,130100.0
1997-08-31,128700.0
1997-07-31,126700.0
1997-06-30,124500.0
1997-05-31,123100.0
1997-04-30,123300.0
1997-03-31,123800.0
1997-02-28,123300.0
1997-01-31,122300.0
1996-12-31,121800.0
1996-11-30,122700.0
1996-10-31,123600.0
1996-09-30,123500.0
1996-08-31,123600.0
1996-07-31,124300.0
1996-06-30,124800.0
1996-05-31,125100.0
1996-04-30,125200.0
