Date,Value
2015-08-31,201000.0
2015-05-31,202823.5294
2014-10-31,119999.7692
2014-08-31,199999.0
2014-05-31,162000.0
2013-09-30,195890.0
2013-08-31,190750.0
2013-07-31,212647.0588
2013-06-30,226533.3846
2013-03-31,248280.0
2012-09-30,183280.0
2010-07-31,195000.0
2009-09-30,175280.0
2008-08-31,216280.0
2008-05-31,210280.0
2007-10-31,169356.9231
2007-08-31,204065.0
2007-07-31,178203.0
2007-06-30,173635.2941
2007-05-31,150000.0
2006-09-30,171730.0
2006-08-31,182397.5
2006-07-31,176395.5
2006-06-30,171832.0
2006-05-31,139215.0
2006-04-30,142927.0588
2006-03-31,140280.0
2005-11-30,144005.0
2005-09-30,170272.5
2005-07-31,144573.5
2005-06-30,125336.5
2005-05-31,112895.0
2005-01-31,129030.8462
2004-11-30,124205.3846
2004-09-30,128090.0
2004-08-31,124225.0
2004-07-31,118941.1765
2004-06-30,121000.0
2004-03-31,123000.0
2003-09-30,111411.7647
2003-08-31,92000.0
2002-09-30,124600.0
2001-09-30,157000.0
2000-08-31,97647.0588
2000-07-31,115000.0
1999-07-31,102092.3077
1999-05-31,122400.0
1998-07-31,123750.0
1998-06-30,117875.0
1998-05-31,111029.4118
1998-04-30,112500.0
1997-10-31,69000.0
1997-05-31,85294.1176
1997-04-30,100000.0
1996-05-31,78000.0
