Date,Value
2015-08-31,148215.0
2015-07-31,145250.0
2014-12-31,187153.8462
2014-10-31,151100.0
2014-09-30,155692.0
2014-08-31,134398.0
2014-07-31,141215.0
2014-06-30,154052.0
2014-05-31,143588.0
2014-04-30,127252.9412
2014-03-31,114500.0
2013-10-31,146278.0
2013-09-30,130777.5
2013-08-31,132975.0
2013-07-31,134025.0
2013-06-30,137850.0
2013-05-31,139600.0
2013-04-30,147882.3529
2013-03-31,163292.3077
2013-01-31,158417.6471
2012-10-31,131538.4615
2012-08-31,120917.0
2012-07-31,127000.0
2012-04-30,167000.0
2011-11-30,129939.25
2011-10-31,136027.5
2011-09-30,124117.6471
2011-08-31,114153.8462
2011-06-30,125046.1538
2011-04-30,118823.5294
2011-03-31,124000.0
2010-11-30,128327.5882
2010-10-31,112205.3846
2010-08-31,125125.0
2010-07-31,155825.0
2010-06-30,162385.0
2010-05-31,156100.0
2010-04-30,158723.5294
2010-03-31,138000.0
2010-01-31,151350.0
2009-12-31,142875.0
2009-11-30,153264.7059
2009-10-31,162692.3077
2009-08-31,151250.0
2009-07-31,155294.1176
2009-06-30,170000.0
2008-12-31,161175.0
2008-11-30,173400.0
2008-10-31,179030.0
2008-09-30,175220.0
2008-08-31,164050.0
2008-07-31,190000.0
2008-06-30,181153.8462
2008-04-30,182529.4118
2008-03-31,169423.0769
2008-01-31,161950.0
2007-12-31,184450.0
2007-11-30,174750.0
2007-10-31,188250.0
2007-09-30,178025.0
2007-08-31,182425.0
2007-07-31,185300.0
2007-06-30,185007.5
2007-05-31,181817.5
2007-04-30,176075.0
2007-03-31,169900.0
2007-02-28,153080.0
2007-01-31,157020.0
2006-12-31,168300.0
2006-11-30,177230.0
2006-10-31,171920.0
2006-09-30,168525.0
2006-08-31,169575.0
2006-07-31,169500.0
2006-06-30,154950.0
2006-05-31,156049.1
2006-04-30,146347.9
2006-03-31,142397.0
2006-02-28,139250.0
2006-01-31,138250.0
2005-12-31,146375.0
2005-11-30,146250.0
2005-10-31,141375.0
2005-09-30,142500.0
2005-08-31,142400.0
2005-07-31,141350.0
2005-06-30,124175.0
2005-05-31,127625.0
2005-04-30,134930.0
2005-03-31,127520.0
2005-02-28,118400.0
2005-01-31,133035.0
2004-12-31,132200.0
2004-11-30,132540.0
2004-10-31,126700.0
2004-09-30,115850.0
2004-08-31,123650.0
2004-07-31,118175.0
2004-06-30,117150.0
2004-05-31,111425.0
2004-04-30,120725.0
2004-03-31,111900.0
2004-02-29,93500.0
2003-12-31,120215.0
2003-11-30,124535.0
2003-10-31,121600.0
2003-09-30,120700.0
2003-08-31,108900.0
2003-07-31,94100.0
2003-06-30,95600.0
2003-05-31,93235.0
2003-04-30,94631.55
2003-03-31,97616.95
2003-02-28,108893.5
2003-01-31,116250.0
2002-12-31,113750.0
2002-11-30,106200.0
2002-10-31,112575.0
2002-09-30,104425.0
2002-08-31,105500.0
2002-07-31,98775.0
2002-06-30,94925.0
2002-05-31,100600.0
2002-04-30,99725.0
2002-03-31,93575.0
2002-02-28,89400.0
2002-01-31,98435.0
2001-12-31,105265.0
2001-11-30,99550.0
2001-10-31,94375.0
2001-09-30,89665.0
2001-08-31,82160.0
2001-07-31,86870.0
2001-06-30,92640.6
2001-05-31,87466.4
2001-04-30,78227.0
2001-03-31,84764.7059
2001-02-28,87092.3077
2000-12-31,106675.0
2000-11-30,98300.0
2000-10-31,99675.0
2000-09-30,103575.0
2000-08-31,88875.0
2000-07-31,88225.0
2000-06-30,94475.0
2000-05-31,100675.0
2000-03-31,71423.0769
2000-01-31,74692.3077
1999-11-30,82875.0
1999-10-31,81275.0
1999-09-30,95350.0
1999-08-31,105550.0
1999-07-31,95575.0
1999-06-30,98970.5882
1999-05-31,84615.3846
1999-03-31,75000.0
1998-09-30,84941.1765
1998-08-31,82000.0
