Date,Value
2015-06-30,675.0
2015-05-31,650.0
2015-04-30,600.0
2015-03-31,695.0
2015-02-28,625.0
2015-01-31,650.0
2014-12-31,625.0
2014-11-30,675.0
2014-10-31,675.0
2014-09-30,675.0
2014-08-31,695.0
2014-07-31,675.0
2014-06-30,650.0
2014-05-31,650.0
2014-04-30,740.0
2014-03-31,875.0
2014-02-28,750.0
2014-01-31,795.0
2013-12-31,750.0
2013-11-30,775.0
2013-10-31,675.0
2013-09-30,675.0
2013-08-31,725.0
2013-07-31,725.0
2013-06-30,675.0
2013-05-31,730.0
2013-04-30,730.0
2013-03-31,750.0
2013-02-28,730.0
2013-01-31,718.0
2012-12-31,775.0
2012-11-30,825.0
2012-10-31,800.0
2012-09-30,800.0
2012-08-31,778.0
2012-07-31,725.0
2012-06-30,695.0
2012-05-31,795.0
2012-04-30,625.0
2012-03-31,595.0
2012-02-29,700.0
2012-01-31,795.0
2011-12-31,795.0
2011-11-30,750.0
2011-10-31,750.0
2011-09-30,725.0
2011-08-31,695.0
2011-07-31,650.0
2011-06-30,750.0
2011-05-31,750.0
2011-04-30,700.0
2011-03-31,695.0
2011-02-28,695.0
2011-01-31,595.0
2010-12-31,660.0
2010-09-30,1600.0
2010-08-31,1500.0
2010-06-30,1500.0
2010-05-31,1600.0
