Date,Value
2015-09-30,142600.0
2015-08-31,141400.0
2015-07-31,141700.0
2015-06-30,145400.0
2015-05-31,148000.0
2015-04-30,145900.0
2015-03-31,145300.0
2015-02-28,143700.0
2015-01-31,141200.0
2014-12-31,141600.0
2014-11-30,141800.0
2014-10-31,140700.0
2014-09-30,139400.0
2014-08-31,140400.0
2014-07-31,142800.0
2014-06-30,144700.0
2014-05-31,146400.0
2014-04-30,146900.0
2014-03-31,146600.0
2014-02-28,146800.0
2014-01-31,146900.0
2013-12-31,145900.0
2013-11-30,144900.0
2013-10-31,144300.0
2013-09-30,143900.0
2013-08-31,143300.0
2013-07-31,142400.0
2013-06-30,141100.0
2013-05-31,139100.0
2013-04-30,137700.0
2013-03-31,137500.0
2013-02-28,137100.0
2013-01-31,137000.0
2012-12-31,137600.0
2012-11-30,138200.0
2012-10-31,138600.0
2012-09-30,138400.0
2012-08-31,137600.0
2012-07-31,137000.0
2012-06-30,136500.0
2012-05-31,135700.0
2012-04-30,134900.0
2012-03-31,134600.0
2012-02-29,134900.0
2012-01-31,135300.0
2011-12-31,135300.0
2011-11-30,135300.0
2011-10-31,135600.0
2011-09-30,136000.0
2011-08-31,136600.0
2011-07-31,137200.0
2011-06-30,138100.0
2011-05-31,139100.0
2011-04-30,140400.0
2011-03-31,141300.0
2011-02-28,141400.0
2011-01-31,141500.0
2010-12-31,142000.0
2010-11-30,142100.0
2010-10-31,142100.0
2010-09-30,141900.0
2010-08-31,141800.0
2010-07-31,142800.0
2010-06-30,144300.0
2010-05-31,145300.0
2010-04-30,145400.0
2010-03-31,144900.0
2010-02-28,144200.0
2010-01-31,143600.0
2009-12-31,143300.0
2009-11-30,143500.0
2009-10-31,144200.0
2009-09-30,145800.0
2009-08-31,147300.0
2009-07-31,148100.0
2009-06-30,148100.0
2009-05-31,148100.0
2009-04-30,148300.0
2009-03-31,148700.0
2009-02-28,149000.0
2009-01-31,149800.0
2008-12-31,151000.0
2008-11-30,151800.0
2008-10-31,151900.0
2008-09-30,152400.0
2008-08-31,153300.0
2008-07-31,153200.0
2008-06-30,152000.0
2008-05-31,151000.0
2008-04-30,150000.0
2008-03-31,149500.0
2008-02-29,149500.0
2008-01-31,149700.0
2007-12-31,149200.0
2007-11-30,149000.0
2007-10-31,149400.0
2007-09-30,148800.0
2007-08-31,147100.0
2007-07-31,145300.0
2007-06-30,144300.0
2007-05-31,143400.0
2007-04-30,142800.0
2007-03-31,143000.0
2007-02-28,144300.0
2007-01-31,145400.0
2006-12-31,145600.0
2006-11-30,144900.0
2006-10-31,143800.0
2006-09-30,142800.0
2006-08-31,142200.0
2006-07-31,141400.0
2006-06-30,140800.0
2006-05-31,141300.0
2006-04-30,141900.0
2006-03-31,141200.0
2006-02-28,139900.0
2006-01-31,138100.0
2005-12-31,136600.0
2005-11-30,136000.0
2005-10-31,135800.0
2005-09-30,135500.0
2005-08-31,135100.0
2005-07-31,134700.0
2005-06-30,134400.0
2005-05-31,134200.0
2005-04-30,134700.0
2005-03-31,136100.0
2005-02-28,136800.0
2005-01-31,136000.0
2004-12-31,134400.0
2004-11-30,132900.0
2004-10-31,131300.0
2004-09-30,130000.0
2004-08-31,129100.0
2004-07-31,128300.0
2004-06-30,127600.0
2004-05-31,126800.0
2004-04-30,125900.0
2004-03-31,124200.0
2004-02-29,121800.0
2004-01-31,120100.0
2003-12-31,119700.0
2003-11-30,120000.0
2003-10-31,120300.0
2003-09-30,120800.0
2003-08-31,120700.0
2003-07-31,120100.0
2003-06-30,119600.0
2003-05-31,119100.0
2003-04-30,118100.0
2003-03-31,117900.0
2003-02-28,118400.0
2003-01-31,119600.0
2002-12-31,120600.0
2002-11-30,120500.0
2002-10-31,119200.0
2002-09-30,118100.0
2002-08-31,117800.0
2002-07-31,118200.0
2002-06-30,118400.0
2002-05-31,117800.0
2002-04-30,116900.0
2002-03-31,116000.0
2002-02-28,115400.0
2002-01-31,115300.0
2001-12-31,115500.0
2001-11-30,116100.0
2001-10-31,117400.0
2001-09-30,118400.0
2001-08-31,118900.0
2001-07-31,119300.0
2001-06-30,120200.0
2001-05-31,120700.0
2001-04-30,120500.0
2001-03-31,119800.0
2001-02-28,118900.0
2001-01-31,117400.0
2000-12-31,115900.0
2000-11-30,115000.0
2000-10-31,114000.0
2000-09-30,113200.0
2000-08-31,112400.0
2000-07-31,111600.0
2000-06-30,110500.0
2000-05-31,110700.0
2000-04-30,111600.0
2000-03-31,112000.0
2000-02-29,112100.0
2000-01-31,112700.0
1999-12-31,113000.0
1999-11-30,113000.0
1999-10-31,113400.0
1999-09-30,113700.0
1999-08-31,113900.0
1999-07-31,114100.0
1999-06-30,114500.0
1999-05-31,114700.0
1999-04-30,114600.0
1999-03-31,114300.0
1999-02-28,114400.0
1999-01-31,114500.0
1998-12-31,114200.0
1998-11-30,113600.0
1998-10-31,113400.0
1998-09-30,112900.0
1998-08-31,113000.0
1998-07-31,113300.0
1998-06-30,113400.0
1998-05-31,113900.0
1998-04-30,114600.0
1998-03-31,115200.0
1998-02-28,115800.0
1998-01-31,116300.0
1997-12-31,115900.0
1997-11-30,115600.0
1997-10-31,115400.0
1997-09-30,115000.0
1997-08-31,114100.0
1997-07-31,113100.0
1997-06-30,112000.0
1997-05-31,110500.0
1997-04-30,109300.0
1997-03-31,108900.0
1997-02-28,107600.0
1997-01-31,105800.0
1996-12-31,105700.0
1996-11-30,106200.0
1996-10-31,105600.0
1996-09-30,105200.0
1996-08-31,105100.0
1996-07-31,105300.0
1996-06-30,105100.0
1996-05-31,103700.0
1996-04-30,102200.0
