Date,Value
2015-02-28,299900.0
2015-01-31,300000.0
2014-12-31,299500.0
2014-11-30,300000.0
2014-10-31,310000.0
2014-09-30,315000.0
2014-08-31,314500.0
2014-07-31,300000.0
2014-06-30,300000.0
2014-05-31,299000.0
2014-04-30,315000.0
2014-03-31,305000.0
2014-02-28,299000.0
2014-01-31,297000.0
2013-12-31,300000.0
2013-11-30,300000.0
2013-10-31,300000.0
2013-09-30,300000.0
2013-08-31,300000.0
2013-07-31,299900.0
2013-06-30,299000.0
2013-05-31,310000.0
2013-04-30,299900.0
2013-03-31,299950.0
2013-02-28,299000.0
2013-01-31,305000.0
2012-12-31,315000.0
2012-11-30,319000.0
2012-10-31,299000.0
2012-09-30,319900.0
2012-08-31,319500.0
2012-07-31,319000.0
2012-06-30,318000.0
2012-05-31,319000.0
2012-04-30,310000.0
2012-03-31,298000.0
2012-02-29,294900.0
2012-01-31,298000.0
2011-12-31,289000.0
2011-11-30,298000.0
2011-10-31,315000.0
2011-09-30,325000.0
2011-08-31,329000.0
2011-07-31,329000.0
2011-06-30,324900.0
2011-05-31,325000.0
2011-04-30,320000.0
2011-03-31,300000.0
2011-02-28,314000.0
2011-01-31,310000.0
2010-12-31,319000.0
2010-11-30,325000.0
2010-10-31,327500.0
2010-09-30,335000.0
2010-08-31,329000.0
2010-07-31,325000.0
2010-06-30,325000.0
2010-05-31,325000.0
2010-04-30,319500.0
2010-03-31,325000.0
2010-02-28,359000.0
2010-01-31,379900.0
2009-12-31,385000.0
2009-11-30,385000.0
2009-10-31,379000.0
2009-09-30,379900.0
2009-08-31,379000.0
2009-07-31,379000.0
2009-06-30,372000.0
2009-05-31,360000.0
2009-04-30,359500.0
2009-03-31,379000.0
2009-02-28,369500.0
2009-01-31,372000.0
2008-12-31,372000.0
2008-11-30,379000.0
2008-10-31,370000.0
