Date,Value
2015-02-28,184900.0
2015-01-31,179900.0
2014-12-31,184900.0
2014-11-30,182000.0
2014-10-31,179900.0
2014-09-30,179900.0
2014-08-31,179600.0
2014-07-31,174900.0
2014-06-30,149000.0
2014-05-31,159350.0
2014-04-30,159350.0
2014-03-31,149000.0
2014-02-28,152000.0
2014-01-31,124900.0
2013-12-31,159900.0
2013-11-30,127000.0
2013-10-31,147000.0
2013-09-30,147000.0
2013-08-31,169000.0
2013-07-31,169000.0
2013-06-30,169900.0
2013-05-31,139000.0
2013-04-30,169000.0
2013-03-31,169000.0
2013-02-28,169000.0
2013-01-31,169000.0
2012-12-31,144000.0
2012-11-30,146000.0
2012-10-31,169000.0
2012-09-30,146000.0
2012-08-31,146000.0
2012-07-31,159900.0
2012-06-30,146000.0
2012-05-31,146000.0
2012-04-30,144000.0
2012-03-31,132500.0
2012-02-29,133000.0
2012-01-31,142000.0
2011-12-31,139900.0
2011-11-30,149900.0
2011-10-31,149500.0
2011-09-30,149800.0
2011-08-31,149000.0
2011-07-31,139900.0
2011-06-30,130000.0
2011-05-31,133000.0
2011-04-30,129800.0
2011-03-31,137500.0
2011-02-28,137500.0
2011-01-31,139000.0
2010-12-31,139000.0
2010-11-30,142500.0
2010-10-31,155000.0
2010-09-30,155500.0
2010-08-31,154900.0
2010-07-31,149500.0
2010-06-30,148000.0
2010-05-31,148000.0
2010-04-30,136000.0
2010-03-31,141000.0
2010-02-28,148000.0
2010-01-31,155000.0
2009-12-31,141000.0
2009-11-30,146000.0
2009-10-31,150000.0
2009-09-30,168600.0
2009-08-31,147500.0
2009-07-31,154500.0
2009-06-30,156000.0
2009-05-31,150000.0
2009-04-30,150000.0
2009-03-31,145500.0
2009-02-28,164900.0
2009-01-31,167000.0
2008-12-31,185000.0
2008-11-30,177900.0
2008-10-31,164900.0
