Date,Value
2015-06-30,1450.0
2015-05-31,1095.0
2015-04-30,1300.0
2015-03-31,1250.0
2015-02-28,1150.0
2015-01-31,1150.0
2014-12-31,1075.0
2014-11-30,1095.0
2014-10-31,950.0
2014-09-30,995.0
2014-08-31,700.0
2014-07-31,1095.0
2014-06-30,900.0
2014-05-31,850.0
2014-04-30,925.0
2014-03-31,1095.0
2014-02-28,995.0
2014-01-31,950.0
2013-12-31,925.0
2013-11-30,895.0
2013-10-31,995.0
2013-09-30,1095.0
2013-08-31,1050.0
2013-07-31,1195.0
2013-06-30,1050.0
2013-05-31,950.0
2013-04-30,891.0
2013-03-31,975.0
2013-02-28,900.0
2013-01-31,950.0
2012-12-31,995.0
2012-11-30,995.0
2012-10-31,995.0
2012-09-30,1050.0
2012-08-31,1095.0
2012-07-31,1095.0
2012-06-30,1095.0
2012-05-31,1275.0
2012-04-30,1200.0
2012-03-31,1050.0
2012-02-29,1050.0
2012-01-31,995.0
2011-12-31,995.0
2011-11-30,995.0
2011-10-31,960.0
2011-09-30,995.0
2011-08-31,995.0
2011-07-31,995.0
2011-06-30,995.0
2011-05-31,950.0
2011-04-30,850.0
2011-03-31,850.0
2011-02-28,825.0
2011-01-31,850.0
2010-12-31,850.0
