Date,Value
2015-09-30,1.014
2015-08-31,1.052
2015-07-31,1.04
2015-06-30,1.03
2015-05-31,1.024
2015-04-30,1.022
2015-03-31,1.016
2015-02-28,1.006
2015-01-31,1.0
2014-12-31,1.002
2014-11-30,1.002
2014-10-31,1.0
2014-09-30,0.994
2014-08-31,0.986
2014-07-31,0.976
2014-06-30,0.964
2014-05-31,0.954
2014-04-30,0.944
2014-03-31,0.946
2014-02-28,0.936
2014-01-31,0.934
2013-12-31,0.928
2013-11-30,0.926
2013-10-31,0.922
2013-09-30,0.92
2013-08-31,0.918
2013-07-31,0.918
2013-06-30,0.916
2013-05-31,0.91
2013-04-30,0.906
2013-03-31,0.908
2013-02-28,0.908
2013-01-31,0.906
2012-12-31,0.9
2012-11-30,0.89
2012-10-31,0.886
2012-09-30,0.884
2012-08-31,0.886
2012-07-31,0.888
2012-06-30,0.894
2012-05-31,0.9
2012-04-30,0.906
2012-03-31,0.91
2012-02-29,0.906
2012-01-31,0.892
2011-12-31,0.882
2011-11-30,0.872
2011-10-31,0.87
2011-09-30,0.872
2011-08-31,0.874
2011-07-31,0.874
2011-06-30,0.882
2011-05-31,0.884
2011-04-30,0.878
2011-03-31,0.876
2011-02-28,0.88
2011-01-31,0.892
2010-12-31,0.886
2010-11-30,0.87
