Date,Value
2015-09-30,121100.0
2015-08-31,125800.0
2015-07-31,123200.0
2015-06-30,122400.0
2015-05-31,117000.0
2015-04-30,121300.0
2015-03-31,116500.0
2015-02-28,118400.0
2015-01-31,118500.0
2014-12-31,117900.0
2014-11-30,117300.0
2014-10-31,116700.0
2014-09-30,115800.0
2014-08-31,115200.0
2014-07-31,114600.0
2014-06-30,114300.0
2014-05-31,114100.0
2014-04-30,114300.0
2014-03-31,114800.0
2014-02-28,115100.0
2014-01-31,115200.0
2013-12-31,115700.0
2013-11-30,116400.0
2013-10-31,116500.0
2013-09-30,116600.0
2013-08-31,116700.0
2013-07-31,116800.0
2013-06-30,117000.0
2013-05-31,116800.0
2013-04-30,116100.0
2013-03-31,115700.0
2013-02-28,115600.0
2013-01-31,115300.0
2012-12-31,114900.0
2012-11-30,114800.0
2012-10-31,114800.0
2012-09-30,114800.0
2012-08-31,115100.0
2012-07-31,115000.0
2012-06-30,114300.0
2012-05-31,113400.0
2012-04-30,112800.0
2012-03-31,112200.0
2012-02-29,111600.0
2012-01-31,111100.0
2011-12-31,111000.0
2011-11-30,110800.0
2011-10-31,110900.0
2011-09-30,111100.0
2011-08-31,111400.0
2011-07-31,111700.0
2011-06-30,112100.0
2011-05-31,112700.0
2011-04-30,113700.0
2011-03-31,114500.0
2011-02-28,114500.0
2011-01-31,114200.0
2010-12-31,114800.0
2010-11-30,115600.0
2010-10-31,116000.0
2010-09-30,116000.0
2010-08-31,116000.0
2010-07-31,116000.0
2010-06-30,116000.0
2010-05-31,115700.0
2010-04-30,115000.0
2010-03-31,114600.0
2010-02-28,114200.0
2010-01-31,113300.0
2009-12-31,112300.0
2009-11-30,111700.0
2009-10-31,111100.0
2009-09-30,110800.0
2009-08-31,111100.0
2009-07-31,112700.0
2009-06-30,114700.0
2009-05-31,115700.0
2009-04-30,116200.0
2009-03-31,117200.0
2009-02-28,117700.0
2009-01-31,117900.0
2008-12-31,118000.0
2008-11-30,117900.0
2008-10-31,117500.0
2008-09-30,117000.0
2008-08-31,116100.0
2008-07-31,115000.0
2008-06-30,114500.0
2008-05-31,114500.0
2008-04-30,113700.0
2008-03-31,112100.0
2008-02-29,111200.0
2008-01-31,111700.0
2007-12-31,112000.0
2007-11-30,112000.0
2007-10-31,112000.0
2007-09-30,111500.0
2007-08-31,110600.0
2007-07-31,109100.0
2007-06-30,107100.0
2007-05-31,105000.0
2007-04-30,103600.0
2007-03-31,102800.0
2007-02-28,102800.0
2007-01-31,102500.0
2006-12-31,101700.0
2006-11-30,101000.0
2006-10-31,100400.0
2006-09-30,99900.0
2006-08-31,99200.0
2006-07-31,98200.0
2006-06-30,97400.0
2006-05-31,97200.0
2006-04-30,96700.0
2006-03-31,95900.0
2006-02-28,95100.0
2006-01-31,94300.0
2005-12-31,93000.0
2005-11-30,91400.0
2005-10-31,90200.0
2005-09-30,89700.0
2005-08-31,89300.0
2005-07-31,88700.0
2005-06-30,87900.0
2005-05-31,87400.0
2005-04-30,87300.0
2005-03-31,87300.0
2005-02-28,86700.0
2005-01-31,85900.0
2004-12-31,85100.0
2004-11-30,84700.0
2004-10-31,84200.0
2004-09-30,83400.0
2004-08-31,82600.0
2004-07-31,81900.0
2004-06-30,81500.0
2004-05-31,81200.0
2004-04-30,81100.0
2004-03-31,80600.0
2004-02-29,80000.0
2004-01-31,79600.0
2003-12-31,79300.0
2003-11-30,78900.0
2003-10-31,78500.0
2003-09-30,78000.0
2003-08-31,77700.0
2003-07-31,77500.0
2003-06-30,77200.0
2003-05-31,77200.0
2003-04-30,77300.0
2003-03-31,77500.0
2003-02-28,77700.0
2003-01-31,78000.0
2002-12-31,78000.0
2002-11-30,78100.0
2002-10-31,79200.0
2002-09-30,80600.0
2002-08-31,81600.0
2002-07-31,81900.0
2002-06-30,82000.0
2002-05-31,81400.0
2002-04-30,80200.0
2002-03-31,79100.0
2002-02-28,78100.0
2002-01-31,77100.0
2001-12-31,76600.0
2001-11-30,75900.0
2001-10-31,74600.0
2001-09-30,73500.0
2001-08-31,72400.0
2001-07-31,71400.0
2001-06-30,70900.0
2001-05-31,70800.0
2001-04-30,70700.0
2001-03-31,71000.0
2001-02-28,71300.0
2001-01-31,71300.0
2000-12-31,71800.0
2000-11-30,72100.0
2000-10-31,71800.0
2000-09-30,71100.0
2000-08-31,71400.0
2000-07-31,72100.0
2000-06-30,72400.0
2000-05-31,72700.0
2000-04-30,73300.0
2000-03-31,73700.0
2000-02-29,73700.0
2000-01-31,73500.0
1999-12-31,73400.0
1999-11-30,74300.0
1999-10-31,75500.0
1999-09-30,75900.0
1999-08-31,76000.0
1999-07-31,76700.0
1999-06-30,77300.0
1999-05-31,77200.0
1999-04-30,76800.0
1999-03-31,76700.0
1999-02-28,76500.0
1999-01-31,76200.0
1998-12-31,75900.0
1998-11-30,75400.0
1998-10-31,74900.0
1998-09-30,74300.0
1998-08-31,73400.0
1998-07-31,72500.0
1998-06-30,72000.0
1998-05-31,71500.0
1998-04-30,71100.0
1998-03-31,70800.0
1998-02-28,70700.0
1998-01-31,71000.0
1997-12-31,71200.0
1997-11-30,71000.0
1997-10-31,70200.0
1997-09-30,69700.0
1997-08-31,69300.0
1997-07-31,68800.0
1997-06-30,68500.0
1997-05-31,68700.0
1997-04-30,68700.0
1997-03-31,68500.0
1997-02-28,68500.0
1997-01-31,68500.0
1996-12-31,68700.0
1996-11-30,69100.0
1996-10-31,69600.0
1996-09-30,70400.0
1996-08-31,72200.0
1996-07-31,73800.0
1996-06-30,74300.0
1996-05-31,73900.0
1996-04-30,74200.0
