Date,Value
2015-07-31,349999.0
2014-08-31,280000.0
2007-10-31,354230.7692
2007-08-31,310000.0
2007-04-30,345000.0
2006-07-31,274500.0
2005-09-30,252911.7647
2005-08-31,280000.0
2005-06-30,273782.3529
2005-05-31,264900.0
2004-11-30,275000.0
2004-04-30,216500.0
2003-03-31,213229.4118
2003-02-28,225000.0
2002-08-31,241588.2353
2002-07-31,201000.0
2001-06-30,195730.7692
2001-04-30,185000.0
2000-06-30,188000.0
1998-07-31,226879.4118
1998-06-30,264576.9231
1998-04-30,167000.0
