Date,Value
2015-09-30,165400.0
2015-08-31,169100.0
2015-07-31,166000.0
2015-06-30,168400.0
2015-05-31,168800.0
2015-04-30,169000.0
2015-03-31,167700.0
2015-01-31,161000.0
2014-12-31,159400.0
2014-11-30,157100.0
2014-10-31,154800.0
2014-09-30,153600.0
2014-08-31,152400.0
2014-07-31,151000.0
2014-06-30,150400.0
2014-05-31,150400.0
2014-04-30,150000.0
2014-03-31,149000.0
2014-02-28,148000.0
2014-01-31,147800.0
2013-12-31,147500.0
2013-11-30,146700.0
2013-10-31,145400.0
2013-09-30,144600.0
2013-08-31,144500.0
2013-07-31,145200.0
2013-06-30,146600.0
2013-05-31,149100.0
2013-04-30,151500.0
2013-03-31,152200.0
2013-02-28,151900.0
2013-01-31,151700.0
2012-12-31,151700.0
2012-11-30,152000.0
2012-10-31,152400.0
2012-09-30,152600.0
2012-08-31,152600.0
2012-07-31,152300.0
2012-06-30,152300.0
2012-05-31,153000.0
2012-04-30,153700.0
2012-03-31,153700.0
2012-02-29,153600.0
2012-01-31,153600.0
2011-12-31,153300.0
2011-11-30,152400.0
2011-10-31,151200.0
2011-09-30,150000.0
2011-08-31,148800.0
2011-07-31,148700.0
2011-06-30,150100.0
2011-05-31,153000.0
2011-04-30,155900.0
2011-03-31,157600.0
2011-02-28,159000.0
2011-01-31,160700.0
2010-12-31,161800.0
2010-11-30,162100.0
2010-10-31,162500.0
2010-09-30,163000.0
2010-08-31,163100.0
2010-07-31,163300.0
2010-06-30,163100.0
2010-05-31,162700.0
2010-04-30,161900.0
2010-03-31,160600.0
2010-02-28,159000.0
2010-01-31,158800.0
2009-12-31,160100.0
2009-11-30,162800.0
2009-10-31,166900.0
2009-09-30,170400.0
2009-08-31,171000.0
2009-07-31,172200.0
2009-06-30,171000.0
2009-05-31,165800.0
2009-04-30,159800.0
2009-03-31,158200.0
2009-02-28,160100.0
2009-01-31,161000.0
2008-12-31,159300.0
2008-11-30,159600.0
2008-10-31,160500.0
2008-09-30,161200.0
2008-08-31,165100.0
2008-07-31,168500.0
2008-06-30,167800.0
2008-05-31,165800.0
2008-04-30,166100.0
2008-03-31,166800.0
2008-02-29,167500.0
2008-01-31,168400.0
2007-12-31,168500.0
2007-11-30,168000.0
2007-10-31,166400.0
2007-09-30,162500.0
2007-08-31,158000.0
2007-07-31,156600.0
2007-06-30,156800.0
2007-05-31,157200.0
2007-04-30,159000.0
2007-03-31,162700.0
2007-02-28,162900.0
2007-01-31,160400.0
2006-12-31,160100.0
2006-11-30,160400.0
2006-10-31,159100.0
2006-09-30,161200.0
2006-08-31,164900.0
2006-07-31,164200.0
2006-06-30,160500.0
2006-05-31,159700.0
2006-04-30,160200.0
2006-03-31,157400.0
2006-02-28,153200.0
2006-01-31,151300.0
2005-12-31,153100.0
2005-11-30,153200.0
2005-10-31,151300.0
2005-09-30,148600.0
2005-08-31,146800.0
2005-07-31,144400.0
2005-06-30,144200.0
2005-05-31,143400.0
2005-04-30,141600.0
2005-03-31,140900.0
2005-02-28,141900.0
2005-01-31,141200.0
2004-12-31,137100.0
2004-11-30,133400.0
2004-10-31,132600.0
2004-09-30,131300.0
2004-08-31,127600.0
2004-07-31,125800.0
2004-06-30,126700.0
2004-05-31,127600.0
2004-04-30,127100.0
2004-03-31,125500.0
2004-02-29,123900.0
2004-01-31,123600.0
2003-12-31,123300.0
2003-11-30,122300.0
2003-10-31,120900.0
2003-09-30,120900.0
2003-08-31,120700.0
2003-07-31,120700.0
2003-06-30,121400.0
2003-05-31,122100.0
2003-04-30,121600.0
2003-03-31,120400.0
2003-02-28,119700.0
2003-01-31,118400.0
2002-12-31,116900.0
2002-11-30,115300.0
2002-10-31,114900.0
2002-09-30,113900.0
2002-08-31,113700.0
2002-07-31,113700.0
2002-06-30,114400.0
2002-05-31,115000.0
2002-04-30,113700.0
2002-03-31,111600.0
2002-02-28,112100.0
2002-01-31,113200.0
2001-12-31,112600.0
2001-11-30,112400.0
2001-10-31,113000.0
2001-09-30,112400.0
2001-08-31,111100.0
2001-07-31,110900.0
2001-06-30,110500.0
2001-05-31,109300.0
2001-04-30,108500.0
2001-03-31,108300.0
2001-02-28,106400.0
2001-01-31,104500.0
2000-12-31,105000.0
2000-11-30,106900.0
2000-10-31,106900.0
2000-09-30,106800.0
2000-08-31,108200.0
2000-07-31,108500.0
2000-06-30,105400.0
2000-05-31,102100.0
2000-04-30,101500.0
2000-03-31,102900.0
2000-02-29,103600.0
2000-01-31,103400.0
1999-12-31,103300.0
1999-11-30,103900.0
1999-10-31,104700.0
1999-09-30,106300.0
1999-08-31,105200.0
1999-07-31,102600.0
1999-06-30,101700.0
1999-05-31,102300.0
1999-04-30,102900.0
1999-03-31,104000.0
1999-02-28,105100.0
1999-01-31,104900.0
1998-12-31,104200.0
1998-11-30,102400.0
1998-10-31,100800.0
1998-09-30,101100.0
1998-08-31,102500.0
1998-07-31,101700.0
1998-06-30,100000.0
1998-05-31,99200.0
1998-04-30,99900.0
1998-03-31,100300.0
1998-02-28,99500.0
1998-01-31,98600.0
1997-12-31,98800.0
1997-11-30,99300.0
1997-10-31,98600.0
1997-09-30,96700.0
1997-08-31,96100.0
1997-07-31,97200.0
1997-06-30,97700.0
1997-05-31,97600.0
1997-04-30,96900.0
1997-03-31,95900.0
1997-02-28,95600.0
1997-01-31,96800.0
1996-12-31,97600.0
1996-11-30,97800.0
1996-10-31,97600.0
1996-09-30,97200.0
1996-08-31,97200.0
1996-07-31,97500.0
1996-06-30,97400.0
1996-05-31,97500.0
1996-04-30,97800.0
