Date,Value
2015-02-28,240000.0
2015-01-31,229000.0
2014-12-31,237000.0
2014-11-30,237000.0
2014-10-31,235000.0
2014-09-30,234900.0
2014-08-31,239900.0
2014-07-31,238900.0
2014-06-30,229900.0
2014-05-31,239900.0
2014-04-30,229000.0
2014-03-31,204000.0
2014-02-28,189900.0
2014-01-31,185000.0
2013-12-31,189900.0
2013-11-30,204900.0
2013-10-31,205000.0
2013-09-30,209900.0
2013-08-31,219000.0
2013-07-31,219900.0
2013-06-30,216900.0
2013-05-31,205000.0
2013-04-30,204900.0
2013-03-31,199900.0
2013-02-28,199900.0
2013-01-31,184900.0
2012-12-31,195000.0
2012-11-30,184900.0
2012-10-31,179900.0
2012-09-30,179900.0
2012-08-31,186000.0
2012-07-31,180000.0
2012-06-30,179900.0
2012-05-31,174900.0
2012-04-30,174900.0
2012-03-31,179900.0
2012-02-29,179900.0
2012-01-31,170000.0
2011-12-31,174900.0
2011-11-30,169500.0
2011-10-31,169900.0
2011-09-30,169500.0
2011-08-31,169900.0
2011-07-31,169000.0
2011-06-30,169900.0
2011-05-31,169900.0
2011-04-30,169900.0
2011-03-31,169900.0
2011-02-28,175000.0
2011-01-31,175000.0
2010-12-31,185000.0
2010-11-30,182500.0
2010-10-31,185000.0
2010-09-30,185000.0
2010-08-31,187700.0
2010-07-31,204999.0
2010-06-30,209000.0
2010-05-31,200000.0
2010-04-30,205000.0
2010-03-31,204900.0
2010-02-28,209000.0
2010-01-31,199900.0
2009-12-31,204851.0
2009-11-30,199000.0
2009-10-31,199900.0
2009-09-30,209900.0
2009-08-31,219900.0
2009-07-31,219900.0
2009-06-30,214950.0
2009-05-31,212000.0
2009-04-30,215000.0
2009-03-31,215000.0
2009-02-28,224900.0
2009-01-31,225000.0
2008-12-31,229000.0
2008-11-30,230000.0
2008-10-31,243000.0
