Date,Value
2015-09-30,166100.0
2015-08-31,139500.0
2015-07-31,135400.0
2015-06-30,135100.0
2015-05-31,134100.0
2015-04-30,131300.0
2015-03-31,130300.0
2015-02-28,129600.0
2015-01-31,127300.0
2014-12-31,126000.0
2014-11-30,124900.0
2014-10-31,124000.0
2014-09-30,123200.0
2014-08-31,122300.0
2014-07-31,121400.0
2014-06-30,119700.0
2014-05-31,119000.0
2014-04-30,119000.0
2014-03-31,118500.0
2014-02-28,116600.0
2014-01-31,115500.0
2013-12-31,113100.0
2013-11-30,109000.0
2013-10-31,104700.0
2013-09-30,101800.0
2013-08-31,100000.0
2013-07-31,98800.0
2013-06-30,97400.0
2013-05-31,96000.0
2013-04-30,94600.0
2013-03-31,92500.0
2013-02-28,91300.0
2013-01-31,90300.0
2012-12-31,88700.0
2012-11-30,87200.0
2012-10-31,86800.0
2012-09-30,86500.0
2012-08-31,85900.0
2012-07-31,84500.0
2012-06-30,83000.0
2012-05-31,82500.0
2012-04-30,83200.0
2012-03-31,84600.0
2012-02-29,86900.0
2012-01-31,89800.0
2011-12-31,92700.0
2011-11-30,95800.0
2011-10-31,98600.0
2011-09-30,100300.0
2011-08-31,102200.0
2011-07-31,106300.0
2011-06-30,111300.0
2011-05-31,113900.0
2011-04-30,114800.0
2011-03-31,115600.0
2011-02-28,116100.0
2011-01-31,117000.0
2010-12-31,120300.0
2010-11-30,124000.0
2010-10-31,128000.0
2010-09-30,131400.0
2010-08-31,132400.0
2010-07-31,132500.0
2010-06-30,135300.0
2010-05-31,139600.0
2010-04-30,142400.0
2010-03-31,144500.0
2010-02-28,146000.0
2010-01-31,147100.0
2009-12-31,147700.0
2009-11-30,147900.0
2009-10-31,148800.0
2009-09-30,150800.0
2009-08-31,153900.0
2009-07-31,156400.0
2009-06-30,157800.0
2009-05-31,158000.0
2009-04-30,159700.0
2009-03-31,162300.0
2009-02-28,164700.0
2009-01-31,167100.0
2008-12-31,169400.0
2008-11-30,170500.0
2008-10-31,170900.0
2008-09-30,171100.0
2008-08-31,172200.0
2008-07-31,174300.0
2008-06-30,176200.0
2008-05-31,178300.0
2008-04-30,180400.0
2008-03-31,182300.0
2008-02-29,184300.0
2008-01-31,186200.0
2007-12-31,188000.0
2007-11-30,190900.0
2007-10-31,192800.0
2007-09-30,192200.0
2007-08-31,190500.0
2007-07-31,189500.0
2007-06-30,188400.0
2007-05-31,187000.0
2007-04-30,184400.0
2007-03-31,181800.0
2007-02-28,180300.0
2007-01-31,179500.0
2006-12-31,178300.0
2006-11-30,176500.0
2006-10-31,174200.0
2006-09-30,172000.0
2006-08-31,170100.0
2006-07-31,167800.0
2006-06-30,164500.0
2006-05-31,161600.0
2006-04-30,159300.0
2006-03-31,157400.0
2006-02-28,155000.0
2006-01-31,152000.0
2005-12-31,149100.0
2005-11-30,147100.0
2005-10-31,145800.0
2005-09-30,144900.0
2005-08-31,144300.0
2005-07-31,142800.0
2005-06-30,140600.0
2005-05-31,138700.0
2005-04-30,137000.0
2005-03-31,135200.0
2005-02-28,132900.0
2005-01-31,130500.0
2004-12-31,128400.0
2004-11-30,127000.0
2004-10-31,126000.0
2004-09-30,125600.0
2004-08-31,124800.0
2004-07-31,124000.0
2004-06-30,123300.0
2004-05-31,123300.0
2004-04-30,123700.0
2004-03-31,124400.0
2004-02-29,124700.0
2004-01-31,124000.0
2003-12-31,123000.0
2003-11-30,122500.0
2003-10-31,122200.0
2003-09-30,121600.0
2003-08-31,120900.0
2003-07-31,120500.0
2003-06-30,120200.0
2003-05-31,119600.0
2003-04-30,118400.0
2003-03-31,117500.0
2003-02-28,117600.0
2003-01-31,117900.0
2002-12-31,117800.0
2002-11-30,116900.0
2002-10-31,115600.0
2002-09-30,115300.0
2002-08-31,115900.0
2002-07-31,116100.0
2002-06-30,115900.0
2002-05-31,115800.0
2002-04-30,116000.0
2002-03-31,115800.0
2002-02-28,115300.0
2002-01-31,115300.0
2001-12-31,115200.0
2001-11-30,114300.0
2001-10-31,113700.0
2001-09-30,113700.0
2001-08-31,113500.0
2001-07-31,113100.0
2001-06-30,112500.0
2001-05-31,111300.0
2001-04-30,109900.0
2001-03-31,108400.0
2001-02-28,107400.0
2001-01-31,106900.0
2000-12-31,106800.0
2000-11-30,105900.0
2000-10-31,104200.0
2000-09-30,102500.0
2000-08-31,102000.0
2000-07-31,101800.0
2000-06-30,101100.0
2000-05-31,100100.0
2000-04-30,99500.0
2000-03-31,99100.0
2000-02-29,98300.0
2000-01-31,97100.0
1999-12-31,96800.0
1999-11-30,96800.0
1999-10-31,95900.0
1999-09-30,94500.0
1999-08-31,93600.0
1999-07-31,92700.0
1999-06-30,91900.0
1999-05-31,91600.0
1999-04-30,91400.0
1999-03-31,90700.0
1999-02-28,89900.0
1999-01-31,89200.0
1998-12-31,88600.0
1998-11-30,88000.0
1998-10-31,88000.0
1998-09-30,87200.0
1998-08-31,84800.0
1998-07-31,82600.0
1998-06-30,82000.0
1998-05-31,81900.0
1998-04-30,81700.0
1998-03-31,81800.0
1998-02-28,82000.0
1998-01-31,81500.0
1997-12-31,80100.0
1997-11-30,79500.0
1997-10-31,80300.0
1997-09-30,81000.0
1997-08-31,80400.0
1997-07-31,79800.0
1997-06-30,79500.0
1997-05-31,78700.0
1997-04-30,77700.0
1997-03-31,77400.0
1997-02-28,77400.0
1997-01-31,76800.0
1996-12-31,76300.0
1996-11-30,76100.0
1996-10-31,76000.0
1996-09-30,75700.0
1996-08-31,75900.0
1996-07-31,76500.0
1996-06-30,77100.0
1996-05-31,78000.0
1996-04-30,78700.0
