Date,Value
2015-02-28,189000.0
2015-01-31,169000.0
2014-12-31,171000.0
2014-11-30,169000.0
2014-10-31,189900.0
2014-09-30,199899.0
2014-08-31,189990.0
2014-07-31,189990.0
2014-06-30,189990.0
2014-05-31,184500.0
2014-04-30,159950.0
2014-03-31,159950.0
2014-02-28,157500.0
2014-01-31,159000.0
2013-12-31,159000.0
2013-11-30,167500.0
2013-10-31,190000.0
2013-09-30,159000.0
2013-08-31,159900.0
2013-07-31,159950.0
2013-06-30,159950.0
2013-05-31,159950.0
2013-04-30,159500.0
2013-03-31,159000.0
2013-02-28,151900.0
2013-01-31,149950.0
2012-12-31,147500.0
2012-11-30,142000.0
2012-10-31,142000.0
2012-09-30,144500.0
2012-08-31,119900.0
2012-07-31,119950.0
2012-06-30,135000.0
2012-05-31,119950.0
2012-04-30,119900.0
2012-03-31,119000.0
2012-02-29,122500.0
2012-01-31,124900.0
2011-12-31,129000.0
2011-11-30,132250.0
2011-10-31,135000.0
2011-09-30,135900.0
2011-08-31,166500.0
2011-07-31,144900.0
2011-06-30,158500.0
2011-05-31,169990.0
2011-04-30,166500.0
2011-03-31,184500.0
2011-02-28,184500.0
2011-01-31,179950.0
2010-12-31,194500.0
2010-11-30,210000.0
2010-10-31,217000.0
2010-09-30,209000.0
2010-08-31,216000.0
2010-07-31,219500.0
2010-06-30,219500.0
2010-05-31,219500.0
2010-04-30,210000.0
2010-03-31,219500.0
2010-02-28,210000.0
2010-01-31,210000.0
2009-12-31,200000.0
2009-11-30,200000.0
2009-10-31,215000.0
2009-09-30,215000.0
2009-08-31,215000.0
2009-07-31,219990.0
2009-06-30,220000.0
2009-05-31,239999.0
2009-04-30,239999.0
2009-03-31,239999.0
2009-02-28,244950.0
2009-01-31,246500.0
2008-12-31,249000.0
2008-11-30,242950.0
2008-10-31,240000.0
