Date,Value
2015-09-30,303125.0
2015-08-31,292745.0
2015-07-31,288475.0
2015-06-30,300150.0
2015-05-31,280432.85
2015-04-30,259737.2353
2014-12-31,231400.0
2014-10-31,276000.0
2014-09-30,288750.0
2014-08-31,273900.0
2014-07-31,257500.0
2014-06-30,261000.0
2014-05-31,255800.0
2014-04-30,270500.0
2014-03-31,264352.9412
2014-02-28,280449.2308
2013-12-31,271753.8462
2013-10-31,253390.0
2013-09-30,250780.0
2013-08-31,257280.0
2013-07-31,247455.0
2013-06-30,223305.5
2013-05-31,210844.5
2013-04-30,252050.5882
2013-03-31,223830.7692
2013-01-31,218842.0
2012-12-31,223290.0
2012-11-30,221180.0
2012-10-31,213880.0
2012-09-30,202488.0
2012-08-31,203105.8824
2012-07-31,208141.5385
2012-05-31,204135.0
2012-04-30,175727.0588
2012-03-31,162080.0
2011-10-31,213730.0
2011-09-30,230019.25
2011-08-31,210756.25
2011-07-31,209500.0
2011-06-30,187500.0
2010-08-31,152500.0
2010-05-31,251212.5
2010-04-30,257500.0
2010-03-31,250000.0
2009-11-30,247865.0
2009-10-31,248450.0
2009-09-30,256050.0
2009-08-31,244092.0
2009-07-31,244548.0
2009-06-30,247840.0
2009-05-31,241529.4118
2009-04-30,258000.0
2008-12-31,270307.6923
2008-10-31,273792.0
2008-09-30,242490.0
2008-08-31,252138.0
2008-07-31,247582.0
2008-06-30,239696.5
2008-05-31,231761.5
2008-04-30,265645.0
2008-03-31,273467.5
2008-02-29,245182.5
2008-01-31,248575.0
2007-12-31,264325.0
2007-11-30,279875.0
2007-10-31,297485.0
2007-09-30,323215.0
2007-08-31,313170.0
2007-07-31,314805.0
2007-06-30,312717.5
2007-05-31,304999.5
2007-04-30,303013.0
2007-03-31,292825.0
2007-02-28,288600.0
2007-01-31,290100.0
2006-12-31,289800.0
2006-11-30,303092.0
2006-10-31,289348.0
2006-09-30,288390.0
2006-08-31,280250.0
2006-07-31,282600.0
2006-06-30,281192.0
2006-05-31,288048.0
2006-04-30,270940.0
2006-03-31,271625.0
2006-02-28,257625.0
2006-01-31,263750.0
2005-12-31,261500.0
2005-11-30,262742.5
2005-10-31,260532.5
2005-09-30,249675.0
2005-08-31,245250.0
2005-07-31,244792.5
2005-06-30,236882.5
2005-05-31,230050.0
2005-04-30,229425.0
2005-03-31,221715.25
2005-02-28,212052.25
2005-01-31,220592.5
2004-12-31,229510.0
2004-11-30,234307.5
2004-10-31,223667.5
2004-09-30,217680.0
2004-08-31,222010.0
2004-07-31,222125.0
2004-06-30,218425.0
2004-05-31,210075.0
2004-04-30,213175.0
2004-03-31,208645.0
2004-02-29,190497.5
2004-01-31,187882.5
2003-12-31,194500.0
2003-11-30,200325.6
2003-10-31,205701.4
2003-09-30,203552.0
2003-08-31,202950.0
2003-07-31,190237.5
2003-06-30,184537.5
2003-05-31,185458.95
2003-04-30,187562.55
2003-03-31,180596.5
2003-02-28,195800.0
2003-01-31,193640.0
2002-12-31,185310.0
2002-11-30,197664.0
2002-10-31,189206.0
2002-09-30,191020.0
2002-08-31,198120.0
2002-07-31,202000.0
2002-06-30,201350.0
2002-05-31,194300.0
2002-04-30,185700.0
2002-03-31,185492.5
2002-02-28,188682.5
2002-01-31,192125.0
2001-12-31,176392.5
2001-11-30,179732.5
2001-10-31,170460.0
2001-09-30,169957.65
2001-08-31,180232.85
2001-07-31,181050.5
2001-06-30,183000.0
2001-05-31,183725.0
2001-04-30,180400.0
2001-03-31,169492.5
2001-02-28,160732.5
2001-01-31,163975.0
2000-12-31,167052.5
2000-11-30,165872.5
2000-10-31,157975.0
2000-09-30,161900.0
2000-08-31,165225.0
2000-07-31,168825.0
2000-06-30,168175.0
2000-05-31,164667.5
2000-04-30,158632.5
2000-03-31,158025.6
2000-02-29,158913.6
2000-01-31,159661.25
1999-12-31,153568.05
1999-11-30,146241.5
1999-10-31,155050.0
1999-09-30,161050.0
1999-08-31,158350.0
1999-07-31,158600.0
1999-06-30,160742.5
1999-05-31,160975.0
1999-04-30,150332.5
1999-03-31,145842.5
1999-02-28,145872.5
1999-01-31,144360.0
1998-12-31,144625.0
1998-11-30,146345.0
1998-10-31,145155.0
1998-09-30,143700.0
1998-08-31,143049.5
1998-07-31,144690.05
1998-06-30,142813.95
1998-05-31,148148.5
1998-04-30,146023.5
1998-03-31,144496.5
1998-02-28,134620.0
1998-01-31,138950.0
1997-12-31,134525.0
1997-11-30,133850.0
1997-10-31,125825.0
1997-09-30,120417.5
1997-08-31,125857.5
1997-07-31,130792.5
1997-06-30,134275.0
1997-05-31,133075.0
1997-04-30,129567.5
1997-03-31,127032.5
1997-02-28,125382.5
1997-01-31,125825.0
1996-12-31,119227.5
1996-11-30,115897.5
1996-10-31,120520.0
1996-09-30,121597.5
1996-08-31,119707.5
1996-07-31,113450.0
1996-06-30,121050.0
1996-05-31,126390.0
1996-04-30,130105.0
