Date,Value
2014-09-30,159900.0
2014-06-30,159900.0
2014-05-31,159900.0
2014-01-31,128000.0
2013-07-31,135000.0
2012-08-31,105900.0
2012-07-31,105900.0
2012-06-30,94900.0
2012-05-31,105900.0
2012-04-30,105900.0
