Date,Value
2014-11-30,179900.0
2014-10-31,179900.0
2014-09-30,224400.0
2014-08-31,224400.0
2014-07-31,176000.0
2014-06-30,142500.0
2014-05-31,140000.0
2014-04-30,139900.0
2014-03-31,159000.0
2014-02-28,139900.0
2014-01-31,139900.0
2013-12-31,167500.0
2013-11-30,187000.0
2013-10-31,159000.0
2013-09-30,159000.0
2013-08-31,167900.0
2013-07-31,147000.0
2013-06-30,155000.0
2013-05-31,155000.0
2013-04-30,145000.0
2013-03-31,139500.0
2013-02-28,112900.0
2012-12-31,100000.0
2012-11-30,105000.0
2012-10-31,112900.0
2012-09-30,115900.0
2012-08-31,130000.0
2012-07-31,129000.0
2012-06-30,115900.0
2012-05-31,124000.0
2012-04-30,124000.0
2012-03-31,124000.0
2012-02-29,120000.0
2012-01-31,168000.0
2011-12-31,149500.0
2011-11-30,149500.0
2011-10-31,149500.0
2011-09-30,149500.0
2011-08-31,158900.0
2011-07-31,195000.0
2011-06-30,192500.0
2011-05-31,178500.0
2011-04-30,189000.0
2011-03-31,189000.0
2011-02-28,139000.0
2011-01-31,124000.0
2010-12-31,133500.0
2010-11-30,149500.0
2010-10-31,139000.0
2010-09-30,139000.0
2010-08-31,139000.0
2010-07-31,139000.0
2010-06-30,149900.0
