Date,Value
2015-09-30,160400.0
2015-08-31,156900.0
2015-07-31,154000.0
2015-06-30,154200.0
2015-05-31,152200.0
2015-04-30,151700.0
2015-03-31,151200.0
2015-02-28,149800.0
2015-01-31,148400.0
2014-12-31,147400.0
2014-11-30,145900.0
2014-10-31,144100.0
2014-09-30,142300.0
2014-08-31,140600.0
2014-07-31,138900.0
2014-06-30,137400.0
2014-05-31,135900.0
2014-04-30,134500.0
2014-03-31,132700.0
2014-02-28,131200.0
2014-01-31,130100.0
2013-12-31,128700.0
2013-11-30,126500.0
2013-10-31,125400.0
2013-09-30,125100.0
2013-08-31,123500.0
2013-07-31,120300.0
2013-06-30,117300.0
2013-05-31,115400.0
2013-04-30,115000.0
2013-03-31,114800.0
2013-02-28,115100.0
2013-01-31,115100.0
2012-12-31,114500.0
2012-11-30,113800.0
2012-10-31,113600.0
2012-09-30,113500.0
2012-08-31,112700.0
2012-07-31,110800.0
2012-06-30,109200.0
2012-05-31,107200.0
2012-04-30,105000.0
2012-03-31,103900.0
2012-02-29,104000.0
2012-01-31,104300.0
2011-12-31,105700.0
2011-11-30,108300.0
2011-10-31,111200.0
2011-09-30,113900.0
2011-08-31,117400.0
2011-07-31,122500.0
2011-06-30,127300.0
2011-05-31,130800.0
2011-04-30,133600.0
2011-03-31,136300.0
2011-02-28,138600.0
2011-01-31,140700.0
2010-12-31,142500.0
2010-11-30,143800.0
2010-10-31,143500.0
2010-09-30,143000.0
2010-08-31,144100.0
2010-07-31,146900.0
2010-06-30,149700.0
2010-05-31,152600.0
2010-04-30,155000.0
2010-03-31,157600.0
2010-02-28,160000.0
2010-01-31,162200.0
2009-12-31,164100.0
2009-11-30,166100.0
2009-10-31,167900.0
2009-09-30,170300.0
2009-08-31,173100.0
2009-07-31,175800.0
2009-06-30,177000.0
2009-05-31,177600.0
2009-04-30,179800.0
2009-03-31,183100.0
2009-02-28,185300.0
2009-01-31,186800.0
2008-12-31,188500.0
2008-11-30,190200.0
2008-10-31,191900.0
2008-09-30,194000.0
2008-08-31,196200.0
2008-07-31,197300.0
2008-06-30,198100.0
2008-05-31,199500.0
2008-04-30,201000.0
2008-03-31,202100.0
2008-02-29,203500.0
2008-01-31,204900.0
2007-12-31,206100.0
2007-11-30,207100.0
2007-10-31,207700.0
2007-09-30,207800.0
2007-08-31,207600.0
2007-07-31,206800.0
2007-06-30,206000.0
2007-05-31,205300.0
2007-04-30,203700.0
2007-03-31,201500.0
2007-02-28,199300.0
2007-01-31,197300.0
2006-12-31,195600.0
2006-11-30,193700.0
2006-10-31,191400.0
2006-09-30,188700.0
2006-08-31,185800.0
2006-07-31,183300.0
2006-06-30,182100.0
2006-05-31,180900.0
2006-04-30,178400.0
2006-03-31,175500.0
2006-02-28,173600.0
2006-01-31,171700.0
2005-12-31,168800.0
2005-11-30,165600.0
2005-10-31,163000.0
2005-09-30,160700.0
2005-08-31,158400.0
2005-07-31,156600.0
2005-06-30,155200.0
2005-05-31,153600.0
2005-04-30,151700.0
2005-03-31,149900.0
2005-02-28,147900.0
2005-01-31,146200.0
2004-12-31,145100.0
2004-11-30,144700.0
2004-10-31,144300.0
2004-09-30,143300.0
2004-08-31,141900.0
2004-07-31,140300.0
2004-06-30,139000.0
2004-05-31,138400.0
2004-04-30,138500.0
2004-03-31,138400.0
2004-02-29,138300.0
2004-01-31,138000.0
2003-12-31,137400.0
2003-11-30,136900.0
2003-10-31,136900.0
2003-09-30,137400.0
2003-08-31,137600.0
2003-07-31,137400.0
2003-06-30,136700.0
2003-05-31,136200.0
2003-04-30,135600.0
2003-03-31,135500.0
2003-02-28,135600.0
2003-01-31,135600.0
2002-12-31,135400.0
2002-11-30,135000.0
2002-10-31,134400.0
2002-09-30,133900.0
2002-08-31,133700.0
2002-07-31,133300.0
2002-06-30,132700.0
2002-05-31,132100.0
2002-04-30,131600.0
2002-03-31,131100.0
2002-02-28,130400.0
2002-01-31,130200.0
2001-12-31,130000.0
2001-11-30,129600.0
2001-10-31,129000.0
2001-09-30,128500.0
2001-08-31,128100.0
2001-07-31,127800.0
2001-06-30,127500.0
2001-05-31,127100.0
2001-04-30,126600.0
2001-03-31,125800.0
2001-02-28,124800.0
2001-01-31,124000.0
2000-12-31,123700.0
2000-11-30,123800.0
2000-10-31,123600.0
2000-09-30,122600.0
2000-08-31,121100.0
2000-07-31,119800.0
2000-06-30,118700.0
2000-05-31,118300.0
2000-04-30,118000.0
2000-03-31,117300.0
2000-02-29,115800.0
2000-01-31,113900.0
1999-12-31,112300.0
1999-11-30,111300.0
1999-10-31,110200.0
1999-09-30,109400.0
1999-08-31,108900.0
1999-07-31,108900.0
1999-06-30,109200.0
1999-05-31,108700.0
1999-04-30,107600.0
1999-03-31,107100.0
1999-02-28,106800.0
1999-01-31,106400.0
1998-12-31,105800.0
1998-11-30,104800.0
1998-10-31,103800.0
1998-09-30,103300.0
1998-08-31,103200.0
1998-07-31,103200.0
1998-06-30,102900.0
1998-05-31,101800.0
1998-04-30,100900.0
1998-03-31,100500.0
1998-02-28,100200.0
1998-01-31,99700.0
1997-12-31,98900.0
1997-11-30,98100.0
1997-10-31,97400.0
1997-09-30,97000.0
1997-08-31,96300.0
1997-07-31,95100.0
1997-06-30,94100.0
1997-05-31,93800.0
1997-04-30,94200.0
1997-03-31,94700.0
1997-02-28,94700.0
1997-01-31,94000.0
1996-12-31,93700.0
1996-11-30,94000.0
1996-10-31,94600.0
1996-09-30,95400.0
1996-08-31,96000.0
1996-07-31,96000.0
1996-06-30,95800.0
1996-05-31,95800.0
1996-04-30,95900.0
