Date,Value
2015-08-31,170400.0
2015-07-31,170800.0
2015-06-30,171500.0
2015-05-31,173000.0
2015-04-30,176700.0
2015-03-31,182200.0
2015-02-28,185500.0
2015-01-31,182300.0
2014-12-31,183800.0
2014-11-30,186900.0
2014-10-31,188000.0
2014-09-30,185100.0
2014-08-31,181900.0
2014-07-31,178100.0
2014-06-30,175100.0
2014-05-31,174500.0
2014-04-30,170000.0
2014-03-31,162400.0
2014-02-28,159100.0
2014-01-31,160400.0
2013-12-31,161200.0
2013-11-30,160600.0
2013-10-31,157400.0
2013-09-30,153400.0
2013-08-31,151700.0
2013-07-31,151600.0
2013-06-30,151500.0
2013-05-31,151600.0
2013-04-30,152000.0
2013-03-31,151800.0
2013-02-28,150800.0
2013-01-31,150000.0
2012-12-31,149200.0
2012-11-30,148700.0
2012-10-31,149900.0
2012-09-30,151400.0
2012-08-31,151700.0
2012-07-31,151300.0
2012-06-30,150700.0
2012-05-31,150000.0
2012-04-30,150700.0
2012-03-31,151900.0
2012-02-29,153200.0
2012-01-31,154800.0
2011-12-31,155500.0
2011-11-30,154600.0
2011-10-31,154400.0
2011-09-30,155100.0
2011-08-31,156200.0
2011-07-31,159700.0
2011-06-30,164800.0
2011-05-31,169100.0
2011-04-30,172100.0
2011-03-31,174800.0
2011-02-28,176400.0
2011-01-31,177000.0
2010-12-31,177200.0
2010-11-30,178500.0
2010-10-31,182000.0
2010-09-30,186800.0
2010-08-31,191000.0
2010-07-31,192800.0
2010-06-30,193200.0
2010-05-31,193100.0
2010-04-30,192700.0
2010-03-31,193900.0
2010-02-28,196000.0
2010-01-31,197100.0
2009-12-31,198600.0
2009-11-30,200400.0
2009-10-31,200200.0
2009-09-30,197700.0
2009-08-31,194700.0
2009-07-31,194500.0
2009-06-30,197300.0
2009-05-31,200800.0
2009-04-30,204100.0
2009-03-31,207400.0
2009-02-28,210100.0
2009-01-31,212400.0
2008-12-31,214200.0
2008-11-30,215200.0
2008-10-31,216300.0
2008-09-30,218400.0
2008-08-31,221100.0
2008-07-31,225000.0
2008-06-30,228800.0
2008-05-31,231600.0
2008-04-30,233700.0
2008-03-31,234700.0
2008-02-29,235500.0
2008-01-31,237800.0
2007-12-31,240500.0
2007-11-30,241700.0
2007-10-31,242300.0
2007-09-30,242900.0
2007-08-31,242700.0
2007-07-31,240100.0
2007-06-30,234500.0
2007-05-31,229000.0
2007-04-30,227600.0
2007-03-31,229100.0
2007-02-28,230300.0
2007-01-31,229100.0
2006-12-31,227700.0
2006-11-30,226300.0
2006-10-31,226100.0
2006-09-30,228500.0
2006-08-31,230900.0
2006-07-31,230300.0
2006-06-30,229500.0
2006-05-31,229800.0
2006-04-30,226900.0
2006-03-31,221400.0
2006-02-28,216400.0
2006-01-31,213300.0
2005-12-31,210300.0
2005-11-30,208500.0
2005-10-31,206100.0
2005-09-30,202800.0
2005-08-31,199700.0
2005-07-31,197000.0
2005-06-30,194200.0
2005-05-31,191500.0
2005-04-30,188800.0
2005-03-31,186100.0
2005-02-28,184400.0
2005-01-31,183000.0
2004-12-31,180800.0
2004-11-30,177800.0
2004-10-31,174600.0
2004-09-30,171300.0
2004-08-31,168100.0
2004-07-31,165800.0
2004-06-30,163900.0
2004-05-31,162100.0
2004-04-30,161000.0
2004-03-31,160200.0
2004-02-29,159200.0
2004-01-31,157800.0
2003-12-31,156900.0
2003-11-30,157100.0
2003-10-31,158300.0
2003-09-30,159500.0
2003-08-31,161200.0
2003-07-31,162300.0
2003-06-30,161600.0
2003-05-31,160300.0
2003-04-30,159400.0
2003-03-31,158400.0
2003-02-28,156100.0
2003-01-31,153300.0
2002-12-31,151900.0
2002-11-30,152100.0
2002-10-31,151600.0
2002-09-30,150200.0
2002-08-31,148600.0
2002-07-31,147300.0
2002-06-30,146800.0
2002-05-31,146300.0
2002-04-30,146400.0
2002-03-31,148000.0
2002-02-28,150800.0
2002-01-31,153500.0
2001-12-31,154500.0
2001-11-30,153000.0
2001-10-31,150900.0
2001-09-30,149300.0
2001-08-31,147600.0
2001-07-31,146500.0
2001-06-30,145500.0
2001-05-31,144300.0
2001-04-30,143400.0
2001-03-31,143100.0
2001-02-28,142000.0
2001-01-31,140700.0
2000-12-31,140200.0
2000-11-30,140000.0
2000-10-31,140400.0
2000-09-30,141400.0
2000-08-31,142400.0
2000-07-31,142700.0
2000-06-30,143000.0
2000-05-31,143600.0
2000-04-30,143600.0
2000-03-31,142200.0
2000-02-29,140900.0
2000-01-31,139700.0
1999-12-31,138200.0
1999-11-30,136600.0
1999-10-31,135400.0
1999-09-30,134300.0
1999-08-31,133900.0
1999-07-31,134500.0
1999-06-30,135000.0
1999-05-31,134900.0
1999-04-30,134000.0
1999-03-31,132500.0
1999-02-28,131100.0
1999-01-31,130000.0
1998-12-31,129000.0
1998-11-30,127900.0
1998-10-31,126400.0
1998-09-30,125000.0
1998-08-31,122700.0
1998-07-31,120200.0
1998-06-30,118600.0
1998-05-31,118800.0
1998-04-30,119600.0
1998-03-31,120400.0
1998-02-28,120900.0
1998-01-31,120900.0
1997-12-31,120300.0
1997-11-30,119600.0
1997-10-31,119100.0
1997-09-30,118300.0
1997-08-31,117500.0
1997-07-31,116500.0
1997-06-30,115700.0
1997-05-31,114600.0
1997-04-30,112000.0
1997-03-31,109800.0
1997-02-28,108900.0
1997-01-31,108300.0
1996-12-31,107200.0
1996-11-30,106700.0
1996-10-31,106300.0
1996-09-30,104900.0
1996-08-31,103300.0
1996-07-31,102800.0
1996-06-30,103000.0
1996-05-31,102600.0
1996-04-30,102700.0
