Date,Value
2015-02-28,252800.0
2015-01-31,229950.0
2014-12-31,174900.0
2014-11-30,253800.0
2014-10-31,224000.0
2014-09-30,253800.0
2014-08-31,268000.0
2014-07-31,228000.0
2014-06-30,159000.0
2014-05-31,228000.0
2014-04-30,228000.0
2014-03-31,189900.0
2014-02-28,219500.0
2014-01-31,219500.0
2013-12-31,189500.0
2013-11-30,119900.0
2013-10-31,115000.0
2013-09-30,119900.0
2013-08-31,105000.0
2013-07-31,123900.0
2013-06-30,149500.0
2013-05-31,149500.0
2013-04-30,219500.0
2013-03-31,219500.0
2013-02-28,219500.0
2013-01-31,159950.0
2012-12-31,169500.0
2012-11-30,229900.0
2012-10-31,189500.0
2012-09-30,229900.0
2012-08-31,189500.0
2012-07-31,149900.0
2012-06-30,209900.0
2012-05-31,219500.0
2012-04-30,209900.0
2012-03-31,209900.0
2012-02-29,209900.0
2012-01-31,175000.0
2011-12-31,175000.0
2011-11-30,175000.0
2011-10-31,175000.0
2011-09-30,154900.0
2011-08-31,169000.0
2011-07-31,174900.0
2011-06-30,162900.0
2011-05-31,189500.0
2011-04-30,169900.0
2011-03-31,149000.0
2011-02-28,79500.0
2011-01-31,139500.0
2010-12-31,135000.0
2010-11-30,199900.0
2010-10-31,229000.0
2010-09-30,199900.0
2010-08-31,199900.0
2010-07-31,199900.0
2010-06-30,209000.0
2010-05-31,259500.0
2010-04-30,259500.0
2010-03-31,259500.0
2010-02-28,263500.0
2010-01-31,285000.0
2009-12-31,274900.0
2009-11-30,274900.0
2009-10-31,198800.0
2009-09-30,198900.0
2009-08-31,198800.0
2009-07-31,169500.0
2009-06-30,169500.0
2009-05-31,169500.0
2009-04-30,169500.0
2009-03-31,198900.0
2009-02-28,274900.0
2009-01-31,198900.0
2008-12-31,198900.0
2008-11-30,274900.0
2008-10-31,274900.0
