Date,Value
2015-09-30,345100.0
2015-08-31,346800.0
2015-07-31,344800.0
2015-06-30,341600.0
2015-05-31,336400.0
2015-04-30,333000.0
2015-03-31,337500.0
2015-02-28,340600.0
2015-01-31,340200.0
2014-12-31,340300.0
2014-11-30,340000.0
2014-10-31,339400.0
2014-09-30,338900.0
2014-08-31,338000.0
2014-07-31,336200.0
2014-06-30,334600.0
2014-05-31,333700.0
2014-04-30,333000.0
2014-03-31,332600.0
2014-02-28,332500.0
2014-01-31,331000.0
2013-12-31,328400.0
2013-11-30,324200.0
2013-10-31,319200.0
2013-09-30,314800.0
2013-08-31,312100.0
2013-07-31,310400.0
2013-06-30,308300.0
2013-05-31,304400.0
2013-04-30,301200.0
2013-03-31,299800.0
2013-02-28,299500.0
2013-01-31,301100.0
2012-12-31,304600.0
2012-11-30,308700.0
2012-10-31,312000.0
2012-09-30,314100.0
2012-08-31,314900.0
2012-07-31,314000.0
2012-06-30,312500.0
2012-05-31,312500.0
2012-04-30,313800.0
2012-03-31,314000.0
2012-02-29,314100.0
2012-01-31,314800.0
2011-12-31,314900.0
2011-11-30,313800.0
2011-10-31,312000.0
2011-09-30,310700.0
2011-08-31,310700.0
2011-07-31,312900.0
2011-06-30,316600.0
2011-05-31,320800.0
2011-04-30,326300.0
2011-03-31,331300.0
2011-02-28,334700.0
2011-01-31,337600.0
2010-12-31,339500.0
2010-11-30,338300.0
2010-10-31,337200.0
2010-09-30,337100.0
2010-08-31,336700.0
2010-07-31,335900.0
2010-06-30,335100.0
2010-05-31,334900.0
2010-04-30,335600.0
2010-03-31,337700.0
2010-02-28,340300.0
2010-01-31,343900.0
2009-12-31,348800.0
2009-11-30,354700.0
2009-10-31,358500.0
2009-09-30,361100.0
2009-08-31,363000.0
2009-07-31,364500.0
2009-06-30,365900.0
2009-05-31,367400.0
2009-04-30,368200.0
2009-03-31,367400.0
2009-02-28,365300.0
2009-01-31,358900.0
2008-12-31,351300.0
2008-11-30,348400.0
2008-10-31,350600.0
2008-09-30,353600.0
2008-08-31,358000.0
2008-07-31,364100.0
2008-06-30,370000.0
2008-05-31,373500.0
2008-04-30,373800.0
2008-03-31,372600.0
2008-02-29,371800.0
2008-01-31,373300.0
2007-12-31,376200.0
2007-11-30,379200.0
2007-10-31,382000.0
2007-09-30,385600.0
2007-08-31,387500.0
2007-07-31,386600.0
2007-06-30,385000.0
2007-05-31,384700.0
2007-04-30,385900.0
2007-03-31,388300.0
2007-02-28,390900.0
2007-01-31,393000.0
2006-12-31,393900.0
2006-11-30,394900.0
2006-10-31,394900.0
2006-09-30,390800.0
2006-08-31,385400.0
2006-07-31,382900.0
2006-06-30,380400.0
2006-05-31,375500.0
2006-04-30,368700.0
2006-03-31,362500.0
2006-02-28,357800.0
2006-01-31,354400.0
2005-12-31,350600.0
2005-11-30,345900.0
2005-10-31,340600.0
2005-09-30,336000.0
2005-08-31,331600.0
2005-07-31,325900.0
2005-06-30,320300.0
2005-05-31,316100.0
2005-04-30,312800.0
2005-03-31,309300.0
2005-02-28,304700.0
2005-01-31,298100.0
2004-12-31,291600.0
2004-11-30,286700.0
2004-10-31,282600.0
2004-09-30,280000.0
2004-08-31,278300.0
2004-07-31,275900.0
2004-06-30,272800.0
2004-05-31,269300.0
2004-04-30,264900.0
2004-03-31,260700.0
2004-02-29,258200.0
2004-01-31,256800.0
2003-12-31,256000.0
2003-11-30,253700.0
2003-10-31,250500.0
2003-09-30,247600.0
2003-08-31,244400.0
2003-07-31,241200.0
2003-06-30,239600.0
2003-05-31,238900.0
2003-04-30,237000.0
2003-03-31,235000.0
2003-02-28,233700.0
2003-01-31,232800.0
2002-12-31,231600.0
2002-11-30,230800.0
2002-10-31,229400.0
2002-09-30,227200.0
2002-08-31,224500.0
2002-07-31,221900.0
2002-06-30,219100.0
2002-05-31,217600.0
2002-04-30,218600.0
2002-03-31,220000.0
2002-02-28,219600.0
2002-01-31,218900.0
2001-12-31,218400.0
2001-11-30,217300.0
2001-10-31,215600.0
2001-09-30,214100.0
2001-08-31,213100.0
2001-07-31,211700.0
2001-06-30,210400.0
2001-05-31,209500.0
2001-04-30,209700.0
2001-03-31,208900.0
2001-02-28,207200.0
2001-01-31,205500.0
2000-12-31,204500.0
2000-11-30,203200.0
2000-10-31,202000.0
2000-09-30,201100.0
2000-08-31,201200.0
2000-07-31,202400.0
2000-06-30,203100.0
2000-05-31,202200.0
2000-04-30,200500.0
2000-03-31,198300.0
2000-02-29,195900.0
2000-01-31,193400.0
1999-12-31,190400.0
1999-11-30,187600.0
1999-10-31,185600.0
1999-09-30,184600.0
1999-08-31,183100.0
1999-07-31,181600.0
1999-06-30,180400.0
1999-05-31,179300.0
1999-04-30,178500.0
1999-03-31,178600.0
1999-02-28,178800.0
1999-01-31,179000.0
1998-12-31,179600.0
1998-11-30,180000.0
1998-10-31,179500.0
1998-09-30,179500.0
1998-08-31,180700.0
1998-07-31,182200.0
1998-06-30,183200.0
1998-05-31,182600.0
1998-04-30,182100.0
1998-03-31,181900.0
1998-02-28,181300.0
1998-01-31,180400.0
1997-12-31,180100.0
1997-11-30,180100.0
1997-10-31,181000.0
1997-09-30,180900.0
1997-08-31,179200.0
1997-07-31,177600.0
1997-06-30,175800.0
1997-05-31,173900.0
1997-04-30,170900.0
1997-03-31,168400.0
1997-02-28,167400.0
1997-01-31,166500.0
1996-12-31,164200.0
1996-11-30,162700.0
1996-10-31,161600.0
1996-09-30,160400.0
1996-08-31,159100.0
1996-07-31,157200.0
1996-06-30,155300.0
1996-05-31,154100.0
1996-04-30,152900.0
