Date,Value
2015-09-30,250250.0
2015-08-31,244575.0
2015-07-31,240325.0
2015-06-30,245900.0
2015-05-31,235100.0
2015-04-30,227035.0
2015-03-31,204015.0
2015-02-28,223500.0
2015-01-31,217855.0
2014-12-31,219380.0
2014-11-30,218319.55
2014-10-31,226493.95
2014-09-30,230748.5
2014-08-31,225950.0
2014-07-31,233300.0
2014-06-30,233160.0
2014-05-31,235340.0
2014-04-30,230885.0
2014-03-31,229457.5
2014-02-28,236807.5
2014-01-31,233320.25
2013-12-31,230772.25
2013-11-30,220142.5
2013-10-31,224350.0
2013-09-30,238385.0
2013-08-31,237715.0
2013-07-31,227450.0
2013-06-30,231800.0
2013-05-31,233150.0
2013-04-30,232425.0
2013-03-31,217875.0
2013-02-28,210000.0
2013-01-31,202031.25
2012-12-31,213906.25
2012-11-30,212687.5
2012-10-31,217780.0
2012-09-30,218801.6
2012-08-31,227315.4
2012-07-31,228097.0
2012-06-30,236625.0
2012-05-31,240589.2
2012-04-30,235852.7059
2012-03-31,197636.9231
2012-01-31,214999.1
2011-12-31,245997.9
2011-11-30,227915.0
2011-10-31,236000.0
2011-09-30,228750.0
2011-08-31,234077.55
2011-07-31,239930.95
2011-06-30,234393.5
2011-05-31,220315.0
2011-04-30,229200.0
2011-03-31,236000.0
2011-02-28,243500.0
2011-01-31,234992.5
2010-12-31,232975.0
2010-11-30,242207.5
2010-10-31,254025.0
2010-09-30,258450.0
2010-08-31,256100.0
2010-07-31,264892.5
2010-06-30,250932.5
2010-05-31,241775.0
2010-04-30,238850.0
2010-03-31,234610.0
2010-02-28,229232.5
2010-01-31,227582.5
2009-12-31,249250.0
2009-11-30,248825.0
2009-10-31,251325.0
2009-09-30,248817.5
2009-08-31,251978.85
2009-07-31,249105.5
2009-06-30,249425.0
2009-05-31,244490.0
2009-04-30,240225.0
2009-03-31,239160.0
2009-02-28,254600.0
2009-01-31,251100.0
2008-12-31,252650.0
2008-11-30,266950.0
2008-10-31,261550.0
2008-09-30,261200.0
2008-08-31,255750.0
2008-07-31,258485.0
2008-06-30,251140.0
2008-05-31,262927.5
2008-04-30,252772.5
2008-03-31,256425.0
2008-02-29,254577.55
2008-01-31,245930.95
2007-12-31,239109.25
2007-11-30,246151.75
2007-10-31,257202.5
2007-09-30,268550.0
2007-08-31,275435.0
2007-07-31,275590.0
2007-06-30,274935.0
2007-05-31,273640.0
2007-04-30,251950.0
2007-03-31,253685.0
2007-02-28,258915.0
2007-01-31,270662.5
2006-12-31,277512.5
2006-11-30,261406.5
2006-10-31,257173.5
2006-09-30,258020.0
2006-08-31,265520.0
2006-07-31,262352.05
2006-06-30,252221.45
2006-05-31,245113.5
2006-04-30,247750.0
2006-03-31,246100.0
2006-02-28,245175.0
2006-01-31,240500.0
2005-12-31,240900.0
2005-11-30,252000.0
2005-10-31,249250.0
2005-09-30,248985.0
2005-08-31,245840.0
2005-07-31,239475.0
2005-06-30,218600.0
2005-05-31,207750.0
2005-04-30,199350.0
2005-03-31,199950.0
2005-02-28,190965.0
2005-01-31,193910.0
2004-12-31,194410.0
2004-11-30,191950.0
2004-10-31,189965.0
2004-09-30,198075.0
2004-08-31,202900.0
2004-07-31,194475.0
2004-06-30,183300.75
2004-05-31,179376.75
2004-04-30,176512.5
2004-03-31,179465.0
2004-02-29,189412.5
2004-01-31,194162.5
2003-12-31,180860.0
2003-11-30,174515.0
2003-10-31,170325.0
2003-09-30,173175.0
2003-08-31,178500.0
2003-07-31,176800.0
2003-06-30,173350.0
2003-05-31,169885.0
2003-04-30,163490.0
2003-03-31,164275.0
2003-02-28,167500.0
2003-01-31,169675.0
2002-12-31,165825.0
2002-11-30,168250.0
2002-10-31,161500.0
2002-09-30,159550.0
2002-08-31,162744.0
2002-07-31,160986.0
2002-06-30,157915.0
2002-05-31,154965.0
2002-04-30,146285.0
2002-03-31,152065.0
2002-02-28,150125.0
2002-01-31,140775.0
2001-12-31,138800.0
2001-11-30,139485.0
2001-10-31,139390.0
2001-09-30,141875.0
2001-08-31,146025.0
2001-07-31,149100.0
2001-06-30,156010.0
2001-05-31,155015.0
2001-04-30,140150.0
2001-03-31,138235.0
2001-02-28,140750.0
2001-01-31,140789.25
2000-12-31,144323.25
2000-11-30,146247.5
2000-10-31,140225.0
2000-09-30,142025.0
2000-08-31,144700.0
2000-07-31,146050.0
2000-06-30,140743.4
2000-05-31,138969.6
2000-04-30,139043.0
2000-03-31,143300.0
2000-02-29,141850.0
2000-01-31,141525.0
1999-12-31,135850.0
1999-11-30,134875.0
1999-10-31,138435.0
1999-09-30,135140.0
1999-08-31,142275.0
1999-07-31,140035.0
1999-06-30,138790.0
1999-05-31,133425.0
1999-04-30,127075.0
1999-03-31,130475.0
1999-02-28,139837.5
1999-01-31,134662.5
1998-12-31,133900.0
1998-11-30,134350.0
1998-10-31,136250.0
1998-09-30,136092.5
1998-08-31,137217.5
1998-07-31,126690.0
1998-06-30,123800.0
1998-05-31,123525.0
1998-04-30,126575.0
1998-03-31,124800.0
1998-02-28,126500.0
1998-01-31,124250.0
1997-12-31,122200.0
1997-11-30,120800.0
1997-10-31,124285.0
1997-09-30,131565.0
1997-08-31,134698.8
1997-07-31,135197.2
1997-06-30,132396.0
1997-05-31,125500.0
1997-04-30,129625.0
1997-03-31,122025.0
1997-02-28,117575.0
1997-01-31,114875.0
1996-12-31,119050.0
1996-11-30,120300.0
1996-10-31,119925.0
1996-09-30,126175.0
1996-08-31,133375.0
1996-07-31,127060.0
1996-06-30,123265.0
1996-05-31,113900.0
1996-04-30,120525.0
