Date,Value
2010-09-30,189070.0
2010-08-31,199000.0
2010-07-31,199000.0
2010-06-30,199000.0
2010-05-31,199000.0
2010-04-30,199000.0
2010-03-31,201978.0
2010-02-28,202080.0
2010-01-31,202080.0
2009-12-31,202080.0
2009-11-30,202000.0
2009-10-31,202000.0
2009-09-30,239950.0
2009-08-31,272250.0
