Date,Value
2015-02-28,859000.0
2015-01-31,849950.0
2014-12-31,799950.0
2014-11-30,775000.0
2014-10-31,748880.0
2014-09-30,725000.0
2014-08-31,725000.0
2014-07-31,725000.0
2014-06-30,725000.0
2014-05-31,719950.0
2014-04-30,730000.0
2014-03-31,775000.0
2014-02-28,799995.0
2014-01-31,799995.0
2013-12-31,760000.0
2013-11-30,749990.0
2013-10-31,739000.0
2013-09-30,709000.0
2013-08-31,699950.0
2013-07-31,710000.0
2013-06-30,710000.0
2013-05-31,652900.0
2013-04-30,665000.0
2013-03-31,650000.0
2013-02-28,635000.0
2013-01-31,599000.0
2012-12-31,595000.0
2012-11-30,599000.0
2012-10-31,619900.0
2012-09-30,619900.0
2012-08-31,619900.0
2012-07-31,629500.0
2012-06-30,620000.0
2012-05-31,619950.0
2012-04-30,600000.0
2012-03-31,599950.0
2012-02-29,584000.0
2012-01-31,574990.0
2011-12-31,559000.0
2011-11-30,555000.0
2011-10-31,557000.0
2011-09-30,558000.0
2011-08-31,561500.0
2011-07-31,569900.0
2011-06-30,579950.0
2011-05-31,589500.0
2011-04-30,599000.0
2011-03-31,589950.0
2011-02-28,599000.0
2011-01-31,584950.0
2010-12-31,582950.0
2010-11-30,596990.0
2010-10-31,581000.0
2010-09-30,590850.0
2010-08-31,581000.0
2010-07-31,599900.0
2010-06-30,599950.0
2010-05-31,598900.0
2010-04-30,585000.0
2010-03-31,564950.0
2010-02-28,583950.0
2010-01-31,574200.0
2009-12-31,579950.0
2009-11-30,598500.0
2009-10-31,575000.0
2009-09-30,579950.0
2009-08-31,575000.0
2009-07-31,575000.0
2009-06-30,574500.0
2009-05-31,599000.0
2009-04-30,589950.0
2009-03-31,599000.0
2009-02-28,600000.0
2009-01-31,650000.0
2008-12-31,615000.0
2008-11-30,649000.0
2008-10-31,669500.0
