Date,Value
2015-08-31,1625.0
2015-07-31,1650.0
2015-06-30,1400.0
2015-05-31,1450.0
2015-04-30,1495.0
2015-03-31,1500.0
2015-02-28,1200.0
2015-01-31,1375.0
2014-12-31,1210.0
2014-11-30,1225.0
2014-10-31,1330.0
2014-09-30,1300.0
2014-08-31,1100.0
2014-07-31,1095.0
2014-06-30,990.0
2014-05-31,910.0
2014-04-30,910.0
2014-03-31,920.0
2014-02-28,1095.0
2014-01-31,1250.0
2013-12-31,1300.0
2013-11-30,1200.0
2013-10-31,1300.0
2013-09-30,1350.0
2013-08-31,1299.0
2013-07-31,925.0
2013-06-30,1005.0
2013-05-31,1060.0
2013-04-30,995.0
2013-03-31,1010.0
2013-02-28,860.0
2013-01-31,850.0
2012-12-31,910.0
2012-11-30,950.0
2012-10-31,875.0
2012-09-30,950.0
2012-08-31,1095.0
2012-07-31,975.0
2012-06-30,875.0
2012-05-31,895.0
2012-04-30,895.0
2012-03-31,925.0
2012-02-29,995.0
2012-01-31,1075.0
2011-12-31,1050.0
2011-11-30,1050.0
2011-10-31,1050.0
2011-09-30,1025.0
2011-08-31,995.0
2011-07-31,1425.0
2011-06-30,1200.0
2011-05-31,1095.0
2011-04-30,965.0
2011-03-31,780.0
2011-02-28,775.0
2011-01-31,780.0
2010-12-31,785.0
2010-11-30,750.0
2010-10-31,740.0
2010-09-30,725.0
2010-08-31,710.0
