Date,Value
2015-09-30,281600.0
2015-08-31,279500.0
2015-07-31,278000.0
2015-06-30,276300.0
2015-05-31,273600.0
2015-04-30,270800.0
2015-03-31,270800.0
2015-02-28,269600.0
2015-01-31,266500.0
2014-12-31,265000.0
2014-11-30,262600.0
2014-10-31,260500.0
2014-09-30,259300.0
2014-08-31,258000.0
2014-07-31,256500.0
2014-06-30,255800.0
2014-05-31,255200.0
2014-04-30,254100.0
2014-03-31,253500.0
2014-02-28,253600.0
2014-01-31,252700.0
2013-12-31,249600.0
2013-11-30,247500.0
2013-10-31,247400.0
2013-09-30,247100.0
2013-08-31,245500.0
2013-07-31,243800.0
2013-06-30,242000.0
2013-05-31,240100.0
2013-04-30,238600.0
2013-03-31,237300.0
2013-02-28,235300.0
2013-01-31,233100.0
2012-12-31,231900.0
2012-11-30,230900.0
2012-10-31,230200.0
2012-09-30,229600.0
2012-08-31,228700.0
2012-07-31,226500.0
2012-06-30,224200.0
2012-05-31,222500.0
2012-04-30,222700.0
2012-03-31,223400.0
2012-02-29,222900.0
2012-01-31,221500.0
2011-12-31,221600.0
2011-11-30,223100.0
2011-10-31,224400.0
2011-09-30,225800.0
2011-08-31,229100.0
2011-07-31,233400.0
2011-06-30,236800.0
2011-05-31,238700.0
2011-04-30,238900.0
2011-03-31,239000.0
2011-02-28,241300.0
2011-01-31,243800.0
2010-12-31,244700.0
2010-11-30,245900.0
2010-10-31,249100.0
2010-09-30,252500.0
2010-08-31,255000.0
2010-07-31,256100.0
2010-06-30,256900.0
2010-05-31,259400.0
2010-04-30,263500.0
2010-03-31,265200.0
2010-02-28,265600.0
2010-01-31,268300.0
2009-12-31,272400.0
2009-11-30,274100.0
2009-10-31,273300.0
2009-09-30,271400.0
2009-08-31,270200.0
2009-07-31,270400.0
2009-06-30,273200.0
2009-05-31,276400.0
2009-04-30,279200.0
2009-03-31,282600.0
2009-02-28,286700.0
2009-01-31,290800.0
2008-12-31,295000.0
2008-11-30,299600.0
2008-10-31,303600.0
2008-09-30,307400.0
2008-08-31,309800.0
2008-07-31,311900.0
2008-06-30,313000.0
2008-05-31,313700.0
2008-04-30,313700.0
2008-03-31,314900.0
2008-02-29,316800.0
2008-01-31,318900.0
2007-12-31,320200.0
2007-11-30,321900.0
2007-10-31,324400.0
2007-09-30,327200.0
2007-08-31,329400.0
2007-07-31,331300.0
2007-06-30,332500.0
2007-05-31,332500.0
2007-04-30,332100.0
2007-03-31,331600.0
2007-02-28,330100.0
2007-01-31,328100.0
2006-12-31,327100.0
2006-11-30,326600.0
2006-10-31,325800.0
2006-09-30,324200.0
2006-08-31,322100.0
2006-07-31,319200.0
2006-06-30,315900.0
2006-05-31,313000.0
2006-04-30,310300.0
2006-03-31,306800.0
2006-02-28,303300.0
2006-01-31,300100.0
2005-12-31,296600.0
2005-11-30,291800.0
2005-10-31,286100.0
2005-09-30,281000.0
2005-08-31,276900.0
2005-07-31,273000.0
2005-06-30,268600.0
2005-05-31,264000.0
2005-04-30,259700.0
2005-03-31,256000.0
2005-02-28,252500.0
2005-01-31,248700.0
2004-12-31,245000.0
2004-11-30,241800.0
2004-10-31,238600.0
2004-09-30,235900.0
2004-08-31,234400.0
2004-07-31,232500.0
2004-06-30,230400.0
2004-05-31,228000.0
2004-04-30,225900.0
2004-03-31,224100.0
2004-02-29,222600.0
2004-01-31,220700.0
2003-12-31,218700.0
2003-11-30,216700.0
2003-10-31,215000.0
2003-09-30,213500.0
2003-08-31,212300.0
2003-07-31,211900.0
2003-06-30,212300.0
2003-05-31,212700.0
2003-04-30,212500.0
2003-03-31,212000.0
2003-02-28,211000.0
2003-01-31,209700.0
2002-12-31,207900.0
2002-11-30,206900.0
2002-10-31,205700.0
2002-09-30,204300.0
2002-08-31,201900.0
2002-07-31,200000.0
2002-06-30,198600.0
2002-05-31,197900.0
2002-04-30,197000.0
2002-03-31,195800.0
2002-02-28,194700.0
2002-01-31,194200.0
2001-12-31,193800.0
2001-11-30,193000.0
2001-10-31,192200.0
2001-09-30,191400.0
2001-08-31,191000.0
2001-07-31,190200.0
2001-06-30,189100.0
2001-05-31,188000.0
2001-04-30,187100.0
2001-03-31,186300.0
2001-02-28,185500.0
2001-01-31,184300.0
2000-12-31,182900.0
2000-11-30,181800.0
2000-10-31,181900.0
2000-09-30,182100.0
2000-08-31,181000.0
2000-07-31,179400.0
2000-06-30,178600.0
2000-05-31,178400.0
2000-04-30,177900.0
2000-03-31,177300.0
2000-02-29,176500.0
2000-01-31,175900.0
1999-12-31,175100.0
1999-11-30,174200.0
1999-10-31,172600.0
1999-09-30,171000.0
1999-08-31,170200.0
1999-07-31,169700.0
1999-06-30,168100.0
1999-05-31,166200.0
1999-04-30,165000.0
1999-03-31,164100.0
1999-02-28,163000.0
1999-01-31,161800.0
1998-12-31,160700.0
1998-11-30,159700.0
1998-10-31,159200.0
1998-09-30,159100.0
1998-08-31,158500.0
1998-07-31,157600.0
1998-06-30,156900.0
1998-05-31,155500.0
1998-04-30,154200.0
1998-03-31,153300.0
1998-02-28,152400.0
1998-01-31,151600.0
1997-12-31,151100.0
1997-11-30,150500.0
1997-10-31,149300.0
1997-09-30,148100.0
1997-08-31,147300.0
1997-07-31,146700.0
1997-06-30,145800.0
1997-05-31,144800.0
1997-04-30,143700.0
1997-03-31,142400.0
1997-02-28,141200.0
1997-01-31,140100.0
1996-12-31,139200.0
1996-11-30,138600.0
1996-10-31,138200.0
1996-09-30,137400.0
1996-08-31,136500.0
1996-07-31,136100.0
1996-06-30,135900.0
1996-05-31,135800.0
1996-04-30,135800.0
