Date,Value
2015-02-28,169900.0
2015-01-31,167500.0
2014-12-31,162000.0
2014-11-30,148000.0
2014-10-31,167500.0
2014-09-30,169500.0
2014-08-31,175000.0
2014-07-31,155900.0
2014-06-30,155900.0
2014-05-31,170000.0
2014-04-30,169500.0
2014-03-31,159900.0
2014-02-28,169500.0
2014-01-31,175000.0
2013-12-31,180000.0
2013-11-30,175000.0
2013-10-31,185000.0
2013-09-30,180000.0
2013-08-31,180000.0
2013-07-31,185000.0
2013-06-30,180000.0
2013-05-31,180000.0
2013-04-30,179500.0
2013-03-31,169500.0
2013-02-28,159900.0
2013-01-31,197500.0
2012-12-31,164500.0
2012-11-30,164500.0
2012-10-31,169500.0
2012-09-30,239900.0
2012-08-31,210000.0
2012-07-31,159900.0
2012-06-30,179900.0
2012-05-31,220000.0
2012-04-30,179000.0
2012-03-31,175000.0
2012-02-29,139900.0
2012-01-31,149800.0
2011-12-31,118000.0
2011-11-30,139900.0
2011-10-31,160000.0
2011-09-30,174900.0
2011-08-31,170000.0
2011-07-31,170000.0
2011-06-30,169000.0
2011-05-31,174900.0
2011-04-30,170000.0
2011-03-31,170000.0
2011-02-28,199000.0
2011-01-31,180000.0
2010-12-31,210000.0
2010-11-30,210000.0
2010-10-31,145900.0
2010-09-30,210000.0
2010-08-31,190000.0
2010-07-31,162000.0
2010-06-30,165000.0
2010-05-31,172000.0
2010-04-30,175000.0
2010-03-31,175000.0
2010-02-28,175000.0
2010-01-31,199000.0
2009-12-31,199000.0
2009-11-30,175000.0
2009-10-31,172500.0
2009-09-30,198000.0
2009-08-31,198000.0
2009-07-31,209000.0
2009-06-30,194500.0
2009-05-31,194500.0
2009-04-30,199900.0
2009-03-31,182000.0
2009-02-28,182000.0
2009-01-31,182000.0
2008-12-31,182000.0
2008-11-30,216000.0
2008-10-31,216000.0
