Date,Value
2015-09-30,230800.0
2015-08-31,228900.0
2015-07-31,227300.0
2015-06-30,225500.0
2015-05-31,223500.0
2015-04-30,221100.0
2015-03-31,221500.0
2015-02-28,221300.0
2015-01-31,218800.0
2014-12-31,218000.0
2014-11-30,216900.0
2014-10-31,215700.0
2014-09-30,214900.0
2014-08-31,214600.0
2014-07-31,214800.0
2014-06-30,215100.0
2014-05-31,214300.0
2014-04-30,212800.0
2014-03-31,211200.0
2014-02-28,210100.0
2014-01-31,208900.0
2013-12-31,206800.0
2013-11-30,204600.0
2013-10-31,203500.0
2013-09-30,202100.0
2013-08-31,199500.0
2013-07-31,196600.0
2013-06-30,193800.0
2013-05-31,191500.0
2013-04-30,189300.0
2013-03-31,187100.0
2013-02-28,185400.0
2013-01-31,184600.0
2012-12-31,184400.0
2012-11-30,184100.0
2012-10-31,183800.0
2012-09-30,184100.0
2012-08-31,184900.0
2012-07-31,186000.0
2012-06-30,187300.0
2012-05-31,188600.0
2012-04-30,188900.0
2012-03-31,188700.0
2012-02-29,188800.0
2012-01-31,189200.0
2011-12-31,189800.0
2011-11-30,190200.0
2011-10-31,190500.0
2011-09-30,191800.0
2011-08-31,194600.0
2011-07-31,197100.0
2011-06-30,198400.0
2011-05-31,200200.0
2011-04-30,202200.0
2011-03-31,203900.0
2011-02-28,205700.0
2011-01-31,207300.0
2010-12-31,208500.0
2010-11-30,210200.0
2010-10-31,212000.0
2010-09-30,213100.0
2010-08-31,214200.0
2010-07-31,215300.0
2010-06-30,216200.0
2010-05-31,217500.0
2010-04-30,219800.0
2010-03-31,222500.0
2010-02-28,224000.0
2010-01-31,224300.0
2009-12-31,224800.0
2009-11-30,225100.0
2009-10-31,225200.0
2009-09-30,225100.0
2009-08-31,224800.0
2009-07-31,225000.0
2009-06-30,226400.0
2009-05-31,228000.0
2009-04-30,229200.0
2009-03-31,230400.0
2009-02-28,232200.0
2009-01-31,234100.0
2008-12-31,236400.0
2008-11-30,239600.0
2008-10-31,242800.0
2008-09-30,245200.0
2008-08-31,246500.0
2008-07-31,247900.0
2008-06-30,249100.0
2008-05-31,249800.0
2008-04-30,250200.0
2008-03-31,251500.0
2008-02-29,253200.0
2008-01-31,255300.0
2007-12-31,257700.0
2007-11-30,260200.0
2007-10-31,262800.0
2007-09-30,264700.0
2007-08-31,265200.0
2007-07-31,265200.0
2007-06-30,265500.0
2007-05-31,265100.0
2007-04-30,264000.0
2007-03-31,263100.0
2007-02-28,262200.0
2007-01-31,261300.0
2006-12-31,260500.0
2006-11-30,259300.0
2006-10-31,257900.0
2006-09-30,256900.0
2006-08-31,256300.0
2006-07-31,255200.0
2006-06-30,253600.0
2006-05-31,252800.0
2006-04-30,252800.0
2006-03-31,251700.0
2006-02-28,249200.0
2006-01-31,246200.0
2005-12-31,243000.0
2005-11-30,239200.0
2005-10-31,234600.0
2005-09-30,230600.0
2005-08-31,227000.0
2005-07-31,223000.0
2005-06-30,218900.0
2005-05-31,214500.0
2005-04-30,210100.0
2005-03-31,206600.0
2005-02-28,204200.0
2005-01-31,202100.0
2004-12-31,199900.0
2004-11-30,197300.0
2004-10-31,194800.0
2004-09-30,192300.0
2004-08-31,190300.0
2004-07-31,188800.0
2004-06-30,187100.0
2004-05-31,185300.0
2004-04-30,183400.0
2004-03-31,181700.0
2004-02-29,180500.0
2004-01-31,179900.0
2003-12-31,179500.0
2003-11-30,179000.0
2003-10-31,178300.0
2003-09-30,177800.0
2003-08-31,177200.0
2003-07-31,176600.0
2003-06-30,175800.0
2003-05-31,174700.0
2003-04-30,173000.0
2003-03-31,171100.0
2003-02-28,169100.0
2003-01-31,167000.0
2002-12-31,164900.0
2002-11-30,163100.0
2002-10-31,162100.0
2002-09-30,161600.0
2002-08-31,161400.0
2002-07-31,161400.0
2002-06-30,162100.0
2002-05-31,163500.0
2002-04-30,164900.0
2002-03-31,165800.0
2002-02-28,166500.0
2002-01-31,166500.0
2001-12-31,165600.0
2001-11-30,164800.0
2001-10-31,163900.0
2001-09-30,162700.0
2001-08-31,161700.0
2001-07-31,160700.0
2001-06-30,159600.0
2001-05-31,158800.0
2001-04-30,158900.0
2001-03-31,159100.0
2001-02-28,158800.0
2001-01-31,158500.0
2000-12-31,158400.0
2000-11-30,158800.0
2000-10-31,159700.0
2000-09-30,160500.0
2000-08-31,160200.0
2000-07-31,159400.0
2000-06-30,158500.0
2000-05-31,157800.0
2000-04-30,156900.0
2000-03-31,155900.0
2000-02-29,154900.0
2000-01-31,154100.0
1999-12-31,153500.0
1999-11-30,153000.0
1999-10-31,151900.0
1999-09-30,150500.0
1999-08-31,149700.0
1999-07-31,149300.0
1999-06-30,148300.0
1999-05-31,146800.0
1999-04-30,145100.0
1999-03-31,143600.0
1999-02-28,142000.0
1999-01-31,140500.0
1998-12-31,139500.0
1998-11-30,139000.0
1998-10-31,138600.0
1998-09-30,138200.0
1998-08-31,137700.0
1998-07-31,137300.0
1998-06-30,137200.0
1998-05-31,137300.0
1998-04-30,137300.0
1998-03-31,137200.0
1998-02-28,136700.0
1998-01-31,136000.0
1997-12-31,135200.0
1997-11-30,133900.0
1997-10-31,132300.0
1997-09-30,131400.0
1997-08-31,130600.0
1997-07-31,129200.0
1997-06-30,127600.0
1997-05-31,126100.0
1997-04-30,124700.0
1997-03-31,123300.0
1997-02-28,122200.0
1997-01-31,121300.0
1996-12-31,120400.0
1996-11-30,119500.0
1996-10-31,118600.0
1996-09-30,117200.0
1996-08-31,115600.0
1996-07-31,114800.0
1996-06-30,114500.0
1996-05-31,114000.0
1996-04-30,113400.0
