Date,Value
2007-09-30,250000.0
2007-06-30,243794.1176
2007-05-31,235000.0
2006-06-30,219312.5
2006-05-31,221397.0588
2006-04-30,216250.0
2005-10-31,204950.0
2005-06-30,179950.0
2004-10-31,152620.0
2004-09-30,145819.7
2004-08-31,146475.6471
2004-07-31,149298.0
2002-12-31,147950.0
2002-05-31,125000.0
