Date,Value
2015-06-30,900.0
2015-05-31,650.0
2015-04-30,795.0
2015-03-31,750.0
2015-02-28,715.0
2015-01-31,725.0
2014-12-31,715.0
2014-11-30,695.0
2014-10-31,650.0
2014-09-30,575.0
2014-08-31,575.0
2014-07-31,595.0
2014-06-30,595.0
2014-05-31,575.0
2014-04-30,600.0
2014-03-31,575.0
2014-02-28,800.0
2014-01-31,700.0
2013-12-31,485.0
2013-11-30,500.0
2013-10-31,650.0
2013-09-30,650.0
2013-08-31,650.0
2013-07-31,650.0
2013-06-30,700.0
2013-05-31,525.0
2013-04-30,695.0
2013-03-31,750.0
2013-02-28,850.0
2013-01-31,800.0
2012-12-31,875.0
2012-11-30,720.0
2012-10-31,750.0
2012-09-30,720.0
2012-08-31,675.0
2012-07-31,595.0
2012-06-30,699.0
2012-05-31,675.0
2012-04-30,650.0
2012-03-31,725.0
2012-02-29,700.0
2011-11-30,709.0
