Date,Value
2015-09-30,0.844
2015-08-31,0.842
2015-07-31,0.838
2015-06-30,0.834
2015-05-31,0.828
2015-04-30,0.82
2015-03-31,0.812
2015-02-28,0.804
2015-01-31,0.798
2014-12-31,0.794
2014-11-30,0.796
2014-10-31,0.802
2014-09-30,0.804
2014-08-31,0.808
2014-07-31,0.8
2014-06-30,0.788
2014-05-31,0.774
2014-04-30,0.764
2014-03-31,0.76
2014-02-28,0.76
2014-01-31,0.76
2013-12-31,0.756
2013-11-30,0.756
2013-10-31,0.764
2013-09-30,0.77
2013-08-31,0.77
2013-07-31,0.764
2013-06-30,0.758
2013-05-31,0.756
2013-04-30,0.75
2013-03-31,0.742
2013-02-28,0.732
2013-01-31,0.73
2012-12-31,0.73
2012-11-30,0.73
2012-10-31,0.73
2012-09-30,0.726
2012-08-31,0.718
2012-07-31,0.712
2012-06-30,0.706
2012-05-31,0.7
2012-04-30,0.692
2012-03-31,0.684
2012-02-29,0.68
2012-01-31,0.678
2011-12-31,0.676
2011-11-30,0.666
2011-10-31,0.646
2011-09-30,0.628
2011-08-31,0.626
2011-07-31,0.64
2011-06-30,0.656
2011-05-31,0.674
2011-04-30,0.692
2011-03-31,0.7
2011-02-28,0.708
2011-01-31,0.708
2010-12-31,0.712
2010-11-30,0.708
