Date,Value
2014-12-31,462400.0
2014-11-30,462400.0
2014-10-31,463100.0
2014-09-30,465700.0
2014-08-31,469700.0
2014-07-31,471100.0
2014-06-30,464000.0
2014-05-31,451400.0
2014-04-30,446400.0
2014-03-31,451900.0
2014-02-28,455200.0
2014-01-31,454300.0
2013-12-31,457700.0
2013-11-30,457900.0
2013-10-31,450200.0
2013-09-30,443400.0
2013-08-31,442800.0
2013-07-31,443400.0
2013-06-30,441100.0
2013-05-31,434800.0
2013-04-30,433200.0
2013-03-31,435200.0
2013-02-28,432800.0
2013-01-31,423000.0
2012-12-31,413500.0
2012-11-30,408500.0
2012-10-31,407800.0
2012-09-30,409500.0
2012-08-31,409900.0
2012-07-31,407700.0
2012-06-30,407400.0
2012-05-31,411700.0
2012-04-30,414700.0
2012-03-31,413500.0
2012-02-29,411700.0
2012-01-31,414200.0
2011-12-31,421100.0
2011-11-30,428700.0
2011-10-31,433900.0
2011-09-30,435900.0
2011-08-31,434500.0
2011-07-31,430700.0
2011-06-30,426500.0
2011-05-31,422700.0
2011-04-30,418800.0
2011-03-31,417900.0
2011-02-28,423600.0
2011-01-31,428600.0
2010-12-31,428400.0
2010-11-30,429100.0
2010-10-31,434800.0
2010-09-30,440100.0
2010-08-31,442100.0
2010-07-31,442000.0
2010-06-30,441800.0
2010-05-31,441700.0
2010-04-30,441600.0
2010-03-31,443100.0
2010-02-28,445100.0
2010-01-31,447000.0
2009-12-31,450200.0
2009-11-30,454200.0
2009-10-31,457300.0
2009-09-30,460300.0
2009-08-31,462700.0
2009-07-31,463500.0
2009-06-30,467600.0
2009-05-31,472800.0
2009-04-30,478200.0
2009-03-31,483300.0
2009-02-28,488200.0
2009-01-31,499600.0
2008-12-31,510000.0
2008-11-30,513500.0
2008-10-31,512300.0
2008-09-30,513100.0
2008-08-31,510100.0
2008-07-31,510100.0
2008-06-30,510600.0
2008-05-31,515500.0
2008-04-30,516600.0
2008-03-31,516000.0
2008-02-29,513200.0
2008-01-31,508300.0
2007-12-31,506300.0
2007-11-30,512900.0
2007-10-31,524400.0
2007-09-30,534500.0
2007-08-31,546800.0
2007-07-31,556600.0
2007-06-30,559600.0
2007-05-31,556300.0
2007-04-30,554500.0
2007-03-31,552400.0
2007-02-28,548000.0
2007-01-31,546200.0
2006-12-31,546300.0
2006-11-30,547600.0
2006-10-31,539400.0
2006-09-30,523300.0
2006-08-31,510800.0
2006-07-31,510400.0
2006-06-30,514900.0
2006-05-31,516100.0
2006-04-30,516800.0
2006-03-31,518800.0
2006-02-28,524800.0
2006-01-31,527500.0
2005-12-31,525100.0
2005-11-30,515400.0
2005-10-31,508000.0
2005-09-30,504900.0
2005-08-31,504400.0
2005-07-31,501000.0
2005-06-30,497500.0
2005-05-31,496500.0
2005-04-30,491100.0
2005-03-31,483200.0
2005-02-28,476400.0
2005-01-31,470000.0
2004-12-31,463100.0
2004-11-30,457200.0
2004-10-31,453800.0
2004-09-30,455200.0
2004-08-31,454000.0
2004-07-31,448200.0
2004-06-30,444500.0
2004-05-31,444600.0
2004-04-30,447800.0
2004-03-31,446600.0
2004-02-29,439600.0
2004-01-31,433100.0
2003-12-31,427100.0
2003-11-30,415700.0
2003-10-31,404800.0
2003-09-30,400400.0
2003-08-31,399600.0
2003-07-31,397100.0
2003-06-30,394100.0
2003-05-31,388700.0
2003-04-30,381200.0
2003-03-31,375400.0
2003-02-28,369500.0
2003-01-31,361100.0
2002-12-31,353400.0
2002-11-30,346500.0
2002-10-31,339200.0
2002-09-30,330200.0
2002-08-31,323700.0
2002-07-31,322100.0
2002-06-30,318800.0
2002-05-31,313700.0
2002-04-30,310200.0
2002-03-31,308800.0
2002-02-28,309600.0
2002-01-31,313000.0
2001-12-31,315400.0
2001-11-30,322800.0
2001-10-31,332500.0
2001-09-30,338100.0
2001-08-31,339500.0
2001-07-31,338500.0
2001-06-30,334500.0
2001-05-31,333100.0
2001-04-30,334400.0
2001-03-31,332700.0
2001-02-28,328300.0
2001-01-31,324400.0
2000-12-31,322100.0
2000-11-30,316800.0
2000-10-31,313300.0
2000-09-30,312700.0
2000-08-31,307900.0
2000-07-31,297200.0
2000-06-30,291500.0
2000-05-31,290100.0
2000-04-30,288600.0
2000-03-31,288300.0
2000-02-29,288800.0
2000-01-31,287400.0
1999-12-31,285500.0
1999-11-30,285800.0
1999-10-31,284200.0
1999-09-30,278500.0
1999-08-31,272100.0
1999-07-31,268700.0
1999-06-30,266300.0
1999-05-31,263100.0
1999-04-30,256300.0
1999-03-31,248700.0
1999-02-28,246800.0
1999-01-31,247300.0
1998-12-31,245900.0
1998-11-30,245600.0
1998-10-31,245800.0
1998-09-30,243300.0
1998-08-31,243500.0
1998-07-31,245300.0
1998-06-30,242900.0
1998-05-31,237400.0
1998-04-30,233300.0
1998-03-31,231900.0
1998-02-28,229500.0
1998-01-31,227400.0
1997-12-31,227700.0
1997-11-30,227200.0
1997-10-31,224600.0
1997-09-30,225300.0
1997-08-31,228300.0
1997-07-31,228200.0
1997-06-30,226500.0
1997-05-31,224400.0
1997-04-30,222200.0
1997-03-31,218600.0
1997-02-28,216400.0
1997-01-31,216300.0
1996-12-31,216900.0
1996-11-30,217700.0
1996-10-31,218900.0
1996-09-30,216700.0
1996-08-31,213500.0
1996-07-31,216400.0
1996-06-30,222700.0
1996-05-31,227700.0
1996-04-30,233700.0
