Date,Value
2015-09-30,251175.0
2015-08-31,252226.15
2015-07-31,256250.0
2015-06-30,248725.0
2015-05-31,248109.5
2015-04-30,252992.5
2015-03-31,240582.5
2015-02-28,235750.0
2015-01-31,243075.0
2014-12-31,242425.0
2014-11-30,231550.0
2014-10-31,238696.25
2014-09-30,240241.25
2014-08-31,249722.5
2014-07-31,248715.0
2014-06-30,246325.0
2014-05-31,233875.0
2014-04-30,230985.0
2014-03-31,230450.0
2014-02-28,217965.0
2014-01-31,223900.0
2013-12-31,222250.0
2013-11-30,229500.0
2013-10-31,237625.0
2013-09-30,233075.0
2013-08-31,237400.0
2013-07-31,227600.0
2013-06-30,217792.5
2013-05-31,215232.5
2013-04-30,215775.0
2013-03-31,208450.0
2013-02-28,212150.0
2013-01-31,203000.0
2012-12-31,202105.0
2012-11-30,204395.0
2012-10-31,196600.0
2012-09-30,204450.0
2012-08-31,216550.0
2012-07-31,217950.0
2012-06-30,210500.0
2012-05-31,213800.0
2012-04-30,194942.5
2012-03-31,201525.0
2012-02-29,225032.5
2012-01-31,204400.0
2011-12-31,197750.0
2011-11-30,211725.0
2011-10-31,217492.5
2011-09-30,222232.5
2011-08-31,217724.25
2011-07-31,210998.25
2011-06-30,224847.5
2011-05-31,220595.45
2011-04-30,223551.05
2011-03-31,227456.5
2011-02-28,228507.25
2011-01-31,227224.5
2010-12-31,226105.75
2010-11-30,215752.7
2010-10-31,219750.0
2010-09-30,224025.0
2010-08-31,235225.0
2010-07-31,225367.5
2010-06-30,224007.5
2010-05-31,224225.0
2010-04-30,226050.0
2010-03-31,227700.0
2010-02-28,239500.0
2010-01-31,247750.0
2009-12-31,235850.0
2009-11-30,227650.0
2009-10-31,229492.5
2009-09-30,241482.5
2009-08-31,244975.0
2009-07-31,247750.0
2009-06-30,241000.0
2009-05-31,234500.0
2009-04-30,235950.0
2009-03-31,249300.0
2009-02-28,248375.0
2009-01-31,260425.0
2008-12-31,247100.0
2008-11-30,257277.35
2008-10-31,272239.65
2008-09-30,257932.0
2008-08-31,256950.0
2008-07-31,256275.0
2008-06-30,260475.0
2008-05-31,266050.0
2008-04-30,270192.5
2008-03-31,280725.0
2008-02-29,283537.5
2008-01-31,268245.0
2007-12-31,268250.0
2007-11-30,263422.6
2007-10-31,262169.4
2007-09-30,275242.0
2007-08-31,279242.5
2007-07-31,278982.5
2007-06-30,281925.0
2007-05-31,288800.0
2007-04-30,292450.0
2007-03-31,292850.0
2007-02-28,304942.5
2007-01-31,301232.5
2006-12-31,286725.0
2006-11-30,277350.0
2006-10-31,276150.0
2006-09-30,277242.5
2006-08-31,282432.5
2006-07-31,283317.5
2006-06-30,293434.7
2006-05-31,283881.8
2006-04-30,283014.0
2006-03-31,275975.0
2006-02-28,270092.5
2006-01-31,266232.5
2005-12-31,262467.5
2005-11-30,264225.0
2005-10-31,262082.5
2005-09-30,258500.0
2005-08-31,254800.0
2005-07-31,250025.0
2005-06-30,244423.0
2005-05-31,245654.5
2005-04-30,243192.5
2005-03-31,239775.0
2005-02-28,233033.25
2005-01-31,230494.25
2004-12-31,224952.5
2004-11-30,221080.0
2004-10-31,221938.0
2004-09-30,219275.25
2004-08-31,219259.05
2004-07-31,212582.3
2004-06-30,212409.4
2004-05-31,211712.0
2004-04-30,212862.5
2004-03-31,213122.75
2004-02-29,218230.75
2004-01-31,211639.0
2003-12-31,202950.2
2003-11-30,196603.8
2003-10-31,197136.9
2003-09-30,201440.1
2003-08-31,194118.0
2003-07-31,187921.7
2003-06-30,187491.3
2003-05-31,186412.5
2003-04-30,182137.5
2003-03-31,181705.75
2003-02-28,185303.65
2003-01-31,189031.1
2002-12-31,198902.2
2002-11-30,197827.3
2002-10-31,197054.5
2002-09-30,195682.0
2002-08-31,193210.0
2002-07-31,193232.5
2002-06-30,189712.9
2002-05-31,187772.6
2002-04-30,185689.35
2002-03-31,186948.65
2002-02-28,186581.5
2002-01-31,183702.5
2001-12-31,170225.0
2001-11-30,170850.0
2001-10-31,172806.05
2001-09-30,171947.45
2001-08-31,172961.0
2001-07-31,170325.0
2001-06-30,170012.95
2001-05-31,168406.05
2001-04-30,166559.0
2001-03-31,165217.5
2001-02-28,163487.5
2001-01-31,162612.5
2000-12-31,164025.0
2000-11-30,160950.0
2000-10-31,160677.5
2000-09-30,161903.25
2000-08-31,163729.25
2000-07-31,163320.0
2000-06-30,164681.0
2000-05-31,163296.5
2000-04-30,160512.5
2000-03-31,157875.0
2000-02-29,158301.4
2000-01-31,160844.1
1999-12-31,164786.95
1999-11-30,165372.55
1999-10-31,164839.0
1999-09-30,160725.0
1999-08-31,164568.5
1999-07-31,165371.3
1999-06-30,160166.2
1999-05-31,152166.0
1999-04-30,150957.5
1999-03-31,154117.5
1999-02-28,154236.2
1999-01-31,153642.8
1998-12-31,151946.5
1998-11-30,149732.5
1998-10-31,150134.5
1998-09-30,151505.5
1998-08-31,157072.5
1998-07-31,154717.5
1998-06-30,151368.45
1998-05-31,156918.05
1998-04-30,153404.0
1998-03-31,154343.8
1998-02-28,152984.7
1998-01-31,154625.85
1997-12-31,147244.65
1997-11-30,144242.0
1997-10-31,149190.0
1997-09-30,151475.0
1997-08-31,151517.5
1997-07-31,147650.3
1997-06-30,145733.2
1997-05-31,143526.0
1997-04-30,142192.5
1997-03-31,142007.5
1997-02-28,138450.0
1997-01-31,129842.5
1996-12-31,136982.5
1996-11-30,139875.0
1996-10-31,140800.0
1996-09-30,141450.0
1996-08-31,138492.5
1996-07-31,139825.0
1996-06-30,138100.0
1996-05-31,135806.45
1996-04-30,133415.05
