Date,Value
2015-02-28,1200000.0
2015-01-31,1250000.0
2014-12-31,1188000.0
2014-11-30,1199500.0
2014-10-31,1290000.0
2014-09-30,1275000.0
2014-08-31,1200000.0
2014-07-31,1195000.0
2014-06-30,1199000.0
2014-05-31,1170000.0
2014-04-30,1170000.0
2014-03-31,1299950.0
2014-02-28,1180000.0
2014-01-31,1100000.0
2013-12-31,1190000.0
2013-11-30,1198000.0
2013-10-31,1198000.0
2013-09-30,1200000.0
2013-08-31,1199000.0
2013-07-31,1249000.0
2013-06-30,1250000.0
2013-05-31,1185000.0
2013-04-30,1248000.0
2013-03-31,1125000.0
2013-02-28,1020000.0
2013-01-31,1175000.0
2012-12-31,998000.0
2012-11-30,1049000.0
2012-10-31,948000.0
2012-09-30,959000.0
2012-08-31,949900.0
2012-07-31,999900.0
2012-06-30,1150000.0
2012-05-31,1050000.0
2012-04-30,1050000.0
2012-03-31,999000.0
2012-02-29,978000.0
2012-01-31,899000.0
2011-12-31,895000.0
2011-11-30,883500.0
2011-10-31,910000.0
2011-09-30,899950.0
2011-08-31,849000.0
2011-07-31,898500.0
2011-06-30,899000.0
2011-05-31,830000.0
2011-04-30,895000.0
2011-03-31,840000.0
2011-02-28,818888.0
2011-01-31,875000.0
2010-12-31,868000.0
2010-11-30,890000.0
2010-10-31,895000.0
2010-09-30,875000.0
2010-08-31,850000.0
2010-07-31,825000.0
2010-06-30,859900.0
2010-05-31,839000.0
2010-04-30,850000.0
2010-03-31,990000.0
2010-02-28,1088000.0
2010-01-31,1250000.0
2009-12-31,1079500.0
2009-11-30,1002000.0
2009-10-31,950000.0
2009-09-30,999500.0
2009-08-31,999950.0
2009-07-31,1095000.0
2009-06-30,1065000.0
2009-05-31,1095000.0
2009-04-30,1099000.0
2009-03-31,1198000.0
2009-02-28,1199000.0
2009-01-31,1089000.0
2008-12-31,1125000.0
2008-11-30,1200000.0
2008-10-31,1200000.0
