Date,Value
2015-02-28,289950.0
2015-01-31,279950.0
2014-12-31,279450.0
2014-11-30,275000.0
2014-10-31,280000.0
2014-09-30,280000.0
2014-08-31,280000.0
2014-07-31,279900.0
2014-06-30,269900.0
2014-05-31,270000.0
2014-04-30,259000.0
2014-03-31,259000.0
2014-02-28,249900.0
2014-01-31,239999.0
2013-12-31,249000.0
2013-11-30,249500.0
2013-10-31,260000.0
2013-09-30,259500.0
2013-08-31,259900.0
2013-07-31,259967.0
2013-06-30,250000.0
2013-05-31,245000.0
2013-04-30,238000.0
2013-03-31,238000.0
2013-02-28,250000.0
2013-01-31,257000.0
2012-12-31,259900.0
2012-11-30,259000.0
2012-10-31,249000.0
2012-09-30,254990.0
2012-08-31,256000.0
2012-07-31,265000.0
2012-06-30,259950.0
2012-05-31,255000.0
2012-04-30,250000.0
2012-03-31,248000.0
2012-02-29,229950.0
2012-01-31,224900.0
2011-12-31,224990.0
2011-11-30,225000.0
2011-10-31,215600.0
2011-09-30,219950.0
2011-08-31,229000.0
2011-07-31,229950.0
2011-06-30,227000.0
2011-05-31,229000.0
2011-04-30,235000.0
2011-03-31,237000.0
2011-02-28,239900.0
2011-01-31,239900.0
2010-12-31,239900.0
2010-11-30,249950.0
2010-10-31,249900.0
2010-09-30,250000.0
2010-08-31,269000.0
2010-07-31,265000.0
2010-06-30,255000.0
2010-05-31,255000.0
2010-04-30,255000.0
2010-03-31,264995.0
2010-02-28,275900.0
2010-01-31,275000.0
2009-12-31,279950.0
2009-11-30,289950.0
2009-10-31,294950.0
2009-09-30,299950.0
2009-08-31,299900.0
2009-07-31,299500.0
2009-06-30,299000.0
2009-05-31,307100.0
2009-04-30,309950.0
2009-03-31,314999.0
2009-02-28,319900.0
2009-01-31,319950.0
2008-12-31,319900.0
2008-11-30,319950.0
2008-10-31,319950.0
