Date,Value
2015-02-28,415000.0
2015-01-31,399950.0
2014-12-31,403393.0
2014-11-30,401950.0
2014-10-31,403646.0
2014-09-30,404990.0
2014-08-31,401950.0
2014-07-31,399950.0
2014-06-30,389000.0
2014-05-31,379950.0
2014-04-30,370000.0
2014-03-31,369990.0
2014-02-28,375000.0
2014-01-31,375000.0
2013-12-31,375000.0
2013-11-30,375000.0
2013-10-31,370000.0
2013-09-30,369900.0
2013-08-31,369900.0
2013-07-31,367000.0
2013-06-30,359990.0
2013-05-31,359990.0
2013-04-30,365990.0
2013-03-31,375000.0
2013-02-28,374995.0
2013-01-31,379950.0
2012-12-31,375000.0
2012-11-30,349990.0
2012-10-31,339900.0
2012-09-30,335950.0
2012-08-31,334950.0
2012-07-31,339900.0
2012-06-30,339995.0
2012-05-31,335950.0
2012-04-30,339000.0
2012-03-31,335610.0
2012-02-29,322950.0
2012-01-31,299900.0
2011-12-31,299950.0
2011-11-30,299950.0
2011-10-31,319000.0
2011-09-30,322950.0
2011-08-31,334950.0
2011-07-31,331500.0
2011-06-30,334950.0
2011-05-31,325000.0
2011-04-30,315000.0
2011-03-31,322950.0
2011-02-28,320000.0
2011-01-31,339000.0
2010-12-31,345000.0
2010-11-30,339990.0
2010-10-31,349950.0
2010-09-30,354950.0
2010-08-31,354950.0
2010-07-31,350000.0
2010-06-30,359800.0
2010-05-31,379950.0
2010-04-30,369950.0
2010-03-31,374500.0
2010-02-28,379990.0
2010-01-31,379990.0
2009-12-31,387500.0
2009-11-30,389950.0
2009-10-31,389000.0
2009-09-30,392000.0
2009-08-31,389950.0
2009-07-31,390000.0
2009-06-30,409950.0
2009-05-31,402950.0
2009-04-30,402950.0
2009-03-31,414900.0
2009-02-28,428950.0
2009-01-31,439000.0
2008-12-31,445950.0
2008-11-30,452500.0
2008-10-31,452500.0
