Date,Value
2015-02-28,219900.0
2015-01-31,209900.0
2014-12-31,219900.0
2014-11-30,220000.0
2014-10-31,219900.0
2014-09-30,220000.0
2014-08-31,219000.0
2014-07-31,219000.0
2014-06-30,224500.0
2014-05-31,219500.0
2014-04-30,219000.0
2014-03-31,214500.0
2014-02-28,200000.0
2014-01-31,179900.0
2013-12-31,199900.0
2013-11-30,209000.0
2013-10-31,209000.0
2013-09-30,199500.0
2013-08-31,174900.0
2013-07-31,210000.0
2013-06-30,219500.0
2013-05-31,210000.0
2013-04-30,199500.0
2013-03-31,199000.0
2013-02-28,199000.0
2013-01-31,200000.0
2012-12-31,199950.0
2012-11-30,199950.0
2012-10-31,199950.0
2012-09-30,208000.0
2012-08-31,209000.0
2012-07-31,214900.0
2012-06-30,214900.0
2012-05-31,209900.0
2012-04-30,199500.0
2012-03-31,150000.0
2012-02-29,174000.0
2012-01-31,199000.0
2011-12-31,165000.0
2011-11-30,200000.0
2011-10-31,149500.0
2011-09-30,142500.0
2011-08-31,160000.0
2011-07-31,142500.0
2011-06-30,175000.0
2011-05-31,179000.0
2011-04-30,155000.0
2011-03-31,149900.0
2011-02-28,169000.0
2011-01-31,139500.0
2010-12-31,140000.0
2010-11-30,159900.0
2010-10-31,159900.0
2010-09-30,169000.0
2010-08-31,199000.0
2010-07-31,199900.0
2010-06-30,199900.0
2010-05-31,199950.0
2010-04-30,199950.0
2010-03-31,209900.0
2010-02-28,209900.0
2010-01-31,212500.0
2009-12-31,204900.0
2009-11-30,209900.0
2009-10-31,209900.0
2009-09-30,210000.0
2009-08-31,210000.0
2009-07-31,212500.0
2009-06-30,212500.0
2009-05-31,204900.0
2009-04-30,212500.0
2009-03-31,214000.0
2009-02-28,218000.0
2009-01-31,218000.0
2008-12-31,218000.0
2008-11-30,215000.0
2008-10-31,199900.0
