Date,Value
2015-09-30,222000.0
2015-08-31,220100.0
2015-07-31,213000.0
2015-06-30,217000.0
2015-05-31,216000.0
2015-04-30,218500.0
2015-03-31,218300.0
2015-02-28,214900.0
2015-01-31,213400.0
2014-12-31,214100.0
2014-11-30,214800.0
2014-10-31,214500.0
2014-09-30,213800.0
2014-08-31,213700.0
2014-07-31,213600.0
2014-06-30,213100.0
2014-05-31,212300.0
2014-04-30,212400.0
2014-03-31,213600.0
2014-02-28,215000.0
2014-01-31,216100.0
2013-12-31,217000.0
2013-11-30,217700.0
2013-10-31,218700.0
2013-09-30,219600.0
2013-08-31,219500.0
2013-07-31,217400.0
2013-06-30,214700.0
2013-05-31,213100.0
2013-04-30,213400.0
2013-03-31,213400.0
2013-02-28,212400.0
2013-01-31,210600.0
2012-12-31,208000.0
2012-11-30,204900.0
2012-10-31,203000.0
2012-09-30,201700.0
2012-08-31,199900.0
2012-07-31,198200.0
2012-06-30,196900.0
2012-05-31,195900.0
2012-04-30,195300.0
2012-03-31,194900.0
2012-02-29,194400.0
2012-01-31,193100.0
2011-12-31,192000.0
2011-11-30,192400.0
2011-10-31,194000.0
2011-09-30,194600.0
2011-08-31,194600.0
2011-07-31,195500.0
2011-06-30,197500.0
2011-05-31,198500.0
2011-04-30,198500.0
2011-03-31,198700.0
2011-02-28,198700.0
2011-01-31,197800.0
2010-12-31,197200.0
2010-11-30,197600.0
2010-10-31,198300.0
2010-09-30,198300.0
2010-08-31,197400.0
2010-07-31,196400.0
2010-06-30,196100.0
2010-05-31,195800.0
2010-04-30,194700.0
2010-03-31,192000.0
2010-02-28,188800.0
2010-01-31,186500.0
2009-12-31,185500.0
2009-11-30,184900.0
2009-10-31,185200.0
2009-09-30,185700.0
2009-08-31,184200.0
2009-07-31,180300.0
2009-06-30,176400.0
2009-05-31,175800.0
2009-04-30,177900.0
2009-03-31,179800.0
2009-02-28,180300.0
2009-01-31,183400.0
2008-12-31,187400.0
2008-11-30,188200.0
2008-10-31,187200.0
2008-09-30,187400.0
2008-08-31,187900.0
2008-07-31,189100.0
2008-06-30,191200.0
2008-05-31,192800.0
2008-04-30,192400.0
2008-03-31,190800.0
2008-02-29,190100.0
2008-01-31,189500.0
2007-12-31,188000.0
2007-11-30,187200.0
2007-10-31,187500.0
2007-09-30,187300.0
2007-08-31,187400.0
2007-07-31,188700.0
2007-06-30,191000.0
2007-05-31,190600.0
2007-04-30,187400.0
2007-03-31,184800.0
2007-02-28,185100.0
2007-01-31,185600.0
2006-12-31,185800.0
2006-11-30,185800.0
2006-10-31,185000.0
2006-09-30,185600.0
2006-08-31,187300.0
2006-07-31,189500.0
2006-06-30,191000.0
2006-05-31,191400.0
2006-04-30,190700.0
2006-03-31,191000.0
2006-02-28,191600.0
2006-01-31,190300.0
2005-12-31,187800.0
2005-11-30,186300.0
2005-10-31,185100.0
2005-09-30,184200.0
2005-08-31,185500.0
2005-07-31,182900.0
2005-06-30,176500.0
2005-05-31,174300.0
2005-04-30,176400.0
2005-03-31,177400.0
2005-02-28,177800.0
2005-01-31,177000.0
2004-12-31,175500.0
2004-11-30,174000.0
2004-10-31,171200.0
2004-09-30,166000.0
2004-08-31,161500.0
2004-07-31,161000.0
2004-06-30,162700.0
2004-05-31,163000.0
2004-04-30,161900.0
2004-03-31,161700.0
2004-02-29,160600.0
2004-01-31,159500.0
2003-12-31,159000.0
2003-11-30,157500.0
2003-10-31,155600.0
2003-09-30,155700.0
2003-08-31,157400.0
2003-07-31,160000.0
2003-06-30,160100.0
2003-05-31,157700.0
2003-04-30,156800.0
2003-03-31,158400.0
2003-02-28,157700.0
2003-01-31,155400.0
2002-12-31,152900.0
2002-11-30,152500.0
2002-10-31,153800.0
2002-09-30,155600.0
2002-08-31,153400.0
2002-07-31,148900.0
2002-06-30,145400.0
2002-05-31,142300.0
2002-04-30,137800.0
2002-03-31,133200.0
2002-02-28,131100.0
2002-01-31,131800.0
2001-12-31,133800.0
2001-11-30,135000.0
2001-10-31,136800.0
2001-09-30,136600.0
2001-08-31,135000.0
2001-07-31,134200.0
2001-06-30,135300.0
2001-05-31,136200.0
2001-04-30,136900.0
2001-03-31,136200.0
2001-02-28,135100.0
2001-01-31,135000.0
2000-12-31,135000.0
2000-11-30,132900.0
2000-10-31,128600.0
2000-09-30,125600.0
2000-08-31,123600.0
2000-07-31,121800.0
2000-06-30,119900.0
2000-05-31,119200.0
2000-04-30,118700.0
2000-03-31,118600.0
2000-02-29,119000.0
2000-01-31,118800.0
1999-12-31,119000.0
1999-11-30,120600.0
1999-10-31,122800.0
1999-09-30,124200.0
1999-08-31,125600.0
1999-07-31,127300.0
1999-06-30,128900.0
1999-05-31,130100.0
1999-04-30,130300.0
1999-03-31,129200.0
1999-02-28,128300.0
1999-01-31,126800.0
1998-12-31,124400.0
1998-11-30,122400.0
1998-10-31,121600.0
1998-09-30,122100.0
1998-08-31,122900.0
1998-07-31,123200.0
1998-06-30,123400.0
1998-05-31,124300.0
1998-04-30,126100.0
1998-03-31,127600.0
1998-02-28,128200.0
1998-01-31,128400.0
1997-12-31,128700.0
1997-11-30,129600.0
1997-10-31,131000.0
1997-09-30,131200.0
1997-08-31,129200.0
1997-07-31,126400.0
1997-06-30,124200.0
1997-05-31,122600.0
1997-04-30,121600.0
1997-03-31,119500.0
1997-02-28,116900.0
1997-01-31,115000.0
1996-12-31,114400.0
1996-11-30,112600.0
1996-10-31,110000.0
1996-09-30,107600.0
1996-08-31,106800.0
1996-07-31,106600.0
1996-06-30,105500.0
1996-05-31,104800.0
1996-04-30,104200.0
