Date,Value
2015-09-30,289500.0
2015-08-31,286200.0
2015-07-31,282800.0
2015-06-30,283600.0
2015-05-31,281400.0
2015-04-30,278700.0
2015-03-31,275500.0
2015-02-28,273700.0
2015-01-31,270400.0
2014-12-31,268700.0
2014-11-30,266700.0
2014-10-31,265300.0
2014-09-30,264500.0
2014-08-31,263500.0
2014-07-31,262100.0
2014-06-30,261400.0
2014-05-31,261100.0
2014-04-30,259100.0
2014-03-31,255900.0
2014-02-28,253900.0
2014-01-31,253100.0
2013-12-31,251100.0
2013-11-30,248900.0
2013-10-31,246900.0
2013-09-30,244100.0
2013-08-31,240900.0
2013-07-31,237400.0
2013-06-30,233200.0
2013-05-31,229000.0
2013-04-30,225500.0
2013-03-31,221900.0
2013-02-28,218300.0
2013-01-31,215500.0
2012-12-31,213700.0
2012-11-30,211900.0
2012-10-31,210300.0
2012-09-30,209200.0
2012-08-31,208600.0
2012-07-31,208600.0
2012-06-30,208800.0
2012-05-31,208200.0
2012-04-30,207500.0
2012-03-31,207000.0
2012-02-29,206400.0
2012-01-31,206400.0
2011-12-31,207400.0
2011-11-30,208400.0
2011-10-31,209100.0
2011-09-30,210000.0
2011-08-31,211400.0
2011-07-31,213400.0
2011-06-30,215300.0
2011-05-31,217100.0
2011-04-30,218900.0
2011-03-31,222100.0
2011-02-28,225700.0
2011-01-31,228800.0
2010-12-31,231700.0
2010-11-30,234400.0
2010-10-31,236200.0
2010-09-30,238400.0
2010-08-31,241700.0
2010-07-31,244800.0
2010-06-30,246400.0
2010-05-31,247200.0
2010-04-30,248100.0
2010-03-31,249000.0
2010-02-28,250100.0
2010-01-31,251000.0
2009-12-31,251600.0
2009-11-30,252300.0
2009-10-31,253100.0
2009-09-30,254100.0
2009-08-31,255400.0
2009-07-31,257100.0
2009-06-30,259700.0
2009-05-31,263300.0
2009-04-30,267600.0
2009-03-31,272500.0
2009-02-28,277400.0
2009-01-31,281200.0
2008-12-31,283900.0
2008-11-30,287000.0
2008-10-31,290900.0
2008-09-30,294200.0
2008-08-31,296100.0
2008-07-31,297800.0
2008-06-30,300400.0
2008-05-31,304100.0
2008-04-30,308000.0
2008-03-31,311100.0
2008-02-29,313500.0
2008-01-31,316000.0
2007-12-31,318800.0
2007-11-30,322200.0
2007-10-31,325500.0
2007-09-30,327900.0
2007-08-31,329500.0
2007-07-31,330800.0
2007-06-30,331700.0
2007-05-31,331400.0
2007-04-30,330000.0
2007-03-31,328300.0
2007-02-28,326800.0
2007-01-31,325800.0
2006-12-31,325200.0
2006-11-30,324600.0
2006-10-31,323400.0
2006-09-30,321900.0
2006-08-31,319200.0
2006-07-31,315800.0
2006-06-30,311600.0
2006-05-31,307400.0
2006-04-30,303900.0
2006-03-31,300600.0
2006-02-28,297000.0
2006-01-31,293500.0
2005-12-31,290100.0
2005-11-30,286000.0
2005-10-31,281400.0
2005-09-30,276700.0
2005-08-31,272600.0
2005-07-31,269000.0
2005-06-30,265300.0
2005-05-31,261400.0
2005-04-30,257500.0
2005-03-31,253700.0
2005-02-28,250600.0
2005-01-31,247600.0
2004-12-31,244300.0
2004-11-30,240900.0
2004-10-31,237900.0
2004-09-30,235600.0
2004-08-31,233800.0
2004-07-31,232000.0
2004-06-30,230400.0
2004-05-31,228900.0
2004-04-30,227100.0
2004-03-31,225200.0
2004-02-29,223400.0
2004-01-31,221600.0
2003-12-31,220100.0
2003-11-30,218700.0
2003-10-31,217700.0
2003-09-30,216700.0
2003-08-31,215600.0
2003-07-31,214200.0
2003-06-30,213100.0
2003-05-31,212500.0
2003-04-30,211900.0
2003-03-31,210800.0
2003-02-28,209600.0
2003-01-31,208800.0
2002-12-31,207900.0
2002-11-30,206800.0
2002-10-31,205800.0
2002-09-30,205000.0
2002-08-31,204300.0
2002-07-31,203500.0
2002-06-30,202900.0
2002-05-31,202500.0
2002-04-30,202100.0
2002-03-31,201500.0
2002-02-28,200800.0
2002-01-31,200000.0
2001-12-31,199200.0
2001-11-30,198500.0
2001-10-31,197900.0
2001-09-30,197200.0
2001-08-31,196800.0
2001-07-31,196200.0
2001-06-30,195300.0
2001-05-31,194300.0
2001-04-30,193600.0
2001-03-31,193000.0
2001-02-28,192300.0
2001-01-31,191300.0
2000-12-31,190300.0
2000-11-30,189100.0
2000-10-31,187700.0
2000-09-30,186400.0
2000-08-31,185200.0
2000-07-31,184200.0
2000-06-30,183300.0
2000-05-31,182300.0
2000-04-30,181400.0
2000-03-31,180800.0
2000-02-29,179700.0
2000-01-31,178300.0
1999-12-31,177100.0
1999-11-30,176100.0
1999-10-31,175100.0
1999-09-30,174100.0
1999-08-31,173100.0
1999-07-31,172300.0
1999-06-30,171500.0
1999-05-31,170000.0
1999-04-30,168100.0
1999-03-31,166700.0
1999-02-28,165900.0
1999-01-31,165300.0
1998-12-31,164400.0
1998-11-30,163800.0
1998-10-31,163400.0
1998-09-30,162500.0
1998-08-31,161000.0
1998-07-31,160100.0
1998-06-30,159400.0
1998-05-31,158600.0
1998-04-30,157700.0
1998-03-31,157100.0
1998-02-28,155900.0
1998-01-31,154400.0
1997-12-31,153100.0
1997-11-30,152100.0
1997-10-31,151200.0
1997-09-30,150300.0
1997-08-31,149100.0
1997-07-31,147600.0
1997-06-30,146500.0
1997-05-31,145900.0
1997-04-30,145200.0
1997-03-31,144000.0
1997-02-28,142700.0
1997-01-31,141800.0
1996-12-31,141000.0
1996-11-30,140100.0
1996-10-31,139300.0
1996-09-30,138900.0
1996-08-31,139000.0
1996-07-31,139200.0
1996-06-30,139200.0
1996-05-31,139300.0
1996-04-30,139700.0
