Date,Value
2015-02-28,3149000.0
2014-12-31,3149000.0
2014-11-30,3188800.0
2014-10-31,3149000.0
2014-09-30,3138000.0
2014-08-31,2450000.0
2014-07-31,3198800.0
2014-06-30,3149000.0
2014-05-31,2298000.0
2014-04-30,3400000.0
2013-07-31,1389000.0
2013-06-30,1575000.0
2013-05-31,1595000.0
2013-03-31,1950800.0
2012-11-30,2400000.0
2012-10-31,1495000.0
2012-09-30,1495000.0
2012-08-31,1695000.0
2012-07-31,1695000.0
2012-06-30,1985000.0
2012-05-31,1895000.0
2012-04-30,1895000.0
2012-03-31,1895000.0
2012-02-29,1985000.0
2012-01-31,1895000.0
2011-12-31,1895000.0
2011-11-30,1899755.0
2011-10-31,1899790.0
2011-09-30,1949900.0
2011-08-31,1999900.0
2011-07-31,1950000.0
2011-06-30,1925000.0
2011-05-31,1999900.0
2011-04-30,2089000.0
2011-03-31,2345000.0
2011-02-28,1998000.0
2011-01-31,1998000.0
2010-12-31,2345000.0
2010-11-30,2345000.0
2010-10-31,2345000.0
2010-09-30,2524000.0
2010-08-31,2524000.0
2010-07-31,2499900.0
2010-06-30,2750000.0
2010-05-31,2775000.0
2010-04-30,2524000.0
2010-03-31,1999500.0
2010-02-28,2500000.0
2010-01-31,2500000.0
2009-12-31,2275000.0
2009-11-30,2500000.0
2009-10-31,2498000.0
2009-09-30,2498000.0
2009-08-31,2500000.0
2009-07-31,1900000.0
2009-06-30,1900000.0
2009-05-31,1900000.0
2009-04-30,2500000.0
2009-03-31,2500000.0
2009-02-28,2500000.0
2008-12-31,1600000.0
2008-11-30,1600000.0
2008-10-31,2500000.0
