Date,Value
2015-09-30,1.126
2015-08-31,1.148
2015-07-31,1.136
2015-06-30,1.128
2015-05-31,1.124
2015-04-30,1.124
2015-03-31,1.124
2015-02-28,1.12
2015-01-31,1.118
2014-12-31,1.116
2014-11-30,1.112
2014-10-31,1.1
2014-09-30,1.09
2014-08-31,1.078
2014-07-31,1.068
2014-06-30,1.06
2014-05-31,1.058
2014-04-30,1.06
2014-03-31,1.062
2014-02-28,1.062
2014-01-31,1.06
2013-12-31,1.056
2013-11-30,1.052
2013-10-31,1.042
2013-09-30,1.034
2013-08-31,1.024
2013-07-31,1.016
2013-06-30,1.012
2013-05-31,1.01
2013-04-30,1.006
2013-03-31,0.998
2013-02-28,0.986
2013-01-31,0.976
2012-12-31,0.97
2012-11-30,0.966
2012-10-31,0.962
2012-09-30,0.964
2012-08-31,0.966
2012-07-31,0.966
2012-06-30,0.962
2012-05-31,0.952
2012-04-30,0.944
2012-03-31,0.938
2012-02-29,0.936
2012-01-31,0.93
2011-12-31,0.928
2011-11-30,0.926
2011-10-31,0.92
2011-09-30,0.92
2011-08-31,0.92
2011-07-31,0.92
2011-06-30,0.92
2011-05-31,0.914
2011-04-30,0.908
2011-03-31,0.902
2011-02-28,0.902
2011-01-31,0.892
2010-12-31,0.886
2010-11-30,0.88
