Date,Value
2015-09-30,600200.0
2015-08-31,592200.0
2015-07-31,587500.0
2015-06-30,592900.0
2015-05-31,593600.0
2015-04-30,586900.0
2015-03-31,575900.0
2015-02-28,572900.0
2015-01-31,567400.0
2014-12-31,564700.0
2014-11-30,560500.0
2014-10-31,556200.0
2014-09-30,553500.0
2014-08-31,551200.0
2014-07-31,548600.0
2014-06-30,546200.0
2014-05-31,543400.0
2014-04-30,539800.0
2014-03-31,535800.0
2014-02-28,532100.0
2014-01-31,527700.0
2013-12-31,522300.0
2013-11-30,518500.0
2013-10-31,516500.0
2013-09-30,514300.0
2013-08-31,510600.0
2013-07-31,506000.0
2013-06-30,500200.0
2013-05-31,493600.0
2013-04-30,486500.0
2013-03-31,480400.0
2013-02-28,474800.0
2013-01-31,469200.0
2012-12-31,464500.0
2012-11-30,459800.0
2012-10-31,453600.0
2012-09-30,448200.0
2012-08-31,445600.0
2012-07-31,442700.0
2012-06-30,438300.0
2012-05-31,432200.0
2012-04-30,426200.0
2012-03-31,420900.0
2012-02-29,417000.0
2012-01-31,415200.0
2011-12-31,415700.0
2011-11-30,416500.0
2011-10-31,416500.0
2011-09-30,416300.0
2011-08-31,416600.0
2011-07-31,417900.0
2011-06-30,420000.0
2011-05-31,423300.0
2011-04-30,427200.0
2011-03-31,430900.0
2011-02-28,433800.0
2011-01-31,436200.0
2010-12-31,437700.0
2010-11-30,438800.0
2010-10-31,439800.0
2010-09-30,440600.0
2010-08-31,441300.0
2010-07-31,443400.0
2010-06-30,446500.0
2010-05-31,449300.0
2010-04-30,450700.0
2010-03-31,451000.0
2010-02-28,451000.0
2010-01-31,450700.0
2009-12-31,449700.0
2009-11-30,449100.0
2009-10-31,449200.0
2009-09-30,450200.0
2009-08-31,452400.0
2009-07-31,455300.0
2009-06-30,457700.0
2009-05-31,460800.0
2009-04-30,465800.0
2009-03-31,471300.0
2009-02-28,476000.0
2009-01-31,480000.0
2008-12-31,484800.0
2008-11-30,491100.0
2008-10-31,497700.0
2008-09-30,503100.0
2008-08-31,507200.0
2008-07-31,511400.0
2008-06-30,516100.0
2008-05-31,520800.0
2008-04-30,524400.0
2008-03-31,528000.0
2008-02-29,532000.0
2008-01-31,535700.0
2007-12-31,539400.0
2007-11-30,543400.0
2007-10-31,547200.0
2007-09-30,550600.0
2007-08-31,552300.0
2007-07-31,551700.0
2007-06-30,549900.0
2007-05-31,547700.0
2007-04-30,546500.0
2007-03-31,546100.0
2007-02-28,544700.0
2007-01-31,542600.0
2006-12-31,540500.0
2006-11-30,537500.0
2006-10-31,533400.0
2006-09-30,528600.0
2006-08-31,523300.0
2006-07-31,516500.0
2006-06-30,509700.0
2006-05-31,503400.0
2006-04-30,496500.0
2006-03-31,489500.0
2006-02-28,484100.0
2006-01-31,479100.0
2005-12-31,472700.0
2005-11-30,464900.0
2005-10-31,456600.0
2005-09-30,448100.0
2005-08-31,439700.0
2005-07-31,431900.0
2005-06-30,425600.0
2005-05-31,419800.0
2005-04-30,413600.0
2005-03-31,407000.0
2005-02-28,401100.0
2005-01-31,396100.0
2004-12-31,390700.0
2004-11-30,384500.0
2004-10-31,378700.0
2004-09-30,374300.0
2004-08-31,371100.0
2004-07-31,368800.0
2004-06-30,366400.0
2004-05-31,363900.0
2004-04-30,362100.0
2004-03-31,360400.0
2004-02-29,357100.0
2004-01-31,352900.0
2003-12-31,349100.0
2003-11-30,346700.0
2003-10-31,345700.0
2003-09-30,344600.0
2003-08-31,343100.0
2003-07-31,341500.0
2003-06-30,340400.0
2003-05-31,339200.0
2003-04-30,337400.0
2003-03-31,335400.0
2003-02-28,333400.0
2003-01-31,331400.0
2002-12-31,329700.0
2002-11-30,328500.0
2002-10-31,327400.0
2002-09-30,326300.0
2002-08-31,325600.0
2002-07-31,325200.0
2002-06-30,324200.0
2002-05-31,322200.0
2002-04-30,319800.0
2002-03-31,318100.0
2002-02-28,317500.0
2002-01-31,317600.0
2001-12-31,317600.0
2001-11-30,317100.0
2001-10-31,315800.0
2001-09-30,314300.0
2001-08-31,312500.0
2001-07-31,310700.0
2001-06-30,309300.0
2001-05-31,308700.0
2001-04-30,307800.0
2001-03-31,306100.0
2001-02-28,304600.0
2001-01-31,303900.0
2000-12-31,303600.0
2000-11-30,303800.0
2000-10-31,303600.0
2000-09-30,303400.0
2000-08-31,303100.0
2000-07-31,302500.0
2000-06-30,301100.0
2000-05-31,299200.0
2000-04-30,297000.0
2000-03-31,295500.0
2000-02-29,293900.0
2000-01-31,291700.0
1999-12-31,289600.0
1999-11-30,287000.0
1999-10-31,283600.0
1999-09-30,281100.0
1999-08-31,279700.0
1999-07-31,278300.0
1999-06-30,276700.0
1999-05-31,275900.0
1999-04-30,275600.0
1999-03-31,275000.0
1999-02-28,273300.0
1999-01-31,270800.0
1998-12-31,268400.0
1998-11-30,267300.0
1998-10-31,266200.0
1998-09-30,264700.0
1998-08-31,262600.0
1998-07-31,259600.0
1998-06-30,255500.0
1998-05-31,251900.0
1998-04-30,248900.0
1998-03-31,246300.0
1998-02-28,243900.0
1998-01-31,241600.0
1997-12-31,239300.0
1997-11-30,237200.0
1997-10-31,235900.0
1997-09-30,234900.0
1997-08-31,233100.0
1997-07-31,231000.0
1997-06-30,228700.0
1997-05-31,226400.0
1997-04-30,224000.0
1997-03-31,222000.0
1997-02-28,220600.0
1997-01-31,219000.0
1996-12-31,217200.0
1996-11-30,215200.0
1996-10-31,214000.0
1996-09-30,212500.0
1996-08-31,211100.0
1996-07-31,210100.0
1996-06-30,210100.0
1996-05-31,210300.0
1996-04-30,211500.0
