hood,influence,largestInfluencer,largestInfluencerPercent
Fremont,0.08736628351126156,LOST PROPERTY,100.00000000000001
Junction,0.0037189604553990612,LOST PROPERTY,100.0
Central,0.01845457000328039,LOST PROPERTY,100.0
Ravenna,0.02903873721722658,LOST PROPERTY,100.0
Garfield,0.07119121557521953,LOST PROPERTY,100.0
Seaview,0.0029396377577918633,LOST PROPERTY,100.0
Green Lake,0.032141075898337625,LOST PROPERTY,100.0
Minor,0.020164277126677115,LOST PROPERTY,99.99999999999999
Roxhill,0.0021202525411942504,LOST PROPERTY,100.0
Rainier View,0.00146134594476838,LOST PROPERTY,99.99999999999999
Denny - Blaine,0.02581326001437875,LOST PROPERTY,100.0
Broadview,0.0050514635661087805,LOST PROPERTY,100.0
Pioneer Square,0.01575175627935316,LOST PROPERTY,100.0
Beacon Hill,0.0035856535775396305,LOST PROPERTY,100.0
Lower Queen Anne,0.033466503983759194,LOST PROPERTY,100.0
High Point,0.003187808430971287,LOST PROPERTY,100.0
Industrial District,0.004737530346888723,LOST PROPERTY,100.0
Blue Ridge,0.0072244885377314915,LOST PROPERTY,100.0
Maple Leaf,0.012242997050550718,LOST PROPERTY,100.0
Greenwood,0.010679777694739006,LOST PROPERTY,100.0
Broadmoor,0.05114677182682709,LOST PROPERTY,100.0
View Ridge,0.012476471772575189,LOST PROPERTY,100.0
East Queen Anne,0.09573459759168038,LOST PROPERTY,100.00000000000001
Whittier Heights,0.014105411557814293,LOST PROPERTY,100.0
Riverview,0.003020039320768771,LOST PROPERTY,100.0
Denny Triangle,0.0945686486966508,LOST PROPERTY,99.99999999999999
Wedgwood,0.013335920061613665,LOST PROPERTY,100.0
Eastlake,1.378059570818037,LOST PROPERTY,100.00000000000001
North Delridge,0.004130723029491423,LOST PROPERTY,100.0
Capitol Hill,0.07318721332773516,LOST PROPERTY,100.0
Atlantic,0.01286492081268914,LOST PROPERTY,100.0
South Park,0.002437364117730488,LOST PROPERTY,100.0
Matthews Beach,0.009261907066162383,LOST PROPERTY,100.0
Mt. Baker,0.0073024391860845835,LOST PROPERTY,100.0
Magnolia,0.012221480972905137,LOST PROPERTY,100.0
Sunset Hill,0.008273224460389361,LOST PROPERTY,100.0
Montlake,0.17581120587143118,LOST PROPERTY,100.0
Victory Heights,0.007368833401134463,LOST PROPERTY,100.0
Phinney Ridge,0.02497396563072431,LOST PROPERTY,100.0
Windermere,0.015206795421477296,LOST PROPERTY,100.0
Haller Lake,0.005902316028239254,LOST PROPERTY,100.0
Highland Park,0.002155599226526203,LOST PROPERTY,100.0
Admiral,0.0047893352873385414,LOST PROPERTY,100.0
Little Saigon,0.019762321095446563,LOST PROPERTY,100.0
Olympic Manor,0.019762321095446563,LOST PROPERTY,100.0
South Beacon Hill,0.002366134134011484,LOST PROPERTY,100.0
Fauntleroy,0.0019546459636122764,LOST PROPERTY,100.0
Westlake,0.09492478150870286,LOST PROPERTY,100.0
Leschi,0.012661737724124317,LOST PROPERTY,100.0
South Lake Union,0.06751945048476915,LOST PROPERTY,100.0
Cedar Park,0.0052981321365193285,LOST PROPERTY,100.00000000000001
Interbay,0.02063760693960098,LOST PROPERTY,100.0
Madrona,0.020078795184229472,LOST PROPERTY,100.0
Downtown,0.019762321095446563,LOST PROPERTY,100.0
North Queen Anne,0.04088677545967887,LOST PROPERTY,100.00000000000001
Portage Bay,2.612693077590408,LOST PROPERTY,100.00000000000001
Laurelhurst,0.03146933717377436,LOST PROPERTY,100.0
Dunlap,0.0020647301421915024,LOST PROPERTY,100.0
Judkins Park,0.01053233477084137,LOST PROPERTY,100.00000000000001
International District,0.01428776081737367,LOST PROPERTY,100.0
Arbor Heights,0.0016013091347700753,LOST PROPERTY,100.0
South Delridge,0.0021760822807596393,LOST PROPERTY,100.0
Ballard,0.011421438283393594,LOST PROPERTY,100.0
Pinehurst,0.0071257668030820795,LOST PROPERTY,100.0
Loyal Heights,0.010817135559947491,LOST PROPERTY,99.99999999999999
Olympic Hills,0.00522122273246847,LOST PROPERTY,100.00000000000001
Cascade,0.05224155717163594,LOST PROPERTY,100.0
Wallingford,0.13483992222334013,LOST PROPERTY,100.0
Uptown,0.033466503983759194,LOST PROPERTY,100.0
Crown Hill,0.009203250881816482,LOST PROPERTY,100.0
Yesler Terrace ,0.01702803433479915,LOST PROPERTY,100.0
Waterfront,0.018097826020945586,LOST PROPERTY,100.0
Alki,0.0038352932921669907,LOST PROPERTY,100.0
Hawthorne Hills,0.019514004478353872,LOST PROPERTY,100.0
Lakewood,0.003970067978233625,LOST PROPERTY,100.0
Gatewood,0.0024940821213031866,LOST PROPERTY,100.0
Jackson Place ,0.013823351027569371,LOST PROPERTY,100.0
Madison Valley,0.0313704748364928,LOST PROPERTY,100.0
Hillman City,0.0031601978942062264,LOST PROPERTY,100.0
Bryant,0.026842890911061908,LOST PROPERTY,100.0
North Beach,0.0072244885377314915,LOST PROPERTY,100.0
Roosevelt,0.03104947289357655,LOST PROPERTY,100.0
North College Park,0.012073173284969771,LOST PROPERTY,100.0
Bitter Lake,0.00478410321548779,LOST PROPERTY,100.0
Brighton,0.0024448700748322992,LOST PROPERTY,100.0
West Queen Anne,0.02880294007642894,LOST PROPERTY,100.0
Georgetown,0.0030416434539211157,LOST PROPERTY,100.0
Genesee,0.0035777316965145186,LOST PROPERTY,100.0
Belltown,0.027055510519454123,LOST PROPERTY,100.0
Holly Park ,0.002655644887304199,LOST PROPERTY,100.0
Madison Park,0.03149042569294028,LOST PROPERTY,100.0
Rainier Beach,0.0016502963318391496,LOST PROPERTY,100.0
Fairmount Park,0.0032189268067181445,LOST PROPERTY,100.00000000000001
Meadowbrook,0.008047615492167091,LOST PROPERTY,100.0
West Woodland,0.02458516486294866,LOST PROPERTY,100.0
Northgate,0.008336338255414672,LOST PROPERTY,100.0
Seward Park,0.002992525783902372,LOST PROPERTY,100.0
University District,0.10187226574188711,LOST PROPERTY,100.0
First Hill,0.02371501302330524,LOST PROPERTY,100.0
Columbia City,0.003990275360402417,LOST PROPERTY,100.0
North Beacon Hill,0.007118530601189514,LOST PROPERTY,100.0
