hood,influence,largestInfluencer,largestInfluencerPercent
Fremont,0.013327294374903077,LOST PROPERTY,100.0
Junction,0.0015704624508776222,LOST PROPERTY,100.0
Central,0.003436256486397289,LOST PROPERTY,99.99999999999999
Ravenna,0.026696375204412398,LOST PROPERTY,100.0
Garfield,0.006632890059313583,LOST PROPERTY,100.0
Seaview,0.001344317334523943,LOST PROPERTY,100.0
Green Lake,0.04877269777153834,LOST PROPERTY,100.0
Minor,0.003484576644789289,LOST PROPERTY,100.0
Roxhill,0.0010301109963602396,LOST PROPERTY,100.0
Rainier View,0.0007719962773641958,LOST PROPERTY,100.00000000000001
Denny - Blaine,0.004265267689064492,LOST PROPERTY,100.0
Broadview,0.03886345566489613,LOST PROPERTY,100.0
Pioneer Square,0.003183102065517528,LOST PROPERTY,99.99999999999999
Beacon Hill,0.0014104702730523735,LOST PROPERTY,100.0
Lower Queen Anne,0.005111408937051745,LOST PROPERTY,100.0
High Point,0.0013669387657329177,LOST PROPERTY,100.0
Industrial District,0.0016895966021251289,LOST PROPERTY,100.0
Blue Ridge,0.026068250311071413,LOST PROPERTY,100.00000000000001
Maple Leaf,0.24707265031380712,LOST PROPERTY,100.0
Greenwood,0.13360603564100973,LOST PROPERTY,100.0
Broadmoor,0.006124356576746721,LOST PROPERTY,100.0
View Ridge,0.01623293616426156,LOST PROPERTY,100.0
East Queen Anne,0.007839591344412585,LOST PROPERTY,100.0
Whittier Heights,0.03493191651678024,LOST PROPERTY,100.0
Riverview,0.0012926022436696035,LOST PROPERTY,100.0
Denny Triangle,0.005861929710820495,LOST PROPERTY,100.0
Wedgwood,0.03152164056232414,LOST PROPERTY,100.0
Eastlake,0.008749218342418385,LOST PROPERTY,100.0
North Delridge,0.0016150713064341843,LOST PROPERTY,100.0
Capitol Hill,0.005389900043798539,LOST PROPERTY,100.0
Atlantic,0.0028494250801767316,LOST PROPERTY,100.0
South Park,0.0011019760716225219,LOST PROPERTY,100.0
Matthews Beach,0.02045854274180254,LOST PROPERTY,100.0
Mt. Baker,0.002158004265805629,LOST PROPERTY,100.0
Magnolia,0.0055250852484720475,LOST PROPERTY,100.00000000000001
Sunset Hill,0.013345949280379093,LOST PROPERTY,100.0
Montlake,0.007940716029204457,LOST PROPERTY,100.0
Victory Heights,0.0705075871482371,LOST PROPERTY,100.0
Phinney Ridge,0.033018806087258115,LOST PROPERTY,100.0
Windermere,0.01022944114429722,LOST PROPERTY,100.0
Haller Lake,0.10325664449564395,LOST PROPERTY,99.99999999999999
Highland Park,0.0010233246876904774,LOST PROPERTY,100.0
Admiral,0.0019282408568384465,LOST PROPERTY,100.0
Little Saigon,0.003500341651530274,LOST PROPERTY,100.0
Olympic Manor,0.003500341651530274,LOST PROPERTY,100.0
South Beacon Hill,0.0010771864867899655,LOST PROPERTY,100.0
Fauntleroy,0.0009838796549459035,LOST PROPERTY,100.0
Westlake,0.006546508460441749,LOST PROPERTY,100.0
Leschi,0.002888958405646151,LOST PROPERTY,100.0
South Lake Union,0.005490363291297811,LOST PROPERTY,100.00000000000001
Cedar Park,0.030337024898329873,LOST PROPERTY,100.0
Interbay,0.006699968706972877,LOST PROPERTY,100.0
Madrona,0.0036895149251436636,LOST PROPERTY,100.0
Downtown,0.003500341651530274,LOST PROPERTY,100.0
North Queen Anne,0.008555558286876914,LOST PROPERTY,100.0
Portage Bay,0.01016809656008588,LOST PROPERTY,100.0
Laurelhurst,0.01052725619268465,LOST PROPERTY,100.00000000000001
Dunlap,0.0009855233730865069,LOST PROPERTY,100.0
Judkins Park,0.0026003976095852646,LOST PROPERTY,99.99999999999999
International District,0.0029989443241804927,LOST PROPERTY,100.0
Arbor Heights,0.0008475057199002196,LOST PROPERTY,100.0
South Delridge,0.0010408004069117208,LOST PROPERTY,100.0
Ballard,0.018631732949763804,LOST PROPERTY,100.0
Pinehurst,0.14843443106514834,LOST PROPERTY,100.0
Loyal Heights,0.020687120732280052,LOST PROPERTY,100.0
Olympic Hills,0.03749952009657939,LOST PROPERTY,100.0
Cascade,0.005006579511520242,LOST PROPERTY,100.0
Wallingford,0.01906629088636079,LOST PROPERTY,100.0
Uptown,0.005111408937051745,LOST PROPERTY,100.0
Crown Hill,0.048385184755290155,LOST PROPERTY,100.00000000000001
Yesler Terrace ,0.003233228140910389,LOST PROPERTY,100.0
Waterfront,0.003441609799670042,LOST PROPERTY,100.0
Alki,0.0017274943365460573,LOST PROPERTY,100.0
Hawthorne Hills,0.013590228192509117,LOST PROPERTY,100.0
Lakewood,0.0015290797311441626,LOST PROPERTY,100.0
Gatewood,0.0011765297427375344,LOST PROPERTY,100.0
Jackson Place ,0.002945077611093695,LOST PROPERTY,100.0
Madison Valley,0.004473157948991094,LOST PROPERTY,100.0
Hillman City,0.0013099210966152955,LOST PROPERTY,100.0
Bryant,0.015982034068286875,LOST PROPERTY,100.0
North Beach,0.026068250311071413,LOST PROPERTY,100.00000000000001
Roosevelt,0.04317865353138736,LOST PROPERTY,100.0
North College Park,1.068467108105903,LOST PROPERTY,100.0
Bitter Lake,0.0452887127269746,LOST PROPERTY,100.0
Brighton,0.0011062019455535036,LOST PROPERTY,100.0
West Queen Anne,0.005952401772151299,LOST PROPERTY,100.0
Georgetown,0.0012735927273121491,LOST PROPERTY,100.0
Genesee,0.0015501401300134663,LOST PROPERTY,100.0
Belltown,0.004186869655900395,LOST PROPERTY,100.0
Holly Park ,0.0011649476578594995,LOST PROPERTY,100.0
Madison Park,0.005435200039444975,LOST PROPERTY,100.0
Rainier Beach,0.0008426655767659875,LOST PROPERTY,100.0
Fairmount Park,0.0014009619066503538,LOST PROPERTY,99.99999999999999
Meadowbrook,0.04419585488748331,LOST PROPERTY,100.00000000000001
West Woodland,0.01840156660471977,LOST PROPERTY,100.0
Northgate,0.33392143879062297,LOST PROPERTY,100.0
Seward Park,0.0012771466143239707,LOST PROPERTY,100.0
University District,0.018404417012583295,LOST PROPERTY,100.0
First Hill,0.003725850253223077,LOST PROPERTY,100.0
Columbia City,0.0015157103359805075,LOST PROPERTY,100.0
North Beacon Hill,0.0021073766425453166,LOST PROPERTY,100.0
