hood,influence,largestInfluencer,largestInfluencerPercent
Fremont,0.07121500493887155,THREATS,58.984333067015264
Junction,0.01868516514354824,THREATS,87.50511482508595
Central,0.09337560359181947,THREATS,89.87330923659688
Ravenna,0.4010991569837502,FRAUD,96.10373936853003
Garfield,0.19262425925245366,THREATS,91.77510806809345
Seaview,0.01362414393090551,THREATS,85.8030071108103
Green Lake,0.07218485674199654,FRAUD,75.60375535675857
Minor,0.16828911967763546,THREATS,94.58278121066652
Roxhill,0.009110027259251535,THREATS,83.581173328984
Rainier View,0.0054294515885221885,THREATS,78.34063880555904
Denny - Blaine,0.07079630887906299,THREATS,79.40251845487761
Broadview,0.012563984717779194,FRAUD,54.854410457066315
Pioneer Square,0.31085628531797366,THREATS,97.78285190354256
Beacon Hill,0.016557806910426704,THREATS,85.08152101142674
Lower Queen Anne,0.2696262777701164,THREATS,96.07895024220649
High Point,0.015504524689424651,THREATS,86.56307953648387
Industrial District,0.026761842693573817,THREATS,89.0354918628869
Blue Ridge,0.016196800662444968,THREATS,50.493244708969996
Maple Leaf,0.0408546600979013,FRAUD,76.6481908308104
Greenwood,0.024990714841443856,FRAUD,61.435060500579034
Broadmoor,0.07766150071358333,THREATS,60.18201402284372
View Ridge,0.05450087192401633,FRAUD,81.55828428719235
East Queen Anne,0.12847081778953262,THREATS,85.10977045841904
Whittier Heights,0.02779598474869344,FRAUD,53.39327419600112
Riverview,0.014396931196892719,THREATS,85.98289274056769
Denny Triangle,0.4021189235939692,THREATS,95.50043733148594
Wedgwood,0.06213941319011333,FRAUD,83.80487806446656
Eastlake,0.12965203532543446,THREATS,70.92386083478394
North Delridge,0.02231309722467937,THREATS,88.53645533410196
Capitol Hill,0.3881475862507894,THREATS,95.57157894176011
Atlantic,0.09976982307413625,THREATS,93.35911359065163
South Park,0.010634917446698706,THREATS,83.71349812800652
Matthews Beach,0.0351537370150633,FRAUD,77.00893496653252
Mt. Baker,0.0377459373363508,THREATS,87.89896579910842
Magnolia,0.03375403899467934,THREATS,80.30520750596298
Sunset Hill,0.017816067946345066,THREATS,58.88771401215946
Montlake,0.10938527055124295,THREATS,53.90181756346679
Victory Heights,0.023202612870077518,FRAUD,70.68786741123085
Phinney Ridge,0.042744515666728405,FRAUD,58.400318649087055
Windermere,0.05905328265842104,FRAUD,79.01839465766453
Haller Lake,0.016076101784390458,FRAUD,62.77815070181358
Highland Park,0.00924956126125072,THREATS,83.37499338118106
Admiral,0.025153178812641133,THREATS,88.70204630001534
Little Saigon,0.6269862519903503,THREATS,98.72387992882399
Olympic Manor,0.6269862519903503,THREATS,98.72387992882399
South Beacon Hill,0.009725755160806003,THREATS,81.91335994642786
Fauntleroy,0.008216909731483188,THREATS,83.07897855448833
Westlake,0.25357501038735053,THREATS,93.06694040995292
Leschi,0.06587530559928012,THREATS,89.10850220337193
South Lake Union,0.7184892957417081,THREATS,97.880759975385
Cedar Park,0.015931014924113522,FRAUD,66.11576925488856
Interbay,0.05077006390763732,THREATS,81.43883373750677
Madrona,0.07407084739164987,THREATS,85.09148234246882
Downtown,0.6269862519903503,THREATS,98.72387992882399
North Queen Anne,0.06842939769984424,THREATS,78.56331086524935
Portage Bay,0.12444192673765817,FRAUD,52.306317029097876
Laurelhurst,0.12944229749731956,FRAUD,84.97697748952984
Dunlap,0.008088224517631913,THREATS,80.32181365753857
Judkins Park,0.06466179980651958,THREATS,90.83277446836063
International District,0.18238491856053166,THREATS,96.33324299112932
Arbor Heights,0.006447921542244731,THREATS,81.74642552655591
South Delridge,0.009407307680639547,THREATS,83.67496938321594
Ballard,0.022846224176527763,THREATS,55.33357449808481
Pinehurst,0.020838970652447324,FRAUD,67.77366839551418
Loyal Heights,0.021980114411576664,THREATS,53.81858861505694
Olympic Hills,0.015320045464336645,FRAUD,65.05800503533162
Cascade,1.4843472044406039,THREATS,99.07903793022082
Wallingford,0.1301348378691453,FRAUD,75.88001884215761
Uptown,0.2696262777701164,THREATS,96.07895024220649
Crown Hill,0.02041643274885619,FRAUD,54.5804196052582
Yesler Terrace ,0.22405453391630523,THREATS,96.58457020954252
Waterfront,0.5484135559184244,THREATS,98.64964366369392
Alki,0.01790700280651035,THREATS,86.62607096714993
Hawthorne Hills,0.10395743128441434,FRAUD,86.84060232823819
Lakewood,0.016686956996162274,THREATS,82.7938531044895
Gatewood,0.011144035847987668,THREATS,84.76148543777902
Jackson Place ,0.1144009306292757,THREATS,93.94044804370854
Madison Valley,0.0874501551305721,THREATS,82.19741947063503
Hillman City,0.013362838377400234,THREATS,82.80023816576706
Bryant,0.2343041338864829,FRAUD,93.20954668252928
North Beach,0.016196800662444968,THREATS,50.493244708969996
Roosevelt,0.19554731508024767,FRAUD,91.80873773506423
North College Park,0.03269736671510222,FRAUD,69.9795033661573
Bitter Lake,0.01238703923989029,FRAUD,57.444336245079064
Brighton,0.009843339190103011,THREATS,81.25589785195726
West Queen Anne,0.09518488228550083,THREATS,89.04533921433833
Georgetown,0.014069449325764108,THREATS,85.14298699951799
Genesee,0.017519077474231204,THREATS,87.08914304266291
Belltown,1.8230513994930273,THREATS,99.48947375403002
Holly Park ,0.01107834026398102,THREATS,82.3645568584758
Madison Park,0.06040732411011836,THREATS,59.65722060545361
Rainier Beach,0.006231804476060724,THREATS,78.97415729576555
Fairmount Park,0.01557888252241916,THREATS,86.59808643269156
Meadowbrook,0.027317777678692454,FRAUD,73.60294604835656
West Woodland,0.03869260092467727,THREATS,54.60331836403604
Northgate,0.02460447038358709,FRAUD,69.55973328007913
Seward Park,0.011996369992877216,THREATS,81.19402658104956
University District,0.5794095021203328,FRAUD,95.36379758133724
First Hill,0.6499970620019055,THREATS,98.58396323694501
Columbia City,0.0179036399184162,THREATS,84.45468592196175
North Beacon Hill,0.044082483729684645,THREATS,90.45943078564775
