hood,influence,largestInfluencer,largestInfluencerPercent
Fremont,0.019669390947307384,FRAUD,100.0
Junction,0.009792952744781834,FRAUD,100.0
Central,0.02824732080407686,FRAUD,100.0
Ravenna,0.00675655521134607,FRAUD,100.0
Garfield,0.08467490122930801,FRAUD,100.0
Seaview,0.006777644812829242,FRAUD,100.00000000000001
Green Lake,0.008096454705688923,FRAUD,100.0
Minor,0.04895018470252321,FRAUD,100.0
Roxhill,0.004134916472970435,FRAUD,100.0
Rainier View,0.002097983492580861,FRAUD,100.0
Denny - Blaine,0.019320167056885672,FRAUD,100.0
Broadview,0.0027730427389061198,FRAUD,100.0
Pioneer Square,0.1527961321973685,FRAUD,100.0
Beacon Hill,0.0069374237560390194,FRAUD,100.0
Lower Queen Anne,0.20690602265526822,FRAUD,100.0
High Point,0.007584239715093839,FRAUD,100.0
Industrial District,0.012747750299897453,FRAUD,100.0
Blue Ridge,0.004098066592477432,FRAUD,100.0
Maple Leaf,0.004390314437551684,FRAUD,100.0
Greenwood,0.00464634189765457,FRAUD,100.0
Broadmoor,0.01661343522409237,FRAUD,100.0
View Ridge,0.004389634927063504,FRAUD,100.0
East Queen Anne,0.05100206213833182,FRAUD,100.00000000000001
Whittier Heights,0.006395039963360809,FRAUD,100.0
Riverview,0.006746020537898741,FRAUD,100.0
Denny Triangle,0.09546226810631822,FRAUD,100.0
Wedgwood,0.004469763461681497,FRAUD,100.0
Eastlake,0.033641593557052527,FRAUD,100.0
North Delridge,0.011516924175735539,FRAUD,100.0
Capitol Hill,0.08210272830006002,FRAUD,100.0
Atlantic,0.03584395345919342,FRAUD,100.0
South Park,0.004612745543676595,FRAUD,100.0
Matthews Beach,0.0036066604693277145,FRAUD,100.0
Mt. Baker,0.014431486504567874,FRAUD,100.0
Magnolia,0.016373687480803468,FRAUD,100.0
Sunset Hill,0.005443879341421212,FRAUD,100.0
Montlake,0.02089220645550639,FRAUD,99.99999999999999
Victory Heights,0.003145443926246252,FRAUD,100.0
Phinney Ridge,0.008557535940735791,FRAUD,100.0
Windermere,0.005249554463739529,FRAUD,100.0
Haller Lake,0.0028449936950087637,FRAUD,100.00000000000001
Highland Park,0.004083356252988958,FRAUD,100.0
Admiral,0.014367883897424273,FRAUD,100.0
Little Saigon,0.22239531017699105,FRAUD,100.0
Olympic Manor,0.22239531017699105,FRAUD,100.0
South Beacon Hill,0.003943041224422248,FRAUD,100.0
Fauntleroy,0.003729900699061886,FRAUD,100.0
Westlake,0.09219935752858507,FRAUD,100.0
Leschi,0.022014584390852212,FRAUD,100.0
South Lake Union,0.15947300446418772,FRAUD,100.0
Cedar Park,0.002508639658888322,FRAUD,100.0
Interbay,0.024570404806806116,FRAUD,100.0
Madrona,0.0216502941075471,FRAUD,100.0
Downtown,0.22239531017699105,FRAUD,100.0
North Queen Anne,0.02883358303721545,FRAUD,100.00000000000001
Portage Bay,0.02244093177003603,FRAUD,100.0
Laurelhurst,0.007927264639692727,FRAUD,100.0
Dunlap,0.003182159072356682,FRAUD,100.0
Judkins Park,0.02368160058479421,FRAUD,100.0
International District,0.07236927390212278,FRAUD,100.0
Arbor Heights,0.002833035010486859,FRAUD,100.0
South Delridge,0.004239734130146788,FRAUD,100.0
Ballard,0.006449850541135984,FRAUD,100.0
Pinehurst,0.0031456963430419073,FRAUD,100.0
Loyal Heights,0.0060025630598727776,FRAUD,100.0
Olympic Hills,0.0025032793679325704,FRAUD,100.0
Cascade,0.19962981081899195,FRAUD,100.0
Wallingford,0.013592404546440765,FRAUD,100.0
Uptown,0.20690602265526822,FRAUD,100.0
Crown Hill,0.004567895380443974,FRAUD,100.0
Yesler Terrace ,0.07426578706368316,FRAUD,100.0
Waterfront,0.3843809039586716,FRAUD,100.0
Alki,0.009631132692688123,FRAUD,100.0
Hawthorne Hills,0.005805270767667904,FRAUD,100.0
Lakewood,0.006385670229784246,FRAUD,100.0
Gatewood,0.005296712284339929,FRAUD,100.0
Jackson Place ,0.04020178965565207,FRAUD,100.0
Madison Valley,0.023585077092629043,FRAUD,100.0
Hillman City,0.00531315546231444,FRAUD,100.00000000000001
Bryant,0.006719863337947836,FRAUD,100.0
North Beach,0.004098066592477432,FRAUD,100.0
Roosevelt,0.007086257552804934,FRAUD,100.0
North College Park,0.00461527607615086,FRAUD,100.0
Bitter Lake,0.002547511067123151,FRAUD,100.0
Brighton,0.0038908741939186735,FRAUD,100.0
West Queen Anne,0.05459368109702859,FRAUD,100.0
Georgetown,0.006178347540257787,FRAUD,100.0
Genesee,0.009157654051498506,FRAUD,100.0
Belltown,18.57129394609388,FRAUD,100.0
Holly Park ,0.004473785953473149,FRAUD,100.0
Madison Park,0.01324776809234512,FRAUD,100.0
Rainier Beach,0.002421089859026042,FRAUD,100.0
Fairmount Park,0.007787613838260937,FRAUD,100.0
Meadowbrook,0.0032945643465535,FRAUD,100.0
West Woodland,0.010558572480669385,FRAUD,100.00000000000001
Northgate,0.003501399570081798,FRAUD,100.0
Seward Park,0.0046031625642608456,FRAUD,100.0
University District,0.011237952296559895,FRAUD,99.99999999999999
First Hill,0.1469494016316787,FRAUD,100.0
Columbia City,0.007166892492444417,FRAUD,100.0
North Beacon Hill,0.01875411281188151,FRAUD,100.0
