hood,influence,largestInfluencer,largestInfluencerPercent
Fremont,0.05189065594078356,FRAUD,81.8848689391275
Junction,0.097383147597915,ASSAULT,86.75591106165678
Central,0.06193899090437829,BURGLARY,56.34281016458089
Ravenna,1.778889293000346,FRAUD,99.66250416986263
Garfield,0.04124971651329432,FRAUD,60.5492912627987
Seaview,0.04811327041899688,ASSAULT,78.34321993429097
Green Lake,0.08926607835796443,FRAUD,93.26848639437672
Minor,0.0651311159796771,BURGLARY,55.226287571970616
Roxhill,0.024877498720811794,ASSAULT,62.56515057030293
Rainier View,0.010987059625090376,BURGLARY,47.30638906794515
Denny - Blaine,0.04979924155641542,FRAUD,53.21748035485684
Broadview,0.01644688475527994,FRAUD,82.35985087539032
Pioneer Square,0.06820947195225721,BURGLARY,42.62458695183685
Beacon Hill,0.0693998299227383,BURGLARY,69.98312314059346
Lower Queen Anne,0.038194044997539846,FRAUD,45.57235300060316
High Point,0.07924178185052085,ASSAULT,81.71109421152848
Industrial District,0.1317307913849882,ASSAULT,64.59272071454288
Blue Ridge,0.01853412047089021,FRAUD,79.51445545468917
Maple Leaf,0.07178190530623084,FRAUD,94.15501673739612
Greenwood,0.03257576586161291,FRAUD,87.25780484684292
Broadmoor,0.06888996380848691,FRAUD,78.81028465983704
View Ridge,0.14939082026316075,FRAUD,96.7758904381008
East Queen Anne,0.043245389526007046,FRAUD,67.95012206310125
Whittier Heights,0.03065112118144175,FRAUD,83.51138613266998
Riverview,0.058563867495295664,ASSAULT,71.03403627849224
Denny Triangle,0.048959628569709396,FRAUD,58.933833152756854
Wedgwood,0.16196931969629827,FRAUD,97.17273716651925
Eastlake,0.06709972343859565,FRAUD,80.06817817246004
North Delridge,0.33776525868365403,ASSAULT,94.41841030419097
Capitol Hill,0.050348416808865794,FRAUD,55.61751357133598
Atlantic,0.10982342119839267,BURGLARY,73.31048669466604
South Park,0.030438224377149537,ASSAULT,47.818386430070944
Matthews Beach,0.07983979069293982,FRAUD,94.93918057129093
Mt. Baker,0.7868123088465135,BURGLARY,97.09617767308934
Magnolia,0.02133862547476368,FRAUD,53.19225346719924
Sunset Hill,0.017648229547691654,FRAUD,73.6555995077281
Montlake,0.08936707101690196,FRAUD,85.24940499205167
Victory Heights,0.04104192570831191,FRAUD,91.77046419513134
Phinney Ridge,0.04608668639072993,FRAUD,86.8868279180102
Windermere,0.14866289426903184,FRAUD,96.00569785655208
Haller Lake,0.024058443430821023,FRAUD,87.44491443890007
Highland Park,0.025108447668533276,ASSAULT,55.38865915592501
Admiral,0.06936629358188849,ASSAULT,81.41928777070483
Little Saigon,0.05996195790012698,BURGLARY,42.077258083208065
Olympic Manor,0.05996195790012698,BURGLARY,42.077258083208065
South Beacon Hill,0.026143775392274155,BURGLARY,55.938599623194456
Fauntleroy,0.020658069562162755,ASSAULT,62.07096351081201
Westlake,0.04471820721151756,FRAUD,61.61204947996221
Leschi,0.08925652258869433,BURGLARY,72.77696431032322
South Lake Union,0.04623854382105127,FRAUD,53.19798363908055
Cedar Park,0.027011476593645525,FRAUD,89.31391595665512
Interbay,0.026747576162338797,FRAUD,58.33918824706603
Madrona,0.0526497793349234,BURGLARY,46.90311703971087
Downtown,0.05996195790012698,BURGLARY,42.077258083208065
North Queen Anne,0.034390217190449705,FRAUD,67.5229996903859
Portage Bay,0.09691703946524043,FRAUD,87.9763967743602
Laurelhurst,0.2981761698663972,FRAUD,97.39765485323129
Dunlap,0.019365442818841873,BURGLARY,54.73248340798252
Judkins Park,0.17250570981897945,BURGLARY,84.79019990246249
International District,0.08200922482812774,BURGLARY,55.9603138619828
Arbor Heights,0.01427572502475017,ASSAULT,55.497963422298824
South Delridge,0.026236074065930703,ASSAULT,60.93599848985608
Ballard,0.02283531925915837,FRAUD,77.61387286031022
Pinehurst,0.03387424626737036,FRAUD,90.25649830191321
Loyal Heights,0.0226480783700573,FRAUD,78.45522555557659
Olympic Hills,0.025132735528524918,FRAUD,88.68900225071731
Cascade,0.047158751391953725,FRAUD,47.65461465865036
Wallingford,0.1227284547206209,FRAUD,93.26515647907863
Uptown,0.038194044997539846,FRAUD,45.57235300060316
Crown Hill,0.024432845815318717,FRAUD,83.30994580687829
Yesler Terrace ,0.07283598108539488,BURGLARY,55.65677736831161
Waterfront,0.058702333593564804,ASSAULT,41.79092096683461
Alki,0.03822214704533657,ASSAULT,73.77650293862408
Hawthorne Hills,0.3604350254997708,FRAUD,98.32788008241717
Lakewood,0.07197448182191388,BURGLARY,80.15002129171529
Gatewood,0.03524453671913767,ASSAULT,71.97020412861622
Jackson Place ,0.09715215706852041,BURGLARY,69.48585847734032
Madison Valley,0.05141504935059402,FRAUD,53.869796657239526
Hillman City,0.04658225965000637,BURGLARY,70.39217074946436
Bryant,1.395069383376948,FRAUD,99.5394286179819
North Beach,0.01853412047089021,FRAUD,79.51445545468917
Roosevelt,0.309612731930037,FRAUD,98.1067184288248
North College Park,0.0485119492320411,FRAUD,91.32018284901027
Bitter Lake,0.017155598187773492,FRAUD,83.97139554537338
Brighton,0.0264137993872296,BURGLARY,60.03852301944223
West Queen Anne,0.03208246425490852,FRAUD,53.24195633828014
Georgetown,0.0472007947419516,BURGLARY,46.08164963021192
Genesee,0.07147033941409628,ASSAULT,83.56046967476257
Belltown,0.046450645083942636,ASSAULT,35.755726164466076
Holly Park ,0.03253571446809084,BURGLARY,61.09131505056585
Madison Park,0.060009122183937176,FRAUD,76.02404737001211
Rainier Beach,0.013250604388364045,BURGLARY,49.64035102257765
Fairmount Park,0.07588030353000401,ASSAULT,83.23837185582725
Meadowbrook,0.052728367640084005,FRAUD,93.22073828596258
West Woodland,0.03506001645048347,FRAUD,80.65403993413118
Northgate,0.0401489556205747,FRAUD,91.15491946742182
Seward Park,0.035967620885481305,BURGLARY,68.60086256726223
University District,0.36267877936400816,FRAUD,97.80303000921101
First Hill,0.057538974168017586,BURGLARY,44.01830312976696
Columbia City,0.09645813230164876,BURGLARY,81.8886470815432
North Beacon Hill,0.4755287824570849,BURGLARY,92.54538620278055
