hood,influence,largestInfluencer,largestInfluencerPercent
Fremont,0.07556865798023649,BURGLARY,61.56229272793597
Junction,6.786550075727492,OTHER PROPERTY,98.92342100000461
Central,0.034413722127122306,BURGLARY,48.32403946644158
Ravenna,2.8830927351408047,BURGLARY,97.54096864655487
Garfield,0.05057056200683148,BURGLARY,51.336337696768375
Seaview,0.37202523014886907,OTHER PROPERTY,86.29045753308559
Green Lake,0.15229208981199444,BURGLARY,65.29262818264266
Minor,0.03573340349904221,BURGLARY,44.473280222591036
Roxhill,0.0381355156680594,OTHER PROPERTY,59.68109112341987
Rainier View,0.0092845860659488,OTHER PROPERTY,31.710285347019187
Denny - Blaine,0.04289115808831188,BURGLARY,59.14749178910972
Broadview,0.3646035271723737,FRAUD,92.31011068139706
Pioneer Square,0.03920470745053858,BURGLARY,30.837243990287146
Beacon Hill,0.022073699003092348,OTHER PROPERTY,40.04141574844807
Lower Queen Anne,0.04401586489409597,BURGLARY,40.72818059286387
High Point,0.12637819110363413,OTHER PROPERTY,77.89224606613918
Industrial District,0.04339637511048623,OTHER PROPERTY,53.69213614520769
Blue Ridge,0.074198845010532,FRAUD,62.724109619029385
Maple Leaf,0.2304558428633194,CAR PROWL,41.74580929897833
Greenwood,0.13077617101870143,FRAUD,60.03763048873807
Broadmoor,0.07171428172755302,BURGLARY,71.06679271116595
View Ridge,0.22198740450075494,BURGLARY,57.769156221505874
East Queen Anne,0.05586679416349333,BURGLARY,55.269958576768
Whittier Heights,0.07636598411312226,FRAUD,42.93812154497613
Riverview,0.05366890020004269,OTHER PROPERTY,64.65047833689503
Denny Triangle,0.05210142356752706,BURGLARY,56.14936433374914
Wedgwood,0.4494326297482639,CAR PROWL,59.13252286034412
Eastlake,0.08072494556821536,BURGLARY,68.97824645591986
North Delridge,0.15748151149312584,OTHER PROPERTY,78.2664421990053
Capitol Hill,0.05001717811913149,BURGLARY,56.11928180429574
Atlantic,0.0320568954732889,BURGLARY,36.772056549698334
South Park,0.023420566944256455,OTHER PROPERTY,49.166702001208996
Matthews Beach,0.32539090663139947,CAR PROWL,70.8963333785722
Mt. Baker,0.025212927038404855,BURGLARY,33.13135304623737
Magnolia,0.0359976589164145,BURGLARY,33.05412009897674
Sunset Hill,0.04508700070575208,FRAUD,45.33964471923807
Montlake,0.09806128214925017,BURGLARY,75.6123805955331
Victory Heights,0.2777269560001405,CAR PROWL,61.878045838383315
Phinney Ridge,0.08819772200546974,BURGLARY,51.154736186170716
Windermere,0.1564659508526616,BURGLARY,74.48311319710372
Haller Lake,0.6187999329677405,FRAUD,91.42657101387147
Highland Park,0.02674969032642355,OTHER PROPERTY,53.6205580484707
Admiral,0.27419239478845187,CAR PROWL,58.72007735182094
Little Saigon,0.03908733911545521,BURGLARY,35.55624618963696
Olympic Manor,0.03908733911545521,BURGLARY,35.55624618963696
South Beacon Hill,0.015514496361804995,OTHER PROPERTY,37.65964871605819
Fauntleroy,0.037677852900819625,OTHER PROPERTY,58.45120863251933
Westlake,0.052577661718141905,BURGLARY,54.12554321057158
Leschi,0.029890291415122925,BURGLARY,42.99459433742142
South Lake Union,0.04833105207736568,BURGLARY,51.743373092946456
Cedar Park,0.15171464338751625,CAR PROWL,48.38044919549279
Interbay,0.04128731812014419,BURGLARY,39.81629360173708
Madrona,0.03645605826296923,BURGLARY,53.28556383703107
Downtown,0.03908733911545521,BURGLARY,35.55624618963696
North Queen Anne,0.05022427056197019,BURGLARY,49.158447624336276
Portage Bay,0.11509858723398467,BURGLARY,76.73961986245995
Laurelhurst,0.254458214023082,BURGLARY,86.90110938018188
Dunlap,0.012656090494286136,OTHER PROPERTY,33.758549986103404
Judkins Park,0.02919244329187171,BURGLARY,36.5275952186962
International District,0.036078907593467595,BURGLARY,32.70798127654306
Arbor Heights,0.02271475885531334,OTHER PROPERTY,51.00504413273755
South Delridge,0.034458402884141634,OTHER PROPERTY,58.229550659706476
Ballard,0.05511113388346902,FRAUD,42.58351366462112
Pinehurst,0.23420141794950441,FRAUD,58.41603295513466
Loyal Heights,0.05808765706365965,FRAUD,45.318000269762535
Olympic Hills,0.15693174223541062,FRAUD,49.38533351503747
Cascade,0.045771496089953484,BURGLARY,49.6123862962715
Wallingford,0.16919882008753767,BURGLARY,78.92855725004888
Uptown,0.04401586489409597,BURGLARY,40.72818059286387
Crown Hill,0.09612413043902708,FRAUD,61.33027513522533
Yesler Terrace ,0.03585055825637152,BURGLARY,37.40426811509466
Waterfront,0.040784721518633216,BURGLARY,31.637042368708027
Alki,4.4107417657663825,CAR PROWL,97.929743390729
Hawthorne Hills,0.31433920400802606,BURGLARY,83.68249503793207
Lakewood,0.017864807332631617,BURGLARY,30.122815001155296
Gatewood,0.0904001152554887,OTHER PROPERTY,71.5749657394463
Jackson Place ,0.032792489869139796,BURGLARY,37.478053799138046
Madison Valley,0.04496122569296668,BURGLARY,59.329593460074015
Hillman City,0.017142135083346832,OTHER PROPERTY,33.84294628219817
Bryant,0.8338846048259,BURGLARY,93.74202602763197
North Beach,0.074198845010532,FRAUD,62.724109619029385
Roosevelt,0.49686842099905304,BURGLARY,85.97650421852127
North College Park,0.16576626383813559,FRAUD,47.5281190028517
Bitter Lake,7.054442809762181,FRAUD,99.54626370803943
Brighton,0.014374474162519715,OTHER PROPERTY,33.98528637988685
West Queen Anne,0.04350715058333193,BURGLARY,40.98438597306146
Georgetown,0.027053298077474204,OTHER PROPERTY,49.36944309155501
Genesee,5.021294246330718,OTHER PROPERTY,98.03589336828368
Belltown,0.042268275467711336,BURGLARY,37.67947331971728
Holly Park ,0.01633969194812566,OTHER PROPERTY,36.64093434659581
Madison Park,0.061539434198081985,BURGLARY,68.75487876842885
Rainier Beach,0.010349624081951827,OTHER PROPERTY,32.36363398663696
Fairmount Park,0.333148051994482,OTHER PROPERTY,88.09609258868258
Meadowbrook,1.0644917900054591,CAR PROWL,91.3606626665269
West Woodland,0.06415390306270374,BURGLARY,48.43244382824057
Northgate,0.22595913535570786,FRAUD,52.3788540415447
Seward Park,0.015054834720449363,OTHER PROPERTY,29.78984574093586
University District,0.47532924648842356,BURGLARY,91.78481804860837
First Hill,0.03878335736742584,BURGLARY,40.91765217760448
Columbia City,0.01993329117630943,OTHER PROPERTY,33.572890675950994
North Beacon Hill,0.029905759313777355,OTHER PROPERTY,35.092123145266015
