hood,influence,largestInfluencer,largestInfluencerPercent
Fremont,0.05172628115497137,FRAUD,87.26447635042017
Junction,0.044060162226176494,ASSAULT,68.36227322092097
Central,0.04937646948302052,OTHER PROPERTY,73.7775930033323
Ravenna,0.1127095342850905,FRAUD,95.79548620311841
Garfield,0.04349984869431915,FRAUD,76.1476008702236
Seaview,0.08034539488518438,ASSAULT,86.0354727700197
Green Lake,0.06680112607912263,FRAUD,93.207448667196
Minor,0.04967528489679275,OTHER PROPERTY,71.21955667762212
Roxhill,0.13768138703196514,ASSAULT,93.23658248349484
Rainier View,0.010943589886275324,OTHER PROPERTY,47.900705384039355
Denny - Blaine,0.03134243497457527,OTHER PROPERTY,56.36573288877068
Broadview,0.021666207893320823,FRAUD,89.27488373981323
Pioneer Square,0.042995172381243674,OTHER PROPERTY,60.68357282801019
Beacon Hill,0.05659926762491581,OTHER PROPERTY,79.55446073157142
Lower Queen Anne,0.042353114286095915,FRAUD,71.69069021670302
High Point,0.06494279731539403,ASSAULT,77.95045248300433
Industrial District,0.051409843921909795,OTHER PROPERTY,65.4953016370681
Blue Ridge,0.026881888607420718,FRAUD,89.07093132694926
Maple Leaf,0.4448031090461055,FRAUD,99.25327629383689
Greenwood,0.043987240243883424,FRAUD,92.69292097788767
Broadmoor,0.027495967359915573,FRAUD,56.76900545116616
View Ridge,0.06086991561036578,FRAUD,93.52843230245955
East Queen Anne,0.04658451613912971,FRAUD,80.41782044331417
Whittier Heights,0.042082807490645295,FRAUD,90.99097563347969
Riverview,0.05064767964553679,ASSAULT,68.25267656892022
Denny Triangle,0.03416870177533774,FRAUD,59.76964958570287
Wedgwood,0.22451977521591873,FRAUD,98.35586762430142
Eastlake,0.03536045197080222,FRAUD,72.89652574119924
North Delridge,0.042506562197547046,ASSAULT,56.71047227826831
Capitol Hill,0.033378281547914,FRAUD,52.616419644791115
Atlantic,0.08843796357009809,OTHER PROPERTY,85.20279229087788
South Park,0.030849841481306782,ASSAULT,51.28074763166543
Matthews Beach,0.07565738482110029,FRAUD,95.62657668961786
Mt. Baker,1.6708394460497267,OTHER PROPERTY,99.36546930986006
Magnolia,0.47960402989321615,FRAUD,98.66081464999993
Sunset Hill,0.03986326463268534,FRAUD,91.24972132718443
Montlake,0.03076724395232567,FRAUD,66.9505632805831
Victory Heights,0.10199822980158312,FRAUD,97.31876435060605
Phinney Ridge,0.04966173184744595,FRAUD,90.99956639306342
Windermere,0.0331573183004798,FRAUD,85.21286439014402
Haller Lake,0.03851535444626216,FRAUD,93.67977842520925
Highland Park,0.04228250545959217,ASSAULT,74.33880069230655
Admiral,0.029626013020782428,ASSAULT,46.18959004492696
Little Saigon,0.04063740925573576,OTHER PROPERTY,57.10217848266258
Olympic Manor,0.04063740925573576,OTHER PROPERTY,57.10217848266258
South Beacon Hill,0.023963054519293144,OTHER PROPERTY,60.245479163753465
Fauntleroy,0.37695898692951174,ASSAULT,97.87150717203403
Westlake,0.03874938502510836,FRAUD,71.07849866566728
Leschi,0.08276440428177942,OTHER PROPERTY,85.89984299219056
South Lake Union,0.03512696716942608,FRAUD,59.5699414754831
Cedar Park,0.04095096681713927,FRAUD,94.21329492128464
Interbay,0.22988227984432114,FRAUD,96.9195407807619
Madrona,0.03901411175700456,OTHER PROPERTY,67.2714344546181
Downtown,0.04063740925573576,OTHER PROPERTY,57.10217848266258
North Queen Anne,0.08678413236578411,FRAUD,91.55866467412889
Portage Bay,0.035171663939523895,FRAUD,75.44479093646885
Laurelhurst,0.03435994094117605,FRAUD,81.68887803127963
Dunlap,0.018191622491884562,OTHER PROPERTY,58.901641183579116
Judkins Park,0.15942183931384218,OTHER PROPERTY,92.54368915049817
International District,0.0558651300739889,OTHER PROPERTY,73.02087411708527
Arbor Heights,0.07013292863592831,ASSAULT,90.75074871221028
South Delridge,0.07725942844627114,ASSAULT,86.93727300846118
Ballard,0.04576471891498025,FRAUD,91.70603252850938
Pinehurst,0.0730471744336812,FRAUD,96.36305676474215
Loyal Heights,0.04099779071417001,FRAUD,91.09726207626302
Olympic Hills,0.03933515254398584,FRAUD,94.08423244177098
Cascade,0.034800488555327275,FRAUD,53.366121284167725
Wallingford,0.04711466961402361,FRAUD,87.01146835539767
Uptown,0.042353114286095915,FRAUD,71.69069021670302
Crown Hill,0.03303325186900768,FRAUD,90.48936064095459
Yesler Terrace ,0.05250708430194762,OTHER PROPERTY,71.38499838777727
Waterfront,0.038115805669798254,OTHER PROPERTY,51.07654963780938
Alki,0.02807824548442027,ASSAULT,53.48264319596827
Hawthorne Hills,0.04711764502042832,FRAUD,89.59519200909956
Lakewood,0.07588629952810363,OTHER PROPERTY,89.04866426922065
Gatewood,0.28455025434915715,ASSAULT,96.41825362242461
Jackson Place ,0.07676454564702916,OTHER PROPERTY,82.54699670777418
Madison Valley,0.03196014587454605,OTHER PROPERTY,54.40134744727936
Hillman City,0.042661273266069076,OTHER PROPERTY,79.1613598745166
Bryant,0.05651475736955764,FRAUD,90.87461426016708
North Beach,0.026881888607420718,FRAUD,89.07093132694926
Roosevelt,0.14278503603206194,FRAUD,96.81354203445599
North College Park,0.09015614929553283,FRAUD,96.34966865159797
Bitter Lake,0.02313589832912987,FRAUD,90.39747701922013
Brighton,0.024207771807489904,OTHER PROPERTY,66.58068980234634
West Queen Anne,0.07050293924880507,FRAUD,87.19555934602529
Georgetown,0.03689633437798644,OTHER PROPERTY,53.471574084687965
Genesee,0.043415856297532446,ASSAULT,69.90546634339285
Belltown,0.03595624276371578,FRAUD,52.040863878555726
Holly Park ,0.029142284637240386,OTHER PROPERTY,67.84768622459274
Madison Park,0.02568598953892137,FRAUD,52.922075978071554
Rainier Beach,0.01292979340556166,OTHER PROPERTY,51.38146016967019
Fairmount Park,0.06763470454014742,ASSAULT,80.62379827875453
Meadowbrook,0.12922772319640408,FRAUD,97.75328845484192
West Woodland,0.06213680376067327,FRAUD,92.1545556349017
Northgate,0.10198154988037243,FRAUD,97.21624519598868
Seward Park,0.03409224329589166,OTHER PROPERTY,77.9757446250095
University District,0.05049576077204892,FRAUD,87.93764041415058
First Hill,0.0407742366875586,OTHER PROPERTY,58.51142250271858
Columbia City,0.09202006639536342,OTHER PROPERTY,89.5242058847417
North Beacon Hill,0.2536009587790904,OTHER PROPERTY,95.05208296607466
