hood,influence,largestInfluencer,largestInfluencerPercent
Fremont,0.013213573782392492,CAR PROWL,100.0
Junction,0.011697007270794263,CAR PROWL,100.0
Central,0.037313677467092195,CAR PROWL,100.0
Ravenna,0.005695000683103348,CAR PROWL,99.99999999999999
Garfield,0.039418696609002754,CAR PROWL,100.0
Seaview,0.00791758817885062,CAR PROWL,100.0
Green Lake,0.006328818674394808,CAR PROWL,100.0
Minor,0.0745597478102982,CAR PROWL,100.0
Roxhill,0.00492543122932202,CAR PROWL,100.0
Rainier View,0.002461190769799168,CAR PROWL,100.0
Denny - Blaine,0.020788025186882244,CAR PROWL,100.0
Broadview,0.0023604063207302373,CAR PROWL,100.0
Pioneer Square,1.1966422537957395,CAR PROWL,100.0
Beacon Hill,0.00937054085834332,CAR PROWL,100.0
Lower Queen Anne,0.06686901063565168,CAR PROWL,100.0
High Point,0.009497529208448511,CAR PROWL,100.0
Industrial District,0.018890041129544077,CAR PROWL,100.0
Blue Ridge,0.0033492130816055337,CAR PROWL,100.0
Maple Leaf,0.003703328312706199,CAR PROWL,100.0
Greenwood,0.0037926655657418555,CAR PROWL,100.0
Broadmoor,0.015412302960731976,CAR PROWL,100.0
View Ridge,0.003920009709987272,CAR PROWL,100.0
East Queen Anne,0.02766208436403622,CAR PROWL,100.00000000000001
Whittier Heights,0.005002633281828355,CAR PROWL,99.99999999999999
Riverview,0.008641940098641193,CAR PROWL,100.0
Denny Triangle,0.055924440885549626,CAR PROWL,100.0
Wedgwood,0.0038912455841166797,CAR PROWL,100.0
Eastlake,0.022802671608031767,CAR PROWL,100.0
North Delridge,0.015151570056796442,CAR PROWL,100.0
Capitol Hill,0.05928695429268508,CAR PROWL,100.0
Atlantic,0.06493652291746516,CAR PROWL,100.0
South Park,0.0057995189782928894,CAR PROWL,100.0
Matthews Beach,0.003214914097890288,CAR PROWL,100.0
Mt. Baker,0.02150180871230334,CAR PROWL,100.0
Magnolia,0.011487608201510046,CAR PROWL,100.0
Sunset Hill,0.004312315238300163,CAR PROWL,100.0
Montlake,0.017198599824350753,CAR PROWL,100.0
Victory Heights,0.0027390150018400347,CAR PROWL,99.99999999999999
Phinney Ridge,0.006504958509229238,CAR PROWL,100.0
Windermere,0.0047843185392084245,CAR PROWL,100.0
Haller Lake,0.0024497660174355204,CAR PROWL,100.0
Highland Park,0.0049809861064450235,CAR PROWL,100.0
Admiral,0.015913290416647737,CAR PROWL,100.0
Little Saigon,1.154182338741478,CAR PROWL,100.0
Olympic Manor,1.154182338741478,CAR PROWL,100.0
South Beacon Hill,0.004924631065688076,CAR PROWL,100.0
Fauntleroy,0.0043448590066315655,CAR PROWL,100.0
Westlake,0.04422292963730413,CAR PROWL,100.0
Leschi,0.03151929318453556,CAR PROWL,100.0
South Lake Union,0.07541385784119035,CAR PROWL,100.0
Cedar Park,0.0022235757491088164,CAR PROWL,100.0
Interbay,0.015597669383101075,CAR PROWL,100.0
Madrona,0.02567610326531757,CAR PROWL,100.0
Downtown,1.154182338741478,CAR PROWL,100.0
North Queen Anne,0.017485140321958467,CAR PROWL,100.0
Portage Bay,0.016652103059418798,CAR PROWL,100.0
Laurelhurst,0.00704489229132534,CAR PROWL,100.0
Dunlap,0.0038798326250084735,CAR PROWL,100.0
Judkins Park,0.038272721829731446,CAR PROWL,100.0
International District,0.20834346225606137,CAR PROWL,100.0
Arbor Heights,0.003256485338334118,CAR PROWL,100.0
South Delridge,0.005115038333628133,CAR PROWL,100.0
Ballard,0.005013341540749654,CAR PROWL,99.99999999999999
Pinehurst,0.002711151513638397,CAR PROWL,100.0
Loyal Heights,0.004706808501587064,CAR PROWL,100.0
Olympic Hills,0.002206735457209943,CAR PROWL,100.0
Cascade,0.1038819591349114,CAR PROWL,100.0
Wallingford,0.010143880934832235,CAR PROWL,100.0
Uptown,0.06686901063565168,CAR PROWL,100.0
Crown Hill,0.0037077944316521627,CAR PROWL,100.0
Yesler Terrace ,0.1711143579760758,CAR PROWL,100.0
Waterfront,233.56528621489116,CAR PROWL,100.0
Alki,0.010210262481634707,CAR PROWL,99.99999999999999
Hawthorne Hills,0.005159887185521978,CAR PROWL,100.00000000000001
Lakewood,0.008362444468020924,CAR PROWL,100.0
Gatewood,0.006268775317306252,CAR PROWL,100.0
Jackson Place ,0.07419650165151216,CAR PROWL,100.0
Madison Valley,0.024898327359999594,CAR PROWL,100.0
Hillman City,0.006872759620572827,CAR PROWL,100.0
Bryant,0.005841565624044761,CAR PROWL,100.0
North Beach,0.0033492130816055337,CAR PROWL,100.0
Roosevelt,0.00579768000732959,CAR PROWL,100.00000000000001
North College Park,0.0038164992444243025,CAR PROWL,100.0
Bitter Lake,0.002194056761344336,CAR PROWL,100.0
Brighton,0.0048471295247299725,CAR PROWL,100.0
West Queen Anne,0.02850303293795137,CAR PROWL,100.0
Georgetown,0.008115354208341035,CAR PROWL,100.0
Genesee,0.010669354899190627,CAR PROWL,99.99999999999999
Belltown,0.3166753218749236,CAR PROWL,100.0
Holly Park ,0.005673573339857252,CAR PROWL,100.0
Madison Park,0.012895304692401303,CAR PROWL,100.00000000000001
Rainier Beach,0.0028753528000608065,CAR PROWL,100.0
Fairmount Park,0.009471353930948525,CAR PROWL,100.0
Meadowbrook,0.0028881300939005237,CAR PROWL,100.00000000000001
West Woodland,0.007719731365135875,CAR PROWL,100.0
Northgate,0.002990500572568545,CAR PROWL,100.0
Seward Park,0.005807478998851664,CAR PROWL,100.0
University District,0.00893165387566698,CAR PROWL,100.0
First Hill,0.27821313312097584,CAR PROWL,100.0
Columbia City,0.009672758994937164,CAR PROWL,100.0
North Beacon Hill,0.03136024359107031,CAR PROWL,100.0
