hood,influence,largestInfluencer,largestInfluencerPercent
Fremont,0.08449988750272161,FRAUD,76.47048350641651
Junction,0.01775598683881734,FRAUD,84.08629032470874
Central,0.03927371650837543,FRAUD,84.05085099036847
Ravenna,0.6423629155145182,FRAUD,92.40383222072244
Garfield,0.049849029987796764,FRAUD,78.21327693904911
Seaview,0.01608699887199703,FRAUD,84.8550996745625
Green Lake,0.16713983960611656,FRAUD,64.70101460688609
Minor,0.03812511174135064,FRAUD,83.56844312324276
Roxhill,0.0194879256231268,FRAUD,90.2379880297568
Rainier View,0.05179157925241717,FRAUD,97.14849381656319
Denny - Blaine,0.04837390276024122,FRAUD,83.78891877179181
Broadview,0.08109665800875063,OTHER PROPERTY,81.30488083652197
Pioneer Square,0.03192553847314637,FRAUD,82.39166315793977
Beacon Hill,0.14734368129939718,FRAUD,98.21466000370548
Lower Queen Anne,0.036907998524544836,FRAUD,76.9015563487337
High Point,0.02189433686321644,FRAUD,88.6202242550217
Industrial District,0.038174183333462744,FRAUD,91.91546383217327
Blue Ridge,0.05296902796461582,OTHER PROPERTY,66.30760465369958
Maple Leaf,0.5390976228345093,OTHER PROPERTY,88.76325603247464
Greenwood,0.14189677710247528,OTHER PROPERTY,77.45384237267096
Broadmoor,0.08498253256605338,FRAUD,86.85778722113653
View Ridge,0.12297492354870558,FRAUD,70.03938064745768
East Queen Anne,0.05798786009103608,FRAUD,78.27472001084226
Whittier Heights,0.07314718375529118,OTHER PROPERTY,56.49449145093591
Riverview,0.029089986049635964,FRAUD,91.83802657192705
Denny Triangle,0.05552246264371752,FRAUD,82.0295258175913
Wedgwood,0.17169240169048466,FRAUD,56.60194418830706
Eastlake,0.10195094492305358,FRAUD,85.7986352575369
North Delridge,0.02306923887354692,FRAUD,87.33708436374927
Capitol Hill,0.053672983421217506,FRAUD,82.63281812189311
Atlantic,0.03609959621698749,FRAUD,85.69043517150845
South Park,0.053511835801280355,FRAUD,96.16272834439654
Matthews Beach,0.10628071007344729,FRAUD,50.19223249121764
Mt. Baker,0.046329705072718004,FRAUD,91.3735598355251
Magnolia,0.026158257013308542,FRAUD,66.16583637606686
Sunset Hill,0.0361577664649092,OTHER PROPERTY,53.188130371196394
Montlake,0.13228126664273623,FRAUD,89.48895447599462
Victory Heights,0.4136523077851067,OTHER PROPERTY,91.99745352869901
Phinney Ridge,0.09260796001693826,FRAUD,56.53237455461419
Windermere,0.1164557508848703,FRAUD,81.64416730622501
Haller Lake,0.40307688613464043,OTHER PROPERTY,94.72810186604164
Highland Park,0.02929471394478105,FRAUD,93.50949091471092
Admiral,0.017128761381438023,FRAUD,80.0603447008288
Little Saigon,0.03384463565933915,FRAUD,81.80971757985667
Olympic Manor,0.03384463565933915,FRAUD,81.80971757985667
South Beacon Hill,0.33514568853277266,FRAUD,99.39373385758174
Fauntleroy,0.015872015929337818,FRAUD,88.56157736954701
Westlake,0.05405874829279284,FRAUD,79.94850611701311
Leschi,0.037544808405239556,FRAUD,85.85864511538321
South Lake Union,0.04871519184451551,FRAUD,80.85584035645878
Cedar Park,0.13850576367820003,OTHER PROPERTY,84.09213171042964
Interbay,0.03405898712567323,FRAUD,68.92437347667945
Madrona,0.04171796742698343,FRAUD,83.75892638097166
Downtown,0.03384463565933915,FRAUD,81.80971757985667
North Queen Anne,0.04791869699292572,FRAUD,72.27167711390548
Portage Bay,0.1680141363619266,FRAUD,89.91645719563171
Laurelhurst,0.25534278231607327,FRAUD,92.09375244210327
Dunlap,0.4022444441844284,FRAUD,99.53454173048515
Judkins Park,0.037988446648464055,FRAUD,87.46517298496425
International District,0.03351387460726323,FRAUD,84.01303364960586
Arbor Heights,0.014291440464264563,FRAUD,88.98314286205635
South Delridge,0.022682955729478635,FRAUD,91.51117721348614
Ballard,0.04798689455221382,OTHER PROPERTY,52.41553576384804
Pinehurst,1.9707796807038205,OTHER PROPERTY,98.53445684318845
Loyal Heights,0.050089805887810285,OTHER PROPERTY,54.87858921342385
Olympic Hills,0.17865103231392365,OTHER PROPERTY,88.28514822817985
Cascade,0.04531489906709353,FRAUD,81.03366620946038
Wallingford,0.24067952978340085,FRAUD,88.07388352128167
Uptown,0.036907998524544836,FRAUD,76.9015563487337
Crown Hill,0.07952499691557471,OTHER PROPERTY,69.80549633703896
Yesler Terrace ,0.03508020118693116,FRAUD,83.53882056309357
Waterfront,0.03178779440359664,FRAUD,81.06482256499905
Alki,0.014544261964507775,FRAUD,78.90333010502474
Hawthorne Hills,0.202970467672237,FRAUD,86.306981535139
Lakewood,0.13946701224792718,FRAUD,97.93094069761786
Gatewood,0.01711249722374149,FRAUD,87.42452707015737
Jackson Place ,0.0359096150232072,FRAUD,85.16928695295253
Madison Valley,0.050590822461124285,FRAUD,83.90274385702543
Hillman City,1.0143439967928087,FRAUD,99.75663881788893
Bryant,0.43552909116216054,FRAUD,92.85887716310802
North Beach,0.05296902796461582,OTHER PROPERTY,66.30760465369958
Roosevelt,0.3780803885686369,FRAUD,82.31357449703209
North College Park,0.36037966375501074,OTHER PROPERTY,87.28948567389816
Bitter Lake,0.11441804482578811,OTHER PROPERTY,86.45743632346993
Brighton,3.238964603395669,FRAUD,99.93531150039556
West Queen Anne,0.036300506698167145,FRAUD,73.42651187475717
Georgetown,0.06594356801236004,FRAUD,96.4151535671172
Genesee,0.01661899269235458,FRAUD,83.23423836915863
Belltown,0.034865529235991205,FRAUD,79.38516375733205
Holly Park ,0.7471682054460677,FRAUD,99.70613307736299
Madison Park,0.06932243983680626,FRAUD,85.39827783322575
Rainier Beach,0.08805343306107659,FRAUD,98.17319717770354
Fairmount Park,0.018809889351365752,FRAUD,86.48649991307401
Meadowbrook,0.19937974678797696,OTHER PROPERTY,79.93542121300074
West Woodland,0.06346908660591445,FRAUD,60.585095915821476
Northgate,75.03751449516058,OTHER PROPERTY,99.95396477485531
Seward Park,0.4863239946160227,FRAUD,99.50160971202479
University District,1.382541396498004,FRAUD,97.82556225968304
First Hill,0.03669915083375895,FRAUD,82.09636424090918
Columbia City,0.16482378176932164,FRAUD,98.27693527364394
North Beacon Hill,0.042732688333263026,FRAUD,90.97026453260389
