hood,influence,largestInfluencer,largestInfluencerPercent
Fremont,0.0024868523142258943,FRAUD,100.0
Junction,0.00626511395742541,FRAUD,100.0
Central,0.00903722738024805,FRAUD,100.0
Ravenna,0.0020125349729330096,FRAUD,100.0
Garfield,0.003598043224637095,FRAUD,100.0
Seaview,0.005768797969160061,FRAUD,100.0
Green Lake,0.001847029661187677,FRAUD,100.0
Minor,0.00880976538990447,FRAUD,100.0
Roxhill,0.008000757154466957,FRAUD,100.0
Rainier View,0.013937401345747972,FRAUD,100.0
Denny - Blaine,0.006271230226568064,FRAUD,100.0
Broadview,0.0009933669662525882,FRAUD,100.0
Pioneer Square,0.008245120941368105,FRAUD,100.0
Beacon Hill,0.19048266007813858,FRAUD,100.0
Lower Queen Anne,0.004021487509061606,FRAUD,100.0
High Point,0.009389139314147808,FRAUD,100.0
Industrial District,0.022381393958472197,FRAUD,100.0
Blue Ridge,0.0011970796266105763,FRAUD,100.0
Maple Leaf,0.00143850586349082,FRAUD,100.0
Greenwood,0.0013396531504938068,FRAUD,100.0
Broadmoor,0.004309576531206788,FRAUD,100.0
View Ridge,0.001780190760944044,FRAUD,100.0
East Queen Anne,0.0032455014544500857,FRAUD,99.99999999999999
Whittier Heights,0.0015221682182467433,FRAUD,100.0
Riverview,0.014217907698475283,FRAUD,100.0
Denny Triangle,0.004521478720830017,FRAUD,100.0
Wedgwood,0.001638565763110063,FRAUD,100.0
Eastlake,0.003452775565226528,FRAUD,100.0
North Delridge,0.009727838235944173,FRAUD,100.0
Capitol Hill,0.00501952391942655,FRAUD,100.00000000000001
Atlantic,0.01253863136174568,FRAUD,100.0
South Park,0.026643272065361937,FRAUD,100.0
Matthews Beach,0.0015127391434615574,FRAUD,100.0
Mt. Baker,0.027611380588341398,FRAUD,100.0
Magnolia,0.002251285451048692,FRAUD,100.0
Sunset Hill,0.0013623582387296274,FRAUD,100.0
Montlake,0.0037202270705516153,FRAUD,100.0
Victory Heights,0.0012255323188685254,FRAUD,100.0
Phinney Ridge,0.0017809561713469323,FRAUD,100.0
Windermere,0.002198668076810404,FRAUD,100.0
Haller Lake,0.0010703443288363108,FRAUD,100.0
Highland Park,0.013003543359259847,FRAUD,99.99999999999999
Admiral,0.004884164323092744,FRAUD,100.0
Little Saigon,0.007474636394211836,FRAUD,100.0
Olympic Manor,0.007474636394211836,FRAUD,100.0
South Beacon Hill,0.09485333781820725,FRAUD,100.0
Fauntleroy,0.006100759598228521,FRAUD,100.0
Westlake,0.003844312787481965,FRAUD,100.0
Leschi,0.0123844032480822,FRAUD,100.0
South Lake Union,0.004622910257915875,FRAUD,100.0
Cedar Park,0.0010850973129147734,FRAUD,100.0
Interbay,0.0025230570853892785,FRAUD,100.0
Madrona,0.007810341801431306,FRAUD,100.0
Downtown,0.007474636394211836,FRAUD,100.0
North Queen Anne,0.0026609499937466936,FRAUD,100.0
Portage Bay,0.0032147416504210266,FRAUD,100.00000000000001
Laurelhurst,0.0026507350768242965,FRAUD,100.0
Dunlap,0.053660713480732175,FRAUD,100.0
Judkins Park,0.01583509158641497,FRAUD,100.0
International District,0.010112873351487911,FRAUD,100.00000000000001
Arbor Heights,0.005311357725840381,FRAUD,100.0
South Delridge,0.009703533175185663,FRAUD,100.0
Ballard,0.0014922207686227326,FRAUD,100.0
Pinehurst,0.0011748316063205256,FRAUD,100.0
Loyal Heights,0.0014449730792934657,FRAUD,100.0
Olympic Hills,0.0010570488145616916,FRAUD,100.0
Cascade,0.00510204570137831,FRAUD,100.00000000000001
Wallingford,0.0023998198460133814,FRAUD,100.0
Uptown,0.004021487509061606,FRAUD,100.0
Crown Hill,0.0012902715825602164,FRAUD,100.00000000000001
Yesler Terrace ,0.00934597142552322,FRAUD,100.0
Waterfront,0.006971944894411624,FRAUD,100.0
Alki,0.003950988274578548,FRAUD,100.0
Hawthorne Hills,0.0021515976778788675,FRAUD,100.0
Lakewood,0.14117916033128483,FRAUD,100.0
Gatewood,0.006653356900195872,FRAUD,100.0
Jackson Place ,0.011673290999245469,FRAUD,100.0
Madison Valley,0.006112439156839381,FRAUD,100.0
Hillman City,23.75345939643836,FRAUD,99.99999999999999
Bryant,0.002211865482873174,FRAUD,100.0
North Beach,0.0011970796266105763,FRAUD,100.0
Roosevelt,0.0019039364756396385,FRAUD,100.0
North College Park,0.001396675267630157,FRAUD,100.0
Bitter Lake,0.0009682426982843621,FRAUD,100.0
Brighton,0.1555116410331554,FRAUD,100.0
West Queen Anne,0.003144133215357779,FRAUD,100.0
Georgetown,0.04185417924631491,FRAUD,100.00000000000001
Genesee,0.005611894765296764,FRAUD,100.0
Belltown,0.005381087660664505,FRAUD,100.0
Holly Park ,0.261133467328311,FRAUD,100.0
Madison Park,0.004486818764385691,FRAUD,100.0
Rainier Beach,0.02083383799669634,FRAUD,100.0
Fairmount Park,0.007332317442314076,FRAUD,100.0
Meadowbrook,0.001310568146432144,FRAUD,100.0
West Woodland,0.0018888466719039294,FRAUD,100.0
Northgate,0.0012437667501189148,FRAUD,100.0
Seward Park,0.23804047291177827,FRAUD,100.0
University District,0.002442953389816051,FRAUD,100.0
First Hill,0.00735636462897976,FRAUD,100.0
Columbia City,0.2890890535044467,FRAUD,100.0
North Beacon Hill,0.02544600832477975,FRAUD,100.0
