hood,influence,largestInfluencer,largestInfluencerPercent
Fremont,0.12710722742646724,FRAUD,99.0573497076402
Junction,0.017686759307990903,FRAUD,83.25948455531855
Central,0.0761591207829426,FRAUD,96.50987811207989
Ravenna,0.0351380528548934,FRAUD,97.0588871591015
Garfield,0.4393433317122196,FRAUD,99.64783640729661
Seaview,0.014320212995447003,FRAUD,78.32052036083671
Green Lake,0.06276665457886543,FRAUD,98.46053053900242
Minor,0.10787524278729627,FRAUD,97.5754590496421
Roxhill,0.013041257511175441,FRAUD,58.25942005099434
Rainier View,3.023710970335071,VEHICLE THEFT,99.84716506604505
Denny - Blaine,0.07225135860598482,FRAUD,96.97750241722531
Broadview,0.0191737777273056,FRAUD,96.83899590937405
Pioneer Square,0.10422404714184588,FRAUD,97.51440843342242
Beacon Hill,0.02229489850834854,FRAUD,56.72658975710025
Lower Queen Anne,0.2561157367786551,FRAUD,99.34262584147564
High Point,0.01638194972109806,FRAUD,74.11315383070786
Industrial District,0.023834974865971255,FRAUD,78.59398587761802
Blue Ridge,0.047260623314652715,FRAUD,98.51130900845078
Maple Leaf,0.026299930081785185,FRAUD,96.93757470362964
Greenwood,0.04360688416744477,FRAUD,98.25121041909232
Broadmoor,0.07996119864527519,FRAUD,97.8317929732755
View Ridge,0.020354675433600856,FRAUD,95.29077144586536
East Queen Anne,0.28322206595154464,FRAUD,99.49095246016985
Whittier Heights,0.13936331813863873,FRAUD,99.39575281662023
Riverview,0.017000497289073047,FRAUD,66.03562663647783
Denny Triangle,11.733911722331607,FRAUD,99.98487323510268
Wedgwood,0.02235455357738701,FRAUD,95.99987016533052
Eastlake,0.310923730697718,FRAUD,99.5210836508316
North Delridge,0.02024005256025783,FRAUD,81.46688845764947
Capitol Hill,1.2375679241651039,FRAUD,99.84726957711278
Atlantic,0.06274204563940072,FRAUD,94.97660953695062
South Park,0.02033147154996988,VEHICLE THEFT,57.99209585630827
Matthews Beach,0.01708281000882969,FRAUD,95.03334823412257
Mt. Baker,0.03152817460508571,FRAUD,85.74030499529157
Magnolia,0.06292417378074337,FRAUD,98.15290477823187
Sunset Hill,0.10914190515666335,FRAUD,99.28252559509035
Montlake,0.1302205428979424,FRAUD,98.79739345332506
Victory Heights,0.016851945439128792,FRAUD,95.75142525972974
Phinney Ridge,0.13178241614119748,FRAUD,99.28404378866004
Windermere,0.023168640726101905,FRAUD,95.14952944613393
Haller Lake,0.017073469013821924,FRAUD,96.23749653329517
Highland Park,0.01620479476214609,VEHICLE THEFT,53.12500767618747
Admiral,0.02218336334292808,FRAUD,89.65578205070913
Little Saigon,0.15185041557449222,FRAUD,98.39943941897546
Olympic Manor,0.15185041557449222,FRAUD,98.39943941897546
South Beacon Hill,0.03326882271249294,VEHICLE THEFT,76.29800663825722
Fauntleroy,0.011505203023304846,FRAUD,60.77514315557086
Westlake,1.0896826960637689,FRAUD,99.85236027936061
Leschi,0.051607957111642615,FRAUD,93.92165060388382
South Lake Union,12.128554794962186,FRAUD,99.98511013026385
Cedar Park,0.01268932558796944,FRAUD,94.84687548521273
Interbay,0.09250890938488762,FRAUD,98.65869442693403
Madrona,0.06864970766659392,FRAUD,96.40251598683568
Downtown,0.15185041557449222,FRAUD,98.39943941897546
North Queen Anne,0.13005870448060997,FRAUD,99.0239882534672
Portage Bay,0.1557142208864982,FRAUD,99.08821423136749
Laurelhurst,0.03679304812844882,FRAUD,96.55796917183983
Dunlap,0.05420762305845481,VEHICLE THEFT,87.6800261156682
Judkins Park,0.04668233236872891,FRAUD,92.45473360278345
International District,0.08312707502701239,FRAUD,96.55704558168132
Arbor Heights,0.010559749009377416,FRAUD,52.942346324674865
South Delridge,0.014133185960306917,FRAUD,54.98083308447562
Ballard,0.28132662495467503,FRAUD,99.70335892976915
Pinehurst,0.018106352574007615,FRAUD,96.18269402706329
Loyal Heights,0.18470148478188583,FRAUD,99.55940929967846
Olympic Hills,0.013041657957628886,FRAUD,95.0984516644176
Cascade,2.121981815071931,FRAUD,99.90955754197458
Wallingford,0.08378847233085335,FRAUD,98.61126132451807
Uptown,0.2561157367786551,FRAUD,99.34262584147564
Crown Hill,0.05372613391104108,FRAUD,98.61728792129709
Yesler Terrace ,0.10276040412308146,FRAUD,97.35193127179889
Waterfront,0.1354871427982833,FRAUD,98.2563529427249
Alki,0.017430417480237194,FRAUD,88.08964297529992
Hawthorne Hills,0.02684701374319058,FRAUD,95.91446025599936
Lakewood,0.021334503823980278,FRAUD,61.33679091790666
Gatewood,0.013122110756378685,FRAUD,70.34797450518901
Jackson Place ,0.06941088186710125,FRAUD,95.61903521256163
Madison Valley,0.09388465262501933,FRAUD,97.72107291704722
Hillman City,0.02344130161753135,VEHICLE THEFT,54.94988610558636
Bryant,0.032372410271544506,FRAUD,96.56515203821691
North Beach,0.047260623314652715,FRAUD,98.51130900845078
Roosevelt,0.041004131646240775,FRAUD,97.58740969444754
North College Park,0.03341537343936003,FRAUD,97.646612250521
Bitter Lake,0.01583155333290518,FRAUD,96.24975898196415
Brighton,0.03260955641477184,VEHICLE THEFT,75.48077827729811
West Queen Anne,0.12641548393589444,FRAUD,98.86259501007007
Georgetown,0.02037295904918225,FRAUD,53.53918602460075
Genesee,0.01688083152406205,FRAUD,83.54959252352891
Belltown,0.2895918917081149,FRAUD,99.30410978304396
Holly Park ,0.027854935053812063,VEHICLE THEFT,68.12348965723642
Madison Park,0.05644625337115683,FRAUD,96.8206433606341
Rainier Beach,0.25184759632726317,VEHICLE THEFT,97.91471481761275
Fairmount Park,0.015926545348519387,FRAUD,77.72518661787264
Meadowbrook,0.01686249167420241,FRAUD,95.5182227234003
West Woodland,0.444385860637188,FRAUD,99.777375406121
Northgate,0.020910442608763898,FRAUD,96.54948689996381
Seward Park,0.02288605911170114,VEHICLE THEFT,57.83712249253393
University District,0.0628617591999956,FRAUD,98.12349771334372
First Hill,0.19212281601439396,FRAUD,98.75843832408468
Columbia City,0.02236142410089157,FRAUD,61.39341615118907
North Beacon Hill,0.033378838682543495,FRAUD,86.65663312346969
