hood,influence,largestInfluencer,largestInfluencerPercent
Fremont,0.4590432186826203,FRAUD,58.67656488963714
Junction,0.06909889516346827,FRAUD,50.75434445768807
Central,0.6759754414597327,PROPERTY DAMAGE,37.10123668421638
Ravenna,0.5449967704061924,THREATS,71.34083614406107
Garfield,0.4855586684261013,FRAUD,34.049022150418224
Seaview,0.0540780749479184,FRAUD,51.02951871609882
Green Lake,0.3416429335197708,FRAUD,47.35488464678846
Minor,0.9839536443261624,PROPERTY DAMAGE,42.97010416600073
Roxhill,0.042180577442902774,FRAUD,53.0371819663071
Rainier View,0.03643688675889763,FRAUD,60.21309700443514
Denny - Blaine,0.7850262271677413,STOLEN PROPERTY,46.67518449679366
Broadview,0.760464244343601,FRAUD,95.86311352762715
Pioneer Square,0.6016958984961305,FRAUD,55.49896675352969
Beacon Hill,0.17353526325263924,FRAUD,76.6526109800274
Lower Queen Anne,0.4441820834448026,FRAUD,45.39174495105222
High Point,0.06408696881505421,FRAUD,52.21058890900528
Industrial District,0.12112439829483547,FRAUD,56.226347182883245
Blue Ridge,0.2130620469103444,FRAUD,81.23542409771962
Maple Leaf,0.2754098437971236,FRAUD,66.73606848613696
Greenwood,0.3909013413590836,FRAUD,84.2602256094143
Broadmoor,1.8628243088538592,STOLEN PROPERTY,79.88384872119353
View Ridge,0.17671843463007325,THREATS,38.17208455316626
East Queen Anne,0.4274134384092289,FRAUD,35.82231768565432
Whittier Heights,0.26631141345741377,FRAUD,74.05837473281156
Riverview,0.06592263468360349,FRAUD,54.452406207991906
Denny Triangle,2.6814598844130924,EMBEZZLE,74.76793874921879
Wedgwood,0.2083529505301937,FRAUD,39.96621363275714
Eastlake,0.6424306231737102,EMBEZZLE,38.52685827567673
North Delridge,0.08444796859037966,FRAUD,51.66464872062207
Capitol Hill,82.87803793318429,EMBEZZLE,98.37793006054132
Atlantic,6.65125635497848,FRAUD,96.21352415052841
South Park,0.062136598170470084,FRAUD,60.3150642717573
Matthews Beach,0.14972842493679683,FRAUD,45.5782594812383
Mt. Baker,0.3023004152795755,FRAUD,64.9826325868091
Magnolia,3.4442534316341846,FRAUD,98.14406231120518
Sunset Hill,0.1506604946417348,FRAUD,71.67736817011283
Montlake,0.7063975319558011,STOLEN PROPERTY,27.710833636538805
Victory Heights,0.6726098154598362,FRAUD,91.76612210351277
Phinney Ridge,0.46101902597944483,FRAUD,76.38380826316913
Windermere,0.20242036632822463,THREATS,36.77212174411491
Haller Lake,0.412458228596142,FRAUD,90.34821755583734
Highland Park,0.0471513519300487,FRAUD,55.711720203534824
Admiral,0.08446398471589008,FRAUD,50.64808867412513
Little Saigon,0.9893652029557466,FRAUD,59.487843852122104
Olympic Manor,0.9893652029557466,FRAUD,59.487843852122104
South Beacon Hill,0.09485567701632029,FRAUD,73.78211023227922
Fauntleroy,0.03731034293014437,FRAUD,52.21247425228161
Westlake,0.6703008956022013,EMBEZZLE,42.696925011644446
Leschi,0.5719111344809412,FRAUD,57.2210262039004
South Lake Union,1.5020810020114532,EMBEZZLE,55.36903680698739
Cedar Park,0.27151403465892,FRAUD,85.34066904033595
Interbay,0.4994259005282406,FRAUD,81.02562625801146
Madrona,0.5952778909759682,PROPERTY DAMAGE,33.26302433637257
Downtown,0.9893652029557466,FRAUD,59.487843852122104
North Queen Anne,0.3485124822574168,FRAUD,59.389881653415706
Portage Bay,0.5983574975787092,THREATS,31.81933560681751
Laurelhurst,0.3978701082456294,THREATS,46.148447729040754
Dunlap,0.07555730535814344,FRAUD,71.57650252234114
Judkins Park,1.5401636115776922,FRAUD,88.17247342350103
International District,0.6403525239987594,FRAUD,57.84529883425076
Arbor Heights,0.0304800771598552,FRAUD,52.367442374118
South Delridge,0.04480138904489162,FRAUD,53.889203831259486
Ballard,0.2110026097197594,FRAUD,73.68900793631059
Pinehurst,1.3074005481305373,FRAUD,96.14392726642338
Loyal Heights,0.20401100420699841,FRAUD,73.6870171858226
Olympic Hills,0.4606887755339034,FRAUD,91.69906724014649
Cascade,1.979792567994609,EMBEZZLE,50.12765007939278
Wallingford,0.5519839571098656,THREATS,53.77663005720625
Uptown,0.4441820834448026,FRAUD,45.39174495105222
Crown Hill,0.30534153967190425,FRAUD,83.43551126625746
Yesler Terrace ,0.8097675931582781,FRAUD,50.52057628416898
Waterfront,0.8364858796373952,FRAUD,66.00187996013518
Alki,0.06536885360225207,FRAUD,51.14835012815677
Hawthorne Hills,0.2674870971917006,THREATS,48.07401851238064
Lakewood,0.5303711999487892,FRAUD,90.98844351221476
Gatewood,0.04743259365314481,FRAUD,51.749754290038275
Jackson Place ,2.2658024090639395,FRAUD,87.36702154378537
Madison Valley,0.9015778195316779,STOLEN PROPERTY,34.0310306719361
Hillman City,0.7791650688114319,FRAUD,95.43397652169594
Bryant,0.4180421360568829,THREATS,62.4254853331755
North Beach,0.2130620469103444,FRAUD,81.23542409771962
Roosevelt,0.45969687232906126,THREATS,62.91247081840267
North College Park,0.3110389541746542,FRAUD,74.98356146946163
Bitter Lake,0.3961989475190942,FRAUD,92.14834634607429
Brighton,0.1364591466865838,FRAUD,80.81741072799163
West Queen Anne,0.3149573660783844,FRAUD,54.27056343647098
Georgetown,0.0855468702441743,FRAUD,62.50761179138717
Genesee,0.06510000574209668,FRAUD,50.707192143799105
Belltown,1.717673874501069,FRAUD,78.63240006906344
Holly Park ,0.1522385715703286,FRAUD,81.20377425682261
Madison Park,121.52831460614836,STOLEN PROPERTY,99.77455087923397
Rainier Beach,0.04541499909740995,FRAUD,63.37286229317775
Fairmount Park,0.06171808967121796,FRAUD,51.3546807474591
Meadowbrook,0.23762336203311774,FRAUD,73.08046483596841
West Woodland,1.6551353754828266,FRAUD,94.1989277026017
Northgate,0.4969916246613548,FRAUD,88.1995418471134
Seward Park,0.574353068759328,FRAUD,94.12519105307884
University District,4.447704511399454,THREATS,95.02909588104261
First Hill,1.2110306258743584,FRAUD,40.749295251780026
Columbia City,0.43866792508686575,FRAUD,89.21324752115916
North Beacon Hill,0.28565610329957136,FRAUD,65.82959523883949
