hood,influence,largestInfluencer,largestInfluencerPercent
Fremont,1.0527425600051283,FRAUD,65.77520633161907
Junction,0.6639816016593031,THREATS,42.82432710485196
Central,100.62950364006896,OTHER PROPERTY,99.35983721259385
Ravenna,1.1958068878709824,CAR PROWL,67.08648666409385
Garfield,0.8583579931009534,FRAUD,53.49731439502914
Seaview,40.25351638960563,THREATS,99.30854183993057
Green Lake,0.5512346915337167,FRAUD,56.960317867875226
Minor,2.314406836458782,OTHER PROPERTY,48.652838546028846
Roxhill,0.3392420809017978,FRAUD,70.01863484512197
Rainier View,0.4177033500103635,FRAUD,89.59383406313272
Denny - Blaine,0.7149313593744052,OTHER PROPERTY,42.99696958365333
Broadview,0.3901623008036244,FRAUD,49.06170643152762
Pioneer Square,91.98003330924938,EMBEZZLE,98.2628322818481
Beacon Hill,0.6821545746579827,FRAUD,59.793071215193486
Lower Queen Anne,0.774850447902095,FRAUD,45.90426343360879
High Point,0.6425325656502129,FRAUD,62.87283613133519
Industrial District,0.9772782700019443,THREATS,48.32011371974022
Blue Ridge,0.29243606318846116,FRAUD,39.76893294479807
Maple Leaf,1.5336254777827667,FRAUD,80.36751323704209
Greenwood,0.6514798168093665,THREATS,39.32915999384382
Broadmoor,0.47680379416657526,FRAUD,48.94895136224301
View Ridge,0.33541126856793696,FRAUD,47.785110458968575
East Queen Anne,0.9341541048639449,FRAUD,56.45962702254996
Whittier Heights,0.5123170609994075,EMBEZZLE,44.836037054767765
Riverview,1.2271088475561076,FRAUD,86.09221111100076
Denny Triangle,1.9525035312705399,FRAUD,79.38577178067236
Wedgwood,0.4568696992976672,FRAUD,52.96321114800424
Eastlake,1.011932621998142,FRAUD,72.41945291635004
North Delridge,0.5191851365452864,FRAUD,49.63604381118291
Capitol Hill,1.5512770788957695,FRAUD,70.52410362299666
Atlantic,1.7234562874248118,FRAUD,39.74608102237951
South Park,6.0318025814703224,FRAUD,98.1518869919456
Matthews Beach,0.3626681341969795,FRAUD,57.77666569294531
Mt. Baker,1.8087367795638836,FRAUD,71.39426511790533
Magnolia,1.3146176497100768,THREATS,63.57688886286979
Sunset Hill,0.3412080645614391,EMBEZZLE,48.466698223269624
Montlake,0.6050962173344212,FRAUD,58.96738195110577
Victory Heights,1.5835165336122783,FRAUD,47.29910069042655
Phinney Ridge,0.5379154429024328,FRAUD,41.43898577098343
Windermere,0.2957123155646984,FRAUD,43.49409304299085
Haller Lake,1.4289054733752773,FRAUD,62.42155571148995
Highland Park,0.4127744205679277,FRAUD,77.51252415112295
Admiral,1.0409860461658318,FRAUD,81.81185242261576
Little Saigon,16.69113005896723,EMBEZZLE,84.45341038912231
Olympic Manor,16.69113005896723,EMBEZZLE,84.45341038912231
South Beacon Hill,1.1861467264394707,FRAUD,91.5357529169385
Fauntleroy,0.24016509435184277,FRAUD,61.00582726945558
Westlake,0.9852366491121823,FRAUD,62.40702204492853
Leschi,1.5181113705365132,OTHER PROPERTY,58.49124193603044
South Lake Union,1.301709204111871,FRAUD,65.6094453824498
Cedar Park,11.267870681373717,FRAUD,95.76799497421553
Interbay,3.4448405831488347,EMBEZZLE,73.97203483323804
Madrona,1.499509248064858,OTHER PROPERTY,68.54976488282759
Downtown,16.69113005896723,EMBEZZLE,84.45341038912231
North Queen Anne,2.614702216887866,EMBEZZLE,51.60692104003896
Portage Bay,0.7582972898565195,FRAUD,66.86215674082156
Laurelhurst,0.44576525639692033,FRAUD,39.05111179056607
Dunlap,0.4543011784778975,FRAUD,83.47915596214182
Judkins Park,1.4277336370642713,FRAUD,48.80589882235361
International District,5.788429821701306,FRAUD,57.43146517686745
Arbor Heights,0.15746744109353136,FRAUD,61.418395493678
South Delridge,0.3967629382653114,FRAUD,74.73528802515152
Ballard,0.7399997354370055,EMBEZZLE,70.08905915885457
Pinehurst,2.1166944276431936,LOST PROPERTY,65.73157181311531
Loyal Heights,0.5409270106882673,EMBEZZLE,59.29634510442962
Olympic Hills,338.6652338178328,FRAUD,99.67064344594999
Cascade,1.5588384366809673,FRAUD,64.67442661896744
Wallingford,1.157503562197061,FRAUD,78.43086884963337
Uptown,0.774850447902095,FRAUD,45.90426343360879
Crown Hill,0.40334558935212994,FRAUD,39.711699509958905
Yesler Terrace ,3.0351761500318646,EMBEZZLE,44.016696932097865
Waterfront,4.611126053350344,EMBEZZLE,70.76485426634308
Alki,6.633561175988316,FRAUD,97.70516168441625
Hawthorne Hills,0.45850126777786043,CAR PROWL,43.81680964444777
Lakewood,0.6168730019127481,FRAUD,49.85005826990055
Gatewood,0.45908137622115536,FRAUD,49.373533572716774
Jackson Place ,1.8419574659156173,FRAUD,38.71369659957067
Madison Valley,0.8291915276745396,OTHER PROPERTY,42.1422087594987
Hillman City,4.869061415242248,FRAUD,96.14766907895331
Bryant,1.1744747379236014,CAR PROWL,73.99221620528125
North Beach,0.29243606318846116,FRAUD,39.76893294479807
Roosevelt,0.6561353182976647,FRAUD,54.95211373615291
North College Park,0.9673601456298468,FRAUD,59.23232166683789
Bitter Lake,0.5338328782554401,FRAUD,57.48659917953684
Brighton,0.7206664783870665,FRAUD,85.83176787891554
West Queen Anne,0.9738638841331729,EMBEZZLE,52.339704685427705
Georgetown,0.576885796284023,FRAUD,69.76349117520782
Genesee,0.7266205987153808,THREATS,45.24404399533549
Belltown,1.5027428193460342,FRAUD,49.49329863943599
Holly Park ,2.8502564307574674,FRAUD,95.59224048998685
Madison Park,0.402827103724652,FRAUD,45.5599318666466
Rainier Beach,1.1651830116305462,FRAUD,95.53620428541511
Fairmount Park,0.7597431761869962,THREATS,55.74072162508193
Meadowbrook,0.8309970096245269,FRAUD,64.32839575136377
West Woodland,0.8331284866133071,EMBEZZLE,58.84692793522309
Northgate,1.1701186714136638,FRAUD,46.648673018916675
Seward Park,0.7746440754723555,FRAUD,81.87882229460544
University District,2.0115449974092003,FRAUD,84.06319155136484
First Hill,4.69332504405867,FRAUD,52.30336302135141
Columbia City,0.9403624696329946,FRAUD,42.840071675592064
North Beacon Hill,1.4727664945697094,FRAUD,46.70882272992574
