hood,influence,largestInfluencer,largestInfluencerPercent
Fremont,0.8329619674725769,ASSAULT,54.92528993742695
Junction,0.5058834799706545,FRAUD,46.09828197903959
Central,0.6225582665809227,FRAUD,60.66214172037493
Ravenna,0.9593458345406117,OTHER PROPERTY,34.29760646599975
Garfield,4.632326842336926,VEHICLE THEFT,88.0307271460877
Seaview,1.1985459346430662,EMBEZZLE,71.95621985802468
Green Lake,1.2802618955456437,ASSAULT,34.35573165091923
Minor,1.1700337024323302,FRAUD,65.08949686001007
Roxhill,3.2790542131628198,FRAUD,61.99704728682455
Rainier View,0.25617608265013275,FRAUD,37.87489593317388
Denny - Blaine,0.373384034787478,FRAUD,50.04885129871439
Broadview,0.4788907487177483,FRAUD,63.517882121982595
Pioneer Square,2.634713021964862,FRAUD,68.66033412139839
Beacon Hill,1.3570279136877994,FRAUD,50.51533057244287
Lower Queen Anne,1.232815770006452,FRAUD,48.745807407300205
High Point,0.6968775787614507,FRAUD,46.589462113874085
Industrial District,0.6188628465289526,FRAUD,61.156934657323745
Blue Ridge,0.5647054184484004,FRAUD,77.14885657204174
Maple Leaf,2.947408736931194,FRAUD,85.48461131953817
Greenwood,0.6205014829703439,FRAUD,42.57242039838616
Broadmoor,0.34628731188011785,FRAUD,42.35257283351543
View Ridge,0.5393691460596792,FRAUD,66.38215076384598
East Queen Anne,1.1148672271155926,VEHICLE THEFT,58.30782888512792
Whittier Heights,0.6905028499987504,FRAUD,64.59317551507512
Riverview,0.6181284530551445,FRAUD,64.17066131816121
Denny Triangle,1.00161885856139,OTHER PROPERTY,33.856425731507684
Wedgwood,0.56521167879134,FRAUD,52.2259181512799
Eastlake,0.6102870669142496,FRAUD,27.86870122172803
North Delridge,0.9597675912006661,FRAUD,70.87531222445304
Capitol Hill,1.0364338852829857,OTHER PROPERTY,49.15165960247985
Atlantic,1.7029249558323813,FRAUD,81.2403450124539
South Park,1.1140723626263105,FRAUD,84.59462981614085
Matthews Beach,0.39030507350246246,FRAUD,54.24605119456584
Mt. Baker,0.7866453480314387,FRAUD,76.6572950134718
Magnolia,0.2272275852487173,FRAUD,42.96729701251615
Sunset Hill,0.29935367517671896,FRAUD,63.43088107793041
Montlake,0.4353436043194087,FRAUD,35.05797242534228
Victory Heights,1.0113953658035688,FRAUD,59.39636629119963
Phinney Ridge,0.5927638520038787,FRAUD,30.358620986896643
Windermere,1.9956314544745997,FRAUD,92.26924074327209
Haller Lake,0.9119712034426026,FRAUD,52.04263822721852
Highland Park,4.309989318356559,FRAUD,95.9466416759061
Admiral,0.3397010494318647,FRAUD,49.31987453947126
Little Saigon,2.300609658827538,FRAUD,65.12638546724004
Olympic Manor,2.300609658827538,FRAUD,65.12638546724004
South Beacon Hill,1.6433163640813682,BURGLARY,45.27242437801088
Fauntleroy,4.838145011500963,FRAUD,77.20735210178786
Westlake,7.30760027989015,VEHICLE THEFT,91.68788178709877
Leschi,0.6674133750750392,FRAUD,69.7673811086495
South Lake Union,1.2825338482232185,OTHER PROPERTY,32.91790879208322
Cedar Park,7.577558604397102,PROPERTY DAMAGE,95.7538605771441
Interbay,0.31588273215255036,FRAUD,38.85906366067104
Madrona,0.4415909379266453,FRAUD,55.226099689233415
Downtown,2.300609658827538,FRAUD,65.12638546724004
North Queen Anne,0.447660274199076,FRAUD,31.54165276998646
Portage Bay,0.5480248532049615,FRAUD,27.451385961725634
Laurelhurst,0.4268354483198707,FRAUD,44.881868962801605
Dunlap,4.495470008600805,OTHER PROPERTY,73.35989984157266
Judkins Park,1.5666523324139154,FRAUD,85.1831132571912
International District,12.289821379985051,FRAUD,94.4431957904237
Arbor Heights,1.0116026161456362,FRAUD,84.72385956258631
South Delridge,1.359085404234739,FRAUD,73.58987284925502
Ballard,0.4903313371401282,FRAUD,68.68308692747645
Pinehurst,0.8334652551553842,FRAUD,63.46724638214043
Loyal Heights,0.7190504310493592,FRAUD,78.55719364676106
Olympic Hills,0.9008483146205665,PROPERTY DAMAGE,57.47483101451568
Cascade,1.5294514807729946,OTHER PROPERTY,50.45988366230615
Wallingford,1.273883909851553,ASSAULT,56.96625224661536
Uptown,1.232815770006452,FRAUD,48.745807407300205
Crown Hill,0.7597396575787245,FRAUD,74.30064730786629
Yesler Terrace ,10.997779766286483,FRAUD,95.17794463318099
Waterfront,1.7534849702187114,FRAUD,47.73503349386886
Alki,0.24908797802143098,FRAUD,49.390047427531115
Hawthorne Hills,0.7191831802967731,FRAUD,68.95310186137114
Lakewood,0.47682723871299604,FRAUD,50.79970756279097
Gatewood,1.1786364563551617,EMBEZZLE,44.46420223805373
Jackson Place ,1.6671344566577055,FRAUD,79.38507290956976
Madison Valley,0.4274961534210971,FRAUD,48.25803888918631
Hillman City,1.6252250254948524,BURGLARY,49.46782136470172
Bryant,0.5891484636105799,FRAUD,41.09786748842858
North Beach,0.5647054184484004,FRAUD,77.14885657204174
Roosevelt,3.357376564693836,ASSAULT,41.450005975399996
North College Park,1.1645062330142024,LOST PROPERTY,47.079013625843416
Bitter Lake,1.814052191755695,FRAUD,67.75710184229447
Brighton,1.1662596037719661,FRAUD,41.752854443210076
West Queen Anne,0.5062426128299304,FRAUD,37.19405823925939
Georgetown,0.6799748227794631,FRAUD,70.31652407160671
Genesee,0.44379387179896174,FRAUD,44.20323645761054
Belltown,12.458734071970238,OTHER PROPERTY,76.9723360402973
Holly Park ,2.739034057788253,FRAUD,80.23555569097559
Madison Park,0.296973485236204,FRAUD,45.565034389690574
Rainier Beach,0.49934489208440636,OTHER PROPERTY,48.76129515211614
Fairmount Park,0.9871371703711216,EMBEZZLE,57.98498436979155
Meadowbrook,0.7632554802704871,FRAUD,57.00691354762967
West Woodland,0.4278110328244247,FRAUD,35.160834669240934
Northgate,1.118631445493024,FRAUD,72.6899819123136
Seward Park,0.5266383398641902,FRAUD,50.448161612112074
University District,1.7153691541347078,OTHER PROPERTY,64.16796833710269
First Hill,2.4308997957012592,FRAUD,56.750201942934176
Columbia City,1.0295808596247582,BURGLARY,53.762932289608614
North Beacon Hill,1.3538831038860089,FRAUD,81.13219332358284
