hood,influence,largestInfluencer,largestInfluencerPercent
Fremont,361.9772896689395,PROPERTY DAMAGE,22.47216762859709
Junction,156.15570688549676,OTHER PROPERTY,22.984123775930104
Central,230.9074684663113,CAR PROWL,12.425655316208946
Ravenna,1964.6229975108213,CAR PROWL,55.122283082945465
Garfield,312.026376158113,CAR PROWL,35.762194839696534
Seaview,109.67799287003271,CAR PROWL,44.84057921421672
Green Lake,145.36694962864166,CAR PROWL,23.1054692272817
Minor,445.5261349523699,OTHER PROPERTY,11.978180937423831
Roxhill,186.92611213451613,BURGLARY,20.826402216241473
Rainier View,89.4085086777456,BURGLARY,33.85255077769853
Denny - Blaine,438.4715394876729,BURGLARY,70.25831943023229
Broadview,110.76366597483131,OTHER PROPERTY,54.53737258242511
Pioneer Square,10359.331321031186,WARRANT ARREST,16.908439298519
Beacon Hill,168.4720255270262,BURGLARY,26.556334456342547
Lower Queen Anne,1671.8064758205253,PROPERTY DAMAGE,18.998439898878633
High Point,1796.4327065531131,LOST PROPERTY,95.16112578607061
Industrial District,3485.6837652788076,CAR PROWL,32.787498028433895
Blue Ridge,99.22048856958163,CAR PROWL,23.00348106490316
Maple Leaf,4023.530837537202,PROPERTY DAMAGE,96.942277968846
Greenwood,626.8040966334964,CAR PROWL,21.431991163045698
Broadmoor,97.19932429902471,CAR PROWL,22.126784720895383
View Ridge,85.4416442364124,CAR PROWL,17.214084665965977
East Queen Anne,249.081003355017,CAR PROWL,23.312420094213252
Whittier Heights,127.48848787634981,BURGLARY,17.42586394935624
Riverview,82.6775680063343,OTHER PROPERTY,15.685831740213878
Denny Triangle,509.14533721015636,CAR PROWL,46.617866453823915
Wedgwood,1458.2531912783259,STOLEN PROPERTY,91.7883032797579
Eastlake,450.2057175571307,CAR PROWL,31.450029869997735
North Delridge,180.74833042780728,CAR PROWL,24.936588361887708
Capitol Hill,487.0403417273042,CAR PROWL,19.041992774500105
Atlantic,1963.7074469104896,CAR PROWL,81.75189152021296
South Park,153.73832599181594,CAR PROWL,21.15314044347655
Matthews Beach,63.5778683727128,BURGLARY,22.56339247145928
Mt. Baker,156.55022097497553,CAR PROWL,18.85668879900304
Magnolia,1398.9549757598306,BURGLARY,83.22544628831453
Sunset Hill,513.8637184733245,BURGLARY,88.92581238111234
Montlake,140.29786256548056,CAR PROWL,19.875593822923957
Victory Heights,130.52586493799748,PROPERTY DAMAGE,16.39232683307933
Phinney Ridge,248.77055848801857,CAR PROWL,22.675256681184624
Windermere,76.90126093359235,BURGLARY,34.18487380029337
Haller Lake,111.4857350999562,CAR PROWL,17.872348437047442
Highland Park,5353.846918456977,VEHICLE THEFT,96.93826480489838
Admiral,90.44152593707125,CAR PROWL,16.30004976750761
Little Saigon,2071.0580720749854,CAR PROWL,19.509627906972707
Olympic Manor,2071.0580720749854,CAR PROWL,19.509627906972707
South Beacon Hill,214.68135048832218,ANIMAL COMPLAINT,32.443016962756396
Fauntleroy,155.11602128217137,BURGLARY,56.1927282217451
Westlake,531.4762661026093,CAR PROWL,36.387858850011575
Leschi,243.8728807315944,WARRANT ARREST,15.78760085447608
South Lake Union,765.9646514666503,CAR PROWL,41.27831422684428
Cedar Park,1011.5014463642102,BURGLARY,69.19083729550717
Interbay,129.15518849514666,CAR PROWL,19.407048956773217
Madrona,144.84930316110334,CAR PROWL,14.977132755626624
Downtown,2071.0580720749854,CAR PROWL,19.509627906972707
North Queen Anne,149.7050059472796,CAR PROWL,26.207606572170686
Portage Bay,255.72805385086494,CAR PROWL,23.853116996445785
Laurelhurst,82.83091780121222,CAR PROWL,14.659601279486838
Dunlap,272.26994221071254,WEAPON,23.736126798380383
Judkins Park,277.7212698175817,CAR PROWL,11.55231600058238
International District,3745.0723671149217,FRAUD,33.92466709779447
Arbor Heights,56.39661534391287,BURGLARY,29.48881781818197
South Delridge,166.87568137154997,CAR PROWL,27.419208437038275
Ballard,234.52675733977023,BURGLARY,47.049816742073226
Pinehurst,303.7528037994816,WARRANT ARREST,37.95204035936727
Loyal Heights,118.598295174281,BURGLARY,17.24125504479116
Olympic Hills,116.50743014738053,CAR PROWL,20.735333753369645
Cascade,100805.82057834216,WARRANT ARREST,99.2518123255325
Wallingford,549.0402421516774,BURGLARY,22.67868377745172
Uptown,1671.8064758205253,PROPERTY DAMAGE,18.998439898878633
Crown Hill,257.7301909071899,ROBBERY,32.62504606666971
Yesler Terrace ,868.7572238217313,BURGLARY,16.487024507644556
Waterfront,1954.787807270965,CAR PROWL,40.07449006787217
Alki,418.85976363677526,PROPERTY DAMAGE,36.666277646901854
Hawthorne Hills,83.89244688923013,CAR PROWL,17.668517614578427
Lakewood,104.06226896652431,CAR PROWL,18.15839009745563
Gatewood,75.45104359955212,BURGLARY,19.702845025108513
Jackson Place ,602.7914187753149,CAR PROWL,40.8568287054102
Madison Valley,615.3453240447176,CAR PROWL,59.71296290550418
Hillman City,301.46907478389585,CAR PROWL,23.410454385463062
Bryant,110.40626505230244,PROPERTY DAMAGE,20.666367514894254
North Beach,99.22048856958163,CAR PROWL,23.00348106490316
Roosevelt,282.40927136153215,CAR PROWL,21.07019746817028
North College Park,179.1615801667392,OTHER PROPERTY,16.494036924054463
Bitter Lake,149.98846874793972,OTHER PROPERTY,24.837226751459
Brighton,465.99057942173573,PROPERTY DAMAGE,32.50414770598381
West Queen Anne,292.86735865592874,CAR PROWL,43.448556863173124
Georgetown,282.0630006420776,BURGLARY,42.591087633148454
Genesee,97.68080768532553,OTHER PROPERTY,26.269861476548247
Belltown,602838.5966136863,ASSAULT,33.21832882590142
Holly Park ,312.61876494214823,NARCOTICS,17.092417137615733
Madison Park,163.09029755264214,FORGERY,37.309059280356266
Rainier Beach,930.397322828148,CAR PROWL,88.63619322570487
Fairmount Park,129.59814488005767,OTHER PROPERTY,31.26745006523593
Meadowbrook,134.076684463407,CAR PROWL,19.089789936633668
West Woodland,197.8710101776122,OTHER PROPERTY,14.805265812985109
Northgate,1675.09543401926,OTHER PROPERTY,28.746284334496142
Seward Park,310.94292783586246,CAR PROWL,61.58502855755114
University District,1993.6990387202761,ASSAULT,35.14332667641073
First Hill,7234.901493226027,ROBBERY,79.79428027415891
Columbia City,272.10663854444374,ROBBERY,27.500313106698922
North Beacon Hill,761.763302625576,SHOPLIFTING,45.662006155903384
