hood,influence,largestInfluencer,largestInfluencerPercent
Fremont,443.02698874593034,CAR PROWL,28.568840318081783
Junction,335.01186626622234,BURGLARY,35.725267305949025
Central,341.43857943020964,WEAPON,15.180418844019618
Ravenna,155.67410050628425,CAR PROWL,35.37353762639488
Garfield,632.3133680013862,CAR PROWL,43.48549722783511
Seaview,117.75571489482833,BURGLARY,21.335019550960563
Green Lake,198.00059046955465,CAR PROWL,44.377397942158936
Minor,776.3630795034923,NARCOTICS,25.640708008310376
Roxhill,167.330221298972,PROPERTY DAMAGE,19.125192452702883
Rainier View,206.86524948056135,BURGLARY,62.71324798774116
Denny - Blaine,121.8972266439015,CAR PROWL,19.202250521144755
Broadview,886.9485205265414,CAR PROWL,94.2471712947873
Pioneer Square,12789.594520359455,NARCOTICS,16.411404193378313
Beacon Hill,118.30233754245631,PROPERTY DAMAGE,15.170913042658325
Lower Queen Anne,2583.2553602454814,OTHER PROPERTY,13.878958649097594
High Point,1931.1539480307317,BIKE THEFT,88.60162258850448
Industrial District,88.88180729697737,CAR PROWL,20.619650281475657
Blue Ridge,6229.190709506012,ASSAULT,98.41638138741551
Maple Leaf,180.07618800493904,CAR PROWL,33.74766033067106
Greenwood,293.2159126917341,OTHER PROPERTY,46.734647879521155
Broadmoor,105.8192354610461,CAR PROWL,26.741838706535873
View Ridge,62.768686088163086,CAR PROWL,21.02024261959697
East Queen Anne,335.7938696231901,CAR PROWL,35.128128806734594
Whittier Heights,282.37018615583696,CAR PROWL,27.079422968316138
Riverview,82.43807235636568,CAR PROWL,17.960097797710915
Denny Triangle,519.0226335527866,CAR PROWL,46.98388331073252
Wedgwood,1896.4106022252956,VEHICLE THEFT,69.4922941896652
Eastlake,310.8851818032883,BURGLARY,22.491404009594017
North Delridge,104.62870286142068,BURGLARY,17.183721602200947
Capitol Hill,1548.5314125886173,BURGLARY,68.67099680405217
Atlantic,473.1438141369412,CAR PROWL,18.754138588622833
South Park,798.577787438482,VEHICLE THEFT,81.37812148635307
Matthews Beach,57.257210880862935,CAR PROWL,20.778063414590644
Mt. Baker,161.79690929720525,CAR PROWL,16.24674035620874
Magnolia,414.2637740844429,BURGLARY,41.81878338097702
Sunset Hill,86.97252969602845,CAR PROWL,33.41798659784293
Montlake,182.3956814619532,CAR PROWL,18.89829710652194
Victory Heights,166.62198516062722,BURGLARY,35.22376171157738
Phinney Ridge,264.3195283995771,CAR PROWL,32.36335820159231
Windermere,93.61062860715882,CAR PROWL,35.88559862480495
Haller Lake,138.80633548443322,CAR PROWL,17.635260734667515
Highland Park,137.95291356653198,PROPERTY DAMAGE,29.35990612733451
Admiral,125.83466200866813,CAR PROWL,35.475437869416716
Little Saigon,2242.2245632387917,CAR PROWL,40.60593789122966
Olympic Manor,2242.2245632387917,CAR PROWL,40.60593789122966
South Beacon Hill,137.4855297258659,CAR PROWL,27.076556432853167
Fauntleroy,68.31069785777784,CAR PROWL,20.75629145328119
Westlake,573.5399495632589,CAR PROWL,47.923005888865305
Leschi,327.9892730674413,THREATS,14.108336950100993
South Lake Union,623.3151340223633,CAR PROWL,40.766758947034305
Cedar Park,301.5040135030904,BURGLARY,16.152226953357157
Interbay,153.4915323759282,CAR PROWL,22.78539216663777
Madrona,249.88780496114512,SHOPLIFTING,40.13823398784944
Downtown,2242.2245632387917,CAR PROWL,40.60593789122966
North Queen Anne,211.08859464205258,CAR PROWL,24.82563755405276
Portage Bay,191.90147490669892,CAR PROWL,27.161995981030152
Laurelhurst,90.64933490950698,CAR PROWL,27.781689621436584
Dunlap,513.7787220962947,CAR PROWL,71.93085843416046
Judkins Park,309.44728912496026,BURGLARY,17.874044264331904
International District,3081.3388953394683,WARRANT ARREST,26.616811016532804
Arbor Heights,68.95336896889103,THREATS,35.08464300825401
South Delridge,173.7907845131754,PROPERTY DAMAGE,27.286564715923728
Ballard,230.2628651841863,BURGLARY,24.85534806476805
Pinehurst,213.27530105901204,CAR PROWL,17.798898427537427
Loyal Heights,180.8968817476089,CAR PROWL,29.26268943178399
Olympic Hills,107.16080377836187,BURGLARY,17.78668211135598
Cascade,100856.71159591434,WARRANT ARREST,99.20925782165688
Wallingford,1355.4977684401833,CAR PROWL,51.23155247183303
Uptown,2583.2553602454814,OTHER PROPERTY,13.878958649097594
Crown Hill,222.56524296935712,BURGLARY,26.681347667767135
Yesler Terrace ,1795.6395855025833,VEHICLE THEFT,38.88619302771136
Waterfront,16181.578858570127,OTHER PROPERTY,40.841131248232045
Alki,140.69203703259103,BURGLARY,35.5860143900478
Hawthorne Hills,112.2160014547572,PROPERTY DAMAGE,23.153864118957813
Lakewood,108.00700244643959,VEHICLE THEFT,24.817706860455452
Gatewood,138.57308720222997,BURGLARY,25.421692043485073
Jackson Place ,462.33802420321166,CAR PROWL,16.57361693098347
Madison Valley,199.466932207021,BURGLARY,29.322129564430362
Hillman City,582.0089836829167,WARRANT ARREST,47.823887119294554
Bryant,289.7527514205124,OTHER PROPERTY,29.863323714805702
North Beach,6229.190709506012,ASSAULT,98.41638138741551
Roosevelt,379.7521111902371,CAR PROWL,19.858198496277108
North College Park,204.14168187454163,CAR PROWL,19.439771458877804
Bitter Lake,173.40682040061637,CAR PROWL,14.342574212890264
Brighton,207.28017595049,PROPERTY DAMAGE,11.274399244139733
West Queen Anne,390.04253223482914,PROPERTY DAMAGE,36.514163625796634
Georgetown,589.7485209007045,PROPERTY DAMAGE,21.789626915852672
Genesee,129.10844444164658,BURGLARY,30.18301707771642
Belltown,502707.28507134964,WARRANT ARREST,19.982072069748646
Holly Park ,201.6715300762059,THREATS,26.841186687376535
Madison Park,193.6662826897317,OTHER PROPERTY,48.584091436046684
Rainier Beach,203.12878617677308,CAR PROWL,48.08109077470388
Fairmount Park,136.33542381250624,BURGLARY,21.481866165913722
Meadowbrook,143.98688462293526,VEHICLE THEFT,19.25532909927047
West Woodland,456.84132717978605,BURGLARY,48.06749178491237
Northgate,1571.1469774420416,CAR PROWL,25.400512734248885
Seward Park,233.1942304701724,BURGLARY,71.82836949193306
University District,1652.2607479235005,CAR PROWL,30.88279112035431
First Hill,1593.6090828165914,CAR PROWL,20.859679001942492
Columbia City,205.35530675015272,CAR PROWL,12.660462065728304
North Beacon Hill,632.5526356998557,OTHER PROPERTY,31.445932799845288
