hood,influence,largestInfluencer,largestInfluencerPercent
Fremont,458.5628351564776,VEHICLE THEFT,47.2293906186904
Junction,145.69377186933102,ANIMAL COMPLAINT,16.042870905978173
Central,278.16928852172964,WARRANT ARREST,23.40994742425144
Ravenna,241.37884392432494,BURGLARY,42.97706279743009
Garfield,400.79040519388224,CAR PROWL,28.252783454159957
Seaview,96.6147927927087,CAR PROWL,22.298317672736886
Green Lake,124.08636589658721,CAR PROWL,25.45420898931291
Minor,905.7054219499951,CAR PROWL,26.54543317440813
Roxhill,147.64406959265534,OTHER PROPERTY,25.676165701852455
Rainier View,95.7580867137317,OTHER PROPERTY,29.566901025797844
Denny - Blaine,105.92787532064162,OTHER PROPERTY,17.06385117361348
Broadview,64.2115920038894,BURGLARY,22.14895696085741
Pioneer Square,10552.4424659582,ROBBERY,19.355321855617404
Beacon Hill,96.91459163730511,BURGLARY,16.717006652964663
Lower Queen Anne,3079.047408386975,ASSAULT,23.716438491097815
High Point,1808.401088724212,BURGLARY,95.10419294354364
Industrial District,81.25329941212516,CAR PROWL,17.52670454983321
Blue Ridge,80.33260399754494,FRAUD,19.406638358960375
Maple Leaf,114.38642956344859,BURGLARY,19.137514750498532
Greenwood,212.51209221952195,PROPERTY DAMAGE,16.942239299285266
Broadmoor,82.3309322512074,CAR PROWL,23.720417636447085
View Ridge,62.83681649179291,BURGLARY,22.56044957755146
East Queen Anne,244.9306147259548,CAR PROWL,40.89629735479817
Whittier Heights,191.8675467236819,CAR PROWL,48.834337454028066
Riverview,71.62537069647658,CAR PROWL,15.568085259953369
Denny Triangle,405.64788427766536,CAR PROWL,44.44206480650604
Wedgwood,121.90714800432349,PROPERTY DAMAGE,43.88465022685658
Eastlake,358.2265821039246,CAR PROWL,41.40726624816683
North Delridge,139.2134784535809,CAR PROWL,28.17895228804657
Capitol Hill,802.9340405967843,BURGLARY,27.483363408968906
Atlantic,284.8238147364583,CAR PROWL,15.427546363449508
South Park,92.07354560086841,CAR PROWL,17.28412998221314
Matthews Beach,79.07679229683025,CAR PROWL,32.118119194875895
Mt. Baker,209.03820543316516,FRAUD,39.25064860038261
Magnolia,5957.261017170434,CAR PROWL,97.11640198675478
Sunset Hill,138.22366732085086,THREATS,41.79500059017947
Montlake,176.5176222223699,FRAUD,30.94781611111112
Victory Heights,124.03493654490012,BURGLARY,22.236162182007412
Phinney Ridge,714.5386112704442,FRAUD,68.97129261869011
Windermere,180.82322420621966,CAR PROWL,76.28972938932895
Haller Lake,105.72796566114631,BURGLARY,18.72253971941966
Highland Park,97.21165673760521,PROPERTY DAMAGE,19.10555562061123
Admiral,71.40407528096985,CAR PROWL,29.29004219878208
Little Saigon,1756.6029682531819,CAR PROWL,27.08266335715127
Olympic Manor,1756.6029682531819,CAR PROWL,27.08266335715127
South Beacon Hill,205.58566336695273,BURGLARY,59.40104385522494
Fauntleroy,84.73834509360623,CAR PROWL,26.79821078981608
Westlake,817.6240257601816,CAR PROWL,59.09802109181945
Leschi,188.98373565223554,CAR PROWL,19.153031138641627
South Lake Union,574.981676573348,CAR PROWL,40.56892095610275
Cedar Park,666.4188955537209,OTHER PROPERTY,56.377259208225034
Interbay,120.45060302687313,CAR PROWL,22.902171211880134
Madrona,166.87840774527382,OTHER PROPERTY,25.21636410611743
Downtown,1756.6029682531819,CAR PROWL,27.08266335715127
North Queen Anne,145.3205480300985,CAR PROWL,19.78116244158019
Portage Bay,288.45747425624626,CAR PROWL,56.040139815691134
Laurelhurst,105.55635242845023,CAR PROWL,39.06803638773145
Dunlap,207.66627439025237,OTHER PROPERTY,15.644212328880146
Judkins Park,228.47950459044523,BURGLARY,21.979583102125723
International District,6117.085317686612,BURGLARY,42.561942173233305
Arbor Heights,62.70950916760215,CAR PROWL,20.32833656756685
South Delridge,542.4253989444709,WARRANT ARREST,73.4769304440023
Ballard,111.0609469544264,CAR PROWL,19.760117816648563
Pinehurst,399.42332554647817,OTHER PROPERTY,41.12990733983356
Loyal Heights,105.28974330106374,CAR PROWL,21.788238428180698
Olympic Hills,157.8222089432868,BURGLARY,36.60864193127098
Cascade,101092.44387791665,CAR PROWL,99.31091493743779
Wallingford,526.7383343675299,BURGLARY,29.277968176289217
Uptown,3079.047408386975,ASSAULT,23.716438491097815
Crown Hill,167.75178935772604,CAR PROWL,34.086788984413225
Yesler Terrace ,658.6366714139328,OTHER PROPERTY,18.16217472667227
Waterfront,8754.599443963116,CAR PROWL,54.19821800765221
Alki,134.47916083088188,CAR PROWL,61.66261196472103
Hawthorne Hills,188.4524863823938,OTHER PROPERTY,53.205837161537225
Lakewood,123.73395840643688,CAR PROWL,16.968835978321945
Gatewood,92.21318314341023,CAR PROWL,30.81776332843486
Jackson Place ,326.7237087195716,WARRANT ARREST,15.485948527439188
Madison Valley,171.08261227841265,OTHER PROPERTY,26.99503393119098
Hillman City,142.23958553940543,CAR PROWL,24.70660126839294
Bryant,175.15034539459427,OTHER PROPERTY,52.71095685894682
North Beach,80.33260399754494,FRAUD,19.406638358960375
Roosevelt,285.09643831829044,BURGLARY,32.28750251585219
North College Park,143.90914917036892,CAR PROWL,14.693996640243393
Bitter Lake,147.57586895127042,OTHER PROPERTY,17.5094059365272
Brighton,587.0524981820209,NARCOTICS,32.02062091374277
West Queen Anne,148.41804073075807,CAR PROWL,22.45661446829087
Georgetown,251.03823263460114,BURGLARY,62.924218389146816
Genesee,108.94018890098569,PROPERTY DAMAGE,17.317726736886375
Belltown,302820.83573836053,WARRANT ARREST,66.22901096432189
Holly Park ,199.66786329003835,VEHICLE THEFT,25.83721873376395
Madison Park,197.56218801086314,VEHICLE THEFT,31.853809878947793
Rainier Beach,194.8395174949728,WARRANT ARREST,49.04784684901943
Fairmount Park,137.05207964355446,CAR PROWL,33.31365883612041
Meadowbrook,95.98707822556864,CAR PROWL,26.68763641026028
West Woodland,249.7841228130807,CAR PROWL,25.31419117991211
Northgate,1042.0381715422247,SHOPLIFTING,22.873728103951866
Seward Park,109.76657916789772,CAR PROWL,38.663688670477676
University District,1746.212181669881,NARCOTICS,16.198134209184847
First Hill,2085.1955301198905,OTHER PROPERTY,29.051639885664716
Columbia City,1482.0947842109529,ASSAULT,40.503228372062175
North Beacon Hill,719.827648310095,SHOPLIFTING,49.090419465329795
