hood,influence,largestInfluencer,largestInfluencerPercent
Fremont,154.46076227910464,OTHER PROPERTY,37.42374262716234
Junction,76.46233430480908,BURGLARY,65.46673026298204
Central,180.78182289025034,WARRANT ARREST,28.321559439262707
Ravenna,53.7717859032265,OTHER PROPERTY,43.69948548144221
Garfield,139.40664114063702,OTHER PROPERTY,21.90920934155599
Seaview,36.717936084559305,OTHER PROPERTY,43.11238774977174
Green Lake,48.706084526223044,OTHER PROPERTY,20.02849368339415
Minor,153.96355609067965,NARCOTICS,20.3855231492073
Roxhill,53.415640086505746,OTHER PROPERTY,35.62895960317732
Rainier View,47.919296922218855,PROPERTY DAMAGE,25.237643955758383
Denny - Blaine,51.57379723428912,CAR PROWL,19.964312549905895
Broadview,27.873977161182253,OTHER PROPERTY,22.538580848674226
Pioneer Square,2374.997516318408,ASSAULT,39.142790747929396
Beacon Hill,35.150709603596866,OTHER PROPERTY,19.02971439870355
Lower Queen Anne,427.4626925340311,THREATS,37.483088699648526
High Point,36.05477308304707,OTHER PROPERTY,21.69103315490529
Industrial District,35.45102399134466,NARCOTICS,15.007143709746277
Blue Ridge,48.73780013713322,CAR PROWL,35.407450237429124
Maple Leaf,32.2118175742214,OTHER PROPERTY,17.088823712102986
Greenwood,327.6602062863823,NARCOTICS,68.25631497463654
Broadmoor,33.14650445170406,BURGLARY,13.564248805013921
View Ridge,29.86571512605844,EMBEZZLE,41.09042067328005
East Queen Anne,101.40150450477154,OTHER PROPERTY,23.002329034650355
Whittier Heights,36.66406968804335,OTHER PROPERTY,20.350310484605707
Riverview,28.890191591759184,OTHER PROPERTY,18.961720157733065
Denny Triangle,132.30062608533188,THREATS,22.704063607609722
Wedgwood,28.846539982030222,OTHER PROPERTY,14.203436961924211
Eastlake,214.82477043933275,NARCOTICS,34.754071650454485
North Delridge,40.372463318582675,BURGLARY,20.52793210739524
Capitol Hill,177.70174853418516,NARCOTICS,19.592542088884294
Atlantic,129.27056548503208,NARCOTICS,24.065335462743555
South Park,38.362729527966536,BURGLARY,22.511257820824163
Matthews Beach,30.78793584615555,CAR PROWL,36.32056417506049
Mt. Baker,64.69119728369523,NARCOTICS,23.846676776289844
Magnolia,21.363645689265468,OTHER PROPERTY,13.035532317660754
Sunset Hill,23.364393047475957,FRAUD,25.049344592168595
Montlake,74.99907779991386,OTHER PROPERTY,22.153994954365306
Victory Heights,40.09770059538939,BURGLARY,29.72775326744037
Phinney Ridge,52.85846845711098,OTHER PROPERTY,22.23011309345469
Windermere,21.059031019444582,OTHER PROPERTY,43.86383558092378
Haller Lake,40.13247546494662,PROPERTY DAMAGE,23.546118326870275
Highland Park,78.71518818225857,ASSAULT,74.12235710071008
Admiral,38.12852810009228,OTHER PROPERTY,23.20841294234671
Little Saigon,984.9698381541415,SHOPLIFTING,21.024403888486034
Olympic Manor,984.9698381541415,SHOPLIFTING,21.024403888486034
South Beacon Hill,38.525716505559636,PROPERTY DAMAGE,14.306731112309064
Fauntleroy,26.454698341974105,OTHER PROPERTY,41.06587895064037
Westlake,180.65617483164849,VEHICLE THEFT,29.703586451333987
Leschi,85.32182534270498,NARCOTICS,20.308713593610364
South Lake Union,157.28404963111845,BURGLARY,15.335184185320847
Cedar Park,205.40483911738016,SHOPLIFTING,23.101373676201728
Interbay,35.068814970408155,OTHER PROPERTY,17.219793786792017
Madrona,73.33183321216163,CAR PROWL,16.955385880739275
Downtown,984.9698381541415,SHOPLIFTING,21.024403888486034
North Queen Anne,58.11433713587508,TRESPASS,12.083907211841376
Portage Bay,46.588932037962586,OTHER PROPERTY,14.153856123670424
Laurelhurst,20.57785893525958,OTHER PROPERTY,19.139913606820997
Dunlap,47.42755640984212,ASSAULT,19.247052353298713
Judkins Park,107.71226497482547,NARCOTICS,44.171565971267526
International District,933.4134769011393,NARCOTICS,49.11308310389745
Arbor Heights,15.99703175445588,OTHER PROPERTY,28.49422141153464
South Delridge,65.42971511640167,BURGLARY,22.75740501455086
Ballard,81.84751041585912,FRAUD,60.415686993663
Pinehurst,49.673533778249435,SHOPLIFTING,16.06270414060112
Loyal Heights,35.322170607652914,FRAUD,19.574941303282852
Olympic Hills,48.34946069172227,CAR PROWL,25.10433539608042
Cascade,308.7198267054525,BURGLARY,28.379396181596157
Wallingford,249.40080475257162,OTHER PROPERTY,48.54966266232941
Uptown,427.4626925340311,THREATS,37.483088699648526
Crown Hill,33.45239089482018,OTHER PROPERTY,14.496457164805246
Yesler Terrace ,356.6048330863658,WARRANT ARREST,29.071594504266216
Waterfront,724.9724010632942,FRAUD,16.821780947488367
Alki,28.16796003165407,OTHER PROPERTY,28.50683841476292
Hawthorne Hills,22.84392284647197,OTHER PROPERTY,24.709997277044906
Lakewood,37.33642711653935,FRAUD,34.38436008920989
Gatewood,51.72305532093566,PROPERTY DAMAGE,37.20212995080332
Jackson Place ,176.05748398460796,NARCOTICS,21.88269676882377
Madison Valley,74.70829951687838,CAR PROWL,19.80860728314627
Hillman City,179.19449871003346,BURGLARY,58.5123238721168
Bryant,47.53007924473592,OTHER PROPERTY,56.05441163878245
North Beach,48.73780013713322,CAR PROWL,35.407450237429124
Roosevelt,75.00049674960744,STOLEN PROPERTY,19.249918265304714
North College Park,57.33685769385625,OTHER PROPERTY,14.009010623109686
Bitter Lake,61.30272845695331,FRAUD,16.11537350392789
Brighton,123.96955182390349,PROPERTY DAMAGE,36.237119698875084
West Queen Anne,78.26452347947857,STOLEN PROPERTY,32.88526857817057
Georgetown,221.22398739817837,THREATS,90.08616479598322
Genesee,26.376762263287635,BURGLARY,22.072001858443205
Belltown,1799.8119561534004,NARCOTICS,53.00462424616256
Holly Park ,55.80048934954996,BURGLARY,19.27815205515386
Madison Park,210.38830786253826,BURGLARY,60.57297073572321
Rainier Beach,61.404429827049455,ASSAULT,24.387648637203576
Fairmount Park,37.21852355708144,OTHER PROPERTY,38.47941058380995
Meadowbrook,71.53448578669662,BURGLARY,64.56681088494747
West Woodland,171.04022074628787,WARRANT ARREST,56.22426055478669
Northgate,79999.77538868244,LOST PROPERTY,99.46659393348261
Seward Park,42.153406056596396,BURGLARY,39.45873408554904
University District,408.0380908250534,THREATS,47.56715502932181
First Hill,453.2299969809511,FRAUD,19.836594083966382
Columbia City,58.59990009627236,OTHER PROPERTY,21.579326760621313
North Beacon Hill,231.58982617616834,SHOPLIFTING,75.65797454965274
