hood,influence,largestInfluencer,largestInfluencerPercent
Fremont,570.6255021913074,BURGLARY,24.07921892502672
Junction,759.1406926266819,DISTURBANCE,25.320765912427472
Central,745.2651697762803,PROPERTY DAMAGE,18.797338781131128
Ravenna,269.26724478140244,BURGLARY,18.59028537851174
Garfield,600.1902381812283,CAR PROWL,26.851494817288998
Seaview,169.09532235943183,CAR PROWL,36.874767289541495
Green Lake,280.2100551916337,CAR PROWL,22.656638017874855
Minor,1143.4822275393865,OTHER PROPERTY,17.87094330626706
Roxhill,195.3200580024334,OTHER PROPERTY,22.417086875319978
Rainier View,194.5475281449322,BURGLARY,56.218327700615944
Denny - Blaine,300.2893095875585,BURGLARY,18.915757287147038
Broadview,158.67298333863906,CAR PROWL,28.37969809531158
Pioneer Square,8325.597237445509,CAR PROWL,24.301634103194726
Beacon Hill,225.96594671315347,OTHER PROPERTY,12.544156617575249
Lower Queen Anne,2902.700361572404,ASSAULT,29.053718380379266
High Point,221.71585279549836,OTHER PROPERTY,17.929118363512114
Industrial District,187.34201624819815,OTHER PROPERTY,17.033815223970162
Blue Ridge,143.5954911299334,CAR PROWL,14.766727451286961
Maple Leaf,366.1793256927638,PROPERTY DAMAGE,20.00088577350657
Greenwood,483.98438405996,BURGLARY,34.20238153409639
Broadmoor,313.7749699387674,BURGLARY,46.450126938966285
View Ridge,142.9708165521087,CAR PROWL,28.19136688216323
East Queen Anne,471.782082062459,CAR PROWL,33.93633995889152
Whittier Heights,303.53559040724986,BURGLARY,30.777638709229173
Riverview,177.78994168350454,BURGLARY,17.49863996179718
Denny Triangle,855.1006336596915,CAR PROWL,21.117446652137268
Wedgwood,530.7889402032604,SHOPLIFTING,55.532514800651384
Eastlake,731.823800611473,OTHER PROPERTY,25.504873952400292
North Delridge,209.53085747088636,OTHER PROPERTY,19.98267949887959
Capitol Hill,2727.480815612789,OTHER PROPERTY,52.91214777549097
Atlantic,3843.335243534338,CAR PROWL,83.60433214466775
South Park,340.7603244846299,VEHICLE THEFT,43.93050263224961
Matthews Beach,89.91068029878718,CAR PROWL,18.90408839978707
Mt. Baker,554.4690337318597,CAR PROWL,32.61203137900643
Magnolia,929.9125493843837,PROPERTY DAMAGE,43.76033732119848
Sunset Hill,140.3434002257855,CAR PROWL,23.8008404705623
Montlake,288.2214418186616,CAR PROWL,26.28906603667062
Victory Heights,623.8495914598412,FRAUD,55.315126650485254
Phinney Ridge,502.8634464510348,CAR PROWL,47.6737692153485
Windermere,126.05900872448774,OTHER PROPERTY,18.617849785402367
Haller Lake,239.78769468279754,BURGLARY,15.836970674998268
Highland Park,6098.118502104086,OTHER PROPERTY,95.95987302414007
Admiral,139.03294136367123,CAR PROWL,17.84629138887542
Little Saigon,3269.9373356716087,CAR PROWL,19.231969216889848
Olympic Manor,3269.9373356716087,CAR PROWL,19.231969216889848
South Beacon Hill,264.0493698290647,CAR PROWL,36.12159902318492
Fauntleroy,133.29231697207186,FRAUD,23.077545678303917
Westlake,978.2461789107239,CAR PROWL,30.672215197814253
Leschi,453.73498280360786,CAR PROWL,16.81943303575054
South Lake Union,1432.4707434544512,CAR PROWL,44.16787810734449
Cedar Park,2578.287455316719,ASSAULT,30.187329237140023
Interbay,184.12906004918275,CAR PROWL,19.097115827574864
Madrona,361.6550356027836,CAR PROWL,23.91773929841441
Downtown,3269.9373356716087,CAR PROWL,19.231969216889848
North Queen Anne,283.5097730223642,BURGLARY,20.258653107528254
Portage Bay,534.333755630641,CAR PROWL,25.511203636938543
Laurelhurst,181.35130872598393,CAR PROWL,17.803636489435945
Dunlap,4572.2205600683865,LOST PROPERTY,89.28776698588979
Judkins Park,897.6341106250773,THREATS,17.06480090089514
International District,6225.910345534119,OTHER PROPERTY,42.750512019426665
Arbor Heights,127.56275428293736,BURGLARY,19.93933202505774
South Delridge,512.030224588645,OTHER PROPERTY,58.86263248258373
Ballard,263.7103512493424,BURGLARY,27.44908896328245
Pinehurst,281.621068042392,CAR PROWL,22.85288392506172
Loyal Heights,244.39797708105127,BURGLARY,29.73659568132459
Olympic Hills,197.47717968645435,PROPERTY DAMAGE,15.51386950595508
Cascade,101955.79518543986,OTHER PROPERTY,98.38691536698396
Wallingford,1849.92780351381,TRESPASS,58.73240316740446
Uptown,2902.700361572404,ASSAULT,29.053718380379266
Crown Hill,319.1328387522014,OTHER PROPERTY,27.941723450370052
Yesler Terrace ,1824.4963538651552,CAR PROWL,30.97881560732838
Waterfront,3386.686699897626,CAR PROWL,40.99726746007048
Alki,147.86287402856846,VEHICLE THEFT,21.916836904753918
Hawthorne Hills,161.557191853235,BURGLARY,24.982666411676732
Lakewood,329.68940931662735,PROPERTY DAMAGE,33.46966805125819
Gatewood,346.2695971191421,OTHER PROPERTY,53.84182757026702
Jackson Place ,1239.6449523034496,CAR PROWL,27.944743223643584
Madison Valley,428.6492124771562,BURGLARY,22.732166724064317
Hillman City,658.036827017763,VEHICLE THEFT,36.7704883431462
Bryant,222.53670401795455,OTHER PROPERTY,16.034480696083417
North Beach,143.5954911299334,CAR PROWL,14.766727451286961
Roosevelt,653.7147099872931,CAR PROWL,23.379433912439886
North College Park,380.7821233237303,OTHER PROPERTY,18.590165491063594
Bitter Lake,468.82541920963257,BURGLARY,15.25187298268435
Brighton,487.6941850534796,PROPERTY DAMAGE,32.10356532756979
West Queen Anne,376.4368835702504,CAR PROWL,24.969629227012216
Georgetown,188.2175973911209,FRAUD,12.143728996340249
Genesee,512.0516809654565,BURGLARY-SECURE PARKING-RES,26.422786853744917
Belltown,405568.7301590764,WARRANT ARREST,49.60402715534318
Holly Park ,46361.1783326786,VEHICLE THEFT,99.09580363982943
Madison Park,266.78069722457144,VEHICLE THEFT,21.86528627624574
Rainier Beach,481.38134284833376,WARRANT ARREST,38.31856358360317
Fairmount Park,281.8958903552169,OTHER PROPERTY,20.61155153351522
Meadowbrook,264.4240280824674,OTHER PROPERTY,35.99623741311975
West Woodland,729.4187559483753,CAR PROWL,65.82615942188755
Northgate,82067.13855238078,CAR PROWL,98.26961196004757
Seward Park,276.6288642306675,VEHICLE THEFT,23.793178193046344
University District,2448.9756987176447,OTHER PROPERTY,21.720631755461994
First Hill,3072.3669894521586,CAR PROWL,24.004568325921966
Columbia City,652.8730914295961,CAR PROWL,29.49449344626499
North Beacon Hill,1085.5613413333288,SHOPLIFTING,32.467415866857614
