hood,influence,largestInfluencer,largestInfluencerPercent
Fremont,664.0642477425588,BURGLARY,20.235410182455052
Junction,963.9610457005577,ASSAULT,22.08564351251484
Central,616.099828110348,CAR PROWL,15.494079737135495
Ravenna,508.51779793597524,BURGLARY,43.50810543161244
Garfield,692.8076422748622,CAR PROWL,24.268993639131114
Seaview,221.68537137010736,CAR PROWL,24.269933415634792
Green Lake,324.46744609865766,CAR PROWL,23.575343103113337
Minor,982.6014404219068,CAR PROWL,20.604600488660036
Roxhill,330.2958322754327,CAR PROWL,21.107187916076242
Rainier View,236.02534647233819,BURGLARY,39.27802724287407
Denny - Blaine,310.3401193436338,CAR PROWL,20.623626923896314
Broadview,202.14619727556646,CAR PROWL,26.173240060889032
Pioneer Square,9985.18583102816,OTHER PROPERTY,31.4183912483248
Beacon Hill,417.6721871067259,ROBBERY,27.111575418288535
Lower Queen Anne,2709.4329957524697,WARRANT ARREST,29.40228156616148
High Point,7122.559061307727,PROPERTY DAMAGE,97.24034731782113
Industrial District,212.70810059174613,OTHER PROPERTY,19.621649701958713
Blue Ridge,321.5650179974419,CAR PROWL,63.34904863720863
Maple Leaf,345.45898800914523,CAR PROWL,21.385083888356885
Greenwood,841.9585803116174,CAR PROWL,36.02304538124775
Broadmoor,238.1487685459122,CAR PROWL,23.437458583255832
View Ridge,198.02157650997646,PROPERTY DAMAGE,35.24994931579809
East Queen Anne,1039.9675351856802,BIKE THEFT,34.564354009526795
Whittier Heights,280.12199805953753,CAR PROWL,16.419061463918027
Riverview,187.24608917404066,CAR PROWL,20.73498037505293
Denny Triangle,1103.1153930700593,CAR PROWL,20.97166140590893
Wedgwood,793.4528219707477,SHOPLIFTING,64.48974123825086
Eastlake,876.55391093692,BURGLARY,21.60339040834596
North Delridge,293.12650677760496,OTHER PROPERTY,15.232408562104169
Capitol Hill,3447.137658041295,OTHER PROPERTY,57.863600138400706
Atlantic,1026.8394618378388,CAR PROWL,15.3837294365293
South Park,380.654077108078,VEHICLE THEFT,55.01854397285999
Matthews Beach,162.6205819259921,THREATS,21.725249013113785
Mt. Baker,418.21208550040444,CAR PROWL,30.928843872870484
Magnolia,568.0746209578717,BURGLARY,60.90539584147337
Sunset Hill,187.20249282404396,PROPERTY DAMAGE,20.735076314846562
Montlake,327.61308850971426,CAR PROWL,22.764351188528096
Victory Heights,466.32666740992426,STOLEN PROPERTY,39.078503479474534
Phinney Ridge,478.80817492092666,CAR PROWL,43.58138289192262
Windermere,127.56368320131149,CAR PROWL,21.885038275142417
Haller Lake,237.70134075145856,CAR PROWL,19.78890609668888
Highland Park,305.6708855395329,OTHER PROPERTY,31.61939335301125
Admiral,319.71603209304914,VEHICLE THEFT,22.684934805842985
Little Saigon,4335.947742714808,PROPERTY DAMAGE,18.42921206377747
Olympic Manor,4335.947742714808,PROPERTY DAMAGE,18.42921206377747
South Beacon Hill,243.91407355986044,CAR PROWL,21.379008492217956
Fauntleroy,140.85200702031173,CAR PROWL,21.190211143898242
Westlake,1104.785943323242,CAR PROWL,20.83503918474554
Leschi,446.281411557226,BURGLARY,22.56639019284728
South Lake Union,999.6814992627992,CAR PROWL,19.875777060491256
Cedar Park,550.1397319598174,SHOPLIFTING,17.3764188792359
Interbay,259.3766610690413,CAR PROWL,23.265494949842324
Madrona,487.56776837427446,CAR PROWL,37.38892776799486
Downtown,4335.947742714808,PROPERTY DAMAGE,18.42921206377747
North Queen Anne,404.1324869242848,CAR PROWL,27.744275512046027
Portage Bay,655.3013646130408,BURGLARY,26.257364085169517
Laurelhurst,213.35042487055784,CAR PROWL,20.829829697448595
Dunlap,459.36370638018474,FRAUD,15.425963206148525
Judkins Park,579.0644480820225,PROPERTY DAMAGE,25.174658853744777
International District,9418.167641052602,DISTURBANCE,26.924953522860214
Arbor Heights,1484.468507996708,OTHER PROPERTY,80.19678482794659
South Delridge,972.9635014920223,PROPERTY DAMAGE,64.61426080825903
Ballard,480.61881541269526,CAR PROWL,33.597461868753065
Pinehurst,410.74678046725046,CAR PROWL,19.732995932247672
Loyal Heights,250.23864867006324,OTHER PROPERTY,19.268977932912414
Olympic Hills,262.14602264694804,OTHER PROPERTY,14.36157889878884
Cascade,1889.132533753089,CAR PROWL,14.202126541900524
Wallingford,779.989663566542,CAR PROWL,28.6305415950228
Uptown,2709.4329957524697,WARRANT ARREST,29.40228156616148
Crown Hill,257.57912493124667,CAR PROWL,16.57629002568861
Yesler Terrace ,3050.2926939304352,CAR PROWL,56.95040466355445
Waterfront,12087.63877722002,SHOPLIFTING,53.91228947541718
Alki,558.2135479943278,STOLEN PROPERTY,36.458110311262374
Hawthorne Hills,215.2199919709011,CAR PROWL,31.812108496618798
Lakewood,203.4755061365698,BURGLARY,28.446851620555062
Gatewood,266.2720039404604,VEHICLE THEFT,25.427098046164428
Jackson Place ,1826.2849004992654,ROBBERY,39.54147232250108
Madison Valley,380.5864008815587,CAR PROWL,18.660781894989142
Hillman City,667.36691516255,THREATS,29.422862192432454
Bryant,866.9453693870803,THREATS,63.942937010329295
North Beach,321.5650179974419,CAR PROWL,63.34904863720863
Roosevelt,686.4886706687117,VEHICLE THEFT,16.711109085561173
North College Park,577.6049276431831,CAR PROWL,20.39492550782197
Bitter Lake,318.5632005392097,OTHER PROPERTY,13.69324564072998
Brighton,522.8541684253663,WARRANT ARREST,16.710106788919344
West Queen Anne,540.7429179374744,CAR PROWL,32.76001018770079
Georgetown,475.4892503129582,THREATS,51.848040400375474
Genesee,316.5870175815369,BURGLARY,20.149618907825595
Belltown,204394.24477253668,ASSAULT,98.11339344630069
Holly Park ,602.519227104328,CAR PROWL,36.860137391255456
Madison Park,369.6503291445548,FRAUD,43.833211898294465
Rainier Beach,1600.6455110727593,CAR PROWL,68.17199888902566
Fairmount Park,425.1459209108064,VEHICLE THEFT,28.425944405721506
Meadowbrook,236.5558620592329,CAR PROWL,25.433268086992587
West Woodland,1116.1302722652772,OTHER PROPERTY,28.560526494772173
Northgate,4421.810190966044,SHOPLIFTING,33.57344682114798
Seward Park,236.36290011658065,OTHER PROPERTY,22.00164489383516
University District,4245.055585387237,OTHER PROPERTY,17.000632940241154
First Hill,5365.22800749822,CAR PROWL,29.897056065035606
Columbia City,693.3885983769154,ROBBERY,22.07016826824523
North Beacon Hill,890.5314404294242,ASSAULT,21.212412373968224
