hood,influence,largestInfluencer,largestInfluencerPercent
Fremont,899.3219892014476,CAR PROWL,31.316410891443663
Junction,446.3032788305967,VEHICLE THEFT,19.187452318278652
Central,780.2846493394616,CAR PROWL,19.367787152021698
Ravenna,316.14326187631235,BURGLARY,21.62956527758466
Garfield,602.1479725431192,CAR PROWL,28.06863725964986
Seaview,221.7659060189096,STOLEN PROPERTY,37.54645361972157
Green Lake,306.8953017117892,CAR PROWL,21.423275907210623
Minor,1010.0203149638772,CAR PROWL,31.73045305969011
Roxhill,356.1900503655475,CAR PROWL,28.66741693728581
Rainier View,141.03689313845769,BURGLARY,43.684425642869584
Denny - Blaine,281.01748032919335,CAR PROWL,26.69996617629117
Broadview,137.5566118589174,CAR PROWL,15.916819493592628
Pioneer Square,10050.052480434033,OTHER PROPERTY,37.12578772649654
Beacon Hill,564.5448702455544,PROPERTY DAMAGE,57.34169887247122
Lower Queen Anne,2207.200364627127,ASSAULT,34.61705313338415
High Point,225.75060852105284,CAR PROWL,23.4236509206039
Industrial District,205.88107812659402,BURGLARY,15.102927248944807
Blue Ridge,193.46827536844125,CAR PROWL,29.039276702779098
Maple Leaf,459.4724019730268,DISTURBANCE,21.918846105789356
Greenwood,985.8910456011075,BURGLARY,54.86258978801589
Broadmoor,260.94934149750395,OTHER PROPERTY,29.265875117438387
View Ridge,150.6645331888678,CAR PROWL,22.851125813401847
East Queen Anne,1560.066346452219,CAR PROWL,47.987185357970326
Whittier Heights,315.8005769674077,BURGLARY,16.99984502392181
Riverview,155.55867185659116,CAR PROWL,19.757591570256892
Denny Triangle,844.7468839831499,CAR PROWL,22.59208868653867
Wedgwood,830.2651659504779,SHOPLIFTING,35.62439989053983
Eastlake,739.3251869032794,CAR PROWL,29.230913052053552
North Delridge,853.1713612562519,CAR PROWL,72.66389513139669
Capitol Hill,3611.5830990924005,PROPERTY DAMAGE,58.20801263716604
Atlantic,1174.0795199556926,CAR PROWL,18.645656670867965
South Park,242.40109868262726,BURGLARY,23.991062980783667
Matthews Beach,176.87078802350572,BURGLARY,22.347620687547515
Mt. Baker,392.0423361957211,CAR PROWL,33.16110385361877
Magnolia,674.7206223707258,PROPERTY DAMAGE,50.86429463878453
Sunset Hill,156.62717303022245,CAR PROWL,18.575067306924208
Montlake,386.9690257276672,BURGLARY,39.50579075906102
Victory Heights,338.18123895773385,PROPERTY DAMAGE,15.258288854828267
Phinney Ridge,1435.390542712444,BURGLARY,68.54706758872105
Windermere,239.83684882124368,CAR PROWL,40.95435237469705
Haller Lake,263.6393473546212,CAR PROWL,16.316096668960153
Highland Park,278.47263652557234,DISTURBANCE,22.05325937192258
Admiral,480.03617683704266,TRAFFIC,50.25229290173391
Little Saigon,3597.9759913601597,CAR PROWL,24.054622511568585
Olympic Manor,3597.9759913601597,CAR PROWL,24.054622511568585
South Beacon Hill,247.41538279029186,OTHER PROPERTY,40.79910658624421
Fauntleroy,278.85678371157525,CAR PROWL,41.60942284037543
Westlake,717.8497700109336,CAR PROWL,29.098908270336512
Leschi,984.0111727748633,CAR PROWL,66.45718142631762
South Lake Union,1069.1866811803156,CAR PROWL,27.745955152959734
Cedar Park,2663.9444532077678,BURGLARY,52.03234439512948
Interbay,221.93072912901346,CAR PROWL,21.799139505964742
Madrona,777.7392961538284,PROPERTY DAMAGE,51.902792683960485
Downtown,3597.9759913601597,CAR PROWL,24.054622511568585
North Queen Anne,383.43970823182394,CAR PROWL,29.97268065894003
Portage Bay,457.70229343539324,VEHICLE THEFT,21.274294583361577
Laurelhurst,201.8126322100659,CAR PROWL,23.120197203688168
Dunlap,379.85219026834994,OTHER PROPERTY,23.619279011140893
Judkins Park,618.8504530554904,CAR PROWL,17.591454994758845
International District,2374.777396797717,ASSAULT,22.249818433285647
Arbor Heights,210.59202629567508,CAR PROWL,41.021923007862334
South Delridge,1375.5339067257053,PROPERTY DAMAGE,48.66218450365755
Ballard,328.8186121040716,CAR PROWL,26.813788880080757
Pinehurst,503.14502848076785,CAR PROWL,17.826773691862943
Loyal Heights,241.52108745474717,CAR PROWL,25.062097876907906
Olympic Hills,246.4812549354227,CAR PROWL,15.908571457261612
Cascade,1955.6878566949706,CAR PROWL,15.789422028918631
Wallingford,700.3361250373191,OTHER PROPERTY,35.73763544721969
Uptown,2207.200364627127,ASSAULT,34.61705313338415
Crown Hill,2357.574390888412,OTHER PROPERTY,76.73880964332643
Yesler Terrace ,1528.9401862378327,CAR PROWL,18.33784179423167
Waterfront,10331.987730030887,WARRANT ARREST,65.29325554434637
Alki,455.8589588661511,FRAUD,44.3797436014011
Hawthorne Hills,295.8213828045208,BURGLARY,37.35984100788321
Lakewood,324.86764564555403,WEAPON,35.13916308712716
Gatewood,167.98580025293418,CAR PROWL,28.50308145085196
Jackson Place ,1231.2525738961592,OTHER PROPERTY,25.079593050244625
Madison Valley,388.1736656523249,CAR PROWL,25.23897749555525
Hillman City,507.7099111229565,CAR PROWL,38.12855146486297
Bryant,555.7527803000979,VEHICLE THEFT,43.982648409178545
North Beach,193.46827536844125,CAR PROWL,29.039276702779098
Roosevelt,742.0266477659059,CAR PROWL,32.39578976875176
North College Park,379.6138676024704,CAR PROWL,21.493808582864443
Bitter Lake,352.9880901883033,OTHER PROPERTY,12.723795013081816
Brighton,495.4373337363457,BURGLARY,25.337136100800144
West Queen Anne,355.8069390557825,CAR PROWL,30.97227054521275
Georgetown,925.6335354408615,CAR PROWL,26.803775397054263
Genesee,196.32735726038774,CAR PROWL,14.39433915230789
Belltown,404149.18192367937,OTHER PROPERTY,49.595293683219175
Holly Park ,646.6297688756346,OTHER PROPERTY,22.793364378424627
Madison Park,365.68830051379365,EMBEZZLE,33.214008939836724
Rainier Beach,1412.4819927831659,CAR PROWL,78.00363769005037
Fairmount Park,205.0875494654456,BURGLARY,20.034437898543867
Meadowbrook,236.70009441432381,BURGLARY,15.389174413356148
West Woodland,463.89607754879904,BIKE THEFT,18.627204376518687
Northgate,82981.12569103591,OTHER PROPERTY,96.308382801313
Seward Park,205.57345772737867,CAR PROWL,17.487369741214952
University District,2252.016825997857,PROPERTY DAMAGE,20.02535115663523
First Hill,14066.441441243602,OTHER PROPERTY,75.91514109178192
Columbia City,3070.66905093335,CAR PROWL,38.64204868553045
North Beacon Hill,1396.0368926146882,SHOPLIFTING,25.561029039961127
