hood,influence,largestInfluencer,largestInfluencerPercent
Fremont,358.5559708196794,OTHER PROPERTY,20.704074112261655
Junction,442.2668706873015,CAR PROWL,27.27627951327312
Central,465.0831179171267,CAR PROWL,39.89144823577205
Ravenna,219.17406957516798,BURGLARY,29.38783512412539
Garfield,288.7063998661185,OTHER PROPERTY,25.96834970873496
Seaview,2765.976230902183,CAR PROWL,97.54912024866773
Green Lake,138.91776011810626,CAR PROWL,26.06241204810179
Minor,519.8231044714328,CAR PROWL,28.99191033504031
Roxhill,122.7552437567815,CAR PROWL,23.887666271781836
Rainier View,61.17089886195923,CAR PROWL,25.064084920337326
Denny - Blaine,143.20003202900403,CAR PROWL,31.303834885865157
Broadview,75.29973132919925,CAR PROWL,31.34257055062327
Pioneer Square,7401.284100065047,ASSAULT,27.72329342175566
Beacon Hill,102.9114647860055,BURGLARY,20.72896262260562
Lower Queen Anne,1859.0334614924334,ASSAULT,34.17410328917065
High Point,297.3644933170205,OTHER PROPERTY,33.021787234915564
Industrial District,85.56044125677542,CAR PROWL,20.328657906735614
Blue Ridge,129.5829109209718,VEHICLE THEFT,53.997390202301965
Maple Leaf,246.4498280339376,CAR PROWL,30.187772832311037
Greenwood,520.0122539967402,OTHER PROPERTY,54.11674285310396
Broadmoor,108.14759537831917,CAR PROWL,35.51571799392965
View Ridge,70.38132868392482,CAR PROWL,22.824776017616855
East Queen Anne,185.40499639895143,CAR PROWL,30.123035100002113
Whittier Heights,140.3680326753795,CAR PROWL,24.12740255005684
Riverview,63.189038326659315,CAR PROWL,17.960392781293177
Denny Triangle,361.5205436616447,CAR PROWL,23.158431195320166
Wedgwood,323.5606750667316,PROPERTY DAMAGE,46.61979137744821
Eastlake,276.31239133712086,CAR PROWL,40.89283961248715
North Delridge,84.60232760212226,CAR PROWL,21.148448363950017
Capitol Hill,805.7303090433398,OTHER PROPERTY,15.288707225186682
Atlantic,486.3412579702925,CAR PROWL,26.86732538497526
South Park,100.24783762622211,CAR PROWL,34.42966986275227
Matthews Beach,61.811874678150566,CAR PROWL,21.75245007177052
Mt. Baker,255.56522093333376,CAR PROWL,45.04681421818457
Magnolia,66.85025594024373,CAR PROWL,27.947519136312902
Sunset Hill,130.83033151774512,CAR PROWL,55.23885304553193
Montlake,135.47649033531215,CAR PROWL,30.291086474114017
Victory Heights,107.50855960271572,CAR PROWL,16.830024413926036
Phinney Ridge,160.2436362585633,CAR PROWL,29.556291752996408
Windermere,66.47611511908627,CAR PROWL,22.674633933082276
Haller Lake,117.29015717092142,BURGLARY,18.828025937356045
Highland Park,84.43406794472338,CAR PROWL,24.666487133027886
Admiral,75.29098856655986,CAR PROWL,23.44614957107483
Little Saigon,2105.791101080414,OTHER PROPERTY,17.437996659394244
Olympic Manor,2105.791101080414,OTHER PROPERTY,17.437996659394244
South Beacon Hill,72.91399060134594,CAR PROWL,15.446487681121747
Fauntleroy,69.55308135125208,CAR PROWL,20.230474090972386
Westlake,340.9574026919851,CAR PROWL,47.666102378073695
Leschi,254.99794009676856,CAR PROWL,39.750676256097535
South Lake Union,621.4182590572082,VIOLATION OF COURT ORDER,32.41760871780119
Cedar Park,229.20059748408775,OTHER PROPERTY,19.976405898124717
Interbay,113.30624632290436,CAR PROWL,24.001534884834534
Madrona,231.35673469017564,CAR PROWL,43.45290830408352
Downtown,2105.791101080414,OTHER PROPERTY,17.437996659394244
North Queen Anne,140.02904830792326,CAR PROWL,24.833313834539638
Portage Bay,371.1627411964846,CAR PROWL,53.51903539258623
Laurelhurst,108.21434940610597,CAR PROWL,39.37240662843256
Dunlap,4122.470466145118,BURGLARY,97.71184220241713
Judkins Park,497.39241629703014,TRAFFIC,52.64409231209387
International District,2186.770565621857,CAR PROWL,28.69728388897864
Arbor Heights,51.39324797121361,OTHER PROPERTY,25.064252268485557
South Delridge,576.1775574143114,ASSAULT,29.230939679137485
Ballard,171.8398465832332,CAR PROWL,24.423813309154813
Pinehurst,341.3250452896932,MAIL THEFT,41.91511094816815
Loyal Heights,200.10422723044417,CAR PROWL,33.3565573703096
Olympic Hills,112.06579082271567,OTHER PROPERTY,19.709620553080867
Cascade,100992.5967079404,CAR PROWL,99.17231217536137
Wallingford,434.6119572078351,CAR PROWL,34.121777988668114
Uptown,1859.0334614924334,ASSAULT,34.17410328917065
Crown Hill,207.04765017236005,COUNTERFEIT,40.15041986096633
Yesler Terrace ,817.6806421355267,CAR PROWL,19.770973762546305
Waterfront,4825.755398268214,PURSE SNATCH,67.6529258027041
Alki,98.52863254574113,BURGLARY,27.052081975082757
Hawthorne Hills,201.62335742972294,STOLEN PROPERTY,43.908743459367045
Lakewood,300.06344879832983,CAR PROWL,81.15486799756022
Gatewood,639.910036748494,MAIL THEFT,81.53397816828736
Jackson Place ,574.3669865727323,STOLEN PROPERTY,26.215096330655186
Madison Valley,207.77536613555964,CAR PROWL,36.025457572504855
Hillman City,256.40709366639766,BURGLARY,41.696913867510084
Bryant,134.51289812325882,CAR PROWL,26.58911165351649
North Beach,129.5829109209718,VEHICLE THEFT,53.997390202301965
Roosevelt,7198.872160273685,BIKE THEFT,94.58420906105168
North College Park,235.33684904385638,CAR PROWL,16.05883802340413
Bitter Lake,163.44311225943676,BURGLARY,21.851853439430986
Brighton,185.5916978508322,BURGLARY,21.023890021153136
West Queen Anne,145.21874656170925,CAR PROWL,25.550465372717984
Georgetown,615.0305771477601,DISTURBANCE,36.588044306450676
Genesee,109.46090438816161,CAR PROWL,22.389924395009103
Belltown,201706.83304715363,CAR PROWL,49.724634306182935
Holly Park ,173.61102647868768,ROBBERY,28.627432943251197
Madison Park,185.15938381226528,DISTURBANCE,34.1891456605504
Rainier Beach,151.55220393759961,CAR PROWL,68.91847403839736
Fairmount Park,149.27430195453843,CAR PROWL,22.670856871244265
Meadowbrook,106.95072118318026,BURGLARY,20.908520882349734
West Woodland,251.88020064352423,CAR PROWL,32.2598086065083
Northgate,1461.8025574011983,SHOPLIFTING,29.271787343886896
Seward Park,74.35481668136572,CAR PROWL,27.0273488825174
University District,2020.0971446651272,ASSAULT,17.316932722679304
First Hill,17847.30972645958,THREATS,31.93146124799103
Columbia City,856.68260143827,OTHER PROPERTY,72.27717835689778
North Beacon Hill,352.6750745235508,SHOPLIFTING,27.179609086490565
