hood,influence,lat,long
Mt. Baker,7.823928224048008,47.583237,-122.292342
Whittier Heights,1.5142537057591274,47.683059,-122.369514
Lower Queen Anne,14.49292441483389,47.62414,-122.35631
Haller Lake,0.7345139573645829,47.720027,-122.33389
Dunlap,1.1394215630972484,47.526109,-122.27208
Olympic Manor,959.6304855484923,47.606209,-122.332071
Madrona,12.428349910676854,47.613915,-122.288742
Little Saigon,959.6304855484923,47.606209,-122.332071
Olympic Hills,0.6724143509264071,47.723973,-122.30501
South Delridge,1.3133168677280382,47.526912,-122.360682
Beacon Hill,2.7318969373527033,47.552585,-122.300937
Alki,2.221373840721957,47.575463,-122.410658
North College Park,1.165608868089737,47.697236,-122.33761
Minor,56.35268612621137,47.607515,-122.309073
Jackson Place ,41.50117850144583,47.598803,-122.310284
Eastlake,7.914734830977477,47.641765,-122.326487
Crown Hill,1.0857817241816898,47.696062,-122.371798
Broadview,0.6885440655728534,47.720748,-122.367532
Laurelhurst,2.4516952495055677,47.660184,-122.281039
North Beach,0.9570302697501112,47.698279,-122.386521
Madison Park,5.145035876602674,47.634609,-122.279645
Columbia City,2.9975278704968535,47.559866,-122.286499
Rainier View,0.7152246702673777,47.503821,-122.260378
Wallingford,3.231619560957597,47.661258,-122.329891
Sunset Hill,1.1873651847205902,47.68143,-122.40075
Broadmoor,6.222072089075526,47.6362,-122.289753
Portage Bay,5.832589892329571,47.646928,-122.318802
West Woodland,2.250313504763299,47.66703,-122.368131
Hawthorne Hills,1.728306025262968,47.672292,-122.277413
South Lake Union,27.150719348302292,47.62557,-122.334388
Admiral,3.2681079131183504,47.579265,-122.394485
Waterfront,128.1875365302632,47.605452,-122.340148
Fairmount Park,2.2036613957015865,47.553543,-122.380356
Leschi,14.89058075424602,47.600309,-122.292811
Riverview,2.1656349817502907,47.544587,-122.352364
Junction,2.5953355174609967,47.563178,-122.386696
Hillman City,2.082437570712597,47.549469,-122.280412
Ballard,1.4147914730781472,47.679217,-122.386031
Downtown,959.6304855484923,47.606209,-122.332071
Madison Valley,11.7992896806415,47.622119,-122.292575
Meadowbrook,0.8999916053057478,47.706592,-122.294822
Cedar Park,0.6818893358395511,47.722128,-122.295926
Windermere,1.613727143112685,47.670505,-122.265652
Pinehurst,0.8247484668289817,47.713634,-122.32041
Seward Park,1.8001770222758657,47.55026,-122.26485
Fremont,3.89161901442422,47.654177,-122.35
View Ridge,1.278302286164285,47.684402,-122.273785
Northgate,0.9118471946399683,47.70859,-122.323235
Roxhill,1.2520067242310984,47.52673,-122.369928
Highland Park,1.3087405846253453,47.524698,-122.346023
Greenwood,1.1386295032381168,47.696873,-122.356176
Judkins Park,16.592841333825294,47.593173,-122.300505
Maple Leaf,1.1464222417570342,47.697595,-122.319047
Ravenna,1.8572249053409788,47.675861,-122.300939
Wedgwood,1.2443993909118547,47.690109,-122.290527
South Park,1.5687082577412441,47.531094,-122.325736
Denny - Blaine,9.43911946362136,47.621475,-122.286481
Garfield,10.863884481576674,47.633164,-122.348862
Blue Ridge,0.9570302697501112,47.698279,-122.386521
Industrial District,4.770040842742782,47.563958,-122.334335
Cascade,43.66434139543455,47.621969,-122.331715
Bryant,1.9560645039422986,47.670603,-122.28714
High Point,2.2653077170837266,47.550263,-122.369068
Montlake,6.590702267159823,47.641676,-122.30501
Capitol Hill,28.176214860456252,47.625305,-122.322183
Holly Park ,1.664932527951201,47.538914,-122.286104
Lakewood,2.6904846037714405,47.563155,-122.271791
Genesee,2.3738739317113606,47.563306,-122.392791
Victory Heights,0.8433938956945533,47.711406,-122.30569
Gatewood,1.5257197878270161,47.539951,-122.384389
Seaview,1.845160111761134,47.55229,-122.392991
Fauntleroy,1.0980106455177858,47.523969,-122.383002
Loyal Heights,1.3367849453928922,47.682246,-122.385132
Atlantic,33.247393600163285,47.59719,-122.308864
North Delridge,3.4175368602474716,47.562347,-122.365478
Magnolia,2.7499135651873745,47.63963,-122.39966
Central,20.217972728588418,47.608758,-122.296424
Georgetown,2.203634610881309,47.543172,-122.322136
Westlake,13.421626446204854,47.632197,-122.341627
South Beacon Hill,1.4249637964001345,47.531799,-122.28876
Rainier Beach,0.8388345536699101,47.512255,-122.263976
First Hill,1325.1309916655753,47.609369,-122.325036
Denny Triangle,21.944659440257492,47.628132,-122.329114
Bitter Lake,0.647103175524703,47.726327,-122.352019
International District,104.91668052069727,47.598712,-122.323976
Pioneer Square,165.0259726630819,47.601518,-122.334297
Roosevelt,1.8507456474258979,47.678088,-122.315646
North Queen Anne,4.615417398564314,47.644511,-122.365608
North Beacon Hill,9.9478335732361,47.579421,-122.311323
Interbay,3.8129181928307956,47.640673,-122.38211
Matthews Beach,1.0264201804260011,47.695897,-122.276218
Green Lake,2.0317810762956072,47.67666,-122.337595
West Queen Anne,6.660167115184941,47.632407,-122.369207
Uptown,14.49292441483389,47.62414,-122.35631
Phinney Ridge,5.827170692654154,47.674783,-122.356601
Arbor Heights,0.8426167558151463,47.509502,-122.381167
Yesler Terrace ,166.45480199482466,47.602803,-122.319687
Brighton,1.4385297599289106,47.536055,-122.275231
East Queen Anne,7.885980908075981,47.638823,-122.348868
University District,2.9569514724210566,47.662777,-122.313877
Belltown,51.871688490378354,47.614702,-122.344796
