hood,influence,lat,long
Mt. Baker,1.156543059863221,47.583237,-122.292342
Whittier Heights,0.37432070609313073,47.683059,-122.369514
Lower Queen Anne,1.4060623376841397,47.62414,-122.35631
Haller Lake,0.20053827706635943,47.720027,-122.33389
Dunlap,1.5493159773057734,47.526109,-122.27208
Olympic Manor,1.69764364928904,47.606209,-122.332071
Madrona,0.7458188525042422,47.613915,-122.288742
Little Saigon,1.69764364928904,47.606209,-122.332071
Olympic Hills,0.17761329188937133,47.723973,-122.30501
South Delridge,2.11799103358901,47.526912,-122.360682
Beacon Hill,2.2885937133138037,47.552585,-122.300937
Alki,21.82772462785468,47.575463,-122.410658
North College Park,0.27583492766116285,47.697236,-122.33761
Minor,1.1077398222122077,47.607515,-122.309073
Jackson Place ,1.309120974312166,47.598803,-122.310284
Eastlake,0.6887159539177725,47.641765,-122.326487
Crown Hill,0.31308516708047673,47.696062,-122.371798
Broadview,0.21163203173954584,47.720748,-122.367532
Laurelhurst,0.3576507651347157,47.660184,-122.281039
North Beach,0.40788183937322775,47.698279,-122.386521
Madison Park,0.5025397019724214,47.634609,-122.279645
Columbia City,1.4738110616141622,47.559866,-122.286499
Rainier View,0.6074547184466438,47.503821,-122.260378
Wallingford,0.48123349639832147,47.661258,-122.329891
Sunset Hill,0.39483992124202966,47.68143,-122.40075
Broadmoor,0.5427085171031425,47.6362,-122.289753
Portage Bay,0.5851781790996485,47.646928,-122.318802
West Woodland,0.49750814707701985,47.66703,-122.368131
Hawthorne Hills,0.2977600939451053,47.672292,-122.277413
South Lake Union,1.0726283954992761,47.62557,-122.334388
Admiral,89.47607361595603,47.579265,-122.394485
Waterfront,2.0224625517726262,47.605452,-122.340148
Fairmount Park,10.219694903996295,47.553543,-122.380356
Leschi,0.9528337641376678,47.600309,-122.292811
Riverview,3.5421167512428093,47.544587,-122.352364
Junction,41.65388846986906,47.563178,-122.386696
Hillman City,2.250477315251757,47.549469,-122.280412
Ballard,0.4083540888424478,47.679217,-122.386031
Downtown,1.69764364928904,47.606209,-122.332071
Madison Valley,0.693798087391814,47.622119,-122.292575
Meadowbrook,0.21087156405667612,47.706592,-122.294822
Cedar Park,0.17656457292246708,47.722128,-122.295926
Windermere,0.28279963485274284,47.670505,-122.265652
Pinehurst,0.21014727879806458,47.713634,-122.32041
Seward Park,1.3336085112994425,47.55026,-122.26485
Fremont,0.6135799885627552,47.654177,-122.35
View Ridge,0.25094878014474314,47.684402,-122.273785
Northgate,0.2260717827049573,47.70859,-122.323235
Roxhill,2.1294470121983364,47.52673,-122.369928
Highland Park,2.115350176948601,47.524698,-122.346023
Greenwood,0.2922014894555338,47.696873,-122.356176
Judkins Park,1.1889765583805871,47.593173,-122.300505
Maple Leaf,0.2585293482485554,47.697595,-122.319047
Ravenna,0.3247580922168968,47.675861,-122.300939
Wedgwood,0.25421403887909044,47.690109,-122.290527
South Park,8.107009402726415,47.531094,-122.325736
Denny - Blaine,0.6510498601870092,47.621475,-122.286481
Garfield,1.0125020327247345,47.633164,-122.348862
Blue Ridge,0.40788183937322775,47.698279,-122.386521
Industrial District,3.2813817423508427,47.563958,-122.334335
Cascade,1.1358243644707506,47.621969,-122.331715
Bryant,0.32309403007478577,47.670603,-122.28714
High Point,6.168740502321283,47.550263,-122.369068
Montlake,0.5733832320626192,47.641676,-122.30501
Capitol Hill,0.9365676006217187,47.625305,-122.322183
Holly Park ,9.86714946793027,47.538914,-122.286104
Lakewood,1.0742033561881965,47.563155,-122.271791
Genesee,44.02265973587605,47.563306,-122.392791
Victory Heights,0.20659170816632558,47.711406,-122.30569
Gatewood,4.03304248119976,47.539951,-122.384389
Seaview,9.967837908485054,47.55229,-122.392991
Fauntleroy,1.9474271474659155,47.523969,-122.383002
Loyal Heights,0.3906606418659439,47.682246,-122.385132
Atlantic,1.3078953670818798,47.59719,-122.308864
North Delridge,11.012494575190477,47.562347,-122.365478
Magnolia,0.9814342285571206,47.63963,-122.39966
Central,0.8943688945287134,47.608758,-122.296424
Georgetown,7.627796499371572,47.543172,-122.322136
Westlake,0.9765405269597585,47.632197,-122.341627
South Beacon Hill,3.241245376141856,47.531799,-122.28876
Rainier Beach,0.7499619621239292,47.512255,-122.263976
First Hill,1.3899028194342011,47.609369,-122.325036
Denny Triangle,0.9513939636949025,47.628132,-122.329114
Bitter Lake,0.19166911987035126,47.726327,-122.352019
International District,1.7137545504185068,47.598712,-122.323976
Pioneer Square,1.999428205111333,47.601518,-122.334297
Roosevelt,0.3382481271439508,47.678088,-122.315646
North Queen Anne,0.824842760494278,47.644511,-122.365608
North Beacon Hill,1.7262053136076412,47.579421,-122.311323
Interbay,0.9574270780968847,47.640673,-122.38211
Matthews Beach,0.2215862345339742,47.695897,-122.276218
Green Lake,0.3799758176272296,47.67666,-122.337595
West Queen Anne,1.1816613589619298,47.632407,-122.369207
Uptown,1.4060623376841397,47.62414,-122.35631
Phinney Ridge,0.41793746699847334,47.674783,-122.356601
Arbor Heights,1.2097578240647409,47.509502,-122.381167
Yesler Terrace ,1.4518690484032641,47.602803,-122.319687
Brighton,8.305224119150413,47.536055,-122.275231
East Queen Anne,0.8736002832739012,47.638823,-122.348868
University District,0.42758598069863635,47.662777,-122.313877
Belltown,1.653943367735625,47.614702,-122.344796
