year,month,cumulativeInfluence
2001,8,1.4147914730781472
2002,9,2.5230961998146944
2002,10,2.5320110616326574
2003,7,2.5320560457219705
2003,10,2.5373124816217905
2003,11,2.912553015701749
2003,12,2.940365150475105
2004,1,2.9431673763902206
2004,2,4.356132617979312
2004,3,5.883068368313045
2004,4,9.130793228768063
2004,5,21.198890447274852
2004,6,21.23226647011336
2004,7,28.22860609443367
2004,8,29.085018164740095
2004,9,29.174499852538393
2004,10,38.01494664213882
2004,11,56.072561969236574
2004,12,116.5254761179763
2005,1,116.66516681267235
2005,2,117.3917682840645
2005,3,120.6488250585038
2005,4,156.54230416473368
2005,5,159.19625102872183
2005,6,159.20501521036616
2005,7,161.04806979811164
2005,8,163.05595926901168
2005,9,163.78507915302876
2005,10,166.2983190623001
2005,11,167.4227407099812
2005,12,169.0203170569838
2006,1,175.2506607911722
2006,2,178.04630610228548
2006,3,183.85069478169453
2006,4,242.57370820612607
2006,5,253.60746936182747
2006,6,266.71696399424303
2006,7,277.249539415095
2006,8,287.30791508503205
2006,9,293.58454082875556
2006,10,315.59245119463753
2006,11,321.2365587756462
2006,12,327.0257945743988
2007,1,343.0139301357731
2007,2,381.67106634177657
2007,3,391.4206274175042
2007,4,398.52131409600986
2007,5,413.81437013265474
2007,6,445.66587583057577
2007,7,456.10363315172856
2007,8,477.8645787258123
2007,9,489.38618117592205
2007,10,509.7463027728791
2007,11,517.297665834708
2007,12,523.638132144456
2008,1,543.7831023790277
2008,2,553.3244000035255
2008,3,558.5881842141267
2008,4,563.0238990654672
2008,5,588.6336223418941
2008,6,601.9944398546822
2008,7,607.1669962911319
2008,8,619.789258717588
2008,9,627.0200292371229
2008,10,637.5558341241456
2008,11,658.4820676863961
2008,12,663.1571495152143
2009,1,669.4675322800298
2009,2,677.5058846996491
2009,3,686.702275929078
2009,4,734.2554180085043
2009,5,737.6226663268145
2009,6,751.3942163350184
2009,7,765.3284949050446
2009,8,773.5803201692999
2009,9,825.2233188885044
2009,10,831.6447560596689
2009,11,838.7373402187859
2009,12,846.0530711895896
2010,1,855.8121825355564
2010,2,872.5834867552175
2010,3,889.3685634131458
2010,4,893.560485407498
2010,5,899.3671190077691
2010,6,904.5973022779874
2010,7,910.9236257753047
2010,8,935.6176959947055
2010,9,986.0687699411458
2010,10,994.1216345879863
2010,11,998.9841272980458
2010,12,1005.0409516787471
2011,1,1017.1959854525583
2011,2,1022.7664194686936
2011,3,1084.2919728168793
2011,4,1102.0685705629976
2011,5,1113.9307258318086
2011,6,1122.0227121950734
2011,7,1144.371424838994
2011,8,1155.077815716585
2011,9,1163.8930733495574
2011,10,1238.3626090261985
2011,11,1257.375851806219
2011,12,1331.5585185811901
2012,1,1341.1673558385182
2012,2,1365.197058807637
2012,3,1375.344145549879
2012,4,1383.4841575015455
2012,5,1388.0914949830415
2012,6,1400.0789944598725
2012,7,1415.6480747323776
2012,8,1428.720067149304
2012,9,1445.4178623300181
2012,10,1451.9861649031182
2012,11,1588.832771598735
2012,12,1594.546059748028
2013,1,1602.4401766938515
2013,2,1612.1656316942315
2013,3,1619.7637612335448
2013,4,1632.1900557821812
2013,5,1642.4117918541433
2013,6,1655.6587026377767
2013,7,1662.7278726766456
2013,8,1693.2372824749289
2013,9,1755.7209988243158
2013,10,1784.208160630529
2013,11,1832.9107072976794
2013,12,1842.8984871087987
2014,1,1884.8455687564758
2014,2,1896.0344859750912
2014,3,2173.1048299296617
2014,4,2195.6171823229615
2014,5,2260.5471412134784
2014,6,2266.2362362564168
2014,7,2293.330680767751
2014,8,2328.786079199974
2014,9,2337.64075035565
2014,10,2360.6737385014358
2014,11,2396.116726932809
2014,12,2407.5306595672605
2015,1,2415.707137039064
2015,2,2491.955751809088
2015,3,2520.0123907703137
2015,4,2532.8117765813677
2015,5,2543.681686618614
2015,6,2606.4237484565037
2015,7,2622.443351602456
2015,8,2647.379953325421
2015,9,2677.607338809207
2015,10,2685.9353000769847
2015,11,2791.341873776685
2015,12,2793.6720297876223
