year,month,cumulativeInfluence
2001,8,1.4385297599289106
2002,9,1.4655364813280223
2002,10,1.492657879557749
2003,7,1.4938362136396393
2003,10,8.779746139595696
2003,11,9.35285152721871
2003,12,9.797881998708162
2004,1,9.801146077911756
2004,2,10.136519736926811
2004,3,10.330070501658671
2004,4,11.205024672185116
2004,5,11.462888164736853
2004,6,11.494289182275917
2004,7,12.70918038417587
2004,8,13.024878622556079
2004,9,13.225212235469757
2004,10,13.957908217951152
2004,11,14.15403323993273
2004,12,22.76256969430238
2005,1,22.87348188139965
2005,2,22.911889618773444
2005,3,27.93005621791942
2005,4,29.7886535083234
2005,5,31.379630791784827
2005,6,31.38369550685386
2005,7,32.27661395102747
2005,8,33.52615765903707
2005,9,36.09561368624743
2005,10,37.41711367789712
2005,11,40.80547290959298
2005,12,41.32460050005706
2006,1,43.568075799534746
2006,2,44.70662680083258
2006,3,49.75271572892616
2006,4,54.942143642036164
2006,5,60.61074959063781
2006,6,80.26056360103325
2006,7,83.66118579557903
2006,8,87.29679958683708
2006,9,91.97643332648022
2006,10,99.97628082160315
2006,11,105.72018204908353
2006,12,108.07331332546211
2007,1,111.09956774437765
2007,2,126.86787511292619
2007,3,132.3113244277903
2007,4,135.06190563005833
2007,5,141.60273490372572
2007,6,146.8009120744466
2007,7,153.00431453494
2007,8,162.722152176947
2007,9,167.45884254418516
2007,10,178.73515010134744
2007,11,185.30668378491382
2007,12,190.47623748393184
2008,1,200.65933025198674
2008,2,210.74652924684557
2008,3,214.4055753404269
2008,4,228.3972322094954
2008,5,314.20139783208003
2008,6,321.9739604128633
2008,7,325.02186503655645
2008,8,329.46926831177876
2008,9,359.919827377886
2008,10,366.8930171384583
2008,11,369.8481457216235
2008,12,372.40609879557667
2009,1,376.7455042458483
2009,2,382.60136112482866
2009,3,387.2951474828899
2009,4,396.9603969305521
2009,5,400.9738893344632
2009,6,430.96499566911643
2009,7,440.0368371403332
2009,8,690.9553915628409
2009,9,697.9514094147926
2009,10,701.5944821097087
2009,11,706.2509409878267
2009,12,710.0529027782784
2010,1,2047.7197224707859
2010,2,2048.857200363298
2010,3,2055.8566175415267
2010,4,2057.8822065770896
2010,5,2062.5849326605894
2010,6,2064.728111939592
2010,7,2078.5144108577174
2010,8,2081.9270309152616
2010,9,2090.250770585589
2010,10,2094.830744792406
2010,11,2098.017279540206
2010,12,2101.809097926462
2011,1,2109.9043918072384
2011,2,2111.919755760952
2011,3,2117.464404520997
2011,4,2127.161076388479
2011,5,2133.7751278361147
2011,6,2138.3161532635745
2011,7,2140.794074342031
2011,8,2144.081726508994
2011,9,2149.9692475488946
2011,10,2154.180485184681
2011,11,2162.541099499589
2011,12,2163.497528356825
2012,1,2167.394625730349
2012,2,2169.2895895311876
2012,3,2172.307543797076
2012,4,2176.525960251898
2012,5,2179.1586054930804
2012,6,2182.585505291752
2012,7,2187.9720705646837
2012,8,2203.970411269159
2012,9,2212.7520707115987
2012,10,2219.7413010850983
2012,11,2222.137496770925
2012,12,2224.6012952712817
2013,1,2231.4681830139516
2013,2,2249.9533591636637
2013,3,2253.4633910437033
2013,4,2260.6926273356466
2013,5,2265.573094329202
2013,6,2287.6769380588917
2013,7,2291.0160377059588
2013,8,2296.2479788954593
2013,9,2315.7596259533225
2013,10,2334.6277577041747
2013,11,2371.2875969539905
2013,12,2375.6956670689688
2014,1,2384.7329165002834
2014,2,2394.0080149571263
2014,3,2399.1337768727067
2014,4,2405.1059633291507
2014,5,2410.758358401711
2014,6,2414.52846875223
2014,7,2438.0140945093426
2014,8,2444.1235869539496
2014,9,2449.3682053742814
2014,10,2456.432371402465
2014,11,2477.4566040160003
2014,12,2484.3229997546314
2015,1,2489.885899029007
2015,2,2500.173491999005
2015,3,2515.3300060502097
2015,4,2521.796761889488
2015,5,2524.937644005626
2015,6,2530.632288706296
2015,7,2535.539021299907
2015,8,2545.494963578042
2015,9,2565.3837423573013
2015,10,2570.447346828504
2015,11,2580.3325013641906
2015,12,2583.087127836851
