year,month,cumulativeInfluence
2001,8,1.1394215630972484
2002,9,1.1634621589507974
2002,10,1.1839182675487863
2003,7,1.1860065813506733
2003,10,1.8888887968390287
2003,11,2.383724191079563
2003,12,2.7332342448545597
2004,1,2.735800882688962
2004,2,3.0143635941165448
2004,3,3.171327107692926
2004,4,3.8546907383817386
2004,5,4.248546695701796
2004,6,4.272960973893404
2004,7,5.2719758797864165
2004,8,5.523677546360653
2004,9,5.684566974101953
2004,10,6.807556336664932
2004,11,6.916457707365218
2004,12,13.839924721454508
2005,1,13.925901835072263
2005,2,13.960179147918279
2005,3,17.575922791790923
2005,4,19.00531965835956
2005,5,20.284579028709786
2005,6,20.287921584661845
2005,7,20.948592807876814
2005,8,22.38324327985097
2005,9,24.344634429678234
2005,10,25.389198444301623
2005,11,26.719135456109722
2005,12,27.10365937151012
2006,1,28.897258770263694
2006,2,29.8231365399499
2006,3,33.88356380603818
2006,4,37.16281763944371
2006,5,41.332092354679574
2006,6,52.48707392120594
2006,7,55.214752432443795
2006,8,58.03314010491857
2006,9,61.89322520858939
2006,10,67.4394946427974
2006,11,76.96386405584425
2006,12,78.80465603449835
2007,1,81.14138905732048
2007,2,87.22333232652461
2007,3,91.91051730824836
2007,4,94.14565302137143
2007,5,99.06903900688157
2007,6,138.50278949811496
2007,7,148.27126174399507
2007,8,156.48395624981558
2007,9,161.11275908850007
2007,10,183.62478312847185
2007,11,188.60613940210752
2007,12,192.6160761518191
2008,1,202.65186287478565
2008,2,211.00996938593295
2008,3,213.85746318920806
2008,4,219.3182070242031
2008,5,239.2087306074809
2008,6,256.61996284681936
2008,7,259.1832993805017
2008,8,262.68678367880176
2008,9,279.03143085929804
2008,10,287.4555441310345
2008,11,289.7206854154282
2008,12,292.74402813269063
2009,1,296.17362543992925
2009,2,299.34079843353794
2009,3,302.9575088370594
2009,4,316.84376959306064
2009,5,320.33030198048056
2009,6,331.55227570395834
2009,7,336.7797969678984
2009,8,358.6343278197371
2009,9,380.4066865985786
2009,10,383.01094354452295
2009,11,386.6129526364262
2009,12,389.6937824281108
2010,1,662.7506126384042
2010,2,663.5565957261613
2010,3,669.6559198928568
2010,4,671.3357423695176
2010,5,675.2280247028444
2010,6,676.8588289700157
2010,7,681.8659356871271
2010,8,689.504725596401
2010,9,693.9734354356859
2010,10,697.6980787272537
2010,11,700.001100912782
2010,12,703.0720301674795
2011,1,709.8162014195545
2011,2,711.5198326263073
2011,3,715.9984020053321
2011,4,723.7587909159865
2011,5,728.8984296535295
2011,6,734.2425190534318
2011,7,736.1593565471684
2011,8,738.8204453932859
2011,9,743.4553782746768
2011,10,748.095294221983
2011,11,751.0167688998412
2011,12,752.1403308483425
2012,1,756.5786782148098
2012,2,758.2035786961444
2012,3,760.5645582721587
2012,4,763.9473099534836
2012,5,766.2159388904339
2012,6,769.1067104721905
2012,7,773.5250183952802
2012,8,783.4283930860986
2012,9,790.0883276585242
2012,10,796.442152286574
2012,11,799.8357867987684
2012,12,801.3189633878812
2013,1,805.9266961823043
2013,2,809.0832800859137
2013,3,812.9926721180642
2013,4,818.1755031941951
2013,5,822.795971837661
2013,6,831.7874736158766
2013,7,834.3707063920205
2013,8,839.4240059209933
2013,9,850.4095110760417
2013,10,865.2886521296053
2013,11,888.9019960345457
2013,12,892.4980988345135
2014,1,899.4913997487027
2014,2,907.0003938861012
2014,3,911.1600330179797
2014,4,917.3731490064289
2014,5,921.9372895795703
2014,6,926.7130585246624
2014,7,945.6580265615128
2014,8,953.2739773483306
2014,9,957.0392046359044
2014,10,963.0380307446892
2014,11,978.4831283897397
2014,12,983.9802451246761
2015,1,988.5000441706998
2015,2,996.4321017655736
2015,3,1024.7319141367336
2015,4,1028.6510760265812
2015,5,1031.0395785556393
2015,6,1035.4141522753189
2015,7,1039.1111402668696
2015,8,1049.6978386763326
2015,9,1065.5966804690438
2015,10,1069.4877295448825
2015,11,1074.7394330722343
2015,12,1076.8615037121897
