year,month,cumulativeInfluence
2001,8,10.863884481576674
2002,9,11.058588261043745
2002,10,11.09296001128396
2003,7,11.093042408985722
2003,10,11.10483017931306
2003,11,12.067547171910107
2003,12,12.105462044008696
2004,1,12.1214700192852
2004,2,25.591916885775746
2004,3,28.20946398030482
2004,4,36.14482658829538
2004,5,38.80559937902402
2004,6,38.98146403655099
2004,7,47.62038127327623
2004,8,48.76776149652831
2004,9,49.09543917146063
2004,10,58.83327216298841
2004,11,59.91130091397867
2004,12,140.2462073630724
2005,1,141.83668252363626
2005,2,142.07004413123968
2005,3,162.30189928102612
2005,4,168.1156046197697
2005,5,208.72125487672275
2005,6,208.94287107798743
2005,7,233.5871321088424
2005,8,256.9396127007586
2005,9,264.0133383701563
2005,10,286.68607239560663
2005,11,292.493491352034
2005,12,301.54623522723386
2006,1,347.1052029510811
2006,2,369.13651484433
2006,3,399.1077494408944
2006,4,428.5913374918237
2006,5,485.94947762804037
2006,6,568.1454302024089
2006,7,648.3950993949683
2006,8,692.9786810808416
2006,9,760.7769371563937
2006,10,898.033289753357
2006,11,945.764123909851
2006,12,995.2614799092306
2007,1,1033.587157227927
2007,2,1215.8639492817897
2007,3,1279.6091696981416
2007,4,1365.5088770309305
2007,5,1431.7245649586887
2007,6,1498.7672286514114
2007,7,1584.9828051262432
2007,8,1744.3071196317655
2007,9,1872.720039262221
2007,10,2033.5943944791156
2007,11,2088.1059583417023
2007,12,2133.015106830944
2008,1,2295.7249398651993
2008,2,2349.572210364017
2008,3,2399.718038558912
2008,4,2467.362453593259
2008,5,2504.6345024149127
2008,6,2727.3269444920056
2008,7,2801.3147272704587
2008,8,2845.163894255592
2008,9,2882.214901085406
2008,10,2930.2635255673217
2008,11,2941.7052734867084
2008,12,2987.606421920706
2009,1,3107.8276589647785
2009,2,3287.7799352345996
2009,3,3472.835026759549
2009,4,3860.5714624355514
2009,5,3900.3871327738625
2009,6,3940.9875880969676
2009,7,4063.338046457467
2009,8,4105.7425297920545
2009,9,4268.993352053461
2009,10,4350.64653843727
2009,11,4401.089453388201
2009,12,4497.925890007776
2010,1,4510.236290525999
2010,2,4531.758631053638
2010,3,4681.753641180648
2010,4,4725.58714870303
2010,5,4744.5949278646585
2010,6,4777.325585109412
2010,7,4860.9790972307355
2010,8,4892.454744567711
2010,9,4937.2458498231035
2010,10,5028.461241296262
2010,11,5085.917750768401
2010,12,5201.19138421603
2011,1,5250.6792514937915
2011,2,5284.465504409079
2011,3,5439.829671872935
2011,4,5553.560771138036
2011,5,5782.4644590786165
2011,6,5829.725292664504
2011,7,5887.315022045334
2011,8,6175.97733939981
2011,9,6250.409206994171
2011,10,6295.872662879555
2011,11,6358.99848389062
2011,12,6370.70213660383
2012,1,6478.455304976652
2012,2,6497.795236033032
2012,3,6551.071374688724
2012,4,6637.338599719864
2012,5,6665.388822875745
2012,6,6745.476930930246
2012,7,6998.901520633753
2012,8,7143.767706278966
2012,9,7233.973550258827
2012,10,7275.084221100828
2012,11,7306.479589177207
2012,12,7331.347443542124
2013,1,7588.511320112538
2013,2,7666.471022584969
2013,3,7710.290782178158
2013,4,7939.812419277407
2013,5,7983.970986948892
2013,6,8777.897884508295
2013,7,8814.170689274388
2013,8,8847.020364088321
2013,9,9008.639866800033
2013,10,9311.3269367959
2013,11,9502.43080434101
2013,12,9657.649890351126
2014,1,10023.710362180507
2014,2,10218.589524898049
2014,3,10294.054547809043
2014,4,10428.212098390488
2014,5,10581.816661765144
2014,6,10639.866392057398
2014,7,11004.264384770344
2014,8,11334.349004679321
2014,9,11514.696958669256
2014,10,11687.224767968497
2014,11,12040.878361479894
2014,12,12201.687188154201
2015,1,12315.764777337758
2015,2,12525.084829438934
2015,3,12688.040125742478
2015,4,13414.525281501985
2015,5,13471.456271945988
2015,6,13574.015747344356
2015,7,13660.650937636212
2015,8,13921.880067918839
2015,9,14551.84111980487
2015,10,14626.577540337454
2015,11,14680.565195386822
2015,12,14705.476466095066
