year,month,cumulativeInfluence
2001,8,1.3087405846253453
2002,9,1.3349555671903426
2002,10,1.3648989154047222
2003,7,1.3652755021274374
2003,10,1.4257003098894236
2003,11,2.73983726137765
2003,12,3.480249092353323
2004,1,3.482652389104517
2004,2,3.816486358164644
2004,3,4.012143359639612
2004,4,4.699841595243028
2004,5,4.889684866056094
2004,6,4.926729065358694
2004,7,5.888223296858711
2004,8,6.192734349145025
2004,9,6.541826716719076
2004,10,7.199453346450868
2004,11,7.2939724104718895
2004,12,15.869827036387226
2005,1,15.980285870257644
2005,2,16.016347739745324
2005,3,20.373854822142874
2005,4,22.213846730598434
2005,5,23.708034095064683
2005,6,23.712001235725914
2005,7,24.567587439028493
2005,8,25.767376229032774
2005,9,27.394442040356815
2005,10,29.031703582217045
2005,11,29.89128323088857
2005,12,30.65551120600464
2006,1,34.24219857640988
2006,2,35.48951155392933
2006,3,42.9949372213756
2006,4,46.33817509578261
2006,5,55.15448613605689
2006,6,58.417316335750684
2006,7,62.36925179752991
2006,8,65.99533231040405
2006,9,73.21119719671395
2006,10,79.33973021909577
2006,11,81.90683733552417
2006,12,85.08821297270613
2007,1,88.6081363131864
2007,2,94.66916118385338
2007,3,99.54012957210021
2007,4,103.38051628094713
2007,5,109.42233229432695
2007,6,114.07717357037224
2007,7,120.72179814606967
2007,8,130.4062840407365
2007,9,137.38145259165196
2007,10,151.1422025562146
2007,11,155.0426181415022
2007,12,161.1594359591277
2008,1,170.91971028453068
2008,2,4098.3405257861805
2008,3,4101.803381000088
2008,4,4107.312492369876
2008,5,4114.038701117829
2008,6,4121.082861919889
2008,7,4125.449236846102
2008,8,4130.7652712284125
2008,9,4137.375908002254
2008,10,4199.445049631826
2008,11,4203.77787923011
2008,12,4206.7083996558795
2009,1,4212.389011812786
2009,2,4216.628003841349
2009,3,4220.967075758294
2009,4,4233.616020038955
2009,5,4293.826715862128
2009,6,4356.250409502813
2009,7,4361.443894762431
2009,8,4365.773394363068
2009,9,4368.715768437418
2009,10,4371.177182681744
2009,11,4375.64118421633
2009,12,4379.5148299307375
2010,1,4391.917772852115
2010,2,4392.925762235569
2010,3,4400.081736740433
2010,4,4403.479596664496
2010,5,4408.3988829747905
2010,6,4410.439174056081
2010,7,4415.116793997983
2010,8,4416.8966308355275
2010,9,4420.334080452444
2010,10,4424.775616955821
2010,11,4430.483876953761
2010,12,4434.944573646237
2011,1,4472.196643289086
2011,2,4475.380992217196
2011,3,4480.4745077754405
2011,4,4489.360942218666
2011,5,4495.670603208343
2011,6,4500.093559734315
2011,7,4502.2453517289
2011,8,4506.613608614441
2011,9,4512.219762447979
2011,10,4516.281313612775
2011,11,4519.5090101912
2011,12,4520.734745832456
2012,1,4525.046542209776
2012,2,4526.93225178052
2012,3,4529.970766956727
2012,4,4533.5727711035815
2012,5,4535.511379876031
2012,6,4542.127671653965
2012,7,4547.595454008894
2012,8,4560.7707392021775
2012,9,4570.898198043629
2012,10,4577.203680423937
2012,11,4579.458673943945
2012,12,4581.415655818225
2013,1,4585.324307655727
2013,2,4587.8377712886695
2013,3,4590.135698061296
2013,4,4596.377355093714
2013,5,4601.938565154238
2013,6,4608.877407640657
2013,7,4612.678009047274
2013,8,4619.129903936135
2013,9,4638.287071298558
2013,10,4656.838618500964
2013,11,4675.763551969969
2013,12,4680.408651479489
2014,1,4690.633337933235
2014,2,4706.14480933299
2014,3,4711.411555553546
2014,4,4716.68417436441
2014,5,4722.291609331665
2014,6,4726.253507931876
2014,7,4742.719593909686
2014,8,4748.456402617695
2014,9,4752.754719121357
2014,10,4760.448719599987
2014,11,4776.955948251735
2014,12,4783.1413991952695
2015,1,4788.535172205182
2015,2,4797.622693442103
2015,3,4810.034053201286
2015,4,4813.450000820997
2015,5,4817.041877146453
2015,6,4822.215931465642
2015,7,4826.968468769474
2015,8,4836.7889041305725
2015,9,4856.390355009699
2015,10,4860.316396469369
2015,11,4863.893832654518
2015,12,4866.472297337087
