year,month,cumulativeInfluence
2001,8,2.5953355174609967
2002,9,2.6379686981058983
2002,10,2.6987493641918148
2003,7,2.698894855845811
2003,10,2.721568158675349
2003,11,44.226643022000275
2003,12,44.35263783406087
2004,1,44.35635497628206
2004,2,45.06367690606574
2004,3,45.50452445942441
2004,4,46.56019004008816
2004,5,46.86434922178614
2004,6,46.912808782108655
2004,7,48.38688245632551
2004,8,48.98697441550117
2004,9,2246.5344573696807
2004,10,2247.596320501214
2004,11,2247.771164555374
2004,12,2266.861853042396
2005,1,2267.102711024656
2005,2,2267.158499397388
2005,3,2273.238372386341
2005,4,2276.948192732793
2005,5,2280.0528415894923
2005,6,2280.061251824912
2005,7,2283.204645967042
2005,8,2285.8657886813544
2005,9,2468.3967281804075
2005,10,2471.473413017617
2005,11,2473.1421939162283
2005,12,2474.4040026321636
2006,1,2481.069603152548
2006,2,2484.3711758418785
2006,3,2494.162499160742
2006,4,2503.962550358149
2006,5,2559.5566971542676
2006,6,2565.8072431733776
2006,7,2666.9624843431325
2006,8,2675.1896397947085
2006,9,2684.1615462196182
2006,10,2700.3956979133313
2006,11,2731.824717007156
2006,12,2737.4607445251354
2007,1,3046.39755791112
2007,2,3058.120790478562
2007,3,5572.435981139624
2007,4,5733.948087555206
2007,5,5744.519834108254
2007,6,5752.0407497886345
2007,7,5766.561688183007
2007,8,5783.527131055951
2007,9,5950.217191781835
2007,10,7634.744743634975
2007,11,7648.511598294359
2007,12,8028.9486442329035
2008,1,8179.609723241134
2008,2,8245.99932589907
2008,3,8254.391932523657
2008,4,8265.123892157975
2008,5,9177.42503734501
2008,6,9187.438457769897
2008,7,9209.439526008646
2008,8,9297.70394397212
2008,9,9581.360114815603
2008,10,9644.307131323289
2008,11,9963.520783920476
2008,12,9969.954513347735
2009,1,9983.46525618835
2009,2,9994.53671743838
2009,3,10082.197278151307
2009,4,10101.691919764295
2009,5,10115.197129663846
2009,6,10135.858497726978
2009,7,10204.339384105502
2009,8,10210.020509479431
2009,9,10223.170708697357
2009,10,10226.691463746769
2009,11,10240.158771245622
2009,12,10263.219156975583
2010,1,10532.362940713268
2010,2,10535.017597910282
2010,3,10573.441733751375
2010,4,10577.866630079394
2010,5,10602.546609855182
2010,6,10608.598286885921
2010,7,10627.586302580568
2010,8,10666.181186312935
2010,9,10680.73326501837
2010,10,10692.420610070367
2010,11,10723.23015443995
2010,12,10730.27200830652
2011,1,10752.217477456938
2011,2,10755.692517017102
2011,3,10767.522517772908
2011,4,10788.08901723796
2011,5,10822.048028392543
2011,6,10866.614825694742
2011,7,10871.372767633316
2011,8,10888.383917907484
2011,9,10932.72735182137
2011,10,10992.331262149422
2011,11,11009.776181021849
2011,12,11015.566704072346
2012,1,11091.422497115827
2012,2,11094.843345094156
2012,3,11100.836900053138
2012,4,11108.170465989104
2012,5,11121.162878011379
2012,6,11331.245614311882
2012,7,11342.28792427951
2012,8,15881.101562956013
2012,9,15895.370361970408
2012,10,15908.868916636
2012,11,15913.063989233862
2012,12,15918.251714846258
2013,1,15965.08113381089
2013,2,15969.431997768956
2013,3,15972.572451400614
2013,4,15985.023208088825
2013,5,15996.529631706888
2013,6,16039.763472912362
2013,7,16044.771520026765
2013,8,16558.94254696118
2013,9,19419.80173691708
2013,10,19454.59203971295
2013,11,19561.269496345627
2013,12,19660.81385267601
2014,1,19676.3570834626
2014,2,19713.13887289586
2014,3,19723.21870174824
2014,4,19735.604218343058
2014,5,19771.899414147683
2014,6,19781.03845422156
2014,7,19862.003283872335
2014,8,19962.325510014456
2014,9,19971.2775547314
2014,10,20175.755440556688
2014,11,20214.92776107183
2014,12,20229.996320721733
2015,1,20407.594988862333
2015,2,20441.9214586517
2015,3,20467.572663595267
2015,4,20474.03936929205
2015,5,20523.341548034125
2015,6,20552.09943239556
2015,7,20585.480170909723
2015,8,20618.906908781653
2015,9,20657.10417684994
2015,10,20664.746274455974
2015,11,20676.432194627898
2015,12,20682.344967992543
