year,month,cumulativeInfluence
2001,8,1.3367849453928922
2002,9,2.667388609563784
2002,10,2.6758661340280883
2003,7,2.675910051802943
2003,10,2.681007631312475
2003,11,3.035630934835888
2003,12,3.066526775894032
2004,1,3.069204410620388
2004,2,4.381285632596759
2004,3,5.532458167608381
2004,4,8.871405247443889
2004,5,17.415299402849026
2004,6,17.447777359788397
2004,7,24.53576208986899
2004,8,25.46371557308158
2004,9,25.54873910883245
2004,10,33.12090438452743
2004,11,43.44436542999928
2004,12,98.11841414330544
2005,1,98.24831762772914
2005,2,99.07403397903997
2005,3,102.22986218918287
2005,4,123.19123626518031
2005,5,125.66129117061706
2005,6,125.66944759536506
2005,7,127.37130778715867
2005,8,129.21721726331157
2005,9,129.9607694106537
2005,10,132.21437367420876
2005,11,133.3435300380229
2005,12,134.69327991151982
2006,1,140.26793858560222
2006,2,142.94519794571335
2006,3,149.01013260426262
2006,4,188.2491135578986
2006,5,198.69682609006867
2006,6,209.9291022945276
2006,7,219.2487564782488
2006,8,227.92771066755822
2006,9,233.6429025874027
2006,10,249.8769708726115
2006,11,254.9086284766872
2006,12,259.403617776086
2007,1,280.37766678988424
2007,2,311.9648872302076
2007,3,320.7609410786243
2007,4,327.8451589836097
2007,5,340.81160356192544
2007,6,363.92345251690153
2007,7,373.99024002382873
2007,8,395.66899661406006
2007,9,408.678640598859
2007,10,428.1702958608692
2007,11,435.398424839586
2007,12,441.42820307685764
2008,1,460.75932498208283
2008,2,469.73956790917504
2008,3,474.69650506499784
2008,4,479.116340128349
2008,5,499.29393877283974
2008,6,511.8353461113407
2008,7,516.6493735831109
2008,8,526.3611399481781
2008,9,533.3754144959784
2008,10,543.6204720394496
2008,11,555.9984133994082
2008,12,560.0611643964407
2009,1,565.8475318636662
2009,2,573.3554778630468
2009,3,581.9448585416723
2009,4,620.4146196869189
2009,5,623.315004752744
2009,6,637.3471006069648
2009,7,650.6941391056265
2009,8,658.5681363653366
2009,9,666.4379173782144
2009,10,672.4360172872811
2009,11,679.5074067264385
2009,12,686.300102093303
2010,1,689.1767528893041
2010,2,700.6232927100543
2010,3,715.3890976859279
2010,4,719.335615075399
2010,5,724.7944030332469
2010,6,729.3302914352342
2010,7,735.3244402219017
2010,8,750.151644578141
2010,9,783.0172203417753
2010,10,790.4012364711828
2010,11,794.7629569919159
2010,12,800.3374273334381
2011,1,811.9473500301984
2011,2,817.8175003411412
2011,3,866.7324803130373
2011,4,882.9788453992456
2011,5,894.2524921841037
2011,6,901.1419053674512
2011,7,918.7128777125271
2011,8,927.4969429054263
2011,9,935.6884268331785
2011,10,990.4358149438261
2011,11,1007.1665325943871
2011,12,1064.1328651821411
2012,1,1072.7230568638354
2012,2,1089.589518726234
2012,3,1097.9721978225518
2012,4,1105.477478308028
2012,5,1109.5061769692197
2012,6,1122.188432122599
2012,7,1136.9535381501014
2012,8,1149.609465711851
2012,9,1163.0361415743673
2012,10,1169.559868008643
2012,11,1252.4430510641514
2012,12,1257.312983771577
2013,1,1264.5845225982873
2013,2,1273.7149596951508
2013,3,1280.4203194696406
2013,4,1293.2692315248355
2013,5,1303.9803993083858
2013,6,1316.334275801578
2013,7,1322.2593109095094
2013,8,1343.3828418682372
2013,9,1382.6334815740663
2013,10,1408.6611991307911
2013,11,1448.3694580165138
2013,12,1457.4177377586934
2014,1,1484.818584853844
2014,2,1495.1389365279738
2014,3,1586.3649884284068
2014,4,1606.570953736241
2014,5,1622.7079100528654
2014,6,1627.9273194172388
2014,7,1653.2136646306885
2014,8,1683.330908329119
2014,9,1691.5931014497783
2014,10,1711.351682198638
2014,11,1747.584264929118
2014,12,1758.1251911517613
2015,1,1765.7218901121114
2015,2,1815.7407298367832
2015,3,1839.7843882452185
2015,4,1852.8576810682212
2015,5,1863.260100877722
2015,6,1910.6163210441418
2015,7,1920.1931477183223
2015,8,1940.3005349536522
2015,9,1968.0946746499142
2015,10,1975.3775305663369
2015,11,2045.531098458709
2015,12,2047.7294157065282
