year,month,cumulativeInfluence
2001,8,56.35268612621137
2002,9,56.440195978853026
2002,10,56.539451540735094
2003,7,56.5395910776858
2003,10,56.565065412399896
2003,11,57.575754978820505
2003,12,57.647191362947304
2004,1,58.155754524041306
2004,2,60.84359955658377
2004,3,64.0009105139085
2004,4,83.01076731080511
2004,5,84.02799501049391
2004,6,84.86670782708882
2004,7,113.49764084862971
2004,8,117.80191587669584
2004,9,119.07878200107926
2004,10,122.01054421772696
2004,11,122.3054786768763
2004,12,288.47664425716937
2005,1,289.5138639758856
2005,2,289.63422016269544
2005,3,310.83494024765145
2005,4,325.09250654524993
2005,5,353.37602909438755
2005,6,353.43636520756996
2005,7,361.27759165457354
2005,8,382.09010725368597
2005,9,391.6360490669787
2005,10,412.0611331998638
2005,11,421.67638967333346
2005,12,856.6886849212949
2006,1,1936.5749039802104
2006,2,1955.6705090478379
2006,3,2022.6538976594218
2006,4,2097.5295191757014
2006,5,2491.4548582330453
2006,6,2880.075946562938
2006,7,2986.2021053210356
2006,8,6204.403204558414
2006,9,8794.471244878072
2006,10,11488.163003374068
2006,11,11504.153187912356
2006,12,11874.698944612373
2007,1,12982.154198126313
2007,2,13138.146988114482
2007,3,13238.779400568605
2007,4,13271.978204673875
2007,5,17463.249294016165
2007,6,20564.243628922817
2007,7,20614.518837597756
2007,8,21525.477499567864
2007,9,21601.547773204504
2007,10,21770.75896579297
2007,11,21868.83479714852
2007,12,22740.690356061714
2008,1,22921.85215910665
2008,2,23049.200383781354
2008,3,23135.201476826387
2008,4,23193.28922382557
2008,5,23562.92692854598
2008,6,23636.715760247655
2008,7,24319.395050949563
2008,8,24376.868262068445
2008,9,24507.651169803892
2008,10,24601.763492284914
2008,11,24616.367251841
2008,12,24650.107976351832
2009,1,24687.947711142882
2009,2,24749.894497221583
2009,3,24810.2950437491
2009,4,24948.535904534343
2009,5,24965.62351544723
2009,6,25127.084827123475
2009,7,25189.783319323866
2009,8,25532.825259515044
2009,9,25567.799440914478
2009,10,25587.464360996226
2009,11,25703.511060799363
2009,12,25855.14888511106
2010,1,25867.48793753197
2010,2,25886.189008833735
2010,3,25980.175377077598
2010,4,26016.136118703493
2010,5,26072.495628151824
2010,6,26766.77409955251
2010,7,26802.500558040076
2010,8,26834.023769048577
2010,9,26858.213528802713
2010,10,26932.539391628925
2010,11,27591.33467945454
2010,12,27768.2841834558
2011,1,29648.06046639878
2011,2,29778.986990017973
2011,3,29860.005009173918
2011,4,30008.79411730967
2011,5,30227.076574070696
2011,6,30291.09095117487
2011,7,30534.577483019802
2011,8,30603.829555783326
2011,9,30776.304851796514
2011,10,30852.385349494463
2011,11,31040.963991555822
2011,12,31567.22694905133
2012,1,31615.123652580693
2012,2,31719.20662777626
2012,3,31767.056213922264
2012,4,31847.94501617263
2012,5,31887.895442344157
2012,6,31973.171498947533
2012,7,32059.502567984044
2012,8,32246.547651052522
2012,9,32475.09345653397
2012,10,32584.62163336628
2012,11,32610.367843498916
2012,12,32638.55499772642
2013,1,32690.106879314953
2013,2,32719.534685002745
2013,3,32786.1850238995
2013,4,32878.39959895967
2013,5,32921.99810812477
2013,6,32993.76316118749
2013,7,33099.446189912414
2013,8,33142.53009690049
2013,9,33392.554755374855
2013,10,33753.594377456786
2013,11,34067.3775933857
2013,12,34144.78467977485
2014,1,34267.90407293152
2014,2,34442.77810330332
2014,3,34596.466720112316
2014,4,34849.73523757614
2014,5,34981.04544074879
2014,6,35071.97579756021
2014,7,35383.47540043698
2014,8,35429.63201849381
2014,9,35495.449833492035
2014,10,35613.78084828741
2014,11,35908.866749982895
2014,12,36338.73851671211
2015,1,36456.89068543512
2015,2,36642.24962626863
2015,3,36873.01911862597
2015,4,36980.277431399765
2015,5,37024.51768732476
2015,6,37754.87265870754
2015,7,37826.343471636785
2015,8,37986.35770233226
2015,9,38489.08939698374
2015,10,38560.705908270575
2015,11,38615.94618582088
2015,12,38676.981272787016
