year,month,cumulativeInfluence
2001,8,5.827170692654154
2002,9,7.56001713999645
2002,10,7.570765080520461
2003,7,7.570816181279425
2003,10,7.576980766307027
2003,11,7.966534672844584
2003,12,7.988702547518934
2004,1,7.992813636771118
2004,2,10.912617234321614
2004,3,11.946323734478282
2004,4,17.84998925828741
2004,5,26.971772786939393
2004,6,27.026668983723066
2004,7,46.080501384991294
2004,8,46.96992571050883
2004,9,47.07453565954921
2004,10,54.50240823100388
2004,11,58.017280746757685
2004,12,80.42284908007159
2005,1,80.60330838335368
2005,2,81.65291041691813
2005,3,87.59918475580352
2005,4,95.8592414077251
2005,5,99.6215053615625
2005,6,99.63427594858814
2005,7,105.91614549347705
2005,8,111.02305228035078
2005,9,111.93096172558413
2005,10,114.80111295824594
2005,11,123.72331065102068
2005,12,125.29660540392675
2006,1,136.81561261265458
2006,2,142.58228827806113
2006,3,150.75182100082768
2006,4,184.8681999530794
2006,5,202.74657302240524
2006,6,215.25096001489004
2006,7,228.2189915571354
2006,8,240.76313923781052
2006,9,251.0461697392454
2006,10,267.5603405704192
2006,11,274.02417396824734
2006,12,278.73551288961266
2007,1,295.82450922581205
2007,2,340.15790126830456
2007,3,355.10315756746684
2007,4,366.1163626101606
2007,5,387.42200120046175
2007,6,409.8301160990833
2007,7,437.602523795427
2007,8,475.72709041220014
2007,9,490.1369123784865
2007,10,514.260649434663
2007,11,529.4343960200684
2007,12,539.6060672612887
2008,1,580.4536726484383
2008,2,590.4637814837416
2008,3,598.4775748151908
2008,4,604.6459410427457
2008,5,628.2986582539776
2008,6,666.0021089245133
2008,7,674.7816403697079
2008,8,685.7684201716195
2008,9,695.6079006166732
2008,10,715.5611045265276
2008,11,721.7357449318617
2008,12,728.0333883173349
2009,1,737.9273814708753
2009,2,757.6786091907861
2009,3,774.4098982269318
2009,4,822.337910180032
2009,5,826.2021399122752
2009,6,849.5394713169339
2009,7,875.9864114846853
2009,8,896.4443901505088
2009,9,904.225944454048
2009,10,917.485438747183
2009,11,925.8418300677805
2009,12,940.4485252738175
2010,1,943.4349504235713
2010,2,955.4266748140508
2010,3,973.6976943217211
2010,4,979.7320074773054
2010,5,992.5698771677455
2010,6,999.9896833566203
2010,7,1009.2149468549835
2010,8,1023.7380740283457
2010,9,1044.7939158434951
2010,10,1055.3814194979875
2010,11,1063.1132146383627
2010,12,1072.2154880314624
2011,1,1095.6457112762541
2011,2,1105.6182979144105
2011,3,1178.4199287028582
2011,4,1205.1457970420277
2011,5,1222.6653522597844
2011,6,1234.880987182435
2011,7,1264.0621353931201
2011,8,1276.9019237480486
2011,9,1291.2666870158378
2011,10,1360.3157326720473
2011,11,1394.6633535523567
2011,12,1411.9854950191695
2012,1,1426.7781726496078
2012,2,1441.627037520248
2012,3,1451.5391665778948
2012,4,1462.6929218234934
2012,5,1469.3866821616487
2012,6,1502.811305669355
2012,7,1543.3581095358247
2012,8,1561.5947478988967
2012,9,1578.0048390422648
2012,10,1587.3584089771139
2012,11,1622.624972859702
2012,12,1630.5870770838549
2013,1,1641.8116386472736
2013,2,1664.8570621853537
2013,3,1681.2346603705384
2013,4,1701.5890388281343
2013,5,1716.7976691573235
2013,6,1736.1825745220283
2013,7,1744.6120611408949
2013,8,1769.5248385763323
2013,9,1798.7507955497215
2013,10,1836.951164853214
2013,11,1905.932213101272
2013,12,1921.6172475924614
2014,1,1956.9607081860674
2014,2,1972.0601495797578
2014,3,1993.7150786354625
2014,4,2024.490129898261
2014,5,2042.946750270562
2014,6,2051.8994342243673
2014,7,2112.889472346822
2014,8,2183.9332989532054
2014,9,2197.5360471837676
2014,10,2231.6694816559343
2014,11,2287.763566052043
2014,12,2304.7101306240734
2015,1,2316.2172501200953
2015,2,2354.4691848756815
2015,3,2384.3036148402507
2015,4,2404.4826892105966
2015,5,2504.3203202688715
2015,6,2549.612979462259
2015,7,2561.6268429599636
2015,8,2589.2885415767687
2015,9,2631.2967218469353
2015,10,2642.926988657636
2015,11,2693.8687326319487
2015,12,2697.034989056443
