year,month,cumulativeInfluence
2001,8,165.0259726630819
2002,9,165.11043389472954
2002,10,165.34130632601602
2003,7,165.34144154872516
2003,10,165.3661454891036
2003,11,167.2575402953042
2003,12,167.34073453112737
2004,1,167.3793158237577
2004,2,172.05130282375646
2004,3,189.5497210077819
2004,4,195.92082717202044
2004,5,211.98142752720562
2004,6,214.40804224243305
2004,7,223.57694465681178
2004,8,278.6227158481767
2004,9,295.8503567730114
2004,10,301.19348425223416
2004,11,301.53341724292824
2004,12,1666.7193569791445
2005,1,1670.1163927380856
2005,2,1670.227292339019
2005,3,1695.46428590729
2005,4,1778.737870483865
2005,5,1837.3777924872481
2005,6,1837.4661411921713
2005,7,1867.005990986914
2005,8,2052.19128903298
2005,9,2222.411430063686
2005,10,2356.6871308666096
2005,11,2450.729953151653
2005,12,2510.7244415513064
2006,1,2687.12346006762
2006,2,2827.5570219935
2006,3,3234.333607627612
2006,4,3832.0128225152866
2006,5,4925.843291167326
2006,6,5284.576555059989
2006,7,6034.461606361922
2006,8,6512.279711977275
2006,9,6775.402556200106
2006,10,7814.603091493205
2006,11,7930.015593039067
2006,12,8365.583550075502
2007,1,8565.718135457277
2007,2,8829.699107531364
2007,3,9926.284595704927
2007,4,10183.341739803549
2007,5,10744.693152648808
2007,6,11019.392872283062
2007,7,11165.244851209727
2007,8,11737.781934499933
2007,9,12021.558815600603
2007,10,13164.923639232493
2007,11,13337.421463490025
2007,12,17171.76910586003
2008,1,17728.771836951717
2008,2,19364.18193305191
2008,3,19669.220769365467
2008,4,21394.336529996246
2008,5,21725.179138365856
2008,6,22334.866849705093
2008,7,22491.602706008718
2008,8,22742.447707932854
2008,9,24090.581746743945
2008,10,24992.024257882877
2008,11,25088.827174639224
2008,12,25200.615877943994
2009,1,25327.623252339567
2009,2,25452.944169129525
2009,3,25567.141026264402
2009,4,25862.397188569255
2009,5,26268.00923673275
2009,6,27296.064455147127
2009,7,27436.206778517226
2009,8,27579.664160254193
2009,9,27714.075480100957
2009,10,27863.531137967355
2009,11,28794.117000479233
2009,12,28919.003348682403
2010,1,28955.73711477463
2010,2,29028.838024235196
2010,3,30474.361579500328
2010,4,30565.418314040067
2010,5,31204.367179008506
2010,6,31361.628503184824
2010,7,31469.294405829794
2010,8,31600.828917975094
2010,9,31692.32993960145
2010,10,31943.961521688045
2010,11,32031.65803476546
2010,12,32260.395408678876
2011,1,32478.726179161553
2011,2,32611.821277264007
2011,3,32782.535032626154
2011,4,34281.51298821982
2011,5,36889.44098020003
2011,6,37333.035740794745
2011,7,37418.450773270546
2011,8,37596.676041689
2011,9,39090.33867280705
2011,10,39351.11469107537
2011,11,39683.10066970803
2011,12,39802.247711472366
2012,1,39983.06807160962
2012,2,40042.371944380146
2012,3,40380.88028240824
2012,4,40547.26479162503
2012,5,41292.05018805962
2012,6,41444.29004533792
2012,7,41704.61059533092
2012,8,42195.5335925927
2012,9,43282.5752945155
2012,10,44435.15638491266
2012,11,44550.60368073991
2012,12,44711.73784886506
2013,1,44977.33377933467
2013,2,45171.68523250611
2013,3,45265.686256945584
2013,4,46122.90136648423
2013,5,46490.63211302086
2013,6,46737.71760920394
2013,7,47037.403124505785
2013,8,47148.36206534093
2013,9,47615.71698552581
2013,10,48344.85050685637
2013,11,51058.90133982416
2013,12,51396.69999775673
2014,1,51953.53445051452
2014,2,52195.15007784199
2014,3,52508.109076470566
2014,4,53024.325542954786
2014,5,53538.49145622861
2014,6,54069.89999496124
2014,7,55108.730112636964
2014,8,55327.63144482543
2014,9,55639.751491645446
2014,10,56179.373896693374
2014,11,59201.23795500271
2014,12,59645.87310134458
2015,1,59907.29725858866
2015,2,60581.87048227442
2015,3,65849.62930861121
2015,4,66116.57819333507
2015,5,66291.82809544129
2015,6,66685.16281195734
2015,7,67282.47061388676
2015,8,67969.89228565714
2015,9,70810.51029276969
2015,10,71216.81361010125
2015,11,71362.14936180513
2015,12,71471.78599405396
