year,month,cumulativeInfluence
2001,8,0.7152246702673777
2002,9,0.7339788137293651
2002,10,0.7455202027600587
2003,7,0.7747935354304449
2003,10,0.8689439996298691
2003,11,1.2086039745450012
2003,12,1.3529749212067024
2004,1,1.3545850094876826
2004,2,1.5450810682610954
2004,3,1.6473917016968644
2004,4,2.095943631329998
2004,5,2.724731503815687
2004,6,2.7398017464768065
2004,7,3.438367010075182
2004,8,3.599881683992059
2004,9,3.700283224543772
2004,10,4.029172832862102
2004,11,4.092421342893651
2004,12,8.542484574916145
2005,1,8.595077130701977
2005,2,8.62200966484005
2005,3,10.582872711969065
2005,4,11.434848260265387
2005,5,12.263817941396454
2005,6,12.26605534114385
2005,7,12.6849290446626
2005,8,13.34633895043482
2005,9,13.850270354848075
2005,10,14.50816807666605
2005,11,14.979259406962274
2005,12,15.212694605976925
2006,1,16.36755050625398
2006,2,16.965464989299555
2006,3,19.049281379210043
2006,4,20.67029829448844
2006,5,23.258755825712363
2006,6,25.298314263343688
2006,7,27.049352976897623
2006,8,28.78404694270277
2006,9,31.135818947197077
2006,10,34.74148228573345
2006,11,36.866940361862945
2006,12,37.96036282510318
2007,1,39.36171633026261
2007,2,42.809071365272125
2007,3,45.43127159373729
2007,4,46.80577136130187
2007,5,49.69878257537808
2007,6,52.08719910806541
2007,7,55.40848363172637
2007,8,59.77709946170456
2007,9,62.318751355107864
2007,10,67.79465079555763
2007,11,69.92834207430509
2007,12,72.43842320744994
2008,1,77.68389216090792
2008,2,82.90232182099103
2008,3,84.69012452481783
2008,4,87.02675199926807
2008,5,91.8795687953989
2008,6,94.43447325332977
2008,7,95.98110631156263
2008,8,98.13566916974744
2008,9,101.72650318408795
2008,10,107.09779803824419
2008,11,108.42907638088202
2008,12,109.67234472524815
2009,1,111.69723947523511
2009,2,113.59793511065936
2009,3,115.86171091668602
2009,4,121.15394286764763
2009,5,123.29208788559296
2009,6,129.2590899923342
2009,7,132.03769281320626
2009,8,136.3893106144316
2009,9,140.9701702955742
2009,10,142.03673062223598
2009,11,144.25421459465917
2009,12,146.27079204301242
2010,1,161.98096341342952
2010,2,162.4891241567649
2010,3,166.2841184643829
2010,4,167.4137762708522
2010,5,169.623879563528
2010,6,170.65102075808585
2010,7,172.76738544661072
2010,8,173.7990322445269
2010,9,175.8119751849206
2010,10,178.13541975795482
2010,11,179.50917007173337
2010,12,181.74306664480514
2011,1,185.8894367333483
2011,2,186.91589244232983
2011,3,189.8309458442399
2011,4,194.88371352517356
2011,5,198.18428795872651
2011,6,200.2349779687489
2011,7,201.4813351589355
2011,8,203.23143797961782
2011,9,206.1099108709609
2011,10,208.08552470765574
2011,11,209.80153301489804
2011,12,210.23667717628163
2012,1,212.23966557902918
2012,2,213.2824026868748
2012,3,214.770134226099
2012,4,216.77030023375772
2012,5,217.68863092613222
2012,6,219.67826232048233
2012,7,222.60006289974027
2012,8,228.25337010154416
2012,9,232.12905880855803
2012,10,234.62549883028342
2012,11,235.80349081944206
2012,12,236.62353922131095
2013,1,238.62879971036404
2013,2,240.0081873196098
2013,3,242.10176810131622
2013,4,245.1700307358503
2013,5,247.3513460342667
2013,6,251.77961585197397
2013,7,253.33923261267716
2013,8,255.3940481760747
2013,9,261.8775101478981
2013,10,271.065021577762
2013,11,282.5076273597583
2013,12,284.8795385676428
2014,1,289.3330638711993
2014,2,293.5503615362288
2014,3,296.41134942115224
2014,4,299.4406331027023
2014,5,302.36662697853643
2014,6,304.17411093765935
2014,7,312.9470135638348
2014,8,315.8056730316954
2014,9,318.152595163343
2014,10,321.86800081111016
2014,11,331.06510779994056
2014,12,334.6142468996859
2015,1,337.40659478919304
2015,2,342.4989307047565
2015,3,349.45316172135335
2015,4,351.56646660796866
2015,5,353.04453659064256
2015,6,355.80722860127906
2015,7,358.0430042571657
2015,8,363.76755994241677
2015,9,373.934536926868
2015,10,375.98599082768084
2015,11,377.8707106998681
2015,12,379.13991143502494
