year,month,cumulativeInfluence
2001,8,13.421626446204854
2002,9,13.607364760372098
2002,10,13.644019433977807
2003,7,13.644105287564292
2003,10,13.656578907715017
2003,11,14.581286479196473
2003,12,14.620559960937564
2004,1,14.641517468247837
2004,2,28.806077300358325
2004,3,32.09101371298559
2004,4,41.722244575253576
2004,5,44.38400225368431
2004,6,44.5988470537233
2004,7,54.39633484633538
2004,8,55.6605996807289
2004,9,56.01269741766093
2004,10,63.160634555901524
2004,11,64.03966843902559
2004,12,156.29259076746794
2005,1,157.9160827302799
2005,2,158.14656304705528
2005,3,188.08198551168164
2005,4,193.9094811798992
2005,5,250.0719448438431
2005,6,250.41430412563437
2005,7,272.51023801886083
2005,8,394.91561924102336
2005,9,428.81440440968714
2005,10,454.85358291843124
2005,11,461.9495832957128
2005,12,468.8490290553246
2006,1,549.2074087352897
2006,2,572.7194639741289
2006,3,684.2935870403809
2006,4,714.6473034192508
2006,5,799.4139300362041
2006,6,1125.0276041546097
2006,7,1221.329073779521
2006,8,1601.6788643058856
2006,9,1699.307810601441
2006,10,1902.5824009801277
2006,11,2082.7889808349655
2006,12,2227.1969992248214
2007,1,2270.3340985761233
2007,2,2558.154770831822
2007,3,3208.2092430725465
2007,4,3328.8969752893563
2007,5,3404.9141620286928
2007,6,3519.19165427272
2007,7,3642.3505063366715
2007,8,3844.412887184419
2007,9,4176.947489286886
2007,10,4351.5324354413515
2007,11,4429.167427888769
2007,12,4475.710515958076
2008,1,4683.275480862681
2008,2,5027.144490781443
2008,3,5094.06739517167
2008,4,5442.622487632396
2008,5,5488.265439218116
2008,6,5637.304326628623
2008,7,5735.275201187276
2008,8,5814.758675172006
2008,9,5857.162158229092
2008,10,5972.201847000286
2008,11,6003.06356037639
2008,12,6077.169017091753
2009,1,6245.142453500679
2009,2,6485.792271661504
2009,3,6834.16576395552
2009,4,7511.098968229375
2009,5,7627.906081235698
2009,6,7676.659256167998
2009,7,8400.974398524904
2009,8,8462.692258424033
2009,9,8678.993527814784
2009,10,8781.883545601968
2009,11,8819.596832230767
2009,12,8969.314253601191
2010,1,8982.692638030328
2010,2,9008.021361097668
2010,3,9134.574222834597
2010,4,9194.642334741522
2010,5,9216.503131433623
2010,6,9312.28377412363
2010,7,9393.899910588434
2010,8,9527.95728847418
2010,9,9595.150583920713
2010,10,9705.654296140068
2010,11,9774.790929255187
2010,12,10528.51657791121
2011,1,10805.677979761269
2011,2,10877.40791329727
2011,3,11112.962692137875
2011,4,11310.36969510192
2011,5,11636.931602702032
2011,6,11990.880046207132
2011,7,12122.109584247759
2011,8,12789.670145325807
2011,9,12913.493510358567
2011,10,13061.665749041244
2011,11,13333.875287203278
2011,12,13350.514586678728
2012,1,13540.842098759029
2012,2,13588.870923372377
2012,3,13907.064836035226
2012,4,14042.8499368261
2012,5,14144.984427736046
2012,6,14269.096624424998
2012,7,14698.304790284217
2012,8,14876.566275933934
2012,9,15034.403724493477
2012,10,15092.279418730746
2012,11,15134.265530356268
2012,12,15171.629022386209
2013,1,15316.160520947455
2013,2,15412.427780691289
2013,3,15487.424876974785
2013,4,15887.87153626842
2013,5,16162.952594169808
2013,6,18674.362013585855
2013,7,18719.537635748628
2013,8,18765.6957807312
2013,9,18939.234144751004
2013,10,19329.743911133097
2013,11,19553.80355999996
2013,12,19815.714728491123
2014,1,20470.246502909886
2014,2,20780.153795329923
2014,3,20879.28169461651
2014,4,21082.050352327726
2014,5,21301.660485406752
2014,6,21376.37733939942
2014,7,21878.743258428636
2014,8,22970.652251511947
2014,9,23367.649551393835
2014,10,24126.433461803692
2014,11,25585.318287395454
2014,12,25860.63632331787
2015,1,27424.165931786316
2015,2,27987.754705234285
2015,3,28942.691587324327
2015,4,806282.3807928639
2015,5,806666.6928056184
2015,6,807495.9372508067
2015,7,809103.9716308784
2015,8,809421.608737236
2015,9,811270.6877451257
2015,10,811386.3047953898
2015,11,811466.8181555911
2015,12,811490.6278354591
