year,month,influence,largestInfluencer,largestInfluencerPercent
2009,6,93.22727205800626,CAR PROWL,21.43073548031112
2009,4,122.5397405364172,CAR PROWL,32.289096877625596
2009,12,70.13610519262876,CAR PROWL,28.959432635006078
2009,11,127.20443757981555,BURGLARY,24.91513867235622
2009,9,289.7527514205124,OTHER PROPERTY,29.863323714805702
2009,3,175.15034539459427,OTHER PROPERTY,52.71095685894682
2009,1,125.12688338811492,CAR PROWL,32.473174622999835
2009,8,106.31113364040812,PROPERTY DAMAGE,25.727395134269155
2009,10,113.58905804856472,CAR PROWL,34.593242295990045
2009,5,89.54638475479162,CAR PROWL,21.94340726158734
2009,2,92.70749278201323,CAR PROWL,16.052588781554853
2009,7,165.15813099359605,BIKE THEFT,31.4697406810853
1994,6,0.023907993361955142,PROPERTY DAMAGE,93.64061935979426
1994,1,0.2343041338864829,FRAUD,93.20954668252928
1994,10,0.006719863337947836,FRAUD,100.0
1995,9,0.005856179245306359,FRAUD,100.0
1995,2,0.006449307432447762,FRAUD,100.0
2015,6,114.0718703845316,CAR PROWL,19.13632880643814
2015,11,134.51289812325882,CAR PROWL,26.58911165351649
2015,12,4.0272305776296164,ASSAULT,30.491265108083702
2015,4,152.18940462695483,CAR PROWL,19.18767592513875
2015,9,119.70678215505642,CAR PROWL,12.51144086419009
2015,3,198.31851912058906,FRAUD,27.486424150749997
2015,1,132.12563902648597,BURGLARY,16.033251253552937
2015,8,144.94322409906903,CAR PROWL,27.399495755840178
2015,10,160.29394650481086,CAR PROWL,28.007580742111315
2015,5,219.8607441365038,CAR PROWL,35.747140940486766
2015,2,159.16841998633575,CAR PROWL,28.888878013244092
2015,7,174.94554690616067,CAR PROWL,39.422562006981174
2013,6,555.7527803000979,VEHICLE THEFT,43.982648409178545
2013,11,249.3935498526659,CAR PROWL,22.472949085878362
2013,12,239.63891937432274,CAR PROWL,18.839639998170554
2013,4,411.96182719023153,CAR PROWL,43.410738899641146
2013,9,243.98447303242747,CAR PROWL,18.334358357366696
2013,3,431.81543669373133,VEHICLE THEFT,20.720829940995298
2013,1,410.3726671912423,CAR PROWL,45.038250514453935
2013,8,953.7461429803216,OTHER PROPERTY,62.246932406873725
2013,10,335.0616929748167,CAR PROWL,41.151639863130306
2013,5,866.9453693870803,THREATS,63.942937010329295
2013,2,214.47161704833704,CAR PROWL,16.6186906079552
2013,7,286.7727043429578,CAR PROWL,26.00913402726804
1990,5,0.1338637047788075,THREATS,100.0
1990,1,0.015982034068286875,LOST PROPERTY,100.0
1990,11,0.00568813640635926,[INC - CASE DC USE ONLY],99.99999999999999
2011,6,363.69233114231184,CAR PROWL,30.747859099154738
2011,4,108.19749858799874,BURGLARY,17.056683221201492
2011,12,200.11741904189597,BURGLARY,22.037737287231113
2011,11,179.57050317306897,BURGLARY,26.97955500644714
2011,9,224.1155443144778,CAR PROWL,20.15976174503052
2011,3,240.61992631036725,BURGLARY,17.435350181349573
2011,1,100.96572506925693,BURGLARY,28.287186764777974
2011,8,231.16923340669413,CAR PROWL,22.541721944866044
2011,10,303.84297873612246,BURGLARY,46.78965247420723
2011,5,222.53670401795455,OTHER PROPERTY,16.034480696083417
2011,2,91.09162876676763,CAR PROWL,18.395941076228844
2011,7,365.9980647815257,CAR PROWL,28.685242155498948
2001,6,0.5456723395966632,ASSAULT,62.62126374138301
2001,11,0.8338846048259,BURGLARY,93.74202602763197
2001,12,0.021423618856447772,FRAUD,100.0
2001,4,0.050460883247182384,THREATS,30.677595233564745
2001,9,1.2519552255837147,FRAUD,95.96061665285498
2001,3,1.019410852353703,BURGLARY,95.01900368281939
2001,1,0.13578392033196585,FRAUD,59.222449275419166
2001,8,0.02751852865798214,CAR PROWL,44.698304680108116
2001,10,0.0822006265174836,FRAUD,41.294515298513026
2001,5,0.04231707934283913,FRAUD,82.03090044447976
2001,2,0.07074075140865407,LOST PROPERTY,74.16087248045713
2001,7,0.13694105402171045,BURGLARY-SECURE PARKING-RES,82.29061854154
2003,6,0.04987599540087388,FRAUD,100.0
2003,11,0.1758672219195754,FRAUD,92.98409566136773
2003,12,0.032372410271544506,FRAUD,96.56515203821691
2003,4,0.005841565624044761,CAR PROWL,100.0
2003,9,0.02275335291969163,LOST PROPERTY,52.73870778505199
2003,3,0.43552909116216054,FRAUD,92.85887716310802
2003,1,0.4180421360568829,THREATS,62.4254853331755
2003,8,0.05651475736955764,FRAUD,90.87461426016708
2003,10,0.002211865482873174,FRAUD,100.0
2003,5,0.00480918118462198,FRAUD,100.0
2003,2,0.015584667622661275,OTHER PROPERTY,58.626659821924825
2003,7,0.02617207203018941,FRAUD,64.24737562965137
1965,1,0.026842890911061908,LOST PROPERTY,100.0
1998,1,0.28301823550052013,FRAUD,52.92513359023942
1998,11,0.010882646733023558,FRAUD,83.97900428235386
1998,5,0.0018424493759445627,OTHER PROPERTY,100.0
1998,3,0.1255766481416004,WARRANT ARREST,68.34339677036994
1998,8,0.02184641221961595,[INC - CASE DC USE ONLY],100.0
2002,1,0.48434937598117617,OTHER PROPERTY,76.0413237894397
2002,8,0.14968096768961842,FRAUD,92.66024553229178
2002,10,0.014122803847579576,FRAUD,100.0
2002,12,0.007775338628501346,FRAUD,100.0
2002,4,0.11788792428373553,FRAUD,100.0
2002,11,0.5473635774383319,CAR PROWL,100.0
2002,6,0.01830038425194765,PROPERTY DAMAGE,46.85013996719798
2002,3,0.023442461666584705,[INC - CASE DC USE ONLY],71.18657782841166
2002,2,0.023729400249719083,FRAUD,54.843597922795816
2007,6,1.9863330684781506,OTHER PROPERTY,72.40078884262886
2007,4,0.8512036438688937,CAR PROWL,46.43518214666827
2007,12,16.11246740831037,FRAUD,57.38946945735102
2007,11,2.2130210299106436,[INC - CASE DC USE ONLY],31.665688303907515
2007,9,3.6911213810262726,OTHER PROPERTY,53.6393436260483
2007,3,0.5891484636105799,FRAUD,41.09786748842858
2007,1,1.8204865719591412,FRAUD,73.81340703904584
2007,8,6.283930445585438,PROPERTY DAMAGE,90.91976623521687
2007,10,0.9611800754343305,FRAUD,37.382902791887524
2007,5,2.35287618208788,ASSAULT,75.55610314441621
2007,2,0.352879232964384,FRAUD,60.14048351069559
2007,7,0.31926052696104107,FRAUD,38.46119671069731
2004,6,0.021958025526681454,FRAUD,87.4883948572801
2004,4,0.020089974857362032,LOST PROPERTY,39.59764184037893
2004,12,0.002184015617056269,VEHICLE THEFT,100.0
2004,11,0.07899995425506379,LOST PROPERTY,39.71085438535843
2004,9,0.1716530112083815,FORGERY,57.81917210089728
2004,3,0.38165461260129857,BURGLARY-SECURE PARKING-RES,83.63099981946897
2004,1,1.2365333487285417,FRAUD,83.79182381978471
2004,8,0.24869213786233402,OTHER PROPERTY,82.92369076716206
2004,10,0.4090694141779394,[INC - CASE DC USE ONLY],87.0693936439957
2004,5,0.1883265612860053,FRAUD,87.10150250694018
2004,2,0.16620997446323774,FORGERY,87.07463541200323
2004,7,0.1626773656163813,FRAUD,100.0
1997,1,0.02124035625245132,FORGERY,60.84532786971513
1997,11,0.003118424017008255,FRAUD,100.0
1997,10,0.01718959344717755,FRAUD,100.0
1997,5,0.014007202505353658,FRAUD,100.0
1997,9,0.0018633044359814917,FRAUD,100.0
1997,2,0.009547696825960744,FRAUD,100.0
2006,6,3.01879919533883,ASSAULT,61.173387366440295
2006,4,0.11739599264174105,FRAUD,48.09878984968248
2006,12,0.4154288389896088,ASSAULT,47.622317393298026
2006,11,0.09316191291911295,FRAUD,43.90901702204873
2006,9,0.21878859027400735,FRAUD,62.11036035881103
2006,3,0.11139370967861006,FRAUD,58.37180531039769
2006,1,0.3600698152309434,FRAUD,59.76897501411925
2006,8,0.23779832205693333,FRAUD,91.87962167304488
2006,10,1.1210637624709023,VEHICLE THEFT,73.42323081807974
2006,5,0.1306755429209367,[INC - CASE DC USE ONLY],43.456489739082826
2006,2,0.2772126499940055,THREATS,47.07195961181625
2006,7,0.09275751220492502,OTHER PROPERTY,35.26869447877925
1991,1,0.018906362085183922,FRAUD,100.0
1991,11,0.025245638089936816,FRAUD,100.0
1991,9,0.0016865808546282796,FRAUD,100.0
2005,6,0.07193153192442694,OTHER PROPERTY,55.10730650979366
2005,11,0.2546785939536867,CAR PROWL,86.60405325146651
2005,12,0.06044771652780144,FRAUD,46.48281079728996
2005,4,0.1255228208485123,FRAUD,77.76283088939863
2005,9,0.05188766773268553,FRAUD,53.00926329481364
2005,3,0.0655588092828578,FRAUD,75.44756776897451
2005,1,1.1744747379236014,CAR PROWL,73.99221620528125
2005,8,0.07725350995971023,FRAUD,50.600170873861344
2005,10,0.12684916999313223,FRAUD,93.17646767108302
2005,5,0.016531356606067756,FRAUD,90.74012696244387
2005,2,0.1913322934925079,FRAUD,97.84447771601903
2005,7,0.11090386505624975,BURGLARY,77.83704379661017
1996,6,0.04254809026980409,FRAUD,99.99999999999999
1996,8,0.004663601646031057,FRAUD,100.0
1996,12,0.004644453345337422,CAR PROWL,100.0
1900,01,2.621827181403812e-09,STOLEN PROPERTY,100.0
2000,1,0.758875439539166,FRAUD,88.99413761609758
2000,8,0.19459965688271433,STOLEN PROPERTY,50.184809740783905
2000,7,1.395069383376948,FRAUD,99.5394286179819
2000,10,0.007751661723261292,CAR PROWL,100.0
2000,3,0.05234397986036203,OTHER PROPERTY,89.58454629351108
2000,4,0.014632522395043698,FRAUD,100.0
2000,5,0.04547356185478275,FRAUD,71.36788592519474
2000,6,0.03210746196490426,FRAUD,78.5517925840239
2000,9,0.03038080919110168,FRAUD,53.71181935198118
2000,2,0.019899812093688997,FRAUD,65.40651228145049
2000,11,0.05008415193010386,THEFT OF SERVICES,49.69136525048798
2014,6,260.9597831973744,BURGLARY,17.981026414971222
2014,11,136.16863888976488,OTHER PROPERTY,14.521032878718707
2014,12,247.93829467744447,CAR PROWL,45.71534047535495
2014,4,370.16516723019055,FRAUD,41.65460686616647
2014,9,807.9158429106928,OTHER PROPERTY,70.62704216790327
2014,3,509.0479744943312,FRAUD,41.913271368007216
2014,1,226.6627500547587,CAR PROWL,19.25028799984213
2014,8,225.01245428624372,BURGLARY,21.859509440010466
2014,10,315.30762469951884,VEHICLE THEFT,28.799139296168423
2014,5,293.72594216375296,BURGLARY,20.81327517410286
2014,2,233.3750354057935,FRAUD,20.247544954565015
2014,7,234.89659238627456,BURGLARY,19.02004356924427
1989,6,0.012020660542136598,[INC - CASE DC USE ONLY],100.0
1983,2,0.003800766619418669,RECOVERED PROPERTY,100.0
2008,6,118.7220047705089,CAR PROWL,29.780176594672533
2008,4,172.7471267643355,CAR PROWL,55.895628601547784
2008,12,110.93581531594342,BURGLARY,21.33047137012868
2008,11,156.47073584504378,OTHER PROPERTY,45.65770041711855
2008,9,110.40626505230244,PROPERTY DAMAGE,20.666367514894254
2008,3,116.4135213082137,BURGLARY,19.116015085604833
2008,1,107.42321216351341,PROPERTY DAMAGE,20.028098785756402
2008,8,122.56908805545706,OTHER PROPERTY,17.881084844678647
2008,10,83.94119041513575,OTHER PROPERTY,17.717938406532628
2008,5,119.94673280902875,CAR PROWL,20.202208840283834
2008,2,115.62920367794518,BURGLARY,26.598733893573172
2008,7,101.56946403748448,CAR PROWL,23.570905148167373
1992,7,0.001554841580802127,LOST PROPERTY,100.0
1993,1,0.002208486763216034,FRAUD,100.0
1993,10,0.02275645887892691,FRAUD,84.65976972665806
2010,6,198.41196045378643,BURGLARY,48.26863912172814
2010,11,126.81123100335711,CAR PROWL,17.719578012121346
2010,12,113.84828646147471,BURGLARY,32.38888061117245
2010,4,189.6601590564017,OTHER PROPERTY,45.237688512819275
2010,9,113.4067484989543,CAR PROWL,21.075214434457994
2010,3,171.1092978953833,BURGLARY,51.90127984719389
2010,1,138.31549640459875,CAR PROWL,46.59519873785204
2010,8,102.55621693493396,CAR PROWL,16.61380989222435
2010,10,165.89438119674907,BURGLARY,25.066641415677932
2010,5,185.1531922932961,BURGLARY,32.527571631139836
2010,2,110.43265438396608,CAR PROWL,33.395289239473094
2010,7,47.53007924473592,OTHER PROPERTY,56.05441163878245
2012,6,226.65592696868893,BURGLARY,20.435699554186165
2012,4,239.609585437723,BURGLARY,32.096869058948045
2012,12,113.32737726160714,BURGLARY,20.68058650930233
2012,11,116.25303929530867,BURGLARY,38.447345680515824
2012,9,227.45886978736104,BURGLARY,49.05875893931528
2012,3,210.81918047844636,CAR PROWL,21.381865845228397
2012,1,262.3703452074418,OTHER PROPERTY,40.228055638268785
2012,8,182.6504595419329,CAR PROWL,15.630288812247075
2012,10,159.00952014199922,BURGLARY,29.610905229286043
2012,5,175.06417511641425,CAR PROWL,17.859235042161508
2012,2,327.58759337020865,BURGLARY,51.63919365210029
2012,7,859.3468211662231,CAR PROWL,66.45040698078412
1999,1,0.18192181621095013,FRAUD,100.0
1999,11,0.06406563482225218,FRAUD,100.0
1999,9,0.016438519298109855,FRAUD,100.0
1999,6,0.003501034472701712,[INC - CASE DC USE ONLY],100.0
