year,month,influence,largestInfluencer,largestInfluencerPercent
2009,6,244.26134747568517,CAR PROWL,30.49307107224569
2009,4,228.591198652357,CAR PROWL,45.53657867831219
2009,12,182.61296091149134,CAR PROWL,51.385288171363165
2009,11,432.1335206929393,PROPERTY DAMAGE,47.35725158395489
2009,9,335.7938696231901,CAR PROWL,35.128128806734594
2009,3,244.9306147259548,CAR PROWL,40.89629735479817
2009,1,661.5104497963267,CAR PROWL,38.1569968406253
2009,8,219.52158357450114,CAR PROWL,37.59690479065332
2009,10,267.1980196277257,CAR PROWL,29.790255280192483
2009,5,282.8950524363255,BURGLARY,43.140534391612384
2009,2,264.2807213336023,CAR PROWL,53.767979352751155
2009,7,241.95574628151888,CAR PROWL,25.981763787653815
1994,6,0.07394060253236524,PROPERTY DAMAGE,96.0681932200904
1994,1,0.12847081778953262,THREATS,85.10977045841904
1994,10,0.05100206213833182,FRAUD,100.00000000000001
1995,9,0.004542960006825973,FRAUD,100.0
1995,2,0.0340048228831293,FRAUD,100.0
2015,6,472.1278460352573,FRAUD,42.65244202491004
2015,11,185.40499639895143,CAR PROWL,30.123035100002113
2015,12,8.799217803303977,VEHICLE THEFT,39.54467925857021
2015,4,345.2134186082611,CAR PROWL,25.860929947891595
2015,9,279.1478605146029,CAR PROWL,23.6155198786376
2015,3,346.2066357148983,CAR PROWL,23.160266255955136
2015,1,383.84159580449625,CAR PROWL,36.6789667663471
2015,8,464.27674181431416,CAR PROWL,33.49990493275777
2015,10,269.28944637427657,CAR PROWL,27.608968766348895
2015,5,334.4223441936386,CAR PROWL,26.423181470213596
2015,2,244.42193695892973,VEHICLE THEFT,21.92159524273803
2015,7,293.69453602430474,CAR PROWL,27.77874773974279
2013,6,1560.066346452219,CAR PROWL,47.987185357970326
2013,11,1064.5046360101267,CAR PROWL,46.27743952248608
2013,12,1046.325029326979,PROPERTY DAMAGE,39.146330353693
2013,4,1701.1521053187278,CAR PROWL,52.15798107635383
2013,9,1291.0370345886142,CAR PROWL,69.20735475524623
2013,3,1433.2520525458378,CAR PROWL,73.60632260952912
2013,1,972.0208818528404,PROPERTY DAMAGE,43.8906559730819
2013,8,879.440664566664,BURGLARY,48.20195018359704
2013,10,504.78304248889384,CAR PROWL,30.81811806632125
2013,5,1039.9675351856802,BIKE THEFT,34.564354009526795
2013,2,859.5041240489212,BURGLARY,44.812067857681356
2013,7,494.5501575833982,CAR PROWL,26.985219072683876
1990,5,0.012194947246185696,THREATS,100.0
1990,1,0.007839591344412585,LOST PROPERTY,100.0
1990,11,0.017273793775315942,[INC - CASE DC USE ONLY],100.0
2011,6,922.6129073417347,VEHICLE THEFT,44.88076632434946
2011,4,265.20406301728497,CAR PROWL,23.684023099556917
2011,12,403.6907396124857,CAR PROWL,34.85952557424416
2011,11,630.2659255458785,CAR PROWL,62.13289691854832
2011,9,607.5002311931546,BURGLARY,22.817693829633548
2011,3,1264.3628604161947,CAR PROWL,74.59073656101448
2011,1,274.3050949105871,CAR PROWL,25.29080305107393
2011,8,342.92891392611665,CAR PROWL,21.75700705167604
2011,10,418.67837554106563,CAR PROWL,24.143086306676473
2011,5,471.782082062459,CAR PROWL,33.93633995889152
2011,2,218.50252108027848,OTHER PROPERTY,18.137855701987814
2011,7,431.674025471377,CAR PROWL,20.481741582402407
2001,6,1.3222726898708446,PROPERTY DAMAGE,58.24251311227717
2001,11,0.05586679416349333,BURGLARY,55.269958576768
2001,12,0.045042567489726,FRAUD,100.0
2001,4,0.534488368938918,THREATS,64.40882516563326
2001,9,0.17484568593479163,OTHER PROPERTY,72.06593535880144
2001,3,0.18192555292771317,CAR PROWL,52.323006750613594
2001,1,0.7984424553189365,FRAUD,76.5433758720748
2001,8,0.08020983493573812,CAR PROWL,46.42448170928006
2001,10,0.21973984159644358,CAR PROWL,47.20012543427414
2001,5,0.1789854876421551,BURGLARY,77.16122088956391
2001,2,0.05646601399359578,PICKPOCKET,41.94210331101051
2001,7,0.08639033810960062,FRAUD,42.77654545751078
2003,6,0.017218886402104703,FRAUD,100.0
2003,11,0.21175428355988601,FRAUD,77.84184009987476
2003,12,0.28322206595154464,FRAUD,99.49095246016985
2003,4,0.02766208436403622,CAR PROWL,100.00000000000001
2003,9,0.223697651427691,OTHER PROPERTY,88.02422291460181
2003,3,0.05798786009103608,FRAUD,78.27472001084226
2003,1,0.4274134384092289,FRAUD,35.82231768565432
2003,8,0.04658451613912971,FRAUD,80.41782044331417
2003,10,0.0032455014544500857,FRAUD,99.99999999999999
2003,5,0.030910953834143138,FRAUD,100.0
2003,2,0.6379783797294891,OTHER PROPERTY,96.61352923389538
2003,7,0.13698010867513033,FRAUD,79.76513558166236
1965,1,0.09573459759168038,LOST PROPERTY,100.00000000000001
1998,1,2.2414774121262493,FRAUD,96.36080027325755
1998,11,0.03241847341329284,FRAUD,87.91015028106304
1998,5,0.004717672574246435,OTHER PROPERTY,100.0
1998,3,0.2707414764990247,CAR PROWL,84.70194504628955
1998,8,0.06709918399374877,[INC - CASE DC USE ONLY],100.0
2002,1,0.2879613243800621,EMBEZZLE,41.42362856337483
2002,8,0.028638420825165423,FRAUD,78.18116008171529
2002,10,0.07008112643826753,FRAUD,100.0
2002,12,0.014109958826126638,FRAUD,100.0
2002,4,0.024339778988141134,FRAUD,100.0
2002,11,0.01525004965946282,CAR PROWL,100.0
2002,6,0.06151868854160874,PROPERTY DAMAGE,56.974400498526236
2002,3,0.01898900081664751,DUI,64.24420547406858
2002,2,2.8759720716326695,FRAUD,98.5846583126998
2007,6,2.3100888914878777,FRAUD,27.013597258149055
2007,4,2.55797717635598,OTHER PROPERTY,40.274179040469626
2007,12,16.61140558623666,OTHER PROPERTY,25.920856499148265
2007,11,3.7212945736294336,FRAUD,31.76470100515392
2007,9,4.066906370498589,LOST PROPERTY,38.753947476764885
2007,3,1.1148672271155926,VEHICLE THEFT,58.30782888512792
2007,1,3.8180896067895014,FORGERY,55.949937277890534
2007,8,1.6221543948052766,FRAUD,59.98962491476124
2007,10,1.9647530239447966,FRAUD,37.86586024302219
2007,5,1.0113355981692453,FRAUD,57.398853894593444
2007,2,1.51667673075336,FRAUD,55.441422331183354
2007,7,2.722068800169672,FRAUD,64.76312777527998
2004,6,0.11051980651142285,FRAUD,91.29675286733618
2004,4,0.09892322598544359,LOST PROPERTY,55.265690382847005
2004,12,0.0032780269154670375,VEHICLE THEFT,100.0
2004,11,0.28130069179208483,CAR PROWL,62.68748521456685
2004,9,0.11595919354603082,CAR PROWL,38.180808416031745
2004,3,1.2013160672754768,FRAUD,86.01245983420061
2004,1,0.6449446087237827,FRAUD,77.68502998893679
2004,8,0.26146602555731496,FRAUD,67.77187061004042
2004,10,0.3111556913817348,PROPERTY DAMAGE,76.8947594845218
2004,5,0.15350635273529595,FRAUD,81.66716768196443
2004,2,0.06836714666096616,FORGERY,33.80810175095132
2004,7,0.08795514830253053,FRAUD,100.0
1997,1,0.26292128810545706,FRAUD,92.53730857975984
1997,11,0.005193421266535204,FRAUD,100.00000000000001
1997,10,0.06513484401659031,FRAUD,100.0
1997,5,0.05442089024701941,FRAUD,100.0
1997,9,0.002846819811208368,FRAUD,99.99999999999999
1997,2,0.05208995302696759,FRAUD,100.0
2006,6,1.9687033295305938,TRESPASS,53.12037416721455
2006,4,0.25883574607523685,FRAUD,37.53748430167627
2006,12,1.017649579138476,FRAUD,73.54804685180576
2006,11,0.2125124421427972,FRAUD,52.3250180370438
2006,9,0.9015128527914436,FRAUD,58.34732041051112
2006,3,0.4261473369920839,FRAUD,62.474039708694114
2006,1,2.636197854815572,FRAUD,81.42116089237122
2006,8,0.20998882137049757,FRAUD,68.10306740615604
2006,10,0.23881772136206242,FRAUD,39.978924241326304
2006,5,0.4216769577514446,[INC - CASE DC USE ONLY],45.57105378756692
2006,2,0.45442062337969247,FRAUD,59.78302563047126
2006,7,0.2726285417218698,FRAUD,41.26655512528641
1991,1,0.04104639723834912,FRAUD,100.0
1991,11,0.07822335458108329,FRAUD,100.0
1991,9,0.0024054098041147018,FRAUD,100.0
2005,6,0.1790553786530106,OTHER PROPERTY,56.06026589990749
2005,11,0.061247756253895724,[INC - CASE DC USE ONLY],35.49533313809418
2005,12,0.16535055197662063,FRAUD,56.77540161779207
2005,4,1.1227942671370617,FRAUD,88.82075629917573
2005,9,0.15727057311786155,THREATS,38.05437251580746
2005,3,0.46045901629768093,FRAUD,58.288779007923836
2005,1,0.9341541048639449,FRAUD,56.45962702254996
2005,8,0.4025883160139666,EMBEZZLE,37.38612943471701
2005,10,0.30692666901613036,OTHER PROPERTY,54.88103311733117
2005,5,0.14501466963720938,FRAUD,98.30410558299612
2005,2,0.13796151256573094,FRAUD,93.80503672144776
2005,7,0.0644761478651687,FRAUD,75.62389090064306
1996,6,0.041309634737225986,FRAUD,100.0
1996,8,0.006402690877035375,FRAUD,100.0
1996,12,0.012982114966604638,CAR PROWL,100.0
1900,01,2.6194154054829677e-09,STOLEN PROPERTY,100.0
2000,1,0.22128306830934413,FRAUD,82.39076839760051
2000,8,0.20529508008592287,OTHER PROPERTY,68.88139058705299
2000,7,0.043245389526007046,FRAUD,67.95012206310125
2000,10,0.0062913779705668395,CAR PROWL,100.0
2000,3,0.17149155430027874,OTHER PROPERTY,90.2234429132606
2000,4,0.2842973297514253,FRAUD,100.0
2000,5,0.2364784036614314,FRAUD,60.81740954940174
2000,6,0.0898442341114746,CAR PROWL,81.3680437939467
2000,9,1.1428643435909498,CAR PROWL,88.85407265813564
2000,2,0.06731190051553544,INJURY,66.08941934523689
2000,11,0.08947275967400503,THEFT OF SERVICES,84.13520419739254
2014,6,1124.838324502688,STOLEN PROPERTY,40.30973575747958
2014,11,290.9255581019906,OTHER PROPERTY,23.47331953761512
2014,12,382.2768381650457,CAR PROWL,31.62342761230254
2014,4,638.1356598309264,CAR PROWL,23.86795493665116
2014,9,506.86284518095437,CAR PROWL,33.66710423718169
2014,3,516.7807736905928,CAR PROWL,24.82177869930179
2014,1,973.552245752052,BURGLARY,38.454639109231316
2014,8,717.1754996615208,CAR PROWL,53.783753908756296
2014,10,394.7296392995705,CAR PROWL,27.641965024465854
2014,5,517.9522072401984,CAR PROWL,22.222798730148465
2014,2,534.6171294094643,CAR PROWL,23.506356027817187
2014,7,1287.925898726073,CAR PROWL,38.244635307309736
1989,6,0.08315482136187907,[INC - CASE DC USE ONLY],99.99999999999999
1983,2,0.009228107216893433,RECOVERED PROPERTY,100.0
2008,6,227.81202249647657,CAR PROWL,19.460914739618392
2008,4,232.10614354355587,CAR PROWL,20.780163736936643
2008,12,289.55798480917343,CAR PROWL,42.75660293670841
2008,11,568.0419270944133,BURGLARY,38.34545634943242
2008,9,249.081003355017,CAR PROWL,23.312420094213252
2008,3,312.41546144365014,PROPERTY DAMAGE,37.07388973753792
2008,1,213.05632715783315,BURGLARY,21.404510562544402
2008,8,428.1325799175414,PROPERTY DAMAGE,37.451750345184905
2008,10,189.54937624186252,CAR PROWL,21.360847939626495
2008,5,268.45771140069616,CAR PROWL,17.84502761010795
2008,2,193.5319053154578,CAR PROWL,24.890495753486803
2008,7,174.9159151670026,CAR PROWL,20.28313960163695
1992,7,0.003008632830212973,LOST PROPERTY,100.0
1993,1,0.006069594183399266,FRAUD,99.99999999999999
1993,10,0.051028812576078136,FRAUD,88.18315969175679
2010,6,309.00683669577523,CAR PROWL,17.675136891098703
2010,11,247.79849609946635,CAR PROWL,31.664483421429843
2010,12,329.6586567777792,BURGLARY,23.187072216012005
2010,4,173.0560277270518,CAR PROWL,23.969504084573952
2010,9,459.4062204984254,CAR PROWL,41.573100051336155
2010,3,204.3589174113403,CAR PROWL,25.641674502377107
2010,1,387.1953812743659,FRAUD,52.92541157776058
2010,8,232.6510045482007,CAR PROWL,16.59350502047715
2010,10,316.5940855256349,CAR PROWL,23.485310180527232
2010,5,275.8127119104826,OTHER PROPERTY,39.89202868009764
2010,2,208.08135762760915,OTHER PROPERTY,23.694001816653387
2010,7,101.40150450477154,OTHER PROPERTY,23.002329034650355
2012,6,379.22856638805854,CAR PROWL,24.19760171310767
2012,4,416.6674606084523,CAR PROWL,27.15934276693172
2012,12,277.0596546007406,BURGLARY,17.705219589325615
2012,11,167.38292806790642,BURGLARY,19.676345999992908
2012,9,318.50173838314913,VEHICLE THEFT,26.32456963903078
2012,3,409.9220493439852,BURGLARY,16.81737544769303
2012,1,356.9461010607162,CAR PROWL,22.720320022798923
2012,8,404.9159188119609,CAR PROWL,20.518734005405193
2012,10,191.92606944983473,BURGLARY,15.279850563289562
2012,5,532.5841427215561,CAR PROWL,43.15796654633737
2012,2,378.0563059269415,CAR PROWL,37.41850496614585
2012,7,457.2713590931998,CAR PROWL,27.029558995515202
1999,1,0.12898164468172746,FRAUD,100.0
1999,11,0.008204152511564365,FRAUD,100.0
1999,9,0.13680488917766526,FRAUD,100.0
1999,6,0.005655735337962735,[INC - CASE DC USE ONLY],100.0
