year,month,influence,largestInfluencer,largestInfluencerPercent
2009,6,166.86937674151895,OTHER PROPERTY,46.083732125007316
2009,4,106.57857355539002,CAR PROWL,18.004473970095358
2009,12,131.19344978536733,CAR PROWL,52.30723393670277
2009,11,90.09781332973306,BURGLARY,33.97458578933498
2009,9,129.10844444164658,BURGLARY,30.18301707771642
2009,3,108.94018890098569,PROPERTY DAMAGE,17.317726736886375
2009,1,380.85098100563795,PROPERTY DAMAGE,35.4929766364872
2009,8,84.56487092048816,VEHICLE THEFT,13.159015670534549
2009,10,116.55246753440592,CAR PROWL,21.919032062357964
2009,5,63.471708943581625,CAR PROWL,21.888801874215197
2009,2,115.45731554512635,VEHICLE THEFT,28.23867440674601
2009,7,104.70384866793906,BURGLARY,18.694761158434577
1994,6,0.03532736526617203,OTHER PROPERTY,69.67495602218447
1994,1,0.017519077474231204,THREATS,87.08914304266291
1994,10,0.009157654051498506,FRAUD,100.0
1995,9,0.0012625837442697564,FRAUD,100.0
1995,2,0.009481401970866684,FRAUD,100.0
2015,6,108.071012437931,BURGLARY,21.02513459956199
2015,11,109.46090438816161,CAR PROWL,22.389924395009103
2015,12,5.781775349720364,THREATS,23.450538548925728
2015,4,200.75902838755326,CAR PROWL,41.50115909584722
2015,9,89.52424050267732,CAR PROWL,24.48877484526019
2015,3,92.87226922911309,BURGLARY,18.633874626558153
2015,1,332.24381238794064,BURGLARY,62.593176483655036
2015,8,126.60594249203115,DISTURBANCE,16.440319751519983
2015,10,139.1606250200311,CAR PROWL,28.56734722430805
2015,5,84.52312309532982,CAR PROWL,17.192942220340143
2015,2,80.49454587717581,FRAUD,15.702169295871029
2015,7,98.03304420005482,VEHICLE THEFT,9.625226275172665
2013,6,196.32735726038774,CAR PROWL,14.39433915230789
2013,11,193.1286413227787,OTHER PROPERTY,17.81369060516293
2013,12,248.2397374089111,OTHER PROPERTY,14.71522614298334
2013,4,181.86462271570855,CAR PROWL,24.698435847961772
2013,9,283.3934439499536,FRAUD,17.91975572181226
2013,3,630.3846468910594,OTHER PROPERTY,22.417458716496288
2013,1,275.0969395066276,CAR PROWL,32.71602873403637
2013,8,302.11825624330385,CAR PROWL,23.379233031575566
2013,10,477.77329998067904,CAR PROWL,51.08407214681131
2013,5,316.5870175815369,BURGLARY,20.149618907825595
2013,2,224.6056764026062,BURGLARY,22.15444669911386
2013,7,257.84380369817717,OTHER PROPERTY,16.864946186043987
1990,5,0.0021879828578779074,THREATS,100.0
1990,1,0.0015501401300134663,LOST PROPERTY,100.0
1990,11,0.009249924257943527,[INC - CASE DC USE ONLY],100.0
2011,6,280.8488582699062,CAR PROWL,23.732650461386395
2011,4,131.9719083961955,CAR PROWL,16.189389643202063
2011,12,340.1675889756596,ASSAULT,40.715005201338755
2011,11,245.63157076819985,CAR PROWL,30.230155411168887
2011,9,257.45818353078033,OTHER PROPERTY,24.152057252850554
2011,3,188.21380835229553,OTHER PROPERTY,18.337635680567292
2011,1,94.48101742293939,BURGLARY,33.905972758993656
2011,8,233.75509266073428,CAR PROWL,22.018962360995616
2011,10,265.7876445883669,CAR PROWL,27.417917422807285
2011,5,512.0516809654565,BURGLARY-SECURE PARKING-RES,26.422786853744917
2011,2,119.59196529560104,OTHER PROPERTY,24.522454810017944
2011,7,222.89427766477053,OTHER PROPERTY,15.917288591414387
2001,6,0.08843627213487536,FRAUD,52.593202155029665
2001,11,5.021294246330718,OTHER PROPERTY,98.03589336828368
2001,12,0.012887430887576358,FRAUD,100.0
2001,4,0.06691557361644188,FRAUD,60.77862064114321
2001,9,0.05635639271541136,BURGLARY,65.64741494909853
2001,3,0.05974859602777646,CAR PROWL,57.8591165970745
2001,1,0.21384751046682232,ASSAULT,61.22329256595826
2001,8,0.11377612583700028,BURGLARY,66.74352877159497
2001,10,0.07323597089720443,FRAUD,47.70149692444145
2001,5,0.030995989934812878,FRAUD,82.26613095164126
2001,2,0.06006423229257727,OTHER PROPERTY,53.56017015944572
2001,7,0.023034527532442617,FRAUD,47.2569474778809
2003,6,0.0020890884780647915,FRAUD,100.0
2003,11,0.05218660300621511,FRAUD,64.39488543418042
2003,12,0.01688083152406205,FRAUD,83.54959252352891
2003,4,0.010669354899190627,CAR PROWL,99.99999999999999
2003,9,0.017515997976339955,FRAUD,41.12854449497068
2003,3,0.01661899269235458,FRAUD,83.23423836915863
2003,1,0.06510000574209668,FRAUD,50.707192143799105
2003,8,0.043415856297532446,ASSAULT,69.90546634339285
2003,10,0.005611894765296764,FRAUD,100.0
2003,5,0.0063810798264146915,FRAUD,100.0
2003,2,0.014038226294326283,FRAUD,59.78922124331018
2003,7,0.02741999624189167,LOST PROPERTY,87.56287944323003
1965,1,0.0035777316965145186,LOST PROPERTY,100.0
1998,1,0.03829345695045334,FRAUD,42.54691873216635
1998,11,0.18568131350963968,OTHER PROPERTY,96.73922702611952
1998,5,0.24901076961771618,OTHER PROPERTY,100.0
1998,3,0.011693992193513011,CAR PROWL,54.35674883245361
1998,8,0.0030594478407054,[INC - CASE DC USE ONLY],99.99999999999999
2002,1,0.734421247392945,FRAUD,95.2892463984192
2002,8,0.010038321924648734,THREATS,54.05136090437276
2002,10,0.01683918153414725,FRAUD,100.0
2002,12,0.002313146219265767,FRAUD,100.0
2002,4,0.002437588170170204,FRAUD,100.0
2002,11,0.0020981341224555446,CAR PROWL,100.0
2002,6,0.028992569195284087,[INC - CASE DC USE ONLY],37.01220708712955
2002,3,0.007084863224501799,DUI,79.63429497078067
2002,2,0.018195165557156216,EMBEZZLE,46.125310563938775
2007,6,1.547559535924935,EMBEZZLE,71.31053833381476
2007,4,0.24400468670245332,FRAUD,35.99107110309994
2007,12,14.55792260446388,FRAUD,28.980362328352676
2007,11,2.3776712840296392,OTHER PROPERTY,47.340591120041395
2007,9,1.44508060330729,FRAUD,77.34732532196925
2007,3,0.44379387179896174,FRAUD,44.20323645761054
2007,1,1.1291588170622346,VEHICLE THEFT,56.67357311555893
2007,8,2.487731153519624,DISTURBANCE,67.78394479159601
2007,10,0.9977497365563842,OTHER PROPERTY,36.03789295536938
2007,5,0.22499453848498102,FRAUD,36.00920876902342
2007,2,0.21318361576516584,FRAUD,40.220160639152
2007,7,0.9581068695913096,FRAUD,79.55974211450302
2004,6,0.05128427180921531,LOST PROPERTY,91.81195698848946
2004,4,0.028200401258477885,FRAUD,44.65764732715261
2004,12,0.0060177262098458145,VEHICLE THEFT,99.99999999999999
2004,11,0.03592924813430762,[INC - CASE DC USE ONLY],36.541317978201754
2004,9,0.04036552775968458,PROPERTY DAMAGE,33.07624817098557
2004,3,0.024297069440399915,STOLEN PROPERTY,39.46630008944775
2004,1,0.19290069704364343,FRAUD,78.11520209728084
2004,8,0.058406979091585945,FRAUD,72.203089601758
2004,10,0.03823640843090311,OTHER PROPERTY,44.82385393571632
2004,5,0.03605640503403914,FRAUD,75.64639751027711
2004,2,0.24907895439343358,FRAUD,90.27138815495732
2004,7,0.01571371818013634,FRAUD,100.0
1997,1,0.009027566773735169,FRAUD,74.00016697250403
1997,11,0.018852383277425548,FRAUD,100.0
1997,10,0.006358102877656615,FRAUD,100.0
1997,5,0.016130183447611697,FRAUD,100.0
1997,9,0.006389306683528738,FRAUD,100.0
1997,2,0.006378781417766667,FRAUD,100.0
2006,6,2.065509258887799,[INC - CASE DC USE ONLY],87.78921908933087
2006,4,0.37340487178532966,FRAUD,74.56512061470264
2006,12,0.1278320519251384,FRAUD,61.42201912285637
2006,11,0.5085239857220002,VEHICLE THEFT,84.42942180116941
2006,9,0.11604078750413241,FRAUD,75.49674583667962
2006,3,0.10206106432889352,FRAUD,48.037897386310476
2006,1,1.6727087363180007,SHOPLIFTING,75.21881674007852
2006,8,0.2940140729760007,FRAUD,89.46115788564045
2006,10,0.29989965457117357,FRAUD,84.78695004312159
2006,5,0.11346198390961852,FRAUD,35.72870703246185
2006,2,0.11399677755257823,FRAUD,60.619185547245635
2006,7,0.33894408350706506,[INC - CASE DC USE ONLY],66.14765860806222
1991,1,0.008103911661334267,FRAUD,100.0
1991,11,0.010013276647365574,FRAUD,100.0
1991,9,0.004882751487291794,FRAUD,100.0
2005,6,0.04076658296606178,FRAUD,39.251207066870045
2005,11,0.08575343777063175,FORGERY,78.61480081492425
2005,12,0.1269413677625263,[INC - CASE DC USE ONLY],61.110958726107185
2005,4,0.048567897420305164,FRAUD,57.31380600962128
2005,9,0.13818441417711333,FORGERY,54.32011969509875
2005,3,1.8789614299923056,OTHER PROPERTY,94.85105510553635
2005,1,0.7266205987153808,THREATS,45.24404399533549
2005,8,0.3106314123860213,FRAUD,89.39051999750184
2005,10,0.024050072544349693,FRAUD,71.59284092612994
2005,5,0.024016557814695326,FRAUD,67.32664687187882
2005,2,0.04502939726753674,FRAUD,79.81828600665415
2005,7,0.01632066850497796,FRAUD,66.03162773186175
1996,6,0.0027395286546896733,FRAUD,100.00000000000001
1996,8,0.009346256497396193,FRAUD,100.0
1996,12,0.01147737693765194,CAR PROWL,100.0
1900,01,2.616643883780989e-09,STOLEN PROPERTY,100.0
2000,1,0.047740839885510054,FRAUD,73.17579415966318
2000,8,0.0358783615664543,OTHER PROPERTY,70.30864129053258
2000,7,0.07147033941409628,ASSAULT,83.56046967476257
2000,10,0.005064388716012827,CAR PROWL,100.0
2000,3,0.02060146858890644,OTHER PROPERTY,52.21679115252329
2000,4,0.014752265138802852,FRAUD,100.0
2000,5,0.0325971540815052,FRAUD,56.57343987325809
2000,6,0.011923527187410125,CAR PROWL,72.72282342231863
2000,9,0.029440676448647334,FRAUD,85.39204066964264
2000,2,0.02011067892207167,FRAUD,55.748923568334575
2000,11,0.027548064620064795,PROPERTY DAMAGE,57.221727693605864
2014,6,227.77184136885606,BURGLARY,19.06923028450952
2014,11,156.77526362313887,BURGLARY,28.76452802383665
2014,12,149.25328273301704,BURGLARY,32.85166637825427
2014,4,263.75787452111666,VEHICLE THEFT,21.23912373124101
2014,9,243.34631096137934,CAR PROWL,25.452202646034916
2014,3,294.2944517188146,FRAUD,44.85077167450529
2014,1,204.94567294485665,OTHER PROPERTY,15.105049002633145
2014,8,146.9124997924669,OTHER PROPERTY,16.19196511908586
2014,10,163.66393048987828,CAR PROWL,15.8245456102599
2014,5,177.2244115425892,CAR PROWL,16.267089922460737
2014,2,202.1210055652743,FRAUD,20.91701995922007
2014,7,222.83715174294713,BURGLARY,11.663728413223856
1989,6,0.005455464565219604,[INC - CASE DC USE ONLY],100.00000000000001
1983,2,0.013186778505872146,RECOVERED PROPERTY,100.0
2008,6,107.29513696732761,BURGLARY,27.129968019773955
2008,4,152.78791225427082,PROPERTY DAMAGE,48.40594658806124
2008,12,115.66606677191301,CAR PROWL,27.679082610317476
2008,11,122.2689356751074,VEHICLE THEFT,21.126993158081696
2008,9,97.68080768532553,OTHER PROPERTY,26.269861476548247
2008,3,94.99305990991022,CAR PROWL,26.920690480323916
2008,1,164.67990824612056,PROPERTY DAMAGE,43.42004653605572
2008,8,99.96393460032286,BURGLARY,23.70772666004592
2008,10,158.52050473909887,VEHICLE THEFT,45.55571038468016
2008,5,134.8253240110946,CAR PROWL,22.6168654352553
2008,2,173.25369768516046,PROPERTY DAMAGE,40.27175878686279
2008,7,64.97129934650403,CAR PROWL,21.64062538581876
1992,7,0.026958247337647227,LOST PROPERTY,100.0
1993,1,0.48723587520141076,FRAUD,100.0
1993,10,0.01828341305564342,FRAUD,59.09024723194212
2010,6,127.53347304321716,OTHER PROPERTY,18.016686700099335
2010,11,99.23899073385311,CAR PROWL,19.407650168437186
2010,12,215.1598578128965,CAR PROWL,62.981171446341605
2010,4,84.26937931919261,CAR PROWL,17.326444880155492
2010,9,179.4686406952535,BURGLARY,45.90762496376784
2010,3,163.836927633257,OTHER PROPERTY,49.86952635698141
2010,1,93.54333855425195,CAR PROWL,40.381406729837366
2010,8,185.50220982644873,CAR PROWL,49.050778664373794
2010,10,169.5259594756066,PROPERTY DAMAGE,30.529608884939815
2010,5,214.80777570685206,CAR PROWL,65.57410828109762
2010,2,116.37010208245643,FRAUD,20.39330600729797
2010,7,26.376762263287635,BURGLARY,22.072001858443205
2012,6,212.97966278977498,CAR PROWL,14.915685960314972
2012,4,385.1596096346261,BURGLARY,41.5377080195402
2012,12,114.41779261317866,OTHER PROPERTY,23.97100167071219
2012,11,208.63762492392172,CAR PROWL,37.40900480966046
2012,9,270.21586691204624,BURGLARY,51.757146142510265
2012,3,143.02859425120192,CAR PROWL,14.595431391233952
2012,1,424.2627789230782,OTHER PROPERTY,57.710625635004966
2012,8,177.59993011900937,OTHER PROPERTY,12.80111916278906
2012,10,206.19396898609332,CAR PROWL,34.835326886248204
2012,5,137.6897805346233,CAR PROWL,13.359601172773518
2012,2,175.36239517223416,CAR PROWL,18.391924660870036
2012,7,286.16326710117045,CAR PROWL,23.75530320650811
1999,1,0.0197536890690715,FRAUD,100.0
1999,11,0.0015767548857801054,FRAUD,100.0
1999,9,0.014833840431391106,FRAUD,100.0
1999,6,0.006540350350211996,[INC - CASE DC USE ONLY],100.0
