year,month,influence,largestInfluencer,largestInfluencerPercent
2009,6,3527.2438523909755,VEHICLE THEFT,48.72031052072318
2009,4,103.33850311338786,BURGLARY,19.267896765422286
2009,12,81.24322423150241,OTHER PROPERTY,13.888049528226029
2009,11,127.46623919973919,BURGLARY,22.017736258658825
2009,9,1931.1539480307317,BIKE THEFT,88.60162258850448
2009,3,1808.401088724212,BURGLARY,95.10419294354364
2009,1,107.29191055129616,OTHER PROPERTY,15.60314387848111
2009,8,1913.9703661325825,CAR PROWL,90.49222806966861
2009,10,1814.8069670017182,DISTURBANCE,94.27223903298612
2009,5,1805.0328488338355,VEHICLE THEFT,95.02794907616469
2009,2,3505.5099236624033,VEHICLE THEFT,49.10559381981008
2009,7,1827.1704301837926,STOLEN PROPERTY,93.61150904680929
1994,6,0.1187253797506704,OTHER PROPERTY,91.26872133417116
1994,1,0.015504524689424651,THREATS,86.56307953648387
1994,10,0.007584239715093839,FRAUD,100.0
1995,9,0.0010918739369082011,FRAUD,100.0
1995,2,0.008398872955099532,FRAUD,100.0
2015,6,1806.928063954729,BURGLARY,95.02095486158204
2015,11,297.3644933170205,OTHER PROPERTY,33.021787234915564
2015,12,7.191794422565607,VEHICLE THEFT,50.06619459281518
2015,4,100.31061802058532,DISTURBANCE,11.372605597028839
2015,9,106.64322548014297,CAR PROWL,15.228572457074703
2015,3,97.85292971020432,BURGLARY,18.291269061250844
2015,1,212.96131749615583,PROPERTY DAMAGE,24.39911731080134
2015,8,97.81967172696098,OTHER PROPERTY,17.26299031176597
2015,10,126.7154861456878,CAR PROWL,20.06183594834612
2015,5,1806.5161201999488,CAR PROWL,95.20347928915699
2015,2,276.2543242055281,BURGLARY,66.09757214506092
2015,7,116.53193224796034,CAR PROWL,17.233361679809455
2013,6,225.75060852105284,CAR PROWL,23.4236509206039
2013,11,222.48571282597518,BURGLARY,29.496642402793707
2013,12,3871.3507473695818,STOLEN PROPERTY,88.41639158517224
2013,4,272.03135193812307,FRAUD,15.13349066169885
2013,9,3648.620836102071,THREATS,93.82481332699317
2013,3,254.3588030761368,FRAUD,14.726267056750315
2013,1,292.9663875071006,BURGLARY,24.04580002750168
2013,8,208.48369731063207,CAR PROWL,16.61150376934202
2013,10,389.39760717623324,THREATS,45.68521038772329
2013,5,7122.559061307727,PROPERTY DAMAGE,97.24034731782113
2013,2,231.26633803306567,OTHER PROPERTY,34.35304945284346
2013,7,191.19216557701992,CAR PROWL,18.607557356704163
1990,5,0.0021351327565645594,THREATS,100.0
1990,1,0.0013669387657329177,LOST PROPERTY,100.0
1990,11,0.009641895811958887,[INC - CASE DC USE ONLY],100.0
2011,6,3669.2908161890855,THREATS,93.36653388901635
2011,4,221.65588462730335,VEHICLE THEFT,43.2939634076715
2011,12,419.803288838381,DISTURBANCE,43.37296749413299
2011,11,3872.374730501376,VEHICLE THEFT,88.9176657646426
2011,9,219.1740205132103,BURGLARY,17.187222240534318
2011,3,207.44692667478589,OTHER PROPERTY,20.10879300171129
2011,1,118.32627143420896,DISTURBANCE,19.848732723707894
2011,8,3669.9277023063623,THREATS,93.32711577691492
2011,10,412.30361676075285,PROPERTY DAMAGE,46.544800480432855
2011,5,221.71585279549836,OTHER PROPERTY,17.929118363512114
2011,2,3627.2665828189106,VEHICLE THEFT,94.39897356436386
2011,7,3753.2091342238878,FRAUD,91.66618451127174
2001,6,0.1915375213645398,FRAUD,81.39612223917297
2001,11,0.12637819110363413,OTHER PROPERTY,77.89224606613918
2001,12,0.012396729769986682,FRAUD,100.0
2001,4,0.11378261211272957,FRAUD,72.50749437443966
2001,9,0.0841562445265843,BURGLARY,64.37187017353523
2001,3,0.06651074767211489,CAR PROWL,59.53324292798755
2001,1,0.1595586104750237,FRAUD,63.364702451411404
2001,8,0.07663530664137311,BURGLARY,33.985321647084255
2001,10,0.08219634976705903,FRAUD,58.04464166048964
2001,5,0.03739467588383404,FRAUD,88.93710860257222
2001,2,0.08050193983430458,OTHER PROPERTY,52.41366865586955
2001,7,0.022609968392381607,FRAUD,50.50268257584441
2003,6,0.001857650469787175,FRAUD,100.0
2003,11,0.05936205316677838,FRAUD,69.77009084769674
2003,12,0.01638194972109806,FRAUD,74.11315383070786
2003,4,0.009497529208448511,CAR PROWL,100.0
2003,9,0.02060269001474043,FRAUD,56.30042289469567
2003,3,0.02189433686321644,FRAUD,88.6202242550217
2003,1,0.06408696881505421,FRAUD,52.21058890900528
2003,8,0.06494279731539403,ASSAULT,77.95045248300433
2003,10,0.009389139314147808,FRAUD,100.0
2003,5,0.0043535396997303,FRAUD,100.0
2003,2,0.012841985614612784,FRAUD,65.45479971000093
2003,7,0.02868568568933167,LOST PROPERTY,90.08761944458314
1965,1,0.003187808430971287,LOST PROPERTY,100.0
1998,1,0.037067286863133875,FRAUD,37.73156183000226
1998,11,0.30954349614030957,OTHER PROPERTY,98.069431095717
1998,5,0.03261970203810105,OTHER PROPERTY,100.0
1998,3,0.010057839241968847,CAR PROWL,52.19326463675032
1998,8,0.0026005975957042486,[INC - CASE DC USE ONLY],100.0
2002,1,1709.3845143478743,FRAUD,99.99818543532736
2002,8,0.013732367558133576,THREATS,69.43647556680082
2002,10,0.015382644498571133,FRAUD,100.0
2002,12,0.001875516941897489,FRAUD,100.0
2002,4,0.0022262202791489454,FRAUD,100.0
2002,11,0.0019493475919542247,CAR PROWL,100.0
2002,6,0.037460826018147486,FRAUD,37.552905378353564
2002,3,0.00766642921189012,DUI,83.2077432127831
2002,2,0.015876524207535745,EMBEZZLE,52.93970920767227
2007,6,1.5516004874132525,FRAUD,75.1184991611724
2007,4,0.6813080468957371,VEHICLE THEFT,70.79765573636011
2007,12,20.312454912506112,VEHICLE THEFT,49.53510328721374
2007,11,1.9013328515577104,OTHER PROPERTY,52.7967429806207
2007,9,1.372555192265915,FRAUD,44.97667170344451
2007,3,0.6968775787614507,FRAUD,46.589462113874085
2007,1,0.9204711088089603,FRAUD,33.25265285797894
2007,8,1.728915903810349,FRAUD,47.81841652292471
2007,10,2.7758845547705477,OTHER PROPERTY,40.590966940497566
2007,5,0.31215605330198803,FRAUD,35.873426950711085
2007,2,0.24921592683381025,FRAUD,60.94476561083717
2007,7,2.564082641261188,ASSAULT,72.75016856910696
2004,6,0.021509924109908176,LOST PROPERTY,82.38503365189749
2004,4,0.03535269553066172,FRAUD,60.31430531499919
2004,12,0.010351129781211336,VEHICLE THEFT,100.00000000000001
2004,11,0.03204897480990094,[INC - CASE DC USE ONLY],40.63581513898412
2004,9,0.05908148303418457,PROPERTY DAMAGE,38.70181614236745
2004,3,0.020527787118142297,STOLEN PROPERTY,36.83134154182792
2004,1,0.6244261324320635,FRAUD,92.93271467802525
2004,8,0.09653971399601746,FRAUD,85.34561901294006
2004,10,0.05267848804562813,OTHER PROPERTY,56.95951955982641
2004,5,0.04387938114837515,FRAUD,79.1565499386704
2004,2,0.2720058303785596,FRAUD,89.76051273528111
2004,7,0.014778799360705395,FRAUD,100.0
1997,1,0.007230959436864696,FRAUD,72.92056216176073
1997,11,0.044871814775574934,FRAUD,100.0
1997,10,0.005018030904975557,FRAUD,100.0
1997,5,0.015541317109149091,FRAUD,100.0
1997,9,0.011922057782264836,FRAUD,100.0
1997,2,0.005859068562231379,FRAUD,100.0
2006,6,0.45231431843310677,FRAUD,56.488967946804465
2006,4,1.169094079321522,FRAUD,94.9808647305235
2006,12,0.19585056351707744,FRAUD,74.09302508470748
2006,11,0.1880375347312435,VEHICLE THEFT,47.17487873359082
2006,9,0.25767827766299073,FRAUD,89.45713173844041
2006,3,0.18391740102312146,[INC - CASE DC USE ONLY],35.880507396260555
2006,1,2.8063843966157385,FRAUD,91.26195047782325
2006,8,0.17176040058716008,FRAUD,67.79092836309218
2006,10,0.34404542777170394,FRAUD,70.17756457626417
2006,5,0.14492981294659507,FRAUD,45.20672534860601
2006,2,0.11739364267648625,FRAUD,60.343737406274975
2006,7,1.2779502020506506,FRAUD,68.20478249625349
1991,1,0.006207207789608575,FRAUD,100.00000000000001
1991,11,0.009615472092732405,FRAUD,100.0
1991,9,0.008442051844484499,FRAUD,100.0
2005,6,0.046878124113797486,FRAUD,54.2557349544314
2005,11,0.2156695140264349,FORGERY,85.75489705896373
2005,12,0.3720193386088187,[INC - CASE DC USE ONLY],75.11217582474877
2005,4,0.04496538974772517,FRAUD,58.91971573858381
2005,9,0.5489780012541889,FORGERY,70.95648373451841
2005,3,0.18433178189862381,OTHER PROPERTY,62.50252294797574
2005,1,0.6425325656502129,FRAUD,62.87283613133519
2005,8,0.28644848134197315,FRAUD,90.20707124668287
2005,10,0.02068268490405236,FRAUD,73.00709154598633
2005,5,0.030433687230483168,ASSAULT,55.82196014608118
2005,2,0.046995359346207764,FRAUD,74.59469117182834
2005,7,0.015420712549090396,FRAUD,50.987008123096345
1996,6,0.0024179105833013934,FRAUD,100.0
1996,8,0.01455324763144808,FRAUD,99.99999999999999
1996,12,0.012767657963878144,CAR PROWL,99.99999999999999
1900,01,2.617066210990632e-09,STOLEN PROPERTY,100.0
2000,1,0.064624645481649,FRAUD,74.0058235369584
2000,8,0.03283924340163116,OTHER PROPERTY,66.6614479347856
2000,7,0.07924178185052085,ASSAULT,81.71109421152848
2000,10,0.007356149788682122,CAR PROWL,100.0
2000,3,0.01960607226209679,CAR PROWL,52.3193500652957
2000,4,0.011287323883425179,FRAUD,99.99999999999999
2000,5,0.03062083402763614,FRAUD,54.11699703989207
2000,6,0.009697196664310834,CAR PROWL,70.90363098974929
2000,9,0.028051690329799824,FRAUD,87.27793559694594
2000,2,0.020505616188061092,FRAUD,62.631572382437696
2000,11,0.056453493080366415,PROPERTY DAMAGE,80.13542207942093
2014,6,7060.288579220599,THREATS,48.541208560053754
2014,11,1868.426903287717,ASSAULT,91.83019522540805
2014,12,110.16002432898637,CAR PROWL,25.101129803501582
2014,4,188.8529250555421,OTHER PROPERTY,13.076658314901687
2014,9,185.83212540529638,OTHER PROPERTY,11.812664400534674
2014,3,209.26082365757551,FRAUD,28.611589137058875
2014,1,203.3467969278707,VEHICLE THEFT,17.009367897675446
2014,8,203.5675056094318,OBSTRUCT,14.048931048539748
2014,10,204.01660207504074,OTHER PROPERTY,22.96082276280761
2014,5,159.66022715472207,CAR PROWL,15.904752899639153
2014,2,148.12702738139294,OTHER PROPERTY,16.219109998726697
2014,7,221.7106501398884,CAR PROWL,16.289955650267665
1989,6,0.004928520765269371,[INC - CASE DC USE ONLY],100.0
1983,2,0.01707157471750436,RECOVERED PROPERTY,100.0
2008,6,110.093271623883,BURGLARY,11.095863609450817
2008,4,83.07765358546673,OTHER PROPERTY,23.789604702496355
2008,12,122.59528093709571,THREATS,26.735193245768677
2008,11,84.2141595410137,CAR PROWL,17.349306880266155
2008,9,1796.4327065531131,LOST PROPERTY,95.16112578607061
2008,3,91.84547757340576,OTHER PROPERTY,13.739067013659966
2008,1,83.31835079296246,FRAUD,15.50536424711177
2008,8,1921.8481067990954,BURGLARY,94.01935441433984
2008,10,108.27603553735142,BURGLARY,22.6849069359466
2008,5,135.87968321867734,THREATS,31.724937257822276
2008,2,81.7864590633699,FRAUD,19.027803769289015
2008,7,102.01309706613614,BURGLARY,26.93774007700664
1992,7,0.13518582361473813,LOST PROPERTY,100.0
1993,1,0.051795018281537944,FRAUD,100.0
1993,10,0.021907206626214808,FRAUD,50.299070980486086
2010,6,146.63796644438963,PROPERTY DAMAGE,18.993840173394467
2010,11,1846.1910198900923,THREATS,92.68197683729373
2010,12,1789.98415764399,OTHER PROPERTY,96.42924356699938
2010,4,1958.7085244253972,FRAUD,87.37463693013648
2010,9,3530.1643427681875,DISPUTE,96.8342860207554
2010,3,110.56758705557775,OTHER PROPERTY,16.720332915169074
2010,1,87.36574595521915,CAR PROWL,20.458836314992794
2010,8,97.2539315655556,CAR PROWL,19.068951226285932
2010,10,128.55612273751174,BURGLARY,14.735114795419083
2010,5,127.92830854244812,CAR PROWL,30.818987374114663
2010,2,1805.7543377035436,FRAUD,95.24084144250511
2010,7,36.05477308304707,OTHER PROPERTY,21.69103315490529
2012,6,439.4875801950956,DISPUTE,39.83821334684526
2012,4,192.27770629185008,OTHER PROPERTY,16.80616057128593
2012,12,101.49313630654605,OTHER PROPERTY,16.30901269173617
2012,11,168.0202504630255,DISTURBANCE,52.729597158691135
2012,9,172.35659063719015,BURGLARY,15.517639314038389
2012,3,411.14530819908254,DISTURBANCE,43.417196172365244
2012,1,208.76570282884077,BURGLARY,18.953594093038618
2012,8,440.9327610440258,PROPERTY DAMAGE,43.736788984982326
2012,10,238.61630339747163,DISTURBANCE,38.22075329818546
2012,5,272.88822214912864,ROBBERY,21.46088637670857
2012,2,398.12839387974344,BURGLARY,32.15860889678946
2012,7,294.10886219175484,BURGLARY,23.324666341515584
1999,1,0.018965495604883174,FRAUD,100.0
1999,11,0.0014531058116822315,FRAUD,100.0
1999,9,0.012817121051953873,FRAUD,100.0
1999,6,0.009397583144957998,[INC - CASE DC USE ONLY],100.0
