year,month,influence,largestInfluencer,largestInfluencerPercent
2009,6,340.68623896665457,BURGLARY,21.28114769359413
2009,4,213.15723984240017,PROPERTY DAMAGE,25.148266136649156
2009,12,149.8952953292969,VEHICLE THEFT,36.489467714455046
2009,11,239.80751904590332,OTHER PROPERTY,21.622389664683926
2009,9,201.6715300762059,THREATS,26.841186687376535
2009,3,199.66786329003835,VEHICLE THEFT,25.83721873376395
2009,1,390.33571587385416,BURGLARY,18.63287954286377
2009,8,270.2531144314193,WARRANT ARREST,58.5385894932889
2009,10,205.19828833015492,FRAUD,15.757285344526103
2009,5,22666.940986842405,ROBBERY,98.97820225224824
2009,2,152.35767176295025,CAR PROWL,16.07764086340069
2009,7,541.6532736414252,BURGLARY,20.36190382766614
1994,6,0.02160902474026942,OTHER PROPERTY,56.731557466724055
1994,1,0.01107834026398102,THREATS,82.3645568584758
1994,10,0.004473785953473149,FRAUD,100.0
1995,9,0.0008842378632416877,FRAUD,100.00000000000001
1995,2,0.005277888744106034,FRAUD,100.0
2015,6,740.2816375472438,CAR PROWL,49.35180777808886
2015,11,173.61102647868768,ROBBERY,28.627432943251197
2015,12,20.677357102086706,VEHICLE THEFT,37.815484957355615
2015,4,526.09946159444,OTHER PROPERTY,33.21323275888416
2015,9,111.84415877993075,BURGLARY,20.249548073492342
2015,3,453.4271687479343,OTHER PROPERTY,37.36834048144081
2015,1,311.31383327960225,VEHICLE THEFT,24.017990602026764
2015,8,562.8329856329128,VEHICLE THEFT,58.282302318857376
2015,10,299.8372614164915,CAR PROWL,20.106113274316883
2015,5,221.36662719702275,LOST PROPERTY,20.130952270720485
2015,2,408.31625767517613,OTHER PROPERTY,16.36456499796685
2015,7,689.171377204643,ASSAULT,37.953219316353454
2013,6,646.6297688756346,OTHER PROPERTY,22.793364378424627
2013,11,471.65640579959717,VEHICLE THEFT,25.953850310034767
2013,12,495.9527397991579,DISTURBANCE,21.692964501936828
2013,4,637.8050882385058,OTHER PROPERTY,18.833680919842738
2013,9,560.9951189879564,CAR PROWL,19.67873820526146
2013,3,661.3018423193532,BURGLARY,17.9152397452854
2013,1,415.12472849796194,OTHER PROPERTY,15.417492794264822
2013,8,1098.3421677714296,CAR PROWL,16.60445294325872
2013,10,369.4989146614444,BURGLARY,13.35181425925978
2013,5,602.519227104328,CAR PROWL,36.860137391255456
2013,2,358.75229053979166,CAR PROWL,28.86367943251237
2013,7,807.9734493059998,OTHER PROPERTY,27.608177352280237
1990,5,0.002329622586827846,THREATS,100.0
1990,1,0.0011649476578594995,LOST PROPERTY,100.0
1990,11,0.007601885928124852,[INC - CASE DC USE ONLY],100.0
2011,6,707.9732073630719,OTHER PROPERTY,28.657112512080563
2011,4,301.32252113352666,OTHER PROPERTY,36.94006756513128
2011,12,668.6460750803748,CAR PROWL,29.339098779077087
2011,11,403.3259942044627,CAR PROWL,26.143110139970975
2011,9,855.9804445139367,VEHICLE THEFT,24.001987867916515
2011,3,500.23349029277045,THREATS,19.1227834117968
2011,1,238.24518813785747,THREATS,38.55610457397933
2011,8,427.92906741528924,VEHICLE THEFT,16.085347581423378
2011,10,1123.4359575480821,PROPERTY DAMAGE,21.746584348198997
2011,5,46361.1783326786,VEHICLE THEFT,99.09580363982943
2011,2,499.3314941784215,FRAUD,60.919740327120124
2011,7,622.2857763436879,ASSAULT,18.483675506731363
2001,6,0.058753830395807574,FRAUD,54.38634804443437
2001,11,0.01633969194812566,OTHER PROPERTY,36.64093434659581
2001,12,0.009971121408051575,FRAUD,100.0
2001,4,4.0862014626891545,OTHER PROPERTY,98.20558512304544
2001,9,0.07337179122020807,FRAUD,56.495418671084266
2001,3,0.11480434521245836,CAR PROWL,49.735517492571546
2001,1,0.05485670886184357,FRAUD,49.6636331788223
2001,8,0.0639423556057872,TRESPASS,55.9256801578047
2001,10,0.8688781452722276,FRAUD,97.4013880141924
2001,5,0.07278077489921668,FRAUD,96.65193648884177
2001,2,0.1532760269451174,FRAUD,78.81415763598628
2001,7,0.020611328089458876,FRAUD,59.2890096948042
2003,6,0.0016082343822816044,FRAUD,100.0
2003,11,0.07317700871224446,FRAUD,82.66683375874159
2003,12,0.027854935053812063,VEHICLE THEFT,68.12348965723642
2003,4,0.005673573339857252,CAR PROWL,100.0
2003,9,0.13376017316435973,FRAUD,94.42125765686276
2003,3,0.7471682054460677,FRAUD,99.70613307736299
2003,1,0.1522385715703286,FRAUD,81.20377425682261
2003,8,0.029142284637240386,OTHER PROPERTY,67.84768622459274
2003,10,0.261133467328311,FRAUD,100.0
2003,5,0.0022054795897347595,FRAUD,100.0
2003,2,0.009391049224509482,FRAUD,70.48351898189023
2003,7,0.019577570004966963,LOST PROPERTY,89.33219030493511
1965,1,0.002655644887304199,LOST PROPERTY,100.0
1998,1,0.13501836981123275,LOST PROPERTY,83.20273178734445
1998,11,0.012482437547038584,OTHER PROPERTY,57.03595759026749
1998,5,0.004233323431791725,OTHER PROPERTY,100.0
1998,3,0.007735641108034538,CAR PROWL,44.50865033712938
1998,8,0.002000762617198534,[INC - CASE DC USE ONLY],100.0
2002,1,0.11128625049131918,FRAUD,80.14926309350749
2002,8,18.17315196593956,THREATS,99.97878189856424
2002,10,0.010591907391886663,FRAUD,100.0
2002,12,0.0013244103978011705,FRAUD,100.00000000000001
2002,4,0.002035820557919414,FRAUD,100.0
2002,11,0.0018754118541294794,CAR PROWL,100.00000000000001
2002,6,0.4743763530991635,FRAUD,80.54415831820712
2002,3,0.009255373712117335,DUI,87.80626123740285
2002,2,0.011267651781324262,EMBEZZLE,58.743338161539334
2007,6,12.21270719549099,TRAFFIC,92.25309222002875
2007,4,0.6187380209876278,[INC - CASE DC USE ONLY],25.26547652462579
2007,12,70.60595272427017,THREATS,65.66576332566459
2007,11,3.0588609821158004,FRAUD,31.358278406318576
2007,9,3.487959417915142,FRAUD,81.39706599955998
2007,3,2.739034057788253,FRAUD,80.23555569097559
2007,1,3.860227179529919,FRAUD,55.04005571435659
2007,8,2.5052580363915244,THREATS,88.51428400972063
2007,10,1.5053109932147117,FRAUD,60.34790991029909
2007,5,44.968448995273356,FRAUD,99.50614820804489
2007,2,0.23736071734322087,FRAUD,78.9303594391871
2007,7,0.7227604131434238,FRAUD,70.61192685129488
2004,6,0.007266215045563107,LOST PROPERTY,56.55763484993049
2004,4,0.31477145812861346,FRAUD,96.90224856967124
2004,12,0.32457729637908955,VEHICLE THEFT,100.0
2004,11,0.020429887700611403,[INC - CASE DC USE ONLY],37.232114914107235
2004,9,0.3335964977785886,PROPERTY DAMAGE,78.30574251892392
2004,3,0.014929855546799976,BURGLARY-SECURE PARKING-RES,36.99989442866628
2004,1,0.18136902278041478,FRAUD,79.21926275224355
2004,8,0.024734986251341955,FRAUD,60.21350780229166
2004,10,0.22050878407042968,OTHER PROPERTY,51.835192177088885
2004,5,88.96117041450076,FRAUD,99.98975087893048
2004,2,0.04816325532313333,[INC - CASE DC USE ONLY],37.91503260124484
2004,7,0.012544991793438568,FRAUD,100.0
1997,1,0.0046771753859860855,FRAUD,68.62458812019413
1997,11,0.08948040125166026,FRAUD,100.0
1997,10,0.0033395917129858546,FRAUD,100.00000000000001
1997,5,0.011779306284232724,FRAUD,100.0
1997,9,1.2138909550842734,FRAUD,100.0
1997,2,0.0045292378710141395,FRAUD,100.0
2006,6,0.6274437926839354,FRAUD,45.76108074204993
2006,4,0.4440289380787202,FRAUD,93.83443375790158
2006,12,0.13663538315615353,FRAUD,40.19042536106789
2006,11,0.6249203353767485,EMBEZZLE,44.933463022288514
2006,9,0.2776704138757111,OTHER PROPERTY,70.0403395714805
2006,3,0.17544773031910949,FRAUD,45.25815939752322
2006,1,0.8851105963232017,FRAUD,81.5873504706479
2006,8,1.4786081135360194,[INC - CASE DC USE ONLY],95.47188624010981
2006,10,0.26114722613796976,FRAUD,61.55919087417816
2006,5,11.593379224028864,HOMICIDE,97.27210752442441
2006,2,0.13525384960523454,FRAUD,57.07719200459045
2006,7,0.44128609107928507,[INC - CASE DC USE ONLY],79.85171139223225
1991,1,0.004025210635876677,FRAUD,100.0
1991,11,0.008719944373894454,FRAUD,100.0
1991,9,0.5796820661979162,FRAUD,100.0
2005,6,0.18570746293735196,FRAUD,92.00530138527553
2005,11,0.08588698493109127,THREATS,81.19845358240094
2005,12,0.040686325100911414,FRAUD,36.58004703124953
2005,4,0.035339214286744934,FRAUD,64.858556002982
2005,9,0.04749379112624563,FRAUD,55.058150237024996
2005,3,0.04881444751031476,FRAUD,65.26508003070415
2005,1,2.8502564307574674,FRAUD,95.59224048998685
2005,8,0.15337536804790353,FRAUD,88.05118404745336
2005,10,0.014964513945724386,FRAUD,76.31709030554583
2005,5,0.0689138712316025,ASSAULT,87.92832963409536
2005,2,0.03938653537605693,FRAUD,63.01914139685311
2005,7,0.06941715586719661,OTHER PROPERTY,90.97034416816899
1996,6,0.002029087122222465,FRAUD,100.0
1996,8,0.20139516756364828,FRAUD,100.0
1996,12,0.009314961225353472,CAR PROWL,100.0
1900,01,2.619230345628217e-09,STOLEN PROPERTY,100.0
2000,1,0.6951164196572834,FRAUD,75.77576574230665
2000,8,0.026220023513508113,OTHER PROPERTY,53.680168206834914
2000,7,0.03253571446809084,BURGLARY,61.09131505056585
2000,10,0.10215192120890515,CAR PROWL,100.0
2000,3,0.014900466707162111,CAR PROWL,52.0156539525141
2000,4,0.006457623216835708,FRAUD,100.0
2000,5,0.027693793801925132,FRAUD,46.676036703645615
2000,6,0.0062454219512408735,CAR PROWL,62.96137415761577
2000,9,0.04251372702372134,FRAUD,94.03948138683333
2000,2,0.02182865821971655,FRAUD,78.09510186219025
2000,11,0.04437638991059609,PROPERTY DAMAGE,77.14955070063236
2014,6,549.16284751602,OTHER PROPERTY,20.960973404509396
2014,11,285.5787556795025,CAR PROWL,23.921960330974837
2014,12,151.57616568223108,VEHICLE THEFT,19.596042296471214
2014,4,1006.0541281164564,ASSAULT,32.67695872657211
2014,9,545.0604873638575,ASSAULT,21.450644179844538
2014,3,636.5325744992167,PROPERTY DAMAGE,28.406048487636895
2014,1,369.850346675383,VEHICLE THEFT,15.680681831630404
2014,8,423.52399105636715,BURGLARY,19.36060858754932
2014,10,428.8448715377286,WARRANT ARREST,22.553603670144472
2014,5,871.3637480244449,CAR PROWL,49.15917876224624
2014,2,344.6170902235215,BURGLARY,20.651658618859052
2014,7,694.4405032437143,OTHER PROPERTY,25.745932245193774
1989,6,0.0038805958374844717,[INC - CASE DC USE ONLY],100.0
1983,2,0.012802928226757965,RECOVERED PROPERTY,100.00000000000001
2008,6,305.15718486271015,BURGLARY,25.286754989095304
2008,4,260.09530898673404,DISTURBANCE,18.19680391712457
2008,12,244.6279248019753,CAR PROWL,31.52614472222711
2008,11,214.55831695597058,VEHICLE THEFT,26.103674574182303
2008,9,312.61876494214823,NARCOTICS,17.092417137615733
2008,3,270.39773605506866,BURGLARY,40.436138881694696
2008,1,219.00534195104717,PROPERTY DAMAGE,20.724283046141974
2008,8,401.64450009434455,OTHER PROPERTY,41.79854584329963
2008,10,313.7182717750258,OTHER PROPERTY,26.550685881916245
2008,5,22700.33519843666,PROPERTY DAMAGE,99.18873564928263
2008,2,214.63915394063807,BURGLARY,27.91318718320419
2008,7,482.6815159319693,ASSAULT,32.84331332338647
1992,7,0.01222041029953649,LOST PROPERTY,100.0
1993,1,0.005481622979987732,FRAUD,99.99999999999999
1993,10,0.03556003880399396,HOMICIDE,68.82295863296928
2010,6,465.0995502410182,WARRANT ARREST,34.270873709551495
2010,11,236.96404250908313,PROPERTY DAMAGE,26.714896038898445
2010,12,232.71039294174986,VEHICLE THEFT,21.881818808006752
2010,4,215.19472599256235,BURGLARY,38.34871377942119
2010,9,489.72054049284566,PROPERTY DAMAGE,34.0035273462263
2010,3,274.044341406016,BURGLARY,38.3661814171762
2010,1,115.36290598079108,VEHICLE THEFT,16.366162105187307
2010,8,23197.53458487319,WARRANT ARREST,98.2348373229846
2010,10,260.1523402429284,ASSAULT,19.529786055147678
2010,5,216.62739800387322,OTHER PROPERTY,35.4189662860731
2010,2,353.569693786038,BURGLARY,34.66610554540467
2010,7,55.80048934954996,BURGLARY,19.27815205515386
2012,6,704.3617606933336,PROPERTY DAMAGE,24.07953667349657
2012,4,509.16659788015636,BURGLARY,19.63389130145028
2012,12,270.3886740033557,CAR PROWL,23.486418243674144
2012,11,148.88180600200607,OTHER PROPERTY,39.506399315744886
2012,9,540.3582573374463,DISTURBANCE,18.340604808746505
2012,3,280.4905748050563,OTHER PROPERTY,19.35084205672435
2012,1,282.91841155483405,BURGLARY,14.529376372621446
2012,8,588.5101399516889,OTHER PROPERTY,25.85433493137035
2012,10,307.6454245878069,OTHER PROPERTY,30.79049921840734
2012,5,46335.89644181975,TRESPASS,98.33769582082078
2012,2,398.0146597716331,ROBBERY,22.779920408579578
2012,7,621.1620904149383,LOST PROPERTY,14.812939175840848
1999,1,0.016897076875827213,FRAUD,100.0
1999,11,0.0013815014389303934,FRAUD,100.0
1999,9,0.008581917238993444,FRAUD,100.0
1999,6,0.025425637419578734,[INC - CASE DC USE ONLY],100.0
