year,month,influence,largestInfluencer,largestInfluencerPercent
2009,6,275.18234040948073,BURGLARY,14.131281765153533
2009,4,221.36353180712504,WARRANT ARREST,13.522240163443813
2009,12,146.80418997059743,BURGLARY,18.34092264866696
2009,11,220.59275324457002,PROPERTY DAMAGE,21.89641101562282
2009,9,327.9892730674413,THREATS,14.108336950100993
2009,3,188.98373565223554,CAR PROWL,19.153031138641627
2009,1,222.32272122832913,VEHICLE THEFT,15.893010310472333
2009,8,223.7423495266525,CAR PROWL,14.351788736077976
2009,10,228.4194359947702,CAR PROWL,17.818501248128424
2009,5,310.0294008976792,WARRANT ARREST,19.336739229566415
2009,2,162.51050191137287,WARRANT ARREST,17.220962034128117
2009,7,259.35995970601886,OTHER PROPERTY,17.43553543543869
1994,6,0.11485094982442588,PROPERTY DAMAGE,95.73487658064721
1994,1,0.06587530559928012,THREATS,89.10850220337193
1994,10,0.022014584390852212,FRAUD,100.0
1995,9,0.0018639572093548664,FRAUD,100.0
1995,2,0.03175454038959378,FRAUD,100.0
2015,6,492.4233872649174,FRAUD,59.310893147050265
2015,11,254.99794009676856,CAR PROWL,39.750676256097535
2015,12,7.534389825519548,ASSAULT,20.652265283009445
2015,4,335.1031221131084,VEHICLE THEFT,24.337824767621886
2015,9,223.9765436083124,CAR PROWL,23.409705523825792
2015,3,367.10841639421534,CAR PROWL,24.13423284313068
2015,1,287.0237385091578,CAR PROWL,20.616985367672935
2015,8,321.68898432918974,CAR PROWL,27.758574317350007
2015,10,242.72320065259598,CAR PROWL,22.181259628095816
2015,5,255.01229278438956,CAR PROWL,35.85139906301709
2015,2,335.22513415491056,PROPERTY DAMAGE,29.27653572479316
2015,7,258.6861638209807,CAR PROWL,20.964965732703334
2013,6,984.0111727748633,CAR PROWL,66.45718142631762
2013,11,998.8009659176781,CAR PROWL,64.10678388863359
2013,12,364.89487823664024,CAR PROWL,22.34743638171914
2013,4,433.68045998084943,CAR PROWL,17.80017210113608
2013,9,380.9358840499569,CAR PROWL,18.091475697096605
2013,3,510.5741357507271,PROPERTY DAMAGE,13.626455507086146
2013,1,483.69354376255114,OTHER PROPERTY,18.63470807651108
2013,8,475.0172247268287,CAR PROWL,27.583884802180094
2013,10,632.5984114883543,VEHICLE THEFT,30.858112646454757
2013,5,446.281411557226,BURGLARY,22.56639019284728
2013,2,407.4285332071476,BURGLARY,22.467842553648584
2013,7,452.114610752855,CAR PROWL,17.216392203003597
1990,5,0.009861183827458831,THREATS,100.0
1990,1,0.002888958405646151,LOST PROPERTY,100.0
1990,11,0.0773347497296075,[INC - CASE DC USE ONLY],100.0
2011,6,747.2443934336122,STOLEN PROPERTY,27.37432395088635
2011,4,331.6426171999956,OTHER PROPERTY,32.036068546776015
2011,12,377.24729249539735,CAR PROWL,16.233270497029352
2011,11,356.9790208222081,PROPERTY DAMAGE,14.850941162815142
2011,9,615.283599825883,BURGLARY,30.028517171180876
2011,3,438.9070066258058,OTHER PROPERTY,18.50468903132
2011,1,186.40883242019666,BURGLARY,15.695805052333718
2011,8,358.9909704082322,CAR PROWL,27.133491464438848
2011,10,813.4521919940748,BURGLARY,31.442906930247606
2011,5,453.73498280360786,CAR PROWL,16.81943303575054
2011,2,249.1933794151892,BURGLARY,12.215143798324794
2011,7,538.6917893749362,CAR PROWL,29.19038627964027
2001,6,0.18358590092836313,PROPERTY DAMAGE,65.60642131757788
2001,11,0.029890291415122925,BURGLARY,42.99459433742142
2001,12,0.10555478321056284,FRAUD,100.0
2001,4,0.07137144851310687,FRAUD,42.33112550969416
2001,9,0.08129550260978671,BURGLARY,57.412060854687624
2001,3,0.429720434629693,FRAUD,50.326223009650334
2001,1,0.26038586628125926,BURGLARY,36.75106656586313
2001,8,0.22871954684485243,CAR PROWL,79.3341022236558
2001,10,0.7131345440252514,FRAUD,80.75269786921974
2001,5,0.1938942386226313,FRAUD,96.11190735201016
2001,2,0.14982340204970168,OTHER PROPERTY,39.877105109039725
2001,7,0.4663932926133489,FRAUD,89.41848914378319
2003,6,0.004950027538202154,FRAUD,100.0
2003,11,0.2370319324591298,FRAUD,56.429738186139296
2003,12,0.051607957111642615,FRAUD,93.92165060388382
2003,4,0.03151929318453556,CAR PROWL,100.0
2003,9,0.09846525325886915,LOST PROPERTY,81.80506949234719
2003,3,0.037544808405239556,FRAUD,85.85864511538321
2003,1,0.5719111344809412,FRAUD,57.2210262039004
2003,8,0.08276440428177942,OTHER PROPERTY,85.89984299219056
2003,10,0.0123844032480822,FRAUD,100.0
2003,5,0.005350442840362569,FRAUD,100.0
2003,2,0.08350688780358588,FRAUD,87.8048907360768
2003,7,0.10520942012462862,LOST PROPERTY,93.19215130640958
1965,1,0.012661737724124317,LOST PROPERTY,100.0
1998,1,0.15904346755683105,THREATS,37.614328942322565
1998,11,0.08371889707231873,FRAUD,93.79174005691084
1998,5,0.004447501895193257,OTHER PROPERTY,100.0
1998,3,0.029661125126832555,CAR PROWL,54.902772161298294
1998,8,0.006870417954829991,[INC - CASE DC USE ONLY],100.0
2002,1,0.21359286447396592,STOLEN PROPERTY,37.64891779458839
2002,8,0.01890377127256393,FRAUD,46.02181579187457
2002,10,0.07741822284869379,FRAUD,100.0
2002,12,0.00318941400480082,FRAUD,100.0
2002,4,0.0077366106103786475,FRAUD,100.0
2002,11,0.006643222826975695,CAR PROWL,100.0
2002,6,0.12016688158319884,PROPERTY DAMAGE,45.12057545721491
2002,3,5.054467663833202,DUI,99.94522453863378
2002,2,0.08958831418217313,EMBEZZLE,81.85958017393374
2007,6,1.4903275703995924,OTHER PROPERTY,46.414306893092494
2007,4,0.682212786065238,FRAUD,41.07336461084948
2007,12,22.987743762690346,CAR PROWL,37.28510924884161
2007,11,2.9834664581633676,FRAUD,37.058255817694814
2007,9,1.7541962689306025,FRAUD,29.646192388075587
2007,3,0.6674133750750392,FRAUD,69.7673811086495
2007,1,11.179629171861803,OTHER PROPERTY,63.285212165815125
2007,8,1.158712268594894,FRAUD,64.095478634935
2007,10,2.8730971891598727,FRAUD,49.83205167371189
2007,5,33.641268151618725,CAR PROWL,56.32906163730969
2007,2,0.5222693785196808,FRAUD,31.472841860382665
2007,7,3.5741635102767586,FRAUD,57.12347640382385
2004,6,0.025196061277422018,FRAUD,73.1661692883548
2004,4,0.09865513348680308,THREATS,40.556568734576715
2004,12,0.012149761031335474,VEHICLE THEFT,100.00000000000001
2004,11,0.09272534537172737,[INC - CASE DC USE ONLY],39.865992988463255
2004,9,0.22796443038684946,CAR PROWL,72.19122483257331
2004,3,0.059673884465978155,BURGLARY-SECURE PARKING-RES,32.06397204760455
2004,1,1.5000121921570009,[INC - CASE DC USE ONLY],58.56552551068901
2004,8,0.09060953357909757,FRAUD,53.54669886718838
2004,10,0.07225271210415479,OTHER PROPERTY,54.40416509798549
2004,5,0.4238749230493239,BURGLARY,68.69003633823483
2004,2,6.2039751843130375,[INC - CASE DC USE ONLY],98.26708414472266
2004,7,0.133209552648984,FRAUD,100.0
1997,1,0.01682586809058023,FRAUD,76.60586438731171
1997,11,0.011647091686062162,FRAUD,99.99999999999999
1997,10,0.008883392239661374,FRAUD,100.0
1997,5,0.1148361953829318,FRAUD,100.0
1997,9,0.008581364446640755,FRAUD,100.0
1997,2,0.03731100455885369,FRAUD,100.0
2006,6,0.5081851865398365,FRAUD,44.78376193981751
2006,4,0.8200112206688143,FRAUD,83.48356934182948
2006,12,2.098745802710815,[INC - CASE DC USE ONLY],81.25497102537153
2006,11,0.2928181251732251,FRAUD,71.29299636434284
2006,9,0.5206564342254972,FRAUD,81.3482964396662
2006,3,0.33084282094779355,FRAUD,55.847784802546165
2006,1,2.5717082436682053,EMBEZZLE,47.69513502768621
2006,8,0.2170516247744201,FRAUD,55.15525077765236
2006,10,0.1702815259946304,FRAUD,58.23299443039352
2006,5,0.6174453535516302,[INC - CASE DC USE ONLY],42.18316944727618
2006,2,1.9754592041737984,FRAUD,84.28640506102792
2006,7,0.27174761254312885,OTHER PROPERTY,29.117034014748526
1991,1,0.009147579243553075,FRAUD,100.0
1991,11,0.0914922506699106,FRAUD,100.0
1991,9,0.0068776672328832045,FRAUD,100.0
2005,6,0.10733233976594764,[INC - CASE DC USE ONLY],45.57893784454238
2005,11,0.031344530249901165,FORGERY,29.190941111154483
2005,12,0.178193312606558,FRAUD,72.89091679064356
2005,4,0.21799709069835185,FRAUD,64.67560030088144
2005,9,0.12278702497489406,[INC - CASE DC USE ONLY],61.378582914794826
2005,3,0.5388743089473906,FRAUD,64.47356573463742
2005,1,1.5181113705365132,OTHER PROPERTY,58.49124193603044
2005,8,0.4067697414107373,FRAUD,74.1945989572923
2005,10,0.07784856512388753,FRAUD,78.9255120537411
2005,5,0.047863309351018145,FRAUD,88.09824673854217
2005,2,0.2491124582360873,FRAUD,68.69442724411331
2005,7,0.02048025063724449,FRAUD,52.567428607234994
1996,6,0.007448959381404321,FRAUD,100.0
1996,8,0.0265904831660388,FRAUD,100.0
1996,12,0.055764165033513696,CAR PROWL,100.0
1900,01,2.6202605805073557e-09,STOLEN PROPERTY,99.99999999999999
2000,1,0.6262433420556759,FRAUD,96.634810738667
2000,8,3.3596663592218,FRAUD,97.0645825061427
2000,7,0.08925652258869433,BURGLARY,72.77696431032322
2000,10,0.007279895038314127,CAR PROWL,100.0
2000,3,0.10301735589670173,CAR PROWL,65.62325734814614
2000,4,0.02399615197170988,FRAUD,100.0
2000,5,0.7354162344721002,THREATS,82.08740914426158
2000,6,0.022550821228273156,CAR PROWL,75.01800918935602
2000,9,0.08094846942337763,FRAUD,87.70023516326566
2000,2,56.45922531573961,FRAUD,99.95212790090108
2000,11,0.10894280610306975,THEFT OF SERVICES,87.9459893180835
2014,6,1127.142093141823,BURGLARY,53.533974629992386
2014,11,337.43514503340197,CAR PROWL,22.60061163951844
2014,12,274.6138111118321,CAR PROWL,32.964572274672655
2014,4,660.3389358384759,CAR PROWL,23.770038768002905
2014,9,558.4850705714344,BURGLARY,40.0802529522649
2014,3,644.4394496621485,FRAUD,29.509395990110832
2014,1,476.33024424086756,CAR PROWL,20.86714745752462
2014,8,341.40924360444177,CAR PROWL,19.386983372482803
2014,10,1252.0582247425164,BURGLARY,52.57814467722093
2014,5,562.7947090168383,CAR PROWL,21.882196135314558
2014,2,425.40589120524993,CAR PROWL,17.203739671340895
2014,7,621.6899903385041,VEHICLE THEFT,16.76986744724042
1989,6,0.027409864918080673,[INC - CASE DC USE ONLY],100.00000000000001
1983,2,0.040295425482441076,RECOVERED PROPERTY,99.99999999999999
2008,6,374.0744894338334,VIOLATION OF COURT ORDER,18.540356508231866
2008,4,249.6330166304935,CAR PROWL,19.394760534139028
2008,12,210.80427875068366,VEHICLE THEFT,23.558520820456707
2008,11,524.7271385689552,THREATS,55.19572150361811
2008,9,243.8728807315944,WARRANT ARREST,15.78760085447608
2008,3,322.37890515709375,VEHICLE THEFT,12.29811632020642
2008,1,222.9781423002491,CAR PROWL,13.39289907904748
2008,8,357.43687143631917,PROPERTY DAMAGE,19.005993637929034
2008,10,236.11707371194112,FRAUD,11.874417339294988
2008,5,811.1889620955717,CAR PROWL,39.47945011584836
2008,2,375.16194404887386,THREATS,18.89273416143667
2008,7,414.97306203152687,FRAUD,18.661407605086758
1992,7,0.005065147076691948,LOST PROPERTY,100.00000000000001
1993,1,0.006344721277723388,FRAUD,99.99999999999999
1993,10,0.28639764996432204,FRAUD,83.14965811470776
2010,6,330.688226308911,BURGLARY,33.34478847104987
2010,11,243.36813092360137,CAR PROWL,15.68424772947192
2010,12,212.94538524485947,STOLEN PROPERTY,13.178696085715263
2010,4,201.32560721277375,OTHER PROPERTY,15.994877345094425
2010,9,304.09303127403325,BURGLARY,20.679351792713383
2010,3,190.53624611172106,PROPERTY DAMAGE,15.495089278552241
2010,1,209.13011295534338,CAR PROWL,24.768268418906334
2010,8,847.6509489860183,THREATS,68.74295450599077
2010,10,308.43654717278594,BURGLARY,16.435573234133482
2010,5,195.04296370587414,WARRANT ARREST,19.154619638265398
2010,2,234.50599236998337,BURGLARY,21.357636728914088
2010,7,85.32182534270498,NARCOTICS,20.308713593610364
2012,6,927.8167057397508,DISPUTE,61.99617082720434
2012,4,691.0934272998863,BURGLARY,23.48414071061618
2012,12,194.7822167498361,OTHER PROPERTY,19.835950216444694
2012,11,165.7896553981109,BURGLARY,12.903986907575014
2012,9,247.3807858045927,PROPERTY DAMAGE,13.780341775448528
2012,3,456.8752854745994,VEHICLE THEFT,26.44750597311233
2012,1,427.5051873754519,OTHER PROPERTY,22.857177816570083
2012,8,315.6796340462668,PROPERTY DAMAGE,10.489088629407616
2012,10,316.09271483927,CAR PROWL,26.83540617281955
2012,5,629.3589257925611,DISPUTE,21.85898537743303
2012,2,325.6675193979904,CAR PROWL,17.737944450862802
2012,7,391.05138811799515,CAR PROWL,13.416581743139584
1999,1,0.1872993321478308,FRAUD,99.99999999999999
1999,11,0.003865477309748159,FRAUD,100.0
1999,9,0.051033459313188215,FRAUD,100.0
1999,6,0.04825970408711194,[INC - CASE DC USE ONLY],100.0
