year,month,influence,largestInfluencer,largestInfluencerPercent
2009,6,802.6565137564124,CAR PROWL,29.27045176143932
2009,4,132.9192348044954,BURGLARY,15.369324869036273
2009,12,315.0165647376886,CAR PROWL,72.1716319695334
2009,11,146.98225781596963,CAR PROWL,19.19194960247376
2009,9,161.79690929720525,CAR PROWL,16.24674035620874
2009,3,209.03820543316516,FRAUD,39.25064860038261
2009,1,140.61971774221348,CAR PROWL,25.034658567682683
2009,8,131.93377176140174,CAR PROWL,14.398184628737766
2009,10,295.3725307175503,CAR PROWL,33.31224531319402
2009,5,167.25504007239468,CAR PROWL,36.48817218516752
2009,2,118.53120777624878,OTHER PROPERTY,19.84503946927493
2009,7,155.14306194028305,BURGLARY,17.570221208901533
1994,6,0.048430716455340764,PROPERTY DAMAGE,85.63936030295274
1994,1,0.0377459373363508,THREATS,87.89896579910842
1994,10,0.014431486504567874,FRAUD,100.0
1995,9,0.0014807402878112338,FRAUD,100.0
1995,2,0.01997420132530103,FRAUD,100.0
2015,6,370.46788846070336,OTHER PROPERTY,60.27427659622875
2015,11,255.56522093333376,CAR PROWL,45.04681421818457
2015,12,8.166570644583132,THREATS,15.490227929531786
2015,4,530.7701820440539,CAR PROWL,73.55385020035618
2015,9,492.284763869634,CAR PROWL,74.4597729561649
2015,3,202.45347885065752,CAR PROWL,30.08268844993462
2015,1,351.4915530090486,PROPERTY DAMAGE,42.86233510066559
2015,8,175.95693658076874,FRAUD,17.045231364275022
2015,10,461.3084907954789,WARRANT ARREST,36.75088002298944
2015,5,191.26966371870446,CAR PROWL,30.296795078139283
2015,2,147.78624590440793,BURGLARY,20.245417263560324
2015,7,180.37047729968873,CAR PROWL,13.628829022807594
2013,6,392.0423361957211,CAR PROWL,33.16110385361877
2013,11,716.7808521083906,CAR PROWL,54.297213527724416
2013,12,359.72485420967024,CAR PROWL,24.655307129701587
2013,4,323.20583415712764,CAR PROWL,29.820741650197256
2013,9,347.54665468669657,OTHER PROPERTY,19.559847883147054
2013,3,613.8085247760372,THREATS,23.50172899245493
2013,1,747.2471081943563,FRAUD,58.698909017812475
2013,8,353.9326120183922,OTHER PROPERTY,14.680432533605595
2013,10,617.1215017747762,CAR PROWL,59.012539903686964
2013,5,418.21208550040444,CAR PROWL,30.928843872870484
2013,2,383.69866895801283,OTHER PROPERTY,46.27589741828815
2013,7,388.99545092519145,CAR PROWL,23.665475035207873
1990,5,0.005895349481508406,THREATS,100.0
1990,1,0.002158004265805629,LOST PROPERTY,100.0
1990,11,0.047256180407633575,[INC - CASE DC USE ONLY],100.00000000000001
2011,6,352.07807650923013,VEHICLE THEFT,20.110207631470583
2011,4,175.7634411369253,OTHER PROPERTY,17.51502536631986
2011,12,293.52999913927823,BURGLARY,25.83170887057165
2011,11,317.5904872719126,CAR PROWL,23.379703914107356
2011,9,514.1069587967338,BURGLARY,39.36962441708651
2011,3,322.33955052053034,CAR PROWL,17.729703913502394
2011,1,209.0805602604505,BURGLARY,39.793992733137486
2011,8,342.9166281318718,CAR PROWL,15.731712485247979
2011,10,278.97605073183,BURGLARY,18.26029647020304
2011,5,554.4690337318597,CAR PROWL,32.61203137900643
2011,2,281.5090920629409,BURGLARY,28.687719977936208
2011,7,378.53992002283144,STOLEN PROPERTY,25.23353114155892
2001,6,0.10416812885010504,PROPERTY DAMAGE,51.7212275762249
2001,11,0.025212927038404855,BURGLARY,33.13135304623737
2001,12,0.05368266456180887,FRAUD,100.0
2001,4,0.10483942328560167,FRAUD,47.6760968122929
2001,9,0.10512579806969256,BURGLARY,74.10716106408702
2001,3,0.7391557746102262,CAR PROWL,86.80379887542615
2001,1,0.15819631469201748,BURGLARY,32.67460335040707
2001,8,0.26139851588543367,TRESPASS,59.285535461738746
2001,10,0.37172912372599176,FRAUD,76.66787543426958
2001,5,0.45057490018735213,FRAUD,98.78868478100317
2001,2,0.3563277246798322,FRAUD,66.02587512614296
2001,7,0.10934178914343559,FRAUD,73.11144031716849
2003,6,0.0034013984617582912,FRAUD,100.00000000000001
2003,11,0.1748524109981579,FRAUD,65.15055826852242
2003,12,0.03152817460508571,FRAUD,85.74030499529157
2003,4,0.02150180871230334,CAR PROWL,100.0
2003,9,0.04492569361828701,LOST PROPERTY,53.20104505673872
2003,3,0.046329705072718004,FRAUD,91.3735598355251
2003,1,0.3023004152795755,FRAUD,64.9826325868091
2003,8,1.6708394460497267,OTHER PROPERTY,99.36546930986006
2003,10,0.027611380588341398,FRAUD,100.0
2003,5,0.004284897696334195,FRAUD,100.0
2003,2,0.043807957307491284,FRAUD,84.26519869082972
2003,7,0.09766076104700627,LOST PROPERTY,95.08152144808288
1965,1,0.0073024391860845835,LOST PROPERTY,100.0
1998,1,0.10015245409457955,FRAUD,29.169102600004237
1998,11,0.03394310816327696,FRAUD,80.46297377027078
1998,5,0.005003037687478203,OTHER PROPERTY,100.00000000000001
1998,3,0.019099245002648594,CAR PROWL,52.64299453829802
1998,8,0.004575436462028474,[INC - CASE DC USE ONLY],100.0
2002,1,0.14685880574413449,FRAUD,39.912832291998484
2002,8,0.023169168392297622,THREATS,67.23872186232624
2002,10,0.04346467473206777,FRAUD,99.99999999999999
2002,12,0.002443419880607431,FRAUD,100.0
2002,4,0.004861990161669411,FRAUD,100.0
2002,11,0.0042889730832844095,CAR PROWL,100.0
2002,6,0.09833489615666005,[INC - CASE DC USE ONLY],31.496816961896087
2002,3,0.0957796681471533,DUI,97.8351811658597
2002,2,0.04779273157023683,EMBEZZLE,77.24161043137713
2007,6,2.5462696995680623,FRAUD,68.78060902605402
2007,4,0.5231129314885573,FRAUD,45.84501085122562
2007,12,8.176607676789335,FRAUD,19.759539040006832
2007,11,5.7091340785497415,OTHER PROPERTY,51.00742501368946
2007,9,3.529156380157527,OTHER PROPERTY,38.50224551727664
2007,3,0.7866453480314387,FRAUD,76.6572950134718
2007,1,1.7056580155664574,FRAUD,49.42639245824494
2007,8,0.9923119603249684,FRAUD,76.05037372736041
2007,10,26.554258113573635,OTHER PROPERTY,89.20800086496283
2007,5,0.7934946265735282,FRAUD,29.766225090024577
2007,2,0.32959869248028417,FRAUD,46.984894812426084
2007,7,1.3802549393672516,FRAUD,32.53544556744534
2004,6,0.016561087147357757,FRAUD,58.89439295714576
2004,4,0.11012732983338458,FRAUD,65.4320478408276
2004,12,0.027048287033125982,VEHICLE THEFT,100.00000000000001
2004,11,0.06776624758766846,[INC - CASE DC USE ONLY],47.86470342746528
2004,9,0.17410183802108928,PROPERTY DAMAGE,44.51893514203764
2004,3,0.0386780358931935,BURGLARY-SECURE PARKING-RES,32.338291971737895
2004,1,0.5840579672086744,FRAUD,57.97947711701602
2004,8,0.05836484201486597,FRAUD,51.60195360626025
2004,10,0.14404810020274933,OTHER PROPERTY,78.53616828291204
2004,5,0.15461838521116877,FRAUD,52.426131768373175
2004,2,0.4150656506199271,[INC - CASE DC USE ONLY],68.90831290155744
2004,7,0.05106519037507935,FRAUD,100.0
1997,1,0.01145738073909617,FRAUD,74.82364979432433
1997,11,0.018968698482718965,FRAUD,100.0
1997,10,0.006618771863015738,FRAUD,100.0
1997,5,0.05728416860765183,FRAUD,100.0
1997,9,0.016458959438691866,FRAUD,100.0
1997,2,0.017905662189393993,FRAUD,100.0
2006,6,0.7448620854363155,[INC - CASE DC USE ONLY],58.49810337749383
2006,4,0.4523645335137202,FRAUD,81.87226962188116
2006,12,0.4745397900380285,THREATS,39.45946049837505
2006,11,0.22518301441227984,FRAUD,54.799032236608575
2006,9,1.1997965525283292,FRAUD,95.06236980587771
2006,3,0.19299752935873543,FRAUD,54.952681481022914
2006,1,2.7967821580370464,FRAUD,53.95045390100168
2006,8,0.14333450303617484,FRAUD,55.51116588962772
2006,10,0.19671823164578153,FRAUD,48.13069773928287
2006,5,0.36425075957718234,[INC - CASE DC USE ONLY],31.744479177358187
2006,2,0.6721886157782286,FRAUD,44.4033118864956
2006,7,0.6932687036428469,BURGLARY,81.01923529743769
1991,1,0.007234126157025423,FRAUD,100.0
1991,11,0.03623310003952851,FRAUD,100.0
1991,9,0.012145584355830434,FRAUD,100.0
2005,6,0.08148958425752423,FRAUD,39.24485594230865
2005,11,0.03673040613408642,THREATS,36.2893325090715
2005,12,0.09458857325990407,FRAUD,63.699100987388235
2005,4,0.26787968298412423,FRAUD,82.83336343323899
2005,9,0.07168507428664805,[INC - CASE DC USE ONLY],38.94617968845661
2005,3,0.2359182087874158,FRAUD,68.53314972761733
2005,1,1.8087367795638836,FRAUD,71.39426511790533
2005,8,0.42042867338340245,FRAUD,85.26769827797774
2005,10,0.044757236693544526,FRAUD,76.90703556500276
2005,5,0.035851101757429,FRAUD,73.90417230047427
2005,2,0.346155815116348,[INC - CASE DC USE ONLY],69.94380469332118
2005,7,0.019471192449511655,FRAUD,43.94037209250511
1996,6,0.0047827062081143915,FRAUD,100.0
1996,8,0.058171787879932504,FRAUD,100.0
1996,12,0.05576547224583982,CAR PROWL,100.0
1900,01,2.6199336535475874e-09,STOLEN PROPERTY,100.0
2000,1,0.25585077648326887,FRAUD,90.54469046782887
2000,8,0.15922212286999682,FRAUD,63.02248479165857
2000,7,0.7868123088465135,BURGLARY,97.09617767308934
2000,10,0.010322449561453038,CAR PROWL,100.0
2000,3,0.06615307366917093,CAR PROWL,69.57735224195963
2000,4,0.016654060152569462,FRAUD,100.0
2000,5,0.36201934285401416,THREATS,82.90542934905525
2000,6,0.015675440628921553,CAR PROWL,72.91173616798784
2000,9,0.2316620612130729,FRAUD,97.24292295096465
2000,2,0.23845809801683873,FRAUD,92.94163249679785
2000,11,0.057091291909014595,THEFT OF SERVICES,65.2709506501441
2014,6,783.0443397200582,FRAUD,56.11319085733485
2014,11,286.7652393020599,CAR PROWL,27.74413355973513
2014,12,251.97117980593947,FRAUD,30.257379417253283
2014,4,372.4016109001553,CAR PROWL,28.29292638228896
2014,9,330.7942008887012,BURGLARY,15.83954025686214
2014,3,466.3953646131997,CAR PROWL,32.78447504317908
2014,1,1804.8886294441102,BURGLARY,69.91829440697721
2014,8,427.88883027792644,CAR PROWL,41.41311176659231
2014,10,358.0365937369657,OTHER PROPERTY,24.579183272641963
2014,5,325.2388418695809,CAR PROWL,26.558959533521474
2014,2,649.1088144498755,CAR PROWL,35.760879605985615
2014,7,366.72272876720325,CAR PROWL,22.744075788418467
1989,6,0.0136787902953177,[INC - CASE DC USE ONLY],100.0
1983,2,0.06748853918578702,RECOVERED PROPERTY,100.0
2008,6,150.23504242685001,OTHER PROPERTY,18.621332727884027
2008,4,180.84909409403622,OTHER PROPERTY,19.14032136845278
2008,12,110.75039548105795,CAR PROWL,16.092830051066002
2008,11,153.7164526348914,VEHICLE THEFT,19.43079369937894
2008,9,156.55022097497553,CAR PROWL,18.85668879900304
2008,3,157.95934058365785,BURGLARY,18.20051687677826
2008,1,491.05756492756746,BURGLARY,72.47291035744695
2008,8,197.95086261215437,CAR PROWL,22.008896364020792
2008,10,204.86090892654005,BURGLARY,33.380911770334215
2008,5,157.06189198332464,CAR PROWL,15.501811343162093
2008,2,131.28875213491895,OTHER PROPERTY,14.131077845397455
2008,7,230.155545947283,FRAUD,33.93980939701309
1992,7,0.007194621909150258,LOST PROPERTY,100.0
1993,1,0.00729128835475584,FRAUD,100.0
1993,10,0.4462673685070567,HOMICIDE,86.05468250756705
2010,6,167.11694450398775,CAR PROWL,15.98355091634059
2010,11,182.13169212520683,CAR PROWL,21.881526057501585
2010,12,129.73986662155642,CAR PROWL,14.915853208109628
2010,4,115.43030172930168,CAR PROWL,15.145476860490534
2010,9,172.8830288568833,BURGLARY,19.37212525191323
2010,3,136.90512956235878,BURGLARY,14.144131284134064
2010,1,162.66999110039362,CAR PROWL,34.38131842034975
2010,8,203.40262815765695,BURGLARY,16.404821949657336
2010,10,198.0787736000563,BURGLARY,15.093466672979
2010,5,137.01325561268538,CAR PROWL,29.67825530607698
2010,2,151.72144215137683,CAR PROWL,15.093430193221522
2010,7,64.69119728369523,NARCOTICS,23.846676776289844
2012,6,383.5422612317404,CAR PROWL,20.038061170317288
2012,4,325.88440546424704,CAR PROWL,23.280258989558803
2012,12,236.60273933557937,BURGLARY,33.80629453947751
2012,11,143.11471061888503,BURGLARY,31.333179083641
2012,9,160.49177153785982,OTHER PROPERTY,16.110770615503267
2012,3,432.2668074313012,CAR PROWL,29.353703113548335
2012,1,299.54384242970394,VIOLATION OF COURT ORDER,15.833567966354611
2012,8,280.11288210905815,STOLEN PROPERTY,12.389905349557113
2012,10,229.6347129907751,CAR PROWL,26.587846122767974
2012,5,320.9408838067934,CAR PROWL,25.09178155477318
2012,2,236.46791046525908,CAR PROWL,13.77843525098145
2012,7,719.4034069664431,CAR PROWL,67.45156921352708
1999,1,0.07217992110144342,FRAUD,100.0
1999,11,0.0027453331981271236,FRAUD,99.99999999999999
1999,9,0.0295242610304596,FRAUD,100.0
1999,6,0.40841637379796614,[INC - CASE DC USE ONLY],100.0
