year,month,influence,largestInfluencer,largestInfluencerPercent
2009,6,312.20936039578714,SHOPLIFTING,29.089367100324544
2009,4,488.29549336530056,NARCOTICS,28.59928945781658
2009,12,271.0676946249073,SHOPLIFTING,33.16599182268248
2009,11,754.3408271581368,SHOPLIFTING,46.65102411455303
2009,9,632.5526356998557,OTHER PROPERTY,31.445932799845288
2009,3,719.827648310095,SHOPLIFTING,49.090419465329795
2009,1,300.82656663945806,SHOPLIFTING,30.077814593355587
2009,8,258.5820364555633,PROPERTY DAMAGE,24.153992555663596
2009,10,454.73139003184417,ROBBERY,23.429114781606827
2009,5,811.0197226185165,SHOPLIFTING,53.674440060062466
2009,2,285.74635713022036,OTHER PROPERTY,18.08709228119242
2009,7,272.5293570485624,CAR PROWL,25.870012079047772
1994,6,0.04925011939772931,PROPERTY DAMAGE,79.79669369986388
1994,1,0.044082483729684645,THREATS,90.45943078564775
1994,10,0.01875411281188151,FRAUD,100.0
1995,9,0.0014831098548979003,FRAUD,99.99999999999999
1995,2,0.027024332670202714,FRAUD,100.0
2015,6,316.0748014941142,ROBBERY,35.71465619990446
2015,11,352.6750745235508,SHOPLIFTING,27.179609086490565
2015,12,95.43457407032423,SHOPLIFTING,91.44667094457989
2015,4,366.2404350431419,CAR PROWL,25.98112303145569
2015,9,370.8076279418701,SHOPLIFTING,25.0238156447742
2015,3,292.7313783204377,STOLEN PROPERTY,31.58960515535048
2015,1,413.9909812326625,CAR PROWL,31.227776833989218
2015,8,692.6176231693106,OTHER PROPERTY,16.224416950705283
2015,10,561.0175057943244,DISTURBANCE,31.840325320639714
2015,5,239.2556620176135,BURGLARY,17.156668493884546
2015,2,544.3682187352904,SHOPLIFTING,32.47826558503801
2015,7,261.3248977424913,WARRANT ARREST,36.35642996549057
2013,6,1396.0368926146882,SHOPLIFTING,25.561029039961127
2013,11,1516.9686465133193,SHOPLIFTING,23.711871164973903
2013,12,493.6862142326304,BURGLARY,17.836562592647848
2013,4,1269.9563635008558,WARRANT ARREST,16.61534939688604
2013,9,928.8508701668301,WARRANT ARREST,20.250112823069717
2013,3,570.2336829212542,OTHER PROPERTY,16.40405683610075
2013,1,795.218937114039,CAR PROWL,29.132263848149798
2013,8,737.6660834531448,CAR PROWL,17.111905288588574
2013,10,1165.090059588202,CAR PROWL,21.830242460481593
2013,5,890.5314404294242,ASSAULT,21.212412373968224
2013,2,853.6230011193377,OTHER PROPERTY,32.708494403646974
2013,7,666.2421250608014,CAR PROWL,24.835713830526345
1990,5,0.00498597380427674,THREATS,100.0
1990,1,0.0021073766425453166,LOST PROPERTY,100.0
1990,11,0.07130321329204498,[INC - CASE DC USE ONLY],100.0
2011,6,997.7748033591116,BURGLARY,37.11783688289776
2011,4,620.6307947387237,SHOPLIFTING,28.694700072658403
2011,12,807.5240162254892,SHOPLIFTING,21.856606273040903
2011,11,1190.516488601713,SHOPLIFTING,29.413907896848105
2011,9,1271.645916371635,SHOPLIFTING,27.712974449882996
2011,3,661.6268600384816,CAR PROWL,20.377733472175994
2011,1,225.466916700059,CAR PROWL,26.48407676684624
2011,8,702.1829957189726,PROPERTY DAMAGE,36.015259047566985
2011,10,699.4862881620787,WARRANT ARREST,28.13092141654148
2011,5,1085.5613413333288,SHOPLIFTING,32.467415866857614
2011,2,633.9707525399888,FRAUD,28.10994601358755
2011,7,943.2318686911351,VEHICLE THEFT,51.65518219024962
2001,6,0.11047345552932375,PROPERTY DAMAGE,49.47981233805196
2001,11,0.029905759313777355,OTHER PROPERTY,35.092123145266015
2001,12,0.0686741414321637,FRAUD,100.0
2001,4,0.1414326410959329,FRAUD,59.91846405022381
2001,9,0.2992449591596688,BURGLARY,90.47893156449322
2001,3,0.9955057580157645,CAR PROWL,90.61332815904326
2001,1,0.20471232875606124,BURGLARY,32.84583859247414
2001,8,0.24256880653016855,CAR PROWL,49.70070972836788
2001,10,0.38180363757741465,FRAUD,68.90760210808834
2001,5,0.42252945129715813,FRAUD,98.51669539321404
2001,2,0.567691454158646,OTHER PROPERTY,64.73664168008207
2001,7,0.10008480770878876,FRAUD,63.478615026261174
2003,6,0.003272195405098267,FRAUD,100.00000000000001
2003,11,0.26049165165977217,FRAUD,67.20368150542917
2003,12,0.033378838682543495,FRAUD,86.65663312346969
2003,4,0.03136024359107031,CAR PROWL,100.0
2003,9,0.041043468766023654,LOST PROPERTY,47.568301068143974
2003,3,0.042732688333263026,FRAUD,90.97026453260389
2003,1,0.28565610329957136,FRAUD,65.82959523883949
2003,8,0.2536009587790904,OTHER PROPERTY,95.05208296607466
2003,10,0.02544600832477975,FRAUD,100.0
2003,5,0.005116130636992505,FRAUD,100.00000000000001
2003,2,0.05559847450874119,FRAUD,85.91536621499125
2003,7,0.21288421997532664,LOST PROPERTY,97.66173550561024
1965,1,0.007118530601189514,LOST PROPERTY,100.0
1998,1,0.11144794183391796,FRAUD,30.75488081007631
1998,11,0.03678270806127204,FRAUD,72.71215620885356
1998,5,0.007183801835693123,OTHER PROPERTY,100.0
1998,3,0.02008929314513771,CAR PROWL,57.263624123490374
1998,8,0.004636650763594956,[INC - CASE DC USE ONLY],100.0
2002,1,0.19257284711393674,FRAUD,44.07306446386477
2002,8,0.023011222827410728,THREATS,68.86975513254107
2002,10,0.055192428801675936,FRAUD,100.0
2002,12,0.0025618152566566675,FRAUD,100.0
2002,4,0.004525098063906409,FRAUD,100.0
2002,11,0.003908735606344727,CAR PROWL,100.0
2002,6,0.1151321944133046,[INC - CASE DC USE ONLY],42.92426880484061
2002,3,0.05581138663309046,DUI,96.40875716774158
2002,2,0.05973503456866753,EMBEZZLE,79.9602558745327
2007,6,1.3242241603846727,FRAUD,46.686075311010384
2007,4,0.6917979925605419,FRAUD,49.72729828596283
2007,12,101.27583279815775,SHOPLIFTING,85.35332041157618
2007,11,5.226233458440516,OTHER PROPERTY,48.49905638316657
2007,9,2.4295901297189446,FRAUD,39.39755779174026
2007,3,1.3538831038860089,FRAUD,81.13219332358284
2007,1,2.0946368619243927,FRAUD,53.89101219387831
2007,8,2.7049392026496166,FRAUD,89.18929289530293
2007,10,2.3644707213987473,OTHER PROPERTY,21.510833015158457
2007,5,1.0141411919250476,FRAUD,28.93127626950848
2007,2,0.40850628805751515,FRAUD,49.485830341172246
2007,7,1.8034503740305812,FRAUD,32.03354277390033
2004,6,0.01959325799724728,LOST PROPERTY,51.26194170845678
2004,4,0.11578288911964173,FRAUD,60.004257259104925
2004,12,0.026569292117623374,VEHICLE THEFT,100.0
2004,11,0.10394134390661398,[INC - CASE DC USE ONLY],60.8249035118201
2004,9,0.18837877650135487,PROPERTY DAMAGE,41.626340592506175
2004,3,0.042065272499719815,STOLEN PROPERTY,37.87295273840878
2004,1,1.6146487051622853,FRAUD,59.08923647643473
2004,8,0.07004586415043955,FRAUD,50.33040958576158
2004,10,0.1889486090993308,OTHER PROPERTY,83.46088652703745
2004,5,0.147698449628612,FRAUD,54.38602007414019
2004,2,0.47704731447816806,OTHER PROPERTY,60.54745469478205
2004,7,0.05093411913667323,FRAUD,100.0
1997,1,0.013012382299490477,FRAUD,77.28959533815484
1997,11,0.024465841503322455,FRAUD,100.0
1997,10,0.007112887378179019,FRAUD,100.0
1997,5,0.07089555025614933,FRAUD,100.0
1997,9,0.018158976893370253,FRAUD,100.0
1997,2,0.019447124353783436,FRAUD,100.0
2006,6,1.063249001330334,[INC - CASE DC USE ONLY],64.00524382095087
2006,4,0.295856416948799,FRAUD,64.56117304332808
2006,12,0.594089612460676,THREATS,64.8016933662779
2006,11,0.2985493544397591,FRAUD,59.37954944409176
2006,9,0.3038161967484362,FRAUD,79.34551917788045
2006,3,0.22569076582473274,FRAUD,55.30041460168825
2006,1,4.882731103103606,DISPUTE,51.92400350805003
2006,8,0.17164601391487663,FRAUD,59.385864101917136
2006,10,0.34639826949314556,THREATS,53.78182278054341
2006,5,0.4669326297306087,EMBEZZLE,36.89431803781368
2006,2,0.6024968049662798,FRAUD,48.60133476127143
2006,7,0.432122853741227,BURGLARY,67.71598184939474
1991,1,0.007818453338356048,FRAUD,100.0
1991,11,0.03388363682578524,FRAUD,100.0
1991,9,0.012244593024927785,FRAUD,100.0
2005,6,0.0866939374267453,FRAUD,32.93071164621681
2005,11,0.051748362243581925,FORGERY,44.82489859418728
2005,12,0.11272486989845563,FRAUD,60.002172127698884
2005,4,0.643854468776926,FRAUD,90.84339783397509
2005,9,0.08820451915722771,[INC - CASE DC USE ONLY],31.058821619158913
2005,3,0.27731043820448636,FRAUD,69.91711945069434
2005,1,1.4727664945697094,FRAUD,46.70882272992574
2005,8,1.1700397576161898,FRAUD,93.55126296579638
2005,10,0.05009979830694698,FRAUD,75.85136009076976
2005,5,0.04423680059925006,FRAUD,74.00113950408937
2005,2,2.083839625282207,[INC - CASE DC USE ONLY],92.49556374764337
2005,7,0.020042363561482857,FRAUD,47.48297148492221
1996,6,0.0046466725280550165,FRAUD,100.0
1996,8,0.04485834455537855,FRAUD,100.0
1996,12,0.13487563879486836,CAR PROWL,100.0
1900,01,2.6193105770370252e-09,STOLEN PROPERTY,100.0
2000,1,0.21136416580736683,FRAUD,88.87108418431866
2000,8,0.13027628473946132,OTHER PROPERTY,48.21211754879583
2000,7,0.4755287824570849,BURGLARY,92.54538620278055
2000,10,0.010031168441061156,CAR PROWL,100.0
2000,3,0.09648535137473856,CAR PROWL,78.24591676510842
2000,4,0.020090670012699825,FRAUD,100.00000000000001
2000,5,0.17370540219373296,THREATS,62.176844735468116
2000,6,0.01864939436167159,CAR PROWL,77.42261476555197
2000,9,0.15093770846368768,FRAUD,95.50870950015347
2000,2,0.13633174951847404,FRAUD,84.02045041604572
2000,11,0.06563327005709482,THEFT OF SERVICES,52.86439825104428
2014,6,758.7449806064483,ASSAULT,19.407223639958502
2014,11,377.76038114421885,CAR PROWL,35.57644442822505
2014,12,294.7839276102134,BURGLARY,18.290545042854802
2014,4,767.9792689827772,TRESPASS,23.335799164234093
2014,9,691.368157494866,COUNTERFEIT,24.944216601623566
2014,3,938.143188711967,BURGLARY,40.18985737423194
2014,1,682.9158576462147,VEHICLE THEFT,26.519493310070626
2014,8,718.386698089456,PROPERTY DAMAGE,32.31311712114579
2014,10,482.18177157117833,CAR PROWL,42.771461799335675
2014,5,636.7274105525597,SHOPLIFTING,28.191853310406643
2014,2,386.41677776207325,CAR PROWL,24.116541809258006
2014,7,790.389650182748,SHOPLIFTING,44.451971720562064
1989,6,0.01419309253083037,[INC - CASE DC USE ONLY],99.99999999999999
1983,2,0.3675846131379693,RECOVERED PROPERTY,100.0
2008,6,273.3514628341557,OTHER PROPERTY,18.712223389688127
2008,4,348.52992828891814,ASSAULT,28.814820392633532
2008,12,167.1213390935546,CAR PROWL,31.668895807081622
2008,11,299.64377650650124,CAR PROWL,33.00317622887962
2008,9,761.763302625576,SHOPLIFTING,45.662006155903384
2008,3,384.26534974259704,PROPERTY DAMAGE,39.06827182386834
2008,1,955.4567830626669,CAR PROWL,27.80167575444929
2008,8,347.8722748087315,OTHER PROPERTY,23.52728140261016
2008,10,374.2452774786553,CAR PROWL,28.47845718227134
2008,5,676.3800718957058,OTHER PROPERTY,20.650334593941423
2008,2,297.34338070845826,SHOPLIFTING,31.174350246513804
2008,7,270.6522233377671,SHOPLIFTING,33.694484498566666
1992,7,0.010421508413201193,LOST PROPERTY,100.0
1993,1,0.011367731822689176,FRAUD,100.0
1993,10,0.3222326734824251,HOMICIDE,83.4612319672982
2010,6,878.5780912943347,STOLEN PROPERTY,30.130286304859883
2010,11,236.25831602984954,OTHER PROPERTY,21.68505358355707
2010,12,230.75602923865355,WARRANT ARREST,35.06951368537364
2010,4,472.6065289138825,OTHER PROPERTY,21.871474991350798
2010,9,442.0063440939279,NARCOTICS,20.87851233962829
2010,3,467.71324035330315,CAR PROWL,25.002835259366584
2010,1,387.8099468291019,SHOPLIFTING,23.425213522015735
2010,8,425.7101275244507,CAR PROWL,26.317724297442357
2010,10,570.6714145645839,SHOPLIFTING,16.82000522997261
2010,5,355.65670174403976,ASSAULT,28.760535415720245
2010,2,342.0937770807538,ROBBERY,35.94210840901634
2010,7,231.58982617616834,SHOPLIFTING,75.65797454965274
2012,6,903.9232893622755,SHOPLIFTING,40.58904476773123
2012,4,1007.6379499731426,SHOPLIFTING,35.23101721667656
2012,12,239.71037428553353,OTHER PROPERTY,18.8721053129273
2012,11,125.83040917659956,BURGLARY,15.206227539620702
2012,9,595.988768664902,SHOPLIFTING,30.82876575334568
2012,3,1022.2661032931105,OTHER PROPERTY,23.47075225840508
2012,1,918.5645682606647,SHOPLIFTING,39.25650994361344
2012,8,1280.562927957657,SHOPLIFTING,28.228336778670386
2012,10,869.2522040819877,NARCOTICS,20.907325218769405
2012,5,841.2031195569582,ROBBERY,27.43369837006922
2012,2,1145.9025664705005,SHOPLIFTING,17.524378067838462
2012,7,1270.788481716382,SHOPLIFTING,28.51401035202443
1999,1,0.06984911845065793,FRAUD,100.0
1999,11,0.0025508942549252165,FRAUD,100.00000000000001
1999,9,0.03513686155989873,FRAUD,100.0
1999,6,0.13851780384548684,[INC - CASE DC USE ONLY],100.0
