year,month,influence,largestInfluencer,largestInfluencerPercent
2009,6,295.8828748356617,CAR PROWL,52.76906728151034
2009,4,207.78020961098534,CAR PROWL,26.00653913517211
2009,12,88.11274406064452,BURGLARY,22.929836480418807
2009,11,327.25165437064646,PROPERTY DAMAGE,59.00685764906589
2009,9,173.7907845131754,PROPERTY DAMAGE,27.286564715923728
2009,3,542.4253989444709,WARRANT ARREST,73.4769304440023
2009,1,281.07691965229463,PROPERTY DAMAGE,53.67489283753045
2009,8,145.53364158560254,PROPERTY DAMAGE,23.500129986791457
2009,10,348.3063024609526,VEHICLE THEFT,44.90347435606489
2009,5,235.10878678133045,THREATS,56.69269431913455
2009,2,239.61246065822658,PROPERTY DAMAGE,56.82131815935682
2009,7,163.30566173146477,PROPERTY DAMAGE,26.564601268918878
1994,6,0.7011857258223331,OTHER PROPERTY,99.04411441876628
1994,1,0.009407307680639547,THREATS,83.67496938321594
1994,10,0.004239734130146788,FRAUD,100.0
1995,9,0.0008463570303091401,FRAUD,100.0
1995,2,0.0046690862634208696,FRAUD,100.0
2015,6,444.11704470833354,PROPERTY DAMAGE,61.946777641531256
2015,11,576.1775574143114,ASSAULT,29.230939679137485
2015,12,5.033555631523813,VEHICLE THEFT,41.28842779507239
2015,4,427.2644587476146,FRAUD,36.33589856294582
2015,9,266.6727719720598,STOLEN PROPERTY,51.26023948694581
2015,3,329.90833383787225,PROPERTY DAMAGE,47.584312640350646
2015,1,339.17367920732414,VEHICLE THEFT,51.794243801093195
2015,8,171.66512791373074,CAR PROWL,13.901439202864522
2015,10,594.2627232188645,BURGLARY,25.792627655933327
2015,5,615.5183260797634,CAR PROWL,42.33080380577765
2015,2,134.5277914111894,BURGLARY,15.01189764477719
2015,7,160.85341471393508,BURGLARY,21.752200685289825
2013,6,1375.5339067257053,PROPERTY DAMAGE,48.66218450365755
2013,11,589.0381501889858,PROPERTY DAMAGE,27.112123392763884
2013,12,1333.4603320373137,PROPERTY DAMAGE,41.28346452824025
2013,4,577.539854755572,ASSAULT,32.20015605294444
2013,9,712.1019064274005,VEHICLE THEFT,49.0967854262507
2013,3,585.8086877711044,PROPERTY DAMAGE,24.316181466401105
2013,1,1322.0193719153656,PROPERTY DAMAGE,26.391424775798587
2013,8,658.972649949846,DISTURBANCE,42.12667080134754
2013,10,735.7968812402028,ANIMAL COMPLAINT,35.80609755439763
2013,5,972.9635014920223,PROPERTY DAMAGE,64.61426080825903
2013,2,530.2340784053531,BURGLARY,19.45724798449136
2013,7,575.1382313031929,FRAUD,25.49686799663697
1990,5,0.0016179218079420902,THREATS,100.0
1990,1,0.0010408004069117208,LOST PROPERTY,100.0
1990,11,0.005514351776297592,[INC - CASE DC USE ONLY],100.00000000000001
2011,6,316.2529897493479,PROPERTY DAMAGE,18.497671154453474
2011,4,509.14449441161474,THREATS,56.39049115306907
2011,12,514.0610283869859,VEHICLE THEFT,56.747406810208844
2011,11,416.5315121908226,OTHER PROPERTY,36.15260649388365
2011,9,424.14497420784875,BURGLARY,21.320193400631847
2011,3,892.6580051441415,THREATS,31.162596250175117
2011,1,789.27769773011,VEHICLE THEFT,51.176089292065626
2011,8,322.9148972657196,VEHICLE THEFT,37.42730302533711
2011,10,611.1983791860831,VEHICLE THEFT,51.278693092792835
2011,5,512.030224588645,OTHER PROPERTY,58.86263248258373
2011,2,741.2854119547028,BURGLARY,37.26578243333027
2011,7,585.1047079133207,CAR PROWL,34.06878576192967
2001,6,3.1951361023230795,FRAUD,99.26965143932752
2001,11,0.034458402884141634,OTHER PROPERTY,58.229550659706476
2001,12,0.007792535215318103,FRAUD,100.0
2001,4,0.6011661561910701,FRAUD,95.00229166241749
2001,9,0.08435196839166303,FRAUD,66.85734833133931
2001,3,0.0475167862149011,CAR PROWL,53.44351590220571
2001,1,1.998225368783234,FRAUD,98.53901084382815
2001,8,0.11855332188241467,LOST PROPERTY,75.43431765004784
2001,10,0.06090024681575586,FRAUD,67.84324465446208
2001,5,0.02622750639089938,FRAUD,90.16807899805106
2001,2,0.04954147454892483,FRAUD,46.19014265167262
2001,7,0.014506887111113746,FRAUD,52.069174169331944
2003,6,0.0013689126984711396,FRAUD,99.99999999999999
2003,11,0.03763865759770571,FRAUD,73.1120609385475
2003,12,0.014133185960306917,FRAUD,54.98083308447562
2003,4,0.005115038333628133,CAR PROWL,100.0
2003,9,0.022165571691291096,FRAUD,73.63046935125179
2003,3,0.022682955729478635,FRAUD,91.51117721348614
2003,1,0.04480138904489162,FRAUD,53.889203831259486
2003,8,0.07725942844627114,ASSAULT,86.93727300846118
2003,10,0.009703533175185663,FRAUD,100.0
2003,5,0.0026626933162982387,FRAUD,100.0
2003,2,0.007657073319401322,FRAUD,64.07687035206463
2003,7,0.01557384284068437,LOST PROPERTY,87.5894168656909
1965,1,0.0021760822807596393,LOST PROPERTY,100.0
1998,1,0.025636499097384743,FRAUD,33.38616616267584
1998,11,0.042168226460491814,OTHER PROPERTY,91.03730477627907
1998,5,0.012266444622404487,OTHER PROPERTY,100.0
1998,3,0.006785810843344229,CAR PROWL,46.96187339813105
1998,8,0.0018020848458484549,[INC - CASE DC USE ONLY],100.0
2002,1,0.15205242970500954,FRAUD,87.94359498164819
2002,8,0.014969710045310782,THREATS,78.5279784368757
2002,10,0.008843898126458163,FRAUD,100.0
2002,12,0.0013455534008363211,FRAUD,100.0
2002,4,0.0016202253384898842,FRAUD,100.0
2002,11,0.0014554592005623058,CAR PROWL,100.0
2002,6,0.03344658686793753,FRAUD,51.47013004596205
2002,3,0.005308866406369298,DUI,81.33908364256199
2002,2,0.009700813452113481,EMBEZZLE,50.57442407016368
2007,6,0.739721261644366,FRAUD,61.393485772181656
2007,4,0.22693917937392902,VEHICLE THEFT,35.83269582396578
2007,12,15.842760645694028,FRAUD,76.53828085750936
2007,11,7.072094311474988,CAR PROWL,80.06349048186252
2007,9,9.938900094326941,FRAUD,95.85862057833735
2007,3,1.359085404234739,FRAUD,73.58987284925502
2007,1,2.411428231576963,FRAUD,84.47053986522343
2007,8,0.8641595009563452,FRAUD,82.5962663068645
2007,10,8.426810427650533,FRAUD,93.22592873461076
2007,5,0.35293197910824725,FRAUD,35.887489925709346
2007,2,0.6783384752245751,FRAUD,84.84061359896276
2007,7,0.4054194363022638,FRAUD,55.40887516150625
2004,6,0.009831725536732424,LOST PROPERTY,74.32799467237253
2004,4,0.028817032434465144,FRAUD,71.53168277043801
2004,12,0.010757411712219406,VEHICLE THEFT,100.0
2004,11,0.018489157301160228,[INC - CASE DC USE ONLY],35.79294046393826
2004,9,0.0489766231832712,PROPERTY DAMAGE,44.04337962870834
2004,3,0.013210704242178531,BURGLARY-SECURE PARKING-RES,34.062224516402715
2004,1,0.3225217392968704,FRAUD,91.670506429635
2004,8,0.14231038219412406,FRAUD,93.87197639549909
2004,10,0.04826080290869525,OTHER PROPERTY,49.93320484501547
2004,5,0.03978362943768875,FRAUD,85.01822845582218
2004,2,0.05835718793479795,FRAUD,69.52821447921339
2004,7,0.00958354881501412,FRAUD,100.0
1997,1,0.0045659806141300635,FRAUD,69.23493935119286
1997,11,0.09888106683889052,FRAUD,99.99999999999999
1997,10,0.003435593851890198,FRAUD,100.0
1997,5,0.009104956191196164,FRAUD,100.0
1997,9,0.014798537054391067,FRAUD,100.0
1997,2,0.0036026934541827124,FRAUD,99.99999999999999
2006,6,0.6108816551267202,FRAUD,83.99508601933054
2006,4,0.17471285990400567,FRAUD,82.98338536583071
2006,12,0.8228599393328356,FRAUD,95.70309266166365
2006,11,0.10447777163795242,EMBEZZLE,39.78200467840176
2006,9,0.6365299765692862,FRAUD,96.75149646271782
2006,3,0.22543999648806815,[INC - CASE DC USE ONLY],38.16764588830826
2006,1,8.0103717324352,FRAUD,98.81525121152423
2006,8,0.45389089452452447,[INC - CASE DC USE ONLY],60.85069315785221
2006,10,0.7711821042300588,FRAUD,74.67005201804288
2006,5,0.19354550748579033,FRAUD,70.21649128141253
2006,2,0.08997497965299434,FRAUD,66.45271519363666
2006,7,0.15450640050690556,FRAUD,58.152223297678866
1991,1,0.004309170234019884,FRAUD,100.0
1991,11,0.006292990071368604,FRAUD,100.0
1991,9,0.011174632315036856,FRAUD,100.0
2005,6,0.08163727039261985,FRAUD,83.82394200055037
2005,11,0.06574654240770965,THREATS,52.447356686214306
2005,12,1.5663777152544516,ROBBERY,97.12820330432112
2005,4,0.027382230599129528,FRAUD,60.5893049588506
2005,9,8.200306175971736,FRAUD,99.4918689435622
2005,3,0.05725036276901633,FRAUD,49.25822368323297
2005,1,0.3967629382653114,FRAUD,74.73528802515152
2005,8,0.21407269617234392,FRAUD,92.29922485321917
2005,10,0.013320026420834054,FRAUD,74.956041180219
2005,5,0.04160453480543815,ASSAULT,81.38416239981628
2005,2,0.027333837424494852,FRAUD,72.95642761097372
2005,7,0.014710106307504816,OTHER PROPERTY,55.474156800171684
1996,6,0.0017152754849796932,FRAUD,100.0
1996,8,0.014653570585640003,FRAUD,100.0
1996,12,0.006881512322451554,CAR PROWL,100.0
1900,01,2.6168420657212467e-09,STOLEN PROPERTY,100.0
2000,1,0.0635077595396922,FRAUD,68.06745107917033
2000,8,0.02005381977651058,OTHER PROPERTY,62.16551014116946
2000,7,0.026236074065930703,ASSAULT,60.93599848985608
2000,10,0.009430035762757704,CAR PROWL,100.0
2000,3,0.011983164312787148,OTHER PROPERTY,51.97666162225431
2000,4,0.00662627606951156,FRAUD,100.0
2000,5,0.019144724160342623,FRAUD,53.58954350026489
2000,6,0.00602136049074882,CAR PROWL,64.63255050067205
2000,9,0.01817457167018716,FRAUD,87.15859999700731
2000,2,0.013087077698636795,FRAUD,66.97869565807373
2000,11,0.04393517931226845,PROPERTY DAMAGE,82.95269068230684
2014,6,410.92350184394013,OTHER PROPERTY,19.261078138855744
2014,11,165.09327683461288,CAR PROWL,23.59130079784966
2014,12,293.9799224123773,VEHICLE THEFT,43.9608701880816
2014,4,943.6318380676449,WARRANT ARREST,28.18988645904777
2014,9,602.0628545521433,DISTURBANCE,44.37694075009167
2014,3,974.4359489621644,PROPERTY DAMAGE,31.64125754952701
2014,1,1340.599409254598,PROPERTY DAMAGE,23.94047572911804
2014,8,946.6885015426916,PROPERTY DAMAGE,40.161590245404774
2014,10,866.7411902893492,VEHICLE THEFT,35.30249270203134
2014,5,734.8295770451984,DISTURBANCE,40.6633054171515
2014,2,1010.8283534809364,PROPERTY DAMAGE,31.401157144227824
2014,7,753.8064467817169,CAR PROWL,46.50434180227402
1989,6,0.0031237723107715577,[INC - CASE DC USE ONLY],100.0
1983,2,0.008958463684160381,RECOVERED PROPERTY,100.0
2008,6,436.8851770312654,PROPERTY DAMAGE,32.62912726836077
2008,4,303.4103096652418,PROPERTY DAMAGE,54.098897492432
2008,12,159.2351461749348,OTHER PROPERTY,27.664136104480708
2008,11,396.2744324244708,PROPERTY DAMAGE,37.09814218355834
2008,9,166.87568137154997,CAR PROWL,27.419208437038275
2008,3,177.3718102546948,OTHER PROPERTY,21.805807693680777
2008,1,163.7104839509507,CAR PROWL,19.81362717687986
2008,8,309.3638079070782,WARRANT ARREST,55.9872992402019
2008,10,130.53003084951493,BURGLARY,32.40113230548843
2008,5,178.74144681958765,OTHER PROPERTY,23.10156667979185
2008,2,338.77541150705895,VEHICLE THEFT,44.03784258047756
2008,7,410.5401872484667,WARRANT ARREST,40.59598757332634
1992,7,0.4313760989319711,LOST PROPERTY,100.0
1993,1,0.013870411113558927,FRAUD,100.0
1993,10,0.015058687252970932,HOMICIDE,51.99826085468762
2010,6,327.5923965820912,WARRANT ARREST,49.91892243809176
2010,11,126.35822496140612,FRAUD,22.951188704476724
2010,12,156.1635589563502,OTHER PROPERTY,14.154647469367852
2010,4,113.59783595184031,THREATS,24.35740013559663
2010,9,320.83914141399293,PROPERTY DAMAGE,39.65499405165173
2010,3,217.76053791261626,BURGLARY,49.02365923015861
2010,1,272.62354287180733,THREATS,50.23321845365928
2010,8,310.87413643536973,OTHER PROPERTY,46.5643175671289
2010,10,333.3591786067874,NARCOTICS,29.772543391151764
2010,5,307.36940125495926,OTHER PROPERTY,49.05297322824465
2010,2,109.83868293216351,OTHER PROPERTY,21.684043322805763
2010,7,65.42971511640167,BURGLARY,22.75740501455086
2012,6,768.562154027636,CAR PROWL,37.43097227387833
2012,4,866.22550441343,CAR PROWL,41.36578512679176
2012,12,373.2068774382153,DISTURBANCE,35.623780568605426
2012,11,164.16630827572934,THREATS,23.06476451095088
2012,9,341.9320667119497,VEHICLE THEFT,46.33783337241339
2012,3,570.0478634168502,PROPERTY DAMAGE,51.14191276802433
2012,1,320.25102990147394,VEHICLE THEFT,16.92855938136269
2012,8,425.8040402246253,VEHICLE THEFT,23.80026549399361
2012,10,309.2527837691751,BURGLARY,30.899829468340258
2012,5,585.1150684685016,PROPERTY DAMAGE,50.06643078081144
2012,2,521.5204760404445,PROPERTY DAMAGE,66.12734296928505
2012,7,1053.3262245269077,BURGLARY,31.047672811258344
1999,1,0.01228608978682208,FRAUD,100.00000000000001
1999,11,0.0011190182812038558,FRAUD,100.0
1999,9,0.007552903061926457,FRAUD,100.0
1999,6,0.007113815498383013,[INC - CASE DC USE ONLY],100.0
