year,month,influence,largestInfluencer,largestInfluencerPercent
2009,6,172.6804003949277,DISPUTE,32.72959368322467
2009,4,61.67700026386541,PROPERTY DAMAGE,16.305429262533753
2009,12,47.35715072807903,CAR PROWL,30.219395495086285
2009,11,82.60667340498608,VEHICLE THEFT,29.837386792161794
2009,9,86.97252969602845,CAR PROWL,33.41798659784293
2009,3,138.22366732085086,THREATS,41.79500059017947
2009,1,408.80287155155816,BURGLARY,84.94450051470966
2009,8,551.0146830176164,PROPERTY DAMAGE,81.849370147508
2009,10,113.51194397221767,CAR PROWL,50.20430124605727
2009,5,64.65877819256212,FRAUD,33.02155121243333
2009,2,90.36782559169224,CAR PROWL,41.920067260984624
2009,7,112.36512931278114,BURGLARY,29.503704369616397
1994,6,0.010422204987118147,PROPERTY DAMAGE,86.21343494544062
1994,1,0.017816067946345066,THREATS,58.88771401215946
1994,10,0.005443879341421212,FRAUD,100.0
1995,9,0.01461941085685979,FRAUD,100.0
1995,2,0.004596314757577,FRAUD,100.0
2015,6,76.16052276190037,CAR PROWL,18.34043466383201
2015,11,130.83033151774512,CAR PROWL,55.23885304553193
2015,12,2.685197317945976,THREATS,26.582020091406797
2015,4,156.6545306739503,CAR PROWL,56.97766618997969
2015,9,130.4718755142683,CAR PROWL,28.78826352090392
2015,3,82.40095584194493,OTHER PROPERTY,19.442472239847035
2015,1,288.09573862598955,BURGLARY,40.85422499071703
2015,8,154.31098825590558,CAR PROWL,55.53675882191317
2015,10,155.88633397013035,CAR PROWL,53.41133592752039
2015,5,118.11348241621882,CAR PROWL,41.11539606233548
2015,2,66.6325255930842,CAR PROWL,26.385175307950085
2015,7,170.58961732927312,FRAUD,27.130457835598577
2013,6,156.62717303022245,CAR PROWL,18.575067306924208
2013,11,327.721764686093,BURGLARY,60.61005251976618
2013,12,182.1983284484524,OTHER PROPERTY,28.4914644427622
2013,4,132.61533937800192,OTHER PROPERTY,19.552723485162126
2013,9,152.07749483667294,CAR PROWL,17.347739443049395
2013,3,1051.711775591333,BURGLARY,86.7913436316466
2013,1,121.99641027235508,CAR PROWL,20.29081206664589
2013,8,165.31687418757593,CAR PROWL,17.539033276794896
2013,10,1128.9932621090882,CAR PROWL,89.08088775737716
2013,5,187.20249282404396,PROPERTY DAMAGE,20.735076314846562
2013,2,158.7393172070684,BURGLARY,26.82099099584182
2013,7,152.67568592535278,BURGLARY,15.933203554410216
1990,5,0.004285771241416905,THREATS,100.0
1990,1,0.013345949280379093,LOST PROPERTY,100.0
1990,11,0.0034048207159996288,[INC - CASE DC USE ONLY],100.0
2011,6,182.93732528070043,PROPERTY DAMAGE,30.569228243825485
2011,4,93.63556400834,OTHER PROPERTY,25.27215560943141
2011,12,116.81831303062428,CAR PROWL,20.35146268780975
2011,11,103.7366909710344,CAR PROWL,23.860658801280103
2011,9,198.32655683545457,PROPERTY DAMAGE,26.48492132816269
2011,3,121.96885574621206,BURGLARY,29.828292332112337
2011,1,68.80231996312652,FRAUD,26.718707821049033
2011,8,107.77089528701443,CAR PROWL,22.493324175647867
2011,10,148.839245241572,CAR PROWL,17.671299665771926
2011,5,140.3434002257855,CAR PROWL,23.8008404705623
2011,2,59.647483146921886,BURGLARY,17.390955271187433
2011,7,153.8362946353496,CAR PROWL,22.560163900827874
2001,6,0.2213672082721977,OTHER PROPERTY,49.66458696202679
2001,11,0.04508700070575208,FRAUD,45.33964471923807
2001,12,0.4145239875281519,FRAUD,100.0
2001,4,0.1273176563303769,PROPERTY DAMAGE,37.62464649041837
2001,9,0.05032228221173621,OTHER PROPERTY,65.18034104718662
2001,3,0.039012934250063275,CAR PROWL,35.79590680163888
2001,1,0.22698020828075366,FRAUD,47.73150342947643
2001,8,0.08830576346814407,FRAUD,85.05030877290203
2001,10,0.06899380818371936,FRAUD,58.41583672480542
2001,5,0.04247522805596415,FRAUD,65.593728432209
2001,2,0.016913475440731067,OTHER PROPERTY,30.514169132866787
2001,7,0.027312570281749545,BURGLARY-SECURE PARKING-RES,58.80173592550309
2003,6,0.011794946040684092,FRAUD,99.99999999999999
2003,11,0.03149966772860778,FRAUD,75.2235435818081
2003,12,0.10914190515666335,FRAUD,99.28252559509035
2003,4,0.004312315238300163,CAR PROWL,100.0
2003,9,0.018806851661069428,OTHER PROPERTY,69.26948538239826
2003,3,0.0361577664649092,OTHER PROPERTY,53.188130371196394
2003,1,0.1506604946417348,FRAUD,71.67736817011283
2003,8,0.03986326463268534,FRAUD,91.24972132718443
2003,10,0.0013623582387296274,FRAUD,100.0
2003,5,0.014612069337065967,FRAUD,100.0
2003,2,0.01472423926930727,OTHER PROPERTY,74.71193450107398
2003,7,0.023512808467263863,FRAUD,73.18454402484242
1965,1,0.008273224460389361,LOST PROPERTY,100.0
1998,1,0.03620836546962614,FRAUD,61.37015324931904
1998,11,0.005999554070047573,FRAUD,68.44922179952165
1998,5,0.0024479206912389278,OTHER PROPERTY,100.0
1998,3,0.038439913914020823,OTHER PROPERTY,58.70385697654132
1998,8,0.016174006169842672,[INC - CASE DC USE ONLY],100.0
2002,1,0.5550930533714853,FRAUD,95.32210338989344
2002,8,0.023381899582464137,FRAUD,73.73374598907202
2002,10,0.009073268035409306,FRAUD,100.0
2002,12,0.19473379920198416,FRAUD,99.99999999999999
2002,4,0.00795732271489722,FRAUD,100.0
2002,11,0.006644188751168358,CAR PROWL,100.0
2002,6,0.010798735406340557,PROPERTY DAMAGE,41.04003402833967
2002,3,0.013124440614385759,[INC - CASE DC USE ONLY],78.2751874199733
2002,2,0.03471872030404983,[INC - CASE DC USE ONLY],61.0746331126521
2007,6,0.46680950755704453,FRAUD,34.588963896653475
2007,4,0.2507546880659127,FRAUD,31.072288205501586
2007,12,120.44709122847561,PROPERTY DAMAGE,90.58161958404503
2007,11,1.49918598298365,FRAUD,55.34034953886536
2007,9,6.133489364104033,FRAUD,91.15329249436292
2007,3,0.29935367517671896,FRAUD,63.43088107793041
2007,1,0.7802102489232309,FRAUD,50.58250944775267
2007,8,0.6748855411624305,FRAUD,78.18780464386757
2007,10,1.2931038233416625,FRAUD,29.751064848507895
2007,5,1.2025447330641517,LOST PROPERTY,52.89941275730813
2007,2,0.5910910133761024,FRAUD,72.00965676885917
2007,7,0.3510515300376618,THREATS,35.90106135991225
2004,6,0.010636699466561836,FRAUD,64.09362040268667
2004,4,0.012755282620824924,LOST PROPERTY,41.12599904725945
2004,12,0.0013754143585704628,VEHICLE THEFT,100.0
2004,11,0.1209030198907977,SHOPLIFTING,57.44027782216611
2004,9,0.07034398446830994,THREATS,40.92536411082122
2004,3,0.050868182598416266,BURGLARY-SECURE PARKING-RES,52.78637083223101
2004,1,0.24518842212883518,FRAUD,74.96222988087932
2004,8,0.04841751199591341,OTHER PROPERTY,36.287145850924375
2004,10,0.10653650951636348,FRAUD,45.06411539620063
2004,5,0.21267905465796558,FRAUD,88.2844455820683
2004,2,0.02014225159388525,FORGERY,35.78924746848144
2004,7,0.02753928278210233,FRAUD,100.0
1997,1,0.052021267644258684,FORGERY,83.70110248255746
1997,11,0.0024774496273997724,FRAUD,100.0
1997,10,0.11609873924280556,FRAUD,100.0
1997,5,0.008160756737256242,FRAUD,100.0
1997,9,0.001267938841714863,FRAUD,100.00000000000001
1997,2,0.00505385743581323,FRAUD,100.0
2006,6,0.1474776785213796,FRAUD,48.40680709594074
2006,4,0.16814839846649943,[INC - CASE DC USE ONLY],64.32136878785698
2006,12,0.21948828627871542,[INC - CASE DC USE ONLY],44.363004705947695
2006,11,0.0525391569285791,FRAUD,39.91582007168987
2006,9,0.09930054883325917,FRAUD,59.968641989621666
2006,3,0.06976668242867226,FRAUD,66.52368701055933
2006,1,0.35867638012509684,FRAUD,78.29984995826275
2006,8,0.13890541851669586,FRAUD,59.69611831140889
2006,10,0.05072470559041951,FRAUD,37.85371632043703
2006,5,0.1379049976070389,OTHER PROPERTY,33.482226112892846
2006,2,0.2113680895037649,FRAUD,62.46035967247778
2006,7,0.06196796349444862,FRAUD,59.15316381437233
1991,1,0.1258412125841994,FRAUD,100.0
1991,11,0.009396488824852566,FRAUD,100.0
1991,9,0.0011248972178387196,FRAUD,100.0
2005,6,1.544282384711966,FORGERY,95.49671804115665
2005,11,1.1717805679428135,FRAUD,92.8493946118108
2005,12,0.031471623330681216,FRAUD,41.56968182496721
2005,4,0.07973772594386785,FRAUD,55.79102602953688
2005,9,21.24041991728767,[INC - CASE DC USE ONLY],99.50851607311037
2005,3,0.052055469636254945,FRAUD,72.9503932336515
2005,1,0.3412080645614391,EMBEZZLE,48.466698223269624
2005,8,0.0622415221484494,FRAUD,47.49929900741422
2005,10,0.4637252909511666,FRAUD,98.4388045742783
2005,5,0.012990098714315022,FRAUD,90.90139364925889
2005,2,0.02560194679956465,FRAUD,90.57542093609356
2005,7,0.06843376328099886,FRAUD,85.37855427733906
1996,6,0.011194510755676623,FRAUD,100.0
1996,8,0.002681972591861914,FRAUD,100.0
1996,12,0.0030366253559987347,CAR PROWL,99.99999999999999
1900,01,2.6187762235610316e-09,STOLEN PROPERTY,100.0
2000,1,0.07883378495291285,THREATS,43.89291779199837
2000,8,0.03679249817977263,OTHER PROPERTY,41.25659803875928
2000,7,0.017648229547691654,FRAUD,73.6555995077281
2000,10,0.012127026131593348,CAR PROWL,100.0
2000,3,0.061977448290876036,OTHER PROPERTY,94.54719227737363
2000,4,0.016774688374760073,FRAUD,100.0
2000,5,0.02396490478458705,FRAUD,63.56213556955899
2000,6,0.04496570261899744,FRAUD,85.90770784808377
2000,9,0.025908846968234478,FRAUD,53.89941126853334
2000,2,0.010580996479044716,FRAUD,52.165457734331284
2000,11,0.02468044353442418,FRAUD,55.94202861706503
2014,6,1094.550145469758,FRAUD,62.99288200015518
2014,11,98.13540429602907,PROPERTY DAMAGE,16.244384636549764
2014,12,105.21155891270016,PROPERTY DAMAGE,24.168551608694663
2014,4,180.40519719009802,CAR PROWL,18.83448177265911
2014,9,246.40300814833125,CAR PROWL,58.56244454355281
2014,3,883.9501703197603,FRAUD,85.74411598132319
2014,1,1040.133345468215,VEHICLE THEFT,87.9099158227122
2014,8,315.877082595146,FRAUD,44.241800071533476
2014,10,165.5677013452992,BURGLARY,20.66396606828903
2014,5,213.17610602812863,CAR PROWL,23.209807690765818
2014,2,198.5890621692475,PROPERTY DAMAGE,45.35744506654238
2014,7,485.18370898247474,CAR PROWL,33.41514839792766
1989,6,0.005814040088697754,[INC - CASE DC USE ONLY],99.99999999999999
1983,2,0.002581572930048894,RECOVERED PROPERTY,100.00000000000001
2008,6,101.48197138120548,CAR PROWL,38.827861761117966
2008,4,53.03813657311634,CAR PROWL,31.394460905369435
2008,12,85.77953410354428,BURGLARY,36.710793962371945
2008,11,69.20905358747079,CAR PROWL,31.881298385758907
2008,9,513.8637184733245,BURGLARY,88.92581238111234
2008,3,59.31034195740901,CAR PROWL,20.64556253889235
2008,1,91.00719787873805,BURGLARY,35.177439539229916
2008,8,66.27069331612111,CAR PROWL,20.50327576013668
2008,10,179.8485228748124,CAR PROWL,68.3299233205447
2008,5,519.1274812598031,PROPERTY DAMAGE,87.11848540849627
2008,2,59.212334130922606,CAR PROWL,24.168342766778956
2008,7,57.94365560475736,CAR PROWL,24.567046468546128
1992,7,0.0014726228745026257,LOST PROPERTY,100.0
1993,1,0.002646699940416116,FRAUD,100.0
1993,10,0.009512692710906323,FRAUD,79.18025117259083
2010,6,69.85812282017717,CAR PROWL,19.600423060448183
2010,11,58.796977652095194,CAR PROWL,19.139636229084875
2010,12,51.10953644069332,CAR PROWL,15.177503392635787
2010,4,51.63289646914656,PROPERTY DAMAGE,19.383436798371626
2010,9,94.32977709798851,CAR PROWL,34.21905473490406
2010,3,61.9329451585898,CAR PROWL,18.77125234259128
2010,1,105.96362808559508,CAR PROWL,51.34199871811335
2010,8,86.21067617396656,OTHER PROPERTY,21.454825389019014
2010,10,76.61959273181019,CAR PROWL,20.495079711416743
2010,5,74.31722325196124,CAR PROWL,26.126309029309457
2010,2,54.546549952914525,CAR PROWL,17.26511462092864
2010,7,23.364393047475957,FRAUD,25.049344592168595
2012,6,129.6951044764506,CAR PROWL,18.47860873659226
2012,4,136.65658773265363,PROPERTY DAMAGE,28.118791442224232
2012,12,70.4275991666298,CAR PROWL,16.16982565970025
2012,11,47.898187853438586,CAR PROWL,17.016887191915885
2012,9,104.56097070031004,WEAPON,22.177742113012
2012,3,137.12801342576972,CAR PROWL,21.74518079601304
2012,1,136.8385527408651,CAR PROWL,17.50697336647738
2012,8,136.01053796649475,OTHER PROPERTY,14.33708359341058
2012,10,119.9809185536246,FRAUD,22.47012934437007
2012,5,128.43107855764882,CAR PROWL,24.582681489602763
2012,2,100.17943581770304,CAR PROWL,19.07274715828056
2012,7,137.40271109057628,CAR PROWL,17.361392059789637
1999,1,0.01828808868837989,FRAUD,100.0
1999,11,0.006691235117326249,FRAUD,100.0
1999,9,0.011243372697747465,FRAUD,99.99999999999999
1999,6,0.0019009290318854324,[INC - CASE DC USE ONLY],100.0
