year,month,influence,largestInfluencer,largestInfluencerPercent
2009,6,573.8337504256672,EMBEZZLE,44.11158467427567
2009,4,370.2749492753898,BURGLARY,43.20621771429941
2009,12,325.3707764444877,CAR PROWL,82.44492951850458
2009,11,106.78924184799068,CAR PROWL,42.33233133956987
2009,9,1896.4106022252956,VEHICLE THEFT,69.4922941896652
2009,3,121.90714800432349,PROPERTY DAMAGE,43.88465022685658
2009,1,71.78712010796228,CAR PROWL,21.04867205015334
2009,8,594.0568303789611,ROBBERY,43.1705425939433
2009,10,143.43171446823075,CAR PROWL,31.028772937774903
2009,5,328.582779241076,SHOPLIFTING,77.51971212709043
2009,2,94.18901452584295,PROPERTY DAMAGE,42.94734745661629
2009,7,78.22882317718945,CAR PROWL,22.509753717910993
1994,6,0.013725418714931579,PROPERTY DAMAGE,91.19658732986977
1994,1,0.06213941319011333,FRAUD,83.80487806446656
1994,10,0.004469763461681497,FRAUD,100.0
1995,9,0.00887354938754959,FRAUD,100.0
1995,2,0.004226022162946788,FRAUD,100.0
2015,6,386.3075768480333,BIKE THEFT,65.98062112526095
2015,11,323.5606750667316,PROPERTY DAMAGE,46.61979137744821
2015,12,3.2392184106513633,VEHICLE THEFT,41.78942098178561
2015,4,210.12371932778098,BURGLARY,34.054851031717014
2015,9,713.2127419148358,SHOPLIFTING,61.758803380278216
2015,3,355.28764258977736,OTHER PROPERTY,74.35386020988103
2015,1,136.91814830101558,BURGLARY,20.669190222679386
2015,8,628.2159468333122,SHOPLIFTING,46.87695839348111
2015,10,701.2429259559999,SHOPLIFTING,83.62243120411364
2015,5,422.445890888497,SHOPLIFTING,35.170642296402605
2015,2,250.1052062209814,SHOPLIFTING,59.43357773468507
2015,7,188.12981596229184,FRAUD,28.01510524316023
2013,6,830.2651659504779,SHOPLIFTING,35.62439989053983
2013,11,1007.915761465662,THREATS,50.71381540423516
2013,12,296.6449593998948,CAR PROWL,46.70737452406604
2013,4,495.4585560996534,BURGLARY,63.11663107983086
2013,9,841.6036108944072,SHOPLIFTING,35.16765219176475
2013,3,1381.6837992860985,SHOPLIFTING,58.05214465590637
2013,1,1634.604376870238,CAR PROWL,36.48765010171342
2013,8,1309.9113712090943,OTHER PROPERTY,40.072952484976945
2013,10,891.121566061735,SHOPLIFTING,66.12207211987675
2013,5,793.4528219707477,SHOPLIFTING,64.48974123825086
2013,2,526.3678928492197,SHOPLIFTING,55.86440587806428
2013,7,1105.3678893714214,PROPERTY DAMAGE,28.0473945653315
1990,5,0.02686076155426916,THREATS,100.0
1990,1,0.03152164056232414,LOST PROPERTY,100.0
1990,11,0.0036979042176539774,[INC - CASE DC USE ONLY],100.0
2011,6,204.6761736323103,BURGLARY,31.619137683358172
2011,4,139.67288720472516,CAR PROWL,25.91172637740146
2011,12,179.70525798940355,CAR PROWL,22.871391957070397
2011,11,716.4585011473338,SHOPLIFTING,81.90696537792728
2011,9,291.3158630915708,FRAUD,33.5320732925102
2011,3,296.64032849214686,BURGLARY,37.44952315092221
2011,1,352.20218419230855,OTHER PROPERTY,74.1312143934679
2011,8,656.1977368568276,SHOPLIFTING,45.002477088268
2011,10,765.7070316666609,BURGLARY,41.94211233713652
2011,5,530.7889402032604,SHOPLIFTING,55.532514800651384
2011,2,117.79026073472855,OTHER PROPERTY,47.76302103308851
2011,7,172.78625043401493,PROPERTY DAMAGE,20.089677626146823
2001,6,0.2975019565660348,FRAUD,49.81190185958747
2001,11,0.4494326297482639,CAR PROWL,59.13252286034412
2001,12,0.020644293793072484,FRAUD,100.0
2001,4,0.048204210260921976,OTHER PROPERTY,28.771682319426944
2001,9,0.13311228419408777,FRAUD,72.8897638346107
2001,3,0.2858403530534145,BURGLARY,89.1639472372266
2001,1,0.3049056430503334,FRAUD,83.6962945961851
2001,8,0.020823437675626735,CAR PROWL,37.75233606080195
2001,10,0.10530637258924291,OTHER PROPERTY,61.547514505059254
2001,5,0.05808246641693783,FRAUD,90.0979910719995
2001,2,0.2428376093150216,LOST PROPERTY,94.75199628962201
2001,7,0.5163940304395218,BURGLARY-SECURE PARKING-RES,97.1945834061525
2003,6,0.05266788156728102,FRAUD,99.99999999999999
2003,11,0.06435498463833375,FRAUD,87.58022254711283
2003,12,0.02235455357738701,FRAUD,95.99987016533052
2003,4,0.0038912455841166797,CAR PROWL,100.0
2003,9,0.014490691762471551,LOST PROPERTY,44.380832404600795
2003,3,0.17169240169048466,FRAUD,56.60194418830706
2003,1,0.2083529505301937,FRAUD,39.96621363275714
2003,8,0.22451977521591873,FRAUD,98.35586762430142
2003,10,0.001638565763110063,FRAUD,100.0
2003,5,0.003952719960078172,FRAUD,100.0
2003,2,0.010468660256415532,OTHER PROPERTY,60.80549402640177
2003,7,0.01836085696152462,FRAUD,65.527397058645
1965,1,0.013335920061613665,LOST PROPERTY,100.0
1998,1,0.08984268078746056,FRAUD,57.242525322773595
1998,11,0.006741307965114718,FRAUD,79.40333247118515
1998,5,0.0014960503087696308,OTHER PROPERTY,100.0
1998,3,0.11769800742747541,OTHER PROPERTY,67.6729989402967
1998,8,0.015418442118900151,[INC - CASE DC USE ONLY],100.0
2002,1,0.17654569008803825,FRAUD,67.63333671680518
2002,8,0.3616366951650834,FRAUD,93.99410646511716
2002,10,0.009017621230349365,FRAUD,100.0
2002,12,0.0084323759321641,FRAUD,100.0
2002,4,0.0380743598551627,FRAUD,100.0
2002,11,0.07456591648739058,CAR PROWL,100.0
2002,6,0.011970007298876047,PROPERTY DAMAGE,43.20686579990673
2002,3,0.0435398712547753,[INC - CASE DC USE ONLY],90.52001993519059
2002,2,0.016032172175565504,FRAUD,51.13589200181949
2007,6,1.2593184288850874,LOST PROPERTY,42.53751445147729
2007,4,0.8584904638691015,BURGLARY,59.339801369221576
2007,12,11.312651226338243,FRAUD,36.3460611575142
2007,11,4.021767820848204,FRAUD,51.851646822433125
2007,9,2.3820629094879764,FRAUD,75.2067536458094
2007,3,0.56521167879134,FRAUD,52.2259181512799
2007,1,2.100455989581393,FRAUD,69.14528857919998
2007,8,0.603568603196792,FRAUD,57.22634437436403
2007,10,2.1343097182958144,FRAUD,78.95847240978553
2007,5,0.6153505044073155,FRAUD,31.576202882632156
2007,2,0.26844534667420406,FRAUD,53.015140833497846
2007,7,0.2582985555188412,FRAUD,40.568504251866266
2004,6,0.012061681928965541,FRAUD,82.11216061164465
2004,4,0.01317977224794447,LOST PROPERTY,38.17802530959217
2004,12,0.001621686840826092,VEHICLE THEFT,100.00000000000001
2004,11,0.10349260955897865,LOST PROPERTY,64.98774726745899
2004,9,0.11921224513092735,FRAUD,41.81032445931094
2004,3,0.1876871606926487,BURGLARY-SECURE PARKING-RES,82.69533206861122
2004,1,0.5979529027705262,FRAUD,53.32501930585532
2004,8,0.11757170615397179,OTHER PROPERTY,74.24875732242529
2004,10,0.5140788552906066,[INC - CASE DC USE ONLY],64.13076897187263
2004,5,0.09031168624613019,FRAUD,68.4148326283979
2004,2,0.05097019980542293,FORGERY,71.95871177325459
2004,7,0.1496743288325704,FRAUD,100.0
1997,1,0.01942362719607122,FORGERY,70.92937491862202
1997,11,0.0024357107117683914,FRAUD,100.0
1997,10,0.015624993957298251,FRAUD,100.0
1997,5,0.008827284990755819,FRAUD,100.0
1997,9,0.0014148708225711077,FRAUD,100.0
1997,2,0.0057050582000174365,FRAUD,100.0
2006,6,0.41756178466578037,FRAUD,55.33674168670837
2006,4,0.10509011539508606,LOST PROPERTY,46.91021432398789
2006,12,0.6033805750670556,FRAUD,68.61593858318689
2006,11,0.24022185323058726,[INC - CASE DC USE ONLY],71.35120063940519
2006,9,0.19483426553529043,FRAUD,57.264215873341925
2006,3,0.11781486246104185,FRAUD,52.32814696197516
2006,1,0.7772826296685122,[INC - CASE DC USE ONLY],62.17681702836853
2006,8,0.1684426391610974,FRAUD,91.30975059859071
2006,10,0.17495423788920464,VEHICLE THEFT,38.58029971479263
2006,5,0.09460209945171752,[INC - CASE DC USE ONLY],36.31604364641319
2006,2,0.15715853087331874,FRAUD,42.45233084187341
2006,7,0.054847038562179845,FRAUD,33.52556610946221
1991,1,0.027967631002254977,FRAUD,100.0
1991,11,0.01370318152060427,FRAUD,100.0
1991,9,0.0012947779714677361,FRAUD,99.99999999999999
2005,6,0.05391290766514432,OTHER PROPERTY,42.173358848883794
2005,11,0.5361778375781105,CAR PROWL,92.16482360686204
2005,12,0.06342230610829533,LOST PROPERTY,58.74208286764867
2005,4,0.07424101248171171,FRAUD,72.35459229218083
2005,9,0.044983459646683266,FRAUD,60.35125376371561
2005,3,0.043216156323837004,FRAUD,74.73682386458503
2005,1,0.4568696992976672,FRAUD,52.96321114800424
2005,8,0.06105699268405623,FRAUD,44.27613158294642
2005,10,0.09410021575914829,FRAUD,93.9857411356452
2005,5,0.011020955158024528,FRAUD,89.15132733596263
2005,2,0.6575171791885823,FRAUD,99.57459862155444
2005,7,0.1490618385900166,BURGLARY,71.26362130448568
1996,6,0.02393836300713738,FRAUD,100.0
1996,8,0.0034261122766561657,FRAUD,100.0
1996,12,0.0031337759444455193,CAR PROWL,100.0
1900,01,2.6221194528221263e-09,STOLEN PROPERTY,100.0
2000,1,0.17157532217334526,FRAUD,44.69774050411268
2000,8,0.10048137051904293,STOLEN PROPERTY,50.00241538037151
2000,7,0.16196931969629827,FRAUD,97.17273716651925
2000,10,0.0112857824443609,CAR PROWL,99.99999999999999
2000,3,0.04304205138655158,OTHER PROPERTY,91.6836552326952
2000,4,0.010215920319752516,FRAUD,100.0
2000,5,0.026930175081035995,FRAUD,68.56268980974673
2000,6,0.04560096936558472,FRAUD,89.77548312816215
2000,9,0.02034298632153094,FRAUD,54.95177307213653
2000,2,0.012508698239960564,FRAUD,64.0299636145864
2000,11,0.057840444559840595,FRAUD,73.91746802961252
2014,6,789.700379720122,BURGLARY,71.7062137935315
2014,11,1252.41649325815,BURGLARY,27.644850181487207
2014,12,140.83034834684503,OTHER PROPERTY,26.509943862541814
2014,4,307.44967614448126,OTHER PROPERTY,25.601338286294695
2014,9,1217.1314423812278,FRAUD,42.37467831598821
2014,3,451.61993762622296,FRAUD,40.77305387933002
2014,1,855.9819580002797,SHOPLIFTING,68.8074517673758
2014,8,217.2242745179565,FORGERY,19.964185071671647
2014,10,661.679769106709,SHOPLIFTING,67.00356000619458
2014,5,553.5811992034002,NARCOTICS,52.89183078224293
2014,2,536.2660012529144,SHOPLIFTING,55.111705233110584
2014,7,930.1499740906426,BURGLARY,64.92931401264683
1989,6,0.006892166379923374,[INC - CASE DC USE ONLY],100.0
1983,2,0.0026425645623236816,RECOVERED PROPERTY,100.0
2008,6,77.50006775289151,CAR PROWL,20.3001982849725
2008,4,1415.095292183976,STOLEN PROPERTY,94.56059333487835
2008,12,107.14207678460298,CAR PROWL,22.610231966244218
2008,11,264.29487168479955,TRESPASS,55.48096901856009
2008,9,1458.2531912783259,STOLEN PROPERTY,91.7883032797579
2008,3,74.77849393447876,CAR PROWL,23.634458170363004
2008,1,337.3148152026385,ROBBERY,76.15117902237911
2008,8,235.41648426402386,SHOPLIFTING,62.726964669159294
2008,10,318.42217482171526,OTHER PROPERTY,82.85759830893687
2008,5,250.29352093028857,WARRANT ARREST,59.250918665967795
2008,2,87.93133708465493,PROPERTY DAMAGE,29.001148505053266
2008,7,356.9989017006256,SHOPLIFTING,72.19738299979478
1992,7,0.0012333368682258732,LOST PROPERTY,100.0
1993,1,0.0017394752002912305,FRAUD,100.0
1993,10,0.013404781705053697,FRAUD,81.94971748483479
2010,6,97.15823903431848,CAR PROWL,17.933980554602496
2010,11,155.19698661736544,CAR PROWL,30.262284974842014
2010,12,72.05169614057681,CAR PROWL,27.354296091445388
2010,4,76.52350668016724,CAR PROWL,25.69555698543546
2010,9,352.1464609265684,PICKPOCKET,71.90713883721699
2010,3,1654.838322882166,FRAUD,78.94251448046593
2010,1,73.02661267187929,ROBBERY,30.961400406884817
2010,8,876.6145365947452,ASSAULT,57.971071731563114
2010,10,904.7169182529954,CAR PROWL,57.73315918024488
2010,5,113.0061214972699,PROPERTY DAMAGE,22.9957473788788
2010,2,131.77995935911437,BURGLARY,32.31933192439799
2010,7,28.846539982030222,OTHER PROPERTY,14.203436961924211
2012,6,522.0142753817223,SHOPLIFTING,56.99974588181708
2012,4,146.18402128019477,BURGLARY,20.227576907000348
2012,12,266.13751834793567,SHOPLIFTING,55.70192859743689
2012,11,505.02448939318595,WARRANT ARREST,50.35613058914081
2012,9,533.2353619460274,SHOPLIFTING,75.20606530182476
2012,3,471.64695111012463,WARRANT ARREST,62.59854219718533
2012,1,1290.742117936324,SHOPLIFTING,68.08876590090279
2012,8,1006.435317122741,SHOPLIFTING,58.63936382334915
2012,10,167.3314931152312,ROBBERY,32.620595698765136
2012,5,200.29542622894934,CAR PROWL,32.96873283967664
2012,2,3084.907471637628,OTHER PROPERTY,84.841032049867
2012,7,748.8041031321726,SHOPLIFTING,78.68247352828972
1999,1,0.04502364962927344,FRAUD,100.00000000000001
1999,11,1.0091487595346549,FRAUD,100.0
1999,9,0.01042532802146394,FRAUD,100.0
1999,6,0.0024201987540019387,[INC - CASE DC USE ONLY],100.0
