Date,Value
2015-09-30,186400.0
2015-08-31,146400.0
2015-07-31,141400.0
2015-06-30,140900.0
2015-05-31,140200.0
2015-04-30,140600.0
2015-03-31,139800.0
2015-02-28,140600.0
2015-01-31,140100.0
2014-12-31,139500.0
2014-11-30,137600.0
2014-10-31,135700.0
2014-09-30,134600.0
2014-08-31,132800.0
2014-07-31,130800.0
2014-06-30,130200.0
2014-05-31,130300.0
2014-04-30,130300.0
2014-03-31,130100.0
2014-02-28,129200.0
2014-01-31,127400.0
2013-12-31,124800.0
2013-11-30,123200.0
2013-10-31,121700.0
2013-09-30,118100.0
2013-08-31,114300.0
2013-07-31,112600.0
2013-06-30,112400.0
2013-05-31,112300.0
2013-04-30,111700.0
2013-03-31,110500.0
2013-02-28,109500.0
2013-01-31,109100.0
2012-12-31,109300.0
2012-11-30,109000.0
2012-10-31,108800.0
2012-09-30,110400.0
2012-08-31,111500.0
2012-07-31,110600.0
2012-06-30,108200.0
2012-05-31,105900.0
2012-04-30,105400.0
2012-03-31,107900.0
2012-02-29,111200.0
2012-01-31,112600.0
2011-12-31,114000.0
2011-11-30,116200.0
2011-10-31,118300.0
2011-09-30,120200.0
2011-08-31,122600.0
2011-07-31,125000.0
2011-06-30,127600.0
2011-05-31,130200.0
2011-04-30,131500.0
2011-03-31,130200.0
2011-02-28,128400.0
2011-01-31,128900.0
2010-12-31,130800.0
2010-11-30,131400.0
2010-10-31,132000.0
2010-09-30,133200.0
2010-08-31,135000.0
2010-07-31,138600.0
2010-06-30,143300.0
2010-05-31,145700.0
2010-04-30,145900.0
2010-03-31,145400.0
2010-02-28,144400.0
2010-01-31,144000.0
2009-12-31,145600.0
2009-11-30,150200.0
2009-10-31,154200.0
2009-09-30,154600.0
2009-08-31,153900.0
2009-07-31,154700.0
2009-06-30,155600.0
2009-05-31,156900.0
2009-04-30,159100.0
2009-03-31,162100.0
2009-02-28,164900.0
2009-01-31,166400.0
2008-12-31,166600.0
2008-11-30,166500.0
2008-10-31,169200.0
2008-09-30,174000.0
2008-08-31,176300.0
2008-07-31,174300.0
2008-06-30,173200.0
2008-05-31,174700.0
2008-04-30,177700.0
2008-03-31,182200.0
2008-02-29,187800.0
2008-01-31,191200.0
2007-12-31,191600.0
2007-11-30,191200.0
2007-10-31,190000.0
2007-09-30,189200.0
2007-08-31,189700.0
2007-07-31,191100.0
2007-06-30,193600.0
2007-05-31,196800.0
2007-04-30,198100.0
2007-03-31,196100.0
2007-02-28,193800.0
2007-01-31,192400.0
2006-12-31,191400.0
2006-11-30,190200.0
2006-10-31,188100.0
2006-09-30,186300.0
2006-08-31,185500.0
2006-07-31,184600.0
2006-06-30,179500.0
2006-05-31,173200.0
2006-04-30,166300.0
2006-03-31,160400.0
2006-02-28,156200.0
2006-01-31,155300.0
2005-12-31,154400.0
2005-11-30,152700.0
2005-10-31,151000.0
2005-09-30,150700.0
2005-08-31,150400.0
2005-07-31,148300.0
2005-06-30,144800.0
2005-05-31,140500.0
2005-04-30,137400.0
2005-03-31,135800.0
2005-02-28,134500.0
2005-01-31,132000.0
2004-12-31,129100.0
2004-11-30,126800.0
2004-10-31,125500.0
2004-09-30,125100.0
2004-08-31,124900.0
2004-07-31,125300.0
2004-06-30,126300.0
2004-05-31,127100.0
2004-04-30,127600.0
2004-03-31,127900.0
2004-02-29,128000.0
2004-01-31,127600.0
2003-12-31,127100.0
2003-11-30,126700.0
2003-10-31,125300.0
2003-09-30,122600.0
2003-08-31,120900.0
2003-07-31,121200.0
2003-06-30,121300.0
2003-05-31,121000.0
2003-04-30,120800.0
2003-03-31,120400.0
2003-02-28,119800.0
2003-01-31,119900.0
2002-12-31,120400.0
2002-11-30,119900.0
2002-10-31,117900.0
2002-09-30,115100.0
2002-08-31,112400.0
2002-07-31,110100.0
2002-06-30,108500.0
2002-05-31,107800.0
2002-04-30,107500.0
2002-03-31,107500.0
2002-02-28,107700.0
2002-01-31,107400.0
2001-12-31,106600.0
2001-11-30,105300.0
2001-10-31,103800.0
2001-09-30,102700.0
2001-08-31,101800.0
2001-07-31,100900.0
2001-06-30,101200.0
2001-05-31,102400.0
2001-04-30,104200.0
2001-03-31,105200.0
2001-02-28,104200.0
2001-01-31,102500.0
2000-12-31,101700.0
2000-11-30,102000.0
2000-10-31,103100.0
2000-09-30,104100.0
2000-08-31,103700.0
2000-07-31,102700.0
2000-06-30,102200.0
2000-05-31,101700.0
2000-04-30,100000.0
2000-03-31,97300.0
2000-02-29,94800.0
2000-01-31,93000.0
1999-12-31,91500.0
1999-11-30,90200.0
1999-10-31,89100.0
1999-09-30,88800.0
1999-08-31,89300.0
1999-07-31,89100.0
1999-06-30,87700.0
1999-05-31,86000.0
1999-04-30,84900.0
1999-03-31,84300.0
1999-02-28,83700.0
1999-01-31,83100.0
1998-12-31,83100.0
1998-11-30,84000.0
1998-10-31,84700.0
1998-09-30,84500.0
1998-08-31,83900.0
1998-07-31,83700.0
1998-06-30,83600.0
1998-05-31,83300.0
1998-04-30,82900.0
1998-03-31,83400.0
1998-02-28,84600.0
1998-01-31,85400.0
1997-12-31,84800.0
1997-11-30,84600.0
1997-10-31,84700.0
1997-09-30,83300.0
1997-08-31,81300.0
1997-07-31,80300.0
1997-06-30,80200.0
1997-05-31,80500.0
1997-04-30,80600.0
1997-03-31,80300.0
1997-02-28,80000.0
1997-01-31,79700.0
1996-12-31,79500.0
1996-11-30,79000.0
1996-10-31,78800.0
1996-09-30,79500.0
1996-08-31,79900.0
1996-07-31,79400.0
1996-06-30,78500.0
1996-05-31,77800.0
1996-04-30,77500.0
