Date,Value
2015-02-28,149900.0
2015-01-31,149900.0
2014-12-31,149900.0
2014-11-30,159900.0
2014-10-31,159900.0
2014-09-30,174900.0
2014-08-31,174900.0
2014-07-31,174900.0
2014-06-30,199900.0
2014-05-31,199900.0
2014-04-30,199900.0
2014-03-31,199900.0
2014-02-28,154900.0
2014-01-31,69900.0
2013-12-31,174900.0
2013-11-30,139900.0
2013-10-31,174900.0
2013-09-30,139900.0
2013-08-31,174900.0
2013-07-31,175000.0
2013-06-30,137900.0
2013-05-31,92500.0
2013-04-30,139900.0
2013-03-31,137900.0
2013-02-28,170000.0
2013-01-31,154900.0
2012-12-31,154900.0
2012-11-30,179500.0
2012-10-31,179500.0
2012-09-30,179900.0
2012-08-31,179500.0
2012-07-31,179900.0
2012-06-30,179500.0
2012-05-31,179900.0
2012-04-30,179900.0
2012-03-31,189900.0
2012-02-29,185000.0
2012-01-31,179500.0
2011-12-31,179500.0
2011-11-30,179500.0
2011-10-31,179900.0
2011-09-30,179900.0
2011-08-31,170000.0
2011-07-31,189500.0
2011-06-30,192500.0
2011-05-31,175000.0
2011-04-30,179500.0
2011-03-31,174000.0
2011-02-28,169900.0
2011-01-31,169900.0
2010-12-31,170000.0
2010-11-30,169900.0
2010-10-31,174000.0
2010-09-30,199950.0
2010-08-31,199500.0
2010-07-31,199900.0
2010-06-30,199900.0
2010-05-31,214900.0
2010-04-30,199900.0
2010-03-31,199900.0
2010-02-28,169900.0
2009-11-30,176900.0
2009-10-31,178900.0
2009-09-30,169900.0
2009-08-31,169900.0
2009-07-31,169900.0
