Date,Value
2015-09-30,272359.5
2015-06-30,301209.5
2015-04-30,270058.8235
2014-11-30,245769.2308
2014-09-30,250567.6471
2014-08-31,229950.0
2014-04-30,245363.5294
2014-03-31,263500.0
2013-09-30,250455.0
2013-08-31,259260.0
2013-07-31,271252.5
2013-06-30,235857.5
2013-05-31,226575.0
2013-04-30,220750.0
2013-03-31,188470.5882
2013-02-28,162000.0
2012-11-30,218235.0
2012-10-31,247957.5
2012-09-30,255482.5
2012-08-31,224029.4118
2012-07-31,187000.0
2010-06-30,290558.8235
2010-05-31,293220.8462
2010-03-31,203957.0
2009-12-31,288400.0
2009-08-31,267500.0
2009-02-28,250000.0
2008-09-30,251142.3077
2008-07-31,263205.8824
2008-06-30,278461.5385
2008-04-30,292058.8235
2008-03-31,295000.0
2007-12-31,286250.0
2007-11-30,279366.2
2007-10-31,296187.8
2007-09-30,296679.0
2007-08-31,311175.0
2007-07-31,316335.0
2007-06-30,291057.5
2007-05-31,295782.5
2007-04-30,309625.0
2007-03-31,312750.0
2007-02-28,299000.0
2007-01-31,290492.5
2006-12-31,313802.9412
2006-11-30,334180.7692
2006-09-30,302700.0
2006-08-31,336325.0
2006-07-31,311925.0
2006-06-30,317075.0
2006-05-31,288235.0
2006-04-30,310182.4
2006-03-31,296940.6
2006-02-28,308400.5
2006-01-31,279782.5
2005-12-31,281425.0
2005-11-30,301725.0
2005-10-31,280775.0
2005-09-30,253242.5
2005-08-31,267732.5
2005-07-31,262317.5
2005-06-30,261078.9
2005-05-31,269516.6
2005-04-30,273780.5
2005-03-31,251382.5
2005-02-28,257150.0
2005-01-31,277475.0
2004-12-31,270675.0
2004-11-30,243225.0
2004-10-31,223592.7
2004-09-30,233208.8
2004-08-31,246041.5
2004-07-31,231650.0
2004-06-30,228575.0
2004-05-31,219950.0
2004-04-30,212425.0
2004-03-31,222880.0
2004-02-29,220045.0
2004-01-31,220962.5
2003-12-31,196212.5
2003-11-30,202650.0
2003-10-31,186075.0
2003-09-30,195750.0
2003-08-31,195795.0
2003-07-31,190355.0
2003-06-30,190650.0
2003-05-31,186250.0
2003-04-30,189585.0
2003-03-31,180723.5294
2003-02-28,189153.8462
2002-12-31,191615.3846
2002-10-31,203142.5
2002-09-30,205625.0
2002-08-31,202535.6
2002-07-31,188942.65
2002-06-30,195828.75
2002-05-31,183449.5
2002-04-30,193676.4706
2002-03-31,187494.5385
2002-01-31,190992.95
2001-12-31,189885.05
2001-11-30,174111.5
2001-10-31,161655.3
2001-09-30,158670.7
2001-08-31,164236.0
2001-07-31,166457.5
2001-06-30,175150.0
2001-05-31,169225.0
2001-04-30,178256.85
2001-03-31,190352.65
2001-02-28,190102.0
2001-01-31,189975.0
2000-12-31,185575.0
2000-11-30,183410.0
2000-10-31,174215.0
2000-09-30,181010.0
2000-08-31,172457.5
2000-07-31,173557.5
2000-06-30,169550.0
2000-05-31,173300.0
2000-04-30,172100.0
2000-03-31,164142.5
2000-02-29,161575.0
2000-01-31,156207.5
1999-12-31,161100.0
1999-11-30,160388.95
1999-10-31,163932.55
1999-09-30,169269.0
1999-08-31,161345.0
1999-07-31,157050.0
1999-06-30,153720.0
1999-05-31,159740.0
1999-04-30,153575.0
1999-03-31,152742.5
1999-02-28,154935.0
1999-01-31,153970.0
1998-12-31,145042.5
1998-11-30,149790.25
1998-10-31,149734.75
1998-09-30,152417.5
1998-08-31,143775.0
1998-07-31,141250.0
1998-06-30,138875.0
1998-05-31,138350.0
1998-04-30,132965.0
1998-03-31,140135.0
1998-02-28,147142.5
1998-01-31,147508.8235
1997-12-31,144180.5385
1997-10-31,143941.2
1997-09-30,141951.0
1997-08-31,139970.5882
1997-07-31,136553.8462
1997-05-31,135088.2353
1997-04-30,137500.0
1996-07-31,135450.0
1996-06-30,131519.3
1996-05-31,129661.7
1996-04-30,131131.0
