Date,Value
2014-12-31,55000.0
2014-11-30,54600.0
2014-10-31,54200.0
2014-09-30,53900.0
2014-08-31,53700.0
2014-07-31,54100.0
2014-06-30,54700.0
2014-05-31,54900.0
2014-04-30,55100.0
2014-03-31,55400.0
2014-02-28,55500.0
2014-01-31,55500.0
2013-12-31,55800.0
2013-11-30,56000.0
2013-10-31,56400.0
2013-09-30,56900.0
2013-08-31,57700.0
2013-07-31,58200.0
2013-06-30,58500.0
2013-05-31,57900.0
2013-04-30,56700.0
2013-03-31,55800.0
2013-02-28,55500.0
2013-01-31,55400.0
2012-12-31,55500.0
2012-11-30,56000.0
2012-10-31,56800.0
2012-09-30,57600.0
2012-08-31,57800.0
2012-07-31,57600.0
2012-06-30,57200.0
2012-05-31,57300.0
2012-04-30,57200.0
2012-03-31,56900.0
2012-02-29,56700.0
2012-01-31,56400.0
2011-12-31,56000.0
2011-11-30,55900.0
2011-10-31,56100.0
2011-09-30,56100.0
2011-08-31,56400.0
2011-07-31,56500.0
2011-06-30,56200.0
2011-05-31,56200.0
2011-04-30,56700.0
2011-03-31,57100.0
2011-02-28,57400.0
2011-01-31,57300.0
2010-12-31,57000.0
2010-11-30,56900.0
2010-10-31,56800.0
2010-09-30,56600.0
2010-08-31,56000.0
2010-07-31,55600.0
2010-06-30,55500.0
2010-05-31,55600.0
2010-04-30,55600.0
2010-03-31,55400.0
2010-02-28,55200.0
2010-01-31,55300.0
2009-12-31,55600.0
2009-11-30,56600.0
2009-10-31,57700.0
2009-09-30,58400.0
2009-08-31,58600.0
2009-07-31,58600.0
2009-06-30,58700.0
2009-05-31,58700.0
2009-04-30,58300.0
2009-03-31,57900.0
2009-02-28,57500.0
2009-01-31,57000.0
2008-12-31,56500.0
2008-11-30,56400.0
2008-10-31,56600.0
2008-09-30,56800.0
2008-08-31,56400.0
2008-07-31,55800.0
2008-06-30,55300.0
2008-05-31,55100.0
2008-04-30,55100.0
2008-03-31,55700.0
2008-02-29,56700.0
2008-01-31,57300.0
2007-12-31,57200.0
2007-11-30,57000.0
2007-10-31,57100.0
2007-09-30,57200.0
2007-08-31,56900.0
2007-07-31,56300.0
2007-06-30,55800.0
2007-05-31,55500.0
2007-04-30,54900.0
2007-03-31,54100.0
2007-02-28,53700.0
2007-01-31,53800.0
2006-12-31,54000.0
2006-11-30,54600.0
2006-10-31,55300.0
2006-09-30,55800.0
2006-08-31,56400.0
2006-07-31,57400.0
2006-06-30,57600.0
2006-05-31,58200.0
2006-04-30,60000.0
2006-03-31,61900.0
2006-02-28,63200.0
