Date,Value
2015-08-31,299000.0
2015-07-31,289700.0
2015-06-30,288300.0
2015-05-31,288000.0
2015-04-30,288100.0
2015-03-31,290100.0
2015-02-28,290100.0
2015-01-31,292700.0
2014-12-31,295700.0
2014-11-30,293000.0
2014-10-31,285600.0
2014-09-30,280600.0
2014-08-31,278400.0
2014-07-31,273600.0
2014-06-30,266600.0
2014-05-31,258500.0
2014-04-30,252800.0
2014-03-31,250000.0
2014-02-28,248900.0
2014-01-31,248700.0
2013-12-31,248200.0
2013-11-30,247300.0
2013-10-31,243400.0
2013-09-30,238700.0
2013-08-31,235400.0
2013-07-31,235500.0
2013-06-30,235500.0
2013-05-31,233700.0
2013-04-30,230000.0
2013-03-31,228700.0
2013-02-28,229700.0
2013-01-31,233100.0
2012-12-31,235600.0
2012-11-30,236200.0
2012-10-31,235700.0
2012-09-30,236400.0
2012-08-31,235500.0
2012-07-31,234800.0
2012-06-30,235100.0
2012-05-31,234000.0
2012-04-30,231900.0
2012-03-31,233200.0
2012-02-29,237100.0
2012-01-31,241600.0
2011-12-31,245300.0
2011-11-30,247000.0
2011-10-31,247300.0
2011-09-30,250300.0
2011-08-31,253600.0
2011-07-31,255300.0
2011-06-30,255300.0
2011-05-31,255200.0
2011-04-30,255600.0
2011-03-31,255700.0
2011-02-28,255200.0
2011-01-31,258600.0
2010-12-31,264100.0
2010-11-30,266100.0
2010-10-31,264500.0
2010-09-30,264700.0
2010-08-31,266000.0
2010-07-31,269300.0
2010-06-30,272100.0
2010-05-31,272500.0
2010-04-30,272300.0
2010-03-31,275100.0
2010-02-28,278000.0
2010-01-31,283200.0
2009-12-31,289300.0
2009-11-30,292300.0
2009-10-31,290800.0
2009-09-30,289300.0
2009-08-31,288100.0
2009-07-31,498500.0
2009-06-30,500800.0
2009-05-31,504900.0
2009-04-30,510900.0
2009-03-31,516400.0
2009-02-28,518000.0
2009-01-31,512500.0
2008-12-31,506400.0
2008-11-30,503700.0
2008-10-31,503700.0
2008-09-30,508600.0
2008-08-31,514800.0
2008-07-31,519100.0
2008-06-30,522900.0
2008-05-31,528600.0
2008-04-30,533000.0
2008-03-31,534400.0
2008-02-29,532600.0
2008-01-31,535200.0
2007-12-31,540200.0
2007-11-30,544000.0
2007-10-31,543800.0
2007-09-30,541900.0
2007-08-31,538800.0
2007-07-31,538600.0
2007-06-30,543600.0
2007-05-31,553000.0
2007-04-30,560200.0
2007-03-31,566600.0
2007-02-28,572700.0
2007-01-31,572700.0
2006-12-31,570700.0
2006-11-30,576500.0
2006-10-31,590200.0
2006-09-30,600100.0
2006-08-31,603400.0
2006-07-31,601200.0
2006-06-30,596100.0
2006-05-31,589000.0
2006-04-30,583000.0
2006-03-31,575700.0
2006-02-28,570400.0
2006-01-31,574100.0
2005-12-31,582000.0
2005-11-30,582900.0
2005-10-31,574800.0
2005-09-30,564300.0
2005-08-31,558500.0
2005-07-31,557500.0
2005-06-30,553800.0
2005-05-31,546600.0
2005-04-30,542400.0
2005-03-31,539300.0
2005-02-28,532700.0
2005-01-31,523100.0
2004-12-31,513000.0
2004-11-30,503600.0
2004-10-31,497200.0
2004-09-30,493200.0
2004-08-31,487200.0
2004-07-31,475600.0
2004-06-30,464700.0
2004-05-31,458300.0
2004-04-30,450000.0
2004-03-31,441200.0
2004-02-29,437300.0
2004-01-31,436100.0
2003-12-31,432600.0
2003-11-30,428600.0
2003-10-31,424800.0
2003-09-30,421900.0
2003-08-31,421000.0
2003-07-31,423200.0
2003-06-30,423900.0
2003-05-31,418900.0
2003-04-30,413200.0
2003-03-31,409700.0
2003-02-28,406000.0
2003-01-31,400300.0
2002-12-31,394400.0
2002-11-30,387300.0
2002-10-31,379900.0
2002-09-30,375200.0
2002-08-31,370600.0
2002-07-31,363600.0
2002-06-30,358700.0
2002-05-31,355700.0
2002-04-30,351300.0
2002-03-31,345500.0
2002-02-28,339500.0
2002-01-31,334200.0
2001-12-31,329500.0
2001-11-30,324000.0
2001-10-31,316500.0
2001-09-30,306200.0
2001-08-31,295200.0
2001-07-31,286500.0
2001-06-30,280200.0
2001-05-31,276000.0
2001-04-30,272500.0
2001-03-31,270100.0
2001-02-28,268600.0
2001-01-31,266700.0
2000-12-31,265400.0
2000-11-30,266700.0
2000-10-31,267300.0
2000-09-30,265500.0
2000-08-31,263400.0
2000-07-31,260600.0
2000-06-30,256000.0
2000-05-31,251600.0
2000-04-30,248300.0
2000-03-31,245300.0
2000-02-29,241300.0
2000-01-31,237100.0
1999-12-31,232100.0
1999-11-30,226800.0
1999-10-31,223300.0
1999-09-30,221400.0
1999-08-31,220500.0
1999-07-31,220900.0
1999-06-30,220900.0
1999-05-31,219500.0
1999-04-30,218500.0
1999-03-31,217900.0
1999-02-28,216200.0
1999-01-31,213300.0
1998-12-31,209600.0
1998-11-30,205500.0
1998-10-31,202000.0
1998-09-30,200300.0
1998-08-31,199400.0
1998-07-31,198400.0
1998-06-30,196900.0
1998-05-31,195000.0
1998-04-30,193000.0
1998-03-31,191400.0
1998-02-28,189000.0
1998-01-31,187100.0
1997-12-31,187100.0
1997-11-30,188000.0
1997-10-31,188400.0
1997-09-30,187200.0
1997-08-31,184700.0
1997-07-31,182200.0
1997-06-30,181400.0
1997-05-31,181500.0
1997-04-30,182600.0
1997-03-31,182700.0
1997-02-28,181700.0
1997-01-31,180100.0
1996-12-31,179600.0
1996-11-30,180000.0
1996-10-31,181100.0
1996-09-30,182800.0
1996-08-31,185500.0
1996-07-31,188500.0
1996-06-30,189800.0
1996-05-31,189700.0
1996-04-30,188600.0
