Date,Value
2015-02-28,94900.0
2015-01-31,95000.0
2014-12-31,94900.0
2014-11-30,94900.0
2014-10-31,94900.0
2014-09-30,94900.0
2014-08-31,89500.0
2014-07-31,89000.0
2014-06-30,89000.0
2014-05-31,89000.0
2014-04-30,89000.0
2014-03-31,89900.0
2014-02-28,89000.0
2014-01-31,89900.0
2013-12-31,105000.0
2013-11-30,105000.0
2013-10-31,100000.0
2013-09-30,105000.0
2013-08-31,99999.0
2013-07-31,96500.0
2013-06-30,99999.0
2013-05-31,99500.0
2013-04-30,100000.0
2013-03-31,94500.0
2013-02-28,76500.0
2013-01-31,76500.0
2012-12-31,74000.0
2012-11-30,74300.0
2012-10-31,74300.0
2012-09-30,89999.0
2012-08-31,89000.0
2012-07-31,89000.0
2012-06-30,89000.0
2012-05-31,89999.0
2012-04-30,94999.0
2012-03-31,105000.0
2012-02-29,89000.0
2011-11-30,89000.0
2011-09-30,99950.0
2011-03-31,98000.0
2011-02-28,89900.0
2011-01-31,89900.0
2010-12-31,89900.0
2010-11-30,89900.0
2010-10-31,114900.0
2010-09-30,114900.0
2010-08-31,119900.0
2010-07-31,130000.0
2010-06-30,125000.0
2010-05-31,120000.0
2010-04-30,120000.0
2010-03-31,120000.0
2010-02-28,89900.0
2010-01-31,80000.0
2009-12-31,92000.0
2009-11-30,92000.0
2009-10-31,95000.0
2009-09-30,99900.0
2009-08-31,99900.0
2009-07-31,98000.0
2009-06-30,99900.0
2009-05-31,125000.0
2009-04-30,129900.0
