Date,Value
2015-09-30,194575.0
2015-07-31,196577.0
2015-06-30,193232.5
2015-05-31,196125.0
2014-12-31,160825.0
2014-11-30,160342.5
2014-10-31,146982.5
2014-09-30,149185.0
2014-08-31,152340.0
2014-06-30,193288.4615
2014-04-30,162205.8824
2014-03-31,145000.0
2013-12-31,169411.7647
2013-11-30,140000.0
2013-08-31,188242.5
2013-07-31,177100.0
2013-06-30,167625.0
2013-05-31,161050.0
2013-04-30,152588.2353
2013-03-31,141192.3077
2013-01-31,155588.2353
2012-12-31,180000.0
2012-07-31,125000.0
2011-09-30,144603.8462
2011-07-31,157911.7647
2011-06-30,153961.5385
2011-04-30,150500.0
2010-11-30,150000.0
2010-07-31,186661.7647
2010-06-30,171346.1538
2010-04-30,160000.0
2009-12-31,184076.9231
2009-10-31,192450.0
2009-09-30,178050.0
2009-08-31,175105.0
2009-07-31,160312.5
2009-06-30,155597.0588
2009-05-31,155450.0
2009-02-28,165000.0
2008-10-31,207518.0
2008-09-30,211650.0
2008-08-31,213550.0
2008-07-31,207442.5
2008-06-30,203497.5
2008-05-31,198502.5
2008-04-30,195920.5882
2008-03-31,189950.0
2007-12-31,225530.0
2007-11-30,225465.0
2007-10-31,228600.0
2007-09-30,234900.0
2007-08-31,230950.0
2007-07-31,229742.5
2007-06-30,228907.5
2007-05-31,219042.5
2007-04-30,221932.5
2007-03-31,220610.0
2007-02-28,220607.5
2007-01-31,223332.5
2006-12-31,223125.0
2006-11-30,232450.0
2006-10-31,225317.4
2006-09-30,215530.6
2006-08-31,223118.0
2006-07-31,227425.0
2006-06-30,232020.25
2006-05-31,223622.25
2006-04-30,215222.5
2006-03-31,218989.0
2006-02-28,215278.5
2006-01-31,208462.5
2005-12-31,209967.5
2005-11-30,208917.5
2005-10-31,205990.0
2005-09-30,200700.0
2005-08-31,197050.0
2005-07-31,192900.0
2005-06-30,187900.0
2005-05-31,178390.0
2005-04-30,169650.0
2005-03-31,169660.0
2005-02-28,179232.5
2005-01-31,172042.5
2004-12-31,167900.0
2004-11-30,169775.0
2004-10-31,166292.5
2004-09-30,168557.5
2004-08-31,163650.0
2004-07-31,163200.0
2004-06-30,160150.0
2004-05-31,150200.0
2004-04-30,153650.0
2004-03-31,149080.0
2004-02-29,145820.0
2004-01-31,148475.0
2003-12-31,153700.0
2003-11-30,151144.0
2003-10-31,154178.5
2003-09-30,155730.0
2003-08-31,155407.5
2003-07-31,150617.5
2003-06-30,152245.0
2003-05-31,152487.5
2003-04-30,145875.0
2003-03-31,143500.0
2003-02-28,148800.0
2003-01-31,142500.0
2002-12-31,141175.0
2002-11-30,145900.0
2002-10-31,144975.0
2002-09-30,145034.95
2002-08-31,138231.55
2002-07-31,138866.5
2002-06-30,142950.0
2002-05-31,141650.0
2002-04-30,144399.85
2002-03-31,146624.65
2002-02-28,151292.0
2002-01-31,150057.5
2001-12-31,142947.5
2001-11-30,122802.5
2001-10-31,125465.65
2001-09-30,137294.85
2001-08-31,135612.15
2001-07-31,131303.85
2001-06-30,126580.5
2001-05-31,123450.0
2001-04-30,128176.4706
2001-03-31,123434.6154
2001-01-31,118650.0
2000-12-31,125575.0
2000-11-30,122725.0
2000-10-31,125742.5
2000-09-30,119783.5
2000-08-31,122044.0
2000-07-31,125362.5
2000-06-30,126357.5
2000-05-31,126540.0
2000-04-30,126690.0
2000-03-31,125695.0
2000-02-29,123380.0
2000-01-31,124487.5
1999-12-31,114432.5
1999-11-30,110475.0
1999-10-31,120850.0
1999-09-30,125725.0
1999-08-31,125075.0
1999-07-31,122135.0
1999-06-30,115895.0
1999-05-31,112295.0
1999-04-30,116203.95
1999-03-31,116067.55
1999-02-28,112396.5
1999-01-31,117950.0
1998-12-31,120450.0
1998-11-30,115325.0
1998-10-31,113975.0
1998-09-30,117250.0
1998-08-31,116575.0
1998-07-31,115575.0
1998-06-30,114600.0
1998-05-31,118500.0
1998-04-30,110300.0
1998-03-31,104975.0
1998-02-28,100950.0
1998-01-31,107372.5
1997-12-31,111677.5
1997-11-30,108067.5
1997-10-31,118032.5
1997-09-30,118725.0
1997-08-31,113692.5
1997-07-31,107582.5
1997-06-30,101475.0
1997-05-31,100882.3529
1997-04-30,94526.9231
1997-02-28,95832.3529
1997-01-31,99950.0
1996-09-30,98520.0
1996-08-31,97125.0
1996-07-31,92650.0
1996-06-30,94200.0
1996-05-31,103117.5
1996-04-30,113182.5
