Date,Value
2015-09-30,477100.0
2015-08-31,474700.0
2015-07-31,470300.0
2015-06-30,474600.0
2015-05-31,470500.0
2015-04-30,465700.0
2015-03-31,467700.0
2015-02-28,467400.0
2015-01-31,464500.0
2014-12-31,464800.0
2014-11-30,463800.0
2014-10-31,462600.0
2014-09-30,463600.0
2014-08-31,467000.0
2014-07-31,470500.0
2014-06-30,472900.0
2014-05-31,476500.0
2014-04-30,477900.0
2014-03-31,476400.0
2014-02-28,475100.0
2014-01-31,476400.0
2013-12-31,476100.0
2013-11-30,474800.0
2013-10-31,469700.0
2013-09-30,460900.0
2013-08-31,453300.0
2013-07-31,449300.0
2013-06-30,443300.0
2013-05-31,436300.0
2013-04-30,432200.0
2013-03-31,429400.0
2013-02-28,425100.0
2013-01-31,420600.0
2012-12-31,416700.0
2012-11-30,414400.0
2012-10-31,413800.0
2012-09-30,413400.0
2012-08-31,413200.0
2012-07-31,412500.0
2012-06-30,413400.0
2012-05-31,414700.0
2012-04-30,413800.0
2012-03-31,411200.0
2012-02-29,409100.0
2012-01-31,408500.0
2011-12-31,409500.0
2011-11-30,410700.0
2011-10-31,410400.0
2011-09-30,411900.0
2011-08-31,417600.0
2011-07-31,424400.0
2011-06-30,429900.0
2011-05-31,433600.0
2011-04-30,435600.0
2011-03-31,437300.0
2011-02-28,440100.0
2011-01-31,441700.0
2010-12-31,443200.0
2010-11-30,446200.0
2010-10-31,450300.0
2010-09-30,454400.0
2010-08-31,459900.0
2010-07-31,466700.0
2010-06-30,472700.0
2010-05-31,474000.0
2010-04-30,475700.0
2010-03-31,481200.0
2010-02-28,486300.0
2010-01-31,488200.0
2009-12-31,489900.0
2009-11-30,491900.0
2009-10-31,493800.0
2009-09-30,497500.0
2009-08-31,499100.0
2009-07-31,497500.0
2009-06-30,494900.0
2009-05-31,494700.0
2009-04-30,497100.0
2009-03-31,504000.0
2009-02-28,512700.0
2009-01-31,519100.0
2008-12-31,522800.0
2008-11-30,527200.0
2008-10-31,533800.0
2008-09-30,540800.0
2008-08-31,544400.0
2008-07-31,546800.0
2008-06-30,549600.0
2008-05-31,553800.0
2008-04-30,558000.0
2008-03-31,562700.0
2008-02-29,569400.0
2008-01-31,579200.0
2007-12-31,587800.0
2007-11-30,593900.0
2007-10-31,598500.0
2007-09-30,599800.0
2007-08-31,597000.0
2007-07-31,591000.0
2007-06-30,588100.0
2007-05-31,591300.0
2007-04-30,595200.0
2007-03-31,590300.0
2007-02-28,579100.0
2007-01-31,569200.0
2006-12-31,559700.0
2006-11-30,549100.0
2006-10-31,539600.0
2006-09-30,531800.0
2006-08-31,524400.0
2006-07-31,520300.0
2006-06-30,519100.0
2006-05-31,515600.0
2006-04-30,510600.0
2006-03-31,506400.0
2006-02-28,501800.0
2006-01-31,494100.0
2005-12-31,485200.0
2005-11-30,475700.0
2005-10-31,466900.0
2005-09-30,458800.0
2005-08-31,452800.0
2005-07-31,449500.0
2005-06-30,446000.0
2005-05-31,440900.0
2005-04-30,433700.0
2005-03-31,427200.0
2005-02-28,422100.0
2005-01-31,419000.0
2004-12-31,417000.0
2004-11-30,415000.0
2004-10-31,410800.0
2004-09-30,405400.0
2004-08-31,399600.0
2004-07-31,391200.0
2004-06-30,381700.0
2004-05-31,373500.0
2004-04-30,368000.0
2004-03-31,363600.0
2004-02-29,359400.0
2004-01-31,355900.0
2003-12-31,354700.0
2003-11-30,355000.0
2003-10-31,355500.0
2003-09-30,357100.0
2003-08-31,359000.0
2003-07-31,359100.0
2003-06-30,357700.0
2003-05-31,355100.0
2003-04-30,351100.0
2003-03-31,347100.0
2003-02-28,346200.0
2003-01-31,344800.0
2002-12-31,342700.0
2002-11-30,341000.0
2002-10-31,340400.0
2002-09-30,338700.0
2002-08-31,337100.0
2002-07-31,335400.0
2002-06-30,333700.0
2002-05-31,332100.0
2002-04-30,330500.0
2002-03-31,327900.0
2002-02-28,324000.0
2002-01-31,321700.0
2001-12-31,321100.0
2001-11-30,319200.0
2001-10-31,315900.0
2001-09-30,312000.0
2001-08-31,308300.0
2001-07-31,306100.0
2001-06-30,305400.0
2001-05-31,306800.0
2001-04-30,310500.0
2001-03-31,312500.0
2001-02-28,311600.0
2001-01-31,309700.0
2000-12-31,308200.0
2000-11-30,307700.0
2000-10-31,307200.0
2000-09-30,306900.0
2000-08-31,307200.0
2000-07-31,307300.0
2000-06-30,305700.0
2000-05-31,302900.0
2000-04-30,299200.0
2000-03-31,297000.0
2000-02-29,296200.0
2000-01-31,294800.0
1999-12-31,291600.0
1999-11-30,288800.0
1999-10-31,286700.0
1999-09-30,285700.0
1999-08-31,284600.0
1999-07-31,283700.0
1999-06-30,282500.0
1999-05-31,280400.0
1999-04-30,277600.0
1999-03-31,275000.0
1999-02-28,270600.0
1999-01-31,265600.0
1998-12-31,261500.0
1998-11-30,259600.0
1998-10-31,257900.0
1998-09-30,255700.0
1998-08-31,252600.0
1998-07-31,250400.0
1998-06-30,248700.0
1998-05-31,247400.0
1998-04-30,246200.0
1998-03-31,245500.0
1998-02-28,244400.0
1998-01-31,242700.0
1997-12-31,241300.0
1997-11-30,240400.0
1997-10-31,239200.0
1997-09-30,237200.0
1997-08-31,235200.0
1997-07-31,234300.0
1997-06-30,234600.0
1997-05-31,235600.0
1997-04-30,236300.0
1997-03-31,235900.0
1997-02-28,234600.0
1997-01-31,232600.0
1996-12-31,229700.0
1996-11-30,226400.0
1996-10-31,223100.0
1996-09-30,221000.0
1996-08-31,219100.0
1996-07-31,216600.0
1996-06-30,213000.0
1996-05-31,207300.0
1996-04-30,201200.0
