Date,Value
2015-09-30,1.148
2015-08-31,1.198
2015-07-31,1.18
2015-06-30,1.174
2015-05-31,1.174
2015-04-30,1.17
2015-03-31,1.168
2015-02-28,1.158
2015-01-31,1.146
2014-12-31,1.136
2014-11-30,1.132
2014-10-31,1.13
2014-09-30,1.13
2014-08-31,1.124
2014-07-31,1.112
2014-06-30,1.094
2014-05-31,1.082
2014-04-30,1.07
2014-03-31,1.076
2014-02-28,1.068
2014-01-31,1.058
2013-12-31,1.056
2013-11-30,1.054
2013-10-31,1.044
2013-09-30,1.036
2013-08-31,1.028
2013-07-31,1.02
2013-06-30,1.014
2013-05-31,1.004
2013-04-30,0.998
2013-03-31,1.006
2013-02-28,1.006
2013-01-31,1.0
2012-12-31,1.0
2012-11-30,0.996
2012-10-31,0.996
2012-09-30,0.996
2012-08-31,1.0
2012-07-31,1.01
2012-06-30,1.026
2012-05-31,1.04
2012-04-30,1.048
2012-03-31,0.802
2012-02-29,0.808
2012-01-31,0.806
2011-12-31,0.804
2011-11-30,0.79
2011-10-31,0.776
2011-09-30,0.756
2011-08-31,0.744
2011-07-31,0.738
2011-06-30,0.734
2011-05-31,0.728
2011-04-30,0.716
2011-03-31,0.7
2011-02-28,0.696
2011-01-31,0.7
2010-12-31,0.71
2010-11-30,0.718
