Date,Value
2015-02-28,215000.0
2015-01-31,222444.0
2014-12-31,195000.0
2014-11-30,217500.0
2014-10-31,218444.0
2014-09-30,218444.0
2014-08-31,215000.0
2014-07-31,239000.0
2014-06-30,225000.0
2014-05-31,239000.0
2014-04-30,228495.0
2014-03-31,218444.0
2014-02-28,198500.0
2014-01-31,205000.0
2013-12-31,218444.0
2013-11-30,229000.0
2013-10-31,215000.0
2013-09-30,198500.0
2013-08-31,199500.0
2013-07-31,185000.0
2013-06-30,160000.0
2013-05-31,155000.0
2013-04-30,155000.0
2013-03-31,155000.0
2013-02-28,119900.0
2013-01-31,164900.0
2012-12-31,164900.0
2012-11-30,189900.0
2012-10-31,169000.0
2012-09-30,175000.0
2012-08-31,175000.0
2012-07-31,189900.0
2012-06-30,195000.0
2012-05-31,193200.0
2012-04-30,193200.0
2012-03-31,169900.0
2012-02-29,189900.0
2012-01-31,183900.0
2011-12-31,183900.0
2011-11-30,195000.0
2011-10-31,199900.0
2011-09-30,199900.0
2011-08-31,199900.0
2011-07-31,210000.0
2011-06-30,220000.0
2011-05-31,200000.0
2011-04-30,199900.0
2011-03-31,229000.0
2011-02-28,229500.0
2011-01-31,199900.0
2010-12-31,199900.0
2010-11-30,199900.0
2010-10-31,225000.0
2010-09-30,229500.0
2010-08-31,225000.0
2010-07-31,219900.0
2010-06-30,225000.0
2010-05-31,210000.0
2010-04-30,225000.0
2010-03-31,257900.0
2010-02-28,295000.0
2010-01-31,257900.0
2009-12-31,239000.0
2009-11-30,199900.0
2009-10-31,249950.0
2009-09-30,249950.0
2009-08-31,244800.0
2009-07-31,279000.0
2009-06-30,249950.0
2009-05-31,277000.0
2009-04-30,244800.0
2009-03-31,274500.0
2009-02-28,274500.0
2009-01-31,279000.0
2008-12-31,275000.0
2008-11-30,279000.0
2008-10-31,299900.0
