Date,Value
2015-09-30,0.916
2015-08-31,0.906
2015-07-31,0.892
2015-06-30,0.886
2015-05-31,0.88
2015-04-30,0.874
2015-03-31,0.868
2015-02-28,0.862
2015-01-31,0.858
2014-12-31,0.858
2014-11-30,0.86
2014-10-31,0.86
2014-09-30,0.862
2014-08-31,0.864
2014-07-31,0.86
2014-06-30,0.852
2014-05-31,0.85
2014-04-30,0.854
2014-03-31,0.862
2014-02-28,0.862
2014-01-31,0.862
2013-12-31,0.862
2013-11-30,0.86
2013-10-31,0.85
2013-09-30,0.842
2013-08-31,0.834
2013-07-31,0.824
2013-06-30,0.82
2013-05-31,0.816
2013-04-30,0.816
2013-03-31,0.814
2013-02-28,0.814
2013-01-31,0.816
2012-12-31,0.818
2012-11-30,0.818
2012-10-31,0.812
2012-09-30,0.81
2012-08-31,0.808
2012-07-31,0.812
2012-06-30,0.816
2012-05-31,0.818
2012-04-30,0.816
2012-03-31,0.816
2012-02-29,0.814
2012-01-31,0.812
2011-12-31,0.814
2011-11-30,0.814
2011-10-31,0.81
2011-09-30,0.814
2011-08-31,0.818
2011-07-31,0.822
2011-06-30,0.822
2011-05-31,0.82
2011-04-30,0.812
2011-03-31,0.802
2011-02-28,0.798
2011-01-31,0.792
2010-12-31,0.782
2010-11-30,0.772
