Date,Value
2015-09-30,501700.0
2015-08-31,526100.0
2015-07-31,521950.0
2015-06-30,527500.0
2015-05-31,514600.0
2015-04-30,475175.0
2015-03-31,437730.0
2015-02-28,403900.0
2015-01-31,444640.0
2014-12-31,455260.0
2014-11-30,465700.0
2014-10-31,449950.0
2014-09-30,461400.0
2014-08-31,502150.0
2014-07-31,516750.0
2014-06-30,495350.0
2014-05-31,493900.0
2014-04-30,468050.0
2014-03-31,426450.0
2014-02-28,433500.0
2014-01-31,427250.0
2013-12-31,388500.0
2013-11-30,407750.0
2013-10-31,416500.0
2013-09-30,414050.0
2013-08-31,420200.0
2013-07-31,447044.25
2013-06-30,404603.25
2013-05-31,432897.5
2013-04-30,432750.0
2013-03-31,407000.0
2013-02-28,382750.0
2013-01-31,403000.0
2012-12-31,385250.0
2012-11-30,381950.0
2012-10-31,369550.0
2012-09-30,394250.0
2012-08-31,391050.0
2012-07-31,399600.0
2012-06-30,419975.0
2012-05-31,396125.0
2012-04-30,375500.0
2012-03-31,340225.0
2012-02-29,352500.0
2012-01-31,353500.0
2011-12-31,358550.0
2011-11-30,384137.5
2011-10-31,374187.5
2011-09-30,434675.0
2011-08-31,433600.0
2011-07-31,403650.0
2011-06-30,377442.5
2011-05-31,391550.0
2011-04-30,394250.0
2011-03-31,404442.5
2011-02-28,394582.5
2011-01-31,393400.0
2010-12-31,437750.0
2010-11-30,449350.0
2010-10-31,425650.0
2010-09-30,440000.0
2010-08-31,451742.5
2010-07-31,467482.5
2010-06-30,431350.0
2010-05-31,416875.0
2010-04-30,401700.0
2010-03-31,428475.0
2010-02-28,446625.0
2010-01-31,452898.5
2009-12-31,420296.5
2009-11-30,376745.0
2009-10-31,394200.0
2009-09-30,389800.0
2009-08-31,408875.0
2009-07-31,428375.0
2009-06-30,396050.0
2009-05-31,350200.0
2009-04-30,344425.0
2009-03-31,382075.0
2009-02-28,436700.0
2009-01-31,445800.0
2008-12-31,428999.25
2008-11-30,369898.25
2008-10-31,389097.5
2008-09-30,419000.0
2008-08-31,421500.0
2008-07-31,442000.0
2008-06-30,446375.0
2008-05-31,450725.0
2008-04-30,466250.0
2008-03-31,463150.0
2008-02-29,457800.0
2008-01-31,472400.0
2007-12-31,447550.0
2007-11-30,452600.0
2007-10-31,419392.5
2007-09-30,448107.5
2007-08-31,508800.0
2007-07-31,511850.0
2007-06-30,513450.0
2007-05-31,518800.0
2007-04-30,519450.0
2007-03-31,499500.0
2007-02-28,480025.0
2007-01-31,508525.0
2006-12-31,515678.05
2006-11-30,502615.45
2006-10-31,499943.5
2006-09-30,504650.0
2006-08-31,499650.0
2006-07-31,491650.0
2006-06-30,475550.0
2006-05-31,452650.0
2006-04-30,451250.0
2006-03-31,428492.5
2006-02-28,414982.5
2006-01-31,434967.5
2005-12-31,436032.5
2005-11-30,438175.0
2005-10-31,434700.0
2005-09-30,419292.5
2005-08-31,391782.5
2005-07-31,379425.0
2005-06-30,364475.0
2005-05-31,375818.5
2005-04-30,372901.5
2005-03-31,363432.6
2005-02-28,361822.1
2005-01-31,365708.3
2004-12-31,366278.25
2004-11-30,362518.25
2004-10-31,342107.5
2004-09-30,353667.5
2004-08-31,341532.5
2004-07-31,343325.0
2004-06-30,340600.0
2004-05-31,345619.25
2004-04-30,354178.25
2004-03-31,340397.5
2004-02-29,328425.0
2004-01-31,336325.0
2003-12-31,331000.0
2003-11-30,329285.6
2003-10-31,321258.9
2003-09-30,327334.5
2003-08-31,323225.0
2003-07-31,311495.0
2003-06-30,299905.0
2003-05-31,298900.0
2003-04-30,303500.0
2003-03-31,293550.0
2003-02-28,299400.0
2003-01-31,279550.0
2002-12-31,284125.0
2002-11-30,287475.0
2002-10-31,296550.0
2002-09-30,294898.5
2002-08-31,297439.0
2002-07-31,286902.5
2002-06-30,293892.5
2002-05-31,280881.0
2002-04-30,271521.5
2002-03-31,266395.0
2002-02-28,287697.0
2002-01-31,287585.5
2001-12-31,294522.5
2001-11-30,287125.0
2001-10-31,276550.0
2001-09-30,280375.0
2001-08-31,291175.0
2001-07-31,286950.0
2001-06-30,285962.5
2001-05-31,283759.15
2001-04-30,282483.85
2001-03-31,282455.5
2001-02-28,286650.0
2001-01-31,283750.0
2000-12-31,279600.0
2000-11-30,280642.5
2000-10-31,281482.5
2000-09-30,274917.5
2000-08-31,276782.5
2000-07-31,290759.0
2000-06-30,281496.0
2000-05-31,267580.0
2000-04-30,266750.0
2000-03-31,279035.0
2000-02-29,280765.0
2000-01-31,276200.0
1999-12-31,271350.0
1999-11-30,266250.0
1999-10-31,277500.0
1999-09-30,278725.0
1999-08-31,277025.0
1999-07-31,274850.0
1999-06-30,278275.0
1999-05-31,272325.0
1999-04-30,263725.0
1999-03-31,249317.5
1999-02-28,258157.5
1999-01-31,265400.0
1998-12-31,261825.0
1998-11-30,262825.0
1998-10-31,259675.0
1998-09-30,254810.0
1998-08-31,254865.0
1998-07-31,252742.5
1998-06-30,248857.5
1998-05-31,240175.0
1998-04-30,239325.0
1998-03-31,231100.0
1998-02-28,236542.5
1998-01-31,230987.5
1997-12-31,227120.0
1997-11-30,234425.0
1997-10-31,245067.5
1997-09-30,240307.5
1997-08-31,230600.0
1997-07-31,223100.0
1997-06-30,213330.05
1997-05-31,214603.45
1997-04-30,223383.5
1997-03-31,221425.0
1997-02-28,218123.5
1997-01-31,216421.5
1996-12-31,212920.0
1996-11-30,209540.9
1996-10-31,216824.6
1996-09-30,225040.5
1996-08-31,224575.0
1996-07-31,229775.0
1996-06-30,226950.0
1996-05-31,224650.0
1996-04-30,219173.5
