Date,Value
2015-08-31,148800.0
2015-07-31,140300.0
2015-06-30,149900.0
2015-05-31,153100.0
2015-04-30,155000.0
2015-03-31,156900.0
2015-02-28,162600.0
2015-01-31,160300.0
2014-12-31,155100.0
2014-11-30,149100.0
2014-10-31,144500.0
2014-09-30,141600.0
2014-08-31,139900.0
2014-07-31,138400.0
2014-06-30,136700.0
2014-05-31,135500.0
2014-04-30,136100.0
2014-03-31,138700.0
2014-02-28,139200.0
2014-01-31,134800.0
2013-12-31,131200.0
2013-11-30,132200.0
2013-10-31,134200.0
2013-09-30,134600.0
2013-08-31,134600.0
2013-07-31,135000.0
2013-06-30,135100.0
2013-05-31,134400.0
2013-04-30,133300.0
2013-03-31,132200.0
2013-02-28,130800.0
2013-01-31,129800.0
2012-12-31,129500.0
2012-11-30,129300.0
2012-10-31,128000.0
2012-09-30,125000.0
2012-08-31,121800.0
2012-07-31,121000.0
2012-06-30,121800.0
2012-05-31,122600.0
2012-04-30,123300.0
2012-03-31,123900.0
2012-02-29,123900.0
2012-01-31,123800.0
2011-12-31,124000.0
2011-11-30,124400.0
2011-10-31,124500.0
2011-09-30,124800.0
2011-08-31,125400.0
2011-07-31,126100.0
2011-06-30,126500.0
2011-05-31,126500.0
2011-04-30,126700.0
2011-03-31,126600.0
2011-02-28,125500.0
2011-01-31,124400.0
2010-12-31,123700.0
2010-11-30,123100.0
2010-10-31,122700.0
2010-09-30,123100.0
2010-08-31,123600.0
2010-07-31,123300.0
2010-06-30,122300.0
2010-05-31,121500.0
2010-04-30,120800.0
2010-03-31,120000.0
2010-02-28,118900.0
2010-01-31,118500.0
2009-12-31,118000.0
2009-11-30,117300.0
2009-10-31,117000.0
2009-09-30,117600.0
2009-08-31,118000.0
2009-07-31,117300.0
2009-06-30,115800.0
2009-05-31,114000.0
2009-04-30,112000.0
2009-03-31,109700.0
2009-02-28,108800.0
2009-01-31,109200.0
2008-12-31,109500.0
2008-11-30,109100.0
2008-10-31,108900.0
2008-09-30,108900.0
2008-08-31,109100.0
2008-07-31,109300.0
2008-06-30,110000.0
2008-05-31,111400.0
2008-04-30,113200.0
2008-03-31,114700.0
2008-02-29,116100.0
2008-01-31,117200.0
2007-12-31,118100.0
2007-11-30,118900.0
2007-10-31,119200.0
2007-09-30,119000.0
2007-08-31,118500.0
2007-07-31,117800.0
2007-06-30,117300.0
2007-05-31,116100.0
2007-04-30,114300.0
2007-03-31,112700.0
2007-02-28,111600.0
2007-01-31,110800.0
2006-12-31,110400.0
2006-11-30,109700.0
2006-10-31,109100.0
2006-09-30,108400.0
2006-08-31,107400.0
2006-07-31,106300.0
2006-06-30,105600.0
2006-05-31,105200.0
2006-04-30,105400.0
2006-03-31,105500.0
2006-02-28,104600.0
2006-01-31,103400.0
2005-12-31,103000.0
2005-11-30,103500.0
2005-10-31,103000.0
2005-09-30,101800.0
2005-08-31,101200.0
2005-07-31,101900.0
2005-06-30,103000.0
2005-05-31,103500.0
2005-04-30,102600.0
2005-03-31,101800.0
2005-02-28,101900.0
2005-01-31,101800.0
2004-12-31,100500.0
2004-11-30,99200.0
2004-10-31,98700.0
2004-09-30,99000.0
2004-08-31,98900.0
2004-07-31,97700.0
2004-06-30,95700.0
2004-05-31,94200.0
2004-04-30,94300.0
2004-03-31,95000.0
2004-02-29,95200.0
2004-01-31,95200.0
2003-12-31,95900.0
2003-11-30,96600.0
2003-10-31,96700.0
2003-09-30,96600.0
2003-08-31,97000.0
2003-07-31,97600.0
2003-06-30,98500.0
2003-05-31,98800.0
2003-04-30,98100.0
2003-03-31,97200.0
2003-02-28,96600.0
2003-01-31,95300.0
2002-12-31,94000.0
2002-11-30,93300.0
2002-10-31,93200.0
2002-09-30,92700.0
2002-08-31,91600.0
2002-07-31,91100.0
2002-06-30,90900.0
2002-05-31,91200.0
2002-04-30,91300.0
2002-03-31,90900.0
2002-02-28,90500.0
2002-01-31,91100.0
2001-12-31,91100.0
2001-11-30,89800.0
2001-10-31,88500.0
2001-09-30,87700.0
2001-08-31,86800.0
2001-07-31,86100.0
2001-06-30,85200.0
2001-05-31,84100.0
2001-04-30,83600.0
2001-03-31,83600.0
2001-02-28,83800.0
2001-01-31,83500.0
2000-12-31,83500.0
2000-11-30,84300.0
2000-10-31,85200.0
2000-09-30,85700.0
2000-08-31,86100.0
2000-07-31,86500.0
2000-06-30,86400.0
2000-05-31,86600.0
2000-04-30,87800.0
2000-03-31,88700.0
2000-02-29,88400.0
2000-01-31,88000.0
1999-12-31,87600.0
1999-11-30,87100.0
1999-10-31,86400.0
1999-09-30,86000.0
1999-08-31,85800.0
1999-07-31,85500.0
1999-06-30,84900.0
1999-05-31,84200.0
1999-04-30,83400.0
1999-03-31,82700.0
1999-02-28,82100.0
1999-01-31,81800.0
1998-12-31,81500.0
1998-11-30,80900.0
1998-10-31,80500.0
1998-09-30,80300.0
1998-08-31,80600.0
1998-07-31,80500.0
1998-06-30,80600.0
1998-05-31,80700.0
1998-04-30,80500.0
1998-03-31,79800.0
1998-02-28,79400.0
1998-01-31,79600.0
1997-12-31,80200.0
1997-11-30,80500.0
1997-10-31,80500.0
1997-09-30,80900.0
1997-08-31,80800.0
1997-07-31,80200.0
1997-06-30,80000.0
1997-05-31,80100.0
1997-04-30,80800.0
1997-03-31,81400.0
1997-02-28,81300.0
1997-01-31,80800.0
1996-12-31,80500.0
1996-11-30,80300.0
1996-10-31,80400.0
1996-09-30,80600.0
1996-08-31,80900.0
1996-07-31,81000.0
1996-06-30,81200.0
1996-05-31,81200.0
1996-04-30,80200.0
