Date,Value
2015-02-28,289000.0
2015-01-31,289950.0
2014-12-31,299900.0
2014-11-30,293950.0
2014-10-31,289950.0
2014-09-30,300000.0
2014-08-31,294000.0
2014-07-31,299950.0
2014-06-30,294950.0
2014-05-31,285000.0
2014-04-30,274900.0
2014-03-31,307000.0
2014-02-28,299950.0
2014-01-31,257300.0
2013-12-31,259000.0
2013-11-30,279999.0
2013-10-31,319000.0
2013-09-30,310000.0
2013-08-31,307000.0
2013-07-31,285000.0
2013-06-30,259950.0
2013-05-31,259950.0
2013-04-30,259950.0
2013-03-31,257000.0
2013-02-28,246500.0
2013-01-31,235000.0
2012-12-31,238950.0
2012-11-30,249950.0
2012-10-31,249000.0
2012-09-30,239950.0
2012-08-31,239950.0
2012-07-31,249950.0
2012-06-30,240000.0
2012-05-31,220000.0
2012-04-30,219000.0
2012-03-31,214900.0
2012-02-29,217000.0
2012-01-31,214900.0
2011-12-31,217450.0
2011-11-30,219000.0
2011-10-31,229950.0
2011-09-30,237000.0
2011-08-31,245000.0
2011-07-31,239000.0
2011-06-30,239000.0
2011-05-31,234950.0
2011-04-30,229900.0
2011-03-31,249000.0
2011-02-28,249000.0
2011-01-31,249000.0
2010-12-31,249950.0
2010-11-30,249950.0
2010-10-31,255000.0
2010-09-30,262950.0
2010-08-31,269950.0
2010-07-31,269950.0
2010-06-30,277500.0
2010-05-31,277500.0
2010-04-30,279950.0
2010-03-31,280000.0
2010-02-28,274950.0
2010-01-31,289000.0
2009-12-31,289950.0
2009-11-30,299950.0
2009-10-31,315000.0
2009-09-30,310000.0
2009-08-31,318400.0
2009-07-31,299950.0
2009-06-30,299950.0
2009-05-31,324500.0
2009-04-30,320000.0
2009-03-31,324500.0
2009-02-28,349500.0
2009-01-31,349500.0
2008-12-31,327900.0
2008-11-30,349950.0
2008-10-31,379950.0
