Date,Value
2015-09-30,0.968
2015-08-31,0.958
2015-07-31,0.95
2015-06-30,0.956
2015-05-31,0.954
2015-04-30,0.956
2015-03-31,0.952
2015-02-28,0.948
2015-01-31,0.944
2014-12-31,0.944
2014-11-30,0.944
2014-10-31,0.942
2014-09-30,0.938
2014-08-31,0.93
2014-07-31,0.918
2014-06-30,0.92
2014-05-31,0.914
2014-04-30,0.914
2014-03-31,0.916
2014-02-28,0.914
2014-01-31,0.912
2013-12-31,0.914
2013-11-30,0.914
2013-10-31,0.906
2013-09-30,0.898
2013-08-31,0.888
2013-07-31,0.88
2013-06-30,0.886
2013-05-31,0.892
2013-04-30,0.9
2013-03-31,0.91
2013-02-28,0.906
2013-01-31,0.904
2012-12-31,0.898
2012-11-30,0.898
2012-10-31,0.896
2012-09-30,0.898
2012-08-31,0.894
2012-07-31,0.89
2012-06-30,0.902
2012-05-31,0.894
2012-04-30,0.878
2012-03-31,0.864
2012-02-29,0.864
2012-01-31,0.862
2011-12-31,0.858
2011-11-30,0.85
2011-10-31,0.854
2011-09-30,0.856
2011-08-31,0.868
2011-07-31,0.886
2011-06-30,0.758
2011-05-31,0.752
2011-04-30,0.744
2011-03-31,0.728
2011-02-28,0.724
2011-01-31,0.718
2010-12-31,0.726
2010-11-30,0.738
