Date,Value
2015-02-28,186500.0
2015-01-31,209000.0
2014-12-31,209000.0
2014-11-30,209000.0
2014-10-31,220500.0
2014-09-30,204900.0
2014-08-31,209900.0
2014-07-31,224900.0
2014-06-30,224900.0
2014-05-31,214500.0
2014-04-30,210000.0
2014-03-31,210000.0
2014-02-28,209000.0
2014-01-31,209000.0
2013-12-31,199000.0
2013-11-30,199950.0
2013-10-31,209000.0
2013-09-30,209900.0
2013-08-31,222900.0
2013-07-31,244950.0
2013-06-30,239950.0
2013-05-31,240000.0
2013-04-30,229950.0
2013-03-31,222750.0
2013-02-28,224950.0
2013-01-31,220950.0
2012-12-31,208550.0
2012-11-30,209950.0
2012-10-31,199950.0
2012-09-30,199950.0
2012-08-31,199950.0
2012-07-31,184995.0
2012-06-30,204950.0
2012-05-31,189995.0
2012-04-30,185000.0
2012-03-31,179900.0
2012-02-29,165000.0
2012-01-31,164900.0
2011-12-31,159900.0
2011-11-30,162500.0
2011-10-31,162900.0
2011-09-30,164900.0
2011-08-31,160000.0
2011-07-31,162500.0
2011-06-30,159900.0
2011-05-31,162500.0
2011-04-30,154500.0
2011-03-31,164900.0
2011-02-28,169900.0
2011-01-31,170000.0
2010-12-31,179000.0
2010-11-30,185000.0
2010-10-31,185000.0
2010-09-30,189000.0
2010-08-31,189999.0
2010-07-31,190000.0
2010-06-30,209950.0
2010-05-31,199990.0
2010-04-30,196000.0
2010-03-31,195000.0
2010-02-28,194950.0
2010-01-31,225000.0
2009-12-31,219500.0
2009-11-30,231500.0
2009-10-31,219950.0
2009-09-30,199950.0
2009-08-31,219000.0
2009-07-31,203175.0
2009-06-30,199900.0
2009-05-31,199900.0
2009-04-30,214950.0
2009-03-31,229950.0
2009-02-28,230000.0
2009-01-31,239950.0
2008-12-31,249950.0
2008-11-30,249950.0
2008-10-31,249950.0
