Date,Value
2015-09-30,140500.0
2015-08-31,136500.0
2015-07-31,134000.0
2015-06-30,133500.0
2015-05-31,137100.0
2015-04-30,136000.0
2015-03-31,128500.0
2015-02-28,122800.0
2015-01-31,116800.0
2014-12-31,114600.0
2014-11-30,113600.0
2014-10-31,113000.0
2014-09-30,110700.0
2014-08-31,107800.0
2014-07-31,106100.0
2014-06-30,104500.0
2014-05-31,105200.0
2014-04-30,108800.0
2014-03-31,112300.0
2014-02-28,111500.0
2014-01-31,109300.0
2013-12-31,108300.0
2013-11-30,108200.0
2013-10-31,108100.0
2013-09-30,107200.0
2013-08-31,104700.0
2013-07-31,103000.0
2013-06-30,103400.0
2013-05-31,102100.0
2013-04-30,97300.0
2013-03-31,94500.0
2013-02-28,95100.0
2013-01-31,96200.0
2012-12-31,97200.0
2012-11-30,97900.0
2012-10-31,99300.0
2012-09-30,102700.0
2012-08-31,106000.0
2012-07-31,106000.0
2012-06-30,105000.0
2012-05-31,104400.0
2012-04-30,104000.0
2012-03-31,103400.0
2012-02-29,103200.0
2012-01-31,104700.0
2011-12-31,106300.0
2011-11-30,107500.0
2011-10-31,108700.0
2011-09-30,109900.0
2011-08-31,111600.0
2011-07-31,114700.0
2011-06-30,117800.0
2011-05-31,118800.0
2011-04-30,118600.0
2011-03-31,119700.0
2011-02-28,122600.0
2011-01-31,125400.0
2010-12-31,127300.0
2010-11-30,128000.0
2010-10-31,127700.0
2010-09-30,127600.0
2010-08-31,128700.0
2010-07-31,130400.0
2010-06-30,132300.0
2010-05-31,133900.0
2010-04-30,135100.0
2010-03-31,136200.0
2010-02-28,136900.0
2010-01-31,137500.0
2009-12-31,138900.0
2009-11-30,140500.0
2009-10-31,141600.0
2009-09-30,142700.0
2009-08-31,144200.0
2009-07-31,145400.0
2009-06-30,146700.0
2009-05-31,150100.0
2009-04-30,155100.0
2009-03-31,159200.0
2009-02-28,162000.0
2009-01-31,164300.0
2008-12-31,166000.0
2008-11-30,167700.0
2008-10-31,169700.0
2008-09-30,171900.0
2008-08-31,174700.0
2008-07-31,177000.0
2008-06-30,177900.0
2008-05-31,179000.0
2008-04-30,180800.0
2008-03-31,181600.0
2008-02-29,182000.0
2008-01-31,182800.0
2007-12-31,183600.0
2007-11-30,184100.0
2007-10-31,184500.0
2007-09-30,185000.0
2007-08-31,185000.0
2007-07-31,184000.0
2007-06-30,182100.0
2007-05-31,180700.0
2007-04-30,179800.0
2007-03-31,179700.0
2007-02-28,179700.0
2007-01-31,178400.0
2006-12-31,175800.0
2006-11-30,173500.0
2006-10-31,170800.0
2006-09-30,167100.0
2006-08-31,163200.0
2006-07-31,160900.0
2006-06-30,159900.0
2006-05-31,158400.0
2006-04-30,156000.0
2006-03-31,153000.0
2006-02-28,149900.0
2006-01-31,147400.0
2005-12-31,145900.0
2005-11-30,145800.0
2005-10-31,146200.0
2005-09-30,146200.0
2005-08-31,144900.0
2005-07-31,143600.0
2005-06-30,142000.0
2005-05-31,139000.0
2005-04-30,135900.0
2005-03-31,134100.0
2005-02-28,132000.0
2005-01-31,129800.0
2004-12-31,128500.0
2004-11-30,127400.0
2004-10-31,126200.0
2004-09-30,125600.0
2004-08-31,125300.0
2004-07-31,124500.0
2004-06-30,123200.0
2004-05-31,122000.0
2004-04-30,121200.0
2004-03-31,120600.0
2004-02-29,120700.0
2004-01-31,121000.0
2003-12-31,120600.0
2003-11-30,119700.0
2003-10-31,118900.0
2003-09-30,118100.0
2003-08-31,117200.0
2003-07-31,116300.0
2003-06-30,115700.0
2003-05-31,115800.0
2003-04-30,115700.0
2003-03-31,114900.0
2003-02-28,114200.0
2003-01-31,114200.0
2002-12-31,114200.0
2002-11-30,113700.0
2002-10-31,112800.0
2002-09-30,112000.0
2002-08-31,111300.0
2002-07-31,110400.0
2002-06-30,109600.0
2002-05-31,109400.0
2002-04-30,108900.0
2002-03-31,107600.0
2002-02-28,106900.0
2002-01-31,107100.0
2001-12-31,107200.0
2001-11-30,106700.0
2001-10-31,106200.0
2001-09-30,106100.0
2001-08-31,105700.0
2001-07-31,105300.0
2001-06-30,105700.0
2001-05-31,106800.0
2001-04-30,108200.0
2001-03-31,109100.0
2001-02-28,108400.0
2001-01-31,106700.0
2000-12-31,105500.0
2000-11-30,104500.0
2000-10-31,103000.0
2000-09-30,102200.0
2000-08-31,102900.0
2000-07-31,103800.0
2000-06-30,103700.0
2000-05-31,102800.0
2000-04-30,101500.0
2000-03-31,100000.0
2000-02-29,98100.0
2000-01-31,95000.0
1999-12-31,91900.0
1999-11-30,90300.0
1999-10-31,89900.0
1999-09-30,89400.0
1999-08-31,88800.0
1999-07-31,88700.0
1999-06-30,89100.0
1999-05-31,88900.0
1999-04-30,88300.0
1999-03-31,88200.0
1999-02-28,88600.0
1999-01-31,89500.0
1998-12-31,90200.0
1998-11-30,90500.0
1998-10-31,90600.0
1998-09-30,90000.0
1998-08-31,88300.0
1998-07-31,86400.0
1998-06-30,85000.0
1998-05-31,84500.0
1998-04-30,84000.0
1998-03-31,83400.0
1998-02-28,82800.0
1998-01-31,82600.0
1997-12-31,82300.0
1997-11-30,82000.0
1997-10-31,81600.0
1997-09-30,81200.0
1997-08-31,80900.0
1997-07-31,80500.0
1997-06-30,79700.0
1997-05-31,79400.0
1997-04-30,79700.0
1997-03-31,80200.0
1997-02-28,80300.0
1997-01-31,80700.0
1996-12-31,80900.0
1996-11-30,80600.0
1996-10-31,80200.0
1996-09-30,79700.0
1996-08-31,79400.0
1996-07-31,79300.0
1996-06-30,78600.0
1996-05-31,77300.0
1996-04-30,76500.0
