Date,Value
2015-02-28,424500.0
2015-01-31,419000.0
2014-12-31,395775.0
2014-11-30,393950.0
2014-10-31,389950.0
2014-09-30,394900.0
2014-08-31,379990.0
2014-07-31,379990.0
2014-06-30,369999.0
2014-05-31,350000.0
2014-04-30,369950.0
2014-03-31,374500.0
2014-02-28,364950.0
2014-01-31,373000.0
2013-12-31,423910.0
2013-11-30,375000.0
2013-10-31,384950.0
2013-09-30,385000.0
2013-08-31,350000.0
2013-07-31,349950.0
2013-06-30,330000.0
2013-05-31,325000.0
2013-04-30,304950.0
2013-03-31,304950.0
2013-02-28,320000.0
2013-01-31,309966.0
2012-12-31,309950.0
2012-11-30,300000.0
2012-10-31,299000.0
2012-09-30,289950.0
2012-08-31,289990.0
2012-07-31,289000.0
2012-06-30,274950.0
2012-05-31,272990.0
2012-04-30,269000.0
2012-03-31,259950.0
2012-02-29,259000.0
2012-01-31,262000.0
2011-12-31,260000.0
2011-11-30,252500.0
2011-10-31,254000.0
2011-09-30,257000.0
2011-08-31,264990.0
2011-07-31,259000.0
2011-06-30,259950.0
2011-05-31,261990.0
2011-04-30,260000.0
2011-03-31,269950.0
2011-02-28,274900.0
2011-01-31,279900.0
2010-12-31,275000.0
2010-11-30,275000.0
2010-10-31,284900.0
2010-09-30,289500.0
2010-08-31,295000.0
2010-07-31,299500.0
2010-06-30,299950.0
2010-05-31,299950.0
2010-04-30,300000.0
2010-03-31,299990.0
2010-02-28,301950.0
2010-01-31,314950.0
2009-12-31,324950.0
2009-11-30,325000.0
2009-10-31,325000.0
2009-09-30,327000.0
2009-08-31,324950.0
2009-07-31,324950.0
2009-06-30,329000.0
2009-05-31,340000.0
2009-04-30,349950.0
2009-03-31,349950.0
2009-02-28,350000.0
2009-01-31,359990.0
2008-12-31,362400.0
2008-11-30,374950.0
2008-10-31,375000.0
