Date,Value
2015-06-30,794.0
2015-05-31,680.0
2015-04-30,695.0
2015-03-31,795.0
2015-02-28,600.0
2015-01-31,695.0
2014-12-31,895.0
2014-11-30,930.0
2014-10-31,950.0
2014-09-30,825.0
2014-08-31,950.0
2014-07-31,860.0
2014-06-30,850.0
2014-05-31,850.0
2014-04-30,750.0
2014-03-31,800.0
2014-02-28,900.0
2014-01-31,800.0
2013-12-31,665.0
2013-11-30,700.0
2013-10-31,750.0
2013-09-30,758.0
2013-08-31,800.0
2013-07-31,800.0
2013-06-30,1000.0
2013-05-31,850.0
2013-04-30,850.0
2013-03-31,790.0
2013-02-28,780.0
2013-01-31,900.0
2012-12-31,914.0
2012-11-30,914.0
2012-10-31,920.0
2012-09-30,920.0
2012-08-31,950.0
2012-07-31,900.0
2012-06-30,848.0
2012-05-31,950.0
2012-04-30,850.0
2012-03-31,875.0
2012-02-29,945.0
2012-01-31,945.0
2011-12-31,945.0
2011-11-30,900.0
2011-10-31,669.0
2011-09-30,635.0
2011-08-31,690.0
2011-07-31,780.0
2011-06-30,925.0
2011-05-31,925.0
2011-04-30,925.0
2011-03-31,975.0
2011-02-28,870.0
2011-01-31,800.0
2010-12-31,695.0
2010-11-30,1000.0
2010-04-30,995.0
2010-03-31,950.0
