Date,Value
2015-02-28,359900.0
2015-01-31,370000.0
2014-12-31,405000.0
2014-11-30,419000.0
2014-10-31,405000.0
2014-09-30,445000.0
2013-12-31,389000.0
2013-11-30,359000.0
2013-10-31,359000.0
2013-09-30,378000.0
2013-08-31,378000.0
2013-07-31,395000.0
2013-06-30,378000.0
2013-05-31,378000.0
2013-04-30,378000.0
2013-03-31,369900.0
2012-12-31,370000.0
2012-11-30,369900.0
2012-10-31,370000.0
2012-09-30,379900.0
2012-08-31,389500.0
2012-07-31,395000.0
2012-06-30,405000.0
2012-05-31,500000.0
2012-04-30,500000.0
2012-03-31,449000.0
2012-01-31,395000.0
2011-12-31,395000.0
2011-10-31,489000.0
2011-09-30,450000.0
2011-08-31,450000.0
2011-07-31,489000.0
2011-05-31,399000.0
2011-04-30,399000.0
2011-03-31,399000.0
2011-02-28,399000.0
2011-01-31,449000.0
2010-12-31,450000.0
2010-11-30,575000.0
2010-10-31,450000.0
2010-09-30,450000.0
2010-08-31,399999.0
2010-07-31,575000.0
2010-06-30,399999.0
2010-05-31,375000.0
2010-04-30,399999.0
2009-10-31,429000.0
