Date,Value
2015-06-30,1585.0
2015-05-31,1595.0
2015-04-30,1425.0
2015-03-31,1395.0
2015-02-28,1395.0
2014-12-31,1295.0
2014-11-30,1195.0
2014-10-31,1355.0
2014-09-30,1450.0
2014-08-31,1495.0
2014-07-31,1395.0
2014-06-30,1395.0
2014-05-31,1195.0
2014-04-30,1265.0
2014-03-31,1195.0
2014-02-28,1225.0
2014-01-31,1195.0
2013-12-31,1195.0
2013-11-30,1195.0
2013-10-31,1250.0
2013-09-30,1180.0
2013-08-31,1190.0
2013-07-31,1295.0
2013-06-30,1250.0
2013-05-31,1175.0
2013-04-30,1195.0
2013-03-31,1295.0
2013-02-28,980.0
2013-01-31,1095.0
2012-12-31,1195.0
2012-11-30,900.0
2012-10-31,1095.0
2012-09-30,1095.0
2012-08-31,1195.0
2012-07-31,1225.0
2012-06-30,1225.0
2012-05-31,1290.0
2012-04-30,1250.0
2012-03-31,1195.0
2012-02-29,900.0
2011-11-30,1250.0
2011-10-31,1195.0
2011-09-30,1195.0
2011-05-31,985.0
2011-03-31,1000.0
2010-12-31,950.0
2010-11-30,1000.0
2010-10-31,950.0
2010-09-30,900.0
2010-08-31,875.0
2010-07-31,900.0
