Date,Value
2015-02-28,315000.0
2015-01-31,315000.0
2014-12-31,319000.0
2014-11-30,349900.0
2014-10-31,379000.0
2014-09-30,350000.0
2014-08-31,350000.0
2014-07-31,379000.0
2014-06-30,345000.0
2014-05-31,339000.0
2014-04-30,389000.0
2014-03-31,345000.0
2014-02-28,345000.0
2014-01-31,389000.0
2013-12-31,389000.0
2013-11-30,325000.0
2013-10-31,339000.0
2013-09-30,339000.0
2013-08-31,345000.0
2013-07-31,349000.0
2013-06-30,379000.0
2013-05-31,399000.0
2013-04-30,357900.0
2013-03-31,375000.0
2013-02-28,319000.0
2013-01-31,288500.0
2012-12-31,299000.0
2012-11-30,299000.0
2012-10-31,265000.0
2012-09-30,315000.0
2012-08-31,339500.0
2012-07-31,329000.0
2012-06-30,329000.0
2012-05-31,325000.0
2012-04-30,329000.0
2012-03-31,358000.0
2012-02-29,365000.0
2012-01-31,419000.0
2011-12-31,399000.0
2011-11-30,380000.0
2011-10-31,375000.0
2011-09-30,340000.0
2011-08-31,359500.0
2011-07-31,349000.0
2011-06-30,360000.0
2011-05-31,385000.0
2011-04-30,385000.0
2011-03-31,385000.0
2011-02-28,385000.0
2011-01-31,369000.0
2010-12-31,375000.0
2010-11-30,365000.0
2010-10-31,359900.0
2010-09-30,359900.0
2010-08-31,369500.0
2010-07-31,350000.0
2010-06-30,364900.0
2010-05-31,349000.0
2010-04-30,349000.0
2010-03-31,324900.0
2010-02-28,324900.0
2010-01-31,325000.0
2009-12-31,299700.0
2009-11-30,299000.0
2009-10-31,339000.0
2009-09-30,349000.0
2009-08-31,339000.0
2009-07-31,299490.0
2009-06-30,299490.0
2009-05-31,325000.0
2009-04-30,289000.0
2009-03-31,299490.0
2009-02-28,249000.0
2009-01-31,258000.0
2008-12-31,350000.0
2008-11-30,409000.0
2008-10-31,379200.0
