Date,Value
2015-09-30,0.842
2015-08-31,0.842
2015-07-31,0.834
2015-06-30,0.828
2015-05-31,0.828
2015-04-30,0.83
2015-03-31,0.834
2015-02-28,0.836
2015-01-31,0.836
2014-12-31,0.838
2014-11-30,0.838
2014-10-31,0.838
2014-09-30,0.838
2014-08-31,0.84
2014-07-31,0.836
2014-06-30,0.832
2014-05-31,0.83
2014-04-30,0.832
2014-03-31,0.838
2014-02-28,0.844
2014-01-31,0.844
2013-12-31,0.842
2013-11-30,0.838
2013-10-31,0.834
2013-09-30,0.834
2013-08-31,0.834
2013-07-31,0.828
2013-06-30,0.824
2013-05-31,0.824
2013-04-30,0.824
2013-03-31,0.826
2013-02-28,0.828
2013-01-31,0.83
2012-12-31,0.832
2012-11-30,0.832
2012-10-31,0.826
2012-09-30,0.826
2012-08-31,0.824
2012-07-31,0.824
2012-06-30,0.822
2012-05-31,0.82
2012-04-30,0.818
2012-03-31,0.818
2012-02-29,0.822
2012-01-31,0.822
2011-12-31,0.824
2011-11-30,0.824
2011-10-31,0.818
2011-09-30,0.814
2011-08-31,0.812
2011-07-31,0.816
2011-06-30,0.82
2011-05-31,0.822
2011-04-30,0.818
2011-03-31,0.806
2011-02-28,0.788
2011-01-31,0.778
2010-12-31,0.77
2010-11-30,0.766
