Date,Value
2015-08-31,307600.0
2015-07-31,304500.0
2015-06-30,306300.0
2015-05-31,302100.0
2015-04-30,299900.0
2015-03-31,301400.0
2015-02-28,302000.0
2015-01-31,300700.0
2014-12-31,298800.0
2014-11-30,295500.0
2014-10-31,292300.0
2014-09-30,290100.0
2014-08-31,288800.0
2014-07-31,287300.0
2014-06-30,284500.0
2014-05-31,282200.0
2014-04-30,282000.0
2014-03-31,280700.0
2014-02-28,278300.0
2014-01-31,277700.0
2013-12-31,277300.0
2013-11-30,276600.0
2013-10-31,276700.0
2013-09-30,275900.0
2013-08-31,270900.0
2013-07-31,263500.0
2013-06-30,256500.0
2013-05-31,250200.0
2013-04-30,245600.0
2013-03-31,243800.0
2013-02-28,243800.0
2013-01-31,242200.0
2012-12-31,239600.0
2012-11-30,237500.0
2012-10-31,235300.0
2012-09-30,232900.0
2012-08-31,231400.0
2012-07-31,229700.0
2012-06-30,229400.0
2012-05-31,230500.0
2012-04-30,229100.0
2012-03-31,224500.0
2012-02-29,219000.0
2012-01-31,213600.0
2011-12-31,211300.0
2011-11-30,212100.0
2011-10-31,213400.0
2011-09-30,215200.0
2011-08-31,217300.0
2011-07-31,219900.0
2011-06-30,223400.0
2011-05-31,227000.0
2011-04-30,230100.0
2011-03-31,233800.0
2011-02-28,237600.0
2011-01-31,239700.0
2010-12-31,241800.0
2010-11-30,245400.0
2010-10-31,248600.0
2010-09-30,249400.0
2010-08-31,250400.0
2010-07-31,252000.0
2010-06-30,253900.0
2010-05-31,256500.0
2010-04-30,259600.0
2010-03-31,261300.0
2010-02-28,261500.0
2010-01-31,261300.0
2009-12-31,261200.0
2009-11-30,261300.0
2009-10-31,261700.0
2009-09-30,263700.0
2009-08-31,268100.0
2009-07-31,272300.0
2009-06-30,273900.0
2009-05-31,274900.0
2009-04-30,278100.0
2009-03-31,282400.0
2009-02-28,285900.0
2009-01-31,290200.0
2008-12-31,295500.0
2008-11-30,299100.0
2008-10-31,301400.0
2008-09-30,304500.0
2008-08-31,308200.0
2008-07-31,314400.0
2008-06-30,321000.0
2008-05-31,324800.0
2008-04-30,327100.0
2008-03-31,330600.0
2008-02-29,335200.0
2008-01-31,339600.0
2007-12-31,342100.0
2007-11-30,343700.0
2007-10-31,345500.0
2007-09-30,347100.0
2007-08-31,347000.0
2007-07-31,345700.0
2007-06-30,344300.0
2007-05-31,342800.0
2007-04-30,340900.0
2007-03-31,338900.0
2007-02-28,336800.0
2007-01-31,334400.0
2006-12-31,332300.0
2006-11-30,330000.0
2006-10-31,327200.0
2006-09-30,323900.0
2006-08-31,320300.0
2006-07-31,316600.0
2006-06-30,311900.0
2006-05-31,306800.0
2006-04-30,302500.0
2006-03-31,299500.0
2006-02-28,296700.0
2006-01-31,294100.0
2005-12-31,290900.0
2005-11-30,287100.0
2005-10-31,283400.0
2005-09-30,279300.0
2005-08-31,274800.0
2005-07-31,269800.0
2005-06-30,265100.0
2005-05-31,261600.0
2005-04-30,257900.0
2005-03-31,253800.0
2005-02-28,251100.0
2005-01-31,249600.0
2004-12-31,247100.0
2004-11-30,243900.0
2004-10-31,241600.0
2004-09-30,240300.0
2004-08-31,239300.0
2004-07-31,238500.0
2004-06-30,238400.0
2004-05-31,238100.0
2004-04-30,237200.0
2004-03-31,235100.0
2004-02-29,232700.0
2004-01-31,229900.0
2003-12-31,227900.0
2003-11-30,227300.0
2003-10-31,227500.0
2003-09-30,226100.0
2003-08-31,224200.0
2003-07-31,223000.0
2003-06-30,222300.0
2003-05-31,221400.0
2003-04-30,221200.0
2003-03-31,221500.0
2003-02-28,221400.0
2003-01-31,221200.0
2002-12-31,221300.0
2002-11-30,220800.0
2002-10-31,219500.0
2002-09-30,218900.0
2002-08-31,218300.0
2002-07-31,217200.0
2002-06-30,216600.0
2002-05-31,216700.0
2002-04-30,216100.0
2002-03-31,215100.0
2002-02-28,213900.0
2002-01-31,213000.0
2001-12-31,212400.0
2001-11-30,211300.0
2001-10-31,209300.0
2001-09-30,208100.0
2001-08-31,207500.0
2001-07-31,206500.0
2001-06-30,205300.0
2001-05-31,204400.0
2001-04-30,203300.0
2001-03-31,202300.0
2001-02-28,201400.0
2001-01-31,200600.0
2000-12-31,199900.0
2000-11-30,199400.0
2000-10-31,199200.0
2000-09-30,199200.0
2000-08-31,198300.0
2000-07-31,195900.0
2000-06-30,193000.0
2000-05-31,191500.0
2000-04-30,191100.0
2000-03-31,190600.0
2000-02-29,190400.0
2000-01-31,189500.0
1999-12-31,188000.0
1999-11-30,186600.0
1999-10-31,186000.0
1999-09-30,185200.0
1999-08-31,184300.0
1999-07-31,184100.0
1999-06-30,183800.0
1999-05-31,183000.0
1999-04-30,182200.0
1999-03-31,181400.0
1999-02-28,179500.0
1999-01-31,177400.0
1998-12-31,175200.0
1998-11-30,173400.0
1998-10-31,171400.0
1998-09-30,169900.0
1998-08-31,169300.0
1998-07-31,168700.0
1998-06-30,168100.0
1998-05-31,166700.0
1998-04-30,163800.0
1998-03-31,161100.0
1998-02-28,160100.0
1998-01-31,158900.0
1997-12-31,157100.0
1997-11-30,156300.0
1997-10-31,155800.0
1997-09-30,154000.0
1997-08-31,151500.0
1997-07-31,150500.0
1997-06-30,149900.0
1997-05-31,148500.0
1997-04-30,147000.0
1997-03-31,146700.0
1997-02-28,145800.0
1997-01-31,144400.0
1996-12-31,144100.0
1996-11-30,144400.0
1996-10-31,143900.0
1996-09-30,143600.0
1996-08-31,144300.0
1996-07-31,144700.0
1996-06-30,144200.0
1996-05-31,144000.0
1996-04-30,144600.0
