Date,Value
2013-07-31,308000.0
2007-03-31,287600.0
2006-09-30,334225.0
2006-08-31,331207.5
2006-07-31,311975.0
2006-06-30,294750.0
2006-05-31,250588.2353
2006-04-30,230000.0
2005-12-31,309000.0
2005-09-30,243705.8824
2005-08-31,253843.8462
2005-06-30,269990.0
2005-02-28,250000.0
2004-10-31,211450.0
2004-09-30,209352.9412
2004-08-31,229807.6923
2004-06-30,238650.4
2004-05-31,206626.5882
2004-04-30,216236.0
2003-12-31,170230.7692
2003-10-31,195153.8462
2003-08-31,209000.0
2003-05-31,215000.0
2003-02-28,173000.0
2003-01-31,194475.0
2002-12-31,196075.0
2002-11-30,178617.6471
2002-10-31,199500.0
2002-07-31,194460.95
2002-06-30,192458.05
2002-05-31,200291.5
2002-04-30,181941.1765
2002-03-31,180538.4615
2002-01-31,198192.3077
2001-11-30,193650.0
2001-10-31,189117.6471
2001-09-30,180307.6923
2001-07-31,176176.4706
2001-06-30,145000.0
2001-03-31,175192.3077
2001-01-31,162500.0
2000-08-31,155769.2308
2000-06-30,155000.0
2000-01-31,158000.0
1999-10-31,157438.4615
1999-08-31,149975.0
1999-07-31,143676.4706
1999-06-30,157500.0
1999-03-31,148000.0
1998-11-30,164500.0
1998-06-30,144500.0
1998-03-31,115000.0
1996-06-30,128235.2941
1996-05-31,140000.0
