Date,Value
2015-09-30,0.97
2015-08-31,0.988
2015-07-31,0.982
2015-06-30,0.976
2015-05-31,0.964
2015-04-30,0.95
2015-03-31,0.94
2015-02-28,0.936
2015-01-31,0.94
2014-12-31,0.94
2014-11-30,0.94
2014-10-31,0.938
2014-09-30,0.936
2014-08-31,0.936
2014-07-31,0.93
2014-06-30,0.922
2014-05-31,0.916
2014-04-30,0.912
2014-03-31,0.908
2014-02-28,0.904
2014-01-31,0.906
2013-12-31,0.904
2013-11-30,0.906
2013-10-31,0.91
2013-09-30,0.912
2013-08-31,0.914
2013-07-31,0.916
2013-06-30,0.918
2013-05-31,0.922
2013-04-30,0.924
2013-03-31,0.924
2013-02-28,0.926
2013-01-31,0.93
2012-12-31,0.926
2012-11-30,0.922
2012-10-31,0.918
2012-09-30,0.914
2012-08-31,0.914
2012-07-31,0.916
2012-06-30,0.918
2012-05-31,0.922
2012-04-30,0.922
2012-03-31,0.924
2012-02-29,0.926
2012-01-31,0.92
2011-12-31,0.908
2011-11-30,0.902
2011-10-31,0.888
2011-09-30,0.894
2011-08-31,0.898
2011-07-31,0.904
2011-06-30,0.91
2011-05-31,0.92
2011-04-30,0.922
2011-03-31,0.916
2011-02-28,0.904
2011-01-31,0.89
2010-12-31,0.868
2010-11-30,0.846
