Date,Value
2015-09-30,260900.0
2015-08-31,255600.0
2015-07-31,250400.0
2015-06-30,251700.0
2015-05-31,250600.0
2015-04-30,249500.0
2015-03-31,249000.0
2015-02-28,249700.0
2015-01-31,246900.0
2014-12-31,245800.0
2014-11-30,245000.0
2014-10-31,243300.0
2014-09-30,239900.0
2014-08-31,237300.0
2014-07-31,235300.0
2014-06-30,232900.0
2014-05-31,230700.0
2014-04-30,228600.0
2014-03-31,226200.0
2014-02-28,224500.0
2014-01-31,223900.0
2013-12-31,223200.0
2013-11-30,222100.0
2013-10-31,221800.0
2013-09-30,222300.0
2013-08-31,223500.0
2013-07-31,223500.0
2013-06-30,220900.0
2013-05-31,217500.0
2013-04-30,215200.0
2013-03-31,213600.0
2013-02-28,212300.0
2013-01-31,211600.0
2012-12-31,209900.0
2012-11-30,207800.0
2012-10-31,206600.0
2012-09-30,206800.0
2012-08-31,207100.0
2012-07-31,206700.0
2012-06-30,206200.0
2012-05-31,206100.0
2012-04-30,205500.0
2012-03-31,204800.0
2012-02-29,204600.0
2012-01-31,204700.0
2011-12-31,204600.0
2011-11-30,204000.0
2011-10-31,203000.0
2011-09-30,202500.0
2011-08-31,202800.0
2011-07-31,204400.0
2011-06-30,207600.0
2011-05-31,211900.0
2011-04-30,217500.0
2011-03-31,223500.0
2011-02-28,227000.0
2011-01-31,228200.0
2010-12-31,229600.0
2010-11-30,231600.0
2010-10-31,233700.0
2010-09-30,235900.0
2010-08-31,237400.0
2010-07-31,238800.0
2010-06-30,239900.0
2010-05-31,240100.0
2010-04-30,239800.0
2010-03-31,241400.0
2010-02-28,242600.0
2010-01-31,241500.0
2009-12-31,239700.0
2009-11-30,239600.0
2009-10-31,239600.0
2009-09-30,238500.0
2009-08-31,237000.0
2009-07-31,235800.0
2009-06-30,235900.0
2009-05-31,236800.0
2009-04-30,238000.0
2009-03-31,238700.0
2009-02-28,239800.0
2009-01-31,242300.0
2008-12-31,246300.0
2008-11-30,250900.0
2008-10-31,253700.0
2008-09-30,255000.0
2008-08-31,257500.0
2008-07-31,262700.0
2008-06-30,266700.0
2008-05-31,269800.0
2008-04-30,272700.0
2008-03-31,276100.0
2008-02-29,279700.0
2008-01-31,282800.0
2007-12-31,283900.0
2007-11-30,283100.0
2007-10-31,282700.0
2007-09-30,283600.0
2007-08-31,285000.0
2007-07-31,285300.0
2007-06-30,284900.0
2007-05-31,283900.0
2007-04-30,283000.0
2007-03-31,281300.0
2007-02-28,280600.0
2007-01-31,281300.0
2006-12-31,283600.0
2006-11-30,285700.0
2006-10-31,288700.0
2006-09-30,292100.0
2006-08-31,294600.0
2006-07-31,295000.0
2006-06-30,295200.0
2006-05-31,294200.0
2006-04-30,291800.0
2006-03-31,288700.0
2006-02-28,285400.0
2006-01-31,281700.0
2005-12-31,277900.0
2005-11-30,274200.0
2005-10-31,270200.0
2005-09-30,265300.0
2005-08-31,258200.0
2005-07-31,250300.0
2005-06-30,245100.0
2005-05-31,242500.0
2005-04-30,239600.0
2005-03-31,235600.0
2005-02-28,231900.0
2005-01-31,228500.0
2004-12-31,225400.0
2004-11-30,222400.0
2004-10-31,220600.0
2004-09-30,219700.0
2004-08-31,218600.0
2004-07-31,216400.0
2004-06-30,213400.0
2004-05-31,211000.0
2004-04-30,209300.0
2004-03-31,207900.0
2004-02-29,206700.0
2004-01-31,206100.0
2003-12-31,205200.0
2003-11-30,204400.0
2003-10-31,202400.0
2003-09-30,199400.0
2003-08-31,196600.0
2003-07-31,194600.0
2003-06-30,193000.0
2003-05-31,192800.0
2003-04-30,193200.0
2003-03-31,192900.0
2003-02-28,191600.0
2003-01-31,191100.0
2002-12-31,191400.0
2002-11-30,191200.0
2002-10-31,190500.0
2002-09-30,190800.0
2002-08-31,193200.0
2002-07-31,196500.0
2002-06-30,198300.0
2002-05-31,198300.0
2002-04-30,197900.0
2002-03-31,197300.0
2002-02-28,195800.0
2002-01-31,193800.0
2001-12-31,192500.0
2001-11-30,191700.0
2001-10-31,191100.0
2001-09-30,190500.0
2001-08-31,190200.0
2001-07-31,190800.0
2001-06-30,191800.0
2001-05-31,191000.0
2001-04-30,188700.0
2001-03-31,187600.0
2001-02-28,187600.0
2001-01-31,187700.0
2000-12-31,187600.0
2000-11-30,188300.0
2000-10-31,188700.0
2000-09-30,187800.0
2000-08-31,186900.0
2000-07-31,186600.0
2000-06-30,186100.0
2000-05-31,185500.0
2000-04-30,187100.0
2000-03-31,189600.0
2000-02-29,191700.0
2000-01-31,192300.0
1999-12-31,192200.0
1999-11-30,191900.0
1999-10-31,191200.0
1999-09-30,190700.0
1999-08-31,191200.0
1999-07-31,192400.0
1999-06-30,193700.0
1999-05-31,194400.0
1999-04-30,194000.0
1999-03-31,194500.0
1999-02-28,195000.0
1999-01-31,193700.0
1998-12-31,191100.0
1998-11-30,188900.0
1998-10-31,188500.0
1998-09-30,189300.0
1998-08-31,188900.0
1998-07-31,186700.0
1998-06-30,185200.0
1998-05-31,185300.0
1998-04-30,186600.0
1998-03-31,187300.0
1998-02-28,187000.0
1998-01-31,186400.0
1997-12-31,185400.0
1997-11-30,183900.0
1997-10-31,183500.0
1997-09-30,184000.0
1997-08-31,183300.0
1997-07-31,182000.0
1997-06-30,182300.0
1997-05-31,183100.0
1997-04-30,183400.0
1997-03-31,183200.0
1997-02-28,181500.0
1997-01-31,121300.0
1996-12-31,121100.0
1996-11-30,121000.0
1996-10-31,121400.0
1996-09-30,121300.0
1996-08-31,121000.0
1996-07-31,120800.0
1996-06-30,120800.0
1996-05-31,120300.0
1996-04-30,119000.0
