Date,Value
2015-09-30,129400.0
2015-08-31,129400.0
2015-07-31,128400.0
2015-06-30,127700.0
2015-05-31,128000.0
2015-04-30,127900.0
2015-03-31,127400.0
2015-02-28,128100.0
2015-01-31,127800.0
2014-12-31,126500.0
2014-11-30,125100.0
2014-10-31,124500.0
2014-09-30,124600.0
2014-08-31,125100.0
2014-07-31,125400.0
2014-06-30,125300.0
2014-05-31,125100.0
2014-04-30,124300.0
2014-03-31,123000.0
2014-02-28,122100.0
2014-01-31,122100.0
2013-12-31,122300.0
2013-11-30,122400.0
2013-10-31,122300.0
2013-09-30,121800.0
2013-08-31,121200.0
2013-07-31,120900.0
2013-06-30,120900.0
2013-05-31,121200.0
2013-04-30,121700.0
2013-03-31,123300.0
2013-02-28,124400.0
2013-01-31,123800.0
2012-12-31,122100.0
2012-11-30,121400.0
2012-10-31,120900.0
2012-09-30,120400.0
2012-08-31,120000.0
2012-07-31,119700.0
2012-06-30,120000.0
2012-05-31,121100.0
2012-04-30,121900.0
2012-03-31,122500.0
2012-02-29,123200.0
2012-01-31,124100.0
2011-12-31,125000.0
2011-11-30,124700.0
2011-10-31,123500.0
2011-09-30,123100.0
2011-08-31,123400.0
2011-07-31,123700.0
2011-06-30,123800.0
2011-05-31,124300.0
2011-04-30,125600.0
2011-03-31,127100.0
2011-02-28,128400.0
2011-01-31,128800.0
2010-12-31,129000.0
2010-11-30,129800.0
2010-10-31,131000.0
2010-09-30,132100.0
2010-08-31,133100.0
2010-07-31,133700.0
2010-06-30,133700.0
2010-05-31,133000.0
2010-04-30,132300.0
2010-03-31,132500.0
2010-02-28,133200.0
2010-01-31,133600.0
2009-12-31,134100.0
2009-11-30,135300.0
2009-10-31,136300.0
2009-09-30,136500.0
2009-08-31,136700.0
2009-07-31,137300.0
2009-06-30,137300.0
2009-05-31,136500.0
2009-04-30,135000.0
2009-03-31,134500.0
2009-02-28,135200.0
2009-01-31,136700.0
2008-12-31,138000.0
2008-11-30,139000.0
2008-10-31,140300.0
2008-09-30,141700.0
2008-08-31,142700.0
2008-07-31,143400.0
2008-06-30,144700.0
2008-05-31,145600.0
2008-04-30,145800.0
2008-03-31,145200.0
2008-02-29,144400.0
2008-01-31,144000.0
2007-12-31,144600.0
2007-11-30,145500.0
2007-10-31,146400.0
2007-09-30,146100.0
2007-08-31,145100.0
2007-07-31,144700.0
2007-06-30,145500.0
2007-05-31,146600.0
2007-04-30,147400.0
2007-03-31,147200.0
2007-02-28,146000.0
2007-01-31,144200.0
2006-12-31,142400.0
2006-11-30,141000.0
2006-10-31,139900.0
2006-09-30,138900.0
2006-08-31,137900.0
2006-07-31,136800.0
2006-06-30,135200.0
2006-05-31,133000.0
2006-04-30,130800.0
2006-03-31,129700.0
2006-02-28,128600.0
2006-01-31,127600.0
2005-12-31,126600.0
2005-11-30,125000.0
2005-10-31,122700.0
2005-09-30,120800.0
2005-08-31,119100.0
2005-07-31,117500.0
2005-06-30,116300.0
2005-05-31,115000.0
2005-04-30,114000.0
2005-03-31,112200.0
2005-02-28,110200.0
2005-01-31,109300.0
2004-12-31,108700.0
2004-11-30,106800.0
2004-10-31,105100.0
2004-09-30,104300.0
2004-08-31,103700.0
2004-07-31,102500.0
2004-06-30,100600.0
2004-05-31,98900.0
2004-04-30,97800.0
2004-03-31,97700.0
2004-02-29,97800.0
2004-01-31,97400.0
2003-12-31,96900.0
2003-11-30,97000.0
2003-10-31,96700.0
2003-09-30,96400.0
2003-08-31,96800.0
2003-07-31,96800.0
2003-06-30,96200.0
2003-05-31,96200.0
2003-04-30,96900.0
2003-03-31,97200.0
2003-02-28,97500.0
2003-01-31,97200.0
2002-12-31,96200.0
2002-11-30,96100.0
2002-10-31,96400.0
2002-09-30,96300.0
2002-08-31,95300.0
2002-07-31,93800.0
2002-06-30,93400.0
2002-05-31,94700.0
2002-04-30,96000.0
2002-03-31,95700.0
2002-02-28,94800.0
2002-01-31,94600.0
2001-12-31,95500.0
2001-11-30,96400.0
2001-10-31,96600.0
2001-09-30,95800.0
2001-08-31,95600.0
2001-07-31,96600.0
2001-06-30,97200.0
2001-05-31,96200.0
2001-04-30,94400.0
2001-03-31,93200.0
2001-02-28,92100.0
2001-01-31,91100.0
2000-12-31,89700.0
2000-11-30,88600.0
2000-10-31,87900.0
2000-09-30,87300.0
2000-08-31,86900.0
2000-07-31,86900.0
2000-06-30,86700.0
2000-05-31,86500.0
2000-04-30,86400.0
2000-03-31,86700.0
2000-02-29,86900.0
2000-01-31,86800.0
1999-12-31,86200.0
1999-11-30,85500.0
1999-10-31,85200.0
1999-09-30,85900.0
1999-08-31,86900.0
1999-07-31,87100.0
1999-06-30,87000.0
1999-05-31,86900.0
1999-04-30,86600.0
1999-03-31,86300.0
1999-02-28,86300.0
1999-01-31,86300.0
1998-12-31,85800.0
1998-11-30,85300.0
1998-10-31,85000.0
1998-09-30,84400.0
1998-08-31,83000.0
1998-07-31,82300.0
1998-06-30,82300.0
1998-05-31,82200.0
1998-04-30,81600.0
1998-03-31,81900.0
1998-02-28,82200.0
1998-01-31,81700.0
1997-12-31,80800.0
1997-11-30,80200.0
1997-10-31,79600.0
1997-09-30,79300.0
1997-08-31,78900.0
1997-07-31,78300.0
1997-06-30,78200.0
1997-05-31,78100.0
1997-04-30,77900.0
1997-03-31,78300.0
1997-02-28,79100.0
1997-01-31,79400.0
1996-12-31,79900.0
1996-11-30,80700.0
1996-10-31,82000.0
1996-09-30,83000.0
1996-08-31,84000.0
1996-07-31,85000.0
1996-06-30,85800.0
1996-05-31,86200.0
1996-04-30,86800.0
