Date,Value
2015-09-30,0.918
2015-08-31,0.928
2015-07-31,0.93
2015-06-30,0.932
2015-05-31,0.928
2015-04-30,0.92
2015-03-31,0.894
2015-02-28,0.884
2015-01-31,0.88
2014-12-31,0.882
2014-11-30,0.882
2014-10-31,0.882
2014-09-30,0.878
2014-08-31,0.866
2014-07-31,0.848
2014-06-30,0.824
2014-05-31,0.808
2014-04-30,0.802
2014-03-31,0.808
2014-02-28,0.82
2014-01-31,0.836
2013-12-31,0.858
2013-11-30,0.87
2013-10-31,0.868
2013-09-30,0.854
2013-08-31,0.84
2013-07-31,0.826
2013-06-30,0.816
2013-05-31,0.816
2013-04-30,0.822
2013-03-31,0.834
2013-02-28,0.846
2013-01-31,0.86
2012-12-31,0.768
2012-11-30,0.758
2012-10-31,0.754
2012-09-30,0.75
2012-08-31,0.746
2012-07-31,0.74
2012-06-30,0.732
2012-05-31,0.728
2012-04-30,0.728
2012-03-31,0.734
2012-02-29,0.74
2012-01-31,0.74
2011-12-31,0.73
2011-11-30,0.72
2011-10-31,0.718
2011-09-30,0.714
2011-08-31,0.71
2011-07-31,0.702
2011-06-30,0.698
2011-05-31,0.69
2011-04-30,0.686
2011-03-31,0.666
2011-02-28,0.646
2011-01-31,0.638
2010-12-31,0.648
2010-11-30,0.662
