Date,Value
2015-09-30,259959.5
2015-08-31,254961.15
2015-07-31,261020.5
2015-06-30,266207.0
2015-05-31,251592.0
2015-04-30,256450.0
2015-03-31,248050.0
2015-02-28,250700.0
2015-01-31,258357.5
2014-12-31,252475.0
2014-11-30,241960.0
2014-10-31,233990.0
2014-09-30,243442.5
2014-08-31,262432.5
2014-07-31,257625.0
2014-06-30,260400.0
2014-05-31,244300.0
2014-04-30,258450.0
2014-03-31,247242.5
2014-02-28,243957.5
2014-01-31,250100.0
2013-12-31,244100.0
2013-11-30,255292.5
2013-10-31,260540.0
2013-09-30,261185.0
2013-08-31,249857.5
2013-07-31,246867.5
2013-06-30,232732.5
2013-05-31,243225.0
2013-04-30,232350.0
2013-03-31,208650.0
2013-02-28,176500.0
2013-01-31,198020.0
2012-12-31,187030.0
2012-11-30,187700.0
2012-10-31,198050.0
2012-09-30,201000.0
2012-08-31,212600.0
2012-07-31,224392.5
2012-06-30,224997.5
2012-05-31,235552.5
2012-04-30,237850.0
2012-03-31,213224.25
2012-02-29,210198.25
2012-01-31,244297.5
2011-12-31,205700.0
2011-11-30,201925.0
2011-10-31,196625.0
2011-09-30,210290.0
2011-08-31,220502.5
2011-07-31,237782.5
2011-06-30,230852.9412
2011-05-31,230769.2308
2011-03-31,253461.5385
2011-01-31,253925.0
2010-12-31,239250.0
2010-11-30,232250.0
2010-10-31,238750.0
2010-09-30,242750.0
2010-08-31,237992.5
2010-07-31,246032.5
2010-06-30,232275.0
2010-05-31,232400.0
2010-04-30,235250.0
2010-03-31,245750.0
2010-02-28,252175.0
2010-01-31,217925.0
2009-12-31,216325.0
2009-11-30,250550.0
2009-10-31,248692.5
2009-09-30,245475.0
2009-08-31,258807.5
2009-07-31,257375.0
2009-06-30,230650.0
2009-05-31,218850.0
2009-04-30,211470.5882
2009-03-31,209615.3846
2009-01-31,229508.8235
2008-12-31,239169.2308
2008-10-31,255062.5
2008-09-30,260445.0
2008-08-31,262775.0
2008-07-31,244567.5
2008-06-30,251032.5
2008-05-31,256050.0
2008-04-30,245728.9
2008-03-31,233429.1
2008-02-29,218093.0
2008-01-31,226950.0
2007-12-31,237000.0
2007-11-30,256235.0
2007-10-31,286140.0
2007-09-30,286017.5
2007-08-31,299957.5
2007-07-31,298050.0
2007-06-30,274442.5
2007-05-31,274207.5
2007-04-30,263400.0
2007-03-31,273092.5
2007-02-28,269482.5
2007-01-31,270275.0
2006-12-31,253250.0
2006-11-30,256950.0
2006-10-31,260600.0
2006-09-30,256700.0
2006-08-31,262550.0
2006-07-31,258925.0
2006-06-30,253375.0
2006-05-31,248585.0
2006-04-30,247765.0
2006-03-31,247892.5
2006-02-28,239807.5
2006-01-31,241325.0
2005-12-31,237567.5
2005-11-30,246192.5
2005-10-31,237890.0
2005-09-30,231300.0
2005-08-31,237917.5
2005-07-31,242032.5
2005-06-30,221525.0
2005-05-31,226035.0
2005-04-30,233865.0
2005-03-31,224550.0
2005-02-28,201275.0
2005-01-31,200025.0
2004-12-31,205842.5
2004-11-30,196237.5
2004-10-31,197570.0
2004-09-30,204270.0
2004-08-31,201280.0
2004-07-31,210420.0
2004-06-30,204530.0
2004-05-31,193710.0
2004-04-30,185190.0
2004-03-31,180750.0
2004-02-29,184615.0
2004-01-31,192297.5
2003-12-31,182837.5
2003-11-30,186637.5
2003-10-31,180037.5
2003-09-30,190202.95
2003-08-31,193005.45
2003-07-31,190035.1
2003-06-30,187098.0
2003-05-31,177407.5
2003-04-30,175910.0
2003-03-31,178165.0
2003-02-28,179100.0
2003-01-31,177907.5
2002-12-31,178680.4
2002-11-30,180253.15
2002-10-31,182863.45
2002-09-30,179068.5
2002-08-31,174563.2
2002-07-31,175422.7
2002-06-30,169071.35
2002-05-31,174266.75
2002-04-30,181252.5
2002-03-31,173207.5
2002-02-28,176065.0
2002-01-31,185261.9
2001-12-31,184463.6
2001-11-30,177900.5
2001-10-31,181680.0
2001-09-30,180351.9
2001-08-31,174941.75
2001-07-31,178137.85
2001-06-30,178395.5
2001-05-31,169065.4
2001-04-30,171917.6
2001-03-31,177599.8
2001-02-28,174478.55
2001-01-31,167241.15
2000-12-31,173489.5
2000-11-30,176125.0
2000-10-31,167703.95
2000-09-30,168846.5
2000-08-31,168518.4
2000-07-31,168285.6
2000-06-30,165592.05
2000-05-31,162815.3
2000-04-30,159970.8
2000-03-31,165129.4
2000-02-29,160512.0
2000-01-31,156750.0
1999-12-31,161750.0
1999-11-30,156936.3
1999-10-31,154778.8
1999-09-30,157361.25
1999-08-31,164159.15
1999-07-31,164869.95
1999-06-30,162556.05
1999-05-31,160076.5
1999-04-30,158850.0
1999-03-31,153927.45
1999-02-28,148439.05
1999-01-31,149716.5
1998-12-31,147600.0
1998-11-30,146663.85
1998-10-31,159769.45
1998-09-30,165373.9
1998-08-31,163534.35
1998-07-31,154370.2
1998-06-30,144661.75
1998-05-31,148222.5
1998-04-30,151025.0
1998-03-31,154900.0
1998-02-28,163432.3
1998-01-31,147843.9
1997-12-31,141867.25
1997-11-30,151972.3
1997-10-31,149914.75
1997-09-30,150820.05
1997-08-31,156978.45
1997-07-31,164441.0
1997-06-30,161913.2
1997-05-31,152579.25
1997-04-30,146936.9
1997-03-31,143106.15
1997-02-28,136749.5
1997-01-31,144392.5
1996-12-31,154942.5
1996-11-30,143815.0
1996-10-31,119950.0
1996-09-30,125400.0
1996-08-31,131950.0
1996-07-31,125350.0
1996-06-30,127750.0
1996-05-31,132792.5
1996-04-30,126832.5
