Date,Value
2015-09-30,0.912
2015-08-31,0.912
2015-07-31,0.906
2015-06-30,0.898
2015-05-31,0.892
2015-04-30,0.886
2015-03-31,0.888
2015-02-28,0.886
2015-01-31,0.886
2014-12-31,0.876
2014-11-30,0.866
2014-10-31,0.854
2014-09-30,0.848
2014-08-31,0.844
2014-07-31,0.83
2014-06-30,0.812
2014-05-31,0.8
2014-04-30,0.794
2014-03-31,0.802
2014-02-28,0.812
2014-01-31,0.82
2013-12-31,0.822
2013-11-30,0.826
2013-10-31,0.818
2013-09-30,0.812
2013-08-31,0.806
2013-07-31,0.804
2013-06-30,0.804
2013-05-31,0.804
2013-04-30,0.802
2013-03-31,0.806
2013-02-28,0.818
2013-01-31,0.82
2012-12-31,0.81
2012-11-30,0.8
2012-10-31,0.792
2012-09-30,0.792
2012-08-31,0.79
2012-07-31,0.782
2012-06-30,0.776
2012-05-31,0.772
2012-04-30,0.772
2012-03-31,0.776
2012-02-29,0.79
2012-01-31,0.796
2011-12-31,0.788
2011-11-30,0.774
2011-10-31,0.752
2011-09-30,0.746
2011-08-31,0.742
2011-07-31,0.744
2011-06-30,0.744
2011-05-31,0.736
2011-04-30,0.72
2011-03-31,0.678
2011-02-28,0.618
2011-01-31,0.554
2010-12-31,0.55
2010-11-30,0.552
