Date,Value
2015-09-30,447400.0
2015-08-31,538492.5
2015-07-31,489732.5
2015-06-30,472525.0
2015-05-31,456650.0
2015-04-30,428000.0
2015-02-28,434230.7692
2014-12-31,440076.9231
2014-10-31,397992.5
2014-09-30,443482.5
2014-08-31,444625.0
2014-07-31,427800.0
2014-06-30,426050.0
2014-05-31,469150.0
2014-04-30,469823.5294
2014-03-31,441000.0
2013-10-31,436500.0
2013-09-30,404250.0
2013-08-31,433250.0
2013-07-31,458235.2941
2013-06-30,520000.0
2012-12-31,362941.1765
2012-11-30,310000.0
2012-08-31,394998.5
2012-07-31,399245.0
2012-06-30,422931.1765
2012-05-31,405915.3846
2012-03-31,359000.0
2011-11-30,310000.0
2011-08-31,361000.0
2011-07-31,346200.0
2011-06-30,343294.1176
2011-05-31,348000.0
2010-11-30,311350.0
2010-10-31,326647.0588
2010-09-30,329000.0
2010-06-30,399264.95
2010-05-31,403915.8824
2010-04-30,367000.0
2009-11-30,377000.0
2009-06-30,420000.0
2008-07-31,521153.8462
2008-05-31,428461.5385
2008-03-31,440000.0
2007-10-31,483941.65
2007-09-30,478209.5
2007-08-31,450502.2
2007-07-31,500909.3
2007-06-30,501061.5
2007-05-31,446125.0
2007-04-30,440675.3
2007-03-31,431853.7647
2007-02-28,435770.7692
2006-12-31,458500.0
2006-11-30,465550.0
2006-10-31,449450.0
2006-09-30,438925.0
2006-08-31,466175.0
2006-07-31,448625.0
2006-06-30,445500.0
2006-05-31,431725.0
2006-04-30,430000.0
2006-03-31,401823.5294
2006-02-28,394153.8462
2005-12-31,388650.0
2005-11-30,381600.0
2005-10-31,391425.0
2005-09-30,398775.0
2005-08-31,388000.0
2005-07-31,348600.0
2005-06-30,352350.0
2005-05-31,373750.0
2005-04-30,392300.0
2005-03-31,347950.0
2005-02-28,331238.75
2005-01-31,353073.75
2004-12-31,373362.5
2004-11-30,350500.0
2004-10-31,377500.0
2004-09-30,365350.0
2004-08-31,331183.5
2004-06-30,205995.0
2004-05-31,231275.0
2004-04-30,208323.5
2004-03-31,214246.5
2003-12-31,346250.0
2003-11-30,329000.0
2003-10-31,292300.0
2003-09-30,293700.0
2003-08-31,291900.0
2003-07-31,298350.0
2003-06-30,294242.5
2003-05-31,285082.5
2003-04-30,284625.0
2003-03-31,273750.0
2003-02-28,277400.0
2003-01-31,316000.0
2002-12-31,284923.0769
2002-10-31,261732.4
2002-09-30,271073.5
2002-08-31,267195.0
2002-07-31,284050.0
2002-06-30,301100.0
2002-05-31,286300.0
2002-04-30,273050.0
2002-03-31,267625.0
2002-02-28,273375.0
2002-01-31,276617.5
2001-12-31,275107.5
2001-11-30,277325.0
2001-10-31,280950.0
2001-09-30,287950.0
2001-08-31,278785.0
2001-07-31,263915.0
2001-06-30,257225.0
2001-05-31,253125.0
2001-04-30,276787.5
2001-03-31,271187.5
2001-02-28,263825.0
2001-01-31,260350.0
2000-12-31,242700.0
2000-11-30,257050.0
2000-10-31,267500.0
2000-09-30,240950.0
2000-08-31,264135.0
2000-07-31,254807.5
2000-06-30,248182.5
2000-05-31,261225.0
2000-04-30,260294.1176
2000-03-31,266911.5385
2000-01-31,243423.0769
1999-11-30,262750.0
1999-10-31,266000.0
1999-09-30,256237.5
1999-08-31,255136.0
1999-07-31,255606.5
1999-06-30,248245.0
1999-05-31,235015.0
1999-04-30,252050.0
1999-03-31,263235.2941
1999-02-28,282307.6923
1998-12-31,233823.5294
1998-11-30,226038.4615
1998-09-30,231700.0
1998-08-31,232925.0
1998-07-31,228400.0
1998-06-30,238425.0
1998-05-31,233992.5
1998-04-30,231107.5
1998-03-31,226850.0
1998-02-28,200800.0
1998-01-31,194325.0
1997-12-31,195875.0
1997-11-30,198992.5
1997-10-31,195232.5
1997-09-30,189712.5
1997-08-31,196387.5
1997-07-31,215775.0
1997-06-30,210350.0
1997-05-31,215588.2353
1997-04-30,203692.3077
1997-02-28,173322.5
1997-01-31,180795.0
1996-12-31,181707.5
1996-11-30,178975.0
1996-10-31,188350.0
1996-09-30,197700.0
1996-08-31,186950.0
1996-07-31,174750.0
1996-06-30,167693.3
1996-05-31,165792.7
1996-04-30,180454.1176
