Date,Value
2015-09-30,155500.0
2015-08-31,155600.0
2015-07-31,154400.0
2015-06-30,152200.0
2015-05-31,150100.0
2015-04-30,148200.0
2015-03-31,148000.0
2015-02-28,149400.0
2015-01-31,149900.0
2014-12-31,149200.0
2014-11-30,148000.0
2014-10-31,146600.0
2014-09-30,145300.0
2014-08-31,144300.0
2014-07-31,144300.0
2014-06-30,145300.0
2014-05-31,146500.0
2014-04-30,147800.0
2014-03-31,148700.0
2014-02-28,148300.0
2014-01-31,146900.0
2013-12-31,145500.0
2013-11-30,144600.0
2013-10-31,143900.0
2013-09-30,143800.0
2013-08-31,143400.0
2013-07-31,142200.0
2013-06-30,140800.0
2013-05-31,140100.0
2013-04-30,139100.0
2013-03-31,137700.0
2013-02-28,137100.0
2013-01-31,137400.0
2012-12-31,137500.0
2012-11-30,137400.0
2012-10-31,137700.0
2012-09-30,138500.0
2012-08-31,139400.0
2012-07-31,140000.0
2012-06-30,140100.0
2012-05-31,139700.0
2012-04-30,139700.0
2012-03-31,140400.0
2012-02-29,140600.0
2012-01-31,140200.0
2011-12-31,140500.0
2011-11-30,141000.0
2011-10-31,141000.0
2011-09-30,140700.0
2011-08-31,140700.0
2011-07-31,140400.0
2011-06-30,140200.0
2011-05-31,140300.0
2011-04-30,140900.0
2011-03-31,141500.0
2011-02-28,142200.0
2011-01-31,143300.0
2010-12-31,144200.0
2010-11-30,145000.0
2010-10-31,145800.0
2010-09-30,146500.0
2010-08-31,147300.0
2010-07-31,148200.0
2010-06-30,148900.0
2010-05-31,149100.0
2010-04-30,149400.0
2010-03-31,149900.0
2010-02-28,150600.0
2010-01-31,151700.0
2009-12-31,152700.0
2009-11-30,153300.0
2009-10-31,154100.0
2009-09-30,155500.0
2009-08-31,156600.0
2009-07-31,157400.0
2009-06-30,158100.0
2009-05-31,158800.0
2009-04-30,159500.0
2009-03-31,160200.0
2009-02-28,161200.0
2009-01-31,162200.0
2008-12-31,163400.0
2008-11-30,164700.0
2008-10-31,166000.0
2008-09-30,167000.0
2008-08-31,168000.0
2008-07-31,169200.0
2008-06-30,170400.0
2008-05-31,171500.0
2008-04-30,171700.0
2008-03-31,171500.0
2008-02-29,171300.0
2008-01-31,171200.0
2007-12-31,171500.0
2007-11-30,172300.0
2007-10-31,172800.0
2007-09-30,173300.0
2007-08-31,173500.0
2007-07-31,173600.0
2007-06-30,173800.0
2007-05-31,173900.0
2007-04-30,173400.0
2007-03-31,172900.0
2007-02-28,172100.0
2007-01-31,170500.0
2006-12-31,169100.0
2006-11-30,168100.0
2006-10-31,167200.0
2006-09-30,165800.0
2006-08-31,164300.0
2006-07-31,163000.0
2006-06-30,161900.0
2006-05-31,160500.0
2006-04-30,159200.0
2006-03-31,158300.0
2006-02-28,157200.0
2006-01-31,155700.0
2005-12-31,154100.0
2005-11-30,152200.0
2005-10-31,149900.0
2005-09-30,147800.0
2005-08-31,145900.0
2005-07-31,143400.0
2005-06-30,140500.0
2005-05-31,138000.0
2005-04-30,136200.0
2005-03-31,134600.0
2005-02-28,133400.0
2005-01-31,132300.0
2004-12-31,131000.0
2004-11-30,129400.0
2004-10-31,127400.0
2004-09-30,125400.0
2004-08-31,123900.0
2004-07-31,122700.0
2004-06-30,121500.0
2004-05-31,120600.0
2004-04-30,119800.0
2004-03-31,118500.0
2004-02-29,117300.0
2004-01-31,116500.0
2003-12-31,115900.0
2003-11-30,115700.0
2003-10-31,115500.0
2003-09-30,114800.0
2003-08-31,113600.0
2003-07-31,112700.0
2003-06-30,111900.0
2003-05-31,111200.0
2003-04-30,110400.0
2003-03-31,109800.0
2003-02-28,109300.0
2003-01-31,108600.0
2002-12-31,107300.0
2002-11-30,105600.0
2002-10-31,104400.0
2002-09-30,104300.0
2002-08-31,104300.0
2002-07-31,103800.0
2002-06-30,103600.0
2002-05-31,103600.0
2002-04-30,103400.0
2002-03-31,103500.0
2002-02-28,103900.0
2002-01-31,104100.0
2001-12-31,104000.0
2001-11-30,104100.0
2001-10-31,104200.0
2001-09-30,103600.0
2001-08-31,102800.0
2001-07-31,102500.0
2001-06-30,102500.0
2001-05-31,102300.0
2001-04-30,101800.0
2001-03-31,100500.0
2001-02-28,99000.0
2001-01-31,98100.0
2000-12-31,98000.0
2000-11-30,98600.0
2000-10-31,99100.0
2000-09-30,99400.0
2000-08-31,99800.0
2000-07-31,100100.0
2000-06-30,100100.0
2000-05-31,100100.0
2000-04-30,100500.0
2000-03-31,101000.0
2000-02-29,101000.0
2000-01-31,100800.0
1999-12-31,100400.0
1999-11-30,99300.0
1999-10-31,98300.0
1999-09-30,97900.0
1999-08-31,97800.0
1999-07-31,97700.0
1999-06-30,97700.0
1999-05-31,97700.0
1999-04-30,98000.0
1999-03-31,98300.0
1999-02-28,98300.0
1999-01-31,98100.0
1998-12-31,98000.0
1998-11-30,98200.0
1998-10-31,98500.0
1998-09-30,98600.0
1998-08-31,98800.0
1998-07-31,99000.0
1998-06-30,99200.0
1998-05-31,99300.0
1998-04-30,99200.0
1998-03-31,98700.0
1998-02-28,98600.0
1998-01-31,99000.0
1997-12-31,99400.0
1997-11-30,99600.0
1997-10-31,99600.0
1997-09-30,99500.0
1997-08-31,99200.0
1997-07-31,98700.0
1997-06-30,98400.0
1997-05-31,98400.0
1997-04-30,98400.0
1997-03-31,98000.0
1997-02-28,97900.0
1997-01-31,97900.0
1996-12-31,97800.0
1996-11-30,97900.0
1996-10-31,98300.0
1996-09-30,99000.0
1996-08-31,99900.0
1996-07-31,101200.0
1996-06-30,102100.0
1996-05-31,101900.0
1996-04-30,101400.0
