Date,Value
2015-09-30,103300.0
2015-08-31,104300.0
2015-07-31,102400.0
2015-05-31,103400.0
2015-04-30,104500.0
2015-03-31,108800.0
2015-02-28,110600.0
2015-01-31,111900.0
2014-12-31,110300.0
2014-11-30,106300.0
2014-10-31,101000.0
2014-09-30,97900.0
2014-08-31,98100.0
2014-07-31,100000.0
2014-06-30,102200.0
2014-05-31,103600.0
2014-04-30,103900.0
2014-03-31,104000.0
2014-02-28,104600.0
2014-01-31,104400.0
2013-12-31,103800.0
2013-11-30,104300.0
2013-10-31,105700.0
2013-09-30,105200.0
2013-08-31,102200.0
2013-07-31,100400.0
2013-06-30,102700.0
2013-05-31,104400.0
2013-04-30,103900.0
2013-03-31,105000.0
2013-02-28,107400.0
2013-01-31,108100.0
2012-12-31,109200.0
2012-11-30,112400.0
2012-10-31,116300.0
2012-09-30,119300.0
2012-08-31,121600.0
2012-07-31,122500.0
2012-06-30,121900.0
2012-05-31,119600.0
2012-04-30,117400.0
2012-03-31,116200.0
2012-02-29,117300.0
2012-01-31,117800.0
2011-12-31,115300.0
2011-11-30,112300.0
2011-10-31,112000.0
2011-09-30,112700.0
2011-08-31,112500.0
2011-07-31,112500.0
2011-06-30,112600.0
2011-05-31,113300.0
2011-04-30,116000.0
2011-03-31,118100.0
2011-02-28,116000.0
2011-01-31,116500.0
2010-12-31,122500.0
2010-11-30,129000.0
2010-10-31,133700.0
2010-09-30,137400.0
2010-08-31,136900.0
2010-07-31,135100.0
2010-06-30,136500.0
2010-05-31,138700.0
2010-04-30,137700.0
2010-03-31,137200.0
2010-02-28,138300.0
2010-01-31,137300.0
2009-12-31,133500.0
2009-11-30,131300.0
2009-10-31,130600.0
2009-09-30,129200.0
2009-08-31,127500.0
2009-07-31,126200.0
2009-06-30,125300.0
2009-05-31,125100.0
2009-04-30,125200.0
2009-03-31,124800.0
2009-02-28,122700.0
2009-01-31,119600.0
2008-12-31,118900.0
2008-11-30,117400.0
2008-10-31,113400.0
2008-09-30,112300.0
2008-08-31,118800.0
2008-07-31,123600.0
2008-06-30,123900.0
2008-05-31,124500.0
2008-04-30,125200.0
2008-03-31,122000.0
2008-02-29,122000.0
2008-01-31,125600.0
2007-12-31,127000.0
2007-11-30,126400.0
2007-10-31,126300.0
2007-09-30,124600.0
2007-08-31,123400.0
2007-07-31,122500.0
2007-06-30,120000.0
2007-05-31,118400.0
2007-04-30,120300.0
2007-03-31,122000.0
2007-02-28,121000.0
2007-01-31,119400.0
2006-12-31,119400.0
2006-11-30,122300.0
2006-10-31,127900.0
2006-09-30,132000.0
2006-08-31,130800.0
2006-07-31,129500.0
2006-06-30,129600.0
2006-05-31,127800.0
2006-04-30,126800.0
2006-03-31,126800.0
2006-02-28,125600.0
