Date,Value
2015-02-28,220000.0
2015-01-31,220000.0
2014-12-31,224000.0
2014-11-30,299000.0
2014-10-31,224000.0
2014-09-30,249999.0
2014-08-31,220000.0
2014-07-31,219000.0
2014-06-30,209000.0
2014-05-31,224950.0
2014-04-30,219000.0
2014-03-31,224950.0
2014-02-28,299500.0
2014-01-31,199900.0
2013-12-31,199900.0
2013-11-30,199900.0
2013-10-31,189000.0
2013-09-30,199900.0
2013-08-31,199900.0
2013-07-31,199900.0
2013-06-30,219000.0
2013-05-31,219000.0
2013-04-30,229000.0
2013-03-31,289000.0
2013-02-28,275000.0
2013-01-31,265000.0
2012-12-31,259900.0
2012-11-30,245950.0
2012-10-31,239000.0
2012-09-30,259900.0
2012-08-31,249950.0
2012-07-31,259950.0
2012-06-30,239000.0
2012-05-31,224950.0
2012-04-30,179000.0
2012-03-31,189900.0
2012-02-29,189900.0
2012-01-31,219000.0
2011-12-31,199000.0
2011-11-30,225000.0
2011-10-31,230000.0
2011-09-30,249950.0
2011-08-31,222999.0
2011-07-31,239000.0
2011-06-30,240000.0
2011-05-31,245000.0
2011-04-30,256000.0
2011-03-31,269000.0
2011-02-28,289950.0
2011-01-31,265000.0
2010-12-31,275000.0
2010-11-30,279000.0
2010-10-31,299000.0
2010-09-30,299000.0
2010-08-31,298900.0
2010-07-31,298000.0
2010-06-30,289000.0
2010-05-31,269000.0
2010-04-30,289000.0
2010-03-31,270000.0
2010-02-28,225000.0
2010-01-31,240000.0
2009-12-31,195000.0
2009-11-30,229000.0
2009-10-31,240000.0
2009-09-30,270000.0
2009-08-31,275000.0
2009-07-31,299000.0
2009-06-30,299000.0
2008-10-31,369000.0
