Date,Value
2015-09-30,1.54
2015-08-31,1.458
2015-07-31,1.378
2015-06-30,1.37
2015-05-31,1.37
2015-04-30,1.372
2015-03-31,1.368
2015-02-28,1.364
2015-01-31,1.354
2014-12-31,1.34
2014-11-30,1.326
2014-10-31,1.322
2014-09-30,1.324
2014-08-31,1.334
2014-07-31,1.326
2014-06-30,1.31
2014-05-31,1.288
2014-04-30,1.264
2014-03-31,1.258
2014-02-28,1.252
2014-01-31,1.26
2013-12-31,1.268
2013-11-30,1.276
2013-10-31,1.274
2013-09-30,1.268
2013-08-31,1.254
2013-07-31,1.24
2013-06-30,1.226
2013-05-31,1.224
2013-04-30,1.222
2013-03-31,1.22
2013-02-28,1.214
2013-01-31,1.206
2012-12-31,1.202
2012-11-30,1.2
2012-10-31,1.198
2012-09-30,1.192
2012-08-31,1.188
2012-07-31,1.186
2012-06-30,1.184
2012-05-31,1.184
2012-04-30,1.182
2012-03-31,1.184
2012-02-29,1.178
2012-01-31,1.162
2011-12-31,1.148
2011-11-30,1.136
2011-10-31,1.12
2011-09-30,1.11
2011-08-31,1.106
2011-07-31,1.112
2011-06-30,1.126
2011-05-31,1.134
2011-04-30,1.142
2011-03-31,1.134
2011-02-28,1.132
2011-01-31,1.12
2010-12-31,1.122
2010-11-30,1.118
