Date,Value
2015-07-31,416000.0
2014-07-31,200100.0
2012-12-31,380000.0
2011-08-31,315000.0
2006-07-31,415000.0
2005-11-30,417330.7692
2005-09-30,403882.3529
2005-08-31,440384.6154
2005-06-30,425000.0
2004-09-30,287058.8235
2004-08-31,340000.0
2004-04-30,385000.0
