Date,Value
2015-08-31,167617.6471
2015-07-31,178500.0
2014-08-31,165000.0
2014-07-31,165000.0
2012-11-30,142000.0
2012-06-30,133511.0
2010-08-31,187150.7692
2010-06-30,180229.0769
2010-04-30,181326.0
2009-09-30,196602.1538
2009-07-31,187000.0
2008-07-31,209836.0
2008-06-30,234265.0
2008-05-31,232647.0588
2008-04-30,240000.0
2007-12-31,203076.9231
2007-10-31,194128.3529
2007-09-30,201803.8462
2007-07-31,204480.15
2007-06-30,198877.35
2007-05-31,192211.15
2007-04-30,186591.5882
2007-03-31,185776.1538
2007-01-31,194329.0769
2006-11-30,196427.1
2006-10-31,205513.0
2006-09-30,201306.4
2006-08-31,199250.0
2006-07-31,184902.1
2006-06-30,203289.4
2006-05-31,207801.0
2006-04-30,179802.4706
2006-03-31,163416.7692
2006-01-31,160074.05
2005-12-31,163148.15
2005-11-30,165093.95
2005-10-31,161465.3
2005-09-30,163467.85
2005-08-31,162738.6
2005-07-31,161305.25
2005-06-30,156557.5
2005-05-31,152243.8
2005-04-30,154061.4118
2005-03-31,151292.0
2004-11-30,147025.5385
2004-09-30,142522.0
2004-08-31,143145.0
2004-07-31,147355.0
2004-06-30,158200.0
2004-05-31,150000.0
2004-04-30,160000.0
2003-10-31,152869.85
2003-09-30,163960.75
2003-07-31,137018.4615
2003-05-31,138529.4118
2003-04-30,130000.0
2002-12-31,131424.2308
2002-10-31,131632.5
2002-09-30,136063.6
2002-08-31,138198.4
2002-07-31,139896.4706
2002-06-30,132000.0
2001-10-31,126054.0
2001-07-31,128342.3077
2001-05-31,133294.1176
2001-04-30,131000.0
2000-11-30,126006.1538
2000-09-30,146273.1176
2000-08-31,135949.0
2000-05-31,145424.0
1999-09-30,145675.0
1999-08-31,129160.7
1999-07-31,127009.7647
1999-06-30,122738.0
1998-12-31,130000.0
1998-09-30,123455.8824
1998-08-31,121250.0
1996-07-31,118115.3846
1996-05-31,102455.8824
1996-04-30,110250.0
