Date,Value
2015-09-30,230200.0
2015-08-31,227900.0
2015-07-31,225300.0
2015-06-30,228400.0
2015-05-31,222700.0
2015-04-30,221000.0
2015-03-31,217800.0
2015-02-28,213100.0
2015-01-31,211400.0
2014-12-31,211400.0
2014-11-30,210600.0
2014-10-31,206800.0
2014-09-30,200700.0
2014-08-31,196800.0
2014-07-31,196900.0
2014-06-30,197800.0
2014-05-31,196300.0
2014-04-30,192100.0
2014-03-31,189800.0
2014-02-28,191700.0
2014-01-31,194300.0
2013-12-31,194500.0
2013-11-30,192900.0
2013-10-31,189500.0
2013-09-30,186200.0
2013-08-31,183600.0
2013-07-31,182800.0
2013-06-30,180800.0
2013-05-31,178400.0
2013-04-30,177800.0
2013-03-31,179500.0
2013-02-28,180200.0
2013-01-31,178300.0
2012-12-31,174300.0
2012-11-30,172700.0
2012-10-31,173500.0
2012-09-30,174300.0
2012-08-31,173900.0
2012-07-31,172000.0
2012-06-30,171400.0
2012-05-31,172700.0
2012-04-30,172900.0
2012-03-31,172100.0
2012-02-29,173600.0
2012-01-31,176000.0
2011-12-31,177700.0
2011-11-30,179100.0
2011-10-31,181700.0
2011-09-30,185600.0
2011-08-31,189800.0
2011-07-31,192700.0
2011-06-30,194200.0
2011-05-31,195200.0
2011-04-30,196800.0
2011-03-31,198300.0
2011-02-28,199800.0
2011-01-31,202600.0
2010-12-31,207000.0
2010-11-30,210900.0
2010-10-31,215000.0
2010-09-30,218800.0
2010-08-31,220400.0
2010-07-31,221900.0
2010-06-30,225100.0
2010-05-31,227800.0
2010-04-30,228000.0
2010-03-31,226200.0
2010-02-28,224900.0
2010-01-31,225400.0
2009-12-31,227400.0
2009-11-30,228900.0
2009-10-31,228600.0
2009-09-30,227900.0
2009-08-31,228600.0
2009-07-31,228500.0
2009-06-30,228400.0
2009-05-31,228700.0
2009-04-30,227100.0
2009-03-31,223900.0
2009-02-28,220300.0
2009-01-31,217700.0
2008-12-31,214600.0
2008-11-30,209800.0
2008-10-31,208700.0
2008-09-30,215500.0
2008-08-31,225600.0
2008-07-31,235000.0
2008-06-30,241700.0
2008-05-31,244400.0
2008-04-30,249700.0
2008-03-31,257000.0
2008-02-29,261800.0
2008-01-31,262900.0
2007-12-31,265900.0
2007-11-30,271500.0
2007-10-31,276300.0
2007-09-30,274500.0
2007-08-31,271200.0
2007-07-31,272200.0
2007-06-30,274000.0
2007-05-31,272600.0
2007-04-30,273300.0
2007-03-31,278800.0
2007-02-28,282500.0
2007-01-31,282200.0
2006-12-31,281000.0
2006-11-30,279200.0
2006-10-31,275900.0
2006-09-30,273000.0
2006-08-31,272600.0
2006-07-31,274500.0
2006-06-30,276200.0
2006-05-31,277500.0
2006-04-30,277000.0
2006-03-31,275000.0
2006-02-28,273600.0
2006-01-31,271800.0
2005-12-31,268500.0
2005-11-30,266400.0
2005-10-31,263000.0
2005-09-30,256800.0
2005-08-31,249400.0
2005-07-31,237900.0
2005-06-30,224800.0
2005-05-31,216000.0
2005-04-30,211000.0
2005-03-31,207600.0
2005-02-28,204400.0
2005-01-31,200100.0
2004-12-31,196600.0
2004-11-30,194000.0
2004-10-31,190300.0
2004-09-30,186200.0
2004-08-31,180700.0
2004-07-31,175400.0
2004-06-30,172400.0
2004-05-31,171200.0
2004-04-30,168500.0
2004-03-31,164400.0
2004-02-29,161900.0
2004-01-31,161200.0
2003-12-31,159800.0
2003-11-30,157200.0
2003-10-31,156100.0
2003-09-30,157100.0
2003-08-31,158200.0
2003-07-31,156400.0
2003-06-30,153800.0
2003-05-31,154600.0
2003-04-30,156200.0
2003-03-31,154300.0
2003-02-28,152000.0
2003-01-31,152500.0
2002-12-31,152600.0
2002-11-30,151300.0
2002-10-31,150900.0
2002-09-30,151100.0
2002-08-31,150300.0
2002-07-31,149600.0
2002-06-30,150500.0
2002-05-31,150500.0
2002-04-30,148200.0
2002-03-31,145400.0
2002-02-28,142700.0
2002-01-31,140700.0
2001-12-31,141300.0
2001-11-30,142700.0
2001-10-31,143200.0
2001-09-30,140900.0
2001-08-31,138500.0
2001-07-31,139500.0
2001-06-30,142000.0
2001-05-31,142000.0
2001-04-30,142100.0
2001-03-31,145200.0
2001-02-28,147900.0
2001-01-31,148000.0
2000-12-31,146300.0
2000-11-30,145700.0
2000-10-31,145000.0
2000-09-30,145600.0
2000-08-31,147800.0
2000-07-31,149800.0
2000-06-30,149000.0
2000-05-31,148300.0
2000-04-30,147000.0
2000-03-31,145100.0
2000-02-29,144000.0
2000-01-31,144300.0
1999-12-31,144500.0
1999-11-30,144200.0
1999-10-31,143500.0
1999-09-30,143200.0
1999-08-31,142700.0
1999-07-31,141900.0
1999-06-30,142300.0
1999-05-31,143900.0
1999-04-30,146300.0
1999-03-31,148900.0
1999-02-28,147900.0
1999-01-31,144600.0
1998-12-31,144400.0
1998-11-30,145600.0
1998-10-31,144200.0
1998-09-30,142400.0
1998-08-31,140800.0
1998-07-31,139000.0
1998-06-30,136100.0
1998-05-31,130900.0
1998-04-30,125700.0
1998-03-31,123500.0
1998-02-28,121700.0
1998-01-31,118200.0
1997-12-31,113700.0
1997-11-30,109400.0
1997-10-31,105900.0
1997-09-30,102900.0
1997-08-31,101200.0
1997-07-31,100400.0
1997-06-30,98900.0
1997-05-31,97100.0
1997-04-30,97200.0
1997-03-31,97900.0
1997-02-28,98600.0
1997-01-31,99600.0
1996-12-31,100500.0
1996-11-30,102400.0
1996-10-31,106400.0
1996-09-30,109900.0
1996-08-31,111000.0
1996-07-31,111700.0
1996-06-30,113800.0
1996-05-31,116000.0
1996-04-30,116400.0
