Date,Value
2015-09-30,90000.0
2015-08-31,92400.0
2015-07-31,91800.0
2015-05-31,87700.0
2015-04-30,89400.0
2015-03-31,86200.0
2015-02-28,87800.0
2015-01-31,87900.0
2014-12-31,88600.0
2014-11-30,88400.0
2014-10-31,85900.0
2014-09-30,83100.0
2014-08-31,82300.0
2014-07-31,81800.0
2014-06-30,80100.0
2014-05-31,78100.0
2014-04-30,74600.0
2014-03-31,70500.0
2014-02-28,68200.0
2014-01-31,67000.0
2013-12-31,64600.0
2013-11-30,62800.0
2013-10-31,62000.0
2013-09-30,61600.0
2013-08-31,61600.0
2013-07-31,61800.0
2013-06-30,61700.0
2013-05-31,61800.0
2013-04-30,62400.0
2013-03-31,63600.0
2013-02-28,64700.0
2013-01-31,65700.0
2012-12-31,67000.0
2012-11-30,68800.0
2012-10-31,70300.0
2012-09-30,71200.0
2012-08-31,70600.0
2012-07-31,69700.0
2012-06-30,69000.0
2012-05-31,67900.0
2012-04-30,65600.0
2012-03-31,64300.0
2012-02-29,64200.0
2012-01-31,65100.0
2011-12-31,65900.0
2011-11-30,66400.0
2011-10-31,65700.0
2011-09-30,64000.0
2011-08-31,62800.0
2011-07-31,62600.0
2011-06-30,63300.0
2011-05-31,65500.0
2011-04-30,69500.0
2011-03-31,71500.0
2011-02-28,70500.0
2011-01-31,68700.0
2010-12-31,68400.0
2010-11-30,68100.0
2010-10-31,68400.0
2010-09-30,69000.0
2010-08-31,68900.0
2010-07-31,67600.0
2010-06-30,67600.0
2010-05-31,69000.0
2010-04-30,69900.0
2010-03-31,70300.0
2010-02-28,70500.0
2010-01-31,70200.0
2009-12-31,68700.0
2009-11-30,66400.0
2009-10-31,65400.0
2009-09-30,66400.0
2009-08-31,67300.0
2009-07-31,68200.0
2009-06-30,69800.0
2009-05-31,70100.0
2009-04-30,69300.0
2009-03-31,68400.0
2009-02-28,67900.0
2009-01-31,66600.0
2008-12-31,66000.0
2008-11-30,66200.0
2008-10-31,67800.0
2008-09-30,67200.0
2008-08-31,65400.0
2008-07-31,64200.0
2008-06-30,63400.0
2008-05-31,61900.0
2008-04-30,61000.0
2008-03-31,60900.0
2008-02-29,61300.0
2008-01-31,61800.0
2007-12-31,61400.0
2007-11-30,60600.0
2007-10-31,60100.0
2007-09-30,60000.0
2007-08-31,60700.0
2007-07-31,62000.0
2007-06-30,62300.0
2007-05-31,61800.0
2007-04-30,61100.0
2007-03-31,60500.0
2007-02-28,60400.0
2007-01-31,60800.0
2006-12-31,61600.0
2006-11-30,63200.0
2006-10-31,64000.0
2006-09-30,64600.0
2006-08-31,64500.0
2006-07-31,63300.0
2006-06-30,61500.0
2006-05-31,60900.0
2006-04-30,61600.0
2006-03-31,62900.0
2006-02-28,63700.0
2006-01-31,64000.0
2005-12-31,64200.0
2005-11-30,63200.0
2005-10-31,61200.0
2005-09-30,59800.0
2005-08-31,59400.0
2005-07-31,59700.0
2005-06-30,60100.0
2005-05-31,59900.0
2005-04-30,59400.0
2005-03-31,59000.0
2005-02-28,58400.0
2005-01-31,57500.0
2004-12-31,56600.0
2004-11-30,56000.0
2004-10-31,55100.0
2004-09-30,53700.0
2004-08-31,52500.0
2004-07-31,52100.0
2004-06-30,51300.0
2004-05-31,50900.0
2004-04-30,50400.0
2004-03-31,49600.0
2004-02-29,48900.0
2004-01-31,49300.0
2003-12-31,49600.0
2003-11-30,49900.0
2003-10-31,50600.0
2003-09-30,51300.0
2003-08-31,51300.0
2003-07-31,51500.0
2003-06-30,52500.0
2003-05-31,52700.0
2003-04-30,52100.0
2003-03-31,52300.0
2003-02-28,53400.0
2003-01-31,54100.0
2002-12-31,54500.0
2002-11-30,54500.0
2002-10-31,54200.0
2002-09-30,55400.0
2002-08-31,57800.0
2002-07-31,58700.0
2002-06-30,58500.0
2002-05-31,58700.0
2002-04-30,59000.0
2002-03-31,58900.0
2002-02-28,58600.0
2002-01-31,57600.0
2001-12-31,56000.0
2001-11-30,54500.0
2001-10-31,53500.0
2001-09-30,53200.0
2001-08-31,53800.0
2001-07-31,54300.0
2001-06-30,54200.0
2001-05-31,53900.0
2001-04-30,53300.0
2001-03-31,52400.0
2001-02-28,52700.0
2001-01-31,53700.0
2000-12-31,55200.0
2000-11-30,56900.0
2000-10-31,59100.0
2000-09-30,59400.0
2000-08-31,56700.0
2000-07-31,53200.0
2000-06-30,52100.0
2000-05-31,52300.0
2000-04-30,52800.0
2000-03-31,52400.0
2000-02-29,50600.0
2000-01-31,48600.0
1999-12-31,47900.0
1999-11-30,48200.0
1999-10-31,48400.0
1999-09-30,48800.0
1999-08-31,49700.0
1999-07-31,51200.0
1999-06-30,51400.0
1999-05-31,51000.0
1999-04-30,52200.0
1999-03-31,54400.0
1999-02-28,55300.0
1999-01-31,55300.0
1998-12-31,54400.0
1998-11-30,53500.0
1998-10-31,52400.0
1998-09-30,51600.0
1998-08-31,51400.0
1998-07-31,51900.0
1998-06-30,52100.0
1998-05-31,53000.0
1998-04-30,54300.0
1998-03-31,54900.0
1998-02-28,55100.0
1998-01-31,55900.0
1997-12-31,57200.0
1997-11-30,57900.0
1997-10-31,58100.0
1997-09-30,58100.0
1997-08-31,58600.0
1997-07-31,59600.0
1997-06-30,60900.0
1997-05-31,61600.0
1997-04-30,61000.0
1997-03-31,60000.0
1997-02-28,59400.0
1997-01-31,59300.0
1996-12-31,60000.0
1996-11-30,61300.0
1996-10-31,62900.0
1996-09-30,63800.0
1996-08-31,64100.0
1996-07-31,64300.0
1996-06-30,64200.0
1996-05-31,63200.0
1996-04-30,63000.0
