Date,Value
2015-09-30,432200.0
2015-08-31,449400.0
2015-07-31,450100.0
2015-06-30,451100.0
2015-05-31,448900.0
2015-04-30,443100.0
2015-03-31,444200.0
2015-02-28,444900.0
2015-01-31,451400.0
2014-12-31,452300.0
2014-11-30,451800.0
2014-10-31,448000.0
2014-09-30,442400.0
2014-08-31,438700.0
2014-07-31,440700.0
2014-06-30,444900.0
2014-05-31,445400.0
2014-04-30,441700.0
2014-03-31,437200.0
2014-02-28,436500.0
2014-01-31,440200.0
2013-12-31,446900.0
2013-11-30,447000.0
2013-10-31,442900.0
2013-09-30,441500.0
2013-08-31,443300.0
2013-07-31,443200.0
2013-06-30,442200.0
2013-05-31,441700.0
2013-04-30,443800.0
2013-03-31,446400.0
2013-02-28,448300.0
2013-01-31,451000.0
2012-12-31,454900.0
2012-11-30,457300.0
2012-10-31,455200.0
2012-09-30,450700.0
2012-08-31,449000.0
2012-07-31,447900.0
2012-06-30,443900.0
2012-05-31,440400.0
2012-04-30,440300.0
2012-03-31,441300.0
2012-02-29,441900.0
2012-01-31,442400.0
2011-12-31,438400.0
2011-11-30,432200.0
2011-10-31,433500.0
2011-09-30,440000.0
2011-08-31,442200.0
2011-07-31,440100.0
2011-06-30,438200.0
2011-05-31,435800.0
2011-04-30,437000.0
2011-03-31,442500.0
2011-02-28,448000.0
2011-01-31,452500.0
2010-12-31,459400.0
2010-11-30,464300.0
2010-10-31,465700.0
2010-09-30,470300.0
2010-08-31,478600.0
2010-07-31,482700.0
2010-06-30,482600.0
2010-05-31,486500.0
2010-04-30,492200.0
2010-03-31,496500.0
2010-02-28,498000.0
2010-01-31,497200.0
2009-12-31,493300.0
2009-11-30,491400.0
2009-10-31,493600.0
2009-09-30,499100.0
2009-08-31,506200.0
2009-07-31,514600.0
2009-06-30,520500.0
2009-05-31,521900.0
2009-04-30,518100.0
2009-03-31,513000.0
2009-02-28,509800.0
2009-01-31,499400.0
2008-12-31,489100.0
2008-11-30,490000.0
2008-10-31,494700.0
2008-09-30,492800.0
2008-08-31,493000.0
2008-07-31,499200.0
2008-06-30,506900.0
2008-05-31,512800.0
2008-04-30,514900.0
2008-03-31,516400.0
2008-02-29,519400.0
2008-01-31,525300.0
2007-12-31,527700.0
2007-11-30,528100.0
2007-10-31,527700.0
2007-09-30,524700.0
2007-08-31,516300.0
2007-07-31,507000.0
2007-06-30,500100.0
2007-05-31,496500.0
2007-04-30,497900.0
2007-03-31,502500.0
2007-02-28,504900.0
2007-01-31,508100.0
2006-12-31,516600.0
2006-11-30,525300.0
2006-10-31,531600.0
2006-09-30,537800.0
2006-08-31,537500.0
2006-07-31,530100.0
2006-06-30,523600.0
2006-05-31,519700.0
2006-04-30,516900.0
2006-03-31,515000.0
2006-02-28,510800.0
2006-01-31,506000.0
2005-12-31,504000.0
2005-11-30,503400.0
2005-10-31,504000.0
2005-09-30,503500.0
2005-08-31,500700.0
2005-07-31,499400.0
2005-06-30,499100.0
2005-05-31,489600.0
2005-04-30,475100.0
2005-03-31,462400.0
2005-02-28,450800.0
2005-01-31,435200.0
2004-12-31,418200.0
2004-11-30,402700.0
2004-10-31,390000.0
2004-09-30,377800.0
2004-08-31,367500.0
2004-07-31,359600.0
2004-06-30,355800.0
2004-05-31,361400.0
2004-04-30,370200.0
2004-03-31,368500.0
2004-02-29,367800.0
2004-01-31,372900.0
2003-12-31,373600.0
2003-11-30,365800.0
2003-10-31,355800.0
2003-09-30,347800.0
2003-08-31,346600.0
2003-07-31,347500.0
2003-06-30,345300.0
2003-05-31,338300.0
2003-04-30,330800.0
2003-03-31,329300.0
2003-02-28,331800.0
2003-01-31,333200.0
2002-12-31,330300.0
2002-11-30,327300.0
2002-10-31,328600.0
2002-09-30,333800.0
2002-08-31,335300.0
2002-07-31,333700.0
2002-06-30,332000.0
2002-05-31,330900.0
2002-04-30,325900.0
2002-03-31,318700.0
2002-02-28,310700.0
2002-01-31,305700.0
2001-12-31,309100.0
2001-11-30,317300.0
2001-10-31,321300.0
2001-09-30,319300.0
2001-08-31,316600.0
2001-07-31,318200.0
2001-06-30,322000.0
2001-05-31,322300.0
2001-04-30,321500.0
2001-03-31,322800.0
2001-02-28,320500.0
2001-01-31,317300.0
2000-12-31,313600.0
2000-11-30,306400.0
2000-10-31,297200.0
2000-09-30,295600.0
2000-08-31,300200.0
2000-07-31,301700.0
2000-06-30,295500.0
2000-05-31,293100.0
2000-04-30,296600.0
2000-03-31,302000.0
2000-02-29,304500.0
2000-01-31,305900.0
1999-12-31,304500.0
1999-11-30,306100.0
1999-10-31,307800.0
1999-09-30,304200.0
1999-08-31,294600.0
1999-07-31,286800.0
1999-06-30,281000.0
1999-05-31,275400.0
1999-04-30,268200.0
1999-03-31,261700.0
1999-02-28,256000.0
1999-01-31,248600.0
1998-12-31,242800.0
1998-11-30,239700.0
1998-10-31,236000.0
1998-09-30,229900.0
1998-08-31,225000.0
1998-07-31,221700.0
1998-06-30,219800.0
1998-05-31,217500.0
1998-04-30,217100.0
1998-03-31,217600.0
1998-02-28,216700.0
1998-01-31,215500.0
1997-12-31,217500.0
1997-11-30,220800.0
1997-10-31,222400.0
1997-09-30,225400.0
1997-08-31,229100.0
1997-07-31,229600.0
1997-06-30,230700.0
1997-05-31,234000.0
1997-04-30,236400.0
1997-03-31,239200.0
1997-02-28,242600.0
1997-01-31,244400.0
1996-12-31,246500.0
1996-11-30,248600.0
1996-10-31,251100.0
1996-09-30,253100.0
1996-08-31,254900.0
1996-07-31,254600.0
1996-06-30,254500.0
1996-05-31,252500.0
1996-04-30,249900.0
