Date,Value
2015-09-30,0.772
2015-08-31,0.742
2015-07-31,0.724
2015-06-30,0.734
2015-05-31,0.756
2015-04-30,0.772
2015-03-31,0.778
2015-02-28,0.774
2015-01-31,0.766
2014-12-31,0.77
2014-11-30,0.77
2014-10-31,0.764
2014-09-30,0.748
2014-08-31,0.73
2014-07-31,0.714
2014-06-30,0.716
2014-05-31,0.748
2014-04-30,0.782
2014-03-31,0.798
2014-02-28,0.782
2014-01-31,0.76
2013-12-31,0.748
2013-11-30,0.744
2013-10-31,0.746
2013-09-30,0.74
2013-08-31,0.738
2013-07-31,0.73
2013-06-30,0.738
2013-05-31,0.734
2013-04-30,0.742
2013-03-31,0.738
2013-02-28,0.742
2013-01-31,0.738
2012-12-31,0.744
2012-11-30,0.756
2012-10-31,0.764
2012-09-30,0.762
2012-08-31,0.77
2012-07-31,0.79
2012-06-30,0.808
2012-05-31,0.788
2012-04-30,0.76
2012-03-31,0.738
2012-02-29,0.74
2012-01-31,0.74
2011-12-31,0.748
2011-11-30,0.76
2011-10-31,0.774
2011-09-30,0.806
2011-08-31,0.83
2011-07-31,0.842
2011-06-30,0.822
2011-05-31,0.826
2011-04-30,0.83
2011-03-31,0.858
2011-02-28,0.884
2011-01-31,0.918
2010-12-31,0.932
2010-11-30,0.93
