Date,Value
2015-02-28,279900.0
2015-01-31,285500.0
2014-12-31,289000.0
2014-11-30,289900.0
2014-10-31,296900.0
2014-09-30,300000.0
2014-08-31,304870.0
2014-07-31,302060.0
2014-06-30,297565.0
2014-05-31,279900.0
2014-04-30,269900.0
2014-03-31,275000.0
2014-02-28,284000.0
2014-01-31,280000.0
2013-12-31,275000.0
2013-11-30,266099.0
2013-10-31,275000.0
2013-09-30,277620.0
2013-08-31,289900.0
2013-07-31,292493.0
2013-06-30,279900.0
2013-05-31,260000.0
2013-04-30,263000.0
2013-03-31,243900.0
2013-02-28,221900.0
2013-01-31,220000.0
2012-12-31,225000.0
2012-11-30,225000.0
2012-10-31,225000.0
2012-09-30,242000.0
2012-08-31,259900.0
2012-07-31,250000.0
2012-06-30,259000.0
2012-05-31,264900.0
2012-04-30,275000.0
2012-03-31,264900.0
2012-02-29,257000.0
2012-01-31,274000.0
2011-12-31,249900.0
2011-11-30,260000.0
2011-10-31,245900.0
2011-09-30,250000.0
2011-08-31,249000.0
2011-07-31,245900.0
2011-06-30,242900.0
2011-05-31,244900.0
2011-04-30,243000.0
2011-03-31,245298.0
2011-02-28,245000.0
2011-01-31,246934.0
2010-12-31,243000.0
2010-11-30,245298.0
2010-10-31,248979.0
2010-09-30,250000.0
2010-08-31,255000.0
2010-07-31,264900.0
2010-06-30,254900.0
2010-05-31,259900.0
2010-04-30,259900.0
2010-03-31,249900.0
2010-02-28,259900.0
2010-01-31,259900.0
2009-12-31,269900.0
2009-11-30,289900.0
2009-10-31,275000.0
2009-09-30,275000.0
2009-08-31,289900.0
2009-07-31,282000.0
2009-06-30,282900.0
2009-05-31,261900.0
2009-04-30,289900.0
2009-03-31,289000.0
2009-02-28,290000.0
2009-01-31,299900.0
2008-12-31,299900.0
2008-11-30,320000.0
2008-10-31,325000.0
