Date,Value
2015-06-30,232215.0
2015-04-30,220540.0
2015-03-31,235425.0
2015-02-28,221600.0
2015-01-31,239245.0
2014-12-31,214005.0
2014-11-30,205150.0
2014-10-31,218500.0
2014-09-30,221550.0
2014-08-31,215100.0
2014-07-31,213600.0
2014-06-30,228850.0
2014-05-31,220300.0
2014-04-30,230150.0
2014-03-31,211700.0
2014-02-28,206985.0
2014-01-31,202865.0
2013-12-31,216150.0
2013-11-30,203635.0
2013-10-31,195215.0
2013-09-30,196192.5
2013-08-31,208457.5
2013-07-31,223600.0
2013-06-30,224150.0
2013-05-31,220750.0
2013-04-30,210750.0
2013-03-31,204200.0
2013-02-28,175941.1765
2013-01-31,178438.4615
2012-11-30,195250.0
2012-10-31,167600.0
2012-09-30,179800.0
2012-08-31,202490.4
2012-07-31,209527.6
2012-06-30,229718.0
2012-05-31,197550.0
2012-04-30,167700.0
2012-03-31,151250.0
2012-02-29,168350.0
2012-01-31,174150.0
2011-12-31,198425.0
2011-11-30,227450.0
2011-10-31,218687.5
2011-09-30,178687.5
2011-08-31,185175.0
2011-07-31,203700.0
2011-06-30,202585.0
2011-05-31,183990.0
2011-04-30,194975.0
2011-03-31,194000.0
2011-02-28,192307.6923
2010-12-31,182800.0
2010-11-30,202700.0
2010-10-31,221000.0
2010-09-30,215250.0
2010-08-31,217735.0
2010-07-31,218465.0
2010-06-30,205110.0
2010-05-31,230525.0
2010-04-30,236076.4706
2010-03-31,207153.8462
2010-01-31,211450.0
2009-12-31,213425.0
2009-11-30,185125.0
2009-10-31,189185.0
2009-09-30,195465.0
2009-08-31,201810.0
2009-07-31,189825.0
