Date,Value
2015-02-28,325000.0
2015-01-31,365000.0
2014-12-31,325000.0
2014-11-30,185000.0
2014-10-31,325000.0
2014-09-30,189500.0
2014-08-31,189500.0
2014-07-31,224750.0
2014-06-30,295000.0
2014-05-31,279000.0
2014-04-30,279000.0
2014-03-31,279000.0
2014-01-31,350000.0
2013-11-30,350000.0
2013-10-31,224000.0
2013-09-30,225000.0
2013-08-31,229000.0
2013-07-31,229000.0
2013-06-30,232500.0
2013-05-31,239000.0
2013-04-30,239000.0
2012-11-30,185000.0
2012-10-31,125000.0
2012-09-30,175500.0
2012-08-31,175500.0
2012-07-31,169000.0
2011-06-30,189900.0
