Date,Value
2015-09-30,1.118
2014-12-31,0.692
2014-11-30,0.692
2014-10-31,0.696
2014-09-30,0.696
2014-08-31,0.692
2014-07-31,0.686
2014-06-30,0.678
2014-05-31,0.678
2014-04-30,0.674
2014-03-31,0.672
2014-02-28,0.668
2014-01-31,0.662
2013-12-31,0.658
2013-11-30,0.654
2013-10-31,0.656
2013-09-30,0.654
2013-08-31,0.652
2013-07-31,0.652
2013-06-30,0.652
2013-05-31,0.656
2013-04-30,0.664
2013-03-31,0.672
2013-02-28,0.672
2013-01-31,0.668
2012-12-31,0.658
2012-11-30,0.652
2012-10-31,0.652
2012-09-30,0.65
2012-08-31,0.65
2012-07-31,0.654
2012-06-30,0.654
2012-05-31,0.642
2012-04-30,0.626
2012-03-31,0.618
2012-02-29,0.618
2012-01-31,0.62
2011-12-31,0.62
2011-11-30,0.62
2011-10-31,0.616
2011-09-30,0.61
2011-08-31,0.606
2011-07-31,0.604
2011-06-30,0.604
2011-05-31,0.606
2011-04-30,0.61
2011-03-31,0.608
2011-02-28,0.606
2011-01-31,0.608
2010-12-31,0.616
2010-11-30,0.618
