Date,Value
2014-09-30,1650.0
2014-06-30,1525.0
2014-05-31,1525.0
2014-04-30,1525.0
2014-03-31,1650.0
2014-02-28,1600.0
2014-01-31,1695.0
2013-12-31,1700.0
2013-11-30,1650.0
2013-08-31,1575.0
2013-07-31,1500.0
2013-06-30,1495.0
2013-05-31,1200.0
2013-04-30,1495.0
2012-10-31,1300.0
2012-07-31,1600.0
2012-06-30,1595.0
2012-05-31,1500.0
2012-04-30,1495.0
2012-03-31,1500.0
2011-04-30,1450.0
2011-03-31,1450.0
