Date,Value
2015-08-31,2600.0
2015-07-31,2597.0
2015-06-30,2085.0
2015-05-31,1959.0
2015-04-30,1964.0
2015-03-31,1995.0
2015-02-28,1992.0
2015-01-31,1979.0
2014-12-31,1915.0
2014-11-30,1995.0
2014-10-31,1900.0
2014-09-30,1914.0
2014-08-31,1995.0
2014-07-31,2000.0
2014-06-30,1870.0
2014-05-31,1850.0
2014-04-30,1760.0
2014-03-31,1790.0
2014-02-28,1750.0
2014-01-31,1720.0
2013-12-31,1745.0
2013-11-30,1775.0
2013-10-31,1799.0
2013-09-30,1801.0
2013-08-31,1800.0
2013-07-31,1765.0
2013-06-30,1705.0
2013-05-31,1700.0
2013-04-30,1738.0
2013-03-31,1700.0
2013-02-28,1662.0
2013-01-31,1595.0
2012-12-31,1615.0
2012-11-30,1615.0
2012-10-31,1625.0
2012-09-30,1600.0
2012-08-31,1615.0
2012-07-31,1625.0
2012-06-30,1595.0
2012-05-31,1507.0
2012-04-30,1500.0
2012-03-31,1490.0
2012-02-29,1474.0
2012-01-31,1750.0
2011-12-31,1795.0
2011-11-30,1695.0
2011-10-31,1750.0
2011-09-30,1795.0
2011-08-31,1795.0
2011-07-31,1895.0
2011-06-30,1985.0
2011-05-31,1795.0
2011-04-30,1500.0
2011-03-31,1465.0
2011-02-28,1455.0
2011-01-31,1485.0
2010-12-31,1525.0
2010-11-30,1440.0
2010-10-31,1415.0
2010-09-30,1415.0
2010-08-31,1395.0
2010-07-31,1700.0
2010-06-30,1499.0
2010-05-31,1750.0
2010-04-30,1775.0
2010-03-31,1795.0
2010-02-28,1300.0
