Date,Value
2015-02-28,278000.0
2015-01-31,275000.0
2014-12-31,279000.0
2014-11-30,260000.0
2014-10-31,224900.0
2014-09-30,219900.0
2014-08-31,184900.0
2014-07-31,159900.0
2014-06-30,170000.0
2014-05-31,149900.0
2014-04-30,149900.0
2014-03-31,144900.0
2014-02-28,139900.0
2014-01-31,139900.0
2013-12-31,249900.0
2013-11-30,197000.0
2013-10-31,137500.0
2013-09-30,144900.0
2013-08-31,149940.0
2013-07-31,149940.0
2013-06-30,169000.0
2013-05-31,210000.0
2013-04-30,210000.0
2013-03-31,164500.0
2013-02-28,197000.0
2013-01-31,197000.0
2012-12-31,197000.0
2012-11-30,197000.0
2012-10-31,179000.0
2012-09-30,197000.0
2012-08-31,176900.0
2012-07-31,182900.0
2012-06-30,149900.0
2012-05-31,204999.0
2012-04-30,179500.0
2012-03-31,189500.0
2012-02-29,189900.0
2012-01-31,139900.0
2011-12-31,169900.0
2011-11-30,149900.0
2011-10-31,263900.0
2011-09-30,215000.0
2011-08-31,263900.0
2011-07-31,244900.0
2011-06-30,239000.0
2011-05-31,239000.0
2011-04-30,263900.0
2011-03-31,210000.0
2011-02-28,249000.0
2011-01-31,199900.0
2010-12-31,239900.0
2010-11-30,191900.0
2010-10-31,187000.0
2010-09-30,197000.0
2010-08-31,177500.0
2010-07-31,157900.0
2010-06-30,139900.0
2010-05-31,145500.0
2010-04-30,157900.0
2010-03-31,157900.0
2010-02-28,170000.0
2010-01-31,154500.0
2009-12-31,179900.0
2009-11-30,175000.0
2009-10-31,190000.0
2009-09-30,195000.0
2009-08-31,220000.0
2009-07-31,240000.0
2009-06-30,240000.0
2009-05-31,267875.0
2009-04-30,269900.0
2009-03-31,267900.0
2009-02-28,269900.0
2009-01-31,279900.0
2008-12-31,267800.0
2008-11-30,214000.0
2008-10-31,199900.0
