Date,Value
2015-09-30,104000.0
2015-08-31,102700.0
2015-07-31,102200.0
2015-06-30,102700.0
2015-05-31,102200.0
2015-04-30,101100.0
2015-03-31,101600.0
2015-02-28,101500.0
2015-01-31,99500.0
2014-12-31,99100.0
2014-11-30,98500.0
2014-10-31,98500.0
2014-09-30,98900.0
2014-08-31,99600.0
2014-07-31,100100.0
2014-06-30,101100.0
2014-05-31,102000.0
2014-04-30,103300.0
2014-03-31,104300.0
2014-02-28,104200.0
2014-01-31,103500.0
2013-12-31,102900.0
2013-11-30,102200.0
2013-10-31,101400.0
2013-09-30,100700.0
2013-08-31,99900.0
2013-07-31,99700.0
2013-06-30,99400.0
2013-05-31,98900.0
2013-04-30,98000.0
2013-03-31,97600.0
2013-02-28,98100.0
2013-01-31,99100.0
2012-12-31,100000.0
2012-11-30,101300.0
2012-10-31,102600.0
2012-09-30,102900.0
2012-08-31,102300.0
2012-07-31,101900.0
2012-06-30,101800.0
2012-05-31,101700.0
2012-04-30,101700.0
2012-03-31,101400.0
2012-02-29,100400.0
2012-01-31,99800.0
2011-12-31,99500.0
2011-11-30,99400.0
2011-10-31,99400.0
2011-09-30,99600.0
2011-08-31,100200.0
2011-07-31,101200.0
2011-06-30,102500.0
2011-05-31,103600.0
2011-04-30,103500.0
2011-03-31,103200.0
2011-02-28,103300.0
2011-01-31,103700.0
2010-12-31,103900.0
2010-11-30,103800.0
2010-10-31,103500.0
2010-09-30,103800.0
2010-08-31,104000.0
2010-07-31,104000.0
2010-06-30,103800.0
2010-05-31,103700.0
2010-04-30,103600.0
2010-03-31,103400.0
2010-02-28,102700.0
2010-01-31,102000.0
2009-12-31,101300.0
2009-11-30,101200.0
2009-10-31,101700.0
2009-09-30,102200.0
2009-08-31,102400.0
2009-07-31,102200.0
2009-06-30,101900.0
2009-05-31,102100.0
2009-04-30,102600.0
2009-03-31,102600.0
2009-02-28,102600.0
2009-01-31,103400.0
2008-12-31,104100.0
2008-11-30,104200.0
2008-10-31,103300.0
2008-09-30,102300.0
2008-08-31,102700.0
2008-07-31,103300.0
2008-06-30,102900.0
2008-05-31,102100.0
2008-04-30,102100.0
2008-03-31,102800.0
2008-02-29,103200.0
2008-01-31,102700.0
2007-12-31,102300.0
2007-11-30,102600.0
2007-10-31,103100.0
2007-09-30,103700.0
2007-08-31,103600.0
2007-07-31,103000.0
2007-06-30,102200.0
2007-05-31,100700.0
2007-04-30,99100.0
2007-03-31,98300.0
2007-02-28,98200.0
2007-01-31,98300.0
2006-12-31,98500.0
2006-11-30,98400.0
2006-10-31,97600.0
2006-09-30,96400.0
2006-08-31,95400.0
2006-07-31,94400.0
2006-06-30,93600.0
2006-05-31,94000.0
2006-04-30,94500.0
2006-03-31,94800.0
2006-02-28,95100.0
2006-01-31,95100.0
2005-12-31,94600.0
2005-11-30,94200.0
2005-10-31,93800.0
2005-09-30,93200.0
2005-08-31,92200.0
2005-07-31,91400.0
2005-06-30,90700.0
2005-05-31,89600.0
2005-04-30,88600.0
2005-03-31,88300.0
2005-02-28,88200.0
2005-01-31,88100.0
2004-12-31,87900.0
2004-11-30,87700.0
2004-10-31,87700.0
2004-09-30,88000.0
2004-08-31,88500.0
2004-07-31,89300.0
2004-06-30,90400.0
2004-05-31,91200.0
2004-04-30,91200.0
2004-03-31,90800.0
2004-02-29,90200.0
2004-01-31,89800.0
2003-12-31,89200.0
2003-11-30,88200.0
2003-10-31,87200.0
2003-09-30,86500.0
2003-08-31,85700.0
2003-07-31,85000.0
2003-06-30,84500.0
2003-05-31,84600.0
2003-04-30,85300.0
2003-03-31,85500.0
2003-02-28,85200.0
2003-01-31,84800.0
2002-12-31,85000.0
2002-11-30,85400.0
2002-10-31,85600.0
2002-09-30,85700.0
2002-08-31,85900.0
2002-07-31,85400.0
2002-06-30,84500.0
2002-05-31,83800.0
2002-04-30,82900.0
2002-03-31,81700.0
2002-02-28,80400.0
2002-01-31,79700.0
2001-12-31,79100.0
2001-11-30,78200.0
2001-10-31,77900.0
2001-09-30,78000.0
2001-08-31,78000.0
2001-07-31,78000.0
2001-06-30,78800.0
2001-05-31,79600.0
2001-04-30,79800.0
2001-03-31,79800.0
2001-02-28,79700.0
2001-01-31,79000.0
2000-12-31,78300.0
2000-11-30,78200.0
2000-10-31,78400.0
2000-09-30,78400.0
2000-08-31,78600.0
2000-07-31,78800.0
2000-06-30,78800.0
2000-05-31,78200.0
2000-04-30,78000.0
2000-03-31,78100.0
2000-02-29,78600.0
2000-01-31,78900.0
1999-12-31,78800.0
1999-11-30,78900.0
1999-10-31,79200.0
1999-09-30,79100.0
1999-08-31,78500.0
1999-07-31,78100.0
1999-06-30,78100.0
1999-05-31,78100.0
1999-04-30,77600.0
1999-03-31,77300.0
1999-02-28,77400.0
1999-01-31,77700.0
1998-12-31,78300.0
1998-11-30,78600.0
1998-10-31,78300.0
1998-09-30,77900.0
1998-08-31,77600.0
1998-07-31,77000.0
1998-06-30,76000.0
1998-05-31,75200.0
1998-04-30,74800.0
1998-03-31,74500.0
1998-02-28,74200.0
1998-01-31,74200.0
1997-12-31,73900.0
1997-11-30,73500.0
1997-10-31,73500.0
1997-09-30,73800.0
1997-08-31,74200.0
1997-07-31,74800.0
1997-06-30,75400.0
1997-05-31,75800.0
1997-04-30,75900.0
1997-03-31,76000.0
1997-02-28,75700.0
1997-01-31,74800.0
1996-12-31,74000.0
1996-11-30,73700.0
1996-10-31,73200.0
1996-09-30,72500.0
1996-08-31,71900.0
1996-07-31,71700.0
1996-06-30,71200.0
1996-05-31,70500.0
1996-04-30,70000.0
