Date,Value
2015-09-30,375000.0
2015-08-31,358597.5
2015-07-31,366577.5
2015-06-30,363900.0
2015-05-31,365350.0
2015-04-30,351517.5
2015-03-31,338732.5
2015-02-28,334520.0
2015-01-31,333600.0
2014-12-31,331000.0
2014-11-30,338800.0
2014-10-31,347192.5
2014-09-30,342982.5
2014-08-31,341400.0
2014-07-31,330175.0
2014-06-30,331142.5
2014-05-31,328232.5
2014-04-30,345517.0
2014-03-31,338632.5
2014-02-28,346005.0
2014-01-31,337480.0
2013-12-31,333737.5
2013-11-30,328755.0
2013-10-31,344863.0
2013-09-30,342157.0
2013-08-31,344148.0
2013-07-31,350085.5
2013-06-30,342382.0
2013-05-31,347717.5
2013-04-30,325725.0
2013-03-31,312534.5
2013-02-28,293872.5
2013-01-31,300763.0
2012-12-31,308043.75
2012-11-30,301100.75
2012-10-31,298277.5
2012-09-30,292113.0
2012-08-31,277881.75
2012-07-31,277830.75
2012-06-30,279581.85
2012-05-31,277130.15
2012-04-30,268701.5
2012-03-31,270925.75
2012-02-29,266169.25
2012-01-31,269498.0
2011-12-31,261232.5
2011-11-30,262890.2
2011-10-31,278568.9
2011-09-30,286630.9
2011-08-31,277010.35
2011-07-31,269632.5
2011-06-30,255617.25
2011-05-31,258442.5
2011-04-30,255925.0
2011-03-31,265892.0
2011-02-28,263890.0
2011-01-31,260580.5
2010-12-31,262632.5
2010-11-30,261482.4
2010-10-31,273487.5
2010-09-30,274982.5
2010-08-31,269967.5
2010-07-31,272232.5
2010-06-30,275050.0
2010-05-31,290267.0
2010-04-30,297947.25
2010-03-31,286648.7
2010-02-28,274687.8
2010-01-31,286449.0
2009-12-31,317495.75
2009-11-30,300732.5
2009-10-31,301715.0
2009-09-30,302625.0
2009-08-31,304465.0
2009-07-31,313300.0
2009-06-30,321650.0
2009-05-31,315542.0
2009-04-30,323098.0
2009-03-31,342490.0
2009-02-28,342000.0
2009-01-31,330850.0
2008-12-31,350300.0
2008-11-30,345350.0
2008-10-31,353900.0
2008-09-30,358500.0
2008-08-31,363750.0
2008-07-31,374725.0
2008-06-30,382775.0
2008-05-31,376750.0
2008-04-30,381092.0
2008-03-31,379348.0
2008-02-29,383440.0
2008-01-31,381650.0
2007-12-31,376000.0
2007-11-30,375750.0
2007-10-31,384742.5
2007-09-30,390382.5
2007-08-31,397925.0
2007-07-31,396650.0
2007-06-30,398750.0
2007-05-31,378100.0
2007-04-30,377892.5
2007-03-31,379432.5
2007-02-28,374675.0
2007-01-31,368592.5
2006-12-31,377975.0
2006-11-30,398934.5
2006-10-31,398788.0
2006-09-30,399765.0
2006-08-31,402325.0
2006-07-31,391550.0
2006-06-30,379600.0
2006-05-31,375642.5
2006-04-30,377482.5
2006-03-31,376975.0
2006-02-28,376529.75
2006-01-31,358733.25
2005-12-31,347576.8
2005-11-30,347461.2
2005-10-31,344041.75
2005-09-30,337076.75
2005-08-31,325752.5
2005-07-31,314235.0
2005-06-30,308207.5
2005-05-31,305932.5
2005-04-30,307154.5
2005-03-31,302378.0
2005-02-28,297572.5
2005-01-31,279792.5
2004-12-31,277090.05
2004-11-30,276175.95
2004-10-31,274251.0
2004-09-30,274357.5
2004-08-31,271800.0
2004-07-31,269675.0
2004-06-30,267525.0
2004-05-31,270292.5
2004-04-30,269682.5
2004-03-31,252250.0
2004-02-29,244342.35
2004-01-31,240107.15
2003-12-31,241024.5
2003-11-30,234292.5
2003-10-31,240832.5
2003-09-30,242075.0
2003-08-31,244650.0
2003-07-31,247800.6
2003-06-30,248051.4
2003-05-31,237752.0
2003-04-30,233748.75
2003-03-31,226663.75
2003-02-28,234862.5
2003-01-31,239000.0
2002-12-31,231800.0
2002-11-30,228175.0
2002-10-31,226225.0
2002-09-30,229975.0
2002-08-31,238309.4
2002-07-31,233313.6
2002-06-30,237923.0
2002-05-31,233217.5
2002-04-30,222482.5
2002-03-31,217737.5
2002-02-28,220455.0
2002-01-31,218722.5
2001-12-31,215002.5
2001-11-30,213325.0
2001-10-31,219707.5
2001-09-30,223667.5
2001-08-31,229089.9
2001-07-31,233278.1
2001-06-30,232205.5
2001-05-31,229832.5
2001-04-30,226047.5
2001-03-31,225761.95
2001-02-28,220914.55
2001-01-31,218556.5
2000-12-31,215482.0
2000-11-30,215408.0
2000-10-31,225840.0
2000-09-30,223450.0
2000-08-31,217975.0
2000-07-31,214350.6
2000-06-30,220418.6
2000-05-31,217545.35
2000-04-30,216281.95
2000-03-31,210977.5
2000-02-29,202770.0
2000-01-31,200185.0
1999-12-31,205957.5
1999-11-30,198882.5
1999-10-31,198344.15
1999-09-30,198261.35
1999-08-31,203422.4
1999-07-31,202531.1
1999-06-30,204873.0
1999-05-31,202178.8
1999-04-30,195917.2
1999-03-31,190559.05
1999-02-28,182180.45
1999-01-31,190943.5
1998-12-31,181625.0
1998-11-30,189567.5
1998-10-31,188125.0
1998-09-30,187607.5
1998-08-31,182825.0
1998-07-31,185670.0
1998-06-30,182061.8
1998-05-31,184191.4
1998-04-30,179955.3
1998-03-31,175456.5
1998-02-28,169650.0
1998-01-31,170750.0
1997-12-31,174560.0
1997-11-30,172062.35
1997-10-31,175419.65
1997-09-30,179607.0
1997-08-31,176374.0
1997-07-31,180778.8
1997-06-30,174783.2
1997-05-31,165610.4
1997-04-30,166738.6
1997-03-31,174548.0
1997-02-28,171175.0
1997-01-31,164717.5
1996-12-31,155882.5
1996-11-30,156308.0
1996-10-31,161519.5
1996-09-30,167976.75
1996-08-31,167177.3
1996-07-31,163864.45
1996-06-30,161831.0
1996-05-31,162465.0
1996-04-30,160950.0
