Date,Value
2014-12-31,150000.0
2014-05-31,120000.0
2013-12-31,112941.1765
2013-11-30,110000.0
2013-08-31,127058.8235
2013-07-31,130000.0
2013-04-30,78464.0
2012-12-31,145000.0
2012-08-31,128000.0
2011-09-30,136538.4615
2011-07-31,165000.0
