Date,Value
2015-09-30,187000.0
2015-08-31,185300.0
2015-07-31,185900.0
2015-06-30,187000.0
2015-05-31,185600.0
2015-04-30,183200.0
2015-03-31,183100.0
2015-02-28,181500.0
2015-01-31,178500.0
2014-12-31,178700.0
2014-11-30,178600.0
2014-10-31,178100.0
2014-09-30,177900.0
2014-08-31,177800.0
2014-07-31,177600.0
2014-06-30,177700.0
2014-05-31,178300.0
2014-04-30,178800.0
2014-03-31,178700.0
2014-02-28,178500.0
2014-01-31,178300.0
2013-12-31,177600.0
2013-11-30,177000.0
2013-10-31,177300.0
2013-09-30,177900.0
2013-08-31,178100.0
2013-07-31,177600.0
2013-06-30,176800.0
2013-05-31,175900.0
2013-04-30,175500.0
2013-03-31,175500.0
2013-02-28,175600.0
2013-01-31,175300.0
2012-12-31,175100.0
2012-11-30,175600.0
2012-10-31,176200.0
2012-09-30,175900.0
2012-08-31,175000.0
2012-07-31,174500.0
2012-06-30,174600.0
2012-05-31,174900.0
2012-04-30,175100.0
2012-03-31,175000.0
2012-02-29,174600.0
2012-01-31,173900.0
2011-12-31,173200.0
2011-11-30,172500.0
2011-10-31,171500.0
2011-09-30,170400.0
2011-08-31,169900.0
2011-07-31,170200.0
2011-06-30,170900.0
2011-05-31,170800.0
2011-04-30,170100.0
2011-03-31,169700.0
2011-02-28,170300.0
2011-01-31,171700.0
2010-12-31,172400.0
2010-11-30,172100.0
2010-10-31,172100.0
2010-09-30,172800.0
2010-08-31,173500.0
2010-07-31,174300.0
2010-06-30,175300.0
2010-05-31,176200.0
2010-04-30,176100.0
2010-03-31,175600.0
2010-02-28,174700.0
2010-01-31,173700.0
2009-12-31,173300.0
2009-11-30,173800.0
2009-10-31,174600.0
2009-09-30,175400.0
2009-08-31,176300.0
2009-07-31,177300.0
2009-06-30,177800.0
2009-05-31,177800.0
2009-04-30,178400.0
2009-03-31,179100.0
2009-02-28,179900.0
2009-01-31,181000.0
2008-12-31,182200.0
2008-11-30,182900.0
2008-10-31,183100.0
2008-09-30,183200.0
2008-08-31,183800.0
2008-07-31,184100.0
2008-06-30,183700.0
2008-05-31,183300.0
2008-04-30,183200.0
2008-03-31,183100.0
2008-02-29,183200.0
2008-01-31,182800.0
2007-12-31,182600.0
2007-11-30,183100.0
2007-10-31,184200.0
2007-09-30,184900.0
2007-08-31,185300.0
2007-07-31,184800.0
2007-06-30,184000.0
2007-05-31,183000.0
2007-04-30,182400.0
2007-03-31,182300.0
2007-02-28,181700.0
2007-01-31,180600.0
2006-12-31,179600.0
2006-11-30,177900.0
2006-10-31,175400.0
2006-09-30,173100.0
2006-08-31,170900.0
2006-07-31,168200.0
2006-06-30,165600.0
2006-05-31,163600.0
2006-04-30,161800.0
2006-03-31,160500.0
2006-02-28,159700.0
2006-01-31,159000.0
2005-12-31,157600.0
2005-11-30,155800.0
2005-10-31,153800.0
2005-09-30,151400.0
2005-08-31,149500.0
2005-07-31,148800.0
2005-06-30,148600.0
2005-05-31,148400.0
2005-04-30,147900.0
2005-03-31,147700.0
2005-02-28,147800.0
2005-01-31,147900.0
2004-12-31,148000.0
2004-11-30,148600.0
2004-10-31,149400.0
2004-09-30,150000.0
2004-08-31,150200.0
2004-07-31,150200.0
2004-06-30,149600.0
2004-05-31,149600.0
2004-04-30,150100.0
2004-03-31,149800.0
2004-02-29,148400.0
2004-01-31,147100.0
2003-12-31,146200.0
2003-11-30,145000.0
2003-10-31,144000.0
2003-09-30,143200.0
2003-08-31,141600.0
2003-07-31,139900.0
2003-06-30,139100.0
2003-05-31,138600.0
2003-04-30,138000.0
2003-03-31,137600.0
2003-02-28,137400.0
2003-01-31,137000.0
2002-12-31,137100.0
2002-11-30,136700.0
2002-10-31,135400.0
2002-09-30,134200.0
2002-08-31,133900.0
2002-07-31,133600.0
2002-06-30,132700.0
2002-05-31,131400.0
2002-04-30,130000.0
2002-03-31,128400.0
2002-02-28,127000.0
2002-01-31,126500.0
2001-12-31,126100.0
2001-11-30,125700.0
2001-10-31,126200.0
2001-09-30,127300.0
2001-08-31,128200.0
2001-07-31,128800.0
2001-06-30,130300.0
2001-05-31,131500.0
2001-04-30,131900.0
2001-03-31,131300.0
2001-02-28,130900.0
2001-01-31,130300.0
2000-12-31,129500.0
2000-11-30,128800.0
2000-10-31,128300.0
2000-09-30,127800.0
2000-08-31,127300.0
2000-07-31,126900.0
2000-06-30,126400.0
2000-05-31,125900.0
2000-04-30,125700.0
2000-03-31,125800.0
2000-02-29,125800.0
2000-01-31,125700.0
1999-12-31,126100.0
1999-11-30,127000.0
1999-10-31,127700.0
1999-09-30,127800.0
1999-08-31,127900.0
1999-07-31,127800.0
1999-06-30,127500.0
1999-05-31,127200.0
1999-04-30,126800.0
1999-03-31,126300.0
1999-02-28,126500.0
1999-01-31,127100.0
1998-12-31,127000.0
1998-11-30,126500.0
1998-10-31,126200.0
1998-09-30,126300.0
1998-08-31,126500.0
1998-07-31,127000.0
1998-06-30,127000.0
1998-05-31,126200.0
1998-04-30,125200.0
1998-03-31,124700.0
1998-02-28,124600.0
1998-01-31,124400.0
1997-12-31,124200.0
1997-11-30,123800.0
1997-10-31,123300.0
1997-09-30,122900.0
1997-08-31,122600.0
1997-07-31,122000.0
1997-06-30,121200.0
1997-05-31,120800.0
1997-04-30,120200.0
1997-03-31,119300.0
1997-02-28,118700.0
1997-01-31,118300.0
1996-12-31,117700.0
1996-11-30,117400.0
1996-10-31,118000.0
1996-09-30,118300.0
1996-08-31,118800.0
1996-07-31,120000.0
1996-06-30,121200.0
1996-05-31,122800.0
1996-04-30,125100.0
