Date,Value
2015-09-30,292100.0
2015-08-31,289200.0
2015-07-31,286400.0
2015-06-30,288200.0
2015-05-31,287600.0
2015-04-30,283300.0
2015-03-31,276900.0
2015-02-28,274400.0
2015-01-31,271000.0
2014-12-31,269300.0
2014-11-30,267100.0
2014-10-31,265200.0
2014-09-30,263700.0
2014-08-31,262500.0
2014-07-31,261600.0
2014-06-30,261200.0
2014-05-31,260900.0
2014-04-30,259400.0
2014-03-31,256300.0
2014-02-28,254000.0
2014-01-31,253200.0
2013-12-31,252300.0
2013-11-30,250500.0
2013-10-31,248100.0
2013-09-30,244700.0
2013-08-31,241500.0
2013-07-31,240000.0
2013-06-30,239200.0
2013-05-31,237600.0
2013-04-30,235200.0
2013-03-31,232200.0
2013-02-28,228600.0
2013-01-31,225200.0
2012-12-31,222600.0
2012-11-30,220600.0
2012-10-31,219200.0
2012-09-30,218100.0
2012-08-31,217000.0
2012-07-31,214800.0
2012-06-30,211900.0
2012-05-31,208800.0
2012-04-30,207300.0
2012-03-31,207000.0
2012-02-29,207000.0
2012-01-31,206700.0
2011-12-31,206800.0
2011-11-30,207100.0
2011-10-31,207500.0
2011-09-30,208400.0
2011-08-31,209900.0
2011-07-31,211900.0
2011-06-30,213500.0
2011-05-31,214500.0
2011-04-30,215200.0
2011-03-31,217100.0
2011-02-28,219800.0
2011-01-31,222100.0
2010-12-31,224400.0
2010-11-30,227200.0
2010-10-31,229600.0
2010-09-30,232700.0
2010-08-31,236900.0
2010-07-31,240400.0
2010-06-30,242500.0
2010-05-31,243900.0
2010-04-30,244700.0
2010-03-31,246000.0
2010-02-28,247900.0
2010-01-31,249300.0
2009-12-31,249500.0
2009-11-30,249900.0
2009-10-31,251000.0
2009-09-30,251900.0
2009-08-31,252400.0
2009-07-31,253500.0
2009-06-30,255400.0
2009-05-31,258300.0
2009-04-30,262600.0
2009-03-31,267400.0
2009-02-28,271300.0
2009-01-31,275000.0
2008-12-31,278400.0
2008-11-30,281500.0
2008-10-31,284500.0
2008-09-30,287300.0
2008-08-31,289200.0
2008-07-31,290600.0
2008-06-30,292500.0
2008-05-31,295500.0
2008-04-30,298400.0
2008-03-31,300100.0
2008-02-29,301700.0
2008-01-31,304500.0
2007-12-31,308000.0
2007-11-30,311500.0
2007-10-31,314800.0
2007-09-30,317400.0
2007-08-31,319400.0
2007-07-31,321200.0
2007-06-30,322300.0
2007-05-31,322700.0
2007-04-30,322800.0
2007-03-31,322200.0
2007-02-28,321300.0
2007-01-31,320400.0
2006-12-31,319500.0
2006-11-30,318300.0
2006-10-31,316800.0
2006-09-30,314500.0
2006-08-31,311300.0
2006-07-31,307900.0
2006-06-30,304600.0
2006-05-31,301400.0
2006-04-30,298100.0
2006-03-31,294900.0
2006-02-28,291200.0
2006-01-31,287200.0
2005-12-31,283400.0
2005-11-30,279900.0
2005-10-31,276200.0
2005-09-30,272400.0
2005-08-31,268700.0
2005-07-31,265400.0
2005-06-30,262300.0
2005-05-31,258700.0
2005-04-30,254700.0
2005-03-31,251200.0
2005-02-28,248200.0
2005-01-31,244900.0
2004-12-31,241800.0
2004-11-30,238600.0
2004-10-31,235200.0
2004-09-30,232100.0
2004-08-31,229700.0
2004-07-31,227500.0
2004-06-30,225700.0
2004-05-31,223800.0
2004-04-30,221900.0
2004-03-31,220200.0
2004-02-29,218800.0
2004-01-31,217500.0
2003-12-31,216200.0
2003-11-30,214600.0
2003-10-31,212900.0
2003-09-30,211600.0
2003-08-31,210600.0
2003-07-31,209000.0
2003-06-30,207700.0
2003-05-31,207400.0
2003-04-30,206900.0
2003-03-31,206000.0
2003-02-28,205400.0
2003-01-31,205000.0
2002-12-31,204300.0
2002-11-30,203600.0
2002-10-31,203300.0
2002-09-30,203300.0
2002-08-31,203200.0
2002-07-31,202700.0
2002-06-30,201700.0
2002-05-31,200700.0
2002-04-30,200100.0
2002-03-31,199400.0
2002-02-28,198000.0
2002-01-31,196900.0
2001-12-31,196100.0
2001-11-30,195400.0
2001-10-31,194500.0
2001-09-30,194000.0
2001-08-31,193700.0
2001-07-31,193300.0
2001-06-30,192600.0
2001-05-31,191900.0
2001-04-30,191500.0
2001-03-31,191300.0
2001-02-28,190700.0
2001-01-31,189500.0
2000-12-31,188300.0
2000-11-30,187200.0
2000-10-31,186600.0
2000-09-30,185900.0
2000-08-31,184800.0
2000-07-31,183600.0
2000-06-30,182900.0
2000-05-31,182100.0
2000-04-30,181100.0
2000-03-31,180100.0
2000-02-29,179300.0
2000-01-31,178300.0
1999-12-31,177200.0
1999-11-30,175900.0
1999-10-31,174600.0
1999-09-30,173600.0
1999-08-31,172700.0
1999-07-31,172300.0
1999-06-30,172000.0
1999-05-31,171100.0
1999-04-30,169500.0
1999-03-31,167800.0
1999-02-28,166500.0
1999-01-31,165400.0
1998-12-31,164200.0
1998-11-30,163600.0
1998-10-31,163300.0
1998-09-30,162100.0
1998-08-31,160700.0
1998-07-31,159900.0
1998-06-30,159100.0
1998-05-31,157900.0
1998-04-30,156700.0
1998-03-31,156300.0
1998-02-28,156100.0
1998-01-31,155400.0
1997-12-31,154500.0
1997-11-30,153800.0
1997-10-31,152900.0
1997-09-30,151900.0
1997-08-31,150900.0
1997-07-31,149700.0
1997-06-30,148100.0
1997-05-31,146900.0
1997-04-30,146300.0
1997-03-31,145500.0
1997-02-28,144200.0
1997-01-31,143300.0
1996-12-31,142600.0
1996-11-30,141800.0
1996-10-31,140900.0
1996-09-30,140500.0
1996-08-31,140500.0
1996-07-31,140600.0
1996-06-30,140800.0
1996-05-31,141300.0
1996-04-30,141900.0
