Date,Value
2007-05-31,458258.4615
2007-03-31,497331.25
2007-02-28,520066.25
2007-01-31,487499.5
2006-12-31,529878.0
2006-11-30,503315.0
2006-10-31,538377.65
2006-09-30,501331.4
2006-08-31,504828.9
2006-07-31,485222.2
2006-06-30,536031.35
2006-05-31,521181.8
2006-04-30,477083.15
2006-03-31,462613.25
2006-02-28,483280.95
2006-01-31,437362.3
2005-12-31,436712.95
2005-11-30,409486.1
2005-10-31,387764.4
2005-09-30,387051.6
2005-08-31,389977.45
2005-07-31,409049.4706
2005-06-30,386263.0
2005-03-31,378539.0
2004-12-31,410191.65
2004-11-30,376652.35
2004-10-31,315384.0
2004-09-30,307139.0
2004-08-31,317119.45
2004-07-31,287575.9412
2004-06-30,336700.0
2004-04-30,390022.25
2004-03-31,385720.2353
2004-02-29,452382.0
2003-10-31,380478.7059
2003-09-30,358244.0
2003-05-31,346567.4706
2003-04-30,358821.0
