Date,Value
2015-09-30,1.12
2015-08-31,1.116
2015-07-31,1.108
2015-06-30,1.1
2015-05-31,1.094
2015-04-30,1.088
2015-03-31,1.084
2015-02-28,1.08
2015-01-31,1.082
2014-12-31,1.082
2014-11-30,1.084
2014-10-31,1.08
2014-09-30,1.078
2014-08-31,1.07
2014-07-31,1.06
2014-06-30,1.052
2014-05-31,1.048
2014-04-30,1.044
2014-03-31,1.042
2014-02-28,1.038
2014-01-31,1.04
2013-12-31,1.036
2013-11-30,1.028
2013-10-31,1.02
2013-09-30,1.016
2013-08-31,1.016
2013-07-31,1.016
2013-06-30,1.016
2013-05-31,1.014
2013-04-30,1.014
2013-03-31,1.01
2013-02-28,1.002
2013-01-31,0.994
2012-12-31,0.986
2012-11-30,0.982
2012-10-31,0.974
2012-09-30,0.97
2012-08-31,0.966
2012-07-31,0.966
2012-06-30,0.966
2012-05-31,0.958
2012-04-30,0.954
2012-03-31,0.952
2012-02-29,0.952
2012-01-31,0.952
2011-12-31,0.952
2011-11-30,0.956
2011-10-31,0.954
2011-09-30,0.954
2011-08-31,0.95
2011-07-31,0.95
2011-06-30,0.948
2011-05-31,0.946
2011-04-30,0.946
2011-03-31,0.94
2011-02-28,0.942
2011-01-31,0.94
2010-12-31,0.936
2010-11-30,0.926
