Date,Value
2015-09-30,303100.0
2015-08-31,297900.0
2015-07-31,295800.0
2015-06-30,293700.0
2015-05-31,291500.0
2015-04-30,288000.0
2015-03-31,288200.0
2015-02-28,287300.0
2015-01-31,284200.0
2014-12-31,283300.0
2014-11-30,281900.0
2014-10-31,280700.0
2014-09-30,280300.0
2014-08-31,280100.0
2014-07-31,280000.0
2014-06-30,280500.0
2014-05-31,281100.0
2014-04-30,281900.0
2014-03-31,282100.0
2014-02-28,281600.0
2014-01-31,280200.0
2013-12-31,277700.0
2013-11-30,274900.0
2013-10-31,273100.0
2013-09-30,271100.0
2013-08-31,268300.0
2013-07-31,264700.0
2013-06-30,260900.0
2013-05-31,257300.0
2013-04-30,253600.0
2013-03-31,250200.0
2013-02-28,247600.0
2013-01-31,245500.0
2012-12-31,243600.0
2012-11-30,241800.0
2012-10-31,240300.0
2012-09-30,239800.0
2012-08-31,239200.0
2012-07-31,237500.0
2012-06-30,235800.0
2012-05-31,234800.0
2012-04-30,234600.0
2012-03-31,234800.0
2012-02-29,234700.0
2012-01-31,234100.0
2011-12-31,234200.0
2011-11-30,235500.0
2011-10-31,236700.0
2011-09-30,237400.0
2011-08-31,238400.0
2011-07-31,240500.0
2011-06-30,243600.0
2011-05-31,247200.0
2011-04-30,249900.0
2011-03-31,252200.0
2011-02-28,254700.0
2011-01-31,256400.0
2010-12-31,257100.0
2010-11-30,258300.0
2010-10-31,260300.0
2010-09-30,262300.0
2010-08-31,264800.0
2010-07-31,266800.0
2010-06-30,267800.0
2010-05-31,268300.0
2010-04-30,269700.0
2010-03-31,271500.0
2010-02-28,272800.0
2010-01-31,274000.0
2009-12-31,275600.0
2009-11-30,276100.0
2009-10-31,275300.0
2009-09-30,274900.0
2009-08-31,276000.0
2009-07-31,279200.0
2009-06-30,283400.0
2009-05-31,287100.0
2009-04-30,290200.0
2009-03-31,293400.0
2009-02-28,296700.0
2009-01-31,299700.0
2008-12-31,302300.0
2008-11-30,306000.0
2008-10-31,310100.0
2008-09-30,313100.0
2008-08-31,314400.0
2008-07-31,315400.0
2008-06-30,316900.0
2008-05-31,318400.0
2008-04-30,319900.0
2008-03-31,321500.0
2008-02-29,323200.0
2008-01-31,325700.0
2007-12-31,329300.0
2007-11-30,332700.0
2007-10-31,335400.0
2007-09-30,337900.0
2007-08-31,340500.0
2007-07-31,342500.0
2007-06-30,343400.0
2007-05-31,342700.0
2007-04-30,341700.0
2007-03-31,340700.0
2007-02-28,339800.0
2007-01-31,338900.0
2006-12-31,338400.0
2006-11-30,337800.0
2006-10-31,337100.0
2006-09-30,336100.0
2006-08-31,334000.0
2006-07-31,330200.0
2006-06-30,325800.0
2006-05-31,321800.0
2006-04-30,318900.0
2006-03-31,316400.0
2006-02-28,313900.0
2006-01-31,311700.0
2005-12-31,309100.0
2005-11-30,305400.0
2005-10-31,300800.0
2005-09-30,296000.0
2005-08-31,290600.0
2005-07-31,285300.0
2005-06-30,280600.0
2005-05-31,276700.0
2005-04-30,272400.0
2005-03-31,267700.0
2005-02-28,263400.0
2005-01-31,259900.0
2004-12-31,256000.0
2004-11-30,252100.0
2004-10-31,249000.0
2004-09-30,246900.0
2004-08-31,245300.0
2004-07-31,243200.0
2004-06-30,241000.0
2004-05-31,238800.0
2004-04-30,236000.0
2004-03-31,233600.0
2004-02-29,231800.0
2004-01-31,230100.0
2003-12-31,228300.0
2003-11-30,226400.0
2003-10-31,224500.0
2003-09-30,223100.0
2003-08-31,222600.0
2003-07-31,222500.0
2003-06-30,222100.0
2003-05-31,221700.0
2003-04-30,221400.0
2003-03-31,220900.0
2003-02-28,219700.0
2003-01-31,218000.0
2002-12-31,216200.0
2002-11-30,215400.0
2002-10-31,214300.0
2002-09-30,212400.0
2002-08-31,210800.0
2002-07-31,210000.0
2002-06-30,209600.0
2002-05-31,209400.0
2002-04-30,209400.0
2002-03-31,208900.0
2002-02-28,207500.0
2002-01-31,205700.0
2001-12-31,203900.0
2001-11-30,202700.0
2001-10-31,202500.0
2001-09-30,202900.0
2001-08-31,202900.0
2001-07-31,201800.0
2001-06-30,200300.0
2001-05-31,199100.0
2001-04-30,198100.0
2001-03-31,197000.0
2001-02-28,196000.0
2001-01-31,195400.0
2000-12-31,195100.0
2000-11-30,194700.0
2000-10-31,194800.0
2000-09-30,194800.0
2000-08-31,193900.0
2000-07-31,192600.0
2000-06-30,191700.0
2000-05-31,190700.0
2000-04-30,189300.0
2000-03-31,188200.0
2000-02-29,187300.0
2000-01-31,186400.0
1999-12-31,185500.0
1999-11-30,184500.0
1999-10-31,182600.0
1999-09-30,180000.0
1999-08-31,178200.0
1999-07-31,177100.0
1999-06-30,175800.0
1999-05-31,174500.0
1999-04-30,173200.0
1999-03-31,172200.0
1999-02-28,171600.0
1999-01-31,171400.0
1998-12-31,170800.0
1998-11-30,169500.0
1998-10-31,168200.0
1998-09-30,166900.0
1998-08-31,166400.0
1998-07-31,166400.0
1998-06-30,166100.0
1998-05-31,165200.0
1998-04-30,164300.0
1998-03-31,163800.0
1998-02-28,163200.0
1998-01-31,162300.0
1997-12-31,161300.0
1997-11-30,159900.0
1997-10-31,158700.0
1997-09-30,158300.0
1997-08-31,157400.0
1997-07-31,155900.0
1997-06-30,154500.0
1997-05-31,153400.0
1997-04-30,152100.0
1997-03-31,150900.0
1997-02-28,149300.0
1997-01-31,147600.0
1996-12-31,146300.0
1996-11-30,145200.0
1996-10-31,144000.0
1996-09-30,142300.0
1996-08-31,140600.0
1996-07-31,139400.0
1996-06-30,139200.0
1996-05-31,139300.0
1996-04-30,139200.0
