Date,Value
2015-09-30,0.804
2015-08-31,0.754
2015-07-31,0.744
2015-06-30,0.752
2015-05-31,0.764
2015-04-30,0.76
2015-03-31,0.754
2015-02-28,0.75
2015-01-31,0.758
2014-12-31,0.76
2014-11-30,0.754
2014-10-31,0.73
2014-09-30,0.714
2014-08-31,0.706
2014-07-31,0.7
2014-06-30,0.692
2014-05-31,0.682
2014-04-30,0.684
2014-03-31,0.694
2014-02-28,0.714
2014-01-31,0.732
2013-12-31,0.748
2013-11-30,0.764
2013-10-31,0.77
2013-09-30,0.78
2013-08-31,0.758
2013-07-31,0.728
2013-06-30,0.698
2013-05-31,0.702
2013-04-30,0.714
2013-03-31,0.722
2013-02-28,0.722
2013-01-31,0.706
2012-12-31,0.694
2012-11-30,0.688
2012-10-31,0.688
2012-09-30,0.69
2012-08-31,0.716
2012-07-31,0.752
2012-06-30,0.788
2012-05-31,0.796
2012-04-30,0.796
2012-03-31,0.796
2012-02-29,0.796
2012-01-31,0.79
2011-12-31,0.788
2011-11-30,0.792
2011-10-31,0.798
2011-09-30,0.808
2011-08-31,0.818
2011-07-31,0.82
2011-06-30,0.822
2011-05-31,0.822
2011-04-30,0.81
2011-03-31,0.794
2011-02-28,0.778
2011-01-31,0.766
2010-12-31,0.766
2010-11-30,0.762
