Date,Value
2015-09-30,274235.0
2015-08-31,281215.0
2015-07-31,287500.0
2015-06-30,297000.0
2015-05-31,289912.0
2015-04-30,280843.0
2015-02-28,286124.1
2015-01-31,298672.9
2014-12-31,258797.0
2014-11-30,240145.0
2014-10-31,239855.0
2014-09-30,244242.0
2014-08-31,262090.0
2014-07-31,261015.0
2014-06-30,273245.0
2014-05-31,264230.0
2014-04-30,238809.4118
2014-03-31,215280.0
2013-12-31,214353.1
2013-11-30,220613.0
2013-10-31,239030.0
2013-09-30,233005.0
2013-08-31,244055.0
2013-07-31,257530.0
2013-06-30,263530.0
2013-05-31,230525.0
2013-04-30,221393.0
2013-03-31,243265.0
2013-02-28,255254.65
2013-01-31,239177.85
2012-12-31,234790.5
2012-11-30,241495.0
2012-10-31,236353.15
2012-09-30,235007.35
2012-08-31,239650.5
2012-07-31,247730.0
2012-06-30,237338.8235
2012-05-31,230600.0
2012-03-31,246470.5882
2012-02-29,221218.4615
2011-12-31,231730.0
2011-11-30,214948.0
2011-10-31,219103.55
2011-09-30,235037.65
2011-08-31,242446.8
2011-07-31,263724.0
2011-06-30,297295.3846
2011-04-30,275868.2353
2011-03-31,315280.0
2010-11-30,261049.2308
2010-09-30,241538.4615
2010-07-31,272060.0
2010-06-30,263125.0
2010-05-31,261665.0
2010-04-30,274058.8235
2010-03-31,263384.6154
2010-01-31,219410.0
2009-12-31,239375.0
2009-11-30,256250.0
2009-10-31,261650.0
2009-09-30,247773.55
2009-08-31,244264.95
2009-07-31,259508.5
2009-06-30,280280.0
2009-05-31,259530.0
2009-04-30,233980.0
2009-03-31,233574.1176
2009-02-28,245895.3846
2008-12-31,284203.0769
2008-10-31,302505.0
2008-09-30,273455.0
2008-08-31,265880.0
2008-07-31,291780.0
2008-06-30,283780.0
2008-05-31,260780.0
2008-04-30,285455.0
2008-03-31,329485.8824
2008-02-29,333718.4615
2007-12-31,295284.25
2007-11-30,309990.5
2007-10-31,302557.0
2007-09-30,317075.0
2007-08-31,287388.0
2007-07-31,266397.0
2007-06-30,266340.0
2007-05-31,259780.0
2007-04-30,263280.0
2007-03-31,266265.0
2007-02-28,285295.0
2007-01-31,291030.0
2006-12-31,267680.0
2006-11-30,258330.0
2006-10-31,267097.5
2006-09-30,283262.5
2006-08-31,296380.0
2006-07-31,275030.0
2006-06-30,279015.0
2006-05-31,275672.5
2006-04-30,283227.5
2006-03-31,276205.0
2006-02-28,290505.0
2006-01-31,259555.0
2005-12-31,270015.0
2005-11-30,281120.0
2005-10-31,275340.0
2005-09-30,258305.0
2005-08-31,248328.0
2005-07-31,239840.0
2005-06-30,229000.0
2005-05-31,230675.0
2005-04-30,210375.0
2005-03-31,214700.0
2005-02-28,222075.0
2005-01-31,237925.0
2004-12-31,226250.0
2004-11-30,214250.0
2004-10-31,205625.0
2004-09-30,199200.0
2004-08-31,193175.0
2004-07-31,194100.0
2004-06-30,191800.0
2004-05-31,190600.0
2004-04-30,183750.0
2004-03-31,187425.0
2004-02-29,189914.25
2004-01-31,188218.25
2003-12-31,182692.4
2003-11-30,175853.1
2003-10-31,174637.35
2003-09-30,179627.65
2003-08-31,170497.0
2003-07-31,172976.9
2003-06-30,173592.55
2003-05-31,174023.05
2003-04-30,170334.0
2003-03-31,158312.5
2003-02-28,169975.0
2003-01-31,171485.0
2002-12-31,172265.0
2002-11-30,160275.0
2002-10-31,154416.05
2002-09-30,156962.45
2002-08-31,160853.5
2002-07-31,144175.0
2002-06-30,150625.0
2002-05-31,149400.0
2002-04-30,158700.0
2002-03-31,156625.0
2002-02-28,159225.0
2002-01-31,156525.0
2001-12-31,153410.0
2001-11-30,151015.0
2001-10-31,151650.0
2001-09-30,157350.0
2001-08-31,161450.0
2001-07-31,153500.0
2001-06-30,151398.9
2001-05-31,151014.1
2001-04-30,150463.0
2001-03-31,148700.0
2001-02-28,160150.0
2001-01-31,159100.0
2000-12-31,147550.0
2000-11-30,158875.0
2000-10-31,157920.0
2000-09-30,158055.0
2000-08-31,156300.0
2000-07-31,153100.0
2000-06-30,150400.0
2000-05-31,149035.0
2000-04-30,160140.0
2000-03-31,164794.1176
2000-02-29,167615.3846
1999-12-31,151875.0
1999-11-30,137584.15
1999-10-31,140196.35
1999-09-30,143830.5
1999-08-31,140641.9
1999-07-31,143466.1
1999-06-30,146488.0
1999-05-31,135450.0
1999-04-30,134975.0
1999-03-31,139500.0
1999-02-28,146676.4706
1999-01-31,155500.0
1998-10-31,148775.0
1998-09-30,146865.0
1998-08-31,144735.0
1998-07-31,140825.0
1998-06-30,138350.0
1998-05-31,135725.0
1998-04-30,133117.6471
1998-03-31,134230.7692
1998-01-31,155588.2353
1997-12-31,172076.9231
1997-10-31,131925.0
1997-09-30,140950.0
1997-08-31,152625.0
1997-07-31,148900.0
1997-06-30,135750.0
1997-05-31,130475.0
1997-04-30,127150.0
1997-03-31,134823.5294
1997-02-28,149076.9231
1996-12-31,128125.0
1996-11-30,130085.0
1996-10-31,128190.0
1996-09-30,132925.0
1996-08-31,134105.0
1996-07-31,140180.0
1996-06-30,131565.0
1996-05-31,128425.0
1996-04-30,123025.0
