Date,Value
2015-08-31,253200.0
2015-07-31,249500.0
2015-06-30,249200.0
2015-05-31,247800.0
2015-04-30,247400.0
2015-03-31,247300.0
2015-02-28,248700.0
2015-01-31,246100.0
2014-12-31,245100.0
2014-11-30,243700.0
2014-10-31,242300.0
2014-09-30,241200.0
2014-08-31,240200.0
2014-07-31,239200.0
2014-06-30,238800.0
2014-05-31,237700.0
2014-04-30,236500.0
2014-03-31,236000.0
2014-02-28,235900.0
2014-01-31,234600.0
2013-12-31,232100.0
2013-11-30,229900.0
2013-10-31,228400.0
2013-09-30,226200.0
2013-08-31,223700.0
2013-07-31,221500.0
2013-06-30,218100.0
2013-05-31,213800.0
2013-04-30,210200.0
2013-03-31,207900.0
2013-02-28,206600.0
2013-01-31,205600.0
2012-12-31,204000.0
2012-11-30,201400.0
2012-10-31,199000.0
2012-09-30,197400.0
2012-08-31,195700.0
2012-07-31,193900.0
2012-06-30,192600.0
2012-05-31,192500.0
2012-04-30,192300.0
2012-03-31,191900.0
2012-02-29,192000.0
2012-01-31,192900.0
2011-12-31,193500.0
2011-11-30,194300.0
2011-10-31,195200.0
2011-09-30,195900.0
2011-08-31,196500.0
2011-07-31,197500.0
2011-06-30,198900.0
2011-05-31,200200.0
2011-04-30,201400.0
2011-03-31,202100.0
2011-02-28,202400.0
2011-01-31,203100.0
2010-12-31,204500.0
2010-11-30,206000.0
2010-10-31,207700.0
2010-09-30,210400.0
2010-08-31,213800.0
2010-07-31,216600.0
2010-06-30,218000.0
2010-05-31,219100.0
2010-04-30,220300.0
2010-03-31,221300.0
2010-02-28,221600.0
2010-01-31,221300.0
2009-12-31,220800.0
2009-11-30,220300.0
2009-10-31,219600.0
2009-09-30,218900.0
2009-08-31,218500.0
2009-07-31,218900.0
2009-06-30,220600.0
2009-05-31,222800.0
2009-04-30,225000.0
2009-03-31,227300.0
2009-02-28,229700.0
2009-01-31,231500.0
2008-12-31,233600.0
2008-11-30,236600.0
2008-10-31,239400.0
2008-09-30,240600.0
2008-08-31,241300.0
2008-07-31,242300.0
2008-06-30,243400.0
2008-05-31,244800.0
2008-04-30,246900.0
2008-03-31,248800.0
2008-02-29,250500.0
2008-01-31,252700.0
2007-12-31,255800.0
2007-11-30,259100.0
2007-10-31,261200.0
2007-09-30,262800.0
2007-08-31,264400.0
2007-07-31,266100.0
2007-06-30,266900.0
2007-05-31,266800.0
2007-04-30,266700.0
2007-03-31,267600.0
2007-02-28,267900.0
2007-01-31,267300.0
2006-12-31,266500.0
2006-11-30,265800.0
2006-10-31,265900.0
2006-09-30,267300.0
2006-08-31,268300.0
2006-07-31,268300.0
2006-06-30,267600.0
2006-05-31,266800.0
2006-04-30,264900.0
2006-03-31,261900.0
2006-02-28,259000.0
2006-01-31,256700.0
2005-12-31,254500.0
2005-11-30,251800.0
2005-10-31,248000.0
2005-09-30,243000.0
2005-08-31,237800.0
2005-07-31,232600.0
2005-06-30,227700.0
2005-05-31,223400.0
2005-04-30,218900.0
2005-03-31,214300.0
2005-02-28,210300.0
2005-01-31,207300.0
2004-12-31,204600.0
2004-11-30,202100.0
2004-10-31,199600.0
2004-09-30,197100.0
2004-08-31,194800.0
2004-07-31,192700.0
2004-06-30,190700.0
2004-05-31,188700.0
2004-04-30,186900.0
2004-03-31,185500.0
2004-02-29,184100.0
2004-01-31,182700.0
2003-12-31,180600.0
2003-11-30,178200.0
2003-10-31,176200.0
2003-09-30,174500.0
2003-08-31,173000.0
2003-07-31,171500.0
2003-06-30,170700.0
2003-05-31,170400.0
2003-04-30,170300.0
2003-03-31,169800.0
2003-02-28,169000.0
2003-01-31,168100.0
2002-12-31,166900.0
2002-11-30,165700.0
2002-10-31,165300.0
2002-09-30,165300.0
2002-08-31,165000.0
2002-07-31,164400.0
2002-06-30,163700.0
2002-05-31,163200.0
2002-04-30,163000.0
2002-03-31,162800.0
2002-02-28,162000.0
2002-01-31,160800.0
2001-12-31,160000.0
2001-11-30,159400.0
2001-10-31,158500.0
2001-09-30,158000.0
2001-08-31,158000.0
2001-07-31,158100.0
2001-06-30,158300.0
2001-05-31,158300.0
2001-04-30,157900.0
2001-03-31,157800.0
2001-02-28,158300.0
2001-01-31,158700.0
2000-12-31,158400.0
2000-11-30,157600.0
2000-10-31,157100.0
2000-09-30,156600.0
2000-08-31,155900.0
2000-07-31,155200.0
2000-06-30,154500.0
2000-05-31,153200.0
2000-04-30,151500.0
2000-03-31,150200.0
2000-02-29,149900.0
2000-01-31,149700.0
1999-12-31,149600.0
1999-11-30,149800.0
1999-10-31,150400.0
1999-09-30,151300.0
1999-08-31,152200.0
1999-07-31,152600.0
1999-06-30,152700.0
1999-05-31,152800.0
1999-04-30,152900.0
1999-03-31,152700.0
1999-02-28,152100.0
1999-01-31,151100.0
1998-12-31,150300.0
1998-11-30,149800.0
1998-10-31,149200.0
1998-09-30,148200.0
1998-08-31,147500.0
1998-07-31,147300.0
1998-06-30,147200.0
1998-05-31,147400.0
1998-04-30,148100.0
1998-03-31,148700.0
1998-02-28,148800.0
1998-01-31,149300.0
1997-12-31,150100.0
1997-11-30,150600.0
1997-10-31,150500.0
1997-09-30,150100.0
1997-08-31,149600.0
1997-07-31,149900.0
1997-06-30,150300.0
1997-05-31,150200.0
1997-04-30,149300.0
1997-03-31,148000.0
1997-02-28,146400.0
1997-01-31,144800.0
1996-12-31,143900.0
1996-11-30,143700.0
1996-10-31,143300.0
1996-09-30,142700.0
1996-08-31,142300.0
1996-07-31,141200.0
1996-06-30,139500.0
1996-05-31,137900.0
1996-04-30,137100.0
