Date,Value
2015-09-30,1.102
2015-08-31,1.066
2015-07-31,1.016
2015-06-30,0.988
2015-05-31,0.964
2015-04-30,0.94
2015-03-31,0.922
2015-02-28,0.902
2015-01-31,0.902
2014-12-31,0.91
2014-11-30,0.922
2014-10-31,0.926
2014-09-30,0.92
2014-08-31,0.912
2014-07-31,0.904
2014-06-30,0.888
2014-05-31,0.872
2014-04-30,0.852
2014-03-31,0.84
2014-02-28,0.834
2014-01-31,0.848
2013-12-31,0.862
2013-11-30,0.87
2013-10-31,0.88
2013-09-30,0.878
2013-08-31,0.874
2013-07-31,0.862
2013-06-30,0.856
2013-05-31,0.846
2013-04-30,0.844
2013-03-31,0.848
2013-02-28,0.852
2013-01-31,0.852
2012-12-31,0.84
2012-11-30,0.828
2012-10-31,0.83
2012-09-30,0.828
2012-08-31,0.818
2012-07-31,0.822
2012-06-30,0.83
2012-05-31,0.842
2012-04-30,0.848
2012-03-31,0.838
2012-02-29,0.828
2012-01-31,0.806
2011-12-31,0.768
2011-11-30,0.728
2011-10-31,0.71
2011-09-30,0.704
2011-08-31,0.708
2011-07-31,0.706
2011-06-30,0.704
2011-05-31,0.7
2011-04-30,0.694
2011-03-31,0.688
2011-02-28,0.682
2011-01-31,0.684
2010-12-31,0.69
2010-11-30,0.696
