Date,Value
2015-02-28,569000.0
2015-01-31,599950.0
2014-12-31,599950.0
2014-11-30,613000.0
2014-10-31,619990.0
2014-09-30,599000.0
2014-08-31,599900.0
2014-07-31,625000.0
2014-06-30,648000.0
2014-05-31,629500.0
2014-04-30,625000.0
2014-03-31,600000.0
2014-02-28,625000.0
2014-01-31,549950.0
2013-12-31,545000.0
2013-11-30,539900.0
2013-10-31,589750.0
2013-09-30,599950.0
2013-08-31,579950.0
2013-07-31,600800.0
2013-06-30,615950.0
2013-05-31,615000.0
2013-04-30,599950.0
2013-03-31,585000.0
2013-02-28,575000.0
2013-01-31,549950.0
2012-12-31,549995.0
2012-11-30,549950.0
2012-10-31,525000.0
2012-09-30,528800.0
2012-08-31,533000.0
2012-07-31,531950.0
2012-06-30,529990.0
2012-05-31,503200.0
2012-04-30,499950.0
2012-03-31,443499.0
2012-02-29,410000.0
2012-01-31,399950.0
2011-12-31,399950.0
2011-11-30,434950.0
2011-10-31,438900.0
2011-09-30,439888.0
2011-08-31,450000.0
2011-07-31,449950.0
2011-06-30,423900.0
2011-05-31,399950.0
2011-04-30,399000.0
2011-03-31,399950.0
2011-02-28,400000.0
2011-01-31,405000.0
2010-12-31,424999.0
2010-11-30,442500.0
2010-10-31,435000.0
2010-09-30,449900.0
2010-08-31,450000.0
2010-07-31,449900.0
2010-06-30,450000.0
2010-05-31,449990.0
2010-04-30,450000.0
2010-03-31,449950.0
2010-02-28,435000.0
2010-01-31,439000.0
2009-12-31,425000.0
2009-11-30,450000.0
2009-10-31,465000.0
2009-09-30,468000.0
2009-08-31,474950.0
2009-07-31,489000.0
2009-06-30,495000.0
2009-05-31,499900.0
2009-04-30,499950.0
2009-03-31,524999.0
2009-02-28,549950.0
2009-01-31,549000.0
2008-12-31,552000.0
2008-11-30,549000.0
2008-10-31,550000.0
