Date,Value
2015-09-30,173500.0
2015-08-31,177400.0
2015-07-31,178200.0
2015-06-30,178300.0
2015-05-31,179600.0
2015-04-30,177700.0
2015-03-31,178000.0
2015-02-28,177000.0
2015-01-31,174400.0
2014-12-31,171900.0
2014-11-30,166600.0
2014-10-31,160100.0
2014-09-30,156100.0
2014-08-31,156400.0
2014-07-31,157300.0
2014-06-30,155100.0
2014-05-31,151900.0
2014-04-30,151100.0
2014-03-31,151000.0
2014-02-28,149100.0
2014-01-31,149000.0
2013-12-31,149600.0
2013-11-30,151000.0
2013-10-31,151600.0
2013-09-30,151300.0
2013-08-31,150200.0
2013-07-31,148900.0
2013-06-30,147000.0
2013-05-31,145500.0
2013-04-30,144800.0
2013-03-31,144800.0
2013-02-28,145900.0
2013-01-31,146700.0
2012-12-31,147400.0
2012-11-30,149000.0
2012-10-31,152600.0
2012-09-30,158000.0
2012-08-31,162500.0
2012-07-31,163600.0
2012-06-30,162600.0
2012-05-31,161100.0
2012-04-30,159600.0
2012-03-31,159500.0
2012-02-29,159900.0
2012-01-31,160000.0
2011-12-31,159400.0
2011-11-30,159000.0
2011-10-31,159500.0
2011-09-30,160300.0
2011-08-31,159700.0
2011-07-31,158300.0
2011-06-30,157400.0
2011-05-31,157700.0
2011-04-30,160000.0
2011-03-31,162400.0
2011-02-28,163700.0
2011-01-31,164700.0
2010-12-31,166400.0
2010-11-30,167500.0
2010-10-31,167300.0
2010-09-30,166700.0
2010-08-31,167200.0
2010-07-31,169500.0
2010-06-30,174400.0
2010-05-31,178500.0
2010-04-30,179400.0
2010-03-31,178500.0
2010-02-28,179200.0
2010-01-31,180700.0
2009-12-31,182600.0
2009-11-30,184900.0
2009-10-31,188800.0
2009-09-30,192800.0
2009-08-31,195100.0
2009-07-31,196200.0
2009-06-30,198100.0
2009-05-31,199500.0
2009-04-30,199000.0
2009-03-31,197700.0
2009-02-28,197400.0
2009-01-31,197500.0
2008-12-31,197800.0
2008-11-30,198900.0
2008-10-31,199200.0
2008-09-30,199400.0
2008-08-31,201200.0
2008-07-31,204600.0
2008-06-30,207400.0
2008-05-31,212100.0
2008-04-30,219000.0
2008-03-31,224800.0
2008-02-29,226500.0
2008-01-31,225900.0
2007-12-31,226300.0
2007-11-30,228600.0
2007-10-31,231100.0
2007-09-30,233000.0
2007-08-31,234200.0
2007-07-31,234400.0
2007-06-30,234700.0
2007-05-31,235700.0
2007-04-30,235500.0
2007-03-31,234600.0
2007-02-28,234200.0
2007-01-31,233600.0
2006-12-31,230600.0
2006-11-30,225500.0
2006-10-31,219300.0
2006-09-30,212100.0
2006-08-31,204800.0
2006-07-31,200600.0
2006-06-30,199500.0
2006-05-31,197500.0
2006-04-30,193100.0
2006-03-31,189500.0
2006-02-28,186400.0
2006-01-31,183500.0
2005-12-31,181200.0
2005-11-30,180900.0
2005-10-31,181200.0
2005-09-30,181000.0
2005-08-31,178400.0
2005-07-31,174600.0
2005-06-30,169900.0
2005-05-31,165500.0
2005-04-30,163200.0
2005-03-31,163000.0
2005-02-28,163500.0
2005-01-31,163800.0
2004-12-31,163300.0
2004-11-30,160800.0
2004-10-31,158700.0
2004-09-30,158600.0
2004-08-31,160500.0
2004-07-31,161200.0
2004-06-30,158600.0
2004-05-31,155000.0
2004-04-30,152900.0
2004-03-31,150900.0
2004-02-29,149300.0
2004-01-31,147800.0
2003-12-31,146900.0
2003-11-30,146600.0
2003-10-31,145500.0
2003-09-30,143200.0
2003-08-31,141700.0
2003-07-31,140700.0
2003-06-30,139500.0
2003-05-31,138500.0
2003-04-30,137300.0
2003-03-31,135800.0
2003-02-28,134600.0
2003-01-31,134500.0
2002-12-31,135200.0
2002-11-30,135000.0
2002-10-31,134300.0
2002-09-30,133300.0
2002-08-31,132400.0
2002-07-31,133000.0
2002-06-30,135600.0
2002-05-31,138600.0
2002-04-30,141700.0
2002-03-31,143800.0
2002-02-28,143500.0
2002-01-31,142000.0
2001-12-31,141300.0
2001-11-30,141500.0
2001-10-31,141800.0
2001-09-30,142900.0
2001-08-31,143700.0
2001-07-31,143400.0
2001-06-30,141800.0
2001-05-31,140400.0
2001-04-30,139600.0
2001-03-31,138700.0
2001-02-28,137100.0
2001-01-31,135600.0
2000-12-31,134000.0
2000-11-30,131700.0
2000-10-31,130000.0
2000-09-30,129400.0
2000-08-31,128500.0
2000-07-31,127500.0
2000-06-30,128200.0
2000-05-31,129300.0
2000-04-30,129400.0
2000-03-31,128500.0
2000-02-29,127300.0
2000-01-31,125800.0
1999-12-31,124900.0
1999-11-30,124100.0
1999-10-31,122800.0
1999-09-30,121600.0
1999-08-31,120400.0
1999-07-31,118900.0
1999-06-30,116600.0
1999-05-31,113400.0
1999-04-30,109200.0
1999-03-31,106500.0
1999-02-28,106800.0
1999-01-31,107400.0
1998-12-31,106300.0
1998-11-30,105700.0
1998-10-31,105500.0
1998-09-30,104900.0
1998-08-31,103300.0
1998-07-31,101900.0
1998-06-30,100300.0
1998-05-31,99100.0
1998-04-30,97600.0
1998-03-31,96200.0
1998-02-28,95800.0
1998-01-31,95800.0
1997-12-31,95000.0
1997-11-30,94900.0
1997-10-31,96600.0
1997-09-30,97400.0
1997-08-31,97100.0
1997-07-31,96600.0
1997-06-30,97300.0
1997-05-31,98300.0
1997-04-30,98500.0
1997-03-31,98200.0
1997-02-28,97200.0
1997-01-31,96200.0
1996-12-31,95900.0
1996-11-30,95600.0
1996-10-31,93600.0
1996-09-30,91800.0
1996-08-31,91600.0
1996-07-31,91400.0
1996-06-30,90400.0
1996-05-31,89500.0
1996-04-30,89500.0
