Date,Value
2015-09-30,320800.0
2015-08-31,316600.0
2015-07-31,313300.0
2015-06-30,317100.0
2015-05-31,309300.0
2015-04-30,306400.0
2015-03-31,304900.0
2015-02-28,300600.0
2015-01-31,300400.0
2014-12-31,300800.0
2014-11-30,299700.0
2014-10-31,297100.0
2014-09-30,295300.0
2014-08-31,294300.0
2014-07-31,292800.0
2014-06-30,291200.0
2014-05-31,290300.0
2014-04-30,288800.0
2014-03-31,287000.0
2014-02-28,285000.0
2014-01-31,283800.0
2013-12-31,282700.0
2013-11-30,281000.0
2013-10-31,278800.0
2013-09-30,278000.0
2013-08-31,278200.0
2013-07-31,278000.0
2013-06-30,275800.0
2013-05-31,273900.0
2013-04-30,272400.0
2013-03-31,271000.0
2013-02-28,269300.0
2013-01-31,268500.0
2012-12-31,266100.0
2012-11-30,265300.0
2012-10-31,265800.0
2012-09-30,266500.0
2012-08-31,267400.0
2012-07-31,269000.0
2012-06-30,270500.0
2012-05-31,272500.0
2012-04-30,275200.0
2012-03-31,277600.0
2012-02-29,280200.0
2012-01-31,283800.0
2011-12-31,288900.0
2011-11-30,294000.0
2011-10-31,297300.0
2011-09-30,299900.0
2011-08-31,303200.0
2011-07-31,307100.0
2011-06-30,311300.0
2011-05-31,314900.0
2011-04-30,318900.0
2011-03-31,322100.0
2011-02-28,324600.0
2011-01-31,327000.0
2010-12-31,330400.0
2010-11-30,332000.0
2010-10-31,332700.0
2010-09-30,333400.0
2010-08-31,333100.0
2010-07-31,331900.0
2010-06-30,331000.0
2010-05-31,330000.0
2010-04-30,329500.0
2010-03-31,329500.0
2010-02-28,330800.0
2010-01-31,330600.0
2009-12-31,329000.0
2009-11-30,328700.0
2009-10-31,331300.0
2009-09-30,334100.0
2009-08-31,336800.0
2009-07-31,339100.0
2009-06-30,341200.0
2009-05-31,343900.0
2009-04-30,347100.0
2009-03-31,351000.0
2009-02-28,354000.0
2009-01-31,353200.0
2008-12-31,351900.0
2008-11-30,354200.0
2008-10-31,359700.0
2008-09-30,364700.0
2008-08-31,368000.0
2008-07-31,371000.0
2008-06-30,374800.0
2008-05-31,377700.0
2008-04-30,378700.0
2008-03-31,379200.0
2008-02-29,381200.0
2008-01-31,385500.0
2007-12-31,389900.0
2007-11-30,392000.0
2007-10-31,390500.0
2007-09-30,387500.0
2007-08-31,386400.0
2007-07-31,387000.0
2007-06-30,388200.0
2007-05-31,390400.0
2007-04-30,393900.0
2007-03-31,396600.0
2007-02-28,397300.0
2007-01-31,397100.0
2006-12-31,397300.0
2006-11-30,397000.0
2006-10-31,394500.0
2006-09-30,391300.0
2006-08-31,389400.0
2006-07-31,387400.0
2006-06-30,382100.0
2006-05-31,376500.0
2006-04-30,373700.0
2006-03-31,372200.0
2006-02-28,368300.0
2006-01-31,361700.0
2005-12-31,352500.0
2005-11-30,343000.0
2005-10-31,335800.0
2005-09-30,330300.0
2005-08-31,322400.0
2005-07-31,315600.0
2005-06-30,312100.0
2005-05-31,308900.0
2005-04-30,304100.0
2005-03-31,300300.0
2005-02-28,297100.0
2005-01-31,294800.0
2004-12-31,292800.0
2004-11-30,289100.0
2004-10-31,284600.0
2004-09-30,280300.0
2004-08-31,275800.0
2004-07-31,269700.0
2004-06-30,264900.0
2004-05-31,260800.0
2004-04-30,253400.0
2004-03-31,242500.0
2004-02-29,235000.0
2004-01-31,230300.0
2003-12-31,227000.0
2003-11-30,224000.0
2003-10-31,222700.0
2003-09-30,222400.0
2003-08-31,222500.0
2003-07-31,221600.0
2003-06-30,220700.0
2003-05-31,219500.0
2003-04-30,219100.0
2003-03-31,220000.0
2003-02-28,219200.0
2003-01-31,218200.0
2002-12-31,217300.0
2002-11-30,217500.0
2002-10-31,216700.0
2002-09-30,214300.0
2002-08-31,211600.0
2002-07-31,210300.0
2002-06-30,207900.0
2002-05-31,204700.0
2002-04-30,201800.0
2002-03-31,199600.0
2002-02-28,198300.0
2002-01-31,197800.0
2001-12-31,198100.0
2001-11-30,198500.0
2001-10-31,198000.0
2001-09-30,198800.0
2001-08-31,199700.0
2001-07-31,201100.0
2001-06-30,200800.0
2001-05-31,200000.0
2001-04-30,199700.0
2001-03-31,201100.0
2001-02-28,201000.0
2001-01-31,201600.0
2000-12-31,202200.0
2000-11-30,202700.0
2000-10-31,202400.0
2000-09-30,202000.0
2000-08-31,203100.0
2000-07-31,203800.0
2000-06-30,202900.0
2000-05-31,203500.0
2000-04-30,205400.0
2000-03-31,206100.0
2000-02-29,205600.0
2000-01-31,203800.0
1999-12-31,202000.0
1999-11-30,200900.0
1999-10-31,199200.0
1999-09-30,197300.0
1999-08-31,196800.0
1999-07-31,196600.0
1999-06-30,195700.0
1999-05-31,194800.0
1999-04-30,195200.0
1999-03-31,197200.0
1999-02-28,199800.0
1999-01-31,200100.0
1998-12-31,198500.0
1998-11-30,197900.0
1998-10-31,199000.0
1998-09-30,198100.0
1998-08-31,193400.0
1998-07-31,187800.0
1998-06-30,184600.0
1998-05-31,180700.0
1998-04-30,174700.0
1998-03-31,167600.0
1998-02-28,159900.0
1998-01-31,182300.0
1997-12-31,180700.0
1997-11-30,180200.0
1997-10-31,179400.0
1997-09-30,178400.0
1997-08-31,177100.0
1997-07-31,176700.0
1997-06-30,176900.0
1997-05-31,176000.0
1997-04-30,173800.0
1997-03-31,170900.0
1997-02-28,168800.0
1997-01-31,167100.0
1996-12-31,165800.0
1996-11-30,165600.0
1996-10-31,166100.0
1996-09-30,165100.0
1996-08-31,164300.0
1996-07-31,163800.0
1996-06-30,162200.0
1996-05-31,161300.0
1996-04-30,162400.0
