Date,Value
2015-02-28,1078880.0
2015-01-31,1078880.0
2014-12-31,1340000.0
2014-11-30,1340000.0
2014-10-31,1340000.0
2014-09-30,1450000.0
2014-08-31,1365000.0
2014-07-31,1049980.0
2014-06-30,1049980.0
2014-05-31,1160000.0
2013-11-30,1200000.0
2013-10-31,1190000.0
2013-09-30,1099990.0
2013-08-31,1050000.0
2013-07-31,1050000.0
2013-06-30,1045000.0
2013-05-31,939950.0
2013-04-30,939950.0
2013-03-31,939950.0
2013-02-28,1275000.0
2013-01-31,1275000.0
2012-12-31,1100000.0
2012-11-30,1290000.0
2012-10-31,988888.0
2012-09-30,988888.0
2012-08-31,825000.0
2012-07-31,835000.0
2012-06-30,835000.0
2012-05-31,825000.0
2012-04-30,835000.0
2012-03-31,865000.0
2012-02-29,865000.0
2012-01-31,1150000.0
2011-12-31,1150000.0
2011-11-30,1150000.0
2011-10-31,975000.0
2011-09-30,925000.0
2011-08-31,949000.0
2011-07-31,949000.0
2011-06-30,1059000.0
2011-05-31,1300000.0
2011-04-30,999900.0
2011-03-31,941900.0
2011-02-28,1650000.0
2011-01-31,1148500.0
2010-12-31,1250000.0
2010-11-30,1250000.0
2010-10-31,1250000.0
2010-09-30,1475000.0
2010-08-31,1629000.0
2010-07-31,1355000.0
2010-06-30,1355000.0
2010-05-31,1280000.0
2010-04-30,1148500.0
2010-03-31,1139000.0
2010-02-28,1139000.0
2010-01-31,1139000.0
2009-12-31,1100000.0
2009-11-30,1185000.0
2009-10-31,1100000.0
2009-09-30,1100000.0
2009-08-31,995000.0
2009-07-31,995000.0
2009-06-30,1099000.0
2009-05-31,1099000.0
2008-11-30,1149000.0
2008-10-31,1129950.0
