Date,Value
2015-09-30,207900.0
2015-08-31,209700.0
2015-07-31,215600.0
2015-06-30,222700.0
2015-05-31,223500.0
2015-04-30,223500.0
2015-03-31,220000.0
2015-02-28,216200.0
2015-01-31,212800.0
2014-12-31,210500.0
2014-11-30,208100.0
2014-10-31,204400.0
2014-09-30,199900.0
2014-08-31,196700.0
2014-07-31,193000.0
2014-06-30,189600.0
2014-05-31,187400.0
2014-04-30,185200.0
2014-03-31,182700.0
2014-02-28,181400.0
2014-01-31,181400.0
2013-12-31,181200.0
2013-11-30,180600.0
2013-10-31,179400.0
2013-09-30,177200.0
2013-08-31,173900.0
2013-07-31,170400.0
2013-06-30,168600.0
2013-05-31,168400.0
2013-04-30,169500.0
2013-03-31,171400.0
2013-02-28,173800.0
2013-01-31,173300.0
2012-12-31,171200.0
2012-11-30,170100.0
2012-10-31,169500.0
2012-09-30,168000.0
2012-08-31,165700.0
2012-07-31,164500.0
2012-06-30,164200.0
2012-05-31,164000.0
2012-04-30,162300.0
2012-03-31,160500.0
2012-02-29,158400.0
2012-01-31,155800.0
2011-12-31,153500.0
2011-11-30,153700.0
2011-10-31,155900.0
2011-09-30,158800.0
2011-08-31,162000.0
2011-07-31,166600.0
2011-06-30,169700.0
2011-05-31,169400.0
2011-04-30,168000.0
2011-03-31,167400.0
2011-02-28,167400.0
2011-01-31,168000.0
2010-12-31,169600.0
2010-11-30,172000.0
2010-10-31,175100.0
2010-09-30,177700.0
2010-08-31,180000.0
2010-07-31,182400.0
2010-06-30,185600.0
2010-05-31,188700.0
2010-04-30,190400.0
2010-03-31,191900.0
2010-02-28,192700.0
2010-01-31,194000.0
2009-12-31,195400.0
2009-11-30,196500.0
2009-10-31,197400.0
2009-09-30,200500.0
2009-08-31,204700.0
2009-07-31,207700.0
2009-06-30,209800.0
2009-05-31,212100.0
2009-04-30,214600.0
2009-03-31,217600.0
2009-02-28,220800.0
2009-01-31,225000.0
2008-12-31,230300.0
2008-11-30,234100.0
2008-10-31,235100.0
2008-09-30,236400.0
2008-08-31,237300.0
2008-07-31,236500.0
2008-06-30,237000.0
2008-05-31,238400.0
2008-04-30,239600.0
2008-03-31,241200.0
2008-02-29,243400.0
2008-01-31,243700.0
2007-12-31,245300.0
2007-11-30,248400.0
2007-10-31,250400.0
2007-09-30,251100.0
2007-08-31,253000.0
2007-07-31,253900.0
2007-06-30,252900.0
2007-05-31,251900.0
2007-04-30,252000.0
2007-03-31,250500.0
2007-02-28,246300.0
2007-01-31,242000.0
2006-12-31,238200.0
2006-11-30,234500.0
2006-10-31,233300.0
2006-09-30,232100.0
2006-08-31,228400.0
2006-07-31,224400.0
2006-06-30,219500.0
2006-05-31,214000.0
2006-04-30,210500.0
2006-03-31,207200.0
2006-02-28,208100.0
2006-01-31,213600.0
2005-12-31,215500.0
2005-11-30,211400.0
2005-10-31,206500.0
2005-09-30,202200.0
2005-08-31,198900.0
2005-07-31,197200.0
2005-06-30,195800.0
2005-05-31,195000.0
2005-04-30,194700.0
2005-03-31,194200.0
2005-02-28,191400.0
2005-01-31,186700.0
2004-12-31,182500.0
2004-11-30,179100.0
2004-10-31,176500.0
2004-09-30,175200.0
2004-08-31,174700.0
2004-07-31,174100.0
2004-06-30,172000.0
2004-05-31,169200.0
2004-04-30,167500.0
2004-03-31,167600.0
2004-02-29,167500.0
2004-01-31,166400.0
2003-12-31,164500.0
2003-11-30,164800.0
2003-10-31,165900.0
2003-09-30,164200.0
2003-08-31,161200.0
2003-07-31,160200.0
2003-06-30,162000.0
2003-05-31,164900.0
2003-04-30,165700.0
2003-03-31,164200.0
2003-02-28,162700.0
2003-01-31,162200.0
2002-12-31,162900.0
2002-11-30,163600.0
2002-10-31,162700.0
2002-09-30,162400.0
2002-08-31,163300.0
2002-07-31,162400.0
2002-06-30,161000.0
2002-05-31,160400.0
2002-04-30,159800.0
2002-03-31,159900.0
2002-02-28,160300.0
2002-01-31,159700.0
2001-12-31,158700.0
2001-11-30,157900.0
2001-10-31,156800.0
2001-09-30,156300.0
2001-08-31,155800.0
2001-07-31,155200.0
2001-06-30,155400.0
2001-05-31,155300.0
2001-04-30,154200.0
2001-03-31,153200.0
2001-02-28,152500.0
2001-01-31,151800.0
2000-12-31,151800.0
2000-11-30,151700.0
2000-10-31,151600.0
2000-09-30,151900.0
2000-08-31,152200.0
2000-07-31,152200.0
2000-06-30,151800.0
2000-05-31,151000.0
2000-04-30,149400.0
2000-03-31,147600.0
2000-02-29,146600.0
2000-01-31,145700.0
1999-12-31,143500.0
1999-11-30,140700.0
1999-10-31,139800.0
1999-09-30,139500.0
1999-08-31,138700.0
1999-07-31,138000.0
1999-06-30,137700.0
1999-05-31,136700.0
1999-04-30,136700.0
1999-03-31,137500.0
1999-02-28,137300.0
1999-01-31,135100.0
1998-12-31,133600.0
1998-11-30,133500.0
1998-10-31,133500.0
1998-09-30,132600.0
1998-08-31,132900.0
1998-07-31,134000.0
1998-06-30,133600.0
1998-05-31,132200.0
1998-04-30,131100.0
1998-03-31,129300.0
1998-02-28,127100.0
1998-01-31,126500.0
1997-12-31,127300.0
1997-11-30,128300.0
1997-10-31,128400.0
1997-09-30,127300.0
1997-08-31,125300.0
1997-07-31,123700.0
1997-06-30,122000.0
1997-05-31,120700.0
1997-04-30,120500.0
1997-03-31,120500.0
1997-02-28,119800.0
1997-01-31,118900.0
1996-12-31,118800.0
1996-11-30,118800.0
1996-10-31,119000.0
1996-09-30,119800.0
1996-08-31,119900.0
1996-07-31,119100.0
1996-06-30,119400.0
1996-05-31,120500.0
1996-04-30,120800.0
