Date,Value
2015-09-30,1.208
2015-08-31,1.214
2015-07-31,1.22
2015-06-30,1.222
2015-05-31,1.216
2015-04-30,1.206
2015-03-31,1.198
2015-02-28,1.202
2015-01-31,1.208
2014-12-31,1.214
2014-11-30,1.208
2014-10-31,1.2
2014-09-30,1.192
2014-08-31,1.182
2014-07-31,1.172
2014-06-30,1.162
2014-05-31,1.164
2014-04-30,1.168
2014-03-31,1.166
2014-02-28,1.158
2014-01-31,1.148
2013-12-31,1.134
2013-11-30,1.126
2013-10-31,1.122
2013-09-30,1.124
2013-08-31,1.124
2013-07-31,1.122
2013-06-30,1.116
2013-05-31,1.108
2013-04-30,1.1
2013-03-31,1.094
2013-02-28,1.086
2013-01-31,1.074
2012-12-31,1.064
2012-11-30,1.06
2012-10-31,1.06
2012-09-30,1.056
2012-08-31,1.054
2012-07-31,1.05
2012-06-30,1.044
2012-05-31,1.032
2012-04-30,1.026
2012-03-31,1.026
2012-02-29,1.028
2012-01-31,1.03
2011-12-31,1.024
2011-11-30,1.02
2011-10-31,1.012
2011-09-30,1.006
2011-08-31,0.998
2011-07-31,0.998
2011-06-30,1.002
2011-05-31,1.0
2011-04-30,0.994
2011-03-31,0.984
2011-02-28,0.978
2011-01-31,0.982
2010-12-31,0.984
2010-11-30,0.986
