Date,Value
2015-09-30,1.034
2015-08-31,1.032
2015-07-31,1.028
2015-06-30,1.024
2015-05-31,1.018
2015-04-30,1.014
2015-03-31,1.01
2015-02-28,1.006
2015-01-31,1.004
2014-12-31,1.0
2014-11-30,1.0
2014-10-31,0.992
2014-09-30,0.988
2014-08-31,0.984
2014-07-31,0.978
2014-06-30,0.972
2014-05-31,0.966
2014-04-30,0.962
2014-03-31,0.962
2014-02-28,0.96
2014-01-31,0.958
2013-12-31,0.956
2013-11-30,0.95
2013-10-31,0.938
2013-09-30,0.926
2013-08-31,0.914
2013-07-31,0.906
2013-06-30,0.904
2013-05-31,0.902
2013-04-30,0.9
2013-03-31,0.894
2013-02-28,0.89
2013-01-31,0.888
2012-12-31,0.886
2012-11-30,0.888
2012-10-31,0.886
2012-09-30,0.89
2012-08-31,0.892
2012-07-31,0.892
2012-06-30,0.892
2012-05-31,0.89
2012-04-30,0.886
2012-03-31,0.886
2012-02-29,0.886
2012-01-31,0.888
2011-12-31,0.888
2011-11-30,0.89
2011-10-31,0.886
2011-09-30,0.888
2011-08-31,0.892
2011-07-31,0.896
2011-06-30,0.894
2011-05-31,0.892
2011-04-30,0.892
2011-03-31,0.89
2011-02-28,0.886
2011-01-31,0.878
2010-12-31,0.872
2010-11-30,0.864
