Date,Value
2015-09-30,77300.0
2015-08-31,76900.0
2015-07-31,76800.0
2015-06-30,73300.0
2015-05-31,72100.0
2015-04-30,70600.0
2015-03-31,73300.0
2015-02-28,73000.0
2015-01-31,74800.0
2014-12-31,75000.0
2014-11-30,75200.0
2014-10-31,75500.0
2014-09-30,75600.0
2014-08-31,76000.0
2014-07-31,76400.0
2014-06-30,77100.0
2014-05-31,77700.0
2014-04-30,78300.0
2014-03-31,78900.0
2014-02-28,79500.0
2014-01-31,79500.0
2013-12-31,79400.0
2013-11-30,79500.0
2013-10-31,79500.0
2013-09-30,79000.0
2013-08-31,77500.0
2013-07-31,76200.0
2013-06-30,75800.0
2013-05-31,76100.0
2013-04-30,76300.0
2013-03-31,76300.0
2013-02-28,76400.0
2013-01-31,76700.0
2012-12-31,77400.0
2012-11-30,78400.0
2012-10-31,79100.0
2012-09-30,79900.0
2012-08-31,81000.0
2012-07-31,81700.0
2012-06-30,81700.0
2012-05-31,81600.0
2012-04-30,81600.0
2012-03-31,81200.0
2012-02-29,80600.0
2012-01-31,80300.0
2011-12-31,80600.0
2011-11-30,81100.0
2011-10-31,81400.0
2011-09-30,81200.0
2011-08-31,80900.0
2011-07-31,80800.0
2011-06-30,80800.0
2011-05-31,81100.0
2011-04-30,81800.0
2011-03-31,83200.0
2011-02-28,84800.0
2011-01-31,86100.0
2010-12-31,87500.0
2010-11-30,89500.0
2010-10-31,92000.0
2010-09-30,93400.0
2010-08-31,93800.0
2010-07-31,93900.0
2010-06-30,93900.0
2010-05-31,94000.0
2010-04-30,94100.0
2010-03-31,93900.0
2010-02-28,94000.0
2010-01-31,94700.0
2009-12-31,95600.0
2009-11-30,95700.0
2009-10-31,95400.0
2009-09-30,96100.0
2009-08-31,98000.0
2009-07-31,99700.0
2009-06-30,100800.0
2009-05-31,101300.0
2009-04-30,101900.0
2009-03-31,102400.0
2009-02-28,103100.0
2009-01-31,104100.0
2008-12-31,104700.0
2008-11-30,104300.0
2008-10-31,104100.0
2008-09-30,104500.0
2008-08-31,104900.0
2008-07-31,105700.0
2008-06-30,106800.0
2008-05-31,107600.0
2008-04-30,108100.0
2008-03-31,108300.0
2008-02-29,107800.0
2008-01-31,106900.0
2007-12-31,105400.0
2007-11-30,104100.0
2007-10-31,103300.0
2007-09-30,103200.0
2007-08-31,103200.0
2007-07-31,103600.0
2007-06-30,103500.0
2007-05-31,103200.0
2007-04-30,102500.0
2007-03-31,102200.0
2007-02-28,102300.0
2007-01-31,102200.0
2006-12-31,101900.0
2006-11-30,101600.0
2006-10-31,101200.0
2006-09-30,100500.0
2006-08-31,99700.0
2006-07-31,99100.0
2006-06-30,98300.0
2006-05-31,97500.0
2006-04-30,96600.0
2006-03-31,95600.0
2006-02-28,94800.0
2006-01-31,94500.0
2005-12-31,94000.0
2005-11-30,93800.0
2005-10-31,93200.0
2005-09-30,91700.0
2005-08-31,89800.0
2005-07-31,88000.0
2005-06-30,85700.0
2005-05-31,82700.0
2005-04-30,79400.0
2005-03-31,76500.0
2005-02-28,74400.0
2005-01-31,72900.0
2004-12-31,71600.0
2004-11-30,70500.0
2004-10-31,70000.0
2004-09-30,70100.0
2004-08-31,70100.0
2004-07-31,69800.0
2004-06-30,69700.0
2004-05-31,70200.0
2004-04-30,70800.0
2004-03-31,72800.0
2004-02-29,75000.0
2004-01-31,75600.0
2003-12-31,75000.0
2003-11-30,74200.0
2003-10-31,74200.0
2003-09-30,74600.0
2003-08-31,74900.0
2003-07-31,74300.0
2003-06-30,74200.0
2003-05-31,74500.0
2003-04-30,76000.0
2003-03-31,76600.0
2003-02-28,75500.0
2003-01-31,74400.0
2002-12-31,75200.0
2002-11-30,76000.0
2002-10-31,76200.0
2002-09-30,75800.0
2002-08-31,74900.0
2002-07-31,73700.0
2002-06-30,73500.0
2002-05-31,73700.0
2002-04-30,73600.0
2002-03-31,73100.0
2002-02-28,73400.0
2002-01-31,74400.0
2001-12-31,74400.0
2001-11-30,73200.0
2001-10-31,70500.0
2001-09-30,67600.0
2001-08-31,66900.0
2001-07-31,67800.0
2001-06-30,68400.0
2001-05-31,68500.0
2001-04-30,68000.0
2001-03-31,66600.0
2001-02-28,64900.0
2001-01-31,62900.0
2000-12-31,62500.0
2000-11-30,63500.0
2000-10-31,64800.0
2000-09-30,65700.0
2000-08-31,66400.0
2000-07-31,66400.0
2000-06-30,65900.0
2000-05-31,65200.0
2000-04-30,64800.0
2000-03-31,64700.0
2000-02-29,64500.0
2000-01-31,63900.0
1999-12-31,62900.0
1999-11-30,62400.0
1999-10-31,62200.0
1999-09-30,62000.0
1999-08-31,61800.0
1999-07-31,62200.0
1999-06-30,62800.0
1999-05-31,63200.0
1999-04-30,63800.0
1999-03-31,64700.0
1999-02-28,65600.0
1999-01-31,66100.0
1998-12-31,66500.0
1998-11-30,67200.0
1998-10-31,68400.0
1998-09-30,69400.0
1998-08-31,69800.0
1998-07-31,69800.0
1998-06-30,69700.0
1998-05-31,69100.0
1998-04-30,68000.0
1998-03-31,66800.0
1998-02-28,66200.0
1998-01-31,65500.0
1997-12-31,64700.0
1997-11-30,64100.0
1997-10-31,64100.0
1997-09-30,64000.0
1997-08-31,63800.0
1997-07-31,63800.0
1997-06-30,64100.0
1997-05-31,66200.0
1997-04-30,68700.0
1997-03-31,69900.0
1997-02-28,70800.0
1997-01-31,74400.0
1996-12-31,77200.0
1996-11-30,77600.0
1996-10-31,77300.0
1996-09-30,78200.0
1996-08-31,78800.0
1996-07-31,79300.0
1996-06-30,79100.0
1996-05-31,78400.0
1996-04-30,78000.0
