Date,Value
2015-06-30,875.0
2015-05-31,800.0
2015-04-30,750.0
2015-03-31,750.0
2015-02-28,750.0
2015-01-31,750.0
2014-12-31,801.0
2014-11-30,800.0
2014-10-31,850.0
2014-09-30,801.0
2014-08-31,885.0
2014-07-31,885.0
2014-06-30,900.0
2014-05-31,945.0
2014-04-30,945.0
2014-03-31,995.0
2014-02-28,850.0
2014-01-31,850.0
2013-12-31,885.0
2013-11-30,925.0
2013-10-31,885.0
2013-09-30,995.0
2013-08-31,900.0
2013-07-31,900.0
2013-06-30,860.0
2013-05-31,800.0
2013-04-30,707.0
2013-03-31,707.0
2013-02-28,707.0
2013-01-31,750.0
2012-12-31,700.0
2012-11-30,795.0
2012-10-31,825.0
2012-09-30,850.0
2012-08-31,825.0
2012-07-31,795.0
2012-06-30,700.0
2012-05-31,850.0
2012-04-30,795.0
2012-03-31,795.0
2012-02-29,800.0
2012-01-31,795.0
2011-12-31,850.0
2011-11-30,850.0
2011-10-31,795.0
2011-09-30,795.0
2011-08-31,750.0
2011-07-31,795.0
2011-06-30,850.0
2011-05-31,725.0
2011-04-30,750.0
2011-03-31,750.0
2011-02-28,795.0
2011-01-31,795.0
2010-12-31,795.0
2010-11-30,795.0
2010-10-31,800.0
2010-09-30,750.0
2010-08-31,795.0
2010-07-31,700.0
2010-06-30,750.0
2010-05-31,750.0
2010-04-30,795.0
2010-03-31,795.0
