Date,Value
2015-09-30,0.82
2015-08-31,0.816
2015-07-31,0.83
2015-06-30,0.828
2015-05-31,0.824
2015-04-30,0.834
2015-03-31,0.846
2015-02-28,0.86
2015-01-31,0.854
2014-12-31,0.864
2014-11-30,0.878
2014-10-31,0.882
2014-09-30,0.874
2014-08-31,0.866
2014-07-31,0.86
2014-06-30,0.856
2014-05-31,0.852
2014-04-30,0.864
2014-03-31,0.874
2014-02-28,0.88
2014-01-31,0.876
2013-12-31,0.854
2013-11-30,0.838
2013-10-31,0.81
2013-09-30,0.824
2013-08-31,0.824
2013-07-31,0.83
2013-06-30,0.82
2013-05-31,0.822
2013-04-30,0.776
2013-03-31,0.75
2013-02-28,0.742
2013-01-31,0.778
2012-12-31,0.8
2012-11-30,0.808
2012-10-31,0.79
2012-09-30,0.782
2012-08-31,0.79
2012-07-31,0.794
2012-06-30,0.806
2012-05-31,0.802
2012-04-30,0.82
2012-03-31,0.828
2012-02-29,0.826
2012-01-31,0.816
2011-12-31,0.82
2011-11-30,0.84
2011-10-31,0.84
2011-09-30,0.838
2011-08-31,0.832
2011-07-31,0.824
2011-06-30,0.818
2011-05-31,0.818
2011-04-30,0.83
2011-03-31,0.836
2011-02-28,0.834
2011-01-31,0.82
2010-12-31,0.798
2010-11-30,0.764
