Date,Value
2015-06-30,975.0
2015-05-31,950.0
2015-04-30,995.0
2015-03-31,995.0
2015-02-28,1100.0
2015-01-31,1095.0
2014-12-31,1100.0
2014-11-30,1095.0
2014-10-31,1009.0
2014-08-31,904.0
2014-07-31,1099.0
2014-06-30,975.0
2014-05-31,1099.0
2014-04-30,995.0
2014-02-28,795.0
2013-10-31,895.0
2013-09-30,825.0
2013-08-31,795.0
2013-07-31,795.0
2013-06-30,795.0
2013-05-31,795.0
2013-04-30,825.0
2013-03-31,750.0
2013-02-28,800.0
2013-01-31,900.0
2012-12-31,950.0
2012-11-30,1095.0
2012-10-31,795.0
2012-09-30,895.0
2012-08-31,995.0
2012-07-31,795.0
2012-06-30,895.0
2012-05-31,895.0
2012-04-30,895.0
2012-03-31,895.0
2012-02-29,925.0
2012-01-31,895.0
2011-12-31,895.0
2011-11-30,895.0
2011-10-31,795.0
