Date,Value
2015-02-28,269900.0
2015-01-31,269900.0
2014-12-31,249000.0
2014-11-30,269900.0
2014-10-31,274900.0
2014-09-30,280000.0
2014-08-31,294000.0
2014-07-31,299900.0
2014-06-30,299500.0
2014-05-31,279900.0
2014-04-30,264900.0
2014-03-31,254900.0
2014-02-28,239900.0
2014-01-31,239900.0
2013-12-31,254900.0
2013-11-30,279900.0
2013-10-31,265000.0
2013-09-30,239900.0
2013-08-31,250000.0
2013-07-31,265000.0
2013-06-30,265000.0
2013-05-31,250000.0
2013-04-30,242500.0
2013-03-31,235000.0
2013-02-28,215000.0
2013-01-31,205000.0
2012-12-31,215000.0
2012-11-30,229900.0
2012-10-31,235000.0
2012-09-30,239900.0
2012-08-31,224900.0
2012-07-31,239000.0
2012-06-30,229000.0
2012-05-31,210000.0
2012-04-30,214900.0
2012-03-31,209900.0
2012-02-29,206000.0
2012-01-31,209900.0
2011-12-31,225000.0
2011-11-30,227500.0
2011-10-31,220000.0
2011-09-30,225000.0
2011-08-31,224900.0
2011-07-31,210000.0
2011-06-30,204900.0
2011-05-31,202000.0
2011-04-30,209900.0
2011-03-31,219900.0
2011-02-28,215000.0
2011-01-31,225000.0
2010-12-31,225000.0
2010-11-30,224900.0
2010-10-31,223000.0
2010-09-30,225000.0
2010-08-31,229900.0
2010-07-31,234900.0
2010-06-30,224500.0
2010-05-31,234900.0
2010-04-30,230000.0
2010-03-31,227500.0
2010-02-28,225000.0
2010-01-31,230000.0
2009-12-31,234900.0
2009-11-30,235000.0
2009-10-31,239900.0
2009-09-30,238000.0
2009-08-31,234900.0
2009-07-31,234900.0
2009-06-30,239700.0
2009-05-31,240000.0
2009-04-30,249900.0
2009-03-31,254900.0
2009-02-28,255000.0
2009-01-31,255000.0
2008-12-31,259900.0
2008-11-30,265000.0
2008-10-31,265000.0
