Date,Value
2015-09-30,192500.0
2015-08-31,191600.0
2015-07-31,189700.0
2015-06-30,189300.0
2015-05-31,188100.0
2015-04-30,184300.0
2015-03-31,181600.0
2015-02-28,180900.0
2015-01-31,180800.0
2014-12-31,182700.0
2014-11-30,184500.0
2014-10-31,184900.0
2014-09-30,185400.0
2014-08-31,184800.0
2014-07-31,181700.0
2014-06-30,178500.0
2014-05-31,174800.0
2014-04-30,167500.0
2014-03-31,159700.0
2014-02-28,154900.0
2014-01-31,151500.0
2013-12-31,149200.0
2013-11-30,150000.0
2013-10-31,152500.0
2013-09-30,153200.0
2013-08-31,152900.0
2013-07-31,153000.0
2013-06-30,151600.0
2013-05-31,147900.0
2013-04-30,146300.0
2013-03-31,146400.0
2013-02-28,145800.0
2013-01-31,144200.0
2012-12-31,142100.0
2012-11-30,137400.0
2012-10-31,130600.0
2012-09-30,124500.0
2012-08-31,120900.0
2012-07-31,120600.0
2012-06-30,121900.0
2012-05-31,123900.0
2012-04-30,124600.0
2012-03-31,124600.0
2012-02-29,125600.0
2012-01-31,127900.0
2011-12-31,129800.0
2011-11-30,131800.0
2011-10-31,135400.0
2011-09-30,139800.0
2011-08-31,142200.0
2011-07-31,141800.0
2011-06-30,141500.0
2011-05-31,142000.0
2011-04-30,143300.0
2011-03-31,147300.0
2011-02-28,152800.0
2011-01-31,157000.0
2010-12-31,159200.0
2010-11-30,160300.0
2010-10-31,161300.0
2010-09-30,162300.0
2010-08-31,164000.0
2010-07-31,166200.0
2010-06-30,168500.0
2010-05-31,170600.0
2010-04-30,173900.0
2010-03-31,175600.0
2010-02-28,176000.0
2010-01-31,176600.0
2009-12-31,177600.0
2009-11-30,178500.0
2009-10-31,178900.0
2009-09-30,180600.0
2009-08-31,184600.0
2009-07-31,189000.0
2009-06-30,191300.0
2009-05-31,193900.0
2009-04-30,196600.0
2009-03-31,199200.0
2009-02-28,201400.0
2009-01-31,204300.0
2008-12-31,206500.0
2008-11-30,208200.0
2008-10-31,211500.0
2008-09-30,215700.0
2008-08-31,217900.0
2008-07-31,218800.0
2008-06-30,221200.0
2008-05-31,223800.0
2008-04-30,225100.0
2008-03-31,224900.0
2008-02-29,225300.0
2008-01-31,225800.0
2007-12-31,226700.0
2007-11-30,228100.0
2007-10-31,228500.0
2007-09-30,227000.0
2007-08-31,224600.0
2007-07-31,223200.0
2007-06-30,223500.0
2007-05-31,224200.0
2007-04-30,224300.0
2007-03-31,224200.0
2007-02-28,223800.0
2007-01-31,222500.0
2006-12-31,220400.0
2006-11-30,218000.0
2006-10-31,215700.0
2006-09-30,213000.0
2006-08-31,210000.0
2006-07-31,206700.0
2006-06-30,202300.0
2006-05-31,196600.0
2006-04-30,192200.0
2006-03-31,190000.0
2006-02-28,187700.0
2006-01-31,185300.0
2005-12-31,183000.0
2005-11-30,180600.0
2005-10-31,177500.0
2005-09-30,175500.0
2005-08-31,173700.0
2005-07-31,171800.0
2005-06-30,170100.0
2005-05-31,169300.0
2005-04-30,169300.0
2005-03-31,170200.0
2005-02-28,170600.0
2005-01-31,170100.0
2004-12-31,170100.0
2004-11-30,170200.0
2004-10-31,168700.0
2004-09-30,166500.0
2004-08-31,165600.0
2004-07-31,165600.0
2004-06-30,165500.0
2004-05-31,164200.0
2004-04-30,161400.0
2004-03-31,157900.0
2004-02-29,154800.0
2004-01-31,151200.0
2003-12-31,147200.0
2003-11-30,144700.0
2003-10-31,145300.0
2003-09-30,146900.0
2003-08-31,147600.0
2003-07-31,146800.0
2003-06-30,144600.0
2003-05-31,143100.0
2003-04-30,142200.0
2003-03-31,139800.0
2003-02-28,137800.0
2003-01-31,138600.0
2002-12-31,140000.0
2002-11-30,140300.0
2002-10-31,140200.0
2002-09-30,139500.0
2002-08-31,138900.0
2002-07-31,138600.0
2002-06-30,138500.0
2002-05-31,138300.0
2002-04-30,137000.0
2002-03-31,135200.0
2002-02-28,134600.0
2002-01-31,135100.0
2001-12-31,135400.0
2001-11-30,134700.0
2001-10-31,133300.0
2001-09-30,131000.0
2001-08-31,128300.0
2001-07-31,126200.0
2001-06-30,125200.0
2001-05-31,124700.0
2001-04-30,125000.0
2001-03-31,126000.0
2001-02-28,126600.0
2001-01-31,125400.0
2000-12-31,123100.0
2000-11-30,121600.0
2000-10-31,120500.0
2000-09-30,120100.0
2000-08-31,120500.0
2000-07-31,120800.0
2000-06-30,120300.0
2000-05-31,120400.0
2000-04-30,120500.0
2000-03-31,120300.0
2000-02-29,119500.0
2000-01-31,118300.0
1999-12-31,118200.0
1999-11-30,118700.0
1999-10-31,117800.0
1999-09-30,116100.0
1999-08-31,114400.0
1999-07-31,113100.0
1999-06-30,112700.0
1999-05-31,112400.0
1999-04-30,112100.0
1999-03-31,111200.0
1999-02-28,110000.0
1999-01-31,109300.0
1998-12-31,110800.0
1998-11-30,111700.0
1998-10-31,111700.0
1998-09-30,110500.0
1998-08-31,110000.0
1998-07-31,109700.0
1998-06-30,109400.0
1998-05-31,108100.0
1998-04-30,107000.0
1998-03-31,106700.0
1998-02-28,106700.0
1998-01-31,106300.0
1997-12-31,104000.0
1997-11-30,101200.0
1997-10-31,100500.0
1997-09-30,101500.0
1997-08-31,101500.0
1997-07-31,101200.0
1997-06-30,101500.0
1997-05-31,101300.0
1997-04-30,100300.0
1997-03-31,98300.0
1997-02-28,96300.0
1997-01-31,94800.0
1996-12-31,93600.0
1996-11-30,92200.0
1996-10-31,91600.0
1996-09-30,91600.0
1996-08-31,91400.0
1996-07-31,91000.0
1996-06-30,90200.0
1996-05-31,89700.0
1996-04-30,90300.0
