Date,Value
2015-02-28,140000.0
2015-01-31,159900.0
2014-12-31,150000.0
2014-11-30,150000.0
2014-10-31,139500.0
2014-09-30,104000.0
2014-08-31,99000.0
2014-07-31,95000.0
2014-06-30,95000.0
2014-05-31,99000.0
2014-04-30,95000.0
2014-03-31,110000.0
2014-02-28,104000.0
2014-01-31,104000.0
2013-12-31,110000.0
2013-11-30,120000.0
2013-10-31,132500.0
2013-09-30,146000.0
2013-08-31,150000.0
2013-07-31,150000.0
2013-06-30,172000.0
2013-05-31,173500.0
2013-04-30,179950.0
2013-03-31,180000.0
2013-02-28,182000.0
2013-01-31,199000.0
2012-12-31,199000.0
2012-11-30,199000.0
2012-10-31,179950.0
2012-09-30,197500.0
2012-08-31,199000.0
2012-07-31,199900.0
2012-06-30,199900.0
2012-05-31,219900.0
2012-04-30,199000.0
2012-03-31,189500.0
2012-02-29,189950.0
2012-01-31,192900.0
2011-12-31,194500.0
2011-11-30,195000.0
2011-10-31,198000.0
2011-09-30,200000.0
2011-08-31,209000.0
2011-07-31,209000.0
2011-06-30,219000.0
2011-05-31,224500.0
2011-04-30,215000.0
2011-03-31,210000.0
2011-02-28,219900.0
2011-01-31,199000.0
2010-12-31,210000.0
2010-11-30,215000.0
2010-10-31,219000.0
2010-09-30,219900.0
2010-08-31,229000.0
2010-07-31,228500.0
2010-06-30,228500.0
2010-05-31,230800.0
2010-04-30,229500.0
2010-03-31,237000.0
2010-02-28,262000.0
2010-01-31,254950.0
2009-12-31,250000.0
2009-11-30,249900.0
2009-10-31,249000.0
2009-09-30,249000.0
2009-08-31,254950.0
2009-07-31,254950.0
2009-06-30,278000.0
2009-05-31,278000.0
2009-04-30,265000.0
2009-03-31,278000.0
2009-02-28,265000.0
2009-01-31,240000.0
2008-12-31,254950.0
2008-11-30,254950.0
2008-10-31,278000.0
