Date,Value
2015-09-30,221600.0
2015-08-31,221800.0
2015-07-31,221900.0
2015-06-30,219700.0
2015-05-31,216200.0
2015-04-30,214100.0
2015-03-31,214500.0
2015-02-28,214000.0
2015-01-31,212800.0
2014-12-31,210900.0
2014-11-30,208000.0
2014-10-31,204600.0
2014-09-30,203000.0
2014-08-31,202900.0
2014-07-31,202400.0
2014-06-30,200300.0
2014-05-31,197300.0
2014-04-30,195400.0
2014-03-31,194600.0
2014-02-28,192900.0
2014-01-31,190600.0
2013-12-31,188700.0
2013-11-30,187200.0
2013-10-31,186000.0
2013-09-30,184700.0
2013-08-31,183000.0
2013-07-31,181300.0
2013-06-30,179800.0
2013-05-31,178900.0
2013-04-30,178300.0
2013-03-31,178100.0
2013-02-28,178400.0
2013-01-31,178500.0
2012-12-31,178100.0
2012-11-30,177700.0
2012-10-31,177900.0
2012-09-30,178300.0
2012-08-31,178000.0
2012-07-31,177300.0
2012-06-30,177300.0
2012-05-31,177800.0
2012-04-30,178100.0
2012-03-31,178300.0
2012-02-29,178400.0
2012-01-31,178600.0
2011-12-31,179200.0
2011-11-30,180900.0
2011-10-31,182300.0
2011-09-30,183000.0
2011-08-31,183400.0
2011-07-31,184600.0
2011-06-30,186300.0
2011-05-31,188000.0
2011-04-30,189600.0
2011-03-31,191500.0
2011-02-28,193000.0
2011-01-31,194500.0
2010-12-31,196300.0
2010-11-30,198600.0
2010-10-31,200700.0
2010-09-30,202500.0
2010-08-31,204700.0
2010-07-31,207200.0
2010-06-30,209600.0
2010-05-31,211300.0
2010-04-30,211700.0
2010-03-31,211000.0
2010-02-28,210500.0
2010-01-31,210800.0
2009-12-31,211700.0
2009-11-30,212400.0
2009-10-31,213000.0
2009-09-30,213100.0
2009-08-31,213800.0
2009-07-31,215200.0
2009-06-30,216900.0
2009-05-31,218400.0
2009-04-30,220200.0
2009-03-31,222600.0
2009-02-28,225100.0
2009-01-31,227800.0
2008-12-31,230200.0
2008-11-30,231600.0
2008-10-31,232100.0
2008-09-30,232600.0
2008-08-31,233100.0
2008-07-31,233300.0
2008-06-30,233600.0
2008-05-31,234500.0
2008-04-30,236200.0
2008-03-31,238200.0
2008-02-29,239600.0
2008-01-31,239800.0
2007-12-31,239300.0
2007-11-30,238900.0
2007-10-31,239500.0
2007-09-30,240600.0
2007-08-31,241400.0
2007-07-31,241600.0
2007-06-30,241900.0
2007-05-31,242000.0
2007-04-30,242100.0
2007-03-31,241600.0
2007-02-28,241700.0
2007-01-31,242000.0
2006-12-31,241700.0
2006-11-30,240500.0
2006-10-31,238800.0
2006-09-30,236800.0
2006-08-31,235000.0
2006-07-31,232900.0
2006-06-30,229100.0
2006-05-31,224800.0
2006-04-30,220100.0
2006-03-31,215900.0
2006-02-28,212900.0
2006-01-31,210800.0
2005-12-31,209100.0
2005-11-30,207900.0
2005-10-31,206100.0
2005-09-30,203800.0
2005-08-31,201300.0
2005-07-31,198600.0
2005-06-30,195900.0
2005-05-31,193800.0
2005-04-30,192200.0
2005-03-31,190000.0
2005-02-28,187000.0
2005-01-31,183400.0
2004-12-31,179800.0
2004-11-30,176700.0
2004-10-31,174700.0
2004-09-30,173400.0
2004-08-31,172000.0
2004-07-31,170800.0
2004-06-30,170400.0
2004-05-31,169500.0
2004-04-30,168100.0
2004-03-31,166900.0
2004-02-29,165400.0
2004-01-31,164200.0
2003-12-31,163300.0
2003-11-30,162200.0
2003-10-31,160500.0
2003-09-30,158700.0
2003-08-31,156800.0
2003-07-31,155300.0
2003-06-30,154400.0
2003-05-31,153900.0
2003-04-30,153600.0
2003-03-31,153400.0
2003-02-28,152800.0
2003-01-31,151900.0
2002-12-31,151400.0
2002-11-30,151400.0
2002-10-31,150800.0
2002-09-30,149900.0
2002-08-31,149500.0
2002-07-31,149400.0
2002-06-30,148500.0
2002-05-31,147100.0
2002-04-30,145800.0
2002-03-31,144600.0
2002-02-28,143000.0
2002-01-31,141300.0
2001-12-31,139800.0
2001-11-30,138900.0
2001-10-31,138500.0
2001-09-30,138600.0
2001-08-31,138400.0
2001-07-31,137900.0
2001-06-30,138100.0
2001-05-31,139100.0
2001-04-30,140200.0
2001-03-31,141800.0
2001-02-28,144200.0
2001-01-31,145800.0
2000-12-31,146200.0
2000-11-30,146700.0
2000-10-31,147900.0
2000-09-30,148900.0
2000-08-31,149400.0
2000-07-31,149100.0
2000-06-30,148300.0
2000-05-31,147400.0
2000-04-30,146700.0
2000-03-31,145300.0
2000-02-29,144100.0
2000-01-31,143700.0
1999-12-31,142700.0
1999-11-30,140800.0
1999-10-31,139200.0
1999-09-30,138200.0
1999-08-31,137400.0
1999-07-31,136700.0
1999-06-30,136200.0
1999-05-31,135700.0
1999-04-30,133900.0
1999-03-31,131900.0
1999-02-28,130600.0
1999-01-31,129700.0
1998-12-31,129300.0
1998-11-30,129100.0
1998-10-31,128300.0
1998-09-30,127100.0
1998-08-31,126100.0
1998-07-31,125100.0
1998-06-30,124300.0
1998-05-31,123100.0
1998-04-30,121600.0
1998-03-31,120100.0
1998-02-28,118600.0
1998-01-31,117200.0
1997-12-31,116100.0
1997-11-30,115100.0
1997-10-31,114300.0
1997-09-30,113800.0
1997-08-31,114000.0
1997-07-31,115000.0
1997-06-30,115700.0
1997-05-31,115800.0
1997-04-30,115900.0
1997-03-31,116900.0
1997-02-28,117800.0
1997-01-31,118200.0
1996-12-31,118000.0
1996-11-30,118300.0
1996-10-31,118400.0
1996-09-30,118100.0
1996-08-31,117200.0
1996-07-31,115500.0
1996-06-30,113600.0
1996-05-31,112700.0
1996-04-30,113200.0
