Date,Value
2015-09-30,0.916
2015-08-31,0.994
2015-07-31,0.992
2015-06-30,0.986
2015-05-31,0.984
2015-04-30,0.986
2015-03-31,0.98
2015-02-28,0.978
2015-01-31,0.978
2014-12-31,0.984
2014-11-30,0.986
2014-10-31,0.994
2014-09-30,0.996
2014-08-31,1.0
2014-07-31,1.0
2014-06-30,1.006
2014-05-31,1.002
2014-04-30,0.99
2014-03-31,0.97
2014-02-28,0.962
2014-01-31,0.966
2013-12-31,0.962
2013-11-30,0.956
2013-10-31,0.946
2013-09-30,0.938
2013-08-31,0.932
2013-07-31,0.926
2013-06-30,0.918
2013-05-31,0.912
2013-04-30,0.912
2013-03-31,0.914
2013-02-28,0.916
2013-01-31,0.918
2012-12-31,0.908
2012-11-30,0.898
2012-10-31,0.886
2012-09-30,0.88
2012-08-31,0.882
2012-07-31,0.888
2012-06-30,0.894
2012-05-31,0.894
2012-04-30,0.896
2012-03-31,0.89
2012-02-29,0.886
2012-01-31,0.884
2011-12-31,0.88
2011-11-30,0.884
2011-10-31,0.886
2011-09-30,0.884
2011-08-31,0.874
2011-07-31,0.862
2011-06-30,0.848
2011-05-31,0.846
2011-04-30,0.846
