Date,Value
2015-09-30,230250.0
2015-08-31,220650.0
2015-07-31,222900.0
2015-06-30,234500.0
2015-05-31,230500.0
2015-04-30,217000.0
2014-12-31,218237.5
2014-11-30,219137.5
2014-10-31,214675.0
2014-09-30,217585.0
2014-08-31,210765.0
2014-07-31,209850.0
2014-06-30,210850.0
2014-05-31,204235.0
2014-04-30,205017.6471
2014-03-31,201616.8462
2014-01-31,200836.5
2013-12-31,213705.0
2013-11-30,199245.0
2013-10-31,188500.0
2013-09-30,198005.0
2013-08-31,197395.0
2013-07-31,195385.0
2013-06-30,191015.0
2013-05-31,188200.0
2013-04-30,190550.0
2013-03-31,208185.0
2013-02-28,199450.0
2013-01-31,190400.0
2012-12-31,181215.0
2012-11-30,177235.2941
2012-10-31,202000.0
2012-06-30,162323.5294
2012-05-31,158500.0
2011-08-31,164600.0
2011-05-31,175000.0
2010-10-31,175000.0
2010-06-30,181050.0
2010-05-31,185647.0588
2010-04-30,177000.0
2009-11-30,204529.4118
2009-10-31,207769.2308
2009-08-31,197715.0
2009-07-31,199700.0
2009-06-30,198600.0
2009-05-31,197885.0
2009-03-31,189900.0
2008-12-31,228200.0
2008-11-30,231535.0
2008-10-31,235140.35
2008-09-30,236508.35
2008-08-31,226599.3
2008-07-31,220811.45
2008-06-30,232829.55
2008-05-31,231291.0
2008-04-30,234020.0
2008-03-31,226700.0
2008-02-29,229137.0
2008-01-31,231237.5
2007-12-31,237670.5
2007-11-30,239740.0
2007-10-31,241497.75
2007-09-30,245919.75
2007-08-31,241806.3
2007-07-31,235945.35
2007-06-30,232758.35
2007-05-31,235395.5
2007-04-30,246465.0
2007-03-31,263800.0
2007-02-28,278900.0
2007-01-31,255200.0
2006-12-31,249245.25
2006-11-30,245807.25
2006-10-31,249619.75
2006-09-30,253770.25
2006-08-31,251757.5
2006-07-31,256550.0
2006-06-30,258075.0
2006-05-31,260550.0
2006-04-30,262048.9
2006-03-31,258074.1
2006-02-28,250178.0
2006-01-31,257785.0
2005-12-31,241265.0
2005-11-30,239135.0
2005-10-31,223965.0
2005-09-30,223450.0
2005-08-31,227750.0
2005-07-31,216750.0
2005-06-30,207207.5
2005-05-31,202967.5
2005-04-30,198625.0
2005-03-31,191702.5
2005-02-28,188067.5
2005-01-31,186580.0
2004-12-31,186800.0
2004-11-30,173450.0
2004-10-31,168600.0
2004-09-30,169685.0
2004-08-31,174696.0
2004-07-31,171989.0
2004-06-30,171520.0
2004-05-31,175160.0
2004-04-30,173576.4706
2004-03-31,164400.0
2003-12-31,162670.7692
2003-10-31,167600.0
2003-09-30,162035.0
2003-08-31,160340.0
2003-07-31,160768.75
2003-06-30,155466.7
2003-05-31,152989.4706
2003-04-30,150653.0
2002-12-31,149900.0
2002-09-30,146100.0
2002-08-31,150705.8824
2002-07-31,156000.0
2002-01-31,147669.2308
2001-11-30,139900.0
2001-08-31,149900.0
2001-05-31,150000.0
2000-11-30,143550.0
2000-10-31,142975.0
2000-09-30,138675.0
2000-08-31,149411.7647
2000-07-31,155000.0
2000-02-29,135900.0
1999-08-31,127375.0
1999-07-31,130500.0
1999-06-30,132075.0
1999-05-31,140950.0
1999-04-30,140835.0
1999-03-31,140015.0
1999-02-28,134385.0
1999-01-31,141080.0
1998-12-31,138085.0
1998-11-30,139516.85
1998-10-31,142472.65
1998-09-30,152193.25
1998-08-31,155608.75
1998-07-31,144940.0
1998-06-30,137747.5
1998-05-31,139970.5882
1998-04-30,153000.0
1997-12-31,139730.7692
1997-10-31,132484.4615
1997-08-31,128568.0
1997-07-31,127765.0
1997-06-30,130817.55
1997-05-31,141444.75
1997-04-30,147785.7
1997-03-31,156012.9412
1997-02-28,137900.0
1996-10-31,115230.7692
1996-08-31,128245.0
1996-07-31,130720.0
1996-06-30,132676.4706
1996-05-31,125500.0
