Date,Value
2015-09-30,259010.45
2015-08-31,280500.0
2015-07-31,302647.0588
2015-06-30,275307.6923
2014-12-31,290900.0
2014-11-30,285600.0
2014-10-31,290542.0
2014-09-30,297140.0
2014-08-31,310480.0
2014-07-31,293330.0
2014-06-30,280630.0
2014-05-31,281422.5
2014-04-30,264012.5
2014-03-31,268191.7647
2014-02-28,265280.0
2013-11-30,240792.0
2013-10-31,262148.0
2013-09-30,264107.0
2013-08-31,288023.0
2013-07-31,298490.0
2013-06-30,302831.5
2013-05-31,297557.0588
2013-04-30,281210.0
2013-01-31,247182.9412
2012-12-31,221730.0
2012-08-31,260980.0
2012-07-31,244126.1538
2012-05-31,250947.5
2012-04-30,250994.7059
2012-03-31,247730.0
2011-10-31,312773.8462
2011-08-31,238455.0
2011-07-31,298680.0
2011-06-30,308221.1765
2011-05-31,291741.5385
2011-03-31,313280.0
2010-12-31,239280.0
2010-07-31,304262.5
2010-06-30,261146.4
2010-05-31,257126.6
2010-04-30,280618.8235
2010-03-31,289280.0
2009-11-30,282147.0
2009-10-31,262340.0
2009-09-30,261380.0
2009-08-31,287930.0
2009-07-31,309163.35
2009-06-30,308841.15
2009-05-31,257861.7647
2009-04-30,260280.0
2008-09-30,295653.0769
2008-07-31,265705.0
2008-06-30,246430.0
2008-05-31,231044.7059
2008-04-30,249280.0
2007-12-31,273830.0
2007-11-30,265830.0
2007-10-31,296430.0
2007-09-30,311330.0
2007-08-31,274030.0
2007-07-31,261530.0
2007-06-30,277772.5
2007-05-31,292812.5
2007-04-30,293955.0
2007-03-31,289780.0
2007-02-28,273280.0
2007-01-31,271530.0
2006-12-31,278840.0
2006-11-30,279370.0
2006-10-31,291880.0
2006-09-30,284230.0
2006-08-31,285105.0
2006-07-31,311117.5
2006-06-30,305142.5
2006-05-31,294413.0
2006-04-30,272682.0
2006-03-31,260535.5
2006-02-28,246619.5
2006-01-31,236015.0
2005-12-31,263105.0
2005-11-30,242955.0
2005-10-31,259780.0
2005-09-30,259730.0
2005-08-31,258588.0
2005-07-31,255840.0
2005-06-30,239200.0
2005-05-31,229750.0
2005-04-30,224300.0
2005-03-31,224705.8824
2005-02-28,223576.9231
2004-12-31,231882.5
2004-11-30,225400.0
2004-10-31,223750.0
2004-09-30,215635.0
2004-08-31,228465.0
2004-07-31,223700.0
2004-06-30,210955.0
2004-05-31,217899.55
2004-04-30,204193.95
2004-03-31,189848.5
2004-02-29,181875.0
2004-01-31,190110.0
2003-12-31,194015.0
2003-11-30,191850.0
2003-10-31,194842.5
2003-09-30,194917.5
2003-08-31,191275.0
2003-07-31,187615.0
2003-06-30,190385.0
2003-05-31,180715.0
2003-04-30,175935.0
2003-03-31,180340.0
2003-02-28,174430.0
2003-01-31,172170.0
2002-12-31,167300.0
2002-11-30,171875.0
2002-10-31,177400.0
2002-09-30,185417.5
2002-08-31,179360.0
2002-07-31,177940.0
2002-06-30,173582.5
2002-05-31,172800.0
2002-04-30,163985.0
2002-03-31,168356.8
2002-02-28,160349.2
2002-01-31,154763.5
2001-12-31,165907.5
2001-11-30,163000.0
2001-10-31,167790.0
2001-09-30,171110.0
2001-08-31,174192.5
2001-07-31,166007.5
2001-06-30,157400.0
2001-05-31,155255.0
2001-04-30,156395.0
2001-03-31,154047.5
2001-02-28,152015.4
2001-01-31,151380.1
2000-12-31,154768.0
2000-11-30,159494.2
2000-10-31,152094.8
2000-09-30,154489.0
2000-08-31,159025.0
2000-07-31,168400.0
2000-06-30,163085.0
2000-05-31,162007.5
2000-04-30,160632.5
2000-03-31,140860.0
2000-02-29,135315.0
2000-01-31,135875.0
1999-12-31,133960.0
1999-11-30,137707.95
1999-10-31,137183.55
1999-09-30,136576.5
1999-08-31,141992.5
1999-07-31,138382.35
1999-06-30,137861.9
1999-05-31,136312.25
1999-04-30,135740.0
1999-03-31,134425.0
1999-02-28,141250.0
1999-01-31,147800.0
1998-12-31,140775.0
1998-11-30,140575.0
1998-10-31,138850.0
1998-09-30,139050.0
1998-08-31,141934.6
1998-07-31,141547.4
1998-06-30,137282.0
1998-05-31,140750.0
1998-04-30,144567.5
1998-03-31,143877.5
1998-02-28,138740.0
1998-01-31,142765.0
1997-12-31,131800.0
1997-11-30,134642.5
1997-10-31,133732.5
1997-09-30,133225.0
1997-08-31,131375.0
1997-07-31,135675.0
1997-06-30,139325.0
1997-05-31,147250.0
1997-04-30,136075.0
1997-03-31,137535.0
1997-02-28,139435.0
1997-01-31,145322.5
1996-12-31,130482.5
1996-11-30,133407.0
1996-10-31,136125.5
1996-09-30,141692.5
1996-08-31,132627.5
1996-07-31,131277.5
1996-06-30,131567.5
1996-05-31,133682.5
1996-04-30,133375.0
