Date,Value
2015-09-30,329500.0
2015-08-31,330400.0
2015-07-31,326900.0
2015-06-30,320900.0
2015-05-31,319100.0
2015-04-30,317600.0
2015-03-31,320000.0
2015-02-28,318800.0
2015-01-31,316300.0
2014-12-31,315600.0
2014-11-30,315000.0
2014-10-31,313800.0
2014-09-30,312100.0
2014-08-31,310100.0
2014-07-31,308100.0
2014-06-30,306800.0
2014-05-31,306200.0
2014-04-30,306500.0
2014-03-31,308100.0
2014-02-28,309000.0
2014-01-31,307700.0
2013-12-31,305500.0
2013-11-30,303100.0
2013-10-31,300100.0
2013-09-30,296000.0
2013-08-31,293000.0
2013-07-31,291600.0
2013-06-30,290000.0
2013-05-31,286500.0
2013-04-30,283100.0
2013-03-31,281200.0
2013-02-28,280800.0
2013-01-31,280500.0
2012-12-31,279600.0
2012-11-30,278500.0
2012-10-31,278200.0
2012-09-30,278600.0
2012-08-31,279600.0
2012-07-31,280000.0
2012-06-30,279500.0
2012-05-31,279600.0
2012-04-30,280600.0
2012-03-31,280600.0
2012-02-29,280100.0
2012-01-31,281100.0
2011-12-31,284100.0
2011-11-30,287500.0
2011-10-31,290700.0
2011-09-30,294400.0
2011-08-31,298100.0
2011-07-31,300000.0
2011-06-30,301300.0
2011-05-31,303200.0
2011-04-30,305600.0
2011-03-31,308300.0
2011-02-28,311700.0
2011-01-31,314800.0
2010-12-31,316900.0
2010-11-30,317200.0
2010-10-31,317100.0
2010-09-30,317800.0
2010-08-31,319600.0
2010-07-31,322500.0
2010-06-30,325600.0
2010-05-31,327000.0
2010-04-30,326900.0
2010-03-31,327100.0
2010-02-28,328400.0
2010-01-31,330900.0
2009-12-31,333200.0
2009-11-30,334800.0
2009-10-31,334600.0
2009-09-30,333200.0
2009-08-31,331900.0
2009-07-31,331400.0
2009-06-30,331100.0
2009-05-31,332800.0
2009-04-30,335700.0
2009-03-31,337000.0
2009-02-28,335800.0
2009-01-31,334700.0
2008-12-31,334200.0
2008-11-30,334500.0
2008-10-31,337200.0
2008-09-30,340700.0
2008-08-31,341800.0
2008-07-31,343600.0
2008-06-30,348400.0
2008-05-31,354100.0
2008-04-30,357800.0
2008-03-31,359600.0
2008-02-29,360800.0
2008-01-31,361600.0
2007-12-31,363200.0
2007-11-30,367000.0
2007-10-31,371500.0
2007-09-30,375400.0
2007-08-31,378800.0
2007-07-31,380600.0
2007-06-30,380300.0
2007-05-31,378900.0
2007-04-30,378200.0
2007-03-31,379000.0
2007-02-28,380100.0
2007-01-31,380000.0
2006-12-31,378400.0
2006-11-30,376200.0
2006-10-31,373500.0
2006-09-30,370500.0
2006-08-31,368100.0
2006-07-31,366400.0
2006-06-30,363800.0
2006-05-31,360900.0
2006-04-30,357600.0
2006-03-31,353800.0
2006-02-28,349800.0
2006-01-31,346800.0
2005-12-31,343900.0
2005-11-30,340200.0
2005-10-31,336200.0
2005-09-30,331800.0
2005-08-31,327100.0
2005-07-31,322000.0
2005-06-30,317600.0
2005-05-31,313100.0
2005-04-30,308400.0
2005-03-31,303100.0
2005-02-28,297800.0
2005-01-31,291400.0
2004-12-31,284700.0
2004-11-30,278300.0
2004-10-31,273300.0
2004-09-30,269800.0
2004-08-31,267000.0
2004-07-31,263100.0
2004-06-30,258500.0
2004-05-31,253800.0
2004-04-30,249400.0
2004-03-31,245800.0
2004-02-29,242700.0
2004-01-31,240300.0
2003-12-31,239300.0
2003-11-30,238200.0
2003-10-31,236000.0
2003-09-30,233300.0
2003-08-31,230600.0
2003-07-31,228600.0
2003-06-30,226800.0
2003-05-31,224700.0
2003-04-30,222600.0
2003-03-31,220900.0
2003-02-28,220100.0
2003-01-31,220300.0
2002-12-31,220500.0
2002-11-30,219600.0
2002-10-31,217400.0
2002-09-30,214400.0
2002-08-31,211400.0
2002-07-31,208300.0
2002-06-30,205500.0
2002-05-31,203700.0
2002-04-30,202800.0
2002-03-31,202000.0
2002-02-28,200000.0
2002-01-31,198400.0
2001-12-31,197000.0
2001-11-30,195800.0
2001-10-31,194500.0
2001-09-30,194500.0
2001-08-31,194400.0
2001-07-31,194000.0
2001-06-30,194400.0
2001-05-31,195800.0
2001-04-30,196500.0
2001-03-31,198000.0
2001-02-28,199700.0
2001-01-31,199200.0
2000-12-31,197000.0
2000-11-30,195900.0
2000-10-31,195400.0
2000-09-30,194400.0
2000-08-31,193000.0
2000-07-31,191600.0
2000-06-30,189600.0
2000-05-31,186400.0
2000-04-30,183000.0
2000-03-31,181400.0
2000-02-29,180600.0
2000-01-31,178900.0
1999-12-31,177200.0
1999-11-30,177200.0
1999-10-31,177600.0
1999-09-30,177700.0
1999-08-31,178200.0
1999-07-31,179200.0
1999-06-30,180000.0
1999-05-31,180500.0
1999-04-30,181200.0
1999-03-31,181400.0
1999-02-28,180400.0
1999-01-31,178700.0
1998-12-31,177600.0
1998-11-30,176800.0
1998-10-31,175700.0
1998-09-30,174300.0
1998-08-31,173600.0
1998-07-31,172900.0
1998-06-30,171600.0
1998-05-31,170200.0
1998-04-30,170200.0
1998-03-31,170300.0
1998-02-28,169100.0
1998-01-31,167100.0
1997-12-31,165600.0
1997-11-30,164400.0
1997-10-31,164200.0
1997-09-30,163500.0
1997-08-31,162000.0
1997-07-31,160800.0
1997-06-30,160800.0
1997-05-31,161600.0
1997-04-30,162000.0
1997-03-31,162500.0
1997-02-28,162800.0
1997-01-31,145500.0
1996-12-31,145200.0
1996-11-30,145300.0
1996-10-31,145100.0
1996-09-30,144600.0
1996-08-31,144800.0
1996-07-31,145500.0
1996-06-30,146400.0
1996-05-31,147600.0
1996-04-30,148100.0
