Date,Value
2014-12-31,228600.0
2014-11-30,228200.0
2014-10-31,227800.0
2014-09-30,225000.0
2014-08-31,220800.0
2014-07-31,218600.0
2014-06-30,216300.0
2014-05-31,210200.0
2014-04-30,204500.0
2014-03-31,201700.0
2014-02-28,200300.0
2014-01-31,198700.0
2013-12-31,196800.0
2013-11-30,195500.0
2013-10-31,194200.0
2013-09-30,190800.0
2013-08-31,186700.0
2013-07-31,184100.0
2013-06-30,184500.0
2013-05-31,186700.0
2013-04-30,189200.0
2013-03-31,193600.0
2013-02-28,200000.0
2013-01-31,204200.0
2012-12-31,205000.0
2012-11-30,203900.0
2012-10-31,201900.0
2012-09-30,199800.0
2012-08-31,197100.0
2012-07-31,193900.0
2012-06-30,190500.0
2012-05-31,186600.0
2012-04-30,178800.0
2012-03-31,170300.0
2012-02-29,165300.0
2012-01-31,163800.0
2011-12-31,161500.0
2011-11-30,159300.0
2011-10-31,157800.0
2011-09-30,156700.0
2011-08-31,156500.0
2011-07-31,158100.0
2011-06-30,160100.0
2011-05-31,162000.0
2011-04-30,164400.0
2011-03-31,165800.0
2011-02-28,165700.0
2011-01-31,166500.0
2010-12-31,168000.0
2010-11-30,169200.0
2010-10-31,171700.0
2010-09-30,178000.0
2010-08-31,184100.0
2010-07-31,186700.0
2010-06-30,188600.0
2010-05-31,191500.0
2010-04-30,193800.0
2010-03-31,194200.0
2010-02-28,193700.0
2010-01-31,193400.0
2009-12-31,193400.0
2009-11-30,192600.0
2009-10-31,191900.0
2009-09-30,192700.0
2009-08-31,193300.0
2009-07-31,191200.0
2009-06-30,188100.0
2009-05-31,186100.0
2009-04-30,184300.0
2009-03-31,183600.0
2009-02-28,184200.0
2009-01-31,183200.0
2008-12-31,183500.0
2008-11-30,187300.0
2008-10-31,191300.0
2008-09-30,191400.0
2008-08-31,192500.0
2008-07-31,195500.0
2008-06-30,196500.0
2008-05-31,197200.0
2008-04-30,203000.0
2008-03-31,210900.0
2008-02-29,216700.0
2008-01-31,222000.0
2007-12-31,227100.0
2007-11-30,229200.0
2007-10-31,229300.0
2007-09-30,230700.0
2007-08-31,231800.0
2007-07-31,232800.0
2007-06-30,234800.0
2007-05-31,236700.0
2007-04-30,237300.0
2007-03-31,238300.0
2007-02-28,237600.0
2007-01-31,237200.0
2006-12-31,237300.0
2006-11-30,237200.0
2006-10-31,236400.0
2006-09-30,235700.0
2006-08-31,233800.0
2006-07-31,232500.0
2006-06-30,232700.0
2006-05-31,232400.0
2006-04-30,231700.0
2006-03-31,231200.0
2006-02-28,229600.0
2006-01-31,228300.0
2005-12-31,229300.0
2005-11-30,230500.0
2005-10-31,229700.0
2005-09-30,228600.0
2005-08-31,229500.0
2005-07-31,232000.0
2005-06-30,234500.0
2005-05-31,236600.0
2005-04-30,236300.0
2005-03-31,234900.0
2005-02-28,235400.0
2005-01-31,235800.0
2004-12-31,232700.0
2004-11-30,230200.0
2004-10-31,229900.0
2004-09-30,229400.0
2004-08-31,228300.0
2004-07-31,226300.0
2004-06-30,224500.0
2004-05-31,224400.0
2004-04-30,223900.0
2004-03-31,220800.0
2004-02-29,218400.0
2004-01-31,216800.0
2003-12-31,215200.0
2003-11-30,213500.0
2003-10-31,213200.0
2003-09-30,214500.0
2003-08-31,217200.0
2003-07-31,218700.0
2003-06-30,218600.0
2003-05-31,217500.0
2003-04-30,216600.0
2003-03-31,216300.0
2003-02-28,216100.0
2003-01-31,215200.0
2002-12-31,215200.0
2002-11-30,214600.0
2002-10-31,212900.0
2002-09-30,211200.0
2002-08-31,209700.0
2002-07-31,208300.0
2002-06-30,207000.0
2002-05-31,205000.0
2002-04-30,204200.0
2002-03-31,205300.0
2002-02-28,205300.0
2002-01-31,203800.0
2001-12-31,202700.0
2001-11-30,201100.0
2001-10-31,198700.0
2001-09-30,196300.0
2001-08-31,192500.0
2001-07-31,188800.0
2001-06-30,186500.0
2001-05-31,184500.0
2001-04-30,181900.0
2001-03-31,180600.0
2001-02-28,180500.0
2001-01-31,179200.0
2000-12-31,175100.0
2000-11-30,173700.0
2000-10-31,176600.0
2000-09-30,178100.0
2000-08-31,176800.0
2000-07-31,174500.0
2000-06-30,171800.0
2000-05-31,170000.0
2000-04-30,169900.0
2000-03-31,168300.0
2000-02-29,165800.0
2000-01-31,163800.0
1999-12-31,163200.0
1999-11-30,162400.0
1999-10-31,158100.0
1999-09-30,152300.0
1999-08-31,147800.0
1999-07-31,144500.0
1999-06-30,141700.0
1999-05-31,140500.0
1999-04-30,138800.0
1999-03-31,136200.0
1999-02-28,133900.0
1999-01-31,133200.0
1998-12-31,133300.0
1998-11-30,133200.0
1998-10-31,132800.0
1998-09-30,132800.0
1998-08-31,134300.0
1998-07-31,137900.0
1998-06-30,142300.0
1998-05-31,145900.0
1998-04-30,147800.0
1998-03-31,147500.0
1998-02-28,146000.0
1998-01-31,144800.0
1997-12-31,143900.0
1997-11-30,142600.0
1997-10-31,141500.0
1997-09-30,140900.0
1997-08-31,139700.0
1997-07-31,138000.0
1997-06-30,136200.0
1997-05-31,132500.0
1997-04-30,128400.0
1997-03-31,126400.0
1997-02-28,125000.0
1997-01-31,124500.0
1996-12-31,124900.0
1996-11-30,124900.0
1996-10-31,123600.0
1996-09-30,123400.0
1996-08-31,123000.0
1996-07-31,121800.0
1996-06-30,119500.0
1996-05-31,116700.0
1996-04-30,114400.0
