Date,Value
2015-09-30,0.842
2015-08-31,0.872
2015-07-31,0.866
2015-06-30,0.788
2015-05-31,0.73
2015-04-30,0.698
2015-03-31,0.706
2015-02-28,0.726
2015-01-31,0.752
2014-12-31,0.772
2014-11-30,0.78
2014-10-31,0.786
2014-09-30,0.78
2014-08-31,0.782
2014-07-31,0.808
2014-06-30,0.84
2014-05-31,0.854
2014-04-30,0.862
2014-03-31,0.856
2014-02-28,0.842
2014-01-31,0.802
2013-12-31,0.76
2013-11-30,0.736
2013-10-31,0.736
2013-09-30,0.72
2013-08-31,0.7
2013-07-31,0.682
2013-06-30,0.674
2013-05-31,0.682
2013-04-30,0.692
2013-03-31,0.7
2013-02-28,0.71
2013-01-31,0.738
2012-12-31,0.756
2012-11-30,0.782
2012-10-31,0.816
2012-09-30,0.85
2012-08-31,0.878
2012-07-31,0.888
2012-06-30,0.886
2012-05-31,0.878
2012-04-30,0.876
2012-03-31,0.87
2012-02-29,0.866
2012-01-31,0.878
2011-12-31,0.876
2011-11-30,0.874
2011-10-31,0.87
2011-09-30,0.86
2011-08-31,0.85
2011-07-31,0.844
2011-06-30,0.832
2011-05-31,0.824
2011-04-30,0.82
2011-03-31,0.832
2011-02-28,0.85
2011-01-31,0.884
2010-12-31,0.896
2010-11-30,0.896
