Date,Value
2015-09-30,144200.0
2015-08-31,140000.0
2015-07-31,139800.0
2015-06-30,140200.0
2015-05-31,138900.0
2015-04-30,136400.0
2015-03-31,136700.0
2015-02-28,136900.0
2015-01-31,135700.0
2014-12-31,136100.0
2014-11-30,136000.0
2014-10-31,135500.0
2014-09-30,135300.0
2014-08-31,135100.0
2014-07-31,134700.0
2014-06-30,133900.0
2014-05-31,133500.0
2014-04-30,134100.0
2014-03-31,134600.0
2014-02-28,134500.0
2014-01-31,134700.0
2013-12-31,134700.0
2013-11-30,133800.0
2013-10-31,132800.0
2013-09-30,132400.0
2013-08-31,132300.0
2013-07-31,132400.0
2013-06-30,133600.0
2013-05-31,134800.0
2013-04-30,134400.0
2013-03-31,133400.0
2013-02-28,132600.0
2013-01-31,131200.0
2012-12-31,129900.0
2012-11-30,129400.0
2012-10-31,129400.0
2012-09-30,129000.0
2012-08-31,128500.0
2012-07-31,128200.0
2012-06-30,127400.0
2012-05-31,126400.0
2012-04-30,126100.0
2012-03-31,126700.0
2012-02-29,127100.0
2012-01-31,126900.0
2011-12-31,126400.0
2011-11-30,126200.0
2011-10-31,126700.0
2011-09-30,127500.0
2011-08-31,128800.0
2011-07-31,129700.0
2011-06-30,129800.0
2011-05-31,129900.0
2011-04-30,129600.0
2011-03-31,128700.0
2011-02-28,127900.0
2011-01-31,128000.0
2010-12-31,128000.0
2010-11-30,128100.0
2010-10-31,128100.0
2010-09-30,128100.0
2010-08-31,128100.0
2010-07-31,128000.0
2010-06-30,128400.0
2010-05-31,129300.0
2010-04-30,129900.0
2010-03-31,129600.0
2010-02-28,129000.0
2010-01-31,128800.0
2009-12-31,129300.0
2009-11-30,129800.0
2009-10-31,130300.0
2009-09-30,130600.0
2009-08-31,129900.0
2009-07-31,128500.0
2009-06-30,126900.0
2009-05-31,125700.0
2009-04-30,126400.0
2009-03-31,128100.0
2009-02-28,128900.0
2009-01-31,129200.0
2008-12-31,130000.0
2008-11-30,131000.0
2008-10-31,131500.0
2008-09-30,130600.0
2008-08-31,130500.0
2008-07-31,132600.0
2008-06-30,135700.0
2008-05-31,137000.0
2008-04-30,136100.0
2008-03-31,135000.0
2008-02-29,134900.0
2008-01-31,134700.0
2007-12-31,134000.0
2007-11-30,134000.0
2007-10-31,134300.0
2007-09-30,133500.0
2007-08-31,131900.0
2007-07-31,130000.0
2007-06-30,128100.0
2007-05-31,126600.0
2007-04-30,126400.0
2007-03-31,126500.0
2007-02-28,126800.0
2007-01-31,127100.0
2006-12-31,126700.0
2006-11-30,125400.0
2006-10-31,124100.0
2006-09-30,124300.0
2006-08-31,124400.0
2006-07-31,123200.0
2006-06-30,121600.0
2006-05-31,120400.0
2006-04-30,119400.0
2006-03-31,118600.0
2006-02-28,118100.0
2006-01-31,117900.0
2005-12-31,117700.0
2005-11-30,116900.0
2005-10-31,115800.0
2005-09-30,114800.0
2005-08-31,114200.0
2005-07-31,114500.0
2005-06-30,114800.0
2005-05-31,114700.0
2005-04-30,113700.0
2005-03-31,112400.0
2005-02-28,111300.0
2005-01-31,109700.0
2004-12-31,107500.0
2004-11-30,106200.0
2004-10-31,104900.0
2004-09-30,103700.0
2004-08-31,104000.0
2004-07-31,103900.0
2004-06-30,103200.0
2004-05-31,103200.0
2004-04-30,103900.0
2004-03-31,104000.0
2004-02-29,103900.0
2004-01-31,103900.0
2003-12-31,103900.0
2003-11-30,103800.0
2003-10-31,104300.0
2003-09-30,105100.0
2003-08-31,104100.0
2003-07-31,101800.0
2003-06-30,100700.0
2003-05-31,100200.0
2003-04-30,99900.0
2003-03-31,100200.0
2003-02-28,100800.0
2003-01-31,101100.0
2002-12-31,101300.0
2002-11-30,100800.0
2002-10-31,99100.0
2002-09-30,97300.0
2002-08-31,96900.0
2002-07-31,98300.0
2002-06-30,98900.0
2002-05-31,97300.0
2002-04-30,95400.0
2002-03-31,93800.0
2002-02-28,91300.0
2002-01-31,89500.0
2001-12-31,89100.0
2001-11-30,89500.0
2001-10-31,90900.0
2001-09-30,92600.0
2001-08-31,93400.0
2001-07-31,93000.0
2001-06-30,92800.0
2001-05-31,92500.0
2001-04-30,91900.0
2001-03-31,91400.0
2001-02-28,91300.0
2001-01-31,91100.0
2000-12-31,91000.0
2000-11-30,90800.0
2000-10-31,90700.0
2000-09-30,90000.0
2000-08-31,88900.0
2000-07-31,88100.0
2000-06-30,88800.0
2000-05-31,90200.0
2000-04-30,91700.0
2000-03-31,92900.0
2000-02-29,94100.0
2000-01-31,94900.0
1999-12-31,95700.0
1999-11-30,96300.0
1999-10-31,95800.0
1999-09-30,95400.0
1999-08-31,95700.0
1999-07-31,95500.0
1999-06-30,94500.0
1999-05-31,93500.0
1999-04-30,92700.0
1999-03-31,91900.0
1999-02-28,91500.0
1999-01-31,91000.0
1998-12-31,90100.0
1998-11-30,89600.0
1998-10-31,89800.0
1998-09-30,90200.0
1998-08-31,90500.0
1998-07-31,91800.0
1998-06-30,93300.0
1998-05-31,94800.0
1998-04-30,96200.0
1998-03-31,96700.0
1998-02-28,96000.0
1998-01-31,95400.0
1997-12-31,95700.0
1997-11-30,96100.0
1997-10-31,95300.0
1997-09-30,93800.0
1997-08-31,92600.0
1997-07-31,91400.0
1997-06-30,89700.0
1997-05-31,88600.0
1997-04-30,88200.0
1997-03-31,88000.0
1997-02-28,88100.0
1997-01-31,88300.0
1996-12-31,87500.0
1996-11-30,86800.0
1996-10-31,87200.0
1996-09-30,88200.0
1996-08-31,88700.0
1996-07-31,88600.0
1996-06-30,88200.0
1996-05-31,87900.0
1996-04-30,87700.0
