Date,Value
2015-09-30,1.024
2015-08-31,1.02
2015-07-31,1.012
2015-06-30,1.006
2015-05-31,1.0
2015-04-30,0.992
2015-03-31,0.988
2015-02-28,0.988
2015-01-31,0.99
2014-12-31,0.984
2014-11-30,0.976
2014-10-31,0.964
2014-09-30,0.952
2014-08-31,0.94
2014-07-31,0.926
2014-06-30,0.916
2014-05-31,0.912
2014-04-30,0.91
2014-03-31,0.914
2014-02-28,0.92
2014-01-31,0.924
2013-12-31,0.922
2013-11-30,0.922
2013-10-31,0.918
2013-09-30,0.912
2013-08-31,0.906
2013-07-31,0.898
2013-06-30,0.894
2013-05-31,0.89
2013-04-30,0.886
2013-03-31,0.884
2013-02-28,0.888
2013-01-31,0.888
2012-12-31,0.878
2012-11-30,0.87
2012-10-31,0.866
2012-09-30,0.868
2012-08-31,0.868
2012-07-31,0.864
2012-06-30,0.858
2012-05-31,0.848
2012-04-30,0.836
2012-03-31,0.834
2012-02-29,0.842
2012-01-31,0.84
2011-12-31,0.826
2011-11-30,0.808
2011-10-31,0.796
2011-09-30,0.794
2011-08-31,0.794
2011-07-31,0.796
2011-06-30,0.796
2011-05-31,0.794
2011-04-30,0.79
2011-03-31,0.764
2011-02-28,0.722
2011-01-31,0.68
2010-12-31,0.688
2010-11-30,0.698
