Date,Value
2015-09-30,194100.0
2015-08-31,188700.0
2015-07-31,186300.0
2015-06-30,186500.0
2015-05-31,183300.0
2015-04-30,182300.0
2015-03-31,182500.0
2015-02-28,183200.0
2015-01-31,182600.0
2014-12-31,181500.0
2014-11-30,179800.0
2014-10-31,178700.0
2014-09-30,178000.0
2014-08-31,177200.0
2014-07-31,176200.0
2014-06-30,175200.0
2014-05-31,174400.0
2014-04-30,173200.0
2014-03-31,171700.0
2014-02-28,170500.0
2014-01-31,169000.0
2013-12-31,167100.0
2013-11-30,166200.0
2013-10-31,165700.0
2013-09-30,164800.0
2013-08-31,164500.0
2013-07-31,164200.0
2013-06-30,163400.0
2013-05-31,162500.0
2013-04-30,162100.0
2013-03-31,162000.0
2013-02-28,161600.0
2013-01-31,161000.0
2012-12-31,160700.0
2012-11-30,161100.0
2012-10-31,161600.0
2012-09-30,162300.0
2012-08-31,162500.0
2012-07-31,162700.0
2012-06-30,163200.0
2012-05-31,163800.0
2012-04-30,164200.0
2012-03-31,164300.0
2012-02-29,165000.0
2012-01-31,166400.0
2011-12-31,167800.0
2011-11-30,168700.0
2011-10-31,169600.0
2011-09-30,170800.0
2011-08-31,172400.0
2011-07-31,174000.0
2011-06-30,175800.0
2011-05-31,178100.0
2011-04-30,180400.0
2011-03-31,182100.0
2011-02-28,183300.0
2011-01-31,184400.0
2010-12-31,185400.0
2010-11-30,186300.0
2010-10-31,187000.0
2010-09-30,187800.0
2010-08-31,188800.0
2010-07-31,190400.0
2010-06-30,192300.0
2010-05-31,193800.0
2010-04-30,194800.0
2010-03-31,196100.0
2010-02-28,197900.0
2010-01-31,199600.0
2009-12-31,200900.0
2009-11-30,201400.0
2009-10-31,202500.0
2009-09-30,204500.0
2009-08-31,206200.0
2009-07-31,206900.0
2009-06-30,207500.0
2009-05-31,208100.0
2009-04-30,208500.0
2009-03-31,209500.0
2009-02-28,211100.0
2009-01-31,212800.0
2008-12-31,214400.0
2008-11-30,215900.0
2008-10-31,217000.0
2008-09-30,217400.0
2008-08-31,217400.0
2008-07-31,218300.0
2008-06-30,219500.0
2008-05-31,220200.0
2008-04-30,221000.0
2008-03-31,221600.0
2008-02-29,221700.0
2008-01-31,222100.0
2007-12-31,223300.0
2007-11-30,225000.0
2007-10-31,226600.0
2007-09-30,228200.0
2007-08-31,229200.0
2007-07-31,230200.0
2007-06-30,231400.0
2007-05-31,232600.0
2007-04-30,233000.0
2007-03-31,232600.0
2007-02-28,232300.0
2007-01-31,232100.0
2006-12-31,231700.0
2006-11-30,230800.0
2006-10-31,229600.0
2006-09-30,228000.0
2006-08-31,226600.0
2006-07-31,225000.0
2006-06-30,222900.0
2006-05-31,220700.0
2006-04-30,219600.0
2006-03-31,218800.0
2006-02-28,217100.0
2006-01-31,214200.0
2005-12-31,211400.0
2005-11-30,208300.0
2005-10-31,204800.0
2005-09-30,201100.0
2005-08-31,197900.0
2005-07-31,194500.0
2005-06-30,191100.0
2005-05-31,187600.0
2005-04-30,185000.0
2005-03-31,183100.0
2005-02-28,181800.0
2005-01-31,180400.0
2004-12-31,179100.0
2004-11-30,178400.0
2004-10-31,177800.0
2004-09-30,177100.0
2004-08-31,176600.0
2004-07-31,175900.0
2004-06-30,174800.0
2004-05-31,173900.0
2004-04-30,172800.0
2004-03-31,171100.0
2004-02-29,169900.0
2004-01-31,169000.0
2003-12-31,167800.0
2003-11-30,166700.0
2003-10-31,165800.0
2003-09-30,164700.0
2003-08-31,163400.0
2003-07-31,162400.0
2003-06-30,161600.0
2003-05-31,160400.0
2003-04-30,158900.0
2003-03-31,157600.0
2003-02-28,156200.0
2003-01-31,154600.0
2002-12-31,153000.0
2002-11-30,151400.0
2002-10-31,149900.0
2002-09-30,149100.0
2002-08-31,148500.0
2002-07-31,148000.0
2002-06-30,147700.0
2002-05-31,147800.0
2002-04-30,147700.0
2002-03-31,147800.0
2002-02-28,148100.0
2002-01-31,148600.0
2001-12-31,148900.0
2001-11-30,148700.0
2001-10-31,148000.0
2001-09-30,147700.0
2001-08-31,147200.0
2001-07-31,146200.0
2001-06-30,145000.0
2001-05-31,144100.0
2001-04-30,143300.0
2001-03-31,142200.0
2001-02-28,140000.0
2001-01-31,137800.0
2000-12-31,137200.0
2000-11-30,137200.0
2000-10-31,137200.0
2000-09-30,137400.0
2000-08-31,137500.0
2000-07-31,137600.0
2000-06-30,137700.0
2000-05-31,137100.0
2000-04-30,136400.0
2000-03-31,135800.0
2000-02-29,136100.0
2000-01-31,135900.0
1999-12-31,134500.0
1999-11-30,133400.0
1999-10-31,133400.0
1999-09-30,133100.0
1999-08-31,132300.0
1999-07-31,131800.0
1999-06-30,131500.0
1999-05-31,131600.0
1999-04-30,131900.0
1999-03-31,131800.0
1999-02-28,131300.0
1999-01-31,131000.0
1998-12-31,130900.0
1998-11-30,130400.0
1998-10-31,129900.0
1998-09-30,129900.0
1998-08-31,129800.0
1998-07-31,129500.0
1998-06-30,129200.0
1998-05-31,128800.0
1998-04-30,128100.0
1998-03-31,127400.0
1998-02-28,127100.0
1998-01-31,127100.0
1997-12-31,126600.0
1997-11-30,125800.0
1997-10-31,124800.0
1997-09-30,123200.0
1997-08-31,121700.0
1997-07-31,120500.0
1997-06-30,119400.0
1997-05-31,118600.0
1997-04-30,117600.0
1997-03-31,116600.0
1997-02-28,116000.0
1997-01-31,115600.0
1996-12-31,115700.0
1996-11-30,116100.0
1996-10-31,115900.0
1996-09-30,115200.0
1996-08-31,114800.0
1996-07-31,114700.0
1996-06-30,114700.0
1996-05-31,115000.0
1996-04-30,115800.0
