Date,Value
2015-09-30,298720.0
2015-08-31,295355.0
2015-07-31,295515.0
2015-06-30,293850.0
2015-05-31,304950.0
2015-04-30,300882.3529
2015-03-31,285000.0
2015-02-28,293074.6154
2014-12-31,286320.0
2014-11-30,258300.0
2014-10-31,268485.0
2014-09-30,280670.0
2014-08-31,273845.0
2014-07-31,276287.5
2014-06-30,271437.5
2014-05-31,256617.6471
2014-04-30,250000.0
2013-12-31,249230.7692
2013-10-31,266235.2941
2013-09-30,265000.0
2013-07-31,249650.0
2013-06-30,251625.0
2013-05-31,257950.0
2013-04-30,253425.0
2013-03-31,211000.0
2013-02-28,204750.0
2013-01-31,211176.4706
2012-12-31,220000.0
2012-09-30,228450.0
2012-07-31,211925.0
2012-06-30,223050.0
2012-05-31,219000.0
2012-04-30,229000.0
2012-03-31,268961.5385
2011-12-31,197691.1538
2011-11-30,220948.25
2011-10-31,239173.5294
2011-09-30,232230.7692
2011-07-31,217700.0
2011-06-30,227299.25
2011-05-31,235752.25
2011-04-30,243923.5
2011-03-31,241388.2353
2011-02-28,246153.8462
2010-12-31,213834.6154
2010-10-31,263350.0
2010-09-30,273892.5
2010-08-31,281781.75
2010-07-31,288023.25
2010-06-30,263732.5
2010-05-31,269315.0
2010-04-30,271294.1176
2010-03-31,259000.0
2009-11-30,253225.0
2009-10-31,266010.0
2009-09-30,267065.0
2009-08-31,257715.0
2009-07-31,260425.0
2009-06-30,266025.0
2009-05-31,264117.6471
2009-04-30,276615.3846
2009-02-28,280384.6154
2008-12-31,297250.0
2008-11-30,320235.0
2008-10-31,321565.0
2008-09-30,312092.5
2008-08-31,309482.5
2008-07-31,309225.0
2008-06-30,306750.0
2008-05-31,309025.0
2008-04-30,315975.0
2008-03-31,324250.0
2008-02-29,313250.0
2008-01-31,329650.0
2007-12-31,351835.0
2007-11-30,345165.0
2007-10-31,346250.0
2007-09-30,346350.0
2007-08-31,348650.0
2007-07-31,364000.0
2007-06-30,355000.0
2007-05-31,369250.0
2007-04-30,365250.0
2007-03-31,357492.5
2007-02-28,347942.5
2007-01-31,341915.0
2006-12-31,335800.0
2006-11-30,338950.0
2006-10-31,347750.0
2006-09-30,343250.0
2006-08-31,340976.0
2006-07-31,340477.25
2006-06-30,337664.25
2006-05-31,339297.25
2006-04-30,335921.9
2006-03-31,320777.6
2006-02-28,309892.25
2006-01-31,297538.0
2005-12-31,300859.0
2005-11-30,290227.5
2005-10-31,292909.5
2005-09-30,292945.5
2005-08-31,290050.0
2005-07-31,286250.0
2005-06-30,280892.5
2005-05-31,274732.5
2005-04-30,273780.0
2005-03-31,267310.0
2005-02-28,264185.0
2005-01-31,252212.5
2004-12-31,246662.5
2004-11-30,251467.5
2004-10-31,252125.0
2004-09-30,250057.5
2004-08-31,249440.0
2004-07-31,246285.0
2004-06-30,238050.0
2004-05-31,235935.0
2004-04-30,228465.0
2004-03-31,226750.0
2004-02-29,227692.5
2004-01-31,227617.5
2003-12-31,219540.0
2003-11-30,222650.0
2003-10-31,223350.0
2003-09-30,229200.0
2003-08-31,234650.0
2003-07-31,225750.0
2003-06-30,228250.0
2003-05-31,236042.5
2003-04-30,224482.5
2003-03-31,228325.0
2003-02-28,220950.0
2003-01-31,212742.5
2002-12-31,221732.5
2002-11-30,217475.0
2002-10-31,216642.5
2002-09-30,219432.5
2002-08-31,220067.5
2002-07-31,212407.5
2002-06-30,204575.0
2002-05-31,204325.0
2002-04-30,198192.5
2002-03-31,203482.5
2002-02-28,201400.0
2002-01-31,201817.5
2001-12-31,204982.5
2001-11-30,205367.5
2001-10-31,217532.5
2001-09-30,212325.0
2001-08-31,213750.0
2001-07-31,213450.0
2001-06-30,199175.0
2001-05-31,196650.0
2001-04-30,195550.0
2001-03-31,193050.0
2001-02-28,192025.0
2001-01-31,194000.0
2000-12-31,180150.0
2000-11-30,182750.0
2000-10-31,196350.0
2000-09-30,192075.0
2000-08-31,189225.0
2000-07-31,185842.5
2000-06-30,187125.0
2000-05-31,182650.0
2000-04-30,180157.5
2000-03-31,175317.5
2000-02-29,179757.5
2000-01-31,182155.0
1999-12-31,191570.0
1999-11-30,184225.0
1999-10-31,182725.0
1999-09-30,181975.0
1999-08-31,184242.5
1999-07-31,188475.0
1999-06-30,183442.5
1999-05-31,174932.5
1999-04-30,170232.5
1999-03-31,169017.5
1999-02-28,167125.0
1999-01-31,162950.0
1998-12-31,164432.5
1998-11-30,160775.0
1998-10-31,167775.0
1998-09-30,181700.0
1998-08-31,185425.0
1998-07-31,173025.0
1998-06-30,160085.0
1998-05-31,156265.0
1998-04-30,158692.5
1998-03-31,155132.5
1998-02-28,156050.0
1998-01-31,153673.5
1997-12-31,154496.5
1997-11-30,148545.0
1997-10-31,148192.5
1997-09-30,151882.5
1997-08-31,151400.0
1997-07-31,150825.0
1997-06-30,147400.0
1997-05-31,149925.0
1997-04-30,151525.0
1997-03-31,145742.5
1997-02-28,144225.0
1997-01-31,143132.5
1996-12-31,141610.0
1996-11-30,142240.0
1996-10-31,140450.0
1996-09-30,140746.85
1996-08-31,140817.65
1996-07-31,138164.5
1996-06-30,138110.0
1996-05-31,140095.0
1996-04-30,137220.0
