Date,Value
2014-12-31,6000.0
2014-11-30,2100.0
2014-10-31,1395.0
2014-09-30,1300.0
2014-08-31,1500.0
2014-07-31,5800.0
2014-06-30,8500.0
2014-05-31,9000.0
2014-04-30,10000.0
2014-03-31,11500.0
2014-02-28,12000.0
2014-01-31,10000.0
2013-12-31,2500.0
2013-11-30,2000.0
2013-10-31,1500.0
2013-09-30,1750.0
2013-08-31,3000.0
2013-07-31,7000.0
2013-06-30,9000.0
2013-05-31,10000.0
2013-04-30,10500.0
2013-03-31,11000.0
2013-02-28,11000.0
2013-01-31,7500.0
2012-12-31,2000.0
2012-11-30,1600.0
2012-10-31,1650.0
2012-09-30,1750.0
2012-08-31,2500.0
2012-07-31,4800.0
2012-06-30,8000.0
2012-05-31,10000.0
2012-04-30,12000.0
2012-03-31,10000.0
2012-02-29,9900.0
2012-01-31,8500.0
2011-12-31,2000.0
2011-11-30,1500.0
2011-10-31,1400.0
2011-09-30,1450.0
2011-08-31,1500.0
2011-07-31,3500.0
2011-06-30,6000.0
2011-05-31,8000.0
2011-04-30,8000.0
2011-03-31,6000.0
2011-02-28,6000.0
2011-01-31,6000.0
2010-12-31,2500.0
2010-10-31,1475.0
