Date,Value
2015-09-30,0.942
2015-08-31,0.9
2015-07-31,0.844
2015-06-30,0.836
2015-05-31,0.828
2015-04-30,0.83
2015-03-31,0.838
2015-02-28,0.844
2015-01-31,0.846
2014-12-31,0.838
2014-11-30,0.842
2014-10-31,0.844
2014-09-30,0.84
2014-08-31,0.838
2014-07-31,0.838
2014-06-30,0.83
2014-05-31,0.808
2014-04-30,0.778
2014-03-31,0.752
2014-02-28,0.722
2014-01-31,0.712
2013-12-31,0.718
2013-11-30,0.742
2013-10-31,0.764
2013-09-30,0.77
2013-08-31,0.778
2013-07-31,0.79
2013-06-30,0.808
2013-05-31,0.826
2013-04-30,0.848
2013-03-31,0.856
2013-02-28,0.876
2013-01-31,0.886
2012-12-31,0.886
2012-11-30,0.85
2012-10-31,0.828
2012-09-30,0.822
2012-08-31,0.83
2012-07-31,0.846
2012-06-30,0.854
2012-05-31,0.87
2012-04-30,0.874
2012-03-31,0.892
2012-02-29,0.9
2012-01-31,0.91
2011-12-31,0.912
2011-11-30,0.918
2011-10-31,0.932
2011-09-30,0.936
2011-08-31,0.924
2011-07-31,0.9
2011-06-30,0.888
2011-05-31,0.882
2011-04-30,0.888
2011-03-31,0.892
2011-02-28,0.9
2011-01-31,0.91
2010-12-31,0.908
2010-11-30,0.91
