Date,Value
2014-12-31,1250.0
2014-11-30,1450.0
2014-08-31,1375.0
2014-04-30,1250.0
2014-03-31,1250.0
2014-01-31,1225.0
2013-11-30,1225.0
2013-10-31,1180.0
2013-06-30,1075.0
2013-05-31,1300.0
2012-08-31,1035.0
2012-07-31,1095.0
2012-06-30,1050.0
