Date,Value
2015-09-30,167900.0
2015-08-31,167300.0
2015-07-31,165800.0
2015-06-30,164300.0
2015-05-31,163000.0
2015-04-30,161100.0
2015-03-31,160700.0
2015-02-28,161700.0
2015-01-31,161500.0
2014-12-31,160900.0
2014-11-30,159800.0
2014-10-31,158600.0
2014-09-30,157500.0
2014-08-31,156700.0
2014-07-31,156000.0
2014-06-30,155800.0
2014-05-31,156100.0
2014-04-30,156900.0
2014-03-31,157200.0
2014-02-28,156600.0
2014-01-31,155600.0
2013-12-31,154500.0
2013-11-30,153800.0
2013-10-31,153400.0
2013-09-30,153000.0
2013-08-31,152700.0
2013-07-31,152200.0
2013-06-30,151000.0
2013-05-31,149400.0
2013-04-30,148000.0
2013-03-31,147200.0
2013-02-28,147400.0
2013-01-31,147700.0
2012-12-31,147700.0
2012-11-30,147500.0
2012-10-31,147800.0
2012-09-30,147900.0
2012-08-31,147700.0
2012-07-31,147600.0
2012-06-30,147800.0
2012-05-31,148100.0
2012-04-30,148300.0
2012-03-31,148300.0
2012-02-29,148200.0
2012-01-31,148000.0
2011-12-31,147900.0
2011-11-30,147900.0
2011-10-31,148000.0
2011-09-30,148400.0
2011-08-31,149100.0
2011-07-31,149900.0
2011-06-30,150600.0
2011-05-31,151100.0
2011-04-30,151400.0
2011-03-31,151600.0
2011-02-28,151900.0
2011-01-31,152700.0
2010-12-31,153600.0
2010-11-30,154600.0
2010-10-31,155700.0
2010-09-30,157200.0
2010-08-31,158800.0
2010-07-31,160100.0
2010-06-30,161100.0
2010-05-31,162000.0
2010-04-30,163300.0
2010-03-31,165000.0
2010-02-28,166400.0
2010-01-31,167300.0
2009-12-31,167900.0
2009-11-30,168200.0
2009-10-31,168000.0
2009-09-30,167600.0
2009-08-31,167000.0
2009-07-31,166400.0
2009-06-30,166300.0
2009-05-31,166500.0
2009-04-30,166500.0
2009-03-31,166600.0
2009-02-28,167300.0
2009-01-31,168200.0
2008-12-31,169200.0
2008-11-30,170400.0
2008-10-31,171600.0
2008-09-30,172600.0
2008-08-31,173200.0
2008-07-31,173800.0
2008-06-30,174700.0
2008-05-31,175900.0
2008-04-30,176800.0
2008-03-31,177300.0
2008-02-29,177500.0
2008-01-31,177400.0
2007-12-31,177300.0
2007-11-30,177400.0
2007-10-31,177500.0
2007-09-30,177700.0
2007-08-31,178400.0
2007-07-31,179400.0
2007-06-30,180100.0
2007-05-31,180700.0
2007-04-30,180600.0
2007-03-31,179500.0
2007-02-28,178000.0
2007-01-31,177100.0
2006-12-31,176600.0
2006-11-30,175900.0
2006-10-31,175400.0
2006-09-30,174600.0
2006-08-31,173500.0
2006-07-31,172200.0
2006-06-30,170400.0
2006-05-31,167900.0
2006-04-30,165600.0
2006-03-31,163900.0
2006-02-28,162700.0
2006-01-31,161300.0
2005-12-31,159700.0
2005-11-30,157600.0
2005-10-31,155100.0
2005-09-30,152600.0
2005-08-31,150200.0
2005-07-31,147800.0
2005-06-30,145300.0
2005-05-31,142700.0
2005-04-30,140500.0
2005-03-31,138800.0
2005-02-28,137300.0
2005-01-31,135700.0
2004-12-31,134100.0
2004-11-30,132600.0
2004-10-31,131200.0
2004-09-30,129900.0
2004-08-31,128600.0
2004-07-31,126900.0
2004-06-30,125500.0
2004-05-31,124400.0
2004-04-30,123700.0
2004-03-31,123000.0
2004-02-29,122200.0
2004-01-31,121400.0
2003-12-31,120800.0
2003-11-30,120300.0
2003-10-31,119600.0
2003-09-30,118900.0
2003-08-31,118100.0
2003-07-31,117300.0
2003-06-30,116400.0
2003-05-31,115700.0
2003-04-30,115000.0
2003-03-31,114300.0
2003-02-28,113600.0
2003-01-31,112800.0
2002-12-31,111900.0
2002-11-30,111200.0
2002-10-31,110700.0
2002-09-30,110300.0
2002-08-31,110200.0
2002-07-31,110200.0
2002-06-30,110300.0
2002-05-31,110400.0
2002-04-30,110500.0
2002-03-31,110600.0
2002-02-28,110800.0
2002-01-31,110900.0
2001-12-31,110700.0
2001-11-30,110300.0
2001-10-31,110000.0
2001-09-30,109300.0
2001-08-31,108400.0
2001-07-31,108100.0
2001-06-30,108000.0
2001-05-31,107700.0
2001-04-30,107400.0
2001-03-31,106800.0
2001-02-28,105800.0
2001-01-31,105200.0
2000-12-31,105300.0
2000-11-30,105800.0
2000-10-31,106300.0
2000-09-30,106400.0
2000-08-31,106300.0
2000-07-31,106400.0
2000-06-30,106500.0
2000-05-31,106300.0
2000-04-30,106000.0
2000-03-31,105800.0
2000-02-29,105900.0
2000-01-31,105600.0
1999-12-31,104800.0
1999-11-30,103700.0
1999-10-31,102800.0
1999-09-30,102700.0
1999-08-31,103000.0
1999-07-31,103200.0
1999-06-30,103200.0
1999-05-31,103200.0
1999-04-30,103100.0
1999-03-31,102900.0
1999-02-28,102700.0
1999-01-31,102500.0
1998-12-31,102100.0
1998-11-30,101900.0
1998-10-31,101900.0
1998-09-30,102100.0
1998-08-31,102200.0
1998-07-31,102100.0
1998-06-30,101900.0
1998-05-31,102200.0
1998-04-30,102500.0
1998-03-31,102500.0
1998-02-28,102100.0
1998-01-31,102000.0
1997-12-31,101800.0
1997-11-30,101500.0
1997-10-31,101200.0
1997-09-30,100900.0
1997-08-31,100500.0
1997-07-31,100200.0
1997-06-30,100300.0
1997-05-31,100300.0
1997-04-30,100200.0
1997-03-31,100100.0
1997-02-28,100000.0
1997-01-31,99500.0
1996-12-31,99300.0
1996-11-30,99400.0
1996-10-31,99500.0
1996-09-30,99600.0
1996-08-31,99700.0
1996-07-31,99500.0
1996-06-30,99300.0
1996-05-31,99100.0
1996-04-30,98600.0
