Date,Value
2015-02-28,67500.0
2015-01-31,169000.0
2014-12-31,195000.0
2014-11-30,179000.0
2014-10-31,195000.0
2014-09-30,232900.0
2014-08-31,280000.0
2014-07-31,244900.0
2014-06-30,250000.0
2014-05-31,269900.0
2014-04-30,269900.0
2014-03-31,199900.0
2014-02-28,259900.0
2014-01-31,279999.0
2013-12-31,269900.0
2013-11-30,269000.0
2013-10-31,250000.0
2013-09-30,269000.0
2013-08-31,269900.0
2013-07-31,269900.0
2013-06-30,269000.0
2013-05-31,269000.0
2013-04-30,250000.0
2013-03-31,250000.0
2013-02-28,250000.0
2013-01-31,249000.0
2012-12-31,250000.0
2012-11-30,249000.0
2012-10-31,190000.0
2012-09-30,239900.0
2012-08-31,249000.0
2012-07-31,250000.0
2012-06-30,299900.0
2012-05-31,313750.0
2012-04-30,250000.0
2012-03-31,299000.0
2012-02-29,275000.0
2012-01-31,274900.0
2011-12-31,339000.0
2011-11-30,279000.0
2011-10-31,274900.0
2011-09-30,6000.0
2011-08-31,6000.0
2011-07-31,89000.0
2011-06-30,87500.0
2011-05-31,7500.0
2011-04-30,7500.0
2011-03-31,7000.0
2011-02-28,7500.0
2011-01-31,7500.0
2010-12-31,7500.0
2010-11-30,175295.0
2010-10-31,189000.0
2010-09-30,179900.0
2010-08-31,189000.0
2010-07-31,189900.0
2010-06-30,189900.0
2010-05-31,189900.0
2010-04-30,189900.0
2010-03-31,189900.0
2010-02-28,179900.0
2010-01-31,197500.0
2009-12-31,249000.0
2009-11-30,249000.0
2009-10-31,259000.0
2009-09-30,289900.0
2009-08-31,289000.0
2009-07-31,169500.0
2009-06-30,9000.0
2009-05-31,7000.0
2009-04-30,258000.0
2009-03-31,299000.0
2009-02-28,7500.0
2009-01-31,7500.0
2008-12-31,7500.0
2008-11-30,7500.0
2008-10-31,7500.0
