Date,Value
2015-06-30,1604.0
2015-05-31,1608.0
2015-04-30,1546.0
2015-03-31,1543.0
2015-02-28,1521.0
2015-01-31,1504.0
2014-12-31,1495.0
2014-11-30,1505.0
2014-10-31,1485.0
2014-09-30,1494.0
2014-08-31,1540.0
2014-07-31,1600.0
2014-06-30,1530.0
2014-05-31,1480.0
2014-04-30,1420.0
2014-03-31,1415.0
2014-02-28,1350.0
2014-01-31,1305.0
2013-12-31,1565.0
2013-11-30,1295.0
2013-10-31,1395.0
2013-09-30,1550.0
2013-08-31,1262.0
2013-07-31,1262.0
2013-06-30,1350.0
2013-05-31,1484.0
2013-04-30,1375.0
2013-03-31,1307.0
2013-02-28,1170.0
2013-01-31,1210.0
2012-12-31,1210.0
2012-11-30,1210.0
2012-10-31,1195.0
2012-09-30,1300.0
2012-08-31,1370.0
2012-07-31,1365.0
2012-06-30,1300.0
2012-05-31,1355.0
2012-04-30,1316.0
2012-03-31,1345.0
2012-02-29,1255.0
2012-01-31,1312.0
2011-12-31,1410.0
2011-11-30,1650.0
2011-10-31,1580.0
2011-09-30,1580.0
2011-08-31,1695.0
2011-07-31,1700.0
2011-03-31,1544.0
2011-02-28,1400.0
2011-01-31,1650.0
2010-12-31,1650.0
2010-09-30,1595.0
2010-07-31,1595.0
