Date,Value
2015-09-30,384415.0
2015-08-31,412211.15
2015-07-31,399709.5
2015-06-30,365717.35
2015-05-31,369501.65
2015-04-30,346450.0
2015-03-31,348942.5
2015-02-28,337232.5
2015-01-31,348375.0
2014-12-31,342125.0
2014-11-30,333250.0
2014-10-31,342000.0
2014-09-30,377350.0
2014-08-31,392225.0
2014-07-31,355675.0
2014-06-30,346750.0
2014-05-31,365200.0
2014-04-30,360800.0
2014-03-31,344500.0
2014-02-28,337750.0
2014-01-31,322000.0
2013-12-31,327992.5
2013-11-30,355382.5
2013-10-31,366500.0
2013-09-30,359775.0
2013-08-31,331050.0
2013-07-31,346900.0
2013-06-30,355600.0
2013-05-31,330700.0
2013-04-30,298050.0
2013-03-31,270992.5
2013-02-28,296857.5
2013-01-31,324125.0
2012-12-31,344250.0
2012-11-30,357750.0
2012-10-31,336900.0
2012-09-30,336850.0
2012-08-31,345750.0
2012-07-31,351900.0
2012-06-30,325350.0
2012-05-31,330900.0
2012-04-30,333225.0
2012-03-31,302875.0
2012-02-29,315755.0
2012-01-31,327650.0
2011-12-31,328375.0
2011-11-30,309255.0
2011-10-31,320500.0
2011-09-30,314007.75
2011-08-31,336219.75
2011-07-31,320392.5
2011-06-30,345300.0
2011-05-31,364750.0
2011-04-30,330750.0
2011-03-31,319675.0
2011-02-28,304575.0
2011-01-31,320085.0
2010-12-31,328615.0
2010-11-30,334200.0
2010-10-31,344250.0
2010-09-30,386050.0
2010-08-31,384950.0
2010-07-31,354600.0
2010-06-30,346000.0
2010-05-31,379350.0
2010-04-30,367150.0
2010-03-31,366650.0
2010-02-28,322875.0
2010-01-31,339975.0
2009-12-31,347650.0
2009-11-30,344925.0
2009-10-31,347950.0
2009-09-30,358750.0
2009-08-31,350875.0
2009-07-31,356600.0
2009-06-30,343550.0
2009-05-31,343500.0
2009-04-30,351050.0
2009-03-31,361700.0
2009-02-28,384842.5
2009-01-31,337482.5
2008-12-31,340625.0
2008-11-30,309000.0
2008-10-31,331000.0
2008-09-30,350250.0
2008-08-31,359200.0
2008-07-31,351300.0
2008-06-30,386250.0
2008-05-31,380250.0
2008-04-30,378000.0
2008-03-31,357600.0
2008-02-29,340150.0
2008-01-31,339500.0
2007-12-31,350750.0
2007-11-30,358500.0
2007-10-31,375750.0
2007-09-30,393750.0
2007-08-31,390500.0
2007-07-31,384625.0
2007-06-30,387675.0
2007-05-31,375700.0
2007-04-30,371000.0
2007-03-31,398620.0
2007-02-28,412030.0
2007-01-31,387900.0
2006-12-31,358485.0
2006-11-30,362045.0
2006-10-31,368204.15
2006-09-30,381696.35
2006-08-31,371605.5
2006-07-31,385860.0
2006-06-30,393965.0
2006-05-31,387050.0
2006-04-30,370000.0
2006-03-31,353150.0
2006-02-28,351750.0
2006-01-31,338250.0
2005-12-31,345317.5
2005-11-30,347832.5
2005-10-31,350540.0
2005-09-30,362045.0
2005-08-31,348465.0
2005-07-31,335515.4
2005-06-30,322987.6
2005-05-31,324926.75
2005-04-30,318718.75
2005-03-31,309187.5
2005-02-28,300325.0
2005-01-31,278050.0
2004-12-31,263650.0
2004-11-30,270850.0
2004-10-31,279250.0
2004-09-30,274000.0
2004-08-31,293092.7
2004-07-31,303116.3
2004-06-30,304859.0
2004-05-31,286800.0
2004-04-30,269000.0
2004-03-31,262040.0
2004-02-29,266245.0
2004-01-31,270190.0
2003-12-31,261025.0
2003-11-30,252575.0
2003-10-31,251175.0
2003-09-30,265399.7
2003-08-31,258868.95
2003-07-31,254794.85
2003-06-30,247565.5
2003-05-31,240500.0
2003-04-30,233135.0
2003-03-31,224025.0
2003-02-28,233182.5
2003-01-31,230482.5
2002-12-31,234313.4
2002-11-30,233839.6
2002-10-31,242953.0
2002-09-30,237125.0
2002-08-31,227700.0
2002-07-31,229260.85
2002-06-30,223891.15
2002-05-31,210371.85
2002-04-30,212614.65
2002-03-31,221263.2
2002-02-28,211215.3
2002-01-31,211821.5
2001-12-31,214232.5
2001-11-30,201566.15
2001-10-31,201795.9
2001-09-30,199442.45
2001-08-31,199588.5
2001-07-31,196750.0
2001-06-30,188875.0
2001-05-31,188114.65
2001-04-30,194775.85
2001-03-31,184890.5
2001-02-28,180600.0
2001-01-31,184650.0
2000-12-31,194510.0
2000-11-30,183390.0
2000-10-31,192075.0
2000-09-30,204500.0
2000-08-31,206050.0
2000-07-31,198750.0
2000-06-30,185442.5
2000-05-31,196306.1
2000-04-30,187305.9
2000-03-31,197894.5
2000-02-29,199575.0
2000-01-31,206025.0
1999-12-31,186867.5
1999-11-30,184732.5
1999-10-31,183976.9
1999-09-30,182627.7
1999-08-31,188223.4
1999-07-31,194790.8
1999-06-30,176667.2
1999-05-31,172621.0
1999-04-30,173035.0
1999-03-31,166507.5
1999-02-28,175117.5
1999-01-31,177279.2
1998-12-31,169717.3
1998-11-30,175237.65
1998-10-31,175964.35
1998-09-30,174962.4
1998-08-31,171121.1
1998-07-31,172465.5
1998-06-30,173432.5
1998-05-31,179577.5
1998-04-30,172201.85
1998-03-31,175360.15
1998-02-28,173507.0
1998-01-31,174932.5
1997-12-31,163475.0
1997-11-30,165000.0
1997-10-31,163800.0
1997-09-30,160834.25
1997-08-31,157438.25
1997-07-31,161072.5
1997-06-30,166836.0
1997-05-31,170159.0
1997-04-30,164745.0
1997-03-31,166000.0
1997-02-28,158300.0
1997-01-31,154800.0
1996-12-31,138150.0
1996-11-30,139450.0
1996-10-31,148042.5
1996-09-30,157066.75
1996-08-31,147238.25
1996-07-31,151747.5
1996-06-30,153850.0
1996-05-31,154990.0
1996-04-30,149010.0
