Date,Value
2015-02-28,139900.0
2015-01-31,139900.0
2014-12-31,139999.0
2014-11-30,149000.0
2014-10-31,147900.0
2014-09-30,144500.0
2014-08-31,144500.0
2014-07-31,149000.0
2014-06-30,149000.0
2014-05-31,144500.0
2014-04-30,144500.0
2014-03-31,139900.0
2014-02-28,139900.0
2014-01-31,139900.0
2013-12-31,139900.0
2013-11-30,144500.0
2013-10-31,144900.0
2013-09-30,144500.0
2013-08-31,144500.0
2013-07-31,139000.0
2013-06-30,139000.0
2013-05-31,136000.0
2013-04-30,139900.0
2013-03-31,144900.0
2013-02-28,144900.0
2013-01-31,139000.0
2012-12-31,129900.0
2012-11-30,139000.0
2012-10-31,129900.0
2012-09-30,149900.0
2012-08-31,149900.0
2012-07-31,149900.0
2012-06-30,139000.0
2012-05-31,149900.0
2012-04-30,149900.0
2012-03-31,149900.0
2012-02-29,149900.0
2012-01-31,145000.0
2011-12-31,143000.0
2011-11-30,145000.0
2011-10-31,149000.0
2011-09-30,160000.0
2011-08-31,165000.0
2011-07-31,164900.0
2011-06-30,164900.0
2011-05-31,170000.0
2011-04-30,164900.0
2011-03-31,164900.0
2011-02-28,170000.0
2011-01-31,164900.0
2010-12-31,155000.0
2010-11-30,149900.0
2010-10-31,149900.0
2010-09-30,164900.0
2010-08-31,170000.0
2010-07-31,170000.0
2010-06-30,164900.0
2010-05-31,175000.0
2010-04-30,179000.0
2010-03-31,190000.0
2010-02-28,203000.0
2010-01-31,203000.0
2009-12-31,165000.0
2009-11-30,165000.0
2009-10-31,157000.0
2009-09-30,155000.0
2009-08-31,158000.0
2009-07-31,158000.0
2009-06-30,174500.0
2009-05-31,155000.0
2009-04-30,155000.0
2009-03-31,160000.0
2009-02-28,155000.0
2009-01-31,155000.0
2008-12-31,155000.0
2008-11-30,150000.0
2008-10-31,158000.0
