Date,Value
2015-09-30,177530.4
2015-08-31,170450.0
2015-07-31,172101.35
2015-06-30,173622.15
2015-05-31,180949.25
2015-04-30,185910.35
2015-03-31,165556.65
2015-02-28,148374.0
2015-01-31,160600.0
2014-12-31,180350.0
2014-11-30,162825.0
2014-10-31,157100.0
2014-09-30,157667.0
2014-08-31,161390.0
2014-07-31,162230.0
2014-06-30,165580.0
2014-05-31,169280.0
2014-04-30,165363.25
2014-03-31,163074.25
2014-02-28,158457.5
2014-01-31,149580.0
2013-12-31,150480.0
2013-11-30,151942.55
2013-10-31,165325.95
2013-09-30,160988.5
2013-08-31,153280.0
2013-07-31,157530.0
2013-06-30,168280.0
2013-05-31,166255.0
2013-04-30,148163.0
2013-03-31,137027.75
2013-02-28,118886.75
2013-01-31,122817.5
2012-12-31,139813.0
2012-11-30,145078.4
2012-10-31,150881.6
2012-09-30,148243.0
2012-08-31,155080.0
2012-07-31,160905.0
2012-06-30,165530.0
2012-05-31,157680.0
2012-04-30,152913.0
2012-03-31,141532.0
2012-02-29,150590.0
2012-01-31,150030.0
2011-12-31,145828.0
2011-11-30,141183.5
2011-10-31,159958.55
2011-09-30,165169.5
2011-08-31,148065.0
2011-07-31,142402.0
2011-06-30,146805.0
2011-05-31,143160.5
2011-04-30,143219.5
2011-03-31,137530.0
2011-02-28,131445.0
2011-01-31,130813.0
2010-12-31,139557.0
2010-11-30,152115.0
2010-10-31,152423.0
2010-09-30,158397.0
2010-08-31,148123.0
2010-07-31,138707.0
2010-06-30,137767.0
2010-05-31,144757.5
2010-04-30,147865.9
2010-03-31,146562.6
2010-02-28,141077.5
2010-01-31,137772.5
2009-12-31,135280.0
2009-11-30,141563.0
2009-10-31,147407.0
2009-09-30,147805.0
2009-08-31,158432.0
2009-07-31,161890.0
2009-06-30,161388.0
2009-05-31,154782.0
2009-04-30,154740.0
2009-03-31,162915.0
2009-02-28,173095.0
2009-01-31,156005.0
2008-12-31,153155.0
2008-11-30,156338.0
2008-10-31,158057.0
2008-09-30,162873.0
2008-08-31,166890.0
2008-07-31,156317.0
2008-06-30,156223.0
2008-05-31,162340.0
2008-04-30,160742.0
2008-03-31,147648.0
2008-02-29,143790.0
2008-01-31,150292.0
2007-12-31,159748.0
2007-11-30,157665.0
2007-10-31,152585.75
2007-09-30,157991.75
2007-08-31,156744.5
2007-07-31,155332.5
2007-06-30,155392.5
2007-05-31,147550.0
2007-04-30,142505.0
2007-03-31,136313.0
2007-02-28,130582.0
2007-01-31,136890.0
2006-12-31,145063.0
2006-11-30,135057.0
2006-10-31,133665.0
2006-09-30,142480.0
2006-08-31,142936.75
2006-07-31,142545.75
2006-06-30,139872.5
2006-05-31,136010.0
2006-04-30,139223.0
2006-03-31,132697.0
2006-02-28,129748.0
2006-01-31,130840.0
2005-12-31,133886.0
2005-11-30,133451.0
2005-10-31,133735.0
2005-09-30,133267.5
2005-08-31,128850.5
2005-07-31,128940.0
2005-06-30,128525.0
2005-05-31,124175.0
2005-04-30,121850.0
2005-03-31,123250.0
2005-02-28,125125.0
2005-01-31,114475.0
2004-12-31,127475.0
2004-11-30,117575.0
2004-10-31,111292.5
2004-09-30,116482.5
2004-08-31,121175.0
2004-07-31,124525.0
2004-06-30,129203.55
2004-05-31,130149.95
2004-04-30,128978.5
2004-03-31,128750.0
2004-02-29,126550.0
2004-01-31,122975.0
2003-12-31,119675.0
2003-11-30,112300.0
2003-10-31,119500.0
2003-09-30,123150.0
2003-08-31,123950.0
2003-07-31,124375.0
2003-06-30,123925.0
2003-05-31,121000.0
2003-04-30,121350.0
2003-03-31,116550.0
2003-02-28,113750.0
2003-01-31,111900.0
2002-12-31,117850.0
2002-11-30,116100.0
2002-10-31,116700.0
2002-09-30,116155.0
2002-08-31,113745.0
2002-07-31,110592.5
2002-06-30,114122.5
2002-05-31,107835.0
2002-04-30,115750.0
2002-03-31,112750.0
2002-02-28,108250.0
2002-01-31,105700.0
2001-12-31,107000.0
2001-11-30,106800.0
2001-10-31,114000.0
2001-09-30,109625.0
2001-08-31,109875.0
2001-07-31,109255.0
2001-06-30,110345.0
2001-05-31,108425.0
2001-04-30,114080.0
2001-03-31,109695.0
2001-02-28,102850.0
2001-01-31,100975.0
2000-12-31,107875.0
2000-11-30,111750.0
2000-10-31,113685.0
2000-09-30,116907.5
2000-08-31,112682.5
2000-07-31,108540.0
2000-06-30,105535.0
2000-05-31,103896.05
2000-04-30,98977.45
2000-03-31,106333.5
2000-02-29,108600.0
2000-01-31,105850.0
1999-12-31,103400.0
1999-11-30,96350.0
1999-10-31,100850.0
1999-09-30,101800.0
1999-08-31,97000.0
1999-07-31,100175.0
1999-06-30,103150.0
1999-05-31,105875.0
1999-04-30,102750.0
1999-03-31,106125.0
1999-02-28,107225.0
1999-01-31,97342.5
1998-12-31,105557.5
1998-11-30,105500.0
1998-10-31,103300.0
1998-09-30,106425.0
1998-08-31,105410.0
1998-07-31,105965.0
1998-06-30,105850.0
1998-05-31,102750.0
1998-04-30,100242.5
1998-03-31,99132.5
1998-02-28,94800.0
1998-01-31,100160.0
1997-12-31,99565.0
1997-11-30,101200.0
1997-10-31,98925.0
1997-09-30,102567.5
1997-08-31,103582.5
1997-07-31,97975.0
1997-06-30,99150.0
1997-05-31,93104.55
1997-04-30,92493.95
1997-03-31,89194.5
1997-02-28,89524.0
1997-01-31,80255.0
1996-12-31,84365.0
1996-11-30,84900.0
1996-10-31,91562.5
1996-09-30,96437.5
1996-08-31,94332.5
1996-07-31,93462.05
1996-06-30,89803.95
1996-05-31,87186.3
1996-04-30,90338.2
