Date,Value
2015-09-30,0.766
2015-08-31,0.754
2015-07-31,0.742
2015-06-30,0.736
2015-05-31,0.738
2015-04-30,0.744
2015-03-31,0.754
2015-02-28,0.758
2015-01-31,0.76
2014-12-31,0.762
2014-11-30,0.762
2014-10-31,0.752
2014-09-30,0.738
2014-08-31,0.728
2014-07-31,0.72
2014-06-30,0.718
2014-05-31,0.724
2014-04-30,0.734
2014-03-31,0.744
2014-02-28,0.744
2014-01-31,0.738
2013-12-31,0.736
2013-11-30,0.734
2013-10-31,0.722
2013-09-30,0.708
2013-08-31,0.698
2013-07-31,0.694
2013-06-30,0.694
2013-05-31,0.694
2013-04-30,0.696
2013-03-31,0.698
2013-02-28,0.696
2013-01-31,0.7
2012-12-31,0.708
2012-11-30,0.72
2012-10-31,0.716
2012-09-30,0.708
2012-08-31,0.7
2012-07-31,0.698
2012-06-30,0.704
2012-05-31,0.698
2012-04-30,0.694
2012-03-31,0.692
2012-02-29,0.702
2012-01-31,0.71
2011-12-31,0.712
2011-11-30,0.716
2011-10-31,0.728
2011-09-30,0.768
2011-08-31,0.804
2011-07-31,0.824
2011-06-30,0.824
2011-05-31,0.826
2011-04-30,0.828
2011-03-31,0.83
2011-02-28,0.83
2011-01-31,0.828
2010-12-31,0.83
2010-11-30,0.83
