Date,Value
2015-09-30,191500.0
2015-08-31,189200.0
2015-07-31,184000.0
2015-06-30,182900.0
2015-05-31,180600.0
2015-04-30,178800.0
2015-03-31,178500.0
2015-02-28,179100.0
2015-01-31,178400.0
2014-12-31,177600.0
2014-11-30,175800.0
2014-10-31,173000.0
2014-09-30,170400.0
2014-08-31,168900.0
2014-07-31,166900.0
2014-06-30,164300.0
2014-05-31,160400.0
2014-04-30,156200.0
2014-03-31,153100.0
2014-02-28,152100.0
2014-01-31,150100.0
2013-12-31,146500.0
2013-11-30,144400.0
2013-10-31,144000.0
2013-09-30,143300.0
2013-08-31,141000.0
2013-07-31,137800.0
2013-06-30,133200.0
2013-05-31,129500.0
2013-04-30,127600.0
2013-03-31,128300.0
2013-02-28,130200.0
2013-01-31,131600.0
2012-12-31,130500.0
2012-11-30,128900.0
2012-10-31,127000.0
2012-09-30,123600.0
2012-08-31,119800.0
2012-07-31,118200.0
2012-06-30,117800.0
2012-05-31,117400.0
2012-04-30,118400.0
2012-03-31,120200.0
2012-02-29,119400.0
2012-01-31,118000.0
2011-12-31,119100.0
2011-11-30,120800.0
2011-10-31,122000.0
2011-09-30,125000.0
2011-08-31,129700.0
2011-07-31,133900.0
2011-06-30,139800.0
2011-05-31,145600.0
2011-04-30,149000.0
2011-03-31,148900.0
2011-02-28,149200.0
2011-01-31,149700.0
2010-12-31,150500.0
2010-11-30,151200.0
2010-10-31,153800.0
2010-09-30,157600.0
2010-08-31,163700.0
2010-07-31,170800.0
2010-06-30,177800.0
2010-05-31,183000.0
2010-04-30,185400.0
2010-03-31,185600.0
2010-02-28,186900.0
2010-01-31,189600.0
2009-12-31,192400.0
2009-11-30,195100.0
2009-10-31,197600.0
2009-09-30,199000.0
2009-08-31,199100.0
2009-07-31,198900.0
2009-06-30,198700.0
2009-05-31,198700.0
2009-04-30,200300.0
2009-03-31,203100.0
2009-02-28,205000.0
2009-01-31,207400.0
2008-12-31,211100.0
2008-11-30,214400.0
2008-10-31,214600.0
2008-09-30,214400.0
2008-08-31,214800.0
2008-07-31,215000.0
2008-06-30,214800.0
2008-05-31,215600.0
2008-04-30,216800.0
2008-03-31,219100.0
2008-02-29,222200.0
2008-01-31,226300.0
2007-12-31,229900.0
2007-11-30,232200.0
2007-10-31,234400.0
2007-09-30,236400.0
2007-08-31,236500.0
2007-07-31,236700.0
2007-06-30,238300.0
2007-05-31,239100.0
2007-04-30,237700.0
2007-03-31,235800.0
2007-02-28,233400.0
2007-01-31,230200.0
2006-12-31,226600.0
2006-11-30,225100.0
2006-10-31,224900.0
2006-09-30,223000.0
2006-08-31,218600.0
2006-07-31,214400.0
2006-06-30,209700.0
2006-05-31,205300.0
2006-04-30,202100.0
2006-03-31,199900.0
2006-02-28,197200.0
2006-01-31,194300.0
2005-12-31,191200.0
2005-11-30,187900.0
2005-10-31,185200.0
2005-09-30,182500.0
2005-08-31,180200.0
2005-07-31,177400.0
2005-06-30,174800.0
2005-05-31,173400.0
2005-04-30,173300.0
2005-03-31,172600.0
2005-02-28,171400.0
2005-01-31,170300.0
2004-12-31,168800.0
2004-11-30,167100.0
2004-10-31,165200.0
2004-09-30,164400.0
2004-08-31,165000.0
2004-07-31,165400.0
2004-06-30,165600.0
2004-05-31,165700.0
2004-04-30,165100.0
2004-03-31,164200.0
2004-02-29,163800.0
2004-01-31,163800.0
2003-12-31,163800.0
2003-11-30,163500.0
2003-10-31,163000.0
2003-09-30,162700.0
2003-08-31,162500.0
2003-07-31,162100.0
2003-06-30,160800.0
2003-05-31,159800.0
2003-04-30,158900.0
2003-03-31,158000.0
2003-02-28,157500.0
2003-01-31,157600.0
2002-12-31,157400.0
2002-11-30,156600.0
2002-10-31,155100.0
2002-09-30,153500.0
2002-08-31,152400.0
2002-07-31,152400.0
2002-06-30,152300.0
2002-05-31,151300.0
2002-04-30,150900.0
2002-03-31,151200.0
2002-02-28,150700.0
2002-01-31,149600.0
2001-12-31,148600.0
2001-11-30,147100.0
2001-10-31,145700.0
2001-09-30,145200.0
2001-08-31,145100.0
2001-07-31,145400.0
2001-06-30,145800.0
2001-05-31,145600.0
2001-04-30,144900.0
2001-03-31,144500.0
2001-02-28,144100.0
2001-01-31,143900.0
2000-12-31,144100.0
2000-11-30,144700.0
2000-10-31,145100.0
2000-09-30,144900.0
2000-08-31,143500.0
2000-07-31,141200.0
2000-06-30,138900.0
2000-05-31,137700.0
2000-04-30,137600.0
2000-03-31,137600.0
2000-02-29,137700.0
2000-01-31,137200.0
1999-12-31,136000.0
1999-11-30,135100.0
1999-10-31,136100.0
1999-09-30,137500.0
1999-08-31,137500.0
1999-07-31,136800.0
1999-06-30,136500.0
1999-05-31,136200.0
1999-04-30,134900.0
1999-03-31,132900.0
1999-02-28,131400.0
1999-01-31,130600.0
1998-12-31,130000.0
1998-11-30,129600.0
1998-10-31,128800.0
1998-09-30,128300.0
1998-08-31,128300.0
1998-07-31,128000.0
1998-06-30,127300.0
1998-05-31,126300.0
1998-04-30,125000.0
1998-03-31,124000.0
1998-02-28,123700.0
1998-01-31,123000.0
1997-12-31,122500.0
1997-11-30,122100.0
1997-10-31,121400.0
1997-09-30,119700.0
1997-08-31,118100.0
1997-07-31,117200.0
1997-06-30,117000.0
1997-05-31,116700.0
1997-04-30,115800.0
1997-03-31,114300.0
1997-02-28,113000.0
1997-01-31,112100.0
1996-12-31,111200.0
1996-11-30,110400.0
1996-10-31,110000.0
1996-09-30,110100.0
1996-08-31,110700.0
1996-07-31,110900.0
1996-06-30,110800.0
1996-05-31,110700.0
1996-04-30,111400.0
