Date,Value
2015-06-30,950.0
2015-05-31,1100.0
2015-04-30,1100.0
2015-03-31,800.0
2015-02-28,785.0
2015-01-31,800.0
2014-12-31,575.0
2014-11-30,575.0
2014-10-31,795.0
2014-09-30,795.0
2014-08-31,715.0
2014-07-31,690.0
2014-06-30,625.0
2014-05-31,625.0
2014-04-30,625.0
2014-03-31,1850.0
2014-02-28,950.0
2014-01-31,800.0
2013-12-31,825.0
2013-11-30,700.0
2013-10-31,605.0
2013-09-30,825.0
2013-08-31,900.0
2013-07-31,1045.0
2013-06-30,1075.0
2013-05-31,1075.0
2013-04-30,1100.0
2013-03-31,1100.0
2013-02-28,1100.0
2013-01-31,1000.0
2012-12-31,1200.0
2012-11-30,1100.0
2012-10-31,1050.0
2012-09-30,950.0
2012-08-31,900.0
2012-07-31,995.0
2012-06-30,715.0
2012-05-31,995.0
2012-04-30,1025.0
2012-03-31,700.0
2012-02-29,985.0
2012-01-31,1995.0
2011-12-31,1950.0
2011-11-30,1950.0
2011-10-31,2200.0
2011-09-30,2400.0
2011-08-31,2000.0
2011-07-31,2000.0
2011-05-31,2100.0
2011-04-30,1950.0
2011-03-31,1650.0
2011-02-28,1650.0
2011-01-31,1650.0
2010-12-31,1650.0
2010-02-28,2650.0
