Date,Value
2015-01-31,134900.0
2014-06-30,245000.0
2014-05-31,245000.0
2014-04-30,310000.0
2013-11-30,349000.0
2013-10-31,119900.0
2013-09-30,149799.0
2013-08-31,149799.0
2013-04-30,159900.0
2012-10-31,122900.0
2012-07-31,131000.0
2012-06-30,138000.0
2012-02-29,149500.0
2011-12-31,169500.0
2011-08-31,154900.0
2011-07-31,154900.0
2011-06-30,99900.0
2011-05-31,89500.0
2011-03-31,89500.0
2010-12-31,124900.0
2010-09-30,129850.0
2010-07-31,239900.0
2010-06-30,269900.0
2010-05-31,269900.0
2010-02-28,274900.0
2009-10-31,234900.0
2009-09-30,229900.0
2009-08-31,229900.0
2009-07-31,269900.0
2009-06-30,234900.0
2009-05-31,234900.0
2009-04-30,234900.0
