Date,Value
2015-09-30,0.956
2015-08-31,0.93
2015-07-31,0.914
2015-06-30,0.91
2015-05-31,0.896
2015-04-30,0.884
2015-03-31,0.868
2015-02-28,0.856
2015-01-31,0.844
2014-12-31,0.84
2014-11-30,0.832
2014-10-31,0.83
2014-09-30,0.824
2014-08-31,0.83
2014-07-31,0.834
2014-06-30,0.838
2014-05-31,0.838
2014-04-30,0.84
2014-03-31,0.834
2014-02-28,0.822
2014-01-31,0.81
2013-12-31,0.808
2013-11-30,0.814
2013-10-31,0.818
2013-09-30,0.806
2013-08-31,0.794
2013-07-31,0.786
2013-06-30,0.786
2013-05-31,0.78
2013-04-30,0.774
2013-03-31,0.768
2013-02-28,0.764
2013-01-31,0.758
2012-12-31,0.758
2012-11-30,0.758
2012-10-31,0.756
2012-09-30,0.754
2012-08-31,0.754
2012-07-31,0.756
2012-06-30,0.756
2012-05-31,0.758
2012-04-30,0.762
2012-03-31,0.764
2012-02-29,0.754
2012-01-31,0.738
2011-12-31,0.728
2011-11-30,0.728
2011-10-31,0.742
2011-09-30,0.756
2011-08-31,0.758
2011-07-31,0.758
2011-06-30,0.75
2011-05-31,0.752
2011-04-30,0.752
2011-03-31,0.762
2011-02-28,0.79
2011-01-31,0.816
2010-12-31,0.832
2010-11-30,0.832
