Date,Value
2015-09-30,249900.0
2015-08-31,257000.0
2015-07-31,260500.0
2015-06-30,259900.0
2015-05-31,252400.0
2015-04-30,249500.0
2015-03-31,249600.0
2015-02-28,246900.0
2015-01-31,244100.0
2014-12-31,242900.0
2014-11-30,241000.0
2014-10-31,239400.0
2014-09-30,239400.0
2014-08-31,240300.0
2014-07-31,241500.0
2014-06-30,242100.0
2014-05-31,241300.0
2014-04-30,239800.0
2014-03-31,238200.0
2014-02-28,236600.0
2014-01-31,236600.0
2013-12-31,237600.0
2013-11-30,237300.0
2013-10-31,235800.0
2013-09-30,233900.0
2013-08-31,232300.0
2013-07-31,231200.0
2013-06-30,231600.0
2013-05-31,232700.0
2013-04-30,233900.0
2013-03-31,234500.0
2013-02-28,234200.0
2013-01-31,234000.0
2012-12-31,234100.0
2012-11-30,234900.0
2012-10-31,235800.0
2012-09-30,236600.0
2012-08-31,237100.0
2012-07-31,237100.0
2012-06-30,236700.0
2012-05-31,237000.0
2012-04-30,237400.0
2012-03-31,237100.0
2012-02-29,236400.0
2012-01-31,234900.0
2011-12-31,233600.0
2011-11-30,233300.0
2011-10-31,233400.0
2011-09-30,233400.0
2011-08-31,233500.0
2011-07-31,233200.0
2011-06-30,233000.0
2011-05-31,233900.0
2011-04-30,234900.0
2011-03-31,237200.0
2011-02-28,240500.0
2011-01-31,243700.0
2010-12-31,245400.0
2010-11-30,246900.0
2010-10-31,248400.0
2010-09-30,249800.0
2010-08-31,252300.0
2010-07-31,256700.0
2010-06-30,260200.0
2010-05-31,260700.0
2010-04-30,260600.0
2010-03-31,261400.0
2010-02-28,262800.0
2010-01-31,264600.0
2009-12-31,266000.0
2009-11-30,266300.0
2009-10-31,265700.0
2009-09-30,265000.0
2009-08-31,264400.0
2009-07-31,264900.0
2009-06-30,266000.0
2009-05-31,267600.0
2009-04-30,269300.0
2009-03-31,271400.0
2009-02-28,272400.0
2009-01-31,271500.0
2008-12-31,271500.0
2008-11-30,275300.0
2008-10-31,282500.0
2008-09-30,289100.0
2008-08-31,293100.0
2008-07-31,293800.0
2008-06-30,294100.0
2008-05-31,295300.0
2008-04-30,296900.0
2008-03-31,298600.0
2008-02-29,299900.0
2008-01-31,300300.0
2007-12-31,299700.0
2007-11-30,298600.0
2007-10-31,297100.0
2007-09-30,296300.0
2007-08-31,296200.0
2007-07-31,297600.0
2007-06-30,299500.0
2007-05-31,299900.0
2007-04-30,299400.0
2007-03-31,299300.0
2007-02-28,299900.0
2007-01-31,301900.0
2006-12-31,304400.0
2006-11-30,304500.0
2006-10-31,301000.0
2006-09-30,296600.0
2006-08-31,291900.0
2006-07-31,287300.0
2006-06-30,282700.0
2006-05-31,277700.0
2006-04-30,272800.0
2006-03-31,268400.0
2006-02-28,265300.0
2006-01-31,263200.0
2005-12-31,261400.0
2005-11-30,260300.0
2005-10-31,260700.0
2005-09-30,261800.0
2005-08-31,262200.0
2005-07-31,260200.0
2005-06-30,256700.0
2005-05-31,254100.0
2005-04-30,251200.0
2005-03-31,247900.0
2005-02-28,244700.0
2005-01-31,241400.0
2004-12-31,238500.0
2004-11-30,235300.0
2004-10-31,230900.0
2004-09-30,226000.0
2004-08-31,221600.0
2004-07-31,218300.0
2004-06-30,216600.0
2004-05-31,216000.0
2004-04-30,215300.0
2004-03-31,214000.0
2004-02-29,212700.0
2004-01-31,210400.0
2003-12-31,207200.0
2003-11-30,204200.0
2003-10-31,201700.0
2003-09-30,199700.0
2003-08-31,198700.0
2003-07-31,197300.0
2003-06-30,195400.0
2003-05-31,194600.0
2003-04-30,194700.0
2003-03-31,192500.0
2003-02-28,188200.0
2003-01-31,185200.0
2002-12-31,183600.0
2002-11-30,182000.0
2002-10-31,180200.0
2002-09-30,177900.0
2002-08-31,176400.0
2002-07-31,177100.0
2002-06-30,178000.0
2002-05-31,177800.0
2002-04-30,177200.0
2002-03-31,177800.0
2002-02-28,178700.0
2002-01-31,177900.0
2001-12-31,176200.0
2001-11-30,175000.0
2001-10-31,174100.0
2001-09-30,173900.0
2001-08-31,173600.0
2001-07-31,172700.0
2001-06-30,171500.0
2001-05-31,169800.0
2001-04-30,168800.0
2001-03-31,168900.0
2001-02-28,169400.0
2001-01-31,170200.0
2000-12-31,171600.0
2000-11-30,173100.0
2000-10-31,175000.0
2000-09-30,176200.0
2000-08-31,176700.0
2000-07-31,176700.0
2000-06-30,177300.0
2000-05-31,178300.0
2000-04-30,179500.0
2000-03-31,178500.0
2000-02-29,175400.0
2000-01-31,173400.0
1999-12-31,173600.0
1999-11-30,173500.0
1999-10-31,171700.0
1999-09-30,169600.0
1999-08-31,167200.0
1999-07-31,165000.0
1999-06-30,163000.0
1999-05-31,160700.0
1999-04-30,157100.0
1999-03-31,155300.0
1999-02-28,155000.0
1999-01-31,154900.0
1998-12-31,152600.0
1998-11-30,150200.0
1998-10-31,149800.0
1998-09-30,151000.0
1998-08-31,151200.0
1998-07-31,150700.0
1998-06-30,149600.0
1998-05-31,147400.0
1998-04-30,145300.0
1998-03-31,143200.0
1998-02-28,141100.0
1998-01-31,139400.0
1997-12-31,138100.0
1997-11-30,136600.0
1997-10-31,134600.0
1997-09-30,133000.0
1997-08-31,131800.0
1997-07-31,130500.0
1997-06-30,129300.0
1997-05-31,129400.0
1997-04-30,129900.0
1997-03-31,130400.0
1997-02-28,131700.0
1997-01-31,131000.0
1996-12-31,128400.0
1996-11-30,126900.0
1996-10-31,126100.0
1996-09-30,124800.0
1996-08-31,123900.0
1996-07-31,122400.0
1996-06-30,120100.0
1996-05-31,117100.0
1996-04-30,114500.0
