Date,Value
2015-09-30,1.098
2015-08-31,1.08
2015-07-31,1.068
2015-06-30,1.064
2015-05-31,1.058
2015-04-30,1.052
2015-03-31,1.046
2015-02-28,1.042
2015-01-31,1.044
2014-12-31,1.044
2014-11-30,1.042
2014-10-31,1.036
2014-09-30,1.032
2014-08-31,1.024
2014-07-31,1.012
2014-06-30,1.0
2014-05-31,0.996
2014-04-30,0.994
2014-03-31,0.998
2014-02-28,0.998
2014-01-31,1.0
2013-12-31,1.0
2013-11-30,0.996
2013-10-31,0.984
2013-09-30,0.976
2013-08-31,0.97
2013-07-31,0.966
2013-06-30,0.966
2013-05-31,0.97
2013-04-30,0.976
2013-03-31,0.974
2013-02-28,0.966
2013-01-31,0.954
2012-12-31,0.944
2012-11-30,0.934
2012-10-31,0.922
2012-09-30,0.918
2012-08-31,0.918
2012-07-31,0.922
2012-06-30,0.928
2012-05-31,0.924
2012-04-30,0.918
2012-03-31,0.91
2012-02-29,0.91
2012-01-31,0.91
2011-12-31,0.912
2011-11-30,0.92
2011-10-31,0.922
2011-09-30,0.928
2011-08-31,0.93
2011-07-31,0.93
2011-06-30,0.924
2011-05-31,0.914
2011-04-30,0.904
2011-03-31,0.898
2011-02-28,0.894
2011-01-31,0.89
2010-12-31,0.884
2010-11-30,0.874
