Date,Value
2015-09-30,161100.0
2015-08-31,158200.0
2015-07-31,159000.0
2015-06-30,160600.0
2015-05-31,160300.0
2015-04-30,158500.0
2015-03-31,158700.0
2015-02-28,157400.0
2015-01-31,154800.0
2014-12-31,154900.0
2014-11-30,154900.0
2014-10-31,154600.0
2014-09-30,154000.0
2014-08-31,153300.0
2014-07-31,153100.0
2014-06-30,153500.0
2014-05-31,153900.0
2014-04-30,154100.0
2014-03-31,153900.0
2014-02-28,153600.0
2014-01-31,153400.0
2013-12-31,152900.0
2013-11-30,152400.0
2013-10-31,152400.0
2013-09-30,152100.0
2013-08-31,151200.0
2013-07-31,150300.0
2013-06-30,148900.0
2013-05-31,147900.0
2013-04-30,147500.0
2013-03-31,147400.0
2013-02-28,146900.0
2013-01-31,146200.0
2012-12-31,145200.0
2012-11-30,145000.0
2012-10-31,146000.0
2012-09-30,146700.0
2012-08-31,146800.0
2012-07-31,146700.0
2012-06-30,146700.0
2012-05-31,147000.0
2012-04-30,147500.0
2012-03-31,148400.0
2012-02-29,149400.0
2012-01-31,149900.0
2011-12-31,149900.0
2011-11-30,150000.0
2011-10-31,150000.0
2011-09-30,150000.0
2011-08-31,150200.0
2011-07-31,150700.0
2011-06-30,151300.0
2011-05-31,151300.0
2011-04-30,150800.0
2011-03-31,150300.0
2011-02-28,149800.0
2011-01-31,149500.0
2010-12-31,149200.0
2010-11-30,148600.0
2010-10-31,148100.0
2010-09-30,148400.0
2010-08-31,148900.0
2010-07-31,149600.0
2010-06-30,150500.0
2010-05-31,151400.0
2010-04-30,151600.0
2010-03-31,151000.0
2010-02-28,150000.0
2010-01-31,149300.0
2009-12-31,149300.0
2009-11-30,149500.0
2009-10-31,149600.0
2009-09-30,149600.0
2009-08-31,149400.0
2009-07-31,149400.0
2009-06-30,149300.0
2009-05-31,148300.0
2009-04-30,147500.0
2009-03-31,147400.0
2009-02-28,147800.0
2009-01-31,148500.0
2008-12-31,149500.0
2008-11-30,150100.0
2008-10-31,149200.0
2008-09-30,147900.0
2008-08-31,147800.0
2008-07-31,148200.0
2008-06-30,148200.0
2008-05-31,148300.0
2008-04-30,148000.0
2008-03-31,147900.0
2008-02-29,147800.0
2008-01-31,147500.0
2007-12-31,146900.0
2007-11-30,146600.0
2007-10-31,147300.0
2007-09-30,147600.0
2007-08-31,146500.0
2007-07-31,144900.0
2007-06-30,143900.0
2007-05-31,142700.0
2007-04-30,141600.0
2007-03-31,140900.0
2007-02-28,141100.0
2007-01-31,141600.0
2006-12-31,141600.0
2006-11-30,140800.0
2006-10-31,139500.0
2006-09-30,139200.0
2006-08-31,140000.0
2006-07-31,140000.0
2006-06-30,138600.0
2006-05-31,137200.0
2006-04-30,136600.0
2006-03-31,135600.0
2006-02-28,134400.0
2006-01-31,133200.0
2005-12-31,131500.0
2005-11-30,130000.0
2005-10-31,129500.0
2005-09-30,129300.0
2005-08-31,128600.0
2005-07-31,128100.0
2005-06-30,127800.0
2005-05-31,127700.0
2005-04-30,127700.0
2005-03-31,127700.0
2005-02-28,127800.0
2005-01-31,127700.0
2004-12-31,127400.0
2004-11-30,127000.0
2004-10-31,126300.0
2004-09-30,124700.0
2004-08-31,123400.0
2004-07-31,122800.0
2004-06-30,122500.0
2004-05-31,122900.0
2004-04-30,123800.0
2004-03-31,124100.0
2004-02-29,123000.0
2004-01-31,121400.0
2003-12-31,120800.0
2003-11-30,121700.0
2003-10-31,122700.0
2003-09-30,122900.0
2003-08-31,121700.0
2003-07-31,120400.0
2003-06-30,119700.0
2003-05-31,119100.0
2003-04-30,118700.0
2003-03-31,119000.0
2003-02-28,119300.0
2003-01-31,120000.0
2002-12-31,120800.0
2002-11-30,120300.0
2002-10-31,118700.0
2002-09-30,117700.0
2002-08-31,117700.0
2002-07-31,117300.0
2002-06-30,116600.0
2002-05-31,115800.0
2002-04-30,114400.0
2002-03-31,112600.0
2002-02-28,111100.0
2002-01-31,110100.0
2001-12-31,109400.0
2001-11-30,108300.0
2001-10-31,107400.0
2001-09-30,107600.0
2001-08-31,108100.0
2001-07-31,108200.0
2001-06-30,108600.0
2001-05-31,109100.0
2001-04-30,109300.0
2001-03-31,109300.0
2001-02-28,109700.0
2001-01-31,110200.0
2000-12-31,110600.0
2000-11-30,111500.0
2000-10-31,112400.0
2000-09-30,112700.0
2000-08-31,113200.0
2000-07-31,114300.0
2000-06-30,114500.0
2000-05-31,113600.0
2000-04-30,113100.0
2000-03-31,113700.0
2000-02-29,114500.0
2000-01-31,114200.0
1999-12-31,113200.0
1999-11-30,112500.0
1999-10-31,112900.0
1999-09-30,113300.0
1999-08-31,113200.0
1999-07-31,113000.0
1999-06-30,113500.0
1999-05-31,114500.0
1999-04-30,114600.0
1999-03-31,113300.0
1999-02-28,112200.0
1999-01-31,111700.0
1998-12-31,111500.0
1998-11-30,110800.0
1998-10-31,109700.0
1998-09-30,108300.0
1998-08-31,106900.0
1998-07-31,105700.0
1998-06-30,104600.0
1998-05-31,103100.0
1998-04-30,101500.0
1998-03-31,100600.0
1998-02-28,100300.0
1998-01-31,100600.0
1997-12-31,101000.0
1997-11-30,101000.0
1997-10-31,100700.0
1997-09-30,101000.0
1997-08-31,101500.0
1997-07-31,101500.0
1997-06-30,101000.0
1997-05-31,101000.0
1997-04-30,101000.0
1997-03-31,100500.0
1997-02-28,99800.0
1997-01-31,98900.0
1996-12-31,97600.0
1996-11-30,96900.0
1996-10-31,97200.0
1996-09-30,97000.0
1996-08-31,96600.0
1996-07-31,96600.0
1996-06-30,97000.0
1996-05-31,97800.0
1996-04-30,98700.0
