Date,Value
2015-09-30,1.212
2015-08-31,1.122
2015-07-31,1.058
2015-06-30,1.076
2015-05-31,1.08
2015-04-30,1.072
2015-03-31,1.054
2015-02-28,1.054
2015-01-31,1.06
2014-12-31,1.072
2014-11-30,1.078
2014-10-31,1.086
2014-09-30,1.09
2014-08-31,1.086
2014-07-31,1.084
2014-06-30,1.078
2014-05-31,1.066
2014-04-30,1.044
2014-03-31,1.026
2014-02-28,1.016
2014-01-31,1.01
2013-12-31,0.982
2013-11-30,0.95
2013-10-31,0.95
2013-09-30,0.956
2013-08-31,0.966
2013-07-31,0.966
2013-06-30,0.96
2013-05-31,0.942
2013-04-30,0.932
2013-03-31,0.926
2013-02-28,0.938
2013-01-31,0.95
2012-12-31,0.954
2012-11-30,0.95
2012-10-31,0.938
2012-09-30,0.91
2012-08-31,0.882
2012-07-31,0.862
2012-06-30,0.854
2012-05-31,0.868
2012-04-30,0.886
2012-03-31,0.9
2012-02-29,0.892
2012-01-31,0.878
2011-12-31,0.862
2011-11-30,0.852
2011-10-31,0.85
2011-09-30,0.846
2011-08-31,0.844
2011-07-31,0.848
2011-06-30,0.848
2011-05-31,0.846
2011-04-30,0.84
2011-03-31,0.828
2011-02-28,0.812
2011-01-31,0.826
2010-12-31,0.828
2010-11-30,0.842
