Date,Value
2015-09-30,247300.0
2015-08-31,243700.0
2015-07-31,239500.0
2015-06-30,238300.0
2015-05-31,235100.0
2015-04-30,233100.0
2015-03-31,232100.0
2015-02-28,231500.0
2015-01-31,228900.0
2014-12-31,227900.0
2014-11-30,226500.0
2014-10-31,225500.0
2014-09-30,224800.0
2014-08-31,224200.0
2014-07-31,223500.0
2014-06-30,222800.0
2014-05-31,221600.0
2014-04-30,220400.0
2014-03-31,219200.0
2014-02-28,218400.0
2014-01-31,216800.0
2013-12-31,214300.0
2013-11-30,211900.0
2013-10-31,210200.0
2013-09-30,208100.0
2013-08-31,205600.0
2013-07-31,202000.0
2013-06-30,197600.0
2013-05-31,193400.0
2013-04-30,190800.0
2013-03-31,189000.0
2013-02-28,187300.0
2013-01-31,185600.0
2012-12-31,183800.0
2012-11-30,181900.0
2012-10-31,180300.0
2012-09-30,179000.0
2012-08-31,177800.0
2012-07-31,177100.0
2012-06-30,176900.0
2012-05-31,176700.0
2012-04-30,175900.0
2012-03-31,174900.0
2012-02-29,173800.0
2012-01-31,173400.0
2011-12-31,173800.0
2011-11-30,174800.0
2011-10-31,175600.0
2011-09-30,176400.0
2011-08-31,177600.0
2011-07-31,179400.0
2011-06-30,181300.0
2011-05-31,182200.0
2011-04-30,182900.0
2011-03-31,184900.0
2011-02-28,187900.0
2011-01-31,190700.0
2010-12-31,193000.0
2010-11-30,194700.0
2010-10-31,195900.0
2010-09-30,197100.0
2010-08-31,198800.0
2010-07-31,200300.0
2010-06-30,201400.0
2010-05-31,202300.0
2010-04-30,202600.0
2010-03-31,202700.0
2010-02-28,202600.0
2010-01-31,202600.0
2009-12-31,202200.0
2009-11-30,201900.0
2009-10-31,201700.0
2009-09-30,202400.0
2009-08-31,203400.0
2009-07-31,204500.0
2009-06-30,205900.0
2009-05-31,208600.0
2009-04-30,212000.0
2009-03-31,215200.0
2009-02-28,218100.0
2009-01-31,220900.0
2008-12-31,223900.0
2008-11-30,227400.0
2008-10-31,230800.0
2008-09-30,232900.0
2008-08-31,234200.0
2008-07-31,235400.0
2008-06-30,237000.0
2008-05-31,239000.0
2008-04-30,241500.0
2008-03-31,243300.0
2008-02-29,244300.0
2008-01-31,245600.0
2007-12-31,247400.0
2007-11-30,248700.0
2007-10-31,249600.0
2007-09-30,250800.0
2007-08-31,252400.0
2007-07-31,253800.0
2007-06-30,254600.0
2007-05-31,255100.0
2007-04-30,255500.0
2007-03-31,255900.0
2007-02-28,255600.0
2007-01-31,254900.0
2006-12-31,254500.0
2006-11-30,254500.0
2006-10-31,254800.0
2006-09-30,255300.0
2006-08-31,255300.0
2006-07-31,254600.0
2006-06-30,253700.0
2006-05-31,251900.0
2006-04-30,249100.0
2006-03-31,246000.0
2006-02-28,243200.0
2006-01-31,240900.0
2005-12-31,238700.0
2005-11-30,236400.0
2005-10-31,233400.0
2005-09-30,229100.0
2005-08-31,224600.0
2005-07-31,220500.0
2005-06-30,216600.0
2005-05-31,212700.0
2005-04-30,209100.0
2005-03-31,205700.0
2005-02-28,202900.0
2005-01-31,200600.0
2004-12-31,198200.0
2004-11-30,195200.0
2004-10-31,192200.0
2004-09-30,189600.0
2004-08-31,186900.0
2004-07-31,184300.0
2004-06-30,181900.0
2004-05-31,179700.0
2004-04-30,177600.0
2004-03-31,176100.0
2004-02-29,175000.0
2004-01-31,173800.0
2003-12-31,171900.0
2003-11-30,170100.0
2003-10-31,168500.0
2003-09-30,167300.0
2003-08-31,166300.0
2003-07-31,165300.0
2003-06-30,164200.0
2003-05-31,163400.0
2003-04-30,163100.0
2003-03-31,162600.0
2003-02-28,161800.0
2003-01-31,160600.0
2002-12-31,159500.0
2002-11-30,158500.0
2002-10-31,157700.0
2002-09-30,157100.0
2002-08-31,156800.0
2002-07-31,157000.0
2002-06-30,157200.0
2002-05-31,157100.0
2002-04-30,156800.0
2002-03-31,156400.0
2002-02-28,155800.0
2002-01-31,155000.0
2001-12-31,154100.0
2001-11-30,153300.0
2001-10-31,152900.0
2001-09-30,152800.0
2001-08-31,152600.0
2001-07-31,152000.0
2001-06-30,151600.0
2001-05-31,151300.0
2001-04-30,150800.0
2001-03-31,150300.0
2001-02-28,150000.0
2001-01-31,149700.0
2000-12-31,149600.0
2000-11-30,149500.0
2000-10-31,149400.0
2000-09-30,149400.0
2000-08-31,149700.0
2000-07-31,149800.0
2000-06-30,149700.0
2000-05-31,149600.0
2000-04-30,149200.0
2000-03-31,148800.0
2000-02-29,148400.0
2000-01-31,148400.0
1999-12-31,148900.0
1999-11-30,149500.0
1999-10-31,150100.0
1999-09-30,150900.0
1999-08-31,151500.0
1999-07-31,151800.0
1999-06-30,152100.0
1999-05-31,152100.0
1999-04-30,152000.0
1999-03-31,151900.0
1999-02-28,151300.0
1999-01-31,150500.0
1998-12-31,149800.0
1998-11-30,149300.0
1998-10-31,148600.0
1998-09-30,147600.0
1998-08-31,146800.0
1998-07-31,146100.0
1998-06-30,145300.0
1998-05-31,145300.0
1998-04-30,146600.0
1998-03-31,148000.0
1998-02-28,149100.0
1998-01-31,149400.0
1997-12-31,149100.0
1997-11-30,148800.0
1997-10-31,148900.0
1997-09-30,148400.0
1997-08-31,147400.0
1997-07-31,146900.0
1997-06-30,146700.0
1997-05-31,146000.0
1997-04-30,144500.0
1997-03-31,142500.0
1997-02-28,140500.0
1997-01-31,139000.0
1996-12-31,137900.0
1996-11-30,137100.0
1996-10-31,136300.0
1996-09-30,135500.0
1996-08-31,135000.0
1996-07-31,134300.0
1996-06-30,133200.0
1996-05-31,132000.0
1996-04-30,131100.0
