Date,Value
2015-09-30,310500.0
2015-08-31,307500.0
2015-07-31,303200.0
2015-06-30,303000.0
2015-05-31,298400.0
2015-04-30,294900.0
2015-03-31,295100.0
2015-02-28,295400.0
2015-01-31,292000.0
2014-12-31,290300.0
2014-11-30,288900.0
2014-10-31,288200.0
2014-09-30,287000.0
2014-08-31,285200.0
2014-07-31,283000.0
2014-06-30,281900.0
2014-05-31,281100.0
2014-04-30,279800.0
2014-03-31,278000.0
2014-02-28,276600.0
2014-01-31,276000.0
2013-12-31,276100.0
2013-11-30,276200.0
2013-10-31,276600.0
2013-09-30,277200.0
2013-08-31,276400.0
2013-07-31,273500.0
2013-06-30,268900.0
2013-05-31,264800.0
2013-04-30,261600.0
2013-03-31,259400.0
2013-02-28,257900.0
2013-01-31,256100.0
2012-12-31,252600.0
2012-11-30,248400.0
2012-10-31,245000.0
2012-09-30,241400.0
2012-08-31,238300.0
2012-07-31,235700.0
2012-06-30,233100.0
2012-05-31,229700.0
2012-04-30,225600.0
2012-03-31,221200.0
2012-02-29,217400.0
2012-01-31,215100.0
2011-12-31,214600.0
2011-11-30,215700.0
2011-10-31,217400.0
2011-09-30,219400.0
2011-08-31,221200.0
2011-07-31,223300.0
2011-06-30,226200.0
2011-05-31,229700.0
2011-04-30,233200.0
2011-03-31,236600.0
2011-02-28,239100.0
2011-01-31,240800.0
2010-12-31,242300.0
2010-11-30,243700.0
2010-10-31,245200.0
2010-09-30,247100.0
2010-08-31,250200.0
2010-07-31,254100.0
2010-06-30,257900.0
2010-05-31,260600.0
2010-04-30,262500.0
2010-03-31,263400.0
2010-02-28,264400.0
2010-01-31,266100.0
2009-12-31,267600.0
2009-11-30,268100.0
2009-10-31,268400.0
2009-09-30,269000.0
2009-08-31,270300.0
2009-07-31,272200.0
2009-06-30,274400.0
2009-05-31,276800.0
2009-04-30,280000.0
2009-03-31,284400.0
2009-02-28,288600.0
2009-01-31,293000.0
2008-12-31,297800.0
2008-11-30,301900.0
2008-10-31,304700.0
2008-09-30,307700.0
2008-08-31,310700.0
2008-07-31,313700.0
2008-06-30,316700.0
2008-05-31,319500.0
2008-04-30,322100.0
2008-03-31,325100.0
2008-02-29,328300.0
2008-01-31,331200.0
2007-12-31,333500.0
2007-11-30,335700.0
2007-10-31,337500.0
2007-09-30,338400.0
2007-08-31,338700.0
2007-07-31,338200.0
2007-06-30,337100.0
2007-05-31,335600.0
2007-04-30,333900.0
2007-03-31,332600.0
2007-02-28,331500.0
2007-01-31,329900.0
2006-12-31,328500.0
2006-11-30,327400.0
2006-10-31,326400.0
2006-09-30,324600.0
2006-08-31,322100.0
2006-07-31,319400.0
2006-06-30,316500.0
2006-05-31,313200.0
2006-04-30,309800.0
2006-03-31,306100.0
2006-02-28,302000.0
2006-01-31,297700.0
2005-12-31,293300.0
2005-11-30,289300.0
2005-10-31,285400.0
2005-09-30,281100.0
2005-08-31,276300.0
2005-07-31,271500.0
2005-06-30,267000.0
2005-05-31,263400.0
2005-04-30,260300.0
2005-03-31,257300.0
2005-02-28,254100.0
2005-01-31,250800.0
2004-12-31,246800.0
2004-11-30,243000.0
2004-10-31,240100.0
2004-09-30,238000.0
2004-08-31,236300.0
2004-07-31,234800.0
2004-06-30,233400.0
2004-05-31,232200.0
2004-04-30,231000.0
2004-03-31,229600.0
2004-02-29,228100.0
2004-01-31,226800.0
2003-12-31,225400.0
2003-11-30,223900.0
2003-10-31,222400.0
2003-09-30,221000.0
2003-08-31,219700.0
2003-07-31,218000.0
2003-06-30,216100.0
2003-05-31,215000.0
2003-04-30,214200.0
2003-03-31,213500.0
2003-02-28,213200.0
2003-01-31,213000.0
2002-12-31,212700.0
2002-11-30,211800.0
2002-10-31,210600.0
2002-09-30,209600.0
2002-08-31,208400.0
2002-07-31,207200.0
2002-06-30,206500.0
2002-05-31,205800.0
2002-04-30,204900.0
2002-03-31,204200.0
2002-02-28,203700.0
2002-01-31,203300.0
2001-12-31,203300.0
2001-11-30,203200.0
2001-10-31,202600.0
2001-09-30,202000.0
2001-08-31,201900.0
2001-07-31,202100.0
2001-06-30,201600.0
2001-05-31,200700.0
2001-04-30,200000.0
2001-03-31,199200.0
2001-02-28,198000.0
2001-01-31,196900.0
2000-12-31,196100.0
2000-11-30,196000.0
2000-10-31,196200.0
2000-09-30,196100.0
2000-08-31,195500.0
2000-07-31,194900.0
2000-06-30,194500.0
2000-05-31,194000.0
2000-04-30,192900.0
2000-03-31,191400.0
2000-02-29,190100.0
2000-01-31,188900.0
1999-12-31,187800.0
1999-11-30,187000.0
1999-10-31,186300.0
1999-09-30,185500.0
1999-08-31,184700.0
1999-07-31,184100.0
1999-06-30,183500.0
1999-05-31,182400.0
1999-04-30,180900.0
1999-03-31,179300.0
1999-02-28,178000.0
1999-01-31,176700.0
1998-12-31,175500.0
1998-11-30,174300.0
1998-10-31,173500.0
1998-09-30,173300.0
1998-08-31,173200.0
1998-07-31,173100.0
1998-06-30,172600.0
1998-05-31,171400.0
1998-04-30,170300.0
1998-03-31,169600.0
1998-02-28,168800.0
1998-01-31,167600.0
1997-12-31,166300.0
1997-11-30,165000.0
1997-10-31,163800.0
1997-09-30,162200.0
1997-08-31,160200.0
1997-07-31,158500.0
1997-06-30,157200.0
1997-05-31,155800.0
1997-04-30,154200.0
1997-03-31,152400.0
1997-02-28,150800.0
1997-01-31,149600.0
1996-12-31,148900.0
1996-11-30,148200.0
1996-10-31,147300.0
1996-09-30,146500.0
1996-08-31,146100.0
1996-07-31,145800.0
1996-06-30,145800.0
1996-05-31,146300.0
1996-04-30,147500.0
