Date,Value
2015-09-30,309900.0
2015-08-31,291800.0
2015-07-31,289800.0
2015-06-30,290300.0
2015-05-31,288400.0
2015-04-30,287300.0
2015-03-31,287400.0
2015-02-28,287200.0
2015-01-31,284900.0
2014-12-31,285000.0
2014-11-30,284100.0
2014-10-31,282600.0
2014-09-30,282000.0
2014-08-31,281300.0
2014-07-31,279600.0
2014-06-30,277700.0
2014-05-31,276600.0
2014-04-30,276300.0
2014-03-31,276200.0
2014-02-28,275400.0
2014-01-31,274400.0
2013-12-31,273100.0
2013-11-30,272000.0
2013-10-31,270700.0
2013-09-30,268900.0
2013-08-31,266300.0
2013-07-31,263800.0
2013-06-30,261600.0
2013-05-31,259900.0
2013-04-30,258200.0
2013-03-31,257000.0
2013-02-28,256400.0
2013-01-31,255700.0
2012-12-31,254700.0
2012-11-30,254000.0
2012-10-31,253000.0
2012-09-30,251200.0
2012-08-31,249600.0
2012-07-31,248700.0
2012-06-30,247800.0
2012-05-31,247000.0
2012-04-30,246300.0
2012-03-31,245400.0
2012-02-29,244700.0
2012-01-31,244900.0
2011-12-31,245200.0
2011-11-30,245100.0
2011-10-31,245000.0
2011-09-30,245000.0
2011-08-31,245000.0
2011-07-31,245200.0
2011-06-30,245500.0
2011-05-31,246400.0
2011-04-30,247700.0
2011-03-31,249200.0
2011-02-28,251000.0
2011-01-31,252600.0
2010-12-31,254000.0
2010-11-30,254900.0
2010-10-31,256100.0
2010-09-30,257900.0
2010-08-31,260600.0
2010-07-31,262900.0
2010-06-30,264700.0
2010-05-31,265700.0
2010-04-30,266000.0
2010-03-31,266100.0
2010-02-28,266700.0
2010-01-31,267400.0
2009-12-31,267800.0
2009-11-30,268000.0
2009-10-31,268200.0
2009-09-30,268600.0
2009-08-31,268700.0
2009-07-31,268500.0
2009-06-30,268800.0
2009-05-31,269300.0
2009-04-30,270000.0
2009-03-31,270900.0
2009-02-28,271700.0
2009-01-31,271800.0
2008-12-31,271700.0
2008-11-30,272400.0
2008-10-31,274000.0
2008-09-30,275100.0
2008-08-31,275900.0
2008-07-31,277600.0
2008-06-30,280300.0
2008-05-31,282900.0
2008-04-30,284500.0
2008-03-31,285400.0
2008-02-29,285100.0
2008-01-31,284500.0
2007-12-31,284900.0
2007-11-30,286000.0
2007-10-31,287000.0
2007-09-30,288000.0
2007-08-31,288600.0
2007-07-31,288200.0
2007-06-30,287500.0
2007-05-31,287100.0
2007-04-30,287100.0
2007-03-31,287000.0
2007-02-28,286700.0
2007-01-31,286200.0
2006-12-31,285300.0
2006-11-30,283700.0
2006-10-31,282700.0
2006-09-30,283400.0
2006-08-31,284900.0
2006-07-31,286000.0
2006-06-30,286000.0
2006-05-31,285500.0
2006-04-30,284600.0
2006-03-31,283100.0
2006-02-28,281300.0
2006-01-31,279900.0
2005-12-31,278600.0
2005-11-30,277000.0
2005-10-31,274200.0
2005-09-30,270000.0
2005-08-31,265700.0
2005-07-31,262100.0
2005-06-30,258300.0
2005-05-31,253800.0
2005-04-30,248500.0
2005-03-31,243900.0
2005-02-28,240700.0
2005-01-31,237900.0
2004-12-31,234900.0
2004-11-30,232200.0
2004-10-31,228900.0
2004-09-30,224400.0
2004-08-31,219100.0
2004-07-31,214300.0
2004-06-30,210100.0
2004-05-31,206900.0
2004-04-30,204600.0
2004-03-31,202900.0
2004-02-29,200300.0
2004-01-31,197000.0
2003-12-31,193500.0
2003-11-30,190700.0
2003-10-31,188500.0
2003-09-30,186500.0
2003-08-31,184900.0
2003-07-31,183200.0
2003-06-30,181200.0
2003-05-31,179000.0
2003-04-30,176900.0
2003-03-31,174700.0
2003-02-28,172900.0
2003-01-31,171600.0
2002-12-31,170300.0
2002-11-30,169000.0
2002-10-31,167700.0
2002-09-30,166800.0
2002-08-31,165700.0
2002-07-31,164000.0
2002-06-30,161700.0
2002-05-31,159800.0
2002-04-30,158800.0
2002-03-31,158100.0
2002-02-28,157100.0
2002-01-31,156000.0
2001-12-31,154800.0
2001-11-30,152600.0
2001-10-31,150200.0
2001-09-30,148500.0
2001-08-31,148000.0
2001-07-31,148700.0
2001-06-30,150000.0
2001-05-31,150400.0
2001-04-30,149900.0
2001-03-31,149300.0
2001-02-28,149400.0
2001-01-31,150300.0
2000-12-31,151700.0
2000-11-30,153000.0
2000-10-31,154200.0
2000-09-30,155400.0
2000-08-31,155700.0
2000-07-31,154800.0
2000-06-30,153500.0
2000-05-31,152600.0
2000-04-30,151800.0
2000-03-31,150500.0
2000-02-29,148900.0
2000-01-31,147500.0
1999-12-31,146100.0
1999-11-30,144900.0
1999-10-31,143900.0
1999-09-30,142700.0
1999-08-31,141500.0
1999-07-31,140600.0
1999-06-30,140000.0
1999-05-31,139500.0
1999-04-30,138900.0
1999-03-31,138100.0
1999-02-28,137400.0
1999-01-31,136300.0
1998-12-31,135100.0
1998-11-30,134300.0
1998-10-31,133500.0
1998-09-30,132500.0
1998-08-31,131700.0
1998-07-31,131100.0
1998-06-30,130700.0
1998-05-31,130700.0
1998-04-30,130900.0
1998-03-31,131000.0
1998-02-28,130800.0
1998-01-31,130000.0
1997-12-31,129100.0
1997-11-30,128800.0
1997-10-31,129000.0
1997-09-30,129400.0
1997-08-31,129600.0
1997-07-31,129800.0
1997-06-30,129800.0
1997-05-31,129700.0
1997-04-30,129600.0
1997-03-31,129300.0
1997-02-28,128700.0
1997-01-31,128100.0
1996-12-31,127700.0
1996-11-30,127400.0
1996-10-31,127100.0
1996-09-30,127000.0
1996-08-31,126500.0
1996-07-31,125900.0
1996-06-30,125900.0
1996-05-31,126000.0
1996-04-30,125800.0
