Date,Value
2015-09-30,215100.0
2015-08-31,214600.0
2015-07-31,215200.0
2015-06-30,215800.0
2015-05-31,208200.0
2015-04-30,208200.0
2015-03-31,207700.0
2015-02-28,207100.0
2015-01-31,206200.0
2014-12-31,204300.0
2014-11-30,201700.0
2014-10-31,199500.0
2014-09-30,198600.0
2014-08-31,198300.0
2014-07-31,197800.0
2014-06-30,197600.0
2014-05-31,197300.0
2014-04-30,196500.0
2014-03-31,195200.0
2014-02-28,194200.0
2014-01-31,193500.0
2013-12-31,193100.0
2013-11-30,193600.0
2013-10-31,194700.0
2013-09-30,194600.0
2013-08-31,193100.0
2013-07-31,191800.0
2013-06-30,191200.0
2013-05-31,189700.0
2013-04-30,187400.0
2013-03-31,185700.0
2013-02-28,184800.0
2013-01-31,184200.0
2012-12-31,184300.0
2012-11-30,184600.0
2012-10-31,184600.0
2012-09-30,184600.0
2012-08-31,184400.0
2012-07-31,183900.0
2012-06-30,183300.0
2012-05-31,183300.0
2012-04-30,184000.0
2012-03-31,184800.0
2012-02-29,185000.0
2012-01-31,184900.0
2011-12-31,185600.0
2011-11-30,186600.0
2011-10-31,186700.0
2011-09-30,187100.0
2011-08-31,188500.0
2011-07-31,190700.0
2011-06-30,192800.0
2011-05-31,195600.0
2011-04-30,198600.0
2011-03-31,201600.0
2011-02-28,203800.0
2011-01-31,204800.0
2010-12-31,205700.0
2010-11-30,206600.0
2010-10-31,206900.0
2010-09-30,207200.0
2010-08-31,208300.0
2010-07-31,209100.0
2010-06-30,209700.0
2010-05-31,210300.0
2010-04-30,210600.0
2010-03-31,211100.0
2010-02-28,211900.0
2010-01-31,213000.0
2009-12-31,213100.0
2009-11-30,213000.0
2009-10-31,214000.0
2009-09-30,216600.0
2009-08-31,219000.0
2009-07-31,220900.0
2009-06-30,223100.0
2009-05-31,225500.0
2009-04-30,226900.0
2009-03-31,227300.0
2009-02-28,228200.0
2009-01-31,229900.0
2008-12-31,232700.0
2008-11-30,235900.0
2008-10-31,238900.0
2008-09-30,240900.0
2008-08-31,241700.0
2008-07-31,241600.0
2008-06-30,241100.0
2008-05-31,239200.0
2008-04-30,237300.0
2008-03-31,237500.0
2008-02-29,238300.0
2008-01-31,238100.0
2007-12-31,236600.0
2007-11-30,235400.0
2007-10-31,235000.0
2007-09-30,235200.0
2007-08-31,235300.0
2007-07-31,236000.0
2007-06-30,237200.0
2007-05-31,238400.0
2007-04-30,238900.0
2007-03-31,238300.0
2007-02-28,237000.0
2007-01-31,235900.0
2006-12-31,235800.0
2006-11-30,236100.0
2006-10-31,235300.0
2006-09-30,233200.0
2006-08-31,231500.0
2006-07-31,229300.0
2006-06-30,226700.0
2006-05-31,224800.0
2006-04-30,224000.0
2006-03-31,222700.0
2006-02-28,220500.0
2006-01-31,217300.0
2005-12-31,213600.0
2005-11-30,209500.0
2005-10-31,205500.0
2005-09-30,201100.0
2005-08-31,196900.0
2005-07-31,193300.0
2005-06-30,190100.0
2005-05-31,186800.0
2005-04-30,184300.0
2005-03-31,182300.0
2005-02-28,180600.0
2005-01-31,179600.0
2004-12-31,178800.0
2004-11-30,177100.0
2004-10-31,175200.0
2004-09-30,174100.0
2004-08-31,174300.0
2004-07-31,174600.0
2004-06-30,173900.0
2004-05-31,172200.0
2004-04-30,169700.0
2004-03-31,167000.0
2004-02-29,165800.0
2004-01-31,165400.0
2003-12-31,164300.0
2003-11-30,163900.0
2003-10-31,163500.0
2003-09-30,162300.0
2003-08-31,160300.0
2003-07-31,158600.0
2003-06-30,156900.0
2003-05-31,155400.0
2003-04-30,154300.0
2003-03-31,153700.0
2003-02-28,152600.0
2003-01-31,150900.0
2002-12-31,148800.0
2002-11-30,146600.0
2002-10-31,145500.0
2002-09-30,145400.0
2002-08-31,144900.0
2002-07-31,144200.0
2002-06-30,144100.0
2002-05-31,144800.0
2002-04-30,145200.0
2002-03-31,145500.0
2002-02-28,146300.0
2002-01-31,147400.0
2001-12-31,148400.0
2001-11-30,149200.0
2001-10-31,149500.0
2001-09-30,149000.0
2001-08-31,147200.0
2001-07-31,144900.0
2001-06-30,143000.0
2001-05-31,141200.0
2001-04-30,139900.0
2001-03-31,139000.0
2001-02-28,136600.0
2001-01-31,133300.0
2000-12-31,131600.0
2000-11-30,130700.0
2000-10-31,129300.0
2000-09-30,128500.0
2000-08-31,128500.0
2000-07-31,128400.0
2000-06-30,128200.0
2000-05-31,128100.0
2000-04-30,128100.0
2000-03-31,127700.0
2000-02-29,126700.0
2000-01-31,126200.0
1999-12-31,126400.0
1999-11-30,126700.0
1999-10-31,127000.0
1999-09-30,127200.0
1999-08-31,127400.0
1999-07-31,127500.0
1999-06-30,128200.0
1999-05-31,129400.0
1999-04-30,130400.0
1999-03-31,130600.0
1999-02-28,130600.0
1999-01-31,130900.0
1998-12-31,130900.0
1998-11-30,130500.0
1998-10-31,129800.0
1998-09-30,129900.0
1998-08-31,131100.0
1998-07-31,132700.0
1998-06-30,133300.0
1998-05-31,132200.0
1998-04-30,130500.0
1998-03-31,129700.0
1998-02-28,129800.0
1998-01-31,129500.0
1997-12-31,128100.0
1997-11-30,127100.0
1997-10-31,126100.0
1997-09-30,124700.0
1997-08-31,123000.0
1997-07-31,120900.0
1997-06-30,118900.0
1997-05-31,117900.0
1997-04-30,117300.0
1997-03-31,116500.0
1997-02-28,115800.0
1997-01-31,115400.0
1996-12-31,115300.0
1996-11-30,115300.0
1996-10-31,115200.0
1996-09-30,114900.0
1996-08-31,114500.0
1996-07-31,114600.0
1996-06-30,114800.0
1996-05-31,115000.0
1996-04-30,115200.0
