Date,Value
2015-09-30,227200.0
2015-08-31,224200.0
2015-07-31,222700.0
2015-06-30,224300.0
2015-05-31,220600.0
2015-04-30,219400.0
2015-03-31,218200.0
2015-02-28,215900.0
2015-01-31,213000.0
2014-12-31,210600.0
2014-11-30,208100.0
2014-10-31,206300.0
2014-09-30,204200.0
2014-08-31,201000.0
2014-07-31,197500.0
2014-06-30,194900.0
2014-05-31,192400.0
2014-04-30,188800.0
2014-03-31,185300.0
2014-02-28,183300.0
2014-01-31,182700.0
2013-12-31,181700.0
2013-11-30,179600.0
2013-10-31,177600.0
2013-09-30,176300.0
2013-08-31,175000.0
2013-07-31,173500.0
2013-06-30,170500.0
2013-05-31,167000.0
2013-04-30,166500.0
2013-03-31,169400.0
2013-02-28,171200.0
2013-01-31,170000.0
2012-12-31,168800.0
2012-11-30,168300.0
2012-10-31,166900.0
2012-09-30,165000.0
2012-08-31,163200.0
2012-07-31,160600.0
2012-06-30,158700.0
2012-05-31,157900.0
2012-04-30,156600.0
2012-03-31,155100.0
2012-02-29,154100.0
2012-01-31,153300.0
2011-12-31,152700.0
2011-11-30,153500.0
2011-10-31,155400.0
2011-09-30,158000.0
2011-08-31,161200.0
2011-07-31,164700.0
2011-06-30,167600.0
2011-05-31,169700.0
2011-04-30,171400.0
2011-03-31,172500.0
2011-02-28,173700.0
2011-01-31,175500.0
2010-12-31,178000.0
2010-11-30,180600.0
2010-10-31,183100.0
2010-09-30,184800.0
2010-08-31,186100.0
2010-07-31,187400.0
2010-06-30,189300.0
2010-05-31,191600.0
2010-04-30,193700.0
2010-03-31,195400.0
2010-02-28,197700.0
2010-01-31,201000.0
2009-12-31,204400.0
2009-11-30,206600.0
2009-10-31,207600.0
2009-09-30,208900.0
2009-08-31,211300.0
2009-07-31,214600.0
2009-06-30,217300.0
2009-05-31,218900.0
2009-04-30,220200.0
2009-03-31,221700.0
2009-02-28,223000.0
2009-01-31,225100.0
2008-12-31,228100.0
2008-11-30,230600.0
2008-10-31,232400.0
2008-09-30,234200.0
2008-08-31,236300.0
2008-07-31,238800.0
2008-06-30,241700.0
2008-05-31,244700.0
2008-04-30,247800.0
2008-03-31,250600.0
2008-02-29,252700.0
2008-01-31,253800.0
2007-12-31,254200.0
2007-11-30,254800.0
2007-10-31,256600.0
2007-09-30,259100.0
2007-08-31,260600.0
2007-07-31,260900.0
2007-06-30,261400.0
2007-05-31,261900.0
2007-04-30,261000.0
2007-03-31,258600.0
2007-02-28,256200.0
2007-01-31,254200.0
2006-12-31,252000.0
2006-11-30,249900.0
2006-10-31,247900.0
2006-09-30,245000.0
2006-08-31,242000.0
2006-07-31,239800.0
2006-06-30,237700.0
2006-05-31,235300.0
2006-04-30,233300.0
2006-03-31,231900.0
2006-02-28,230700.0
2006-01-31,229100.0
2005-12-31,227000.0
2005-11-30,224600.0
2005-10-31,221800.0
2005-09-30,218700.0
2005-08-31,215300.0
2005-07-31,211500.0
2005-06-30,207600.0
2005-05-31,204400.0
2005-04-30,202100.0
2005-03-31,200000.0
2005-02-28,197800.0
2005-01-31,195700.0
2004-12-31,193400.0
2004-11-30,190800.0
2004-10-31,188600.0
2004-09-30,186700.0
2004-08-31,184700.0
2004-07-31,183000.0
2004-06-30,181600.0
2004-05-31,180600.0
2004-04-30,179800.0
2004-03-31,178700.0
2004-02-29,177500.0
2004-01-31,176600.0
2003-12-31,175900.0
2003-11-30,175400.0
2003-10-31,174300.0
2003-09-30,173400.0
2003-08-31,173100.0
2003-07-31,172900.0
2003-06-30,172300.0
2003-05-31,171500.0
2003-04-30,170500.0
2003-03-31,170100.0
2003-02-28,169700.0
2003-01-31,168700.0
2002-12-31,167500.0
2002-11-30,166700.0
2002-10-31,166300.0
2002-09-30,166200.0
2002-08-31,165900.0
2002-07-31,165200.0
2002-06-30,164800.0
2002-05-31,164000.0
2002-04-30,163000.0
2002-03-31,162200.0
2002-02-28,162300.0
2002-01-31,162800.0
2001-12-31,162800.0
2001-11-30,162200.0
2001-10-31,161800.0
2001-09-30,161500.0
2001-08-31,161400.0
2001-07-31,161100.0
2001-06-30,160700.0
2001-05-31,160100.0
2001-04-30,159600.0
2001-03-31,159000.0
2001-02-28,157800.0
2001-01-31,156400.0
2000-12-31,155700.0
2000-11-30,155400.0
2000-10-31,154900.0
2000-09-30,154200.0
2000-08-31,153400.0
2000-07-31,152300.0
2000-06-30,151500.0
2000-05-31,151100.0
2000-04-30,150600.0
2000-03-31,150000.0
2000-02-29,149200.0
2000-01-31,148400.0
1999-12-31,147600.0
1999-11-30,147000.0
1999-10-31,146700.0
1999-09-30,146400.0
1999-08-31,146000.0
1999-07-31,145000.0
1999-06-30,144200.0
1999-05-31,144000.0
1999-04-30,144100.0
1999-03-31,143900.0
1999-02-28,143200.0
1999-01-31,141900.0
1998-12-31,140800.0
1998-11-30,140300.0
1998-10-31,140300.0
1998-09-30,139900.0
1998-08-31,140000.0
1998-07-31,140400.0
1998-06-30,139800.0
1998-05-31,137800.0
1998-04-30,136000.0
1998-03-31,134600.0
1998-02-28,133200.0
1998-01-31,132200.0
1997-12-31,131200.0
1997-11-30,130200.0
1997-10-31,129200.0
1997-09-30,128100.0
1997-08-31,126800.0
1997-07-31,125600.0
1997-06-30,124900.0
1997-05-31,124200.0
1997-04-30,123500.0
1997-03-31,122900.0
1997-02-28,122600.0
1997-01-31,122600.0
1996-12-31,122400.0
1996-11-30,122300.0
1996-10-31,122000.0
1996-09-30,121800.0
1996-08-31,121700.0
1996-07-31,122100.0
1996-06-30,123300.0
1996-05-31,124700.0
1996-04-30,126000.0
