Date,Value
2015-02-28,475000.0
2015-01-31,544000.0
2014-12-31,544000.0
2014-11-30,544000.0
2014-10-31,599950.0
2014-09-30,510000.0
2014-08-31,525000.0
2014-07-31,544000.0
2014-06-30,585000.0
2014-05-31,499000.0
2014-04-30,517000.0
2014-03-31,517000.0
2014-02-28,494950.0
2014-01-31,494950.0
2013-12-31,484000.0
2013-11-30,489900.0
2013-10-31,549000.0
2013-09-30,489900.0
2013-08-31,507829.0
2013-07-31,500000.0
2013-06-30,469000.0
2013-05-31,439000.0
2013-04-30,439000.0
2013-03-31,439000.0
2013-02-28,400700.0
2013-01-31,464900.0
2012-12-31,485000.0
2012-11-30,445000.0
2012-10-31,419000.0
2012-09-30,474950.0
2012-08-31,449950.0
2012-07-31,449950.0
2012-06-30,449500.0
2012-05-31,429950.0
2012-04-30,354000.0
2012-03-31,392000.0
2012-02-29,399000.0
2012-01-31,355000.0
2011-12-31,419900.0
2011-11-30,419900.0
2011-10-31,449000.0
2011-09-30,489000.0
2011-08-31,489990.0
2011-07-31,489990.0
2011-06-30,500000.0
2011-05-31,499950.0
2011-04-30,489900.0
2011-03-31,499900.0
2011-02-28,535000.0
2011-01-31,499000.0
2010-12-31,454900.0
2010-11-30,449990.0
2010-10-31,479990.0
2010-09-30,489990.0
2010-08-31,489990.0
2010-07-31,479990.0
2010-06-30,489990.0
2010-05-31,499000.0
2010-04-30,489990.0
2010-03-31,624950.0
2010-02-28,599950.0
2010-01-31,599000.0
2009-12-31,599900.0
2009-11-30,599900.0
2009-10-31,635000.0
2009-09-30,635000.0
2009-08-31,698000.0
2009-07-31,635000.0
2009-06-30,657900.0
2009-05-31,635000.0
2009-04-30,629000.0
2009-03-31,688500.0
2009-02-28,800000.0
2009-01-31,980000.0
2008-12-31,995000.0
2008-11-30,863900.0
2008-10-31,863900.0
