Date,Value
2013-04-30,245000.0
2011-03-31,242000.0
2009-06-30,296250.0
2008-06-30,262000.0
2007-08-31,289657.5
2007-07-31,305575.0
2007-06-30,309100.0
2007-05-31,294764.7059
2007-04-30,310269.2308
2007-02-28,331823.5294
2007-01-31,328000.0
2006-09-30,342575.0
2006-08-31,329212.65
2006-07-31,309362.85
2006-06-30,295668.0
2006-05-31,290340.75
2006-04-30,273144.25
2006-03-31,275326.4706
2006-02-28,267680.7692
2005-12-31,264650.0
2005-11-30,269942.5
2005-10-31,270225.0
2005-09-30,280150.0
2005-08-31,281707.5
2005-07-31,283967.5
2005-06-30,273861.7647
2005-05-31,261476.9231
2005-03-31,239900.0
2004-11-30,225000.0
2004-10-31,233076.9231
2004-08-31,220000.0
2004-07-31,227675.0
2004-06-30,227500.0
2004-05-31,225625.0
2004-04-30,232000.0
2004-03-31,207000.0
2003-12-31,212950.0
2003-11-30,213764.7059
2003-10-31,203603.8462
2003-08-31,205961.5385
2003-06-30,208500.0
2003-05-31,221625.0
2003-04-30,225735.2941
2003-03-31,212500.0
2002-10-31,191221.9231
2002-08-31,230295.0
2001-09-30,184612.95
2001-08-31,189586.0
2001-07-31,180821.6
2001-06-30,185832.9
2001-05-31,180826.35
2001-04-30,164735.15
2001-03-31,178428.8235
2001-02-28,184538.4615
2000-12-31,162008.7
2000-11-30,168788.5882
2000-10-31,166454.9231
2000-08-31,189197.5
2000-07-31,183208.65
2000-06-30,190805.2941
2000-05-31,178552.0769
2000-03-31,157059.0
1999-12-31,160278.85
1999-11-30,155691.45
1999-10-31,152183.4
1999-09-30,158872.0
1999-08-31,155617.6471
1999-07-31,155286.3846
1999-05-31,156246.6
1999-04-30,159997.5294
1999-03-31,153394.0
1998-12-31,150377.0588
1998-11-30,164230.7692
1998-09-30,176888.6
1998-08-31,154748.4
1998-07-31,144837.6471
1998-06-30,144000.0
1998-03-31,131000.0
1997-09-30,131560.5882
1997-08-31,133790.0
1997-05-31,172631.7647
1997-04-30,169950.0
1996-07-31,127911.7647
1996-06-30,125000.0
