Date,Value
2015-09-30,519400.0
2015-08-31,504700.0
2015-07-31,500700.0
2015-06-30,502100.0
2015-05-31,495000.0
2015-04-30,489500.0
2015-03-31,488600.0
2015-02-28,489100.0
2015-01-31,486500.0
2014-12-31,484000.0
2014-11-30,479900.0
2014-10-31,476700.0
2014-09-30,474400.0
2014-08-31,470400.0
2014-07-31,466100.0
2014-06-30,461800.0
2014-05-31,457500.0
2014-04-30,452500.0
2014-03-31,447600.0
2014-02-28,442100.0
2014-01-31,436700.0
2013-12-31,432000.0
2013-11-30,430800.0
2013-10-31,431300.0
2013-09-30,432100.0
2013-08-31,431000.0
2013-07-31,425900.0
2013-06-30,420100.0
2013-05-31,414500.0
2013-04-30,407400.0
2013-03-31,401300.0
2013-02-28,397900.0
2013-01-31,394400.0
2012-12-31,390800.0
2012-11-30,385800.0
2012-10-31,380000.0
2012-09-30,376000.0
2012-08-31,373900.0
2012-07-31,370900.0
2012-06-30,365900.0
2012-05-31,359600.0
2012-04-30,353600.0
2012-03-31,349600.0
2012-02-29,349800.0
2012-01-31,353100.0
2011-12-31,356900.0
2011-11-30,359700.0
2011-10-31,361900.0
2011-09-30,363100.0
2011-08-31,364300.0
2011-07-31,366900.0
2011-06-30,369900.0
2011-05-31,373700.0
2011-04-30,378100.0
2011-03-31,381900.0
2011-02-28,384500.0
2011-01-31,387200.0
2010-12-31,388500.0
2010-11-30,389400.0
2010-10-31,391400.0
2010-09-30,393100.0
2010-08-31,392600.0
2010-07-31,392500.0
2010-06-30,394200.0
2010-05-31,397300.0
2010-04-30,403000.0
2010-03-31,408600.0
2010-02-28,410800.0
2010-01-31,411200.0
2009-12-31,413200.0
2009-11-30,415500.0
2009-10-31,415900.0
2009-09-30,416000.0
2009-08-31,418700.0
2009-07-31,425200.0
2009-06-30,433000.0
2009-05-31,440300.0
2009-04-30,445300.0
2009-03-31,448000.0
2009-02-28,448800.0
2009-01-31,449400.0
2008-12-31,452100.0
2008-11-30,457100.0
2008-10-31,462300.0
2008-09-30,466200.0
2008-08-31,467800.0
2008-07-31,467200.0
2008-06-30,467400.0
2008-05-31,468800.0
2008-04-30,469800.0
2008-03-31,472300.0
2008-02-29,477200.0
2008-01-31,481700.0
2007-12-31,485800.0
2007-11-30,490800.0
2007-10-31,495600.0
2007-09-30,498900.0
2007-08-31,501300.0
2007-07-31,502900.0
2007-06-30,503900.0
2007-05-31,504400.0
2007-04-30,504000.0
2007-03-31,502800.0
2007-02-28,501700.0
2007-01-31,499400.0
2006-12-31,494000.0
2006-11-30,486600.0
2006-10-31,481200.0
2006-09-30,477700.0
2006-08-31,474600.0
2006-07-31,471700.0
2006-06-30,468100.0
2006-05-31,461500.0
2006-04-30,454300.0
2006-03-31,447700.0
2006-02-28,442400.0
2006-01-31,437000.0
2005-12-31,431700.0
2005-11-30,427700.0
2005-10-31,424000.0
2005-09-30,419500.0
2005-08-31,415900.0
2005-07-31,411500.0
2005-06-30,405900.0
2005-05-31,401900.0
2005-04-30,399700.0
2005-03-31,397700.0
2005-02-28,394800.0
2005-01-31,390900.0
2004-12-31,386200.0
2004-11-30,379900.0
2004-10-31,372500.0
2004-09-30,366700.0
2004-08-31,362600.0
2004-07-31,358400.0
2004-06-30,354500.0
2004-05-31,352300.0
2004-04-30,350200.0
2004-03-31,345900.0
2004-02-29,340900.0
2004-01-31,339000.0
2003-12-31,338900.0
2003-11-30,337600.0
2003-10-31,335300.0
2003-09-30,333000.0
2003-08-31,331700.0
2003-07-31,331600.0
2003-06-30,331200.0
2003-05-31,330500.0
2003-04-30,330200.0
2003-03-31,330400.0
2003-02-28,329300.0
2003-01-31,326000.0
2002-12-31,322500.0
2002-11-30,320100.0
2002-10-31,317600.0
2002-09-30,315300.0
2002-08-31,313700.0
2002-07-31,313500.0
2002-06-30,314100.0
2002-05-31,312800.0
2002-04-30,310100.0
2002-03-31,308100.0
2002-02-28,307900.0
2002-01-31,308300.0
2001-12-31,309300.0
2001-11-30,309800.0
2001-10-31,310600.0
2001-09-30,311500.0
2001-08-31,310300.0
2001-07-31,307300.0
2001-06-30,305000.0
2001-05-31,302600.0
2001-04-30,299800.0
2001-03-31,296900.0
2001-02-28,294200.0
2001-01-31,292100.0
2000-12-31,291200.0
2000-11-30,291600.0
2000-10-31,292600.0
2000-09-30,293200.0
2000-08-31,292400.0
2000-07-31,291000.0
2000-06-30,289800.0
2000-05-31,289700.0
2000-04-30,288900.0
2000-03-31,288200.0
2000-02-29,287900.0
2000-01-31,287500.0
1999-12-31,285700.0
1999-11-30,283300.0
1999-10-31,280400.0
1999-09-30,277800.0
1999-08-31,276600.0
1999-07-31,276000.0
1999-06-30,273400.0
1999-05-31,269600.0
1999-04-30,266700.0
1999-03-31,264600.0
1999-02-28,262600.0
1999-01-31,260600.0
1998-12-31,257700.0
1998-11-30,255100.0
1998-10-31,253600.0
1998-09-30,251300.0
1998-08-31,247500.0
1998-07-31,243400.0
1998-06-30,240100.0
1998-05-31,238800.0
1998-04-30,238800.0
1998-03-31,237900.0
1998-02-28,237700.0
1998-01-31,237800.0
1997-12-31,236400.0
1997-11-30,233600.0
1997-10-31,231800.0
1997-09-30,231400.0
1997-08-31,230900.0
1997-07-31,229300.0
1997-06-30,226700.0
1997-05-31,223400.0
1997-04-30,219900.0
1997-03-31,216500.0
1997-02-28,213500.0
1997-01-31,211700.0
1996-12-31,211200.0
1996-11-30,211600.0
1996-10-31,212400.0
1996-09-30,211800.0
1996-08-31,210900.0
1996-07-31,210500.0
1996-06-30,210900.0
1996-05-31,211300.0
1996-04-30,212600.0
