Date,Value
2015-02-28,242500.0
2015-01-31,229950.0
2014-12-31,230000.0
2014-11-30,239900.0
2014-10-31,250000.0
2014-09-30,259950.0
2014-08-31,250000.0
2014-07-31,259000.0
2014-06-30,249950.0
2014-05-31,234950.0
2014-04-30,234400.0
2014-03-31,219900.0
2014-02-28,219500.0
2014-01-31,220000.0
2013-12-31,235000.0
2013-11-30,239950.0
2013-10-31,245000.0
2013-09-30,239000.0
2013-08-31,235000.0
2013-07-31,242500.0
2013-06-30,240000.0
2013-05-31,233500.0
2013-04-30,224950.0
2013-03-31,202950.0
2013-02-28,196000.0
2013-01-31,195000.0
2012-12-31,195000.0
2012-11-30,199900.0
2012-10-31,199000.0
2012-09-30,200000.0
2012-08-31,199000.0
2012-07-31,194900.0
2012-06-30,189900.0
2012-05-31,185000.0
2012-04-30,179950.0
2012-03-31,175000.0
2012-02-29,170000.0
2012-01-31,168500.0
2011-12-31,164950.0
2011-11-30,167000.0
2011-10-31,164950.0
2011-09-30,169900.0
2011-08-31,175000.0
2011-07-31,170000.0
2011-06-30,175000.0
2011-05-31,179900.0
2011-04-30,179900.0
2011-03-31,180000.0
2011-02-28,189950.0
2011-01-31,190000.0
2010-12-31,199000.0
2010-11-30,199950.0
2010-10-31,199950.0
2010-09-30,205000.0
2010-08-31,209950.0
2010-07-31,219000.0
2010-06-30,219000.0
2010-05-31,220000.0
2010-04-30,219950.0
2010-03-31,219950.0
2010-02-28,220000.0
2010-01-31,220000.0
2009-12-31,224999.0
2009-11-30,230000.0
2009-10-31,236900.0
2009-09-30,239900.0
2009-08-31,240000.0
2009-07-31,245000.0
2009-06-30,249950.0
2009-05-31,264900.0
2009-04-30,259950.0
2009-03-31,258000.0
2009-02-28,269000.0
2009-01-31,269950.0
2008-12-31,275000.0
2008-11-30,284950.0
2008-10-31,289990.0
