Date,Value
2013-08-31,170000.0
2012-10-31,170000.0
2012-09-30,170000.0
2012-08-31,199000.0
2012-07-31,169900.0
2012-06-30,170000.0
2012-05-31,119000.0
2012-03-31,89900.0
2011-03-31,125000.0
2011-02-28,64900.0
2011-01-31,64900.0
2010-12-31,124900.0
2010-11-30,119000.0
2010-10-31,119000.0
2010-09-30,119000.0
2010-08-31,89950.0
2010-07-31,89950.0
2010-06-30,69900.0
2010-05-31,65000.0
2010-04-30,69900.0
2010-03-31,69900.0
2010-02-28,79900.0
2010-01-31,125000.0
2009-11-30,175000.0
2009-08-31,175000.0
