Date,Value
2015-09-30,359200.0
2015-08-31,335700.0
2015-07-31,330500.0
2015-06-30,331300.0
2015-05-31,328600.0
2015-04-30,325200.0
2015-03-31,324700.0
2015-02-28,324100.0
2015-01-31,319900.0
2014-12-31,317600.0
2014-11-30,314900.0
2014-10-31,312100.0
2014-09-30,309500.0
2014-08-31,307400.0
2014-07-31,304600.0
2014-06-30,301800.0
2014-05-31,300300.0
2014-04-30,300300.0
2014-03-31,299500.0
2014-02-28,297500.0
2014-01-31,295300.0
2013-12-31,293200.0
2013-11-30,290100.0
2013-10-31,286800.0
2013-09-30,283800.0
2013-08-31,279200.0
2013-07-31,273000.0
2013-06-30,266800.0
2013-05-31,261400.0
2013-04-30,257800.0
2013-03-31,256700.0
2013-02-28,257100.0
2013-01-31,256300.0
2012-12-31,253900.0
2012-11-30,251600.0
2012-10-31,250000.0
2012-09-30,247600.0
2012-08-31,245200.0
2012-07-31,243100.0
2012-06-30,240900.0
2012-05-31,237600.0
2012-04-30,232700.0
2012-03-31,227100.0
2012-02-29,222300.0
2012-01-31,219400.0
2011-12-31,218800.0
2011-11-30,220500.0
2011-10-31,223200.0
2011-09-30,226300.0
2011-08-31,229500.0
2011-07-31,233100.0
2011-06-30,236600.0
2011-05-31,239900.0
2011-04-30,243600.0
2011-03-31,246900.0
2011-02-28,249200.0
2011-01-31,250300.0
2010-12-31,251100.0
2010-11-30,252400.0
2010-10-31,254900.0
2010-09-30,258100.0
2010-08-31,262300.0
2010-07-31,267400.0
2010-06-30,272000.0
2010-05-31,275200.0
2010-04-30,277300.0
2010-03-31,279000.0
2010-02-28,280700.0
2010-01-31,282900.0
2009-12-31,284500.0
2009-11-30,284500.0
2009-10-31,282900.0
2009-09-30,281900.0
2009-08-31,281700.0
2009-07-31,282200.0
2009-06-30,283800.0
2009-05-31,286300.0
2009-04-30,289700.0
2009-03-31,293700.0
2009-02-28,297500.0
2009-01-31,301500.0
2008-12-31,306000.0
2008-11-30,309500.0
2008-10-31,311700.0
2008-09-30,313900.0
2008-08-31,316200.0
2008-07-31,318200.0
2008-06-30,320300.0
2008-05-31,323000.0
2008-04-30,325800.0
2008-03-31,328600.0
2008-02-29,331400.0
2008-01-31,334500.0
2007-12-31,337300.0
2007-11-30,340000.0
2007-10-31,342800.0
2007-09-30,345400.0
2007-08-31,347400.0
2007-07-31,348500.0
2007-06-30,348500.0
2007-05-31,348200.0
2007-04-30,347500.0
2007-03-31,345900.0
2007-02-28,343700.0
2007-01-31,341900.0
2006-12-31,340400.0
2006-11-30,339200.0
2006-10-31,337800.0
2006-09-30,335800.0
2006-08-31,333000.0
2006-07-31,329600.0
2006-06-30,325700.0
2006-05-31,320600.0
2006-04-30,315500.0
2006-03-31,311600.0
2006-02-28,308300.0
2006-01-31,304100.0
2005-12-31,300000.0
2005-11-30,296200.0
2005-10-31,292500.0
2005-09-30,288100.0
2005-08-31,283400.0
2005-07-31,279200.0
2005-06-30,276100.0
2005-05-31,273000.0
2005-04-30,269700.0
2005-03-31,266400.0
2005-02-28,263300.0
2005-01-31,259600.0
2004-12-31,255700.0
2004-11-30,252300.0
2004-10-31,249500.0
2004-09-30,246900.0
2004-08-31,244000.0
2004-07-31,241100.0
2004-06-30,238600.0
2004-05-31,236700.0
2004-04-30,235000.0
2004-03-31,233600.0
2004-02-29,232500.0
2004-01-31,231100.0
2003-12-31,229400.0
2003-11-30,227600.0
2003-10-31,226100.0
2003-09-30,224800.0
2003-08-31,224400.0
2003-07-31,224200.0
2003-06-30,223500.0
2003-05-31,222800.0
2003-04-30,222600.0
2003-03-31,221800.0
2003-02-28,221100.0
2003-01-31,220800.0
2002-12-31,220700.0
2002-11-30,220200.0
2002-10-31,219000.0
2002-09-30,217400.0
2002-08-31,215500.0
2002-07-31,213700.0
2002-06-30,212400.0
2002-05-31,211200.0
2002-04-30,209700.0
2002-03-31,208200.0
2002-02-28,206900.0
2002-01-31,206100.0
2001-12-31,205700.0
2001-11-30,205000.0
2001-10-31,204200.0
2001-09-30,203800.0
2001-08-31,203800.0
2001-07-31,203600.0
2001-06-30,203300.0
2001-05-31,202800.0
2001-04-30,202000.0
2001-03-31,200800.0
2001-02-28,199600.0
2001-01-31,198200.0
2000-12-31,196400.0
2000-11-30,194900.0
2000-10-31,193900.0
2000-09-30,193300.0
2000-08-31,192400.0
2000-07-31,191500.0
2000-06-30,190300.0
2000-05-31,189300.0
2000-04-30,188300.0
2000-03-31,187400.0
2000-02-29,186300.0
2000-01-31,185200.0
1999-12-31,184200.0
1999-11-30,183200.0
1999-10-31,182000.0
1999-09-30,180900.0
1999-08-31,179900.0
1999-07-31,178800.0
1999-06-30,177800.0
1999-05-31,176900.0
1999-04-30,176000.0
1999-03-31,174800.0
1999-02-28,173500.0
1999-01-31,172400.0
1998-12-31,171800.0
1998-11-30,171200.0
1998-10-31,170300.0
1998-09-30,169400.0
1998-08-31,168400.0
1998-07-31,167000.0
1998-06-30,165200.0
1998-05-31,163600.0
1998-04-30,162100.0
1998-03-31,160900.0
1998-02-28,159400.0
1998-01-31,157500.0
1997-12-31,155700.0
1997-11-30,154600.0
1997-10-31,153700.0
1997-09-30,152300.0
1997-08-31,150800.0
1997-07-31,149600.0
1997-06-30,148600.0
1997-05-31,147600.0
1997-04-30,146700.0
1997-03-31,146000.0
1997-02-28,145200.0
1997-01-31,144200.0
1996-12-31,143300.0
1996-11-30,142700.0
1996-10-31,142400.0
1996-09-30,142400.0
1996-08-31,142600.0
1996-07-31,142900.0
1996-06-30,143300.0
1996-05-31,143400.0
1996-04-30,143900.0
