Date,Value
2015-04-30,985.0
2015-03-31,1100.0
2014-12-31,795.0
2014-11-30,800.0
2014-10-31,775.0
2014-09-30,775.0
2014-08-31,800.0
2014-07-31,950.0
2014-06-30,850.0
2014-05-31,850.0
2014-04-30,875.0
2014-03-31,850.0
2014-02-28,745.0
2014-01-31,800.0
2013-12-31,950.0
2013-11-30,950.0
2013-10-31,1100.0
2013-09-30,1200.0
2013-08-31,1100.0
2013-07-31,1300.0
2013-06-30,1250.0
2013-05-31,1100.0
2013-04-30,950.0
2013-03-31,875.0
2013-02-28,850.0
2013-01-31,777.0
2012-12-31,995.0
2012-11-30,1000.0
2012-10-31,1000.0
2012-09-30,1010.0
2012-08-31,1200.0
2012-07-31,1100.0
2012-06-30,1000.0
2012-05-31,1050.0
2012-04-30,1000.0
2012-03-31,1000.0
2012-02-29,965.0
2012-01-31,975.0
2011-12-31,975.0
2011-11-30,1050.0
2011-10-31,975.0
2011-09-30,995.0
2011-08-31,750.0
2011-07-31,575.0
2011-05-31,575.0
2011-03-31,1100.0
2011-02-28,1100.0
