Date,Value
2015-09-30,265677.5
2015-08-31,274862.5
2015-07-31,285250.0
2015-06-30,266323.5294
2015-05-31,271615.3846
2015-01-31,272352.9412
2014-12-31,314615.3846
2014-10-31,287750.0
2014-09-30,250400.0
2014-08-31,266950.0
2014-07-31,223352.9412
2014-06-30,231000.0
2013-12-31,228430.0
2013-10-31,223165.0
2013-09-30,241792.0
2013-08-31,256585.8824
2013-07-31,267587.6923
2013-05-31,222780.0
2013-04-30,216927.0588
2013-03-31,199280.0
2012-09-30,241900.0
2012-08-31,293809.4118
2012-07-31,337587.6923
2012-05-31,263356.9231
2012-03-31,290280.0
2011-10-31,225100.0
2011-08-31,235641.5385
2011-06-30,248277.6923
2011-04-30,175270.0
2010-10-31,230409.65
2010-09-30,253028.0588
2010-08-31,220626.9231
2010-06-30,172930.0
2010-05-31,182620.0
2010-04-30,160603.5294
2010-03-31,189780.0
2009-11-30,167137.5
2009-10-31,172263.0
2009-09-30,210682.0
2009-08-31,248809.4118
2009-07-31,236280.0
2009-05-31,225087.6923
2009-03-31,287780.0
2008-08-31,221886.5
2008-07-31,246178.5
2008-06-30,254385.0
2008-04-30,170280.0
2008-01-31,218940.0
2007-12-31,200215.0
2007-10-31,220445.0
2007-09-30,251480.0
2007-08-31,269530.0
2007-07-31,266528.5
2007-06-30,251226.5
2007-05-31,269823.5
2007-04-30,278269.0
2007-03-31,274371.1765
2007-02-28,284854.6154
2006-12-31,317834.5
2006-11-30,315160.5
2006-10-31,268345.0
2006-09-30,266330.0
2006-08-31,278780.0
2006-07-31,276958.3
2006-06-30,284437.7
2006-05-31,259766.0
2006-04-30,279691.7647
2006-03-31,285801.3846
2006-01-31,244053.0
2005-12-31,235995.0
2005-11-30,240559.7
2005-10-31,258799.3
2005-09-30,254621.5
2005-08-31,246835.5
2005-07-31,243400.0
2005-06-30,232150.0
2005-05-31,217550.0
2005-04-30,208948.35
2005-03-31,192981.15
2005-02-28,194559.5
2005-01-31,211665.9
2004-12-31,223785.45
2004-11-30,209604.15
2004-10-31,205374.5
2004-09-30,212371.65
2004-08-31,214648.85
2004-07-31,216205.5
2004-06-30,196525.0
2004-05-31,176905.0
2004-04-30,184981.1
2004-03-31,186959.7
2004-02-29,195286.55
2004-01-31,215633.15
2003-12-31,226799.5
2003-11-30,196613.4
2003-10-31,184289.6
2003-09-30,186663.0
2003-08-31,165465.0
2003-07-31,169400.0
2003-06-30,168400.0
2003-05-31,173438.55
2003-04-30,178364.95
2003-03-31,189053.5
2003-02-28,165500.0
2003-01-31,168150.0
2002-12-31,169185.4
2002-11-30,166332.6
2002-10-31,170818.0
2002-09-30,168500.0
2002-08-31,172585.75
2002-07-31,159251.75
2002-06-30,160717.5
2002-05-31,163870.0
2002-04-30,168505.8824
2002-03-31,187800.0
2001-12-31,169700.0
2001-11-30,168035.0
2001-10-31,165213.35
2001-09-30,174444.65
2001-08-31,180591.0
2001-07-31,169760.0
2001-06-30,166620.95
2001-05-31,159472.25
2001-04-30,156653.8
2001-03-31,150589.0
2001-02-28,142369.65
2001-01-31,149117.75
2000-12-31,152739.8
2000-11-30,155228.8
2000-10-31,150442.5
2000-09-30,157411.5
2000-08-31,168187.5
2000-07-31,154337.25
2000-06-30,135062.0588
2000-05-31,143250.0
2000-03-31,141876.4706
2000-02-29,142230.7692
1999-12-31,164230.7692
1999-10-31,162461.5385
1999-08-31,152382.5
1999-07-31,155675.0
1999-06-30,162800.0
1999-05-31,170950.0
1999-04-30,153948.15
1999-03-31,149485.1176
1999-02-28,147321.0
1998-09-30,152842.5
1998-08-31,152632.5
1998-07-31,146075.0
1998-06-30,135742.5
1998-05-31,136232.5
1998-04-30,135264.7059
1998-03-31,150000.0
1997-11-30,135269.6
1997-10-31,133662.4
1997-09-30,141832.0
1997-08-31,147647.0588
1997-07-31,145350.0
1997-05-31,136175.0
1997-04-30,146300.0
1997-03-31,156705.8824
1997-02-28,151653.8462
1996-12-31,150500.0
1996-07-31,156470.5882
1996-06-30,149911.5385
1996-04-30,139970.5882
