Date,Value
2015-09-30,380700.0
2015-08-31,372200.0
2015-07-31,367200.0
2015-06-30,368400.0
2015-05-31,366400.0
2015-04-30,360900.0
2015-03-31,354200.0
2015-02-28,352400.0
2015-01-31,348500.0
2014-12-31,346500.0
2014-11-30,343600.0
2014-10-31,341500.0
2014-09-30,340500.0
2014-08-31,339100.0
2014-07-31,336500.0
2014-06-30,334400.0
2014-05-31,333000.0
2014-04-30,330500.0
2014-03-31,326700.0
2014-02-28,323500.0
2014-01-31,321600.0
2013-12-31,319400.0
2013-11-30,317000.0
2013-10-31,314000.0
2013-09-30,310800.0
2013-08-31,308300.0
2013-07-31,305500.0
2013-06-30,301100.0
2013-05-31,296300.0
2013-04-30,292500.0
2013-03-31,288700.0
2013-02-28,284600.0
2013-01-31,280400.0
2012-12-31,276800.0
2012-11-30,273300.0
2012-10-31,270400.0
2012-09-30,267800.0
2012-08-31,265500.0
2012-07-31,262600.0
2012-06-30,259900.0
2012-05-31,256800.0
2012-04-30,254200.0
2012-03-31,252600.0
2012-02-29,252000.0
2012-01-31,252000.0
2011-12-31,253000.0
2011-11-30,254200.0
2011-10-31,254600.0
2011-09-30,255500.0
2011-08-31,257400.0
2011-07-31,259700.0
2011-06-30,262100.0
2011-05-31,264600.0
2011-04-30,267700.0
2011-03-31,270900.0
2011-02-28,273600.0
2011-01-31,276000.0
2010-12-31,278400.0
2010-11-30,280000.0
2010-10-31,281600.0
2010-09-30,283900.0
2010-08-31,287100.0
2010-07-31,291100.0
2010-06-30,294700.0
2010-05-31,297000.0
2010-04-30,297600.0
2010-03-31,298100.0
2010-02-28,298300.0
2010-01-31,298700.0
2009-12-31,298700.0
2009-11-30,299200.0
2009-10-31,299400.0
2009-09-30,299200.0
2009-08-31,299600.0
2009-07-31,301200.0
2009-06-30,303200.0
2009-05-31,305500.0
2009-04-30,308600.0
2009-03-31,312400.0
2009-02-28,316400.0
2009-01-31,319900.0
2008-12-31,322900.0
2008-11-30,326100.0
2008-10-31,329900.0
2008-09-30,333000.0
2008-08-31,334900.0
2008-07-31,336600.0
2008-06-30,339500.0
2008-05-31,343400.0
2008-04-30,347900.0
2008-03-31,351700.0
2008-02-29,354600.0
2008-01-31,356400.0
2007-12-31,358100.0
2007-11-30,360500.0
2007-10-31,363000.0
2007-09-30,364600.0
2007-08-31,364600.0
2007-07-31,363800.0
2007-06-30,362400.0
2007-05-31,360600.0
2007-04-30,358400.0
2007-03-31,357100.0
2007-02-28,356200.0
2007-01-31,355300.0
2006-12-31,354200.0
2006-11-30,352600.0
2006-10-31,350300.0
2006-09-30,347600.0
2006-08-31,344500.0
2006-07-31,340300.0
2006-06-30,336000.0
2006-05-31,332300.0
2006-04-30,328900.0
2006-03-31,324800.0
2006-02-28,320900.0
2006-01-31,317900.0
2005-12-31,314800.0
2005-11-30,311300.0
2005-10-31,308000.0
2005-09-30,304400.0
2005-08-31,300100.0
2005-07-31,295600.0
2005-06-30,291500.0
2005-05-31,287500.0
2005-04-30,283200.0
2005-03-31,279200.0
2005-02-28,275800.0
2005-01-31,272400.0
2004-12-31,269000.0
2004-11-30,265800.0
2004-10-31,262800.0
2004-09-30,260300.0
2004-08-31,258700.0
2004-07-31,257300.0
2004-06-30,255300.0
2004-05-31,252900.0
2004-04-30,250500.0
2004-03-31,248100.0
2004-02-29,245400.0
2004-01-31,242700.0
2003-12-31,240400.0
2003-11-30,238400.0
2003-10-31,236900.0
2003-09-30,236300.0
2003-08-31,235900.0
2003-07-31,236200.0
2003-06-30,236700.0
2003-05-31,237400.0
2003-04-30,237800.0
2003-03-31,237700.0
2003-02-28,236700.0
2003-01-31,235600.0
2002-12-31,234700.0
2002-11-30,233500.0
2002-10-31,232300.0
2002-09-30,231200.0
2002-08-31,230200.0
2002-07-31,228800.0
2002-06-30,227500.0
2002-05-31,226400.0
2002-04-30,225400.0
2002-03-31,224800.0
2002-02-28,224700.0
2002-01-31,224800.0
2001-12-31,225300.0
2001-11-30,226200.0
2001-10-31,226500.0
2001-09-30,226400.0
2001-08-31,226600.0
2001-07-31,226900.0
2001-06-30,226900.0
2001-05-31,226700.0
2001-04-30,225200.0
2001-03-31,223300.0
2001-02-28,222300.0
2001-01-31,221500.0
2000-12-31,220000.0
2000-11-30,218500.0
2000-10-31,217000.0
2000-09-30,215000.0
2000-08-31,212500.0
2000-07-31,209900.0
2000-06-30,207600.0
2000-05-31,205500.0
2000-04-30,203200.0
2000-03-31,201500.0
2000-02-29,199600.0
2000-01-31,197300.0
1999-12-31,194900.0
1999-11-30,192400.0
1999-10-31,189500.0
1999-09-30,187100.0
1999-08-31,185500.0
1999-07-31,184000.0
1999-06-30,182400.0
1999-05-31,180500.0
1999-04-30,179300.0
1999-03-31,178300.0
1999-02-28,176900.0
1999-01-31,174900.0
1998-12-31,172800.0
1998-11-30,171500.0
1998-10-31,171000.0
1998-09-30,169900.0
1998-08-31,168300.0
1998-07-31,166500.0
1998-06-30,164300.0
1998-05-31,162500.0
1998-04-30,161400.0
1998-03-31,160000.0
1998-02-28,158100.0
1998-01-31,157000.0
1997-12-31,155200.0
1997-11-30,152400.0
1997-10-31,150400.0
1997-09-30,149100.0
1997-08-31,147300.0
1997-07-31,145500.0
1997-06-30,144000.0
1997-05-31,142600.0
1997-04-30,141200.0
1997-03-31,140100.0
1997-02-28,138900.0
1997-01-31,137800.0
1996-12-31,137200.0
1996-11-30,136800.0
1996-10-31,136300.0
1996-09-30,135500.0
1996-08-31,135100.0
1996-07-31,135000.0
1996-06-30,135100.0
1996-05-31,134800.0
1996-04-30,135000.0
