Date,Value
2015-09-30,445000.0
2015-08-31,443200.0
2015-07-31,437000.0
2015-06-30,438700.0
2015-05-31,434900.0
2015-04-30,430700.0
2015-03-31,430100.0
2015-02-28,427800.0
2015-01-31,423600.0
2014-12-31,421700.0
2014-11-30,419700.0
2014-10-31,418200.0
2014-09-30,416800.0
2014-08-31,415800.0
2014-07-31,414800.0
2014-06-30,414300.0
2014-05-31,414000.0
2014-04-30,413500.0
2014-03-31,411300.0
2014-02-28,409200.0
2014-01-31,409100.0
2013-12-31,408500.0
2013-11-30,405300.0
2013-10-31,402100.0
2013-09-30,399200.0
2013-08-31,393900.0
2013-07-31,387400.0
2013-06-30,381200.0
2013-05-31,376800.0
2013-04-30,374600.0
2013-03-31,374300.0
2013-02-28,374200.0
2013-01-31,372000.0
2012-12-31,368600.0
2012-11-30,366500.0
2012-10-31,364700.0
2012-09-30,361000.0
2012-08-31,358000.0
2012-07-31,356300.0
2012-06-30,355100.0
2012-05-31,352700.0
2012-04-30,347400.0
2012-03-31,341000.0
2012-02-29,336000.0
2012-01-31,331700.0
2011-12-31,329700.0
2011-11-30,330700.0
2011-10-31,332000.0
2011-09-30,332900.0
2011-08-31,333800.0
2011-07-31,335100.0
2011-06-30,337300.0
2011-05-31,339200.0
2011-04-30,341400.0
2011-03-31,344400.0
2011-02-28,347600.0
2011-01-31,350100.0
2010-12-31,351700.0
2010-11-30,352600.0
2010-10-31,353800.0
2010-09-30,354900.0
2010-08-31,356800.0
2010-07-31,359200.0
2010-06-30,360500.0
2010-05-31,361400.0
2010-04-30,363000.0
2010-03-31,364100.0
2010-02-28,364900.0
2010-01-31,367100.0
2009-12-31,369500.0
2009-11-30,369600.0
2009-10-31,369400.0
2009-09-30,371000.0
2009-08-31,373800.0
2009-07-31,376900.0
2009-06-30,380500.0
2009-05-31,384000.0
2009-04-30,387500.0
2009-03-31,392500.0
2009-02-28,397700.0
2009-01-31,402700.0
2008-12-31,407600.0
2008-11-30,411800.0
2008-10-31,415200.0
2008-09-30,418600.0
2008-08-31,421500.0
2008-07-31,423800.0
2008-06-30,426400.0
2008-05-31,429600.0
2008-04-30,432800.0
2008-03-31,435400.0
2008-02-29,438100.0
2008-01-31,440800.0
2007-12-31,443200.0
2007-11-30,446300.0
2007-10-31,450000.0
2007-09-30,453800.0
2007-08-31,456200.0
2007-07-31,456700.0
2007-06-30,456000.0
2007-05-31,455700.0
2007-04-30,455400.0
2007-03-31,454300.0
2007-02-28,452800.0
2007-01-31,451500.0
2006-12-31,450000.0
2006-11-30,448900.0
2006-10-31,447700.0
2006-09-30,446000.0
2006-08-31,443300.0
2006-07-31,440200.0
2006-06-30,436800.0
2006-05-31,432500.0
2006-04-30,427500.0
2006-03-31,423000.0
2006-02-28,417800.0
2006-01-31,410700.0
2005-12-31,403900.0
2005-11-30,398000.0
2005-10-31,391400.0
2005-09-30,384800.0
2005-08-31,378900.0
2005-07-31,373500.0
2005-06-30,367500.0
2005-05-31,361300.0
2005-04-30,355900.0
2005-03-31,351400.0
2005-02-28,346900.0
2005-01-31,342600.0
2004-12-31,339100.0
2004-11-30,335500.0
2004-10-31,331800.0
2004-09-30,328300.0
2004-08-31,325500.0
2004-07-31,323300.0
2004-06-30,321800.0
2004-05-31,320100.0
2004-04-30,318000.0
2004-03-31,315100.0
2004-02-29,312400.0
2004-01-31,309900.0
2003-12-31,307500.0
2003-11-30,305100.0
2003-10-31,303500.0
2003-09-30,302000.0
2003-08-31,300400.0
2003-07-31,298500.0
2003-06-30,296400.0
2003-05-31,294700.0
2003-04-30,293600.0
2003-03-31,292300.0
2003-02-28,290900.0
2003-01-31,289700.0
2002-12-31,288200.0
2002-11-30,286800.0
2002-10-31,285400.0
2002-09-30,283400.0
2002-08-31,281200.0
2002-07-31,279900.0
2002-06-30,279500.0
2002-05-31,279900.0
2002-04-30,280100.0
2002-03-31,279500.0
2002-02-28,279000.0
2002-01-31,279400.0
2001-12-31,280000.0
2001-11-30,279400.0
2001-10-31,278500.0
2001-09-30,278300.0
2001-08-31,278100.0
2001-07-31,277300.0
2001-06-30,276500.0
2001-05-31,275600.0
2001-04-30,274100.0
2001-03-31,273000.0
2001-02-28,272600.0
2001-01-31,272000.0
2000-12-31,271200.0
2000-11-30,270400.0
2000-10-31,269500.0
2000-09-30,268300.0
2000-08-31,267000.0
2000-07-31,265800.0
2000-06-30,265200.0
2000-05-31,264300.0
2000-04-30,263200.0
2000-03-31,263100.0
2000-02-29,263400.0
2000-01-31,262700.0
1999-12-31,261600.0
1999-11-30,261000.0
1999-10-31,260400.0
1999-09-30,260200.0
1999-08-31,259800.0
1999-07-31,258100.0
1999-06-30,254800.0
1999-05-31,251600.0
1999-04-30,249400.0
1999-03-31,246800.0
1999-02-28,244100.0
1999-01-31,241600.0
1998-12-31,239500.0
1998-11-30,237900.0
1998-10-31,236800.0
1998-09-30,235800.0
1998-08-31,234800.0
1998-07-31,233600.0
1998-06-30,232900.0
1998-05-31,232300.0
1998-04-30,231200.0
1998-03-31,229600.0
1998-02-28,227800.0
1998-01-31,225700.0
1997-12-31,223400.0
1997-11-30,221200.0
1997-10-31,218800.0
1997-09-30,216300.0
1997-08-31,214000.0
1997-07-31,212400.0
1997-06-30,211200.0
1997-05-31,209800.0
1997-04-30,207900.0
1997-03-31,206300.0
1997-02-28,204100.0
1997-01-31,202400.0
1996-12-31,201200.0
1996-11-30,200300.0
1996-10-31,199500.0
1996-09-30,198900.0
1996-08-31,198400.0
1996-07-31,198400.0
1996-06-30,198000.0
1996-05-31,197500.0
1996-04-30,197600.0
