Date,Value
2015-02-28,225000.0
2015-01-31,220000.0
2014-12-31,199000.0
2014-11-30,199000.0
2014-10-31,229000.0
2014-09-30,231000.0
2014-08-31,230000.0
2014-07-31,229950.0
2014-06-30,229900.0
2014-05-31,210000.0
2014-04-30,199950.0
2014-03-31,199975.0
2014-02-28,208000.0
2014-01-31,197450.0
2013-12-31,196900.0
2013-11-30,196900.0
2013-10-31,205000.0
2013-09-30,205000.0
2013-08-31,200000.0
2013-07-31,219000.0
2013-06-30,199950.0
2013-05-31,195000.0
2013-04-30,189500.0
2013-03-31,179900.0
2013-02-28,174990.0
2013-01-31,159000.0
2012-12-31,157500.0
2012-11-30,157500.0
2012-10-31,188900.0
2012-09-30,199000.0
2012-08-31,195000.0
2012-07-31,199950.0
2012-06-30,199000.0
2012-05-31,189000.0
2012-04-30,179900.0
2012-03-31,170000.0
2012-02-29,159900.0
2012-01-31,150000.0
2011-12-31,149900.0
2011-11-30,155000.0
2011-10-31,157500.0
2011-09-30,158100.0
2011-08-31,179000.0
2011-07-31,159000.0
2011-06-30,163000.0
2011-05-31,167500.0
2011-04-30,175000.0
2011-03-31,179990.0
2011-02-28,179990.0
2011-01-31,180000.0
2010-12-31,185000.0
2010-11-30,185000.0
2010-10-31,194500.0
2010-09-30,199950.0
2010-08-31,209000.0
2010-07-31,204950.0
2010-06-30,205000.0
2010-05-31,209950.0
2010-04-30,219950.0
2010-03-31,219950.0
2010-02-28,218000.0
2010-01-31,225000.0
2009-12-31,226950.0
2009-11-30,219950.0
2009-10-31,239480.0
2009-09-30,232700.0
2009-08-31,239800.0
2009-07-31,239900.0
2009-06-30,235999.0
2009-05-31,235999.0
2009-04-30,235999.0
2009-03-31,239950.0
2009-02-28,249900.0
2009-01-31,250000.0
2008-12-31,275000.0
2008-11-30,279000.0
2008-10-31,275000.0
