Date,Value
2015-09-30,259500.0
2015-08-31,239100.0
2015-07-31,224400.0
2015-06-30,236600.0
2015-05-31,240000.0
2015-04-30,242800.0
2015-03-31,244800.0
2015-02-28,251200.0
2015-01-31,243800.0
2014-12-31,233900.0
2014-11-30,223300.0
2014-10-31,215000.0
2014-09-30,208500.0
2014-08-31,203600.0
2014-07-31,199300.0
2014-06-30,195500.0
2014-05-31,193100.0
2014-04-30,192000.0
2014-03-31,191200.0
2014-02-28,188100.0
2014-01-31,182700.0
2013-12-31,178700.0
2013-11-30,178100.0
2013-10-31,178300.0
2013-09-30,177500.0
2013-08-31,176200.0
2013-07-31,175200.0
2013-06-30,173900.0
2013-05-31,172900.0
2013-04-30,171900.0
2013-03-31,171500.0
2013-02-28,171200.0
2013-01-31,171600.0
2012-12-31,172200.0
2012-11-30,172900.0
2012-10-31,173600.0
2012-09-30,174300.0
2012-08-31,174600.0
2012-07-31,175500.0
2012-06-30,176900.0
2012-05-31,178300.0
2012-04-30,179700.0
2012-03-31,181200.0
2012-02-29,181600.0
2012-01-31,181700.0
2011-12-31,182400.0
2011-11-30,183500.0
2011-10-31,184200.0
2011-09-30,184500.0
2011-08-31,184800.0
2011-07-31,185100.0
2011-06-30,185400.0
2011-05-31,185500.0
2011-04-30,185300.0
2011-03-31,184600.0
2011-02-28,183700.0
2011-01-31,183300.0
2010-12-31,183600.0
2010-11-30,184000.0
2010-10-31,184300.0
2010-09-30,184800.0
2010-08-31,185200.0
2010-07-31,184900.0
2010-06-30,184200.0
2010-05-31,183400.0
2010-04-30,183100.0
2010-03-31,182500.0
2010-02-28,181400.0
2010-01-31,180700.0
2009-12-31,180700.0
2009-11-30,180600.0
2009-10-31,180100.0
2009-09-30,180000.0
2009-08-31,180000.0
2009-07-31,179400.0
2009-06-30,178800.0
2009-05-31,178900.0
2009-04-30,178800.0
2009-03-31,178200.0
2009-02-28,177700.0
2009-01-31,177800.0
2008-12-31,177900.0
2008-11-30,177900.0
2008-10-31,177500.0
2008-09-30,176800.0
2008-08-31,176000.0
2008-07-31,175400.0
2008-06-30,175100.0
2008-05-31,174500.0
2008-04-30,174500.0
2008-03-31,175000.0
2008-02-29,175500.0
2008-01-31,175500.0
2007-12-31,175700.0
2007-11-30,175600.0
2007-10-31,175300.0
2007-09-30,174900.0
2007-08-31,174500.0
2007-07-31,174000.0
2007-06-30,173300.0
2007-05-31,172500.0
2007-04-30,170900.0
2007-03-31,169300.0
2007-02-28,168200.0
2007-01-31,167300.0
2006-12-31,166100.0
2006-11-30,165600.0
2006-10-31,165400.0
2006-09-30,165000.0
2006-08-31,164800.0
2006-07-31,165600.0
2006-06-30,166500.0
2006-05-31,166400.0
2006-04-30,166200.0
2006-03-31,166400.0
2006-02-28,166300.0
2006-01-31,165900.0
2005-12-31,165600.0
2005-11-30,164800.0
2005-10-31,163000.0
2005-09-30,161300.0
2005-08-31,160200.0
2005-07-31,159500.0
2005-06-30,159300.0
2005-05-31,159000.0
2005-04-30,157700.0
2005-03-31,156600.0
2005-02-28,156400.0
2005-01-31,156300.0
2004-12-31,155800.0
2004-11-30,155500.0
2004-10-31,155500.0
2004-09-30,156300.0
2004-08-31,157200.0
2004-07-31,156800.0
2004-06-30,155200.0
2004-05-31,154100.0
2004-04-30,154300.0
2004-03-31,154800.0
2004-02-29,154700.0
2004-01-31,154700.0
2003-12-31,154400.0
2003-11-30,153900.0
2003-10-31,153600.0
2003-09-30,153300.0
2003-08-31,153000.0
2003-07-31,152800.0
2003-06-30,152900.0
2003-05-31,153300.0
2003-04-30,153600.0
2003-03-31,153100.0
2003-02-28,152600.0
2003-01-31,151800.0
2002-12-31,150800.0
2002-11-30,150200.0
2002-10-31,150100.0
2002-09-30,149800.0
2002-08-31,148500.0
2002-07-31,147000.0
2002-06-30,146100.0
2002-05-31,145200.0
2002-04-30,144100.0
2002-03-31,142800.0
2002-02-28,141500.0
2002-01-31,140200.0
2001-12-31,139100.0
2001-11-30,138300.0
2001-10-31,137600.0
2001-09-30,136600.0
2001-08-31,135500.0
2001-07-31,134600.0
2001-06-30,133700.0
2001-05-31,132900.0
2001-04-30,132200.0
2001-03-31,131600.0
2001-02-28,131100.0
2001-01-31,130800.0
2000-12-31,130400.0
2000-11-30,129800.0
2000-10-31,129100.0
2000-09-30,128400.0
2000-08-31,127900.0
2000-07-31,127600.0
2000-06-30,127100.0
2000-05-31,126700.0
2000-04-30,126300.0
2000-03-31,125500.0
2000-02-29,124600.0
2000-01-31,123600.0
1999-12-31,122700.0
1999-11-30,121700.0
1999-10-31,120900.0
1999-09-30,120400.0
1999-08-31,120500.0
1999-07-31,120600.0
1999-06-30,119800.0
1999-05-31,118600.0
1999-04-30,118300.0
1999-03-31,118700.0
1999-02-28,118900.0
1999-01-31,118700.0
1998-12-31,119000.0
1998-11-30,119900.0
1998-10-31,120300.0
1998-09-30,119900.0
1998-08-31,118500.0
1998-07-31,117000.0
1998-06-30,116400.0
1998-05-31,116200.0
1998-04-30,115700.0
1998-03-31,115200.0
1998-02-28,114700.0
1998-01-31,113800.0
1997-12-31,113200.0
1997-11-30,112900.0
1997-10-31,112800.0
1997-09-30,113000.0
1997-08-31,113700.0
1997-07-31,114400.0
1997-06-30,114500.0
1997-05-31,114100.0
1997-04-30,113900.0
1997-03-31,114100.0
1997-02-28,114400.0
1997-01-31,115000.0
1996-12-31,115700.0
1996-11-30,115800.0
1996-10-31,115600.0
1996-09-30,115600.0
1996-08-31,115700.0
1996-07-31,116000.0
1996-06-30,117100.0
1996-05-31,118500.0
1996-04-30,119100.0
