Date,Value
2015-09-30,188400.0
2015-08-31,189700.0
2015-07-31,184300.0
2015-06-30,186800.0
2015-05-31,186800.0
2015-04-30,188400.0
2015-03-31,187800.0
2015-02-28,186100.0
2015-01-31,184800.0
2014-12-31,185100.0
2014-11-30,185400.0
2014-10-31,185300.0
2014-09-30,184800.0
2014-08-31,184300.0
2014-07-31,184100.0
2014-06-30,183700.0
2014-05-31,183300.0
2014-04-30,183100.0
2014-03-31,183300.0
2014-02-28,183400.0
2014-01-31,183800.0
2013-12-31,183900.0
2013-11-30,183800.0
2013-10-31,183600.0
2013-09-30,182900.0
2013-08-31,181300.0
2013-07-31,179900.0
2013-06-30,179000.0
2013-05-31,178000.0
2013-04-30,177300.0
2013-03-31,177000.0
2013-02-28,176700.0
2013-01-31,176100.0
2012-12-31,175100.0
2012-11-30,173800.0
2012-10-31,172800.0
2012-09-30,172300.0
2012-08-31,171900.0
2012-07-31,171200.0
2012-06-30,170400.0
2012-05-31,169900.0
2012-04-30,169500.0
2012-03-31,168800.0
2012-02-29,167500.0
2012-01-31,166500.0
2011-12-31,166200.0
2011-11-30,166400.0
2011-10-31,166700.0
2011-09-30,167000.0
2011-08-31,167400.0
2011-07-31,168100.0
2011-06-30,169000.0
2011-05-31,169900.0
2011-04-30,171400.0
2011-03-31,172500.0
2011-02-28,172600.0
2011-01-31,172000.0
2010-12-31,171900.0
2010-11-30,172300.0
2010-10-31,173400.0
2010-09-30,175200.0
2010-08-31,176400.0
2010-07-31,177200.0
2010-06-30,177700.0
2010-05-31,178100.0
2010-04-30,178300.0
2010-03-31,178300.0
2010-02-28,177800.0
2010-01-31,176900.0
2009-12-31,176100.0
2009-11-30,175600.0
2009-10-31,175400.0
2009-09-30,175200.0
2009-08-31,174300.0
2009-07-31,173100.0
2009-06-30,172300.0
2009-05-31,171800.0
2009-04-30,171800.0
2009-03-31,172400.0
2009-02-28,173200.0
2009-01-31,175300.0
2008-12-31,177200.0
2008-11-30,177500.0
2008-10-31,177400.0
2008-09-30,178700.0
2008-08-31,179900.0
2008-07-31,180900.0
2008-06-30,182100.0
2008-05-31,183400.0
2008-04-30,182900.0
2008-03-31,181100.0
2008-02-29,180800.0
2008-01-31,181200.0
2007-12-31,180900.0
2007-11-30,181000.0
2007-10-31,181700.0
2007-09-30,181300.0
2007-08-31,180500.0
2007-07-31,181100.0
2007-06-30,182900.0
2007-05-31,183200.0
2007-04-30,181800.0
2007-03-31,180300.0
2007-02-28,179300.0
2007-01-31,178400.0
2006-12-31,178600.0
2006-11-30,177000.0
2006-10-31,173500.0
2006-09-30,171700.0
2006-08-31,171000.0
2006-07-31,170100.0
2006-06-30,169700.0
2006-05-31,170100.0
2006-04-30,170100.0
2006-03-31,170900.0
2006-02-28,172100.0
2006-01-31,171500.0
2005-12-31,168900.0
2005-11-30,167500.0
2005-10-31,166700.0
2005-09-30,164600.0
2005-08-31,163400.0
2005-07-31,160000.0
2005-06-30,154300.0
2005-05-31,151100.0
2005-04-30,151300.0
2005-03-31,150600.0
2005-02-28,149400.0
2005-01-31,148500.0
2004-12-31,147900.0
2004-11-30,147100.0
2004-10-31,146200.0
2004-09-30,144800.0
2004-08-31,143400.0
2004-07-31,143300.0
2004-06-30,144400.0
2004-05-31,145100.0
2004-04-30,145500.0
2004-03-31,145600.0
2004-02-29,143600.0
2004-01-31,140100.0
2003-12-31,137300.0
2003-11-30,135300.0
2003-10-31,134100.0
2003-09-30,132900.0
2003-08-31,130900.0
2003-07-31,130100.0
2003-06-30,129300.0
2003-05-31,126700.0
2003-04-30,123500.0
2003-03-31,121600.0
2003-02-28,119900.0
2003-01-31,119200.0
2002-12-31,119100.0
2002-11-30,119700.0
2002-10-31,120000.0
2002-09-30,121100.0
2002-08-31,121800.0
2002-07-31,121800.0
2002-06-30,120800.0
2002-05-31,118800.0
2002-04-30,116000.0
2002-03-31,114200.0
2002-02-28,114200.0
2002-01-31,115300.0
2001-12-31,116400.0
2001-11-30,117800.0
2001-10-31,119100.0
2001-09-30,119000.0
2001-08-31,118500.0
2001-07-31,117900.0
2001-06-30,116700.0
2001-05-31,115600.0
2001-04-30,115400.0
2001-03-31,115100.0
2001-02-28,115000.0
2001-01-31,114300.0
2000-12-31,112900.0
2000-11-30,110900.0
2000-10-31,108500.0
2000-09-30,106400.0
2000-08-31,105400.0
2000-07-31,105200.0
2000-06-30,105700.0
2000-05-31,107100.0
2000-04-30,107600.0
2000-03-31,107000.0
2000-02-29,106400.0
2000-01-31,106900.0
1999-12-31,107500.0
1999-11-30,107500.0
1999-10-31,107500.0
1999-09-30,107800.0
1999-08-31,108000.0
1999-07-31,108200.0
1999-06-30,108300.0
1999-05-31,108300.0
1999-04-30,108000.0
1999-03-31,107200.0
1999-02-28,106000.0
1999-01-31,105000.0
1998-12-31,104400.0
1998-11-30,103900.0
1998-10-31,103600.0
1998-09-30,103600.0
1998-08-31,103400.0
1998-07-31,102600.0
1998-06-30,102200.0
1998-05-31,102200.0
1998-04-30,102600.0
1998-03-31,103100.0
1998-02-28,104700.0
1998-01-31,106300.0
1997-12-31,106400.0
1997-11-30,105700.0
1997-10-31,106300.0
1997-09-30,106800.0
1997-08-31,105700.0
1997-07-31,104700.0
1997-06-30,104900.0
1997-05-31,105400.0
1997-04-30,106100.0
1997-03-31,105500.0
1997-02-28,102900.0
1997-01-31,100400.0
1996-12-31,99700.0
1996-11-30,98900.0
1996-10-31,97500.0
1996-09-30,96700.0
1996-08-31,96900.0
1996-07-31,96400.0
1996-06-30,95200.0
1996-05-31,94100.0
1996-04-30,93600.0
