Date,Value
2015-09-30,0.976
2015-08-31,0.972
2015-07-31,0.964
2015-06-30,0.96
2015-05-31,0.958
2015-04-30,0.954
2015-03-31,0.952
2015-02-28,0.942
2015-01-31,0.938
2014-12-31,0.938
2014-11-30,0.942
2014-10-31,0.942
2014-09-30,0.944
2014-08-31,0.948
2014-07-31,0.95
2014-06-30,0.948
2014-05-31,0.944
2014-04-30,0.938
2014-03-31,0.93
2014-02-28,0.92
2014-01-31,0.92
2013-12-31,0.924
2013-11-30,0.926
2013-10-31,0.918
2013-09-30,0.912
2013-08-31,0.902
2013-07-31,0.894
2013-06-30,0.89
2013-05-31,0.888
2013-04-30,0.888
2013-03-31,0.886
2013-02-28,0.882
2013-01-31,0.884
2012-12-31,0.886
2012-11-30,0.888
2012-10-31,0.886
2012-09-30,0.892
2012-08-31,0.894
2012-07-31,0.896
2012-06-30,0.894
2012-05-31,0.896
2012-04-30,0.896
2012-03-31,0.896
2012-02-29,0.894
2012-01-31,0.894
2011-12-31,0.894
2011-11-30,0.892
2011-10-31,0.882
2011-09-30,0.876
2011-08-31,0.874
2011-07-31,0.874
2011-06-30,0.876
2011-05-31,0.876
2011-04-30,0.876
2011-03-31,0.882
2011-02-28,0.892
2011-01-31,0.892
2010-12-31,0.876
2010-11-30,0.858
