Date,Value
2015-02-28,60000.0
2014-07-31,62000.0
2013-08-31,74500.0
2013-07-31,74500.0
2013-06-30,60000.0
2013-05-31,74900.0
2013-03-31,54900.0
2013-02-28,62500.0
2013-01-31,59000.0
2012-12-31,59900.0
2012-11-30,59900.0
2012-09-30,99500.0
2012-07-31,105000.0
2011-05-31,119000.0
2011-04-30,119000.0
2011-03-31,99900.0
2011-02-28,99900.0
2011-01-31,119000.0
2010-12-31,119000.0
2010-11-30,119000.0
2010-09-30,149900.0
2010-08-31,149900.0
2010-07-31,149900.0
2010-06-30,139900.0
2010-05-31,134900.0
2010-04-30,125000.0
2010-03-31,107500.0
2010-02-28,107500.0
2010-01-31,107500.0
2009-12-31,107500.0
2009-11-30,107500.0
2009-10-31,114900.0
2009-09-30,119900.0
2009-08-31,114900.0
2009-07-31,119900.0
