Date,Value
2015-01-31,195000.0
2014-12-31,195000.0
2014-11-30,178000.0
2014-10-31,178000.0
2014-09-30,178000.0
2014-08-31,178000.0
2014-07-31,178000.0
2014-06-30,184900.0
2014-05-31,184900.0
2014-04-30,225000.0
2014-03-31,295000.0
2014-02-28,299000.0
2014-01-31,295000.0
2013-12-31,299000.0
2013-11-30,295000.0
2013-10-31,295000.0
2013-09-30,227500.0
2013-08-31,190000.0
2013-07-31,165000.0
2013-06-30,165000.0
2013-05-31,247500.0
2012-10-31,115000.0
2012-07-31,131000.0
2012-06-30,147500.0
2012-05-31,125000.0
2011-07-31,169000.0
2011-06-30,169000.0
2011-05-31,155000.0
2011-04-30,169000.0
2011-03-31,165000.0
2011-02-28,141500.0
2011-01-31,140000.0
2010-12-31,145000.0
2010-11-30,185000.0
2010-10-31,185000.0
2010-09-30,190000.0
2010-08-31,190000.0
2010-07-31,190000.0
2010-06-30,145000.0
2010-05-31,190000.0
2010-04-30,190000.0
2010-03-31,220000.0
2010-02-28,190000.0
2010-01-31,135000.0
2009-12-31,172500.0
2009-11-30,172500.0
2009-10-31,185500.0
2009-09-30,185500.0
2009-08-31,185500.0
2009-06-30,185500.0
2009-05-31,185500.0
