Date,Value
2015-09-30,148300.0
2015-08-31,148000.0
2015-07-31,146500.0
2015-06-30,146400.0
2015-05-31,146700.0
2015-04-30,147300.0
2015-03-31,148200.0
2015-02-28,148200.0
2015-01-31,146800.0
2014-12-31,145900.0
2014-11-30,145000.0
2014-10-31,144000.0
2014-09-30,142500.0
2014-08-31,140800.0
2014-07-31,139700.0
2014-06-30,139000.0
2014-05-31,137300.0
2014-04-30,132700.0
2014-03-31,127700.0
2014-02-28,125900.0
2014-01-31,126300.0
2013-12-31,126700.0
2013-11-30,127100.0
2013-10-31,127700.0
2013-09-30,127700.0
2013-08-31,127600.0
2013-07-31,128100.0
2013-06-30,128500.0
2013-05-31,128200.0
2013-04-30,127800.0
2013-03-31,127300.0
2013-02-28,126500.0
2013-01-31,125200.0
2012-12-31,124500.0
2012-11-30,124600.0
2012-10-31,125300.0
2012-09-30,126300.0
2012-08-31,127600.0
2012-07-31,128900.0
2012-06-30,129800.0
2012-05-31,130600.0
2012-04-30,132500.0
2012-03-31,135000.0
2012-02-29,136900.0
2012-01-31,138500.0
2011-12-31,139400.0
2011-11-30,139400.0
2011-10-31,140200.0
2011-09-30,141500.0
2011-08-31,143400.0
2011-07-31,145600.0
2011-06-30,147900.0
2011-05-31,150700.0
2011-04-30,154000.0
2011-03-31,155700.0
2011-02-28,156100.0
2011-01-31,156100.0
2010-12-31,156000.0
2010-11-30,156500.0
2010-10-31,158100.0
2010-09-30,160500.0
2010-08-31,163400.0
2010-07-31,165600.0
2010-06-30,166800.0
2010-05-31,168100.0
2010-04-30,170000.0
2010-03-31,172200.0
2010-02-28,173800.0
2010-01-31,174500.0
2009-12-31,175800.0
2009-11-30,176800.0
2009-10-31,176800.0
2009-09-30,176700.0
2009-08-31,177300.0
2009-07-31,177600.0
2009-06-30,177300.0
2009-05-31,177200.0
2009-04-30,177500.0
2009-03-31,178900.0
2009-02-28,181900.0
2009-01-31,185700.0
2008-12-31,188500.0
2008-11-30,190700.0
2008-10-31,192500.0
2008-09-30,193300.0
2008-08-31,192200.0
2008-07-31,191600.0
2008-06-30,192700.0
2008-05-31,194500.0
2008-04-30,196000.0
2008-03-31,197400.0
2008-02-29,197900.0
2008-01-31,198200.0
2007-12-31,199100.0
2007-11-30,199900.0
2007-10-31,200400.0
2007-09-30,201200.0
2007-08-31,201800.0
2007-07-31,202000.0
2007-06-30,201600.0
2007-05-31,201200.0
2007-04-30,200300.0
2007-03-31,198900.0
2007-02-28,197300.0
2007-01-31,196300.0
2006-12-31,195200.0
2006-11-30,193900.0
2006-10-31,192300.0
2006-09-30,190500.0
2006-08-31,188700.0
2006-07-31,187300.0
2006-06-30,186200.0
2006-05-31,185300.0
2006-04-30,184700.0
2006-03-31,184300.0
2006-02-28,183700.0
2006-01-31,182300.0
2005-12-31,180900.0
2005-11-30,179600.0
2005-10-31,178400.0
2005-09-30,177500.0
2005-08-31,177000.0
2005-07-31,175700.0
2005-06-30,173500.0
2005-05-31,170700.0
2005-04-30,167900.0
2005-03-31,165000.0
2005-02-28,162500.0
2005-01-31,160500.0
2004-12-31,158700.0
2004-11-30,156700.0
2004-10-31,154600.0
2004-09-30,152600.0
2004-08-31,150800.0
2004-07-31,149400.0
2004-06-30,148100.0
2004-05-31,146800.0
2004-04-30,144800.0
2004-03-31,143200.0
2004-02-29,142700.0
2004-01-31,142300.0
2003-12-31,140900.0
2003-11-30,139700.0
2003-10-31,139000.0
2003-09-30,137700.0
2003-08-31,135600.0
2003-07-31,134000.0
2003-06-30,132700.0
2003-05-31,131600.0
2003-04-30,131200.0
2003-03-31,130900.0
2003-02-28,129800.0
2003-01-31,128400.0
2002-12-31,127000.0
2002-11-30,125900.0
2002-10-31,125200.0
2002-09-30,124800.0
2002-08-31,124600.0
2002-07-31,124200.0
2002-06-30,123700.0
2002-05-31,123300.0
2002-04-30,123000.0
2002-03-31,123100.0
2002-02-28,123100.0
2002-01-31,122600.0
2001-12-31,122000.0
2001-11-30,121700.0
2001-10-31,121500.0
2001-09-30,121100.0
2001-08-31,120100.0
2001-07-31,118800.0
2001-06-30,118900.0
2001-05-31,119600.0
2001-04-30,120000.0
2001-03-31,119300.0
2001-02-28,118000.0
2001-01-31,117500.0
2000-12-31,118700.0
2000-11-30,119400.0
2000-10-31,118700.0
2000-09-30,118000.0
2000-08-31,119000.0
2000-07-31,120200.0
2000-06-30,120200.0
2000-05-31,118900.0
2000-04-30,118000.0
2000-03-31,117300.0
2000-02-29,117200.0
2000-01-31,117000.0
1999-12-31,116600.0
1999-11-30,116400.0
1999-10-31,116500.0
1999-09-30,116300.0
1999-08-31,116500.0
1999-07-31,117000.0
1999-06-30,117100.0
1999-05-31,117100.0
1999-04-30,117000.0
1999-03-31,116400.0
1999-02-28,115700.0
1999-01-31,115600.0
1998-12-31,115000.0
1998-11-30,114400.0
1998-10-31,114000.0
1998-09-30,113800.0
1998-08-31,113300.0
1998-07-31,112500.0
1998-06-30,111700.0
1998-05-31,111600.0
1998-04-30,111400.0
1998-03-31,110900.0
1998-02-28,110300.0
1998-01-31,109800.0
1997-12-31,109500.0
1997-11-30,109300.0
1997-10-31,109400.0
1997-09-30,109500.0
1997-08-31,109000.0
1997-07-31,108500.0
1997-06-30,108200.0
1997-05-31,107400.0
1997-04-30,106400.0
1997-03-31,105700.0
1997-02-28,106000.0
1997-01-31,106200.0
1996-12-31,105700.0
1996-11-30,104900.0
1996-10-31,104600.0
1996-09-30,104700.0
1996-08-31,104900.0
1996-07-31,105000.0
1996-06-30,105000.0
1996-05-31,105100.0
1996-04-30,105800.0
