Date,Value
2015-09-30,288900.0
2015-08-31,291700.0
2015-07-31,288500.0
2015-06-30,277000.0
2015-05-31,272900.0
2015-04-30,265400.0
2015-03-31,262300.0
2015-02-28,252400.0
2015-01-31,250200.0
2014-12-31,248300.0
2014-11-30,245200.0
2014-10-31,243900.0
2014-09-30,238500.0
2014-08-31,232900.0
2014-07-31,233300.0
2014-06-30,236300.0
2014-05-31,234200.0
2014-04-30,226600.0
2014-03-31,219000.0
2014-02-28,220500.0
2014-01-31,234600.0
2013-12-31,248000.0
2013-11-30,257800.0
2013-10-31,262700.0
2013-09-30,265400.0
2013-08-31,266300.0
2013-07-31,267000.0
2013-06-30,268300.0
2013-05-31,271800.0
2013-04-30,273900.0
2013-03-31,273500.0
2013-02-28,271300.0
2013-01-31,265900.0
2012-12-31,259000.0
2012-11-30,254600.0
2012-10-31,253000.0
2012-09-30,252900.0
2012-08-31,251900.0
2012-07-31,250300.0
2012-06-30,246600.0
2012-05-31,241500.0
2012-04-30,237500.0
2012-03-31,238000.0
2012-02-29,237500.0
2012-01-31,234300.0
2011-12-31,231000.0
2011-11-30,229000.0
2011-10-31,229700.0
2011-09-30,234800.0
2011-08-31,237700.0
2011-07-31,235400.0
2011-06-30,234900.0
2011-05-31,239600.0
2011-04-30,245200.0
2011-03-31,247000.0
2011-02-28,245600.0
2011-01-31,245500.0
2010-12-31,247700.0
2010-11-30,249600.0
2010-10-31,250300.0
2010-09-30,249900.0
2010-08-31,250100.0
2010-07-31,250800.0
2010-06-30,251400.0
2010-05-31,252200.0
2010-04-30,254300.0
2010-03-31,257100.0
2010-02-28,259300.0
2010-01-31,258900.0
2009-12-31,258400.0
2009-11-30,258600.0
2009-10-31,260300.0
2009-09-30,265100.0
2009-08-31,270000.0
2009-07-31,272000.0
2009-06-30,273300.0
2009-05-31,274800.0
2009-04-30,276500.0
2009-03-31,272900.0
2009-02-28,265600.0
2009-01-31,263700.0
2008-12-31,264100.0
2008-11-30,263000.0
2008-10-31,264000.0
2008-09-30,267100.0
2008-08-31,273000.0
2008-07-31,284100.0
2008-06-30,295400.0
2008-05-31,298000.0
2008-04-30,299300.0
2008-03-31,310000.0
2008-02-29,322800.0
2008-01-31,322500.0
2007-12-31,321500.0
2007-11-30,328400.0
2007-10-31,333400.0
2007-09-30,330600.0
2007-08-31,327700.0
2007-07-31,325000.0
2007-06-30,321500.0
2007-05-31,317900.0
2007-04-30,313400.0
2007-03-31,309600.0
2007-02-28,310800.0
2007-01-31,314100.0
2006-12-31,317600.0
2006-11-30,318800.0
2006-10-31,313600.0
2006-09-30,303200.0
2006-08-31,290300.0
2006-07-31,280100.0
2006-06-30,276300.0
2006-05-31,278700.0
2006-04-30,279600.0
2006-03-31,279500.0
2006-02-28,279700.0
2006-01-31,279800.0
2005-12-31,280100.0
2005-11-30,279200.0
2005-10-31,277000.0
2005-09-30,274100.0
2005-08-31,269100.0
2005-07-31,262400.0
2005-06-30,258600.0
2005-05-31,255900.0
2005-04-30,251900.0
2005-03-31,247000.0
2005-02-28,243400.0
2005-01-31,240700.0
2004-12-31,237000.0
2004-11-30,232300.0
2004-10-31,230200.0
2004-09-30,232100.0
2004-08-31,236800.0
2004-07-31,241100.0
2004-06-30,240500.0
2004-05-31,239900.0
2004-04-30,242600.0
2004-03-31,243000.0
2004-02-29,238700.0
2004-01-31,240800.0
2003-12-31,245700.0
2003-11-30,242500.0
2003-10-31,229000.0
2003-09-30,222100.0
2003-08-31,230500.0
2003-07-31,244300.0
2003-06-30,250400.0
2003-05-31,248900.0
2003-04-30,247600.0
2003-03-31,246300.0
2003-02-28,244000.0
2003-01-31,237100.0
2002-12-31,225700.0
2002-11-30,222300.0
2002-10-31,231600.0
2002-09-30,236600.0
2002-08-31,226600.0
2002-07-31,216200.0
2002-06-30,210700.0
2002-05-31,210400.0
2002-04-30,211900.0
2002-03-31,213100.0
2002-02-28,214100.0
2002-01-31,218700.0
2001-12-31,224200.0
2001-11-30,225900.0
2001-10-31,225100.0
2001-09-30,227100.0
2001-08-31,227400.0
2001-07-31,225200.0
2001-06-30,220600.0
2001-05-31,214800.0
2001-04-30,207200.0
2001-03-31,200200.0
2001-02-28,192200.0
2001-01-31,181300.0
2000-12-31,171500.0
2000-11-30,165700.0
2000-10-31,161300.0
2000-09-30,158000.0
2000-08-31,159200.0
2000-07-31,160900.0
2000-06-30,161700.0
2000-05-31,161000.0
2000-04-30,162300.0
2000-03-31,166500.0
2000-02-29,168200.0
2000-01-31,161800.0
1999-12-31,157400.0
1999-11-30,161300.0
1999-10-31,171500.0
1999-09-30,176700.0
1999-08-31,173600.0
1999-07-31,163900.0
1999-06-30,155700.0
1999-05-31,150900.0
1999-04-30,147500.0
1999-03-31,144000.0
1999-02-28,144500.0
1999-01-31,148800.0
1998-12-31,151400.0
1998-11-30,148700.0
1998-10-31,142900.0
1998-09-30,138500.0
1998-08-31,134800.0
1998-07-31,131500.0
1998-06-30,129800.0
1998-05-31,129400.0
1998-04-30,129000.0
1998-03-31,128000.0
1998-02-28,127400.0
1998-01-31,128100.0
1997-12-31,130200.0
1997-11-30,130900.0
1997-10-31,130100.0
1997-09-30,131300.0
1997-08-31,133900.0
1997-07-31,135500.0
1997-06-30,138600.0
1997-05-31,142500.0
1997-04-30,144700.0
1997-03-31,147600.0
1997-02-28,150400.0
