Date,Value
2015-09-30,291700.0
2015-08-31,288800.0
2015-07-31,285600.0
2015-06-30,285200.0
2015-05-31,284900.0
2015-04-30,283000.0
2015-03-31,281500.0
2015-02-28,281000.0
2015-01-31,279000.0
2014-12-31,278500.0
2014-11-30,277400.0
2014-10-31,276600.0
2014-09-30,276300.0
2014-08-31,275500.0
2014-07-31,273800.0
2014-06-30,272300.0
2014-05-31,270900.0
2014-04-30,269300.0
2014-03-31,267700.0
2014-02-28,266800.0
2014-01-31,266300.0
2013-12-31,265300.0
2013-11-30,264400.0
2013-10-31,263300.0
2013-09-30,261600.0
2013-08-31,259500.0
2013-07-31,257500.0
2013-06-30,255400.0
2013-05-31,253800.0
2013-04-30,252300.0
2013-03-31,251500.0
2013-02-28,251400.0
2013-01-31,251500.0
2012-12-31,251200.0
2012-11-30,250700.0
2012-10-31,249700.0
2012-09-30,248400.0
2012-08-31,247600.0
2012-07-31,247200.0
2012-06-30,246600.0
2012-05-31,246300.0
2012-04-30,246000.0
2012-03-31,245400.0
2012-02-29,245100.0
2012-01-31,245600.0
2011-12-31,245900.0
2011-11-30,245600.0
2011-10-31,245100.0
2011-09-30,245300.0
2011-08-31,245500.0
2011-07-31,245700.0
2011-06-30,246200.0
2011-05-31,247200.0
2011-04-30,248600.0
2011-03-31,250200.0
2011-02-28,251600.0
2011-01-31,252800.0
2010-12-31,254000.0
2010-11-30,255100.0
2010-10-31,256500.0
2010-09-30,258100.0
2010-08-31,260300.0
2010-07-31,262400.0
2010-06-30,264000.0
2010-05-31,264900.0
2010-04-30,265500.0
2010-03-31,266100.0
2010-02-28,267100.0
2010-01-31,268100.0
2009-12-31,268900.0
2009-11-30,269400.0
2009-10-31,269800.0
2009-09-30,270300.0
2009-08-31,270900.0
2009-07-31,271300.0
2009-06-30,271900.0
2009-05-31,272700.0
2009-04-30,273500.0
2009-03-31,274100.0
2009-02-28,274600.0
2009-01-31,274300.0
2008-12-31,274200.0
2008-11-30,275100.0
2008-10-31,276500.0
2008-09-30,277100.0
2008-08-31,277600.0
2008-07-31,279600.0
2008-06-30,283000.0
2008-05-31,285900.0
2008-04-30,287700.0
2008-03-31,288700.0
2008-02-29,288600.0
2008-01-31,287800.0
2007-12-31,287900.0
2007-11-30,288900.0
2007-10-31,289900.0
2007-09-30,291100.0
2007-08-31,291600.0
2007-07-31,290600.0
2007-06-30,289300.0
2007-05-31,288400.0
2007-04-30,288100.0
2007-03-31,288000.0
2007-02-28,287900.0
2007-01-31,287500.0
2006-12-31,286400.0
2006-11-30,284700.0
2006-10-31,283900.0
2006-09-30,284800.0
2006-08-31,286300.0
2006-07-31,287100.0
2006-06-30,286900.0
2006-05-31,286400.0
2006-04-30,285500.0
2006-03-31,283700.0
2006-02-28,281700.0
2006-01-31,280400.0
2005-12-31,279300.0
2005-11-30,277800.0
2005-10-31,274800.0
2005-09-30,270400.0
2005-08-31,265900.0
2005-07-31,262000.0
2005-06-30,258100.0
2005-05-31,253300.0
2005-04-30,248100.0
2005-03-31,243600.0
2005-02-28,240100.0
2005-01-31,237000.0
2004-12-31,233800.0
2004-11-30,230800.0
2004-10-31,227300.0
2004-09-30,223000.0
2004-08-31,217900.0
2004-07-31,212900.0
2004-06-30,208400.0
2004-05-31,205400.0
2004-04-30,203500.0
2004-03-31,201900.0
2004-02-29,199600.0
2004-01-31,196500.0
2003-12-31,193000.0
2003-11-30,190300.0
2003-10-31,187800.0
2003-09-30,185600.0
2003-08-31,183900.0
2003-07-31,182500.0
2003-06-30,180600.0
2003-05-31,178200.0
2003-04-30,175700.0
2003-03-31,173300.0
2003-02-28,171500.0
2003-01-31,170300.0
2002-12-31,169200.0
2002-11-30,168000.0
2002-10-31,166800.0
2002-09-30,166200.0
2002-08-31,165900.0
2002-07-31,164900.0
2002-06-30,163500.0
2002-05-31,162200.0
2002-04-30,162000.0
2002-03-31,161800.0
2002-02-28,161000.0
2002-01-31,159700.0
2001-12-31,158500.0
2001-11-30,156900.0
2001-10-31,155000.0
2001-09-30,153100.0
2001-08-31,152100.0
2001-07-31,152000.0
2001-06-30,152200.0
2001-05-31,151600.0
2001-04-30,150200.0
2001-03-31,149300.0
2001-02-28,149300.0
2001-01-31,150100.0
2000-12-31,151200.0
2000-11-30,152300.0
2000-10-31,153500.0
2000-09-30,154600.0
2000-08-31,155000.0
2000-07-31,154300.0
2000-06-30,153600.0
2000-05-31,153400.0
2000-04-30,153100.0
2000-03-31,152300.0
2000-02-29,151300.0
2000-01-31,150500.0
1999-12-31,149500.0
1999-11-30,148400.0
1999-10-31,147700.0
1999-09-30,147100.0
1999-08-31,146100.0
1999-07-31,145400.0
1999-06-30,145100.0
1999-05-31,144800.0
1999-04-30,144200.0
1999-03-31,143400.0
1999-02-28,142400.0
1999-01-31,141200.0
1998-12-31,139900.0
1998-11-30,138900.0
1998-10-31,138000.0
1998-09-30,136800.0
1998-08-31,135900.0
1998-07-31,135500.0
1998-06-30,135400.0
1998-05-31,135600.0
1998-04-30,135900.0
1998-03-31,136200.0
1998-02-28,136300.0
1998-01-31,135900.0
1997-12-31,135100.0
1997-11-30,134600.0
1997-10-31,134500.0
1997-09-30,134600.0
1997-08-31,134700.0
1997-07-31,134700.0
1997-06-30,134300.0
1997-05-31,134200.0
1997-04-30,134200.0
1997-03-31,133900.0
1997-02-28,133000.0
1997-01-31,132100.0
1996-12-31,131600.0
1996-11-30,131600.0
1996-10-31,131500.0
1996-09-30,131700.0
1996-08-31,131600.0
1996-07-31,131300.0
1996-06-30,131500.0
1996-05-31,131800.0
1996-04-30,131600.0
