Date,Value
2015-09-30,0.874
2015-08-31,0.87
2015-07-31,0.864
2015-06-30,0.86
2015-05-31,0.854
2015-04-30,0.852
2015-03-31,0.852
2015-02-28,0.854
2015-01-31,0.836
2014-12-31,0.828
2014-11-30,0.822
2014-10-31,0.824
2014-09-30,0.82
2014-08-31,0.818
2014-07-31,0.814
2014-06-30,0.812
2014-05-31,0.808
2014-04-30,0.806
2014-03-31,0.806
2014-02-28,0.804
2014-01-31,0.794
2013-12-31,0.786
2013-11-30,0.78
2013-10-31,0.782
2013-09-30,0.78
2013-08-31,0.776
2013-07-31,0.774
2013-06-30,0.77
2013-05-31,0.768
2013-04-30,0.764
2013-03-31,0.766
2013-02-28,0.762
2013-01-31,0.754
2012-12-31,0.744
2012-11-30,0.738
2012-10-31,0.742
2012-09-30,0.738
2012-08-31,0.734
2012-07-31,0.732
2012-06-30,0.73
2012-05-31,0.726
2012-04-30,0.724
2012-03-31,0.726
2012-02-29,0.722
2012-01-31,0.712
2011-12-31,0.702
2011-11-30,0.696
2011-10-31,0.7
2011-09-30,0.696
2011-08-31,0.694
2011-07-31,0.69
2011-06-30,0.688
2011-05-31,0.686
2011-04-30,0.682
2011-03-31,0.668
2011-02-28,0.666
2011-01-31,0.676
2010-12-31,0.7
2010-11-30,0.712
