Date,Value
2015-09-30,1.022
2015-08-31,1.018
2015-07-31,1.016
2015-06-30,1.014
2015-05-31,1.0
2015-04-30,0.988
2015-03-31,0.972
2015-02-28,0.964
2015-01-31,0.962
2014-12-31,0.964
2014-11-30,0.968
2014-10-31,0.972
2014-09-30,0.974
2014-08-31,0.974
2014-07-31,0.96
2014-06-30,0.946
2014-05-31,0.938
2014-04-30,0.938
2014-03-31,0.942
2014-02-28,0.944
2014-01-31,0.95
2013-12-31,0.95
2013-11-30,0.952
2013-10-31,0.952
2013-09-30,0.948
2013-08-31,0.944
2013-07-31,0.938
2013-06-30,0.932
2013-05-31,0.928
2013-04-30,0.926
2013-03-31,0.922
2013-02-28,0.92
2013-01-31,0.916
2012-12-31,0.91
2012-11-30,0.908
2012-10-31,0.902
2012-09-30,0.896
2012-08-31,0.892
2012-07-31,0.898
2012-06-30,0.904
2012-05-31,0.908
2012-04-30,0.904
2012-03-31,0.74
2012-02-29,0.738
2012-01-31,0.734
2011-12-31,0.72
2011-11-30,0.702
2011-10-31,0.692
2011-09-30,0.682
2011-08-31,0.678
2011-07-31,0.676
