Date,Value
2015-10-31,349000.0
2015-02-28,320000.0
2015-01-31,325000.0
2014-12-31,319000.0
2014-11-30,315000.0
2014-10-31,325000.0
2014-09-30,325000.0
2014-08-31,325000.0
2014-07-31,300000.0
2014-06-30,300000.0
2014-05-31,300000.0
2014-04-30,309500.0
2014-03-31,300000.0
2014-02-28,298000.0
2014-01-31,289900.0
2013-12-31,299500.0
2013-11-30,299900.0
2013-10-31,300000.0
2013-09-30,299000.0
2013-08-31,300000.0
2013-07-31,299750.0
2013-06-30,299950.0
2013-05-31,300000.0
2013-04-30,299000.0
2013-03-31,299500.0
2013-02-28,295000.0
2013-01-31,299000.0
2012-12-31,299000.0
2012-11-30,299000.0
2012-10-31,279900.0
2012-09-30,310000.0
2012-08-31,299900.0
2012-07-31,310000.0
2012-06-30,310000.0
2012-05-31,305000.0
2012-04-30,298000.0
2012-03-31,295000.0
2012-02-29,289000.0
2012-01-31,294900.0
2011-12-31,285000.0
2011-11-30,298000.0
2011-10-31,299789.0
2011-09-30,324900.0
2011-08-31,325000.0
2011-07-31,329000.0
2011-06-30,314000.0
2011-05-31,325000.0
2011-04-30,320000.0
2011-03-31,315000.0
2011-02-28,325000.0
2011-01-31,325000.0
2010-12-31,329900.0
2010-11-30,335000.0
2010-10-31,332000.0
2010-09-30,349000.0
2010-08-31,335000.0
2010-07-31,339000.0
2010-06-30,335000.0
2010-05-31,330000.0
2010-04-30,325000.0
2010-03-31,330000.0
2010-02-28,349000.0
2010-01-31,349000.0
2009-12-31,369000.0
2009-11-30,369000.0
2009-10-31,369000.0
2009-09-30,375000.0
2009-08-31,374900.0
2009-07-31,375000.0
2009-06-30,379000.0
2009-05-31,370000.0
2009-04-30,369000.0
2009-03-31,372000.0
2009-02-28,369000.0
2009-01-31,369500.0
2008-12-31,369000.0
2008-11-30,370000.0
2008-10-31,379000.0
