Date,Value
2015-09-30,149300.0
2015-08-31,148400.0
2015-07-31,148200.0
2015-06-30,149600.0
2015-05-31,149000.0
2015-04-30,147100.0
2015-03-31,147100.0
2015-02-28,146200.0
2015-01-31,143800.0
2014-12-31,143700.0
2014-11-30,143200.0
2014-10-31,142400.0
2014-09-30,141900.0
2014-08-31,141700.0
2014-07-31,142000.0
2014-06-30,142500.0
2014-05-31,142800.0
2014-04-30,142900.0
2014-03-31,142800.0
2014-02-28,142300.0
2014-01-31,141800.0
2013-12-31,141100.0
2013-11-30,140600.0
2013-10-31,140300.0
2013-09-30,140100.0
2013-08-31,140200.0
2013-07-31,140200.0
2013-06-30,139800.0
2013-05-31,139400.0
2013-04-30,138900.0
2013-03-31,138400.0
2013-02-28,138100.0
2013-01-31,138100.0
2012-12-31,138100.0
2012-11-30,138200.0
2012-10-31,138300.0
2012-09-30,138000.0
2012-08-31,137100.0
2012-07-31,135900.0
2012-06-30,134900.0
2012-05-31,134500.0
2012-04-30,134600.0
2012-03-31,134700.0
2012-02-29,135000.0
2012-01-31,135000.0
2011-12-31,134900.0
2011-11-30,135300.0
2011-10-31,136200.0
2011-09-30,136800.0
2011-08-31,137300.0
2011-07-31,137800.0
2011-06-30,138700.0
2011-05-31,139600.0
2011-04-30,140300.0
2011-03-31,140500.0
2011-02-28,140500.0
2011-01-31,140700.0
2010-12-31,141000.0
2010-11-30,140900.0
2010-10-31,141000.0
2010-09-30,141700.0
2010-08-31,142400.0
2010-07-31,143000.0
2010-06-30,144000.0
2010-05-31,144800.0
2010-04-30,145000.0
2010-03-31,144900.0
2010-02-28,144500.0
2010-01-31,143800.0
2009-12-31,143300.0
2009-11-30,143300.0
2009-10-31,143400.0
2009-09-30,143400.0
2009-08-31,143500.0
2009-07-31,143700.0
2009-06-30,143500.0
2009-05-31,142800.0
2009-04-30,142600.0
2009-03-31,143400.0
2009-02-28,144100.0
2009-01-31,144600.0
2008-12-31,145200.0
2008-11-30,145900.0
2008-10-31,145700.0
2008-09-30,145200.0
2008-08-31,145600.0
2008-07-31,146000.0
2008-06-30,145800.0
2008-05-31,145300.0
2008-04-30,144900.0
2008-03-31,144400.0
2008-02-29,144100.0
2008-01-31,143700.0
2007-12-31,143200.0
2007-11-30,142800.0
2007-10-31,143400.0
2007-09-30,143800.0
2007-08-31,143500.0
2007-07-31,142500.0
2007-06-30,141800.0
2007-05-31,141200.0
2007-04-30,140600.0
2007-03-31,140500.0
2007-02-28,141100.0
2007-01-31,141500.0
2006-12-31,141200.0
2006-11-30,140600.0
2006-10-31,139800.0
2006-09-30,138700.0
2006-08-31,137600.0
2006-07-31,136600.0
2006-06-30,135100.0
2006-05-31,133700.0
2006-04-30,132900.0
2006-03-31,131900.0
2006-02-28,130800.0
2006-01-31,129900.0
2005-12-31,129100.0
2005-11-30,127800.0
2005-10-31,126400.0
2005-09-30,125000.0
2005-08-31,123800.0
2005-07-31,123000.0
2005-06-30,122500.0
2005-05-31,122300.0
2005-04-30,122200.0
2005-03-31,122100.0
2005-02-28,121800.0
2005-01-31,121100.0
2004-12-31,120400.0
2004-11-30,120200.0
2004-10-31,119900.0
2004-09-30,119600.0
2004-08-31,119900.0
2004-07-31,120400.0
2004-06-30,120200.0
2004-05-31,119500.0
2004-04-30,118900.0
2004-03-31,118200.0
2004-02-29,117000.0
2004-01-31,116300.0
2003-12-31,116000.0
2003-11-30,115900.0
2003-10-31,116100.0
2003-09-30,115900.0
2003-08-31,114500.0
2003-07-31,113100.0
2003-06-30,112700.0
2003-05-31,112800.0
2003-04-30,112800.0
2003-03-31,112800.0
2003-02-28,112900.0
2003-01-31,113200.0
2002-12-31,113500.0
2002-11-30,112800.0
2002-10-31,111400.0
2002-09-30,110400.0
2002-08-31,110200.0
2002-07-31,109700.0
2002-06-30,109100.0
2002-05-31,108500.0
2002-04-30,107600.0
2002-03-31,106200.0
2002-02-28,105000.0
2002-01-31,104300.0
2001-12-31,103900.0
2001-11-30,103600.0
2001-10-31,103800.0
2001-09-30,104100.0
2001-08-31,104500.0
2001-07-31,105000.0
2001-06-30,105800.0
2001-05-31,106100.0
2001-04-30,105900.0
2001-03-31,105700.0
2001-02-28,105500.0
2001-01-31,105100.0
2000-12-31,104800.0
2000-11-30,104500.0
2000-10-31,104300.0
2000-09-30,104200.0
2000-08-31,104200.0
2000-07-31,104200.0
2000-06-30,104100.0
2000-05-31,104200.0
2000-04-30,104400.0
2000-03-31,104700.0
2000-02-29,105000.0
2000-01-31,104700.0
1999-12-31,104200.0
1999-11-30,104200.0
1999-10-31,104200.0
1999-09-30,104100.0
1999-08-31,104000.0
1999-07-31,104100.0
1999-06-30,103900.0
1999-05-31,103500.0
1999-04-30,103300.0
1999-03-31,103000.0
1999-02-28,102700.0
1999-01-31,102500.0
1998-12-31,102100.0
1998-11-30,101800.0
1998-10-31,101700.0
1998-09-30,101800.0
1998-08-31,101700.0
1998-07-31,101300.0
1998-06-30,100700.0
1998-05-31,100000.0
1998-04-30,99600.0
1998-03-31,99300.0
1998-02-28,99200.0
1998-01-31,99400.0
1997-12-31,99300.0
1997-11-30,99000.0
1997-10-31,98400.0
1997-09-30,97900.0
1997-08-31,97500.0
1997-07-31,97000.0
1997-06-30,96300.0
1997-05-31,95600.0
1997-04-30,94900.0
1997-03-31,94500.0
1997-02-28,94500.0
1997-01-31,94300.0
1996-12-31,94200.0
1996-11-30,94300.0
1996-10-31,94600.0
1996-09-30,94500.0
1996-08-31,94400.0
1996-07-31,94500.0
1996-06-30,94800.0
1996-05-31,95500.0
1996-04-30,96500.0
