Date,Value
2015-07-31,237397.0
2015-06-30,245588.2353
2015-05-31,194000.0
2014-11-30,191235.0
2014-10-31,184050.0
2014-09-30,193250.0
2014-08-31,207500.0
2014-06-30,150000.0
2013-12-31,209200.0
2013-11-30,236856.5
2013-10-31,245698.5
2013-09-30,238205.0
2013-08-31,202075.0
2013-07-31,186675.0
2013-06-30,165800.0
2013-04-30,177941.1765
2013-03-31,208930.7692
2013-02-28,41764.7059
2013-01-31,188700.0
2012-11-30,50025.0
2012-10-31,211950.0
2012-09-30,203750.0
2012-08-31,212647.0588
2012-07-31,150307.6923
2012-06-30,42500.0
2012-05-31,38200.0
2012-04-30,35058.8235
2012-03-31,33653.8462
2012-01-31,52500.0
2011-11-30,186705.8824
2011-10-31,189000.0
2011-08-31,60411.7647
2011-07-31,69692.3077
2011-05-31,32000.0
2010-12-31,329000.0
2010-09-30,177400.0
2010-06-30,180745.75
2010-05-31,158002.6471
2010-04-30,169435.0
2010-03-31,69000.0
2009-11-30,152000.0
2009-08-31,191250.0
2009-07-31,27923.0769
2007-08-31,228281.0769
2007-06-30,299218.0
2006-12-31,365558.0
2006-09-30,360087.3077
2006-07-31,416581.35
2006-05-31,310299.5294
2006-04-30,343206.0
2005-10-31,230708.3
2005-09-30,195914.0
2005-08-31,172350.0
2005-07-31,173600.0
2005-06-30,172350.0
2005-05-31,169935.0
2005-04-30,169958.8235
2005-03-31,159900.0
