Date,Value
2015-09-30,250500.0
2015-08-31,247300.0
2015-07-31,246000.0
2015-06-30,244700.0
2015-05-31,243700.0
2015-04-30,242000.0
2015-03-31,241900.0
2015-02-28,241100.0
2015-01-31,239000.0
2014-12-31,238100.0
2014-11-30,236600.0
2014-10-31,235000.0
2014-09-30,234200.0
2014-08-31,233300.0
2014-07-31,232500.0
2014-06-30,231900.0
2014-05-31,231400.0
2014-04-30,230500.0
2014-03-31,229200.0
2014-02-28,228200.0
2014-01-31,227100.0
2013-12-31,224900.0
2013-11-30,223000.0
2013-10-31,221800.0
2013-09-30,220200.0
2013-08-31,217900.0
2013-07-31,215000.0
2013-06-30,211900.0
2013-05-31,209100.0
2013-04-30,206800.0
2013-03-31,205100.0
2013-02-28,203600.0
2013-01-31,202000.0
2012-12-31,201200.0
2012-11-30,200500.0
2012-10-31,200100.0
2012-09-30,200200.0
2012-08-31,200000.0
2012-07-31,199100.0
2012-06-30,198400.0
2012-05-31,197800.0
2012-04-30,197400.0
2012-03-31,197300.0
2012-02-29,197600.0
2012-01-31,197800.0
2011-12-31,198700.0
2011-11-30,200100.0
2011-10-31,201000.0
2011-09-30,201800.0
2011-08-31,203400.0
2011-07-31,205500.0
2011-06-30,208000.0
2011-05-31,210900.0
2011-04-30,213300.0
2011-03-31,215000.0
2011-02-28,216900.0
2011-01-31,218300.0
2010-12-31,219000.0
2010-11-30,219800.0
2010-10-31,221500.0
2010-09-30,223300.0
2010-08-31,225600.0
2010-07-31,227800.0
2010-06-30,229300.0
2010-05-31,230300.0
2010-04-30,231500.0
2010-03-31,232800.0
2010-02-28,233600.0
2010-01-31,234300.0
2009-12-31,235500.0
2009-11-30,236600.0
2009-10-31,237000.0
2009-09-30,237300.0
2009-08-31,237800.0
2009-07-31,239000.0
2009-06-30,240900.0
2009-05-31,242800.0
2009-04-30,244400.0
2009-03-31,246500.0
2009-02-28,248800.0
2009-01-31,251100.0
2008-12-31,253500.0
2008-11-30,256500.0
2008-10-31,259700.0
2008-09-30,262400.0
2008-08-31,264200.0
2008-07-31,265900.0
2008-06-30,267400.0
2008-05-31,268600.0
2008-04-30,269700.0
2008-03-31,271300.0
2008-02-29,273400.0
2008-01-31,276000.0
2007-12-31,278500.0
2007-11-30,280300.0
2007-10-31,281700.0
2007-09-30,283100.0
2007-08-31,284300.0
2007-07-31,285100.0
2007-06-30,285900.0
2007-05-31,286400.0
2007-04-30,286700.0
2007-03-31,286800.0
2007-02-28,286200.0
2007-01-31,285000.0
2006-12-31,283900.0
2006-11-30,282900.0
2006-10-31,281500.0
2006-09-30,280100.0
2006-08-31,278800.0
2006-07-31,277200.0
2006-06-30,275200.0
2006-05-31,273200.0
2006-04-30,271600.0
2006-03-31,269400.0
2006-02-28,266700.0
2006-01-31,264100.0
2005-12-31,261400.0
2005-11-30,258000.0
2005-10-31,254200.0
2005-09-30,250700.0
2005-08-31,247000.0
2005-07-31,243100.0
2005-06-30,239300.0
2005-05-31,235500.0
2005-04-30,231500.0
2005-03-31,227600.0
2005-02-28,224400.0
2005-01-31,221700.0
2004-12-31,219000.0
2004-11-30,216100.0
2004-10-31,213000.0
2004-09-30,209900.0
2004-08-31,207200.0
2004-07-31,204400.0
2004-06-30,201200.0
2004-05-31,198200.0
2004-04-30,195600.0
2004-03-31,193300.0
2004-02-29,191500.0
2004-01-31,190100.0
2003-12-31,188900.0
2003-11-30,187700.0
2003-10-31,186600.0
2003-09-30,185600.0
2003-08-31,185100.0
2003-07-31,184800.0
2003-06-30,184300.0
2003-05-31,183500.0
2003-04-30,182500.0
2003-03-31,181200.0
2003-02-28,179800.0
2003-01-31,178200.0
2002-12-31,176500.0
2002-11-30,175100.0
2002-10-31,174200.0
2002-09-30,173400.0
2002-08-31,172500.0
2002-07-31,171900.0
2002-06-30,171600.0
2002-05-31,171900.0
2002-04-30,172400.0
2002-03-31,172800.0
2002-02-28,172600.0
2002-01-31,171800.0
2001-12-31,170600.0
2001-11-30,169900.0
2001-10-31,169500.0
2001-09-30,168700.0
2001-08-31,167700.0
2001-07-31,166700.0
2001-06-30,165900.0
2001-05-31,165100.0
2001-04-30,164300.0
2001-03-31,163900.0
2001-02-28,163300.0
2001-01-31,162700.0
2000-12-31,161900.0
2000-11-30,161500.0
2000-10-31,161800.0
2000-09-30,162200.0
2000-08-31,161900.0
2000-07-31,161100.0
2000-06-30,160500.0
2000-05-31,159900.0
2000-04-30,158900.0
2000-03-31,157900.0
2000-02-29,157000.0
2000-01-31,156200.0
1999-12-31,155800.0
1999-11-30,155400.0
1999-10-31,154200.0
1999-09-30,152600.0
1999-08-31,151600.0
1999-07-31,150900.0
1999-06-30,150000.0
1999-05-31,148900.0
1999-04-30,148000.0
1999-03-31,147100.0
1999-02-28,146100.0
1999-01-31,145200.0
1998-12-31,144300.0
1998-11-30,143400.0
1998-10-31,142500.0
1998-09-30,141700.0
1998-08-31,141000.0
1998-07-31,140500.0
1998-06-30,140100.0
1998-05-31,139600.0
1998-04-30,139100.0
1998-03-31,138600.0
1998-02-28,137900.0
1998-01-31,137400.0
1997-12-31,136900.0
1997-11-30,136000.0
1997-10-31,134900.0
1997-09-30,134300.0
1997-08-31,133700.0
1997-07-31,132700.0
1997-06-30,131500.0
1997-05-31,130400.0
1997-04-30,129400.0
1997-03-31,128400.0
1997-02-28,127500.0
1997-01-31,126700.0
1996-12-31,125900.0
1996-11-30,124800.0
1996-10-31,123800.0
1996-09-30,123000.0
1996-08-31,122100.0
1996-07-31,121900.0
1996-06-30,122200.0
1996-05-31,122300.0
1996-04-30,122100.0
