Date,Value
2015-09-30,208748.5
2015-08-31,221996.5
2015-07-31,220745.0
2015-06-30,221525.0
2015-05-31,217725.0
2015-04-30,224817.5
2015-03-31,233407.5
2015-02-28,216750.0
2015-01-31,214937.5
2014-12-31,178687.5
2014-11-30,184390.0
2014-10-31,185035.0
2014-09-30,184635.0
2014-08-31,197040.0
2014-07-31,183025.0
2014-06-30,188875.0
2014-05-31,197725.0
2014-04-30,199200.0
2014-03-31,214050.0
2014-02-28,213950.0
2014-01-31,200768.5
2013-12-31,209926.5
2013-11-30,201795.0
2013-10-31,191500.0
2013-09-30,195000.0
2013-08-31,206250.0
2013-07-31,203500.0
2013-06-30,197125.0
2013-05-31,200473.5
2013-04-30,179146.5
2013-03-31,184745.0
2013-02-28,186250.0
2013-01-31,184875.0
2012-12-31,189075.0
2012-11-30,180425.0
2012-10-31,181125.0
2012-09-30,188750.0
2012-08-31,176050.0
2012-07-31,180465.0
2012-06-30,184785.0
2012-05-31,181250.0
2012-04-30,172800.0
2012-03-31,178500.0
2012-02-29,182300.0
2012-01-31,189200.0
2011-12-31,178250.0
2011-11-30,178250.0
2011-10-31,183750.0
2011-09-30,171700.0
2011-08-31,166800.0
2011-07-31,168250.0
2011-06-30,173415.0
2011-05-31,176690.0
2011-04-30,185958.5
2011-03-31,177246.5
2011-02-28,184295.0
2011-01-31,190200.0
2010-12-31,214350.0
2010-11-30,199525.0
2010-10-31,220268.95
2010-09-30,189698.5
2010-08-31,192648.5
2010-07-31,194496.5
2010-06-30,177745.0
2010-05-31,175800.0
2010-04-30,177941.0
2010-03-31,193179.0
2010-02-28,199123.75
2010-01-31,197608.75
2009-12-31,195457.5
2009-11-30,191255.0
2009-10-31,190549.85
2009-09-30,192999.65
2009-08-31,195099.35
2009-07-31,190164.65
2009-06-30,178249.5
2009-05-31,170125.0
2009-04-30,177475.0
2009-03-31,180812.5
2009-02-28,176897.5
2009-01-31,179765.0
2008-12-31,193375.0
2008-11-30,182575.0
2008-10-31,182225.0
2008-09-30,184650.0
2008-08-31,198550.0
2008-07-31,212950.0
2008-06-30,217950.0
2008-05-31,238000.0
2008-04-30,241300.0
2008-03-31,268798.9
2008-02-29,302463.0
2008-01-31,265276.0
2007-11-30,232663.0
2007-10-31,228375.0
2007-09-30,237374.85
2007-08-31,250342.15
2007-07-31,249882.0
2007-06-30,240310.0
2007-05-31,232963.9
2007-04-30,224764.1
2007-03-31,215411.9
2007-02-28,191113.0
2007-01-31,212668.65
2006-12-31,226509.95
2006-11-30,236138.5
2006-10-31,233875.0
2006-09-30,227798.9
2006-08-31,222739.1
2006-07-31,216461.3
2006-06-30,197461.6
2006-05-31,189249.95
2006-04-30,179061.55
2006-03-31,177088.6
2006-02-28,186313.0
2006-01-31,182398.75
2005-12-31,191563.75
2005-11-30,179994.4
2005-10-31,183941.1
2005-09-30,178348.0
2005-08-31,177125.0
2005-07-31,177150.0
2005-06-30,179350.0
2005-05-31,154950.0
2005-04-30,147100.0
2005-03-31,132250.0
2005-02-28,141450.0
2005-01-31,153725.0
2004-12-31,158275.0
2004-11-30,153925.0
2004-10-31,148075.0
2004-09-30,153735.0
2004-08-31,156215.0
2004-07-31,154692.5
2004-06-30,145217.5
2004-05-31,144890.0
2004-04-30,128000.0
2004-03-31,116750.0
2004-02-29,119150.0
2004-01-31,137785.0
2003-12-31,141615.0
2003-11-30,140592.5
2003-10-31,151957.5
2003-09-30,145540.0
2003-08-31,148285.0
2003-07-31,140300.0
2003-06-30,141975.0
2003-05-31,138000.0
2003-04-30,129500.0
2003-03-31,113000.0
2003-02-28,112985.0
2003-01-31,129965.0
2002-12-31,135543.0
2002-11-30,127467.0
2002-10-31,119160.0
2002-09-30,128375.0
2002-08-31,129275.0
2002-07-31,125500.0
2002-06-30,125250.0
2002-05-31,130485.0
2002-04-30,127865.0
2002-03-31,129050.0
2002-02-28,115550.0
2002-01-31,108950.0
2001-12-31,119250.0
2001-11-30,122950.0
2001-10-31,125967.5
2001-09-30,126007.5
2001-08-31,123950.0
2001-07-31,122325.0
2001-06-30,117350.0
2001-05-31,112400.0
2001-04-30,113823.5294
2001-03-31,128076.9231
2001-01-31,110200.0
2000-12-31,113925.0
2000-11-30,109200.0
2000-10-31,109350.0
2000-09-30,112950.0
2000-08-31,125000.0
2000-07-31,126625.0
2000-06-30,124575.0
2000-05-31,114035.0
2000-04-30,113957.5
2000-03-31,112182.5
2000-02-29,119875.0
2000-01-31,132085.0
1999-12-31,134965.0
1999-11-30,126000.0
1999-10-31,118950.0
1999-09-30,120050.0
1999-08-31,115000.0
1999-07-31,102200.0
1999-06-30,101400.0
1999-05-31,98150.0
1999-04-30,110650.0
1999-03-31,98775.0
1999-02-28,81500.0
1999-01-31,86500.0
