Date,Value
2015-02-28,180000.0
2015-01-31,200000.0
2014-12-31,204000.0
2014-11-30,219000.0
2014-10-31,230000.0
2014-09-30,239000.0
2014-08-31,239000.0
2014-07-31,235000.0
2014-06-30,238000.0
2014-05-31,229500.0
2014-04-30,225000.0
2014-03-31,199900.0
2014-02-28,215000.0
2014-01-31,189900.0
2013-12-31,195000.0
2013-11-30,199000.0
2013-10-31,206955.0
2013-09-30,199900.0
2013-08-31,205100.0
2013-07-31,209900.0
2013-06-30,219000.0
2013-05-31,204900.0
2013-04-30,197950.0
2013-03-31,189000.0
2013-02-28,185000.0
2013-01-31,209000.0
2012-12-31,199500.0
2012-11-30,175000.0
2012-10-31,157000.0
2012-09-30,189900.0
2012-08-31,188500.0
2012-07-31,179500.0
2012-06-30,179500.0
2012-05-31,169900.0
2012-04-30,185000.0
2012-03-31,185000.0
2012-02-29,169900.0
2012-01-31,185000.0
2011-12-31,179500.0
2011-11-30,179000.0
2011-10-31,179500.0
2011-09-30,189900.0
2011-08-31,194500.0
2011-07-31,199000.0
2011-06-30,199900.0
2011-05-31,199250.0
2011-04-30,199900.0
2011-03-31,189500.0
2011-02-28,179500.0
2011-01-31,189000.0
2010-12-31,194500.0
2010-11-30,205000.0
2010-10-31,205000.0
2010-09-30,209900.0
2010-08-31,219500.0
2010-07-31,215000.0
2010-06-30,225000.0
2010-05-31,209900.0
2010-04-30,214500.0
2010-03-31,215000.0
2010-02-28,239000.0
2010-01-31,239000.0
2009-12-31,265000.0
2009-11-30,275000.0
2009-10-31,260000.0
2009-09-30,269000.0
2009-08-31,264000.0
2009-07-31,259000.0
2009-06-30,259000.0
2009-05-31,250000.0
2009-04-30,250000.0
2009-03-31,249500.0
2009-02-28,249900.0
2009-01-31,259900.0
2008-12-31,259000.0
2008-11-30,259000.0
2008-10-31,275000.0
