Date,Value
2015-09-30,263100.0
2015-08-31,260300.0
2015-07-31,256500.0
2015-06-30,256100.0
2015-05-31,254300.0
2015-04-30,252300.0
2015-03-31,250900.0
2015-02-28,250700.0
2015-01-31,248100.0
2014-12-31,246800.0
2014-11-30,245000.0
2014-10-31,243700.0
2014-09-30,243000.0
2014-08-31,242500.0
2014-07-31,241800.0
2014-06-30,240800.0
2014-05-31,239400.0
2014-04-30,237900.0
2014-03-31,236700.0
2014-02-28,236000.0
2014-01-31,234800.0
2013-12-31,232800.0
2013-11-30,230800.0
2013-10-31,229200.0
2013-09-30,227200.0
2013-08-31,224800.0
2013-07-31,222000.0
2013-06-30,218500.0
2013-05-31,214800.0
2013-04-30,211700.0
2013-03-31,209000.0
2013-02-28,207100.0
2013-01-31,205600.0
2012-12-31,204000.0
2012-11-30,201800.0
2012-10-31,199700.0
2012-09-30,197800.0
2012-08-31,196300.0
2012-07-31,195100.0
2012-06-30,194200.0
2012-05-31,193200.0
2012-04-30,192000.0
2012-03-31,190800.0
2012-02-29,190100.0
2012-01-31,189900.0
2011-12-31,190200.0
2011-11-30,190600.0
2011-10-31,191000.0
2011-09-30,191500.0
2011-08-31,192200.0
2011-07-31,193000.0
2011-06-30,194100.0
2011-05-31,195400.0
2011-04-30,197000.0
2011-03-31,198800.0
2011-02-28,200200.0
2011-01-31,201700.0
2010-12-31,203400.0
2010-11-30,205200.0
2010-10-31,206400.0
2010-09-30,207900.0
2010-08-31,209900.0
2010-07-31,212100.0
2010-06-30,213900.0
2010-05-31,215400.0
2010-04-30,216400.0
2010-03-31,217400.0
2010-02-28,217900.0
2010-01-31,217800.0
2009-12-31,217400.0
2009-11-30,217300.0
2009-10-31,217300.0
2009-09-30,217500.0
2009-08-31,217900.0
2009-07-31,218800.0
2009-06-30,220200.0
2009-05-31,222100.0
2009-04-30,224400.0
2009-03-31,226700.0
2009-02-28,228800.0
2009-01-31,231000.0
2008-12-31,233900.0
2008-11-30,238000.0
2008-10-31,241900.0
2008-09-30,244500.0
2008-08-31,246200.0
2008-07-31,248000.0
2008-06-30,250200.0
2008-05-31,252800.0
2008-04-30,255500.0
2008-03-31,257700.0
2008-02-29,259500.0
2008-01-31,261500.0
2007-12-31,263500.0
2007-11-30,265100.0
2007-10-31,266600.0
2007-09-30,268100.0
2007-08-31,269800.0
2007-07-31,271000.0
2007-06-30,271900.0
2007-05-31,272400.0
2007-04-30,272800.0
2007-03-31,273200.0
2007-02-28,273700.0
2007-01-31,274100.0
2006-12-31,274400.0
2006-11-30,274400.0
2006-10-31,274700.0
2006-09-30,275800.0
2006-08-31,276400.0
2006-07-31,276000.0
2006-06-30,274800.0
2006-05-31,273100.0
2006-04-30,271000.0
2006-03-31,268500.0
2006-02-28,265600.0
2006-01-31,262700.0
2005-12-31,259600.0
2005-11-30,256100.0
2005-10-31,251800.0
2005-09-30,246800.0
2005-08-31,241300.0
2005-07-31,235800.0
2005-06-30,230800.0
2005-05-31,226200.0
2005-04-30,221600.0
2005-03-31,217500.0
2005-02-28,214200.0
2005-01-31,211200.0
2004-12-31,208100.0
2004-11-30,204900.0
2004-10-31,201900.0
2004-09-30,199100.0
2004-08-31,196900.0
2004-07-31,195000.0
2004-06-30,193200.0
2004-05-31,191300.0
2004-04-30,189500.0
2004-03-31,187800.0
2004-02-29,186400.0
2004-01-31,184700.0
2003-12-31,183000.0
2003-11-30,181400.0
2003-10-31,179800.0
2003-09-30,178200.0
2003-08-31,177000.0
2003-07-31,176100.0
2003-06-30,175200.0
2003-05-31,174200.0
2003-04-30,173400.0
2003-03-31,172700.0
2003-02-28,172000.0
2003-01-31,171000.0
2002-12-31,169900.0
2002-11-30,168900.0
2002-10-31,168300.0
2002-09-30,167900.0
2002-08-31,167400.0
2002-07-31,166800.0
2002-06-30,166400.0
2002-05-31,166300.0
2002-04-30,166300.0
2002-03-31,165900.0
2002-02-28,165000.0
2002-01-31,164000.0
2001-12-31,163400.0
2001-11-30,162700.0
2001-10-31,162000.0
2001-09-30,161600.0
2001-08-31,161200.0
2001-07-31,161000.0
2001-06-30,160900.0
2001-05-31,160600.0
2001-04-30,160300.0
2001-03-31,160400.0
2001-02-28,160600.0
2001-01-31,160500.0
2000-12-31,160300.0
2000-11-30,160000.0
2000-10-31,159700.0
2000-09-30,159200.0
2000-08-31,158600.0
2000-07-31,158000.0
2000-06-30,157300.0
2000-05-31,156500.0
2000-04-30,155400.0
2000-03-31,154400.0
2000-02-29,153700.0
2000-01-31,153200.0
1999-12-31,153100.0
1999-11-30,153500.0
1999-10-31,154300.0
1999-09-30,155400.0
1999-08-31,156300.0
1999-07-31,156900.0
1999-06-30,157300.0
1999-05-31,157400.0
1999-04-30,157300.0
1999-03-31,156800.0
1999-02-28,156200.0
1999-01-31,155600.0
1998-12-31,154900.0
1998-11-30,154100.0
1998-10-31,153300.0
1998-09-30,152500.0
1998-08-31,151800.0
1998-07-31,151100.0
1998-06-30,150600.0
1998-05-31,150800.0
1998-04-30,151700.0
1998-03-31,152400.0
1998-02-28,152800.0
1998-01-31,152900.0
1997-12-31,153000.0
1997-11-30,152800.0
1997-10-31,152600.0
1997-09-30,152200.0
1997-08-31,151800.0
1997-07-31,151200.0
1997-06-30,150800.0
1997-05-31,150300.0
1997-04-30,149400.0
1997-03-31,148300.0
1997-02-28,147200.0
1997-01-31,146100.0
1996-12-31,145100.0
1996-11-30,144600.0
1996-10-31,144200.0
1996-09-30,143600.0
1996-08-31,143200.0
1996-07-31,142500.0
1996-06-30,141500.0
1996-05-31,140400.0
1996-04-30,139500.0
