Date,Value
2015-10-31,244000.0
2015-02-28,249000.0
2015-01-31,257000.0
2014-12-31,250000.0
2014-11-30,259900.0
2014-10-31,250000.0
2014-09-30,250000.0
2014-08-31,249000.0
2014-07-31,249500.0
2014-06-30,249000.0
2014-05-31,250000.0
2014-04-30,259000.0
2014-03-31,275000.0
2014-02-28,285000.0
2014-01-31,279500.0
2013-12-31,285000.0
2013-11-30,279500.0
2013-10-31,290000.0
2013-09-30,290000.0
2013-08-31,285000.0
2013-07-31,275000.0
2013-06-30,289000.0
2013-05-31,259000.0
2013-04-30,219000.0
2013-03-31,180000.0
2013-02-28,180000.0
2013-01-31,180000.0
2012-12-31,239900.0
2012-11-30,199900.0
2012-10-31,175000.0
2012-09-30,224900.0
2012-08-31,249000.0
2012-07-31,219000.0
2012-06-30,210000.0
2012-05-31,186000.0
2012-04-30,179000.0
2012-03-31,178500.0
2012-02-29,186000.0
2012-01-31,179000.0
2011-12-31,178500.0
2011-11-30,199000.0
2011-10-31,200000.0
2011-09-30,200000.0
2011-08-31,215000.0
2011-07-31,199999.0
2011-06-30,192000.0
2011-05-31,192000.0
2011-04-30,179000.0
2011-03-31,199000.0
2011-02-28,219900.0
2011-01-31,219900.0
2010-12-31,229000.0
2010-11-30,229000.0
2010-10-31,229000.0
2010-09-30,229000.0
2010-08-31,249900.0
2010-07-31,244000.0
2010-06-30,249900.0
2010-05-31,239000.0
2010-04-30,225000.0
2010-03-31,199900.0
2010-02-28,194900.0
2010-01-31,205000.0
2009-12-31,194900.0
2009-11-30,205000.0
2009-10-31,210000.0
2009-09-30,214500.0
2009-08-31,224900.0
2009-07-31,209000.0
2009-06-30,224900.0
2009-05-31,224900.0
2009-04-30,224900.0
2009-03-31,209000.0
2009-02-28,225000.0
2009-01-31,265000.0
2008-12-31,225000.0
2008-11-30,225000.0
2008-10-31,289900.0
