Date,Value
2015-09-30,297831.0
2015-08-31,289266.0
2015-07-31,303996.0
2015-06-30,281016.0
2015-05-31,283111.0
2015-04-30,275516.0
2015-03-31,259931.0
2015-02-28,260831.0
2015-01-31,246031.0
2014-12-31,277081.0
2014-11-30,278531.0
2014-10-31,288346.0
2014-09-30,263516.0
2014-08-31,235306.0
2014-07-31,246306.0
2014-06-30,266031.0
2014-05-31,284281.0
2014-04-30,282571.0
2014-03-31,263391.0
2014-02-28,211506.0
2014-01-31,253256.0
2013-12-31,292921.0
2013-11-30,275941.0
2013-10-31,277398.6471
2013-09-30,255281.0
2013-04-30,288281.0
2013-01-31,252650.0
2012-12-31,259850.0
2012-11-30,260500.0
2012-10-31,226500.0
2012-09-30,231500.0
2012-08-31,250075.0
2012-07-31,256250.0
2012-06-30,261175.0
2012-05-31,249875.0
2012-04-30,268000.0
2012-03-31,251850.0
2012-02-29,226817.15
2012-01-31,227473.35
2011-12-31,216490.5
2011-11-30,240650.0
2011-10-31,251700.25
2011-09-30,258250.0
2011-08-31,264350.0
2011-07-31,263400.0
2011-06-30,258250.0
2011-05-31,262500.0
2011-04-30,259000.0
2011-03-31,270985.0
2011-02-28,276815.0
2011-01-31,247625.0
2010-12-31,248225.0
