Date,Value
2015-09-30,258408.5
2015-08-31,281269.25
2015-07-31,322014.5
2015-06-30,271917.5
2015-05-31,265890.0
2015-04-30,243654.95
2015-02-28,223140.0
2014-12-31,233783.1
2014-11-30,233683.6
2014-10-31,235908.25
2014-09-30,244313.5
2014-08-31,263800.3
2014-07-31,274271.2
2014-06-30,251276.35
2014-05-31,220813.05
2014-04-30,213803.15
2014-03-31,208719.5
2014-02-28,204340.0
2014-01-31,203405.0
2013-12-31,214520.0
2013-11-30,209225.0
2013-10-31,211185.0
2013-09-30,213075.0
2013-08-31,221615.0
2013-07-31,238700.0
2013-06-30,232425.0
2013-05-31,228988.5
2013-04-30,221845.85
2013-03-31,227897.65
2013-02-28,210516.95
2013-01-31,202686.55
2012-12-31,209395.8
2012-11-30,223494.8
2012-10-31,219429.9
2012-09-30,212247.0
2012-08-31,208245.0
2012-07-31,250622.85
2012-06-30,253602.8
2012-05-31,232154.2
2012-04-30,213830.5882
2012-03-31,195659.2308
2012-01-31,170395.0
2011-12-31,203475.0
2011-11-30,214688.0
2011-10-31,209300.0
2011-09-30,208994.05
2011-08-31,209648.85
2011-07-31,209832.1
2011-06-30,197391.65
2011-05-31,206276.15
2011-04-30,215519.05
2011-03-31,221335.65
2011-02-28,220699.5
2011-01-31,219664.7059
2010-12-31,234593.0
2010-10-31,229363.25
2010-09-30,215279.25
2010-08-31,224672.75
2010-07-31,235022.25
2010-06-30,240258.0
2010-05-31,239998.5
2010-04-30,216925.0
2010-03-31,215369.85
2010-02-28,207019.65
2010-01-31,218509.5
2009-12-31,209550.0
2009-11-30,207172.0
2009-10-31,222185.0
2009-09-30,230739.4
2009-08-31,230965.0
2009-07-31,215950.0
2009-06-30,220050.0
2009-05-31,230850.0
2009-04-30,224199.5
2009-03-31,230330.5
2009-02-28,249865.0
2009-01-31,274600.0
2008-12-31,273150.0
2008-11-30,257850.0
2008-10-31,226750.0
2008-09-30,227385.0
2008-08-31,242890.0
2008-07-31,250025.0
2008-06-30,249350.0
2008-05-31,232320.0
2008-04-30,250530.0
2008-03-31,254450.0
2008-02-29,213650.0
2008-01-31,224750.0
2007-12-31,242385.0
2007-11-30,252840.0
2007-10-31,242325.0
2007-09-30,246350.0
2007-08-31,226492.5
2007-07-31,220727.7
2007-06-30,217913.8
2007-05-31,217974.0
2007-04-30,212860.0
2007-03-31,209285.0
2007-02-28,221515.0
2007-01-31,223650.0
2006-12-31,201735.0
2006-11-30,197215.0
2006-10-31,218700.0
2006-09-30,242500.0
2006-08-31,224375.0
2006-07-31,211101.2
2006-06-30,197462.8
2006-05-31,198769.0
2006-04-30,192050.0
2006-03-31,159475.0
2006-02-28,162675.0
2006-01-31,166775.0
2005-12-31,163975.0
2005-11-30,176250.0
2005-10-31,164050.0
2005-09-30,167700.0
2005-08-31,189485.0
2005-07-31,193965.0
2005-06-30,175497.5
2005-05-31,158512.5
2005-04-30,161725.0
2005-03-31,161340.0
2005-02-28,151575.0
2005-01-31,147985.0
2004-12-31,141865.0
2004-11-30,138550.0
2004-10-31,139350.0
2004-09-30,147635.0
2004-08-31,159158.25
2004-07-31,164584.25
2004-06-30,155877.5
2004-05-31,146700.0
2004-04-30,158144.05
2004-03-31,158469.45
2004-02-29,154313.5
2004-01-31,130225.0
2003-12-31,136531.65
2003-11-30,139898.85
2003-10-31,145105.5
2003-09-30,148450.0
2003-08-31,147525.0
2003-07-31,144375.0
2003-06-30,145624.0
2003-05-31,151606.0
2003-04-30,145475.0
2003-03-31,143705.0
2003-02-28,136800.0
2003-01-31,138857.35
2002-12-31,132467.15
2002-11-30,132034.5
2002-10-31,137675.0
2002-09-30,134965.0
2002-08-31,127750.0
2002-07-31,132450.0
2002-06-30,139735.0
2002-05-31,150050.0
2002-04-30,133311.7647
2002-03-31,126923.0769
2002-01-31,135875.0
2001-12-31,135250.0
2001-11-30,138764.7059
2001-10-31,126538.4615
2001-08-31,134650.0
2001-07-31,140125.0
2001-06-30,131017.5
2001-05-31,132432.5
2001-04-30,133050.0
2001-03-31,126970.5882
2001-02-28,115500.0
2000-11-30,142700.0
2000-10-31,134915.0
2000-09-30,129200.0
2000-08-31,129450.0
2000-07-31,131785.0
2000-06-30,136715.0
2000-05-31,133764.7059
2000-04-30,125000.0
1999-04-30,94950.0
