Date,Value
2015-06-30,850.0
2015-05-31,700.0
2015-04-30,795.0
2015-03-31,750.0
2015-02-28,750.0
2015-01-31,725.0
2014-12-31,700.0
2014-11-30,695.0
2014-10-31,695.0
2014-09-30,695.0
2014-08-31,695.0
2014-07-31,695.0
2014-06-30,725.0
2014-05-31,675.0
2014-04-30,675.0
2014-03-31,700.0
2014-02-28,700.0
2014-01-31,725.0
2013-12-31,675.0
2013-11-30,750.0
2013-10-31,800.0
2013-09-30,750.0
2013-08-31,695.0
2013-07-31,700.0
2013-06-30,750.0
2013-05-31,750.0
2013-04-30,695.0
2013-03-31,735.0
2013-02-28,750.0
2013-01-31,750.0
2012-12-31,750.0
2012-11-30,750.0
2012-10-31,720.0
2012-09-30,720.0
2012-08-31,695.0
2012-07-31,700.0
2012-06-30,755.0
2012-05-31,700.0
2012-04-30,847.0
2012-03-31,847.0
2012-02-29,795.0
2012-01-31,800.0
2011-12-31,995.0
2011-11-30,767.0
2011-10-31,900.0
2011-09-30,930.0
