Date,Value
2015-09-30,262300.0
2015-08-31,264300.0
2015-07-31,254000.0
2015-06-30,266400.0
2015-05-31,269600.0
2015-04-30,264200.0
2015-03-31,257400.0
2015-02-28,247700.0
2015-01-31,248100.0
2014-12-31,243900.0
2014-11-30,237700.0
2014-10-31,231700.0
2014-09-30,227300.0
2014-08-31,223700.0
2014-07-31,220000.0
2014-06-30,216100.0
2014-05-31,212400.0
2014-04-30,212400.0
2014-03-31,216300.0
2014-02-28,217700.0
2014-01-31,213000.0
2013-12-31,205300.0
2013-11-30,198700.0
2013-10-31,193500.0
2013-09-30,190100.0
2013-08-31,188700.0
2013-07-31,190100.0
2013-06-30,191800.0
2013-05-31,192000.0
2013-04-30,191300.0
2013-03-31,190600.0
2013-02-28,189700.0
2013-01-31,189800.0
2012-12-31,190400.0
2012-11-30,191400.0
2012-10-31,192400.0
2012-09-30,193200.0
2012-08-31,192200.0
2012-07-31,190600.0
2012-06-30,189700.0
2012-05-31,190000.0
2012-04-30,189600.0
2012-03-31,188000.0
2012-02-29,187600.0
2012-01-31,188900.0
2011-12-31,190400.0
2011-11-30,191900.0
2011-10-31,193000.0
2011-09-30,192500.0
2011-08-31,191900.0
2011-07-31,192400.0
2011-06-30,193400.0
2011-05-31,194400.0
2011-04-30,195900.0
2011-03-31,196200.0
2011-02-28,196400.0
2011-01-31,198700.0
2010-12-31,203000.0
2010-11-30,207500.0
2010-10-31,212400.0
2010-09-30,216100.0
2010-08-31,217100.0
2010-07-31,217200.0
2010-06-30,217800.0
2010-05-31,217800.0
2010-04-30,217200.0
2010-03-31,217000.0
2010-02-28,216800.0
2010-01-31,216000.0
2009-12-31,216300.0
2009-11-30,217800.0
2009-10-31,218500.0
2009-09-30,217900.0
2009-08-31,218200.0
2009-07-31,219500.0
2009-06-30,220400.0
2009-05-31,220200.0
2009-04-30,219500.0
2009-03-31,219100.0
2009-02-28,219400.0
2009-01-31,216600.0
2008-12-31,214300.0
2008-11-30,214500.0
2008-10-31,216200.0
2008-09-30,217800.0
2008-08-31,221500.0
2008-07-31,224200.0
2008-06-30,225700.0
2008-05-31,225000.0
2008-04-30,223400.0
2008-03-31,222000.0
2008-02-29,221700.0
2008-01-31,223100.0
2007-12-31,225500.0
2007-11-30,226800.0
2007-10-31,227300.0
2007-09-30,228200.0
2007-08-31,229300.0
2007-07-31,229400.0
2007-06-30,230200.0
2007-05-31,233600.0
2007-04-30,236600.0
2007-03-31,237700.0
2007-02-28,237300.0
2007-01-31,236800.0
2006-12-31,233600.0
2006-11-30,227900.0
2006-10-31,223000.0
2006-09-30,220000.0
2006-08-31,215800.0
2006-07-31,211000.0
2006-06-30,206700.0
2006-05-31,203000.0
2006-04-30,200600.0
2006-03-31,198400.0
2006-02-28,197200.0
2006-01-31,196700.0
2005-12-31,195400.0
2005-11-30,193200.0
2005-10-31,190000.0
2005-09-30,186500.0
2005-08-31,181200.0
2005-07-31,174700.0
2005-06-30,167400.0
2005-05-31,162500.0
2005-04-30,159300.0
2005-03-31,157300.0
2005-02-28,154000.0
2005-01-31,149300.0
2004-12-31,144700.0
2004-11-30,141500.0
2004-10-31,139000.0
2004-09-30,137000.0
2004-08-31,136000.0
2004-07-31,136200.0
2004-06-30,136900.0
2004-05-31,136600.0
2004-04-30,135200.0
2004-03-31,134400.0
2004-02-29,134100.0
2004-01-31,133000.0
2003-12-31,131900.0
2003-11-30,131900.0
2003-10-31,131900.0
2003-09-30,131300.0
2003-08-31,130300.0
2003-07-31,129400.0
2003-06-30,127800.0
2003-05-31,125900.0
2003-04-30,124600.0
2003-03-31,124300.0
2003-02-28,124400.0
2003-01-31,125500.0
2002-12-31,127000.0
2002-11-30,127600.0
2002-10-31,127400.0
2002-09-30,126500.0
2002-08-31,125800.0
2002-07-31,125700.0
2002-06-30,126600.0
2002-05-31,127600.0
2002-04-30,129000.0
2002-03-31,129100.0
2002-02-28,127200.0
2002-01-31,125500.0
2001-12-31,125400.0
2001-11-30,124300.0
2001-10-31,122700.0
2001-09-30,122900.0
2001-08-31,125500.0
2001-07-31,127200.0
2001-06-30,125400.0
2001-05-31,123300.0
2001-04-30,122300.0
2001-03-31,120700.0
2001-02-28,119600.0
2001-01-31,120300.0
2000-12-31,120900.0
2000-11-30,121300.0
2000-10-31,120500.0
2000-09-30,119100.0
2000-08-31,119600.0
2000-07-31,122500.0
2000-06-30,129200.0
2000-05-31,135700.0
2000-04-30,137800.0
2000-03-31,137300.0
2000-02-29,138100.0
2000-01-31,137800.0
1999-12-31,136500.0
1999-11-30,136700.0
1999-10-31,138800.0
1999-09-30,140700.0
1999-08-31,139900.0
1999-07-31,138700.0
1999-06-30,138600.0
1999-05-31,138100.0
1999-04-30,138100.0
1999-03-31,139200.0
1999-02-28,139300.0
1999-01-31,138900.0
1998-12-31,138400.0
1998-11-30,136700.0
1998-10-31,136900.0
1998-09-30,139800.0
1998-08-31,139800.0
1998-07-31,137000.0
1998-06-30,134900.0
1998-05-31,133900.0
1998-04-30,132600.0
1998-03-31,133100.0
1998-02-28,134700.0
1998-01-31,134800.0
1997-12-31,135300.0
1997-11-30,137700.0
1997-10-31,139600.0
1997-09-30,139000.0
1997-08-31,137900.0
1997-07-31,138400.0
1997-06-30,138300.0
1997-05-31,136500.0
1997-04-30,135800.0
1997-03-31,137000.0
1997-02-28,137400.0
1997-01-31,136800.0
1996-12-31,136500.0
1996-11-30,136700.0
1996-10-31,136500.0
1996-09-30,136000.0
1996-08-31,135200.0
1996-07-31,133500.0
1996-06-30,130800.0
1996-05-31,129200.0
1996-04-30,127200.0
