Date,Value
2015-09-30,153300.0
2015-08-31,150500.0
2015-07-31,148600.0
2015-06-30,149700.0
2015-05-31,147100.0
2015-04-30,146000.0
2015-03-31,144800.0
2015-02-28,145000.0
2015-01-31,143800.0
2014-12-31,143100.0
2014-11-30,142000.0
2014-10-31,140200.0
2014-09-30,139000.0
2014-08-31,138400.0
2014-07-31,137700.0
2014-06-30,136900.0
2014-05-31,136200.0
2014-04-30,135500.0
2014-03-31,135000.0
2014-02-28,134700.0
2014-01-31,133800.0
2013-12-31,132800.0
2013-11-30,131800.0
2013-10-31,130600.0
2013-09-30,129000.0
2013-08-31,127300.0
2013-07-31,126000.0
2013-06-30,124700.0
2013-05-31,123000.0
2013-04-30,121300.0
2013-03-31,119800.0
2013-02-28,118700.0
2013-01-31,117600.0
2012-12-31,116500.0
2012-11-30,114900.0
2012-10-31,113300.0
2012-09-30,112600.0
2012-08-31,112300.0
2012-07-31,111600.0
2012-06-30,110900.0
2012-05-31,110900.0
2012-04-30,110900.0
2012-03-31,110100.0
2012-02-29,109400.0
2012-01-31,109200.0
2011-12-31,109200.0
2011-11-30,109600.0
2011-10-31,110600.0
2011-09-30,112300.0
2011-08-31,114400.0
2011-07-31,116800.0
2011-06-30,118800.0
2011-05-31,120200.0
2011-04-30,121700.0
2011-03-31,123300.0
2011-02-28,124500.0
2011-01-31,125300.0
2010-12-31,126600.0
2010-11-30,127800.0
2010-10-31,128900.0
2010-09-30,130200.0
2010-08-31,131700.0
2010-07-31,133000.0
2010-06-30,133900.0
2010-05-31,134800.0
2010-04-30,135600.0
2010-03-31,136700.0
2010-02-28,137700.0
2010-01-31,138300.0
2009-12-31,138300.0
2009-11-30,138600.0
2009-10-31,139400.0
2009-09-30,140400.0
2009-08-31,140900.0
2009-07-31,140900.0
2009-06-30,140900.0
2009-05-31,141200.0
2009-04-30,142700.0
2009-03-31,145000.0
2009-02-28,147700.0
2009-01-31,150000.0
2008-12-31,152400.0
2008-11-30,155200.0
2008-10-31,158000.0
2008-09-30,159200.0
2008-08-31,159400.0
2008-07-31,160300.0
2008-06-30,162600.0
2008-05-31,165500.0
2008-04-30,167500.0
2008-03-31,168000.0
2008-02-29,168300.0
2008-01-31,169500.0
2007-12-31,171100.0
2007-11-30,172400.0
2007-10-31,173300.0
2007-09-30,173900.0
2007-08-31,174200.0
2007-07-31,174600.0
2007-06-30,174700.0
2007-05-31,174400.0
2007-04-30,174100.0
2007-03-31,174300.0
2007-02-28,174600.0
2007-01-31,174400.0
2006-12-31,173900.0
2006-11-30,173300.0
2006-10-31,172600.0
2006-09-30,172400.0
2006-08-31,172700.0
2006-07-31,172700.0
2006-06-30,172000.0
2006-05-31,171200.0
2006-04-30,170500.0
2006-03-31,169400.0
2006-02-28,167500.0
2006-01-31,165300.0
2005-12-31,163500.0
2005-11-30,162100.0
2005-10-31,160000.0
2005-09-30,157400.0
2005-08-31,154800.0
2005-07-31,152200.0
2005-06-30,149700.0
2005-05-31,146800.0
2005-04-30,143700.0
2005-03-31,141100.0
2005-02-28,139200.0
2005-01-31,137700.0
2004-12-31,136000.0
2004-11-30,134200.0
2004-10-31,132500.0
2004-09-30,131200.0
2004-08-31,130200.0
2004-07-31,129400.0
2004-06-30,128400.0
2004-05-31,127700.0
2004-04-30,126800.0
2004-03-31,125700.0
2004-02-29,124800.0
2004-01-31,124100.0
2003-12-31,123200.0
2003-11-30,121900.0
2003-10-31,120600.0
2003-09-30,119200.0
2003-08-31,118000.0
2003-07-31,117000.0
2003-06-30,116000.0
2003-05-31,115300.0
2003-04-30,114800.0
2003-03-31,114500.0
2003-02-28,114100.0
2003-01-31,113600.0
2002-12-31,113000.0
2002-11-30,112600.0
2002-10-31,112700.0
2002-09-30,112900.0
2002-08-31,112800.0
2002-07-31,112600.0
2002-06-30,112500.0
2002-05-31,112400.0
2002-04-30,112200.0
2002-03-31,112200.0
2002-02-28,112100.0
2002-01-31,112000.0
2001-12-31,112100.0
2001-11-30,112100.0
2001-10-31,112200.0
2001-09-30,112200.0
2001-08-31,111900.0
2001-07-31,111700.0
2001-06-30,111800.0
2001-05-31,111700.0
2001-04-30,111900.0
2001-03-31,112500.0
2001-02-28,112800.0
2001-01-31,112400.0
2000-12-31,112200.0
2000-11-30,112100.0
2000-10-31,112200.0
2000-09-30,112300.0
2000-08-31,112400.0
2000-07-31,112400.0
2000-06-30,112200.0
2000-05-31,111800.0
2000-04-30,111400.0
2000-03-31,111400.0
2000-02-29,111400.0
2000-01-31,111300.0
1999-12-31,111200.0
1999-11-30,111300.0
1999-10-31,111200.0
1999-09-30,111400.0
1999-08-31,112300.0
1999-07-31,113100.0
1999-06-30,113600.0
1999-05-31,114100.0
1999-04-30,113700.0
1999-03-31,112500.0
1999-02-28,111100.0
1999-01-31,110000.0
1998-12-31,109700.0
1998-11-30,109800.0
1998-10-31,109100.0
1998-09-30,108100.0
1998-08-31,107500.0
1998-07-31,107000.0
1998-06-30,106400.0
1998-05-31,106400.0
1998-04-30,107000.0
1998-03-31,107400.0
1998-02-28,107900.0
1998-01-31,108700.0
1997-12-31,109000.0
1997-11-30,108900.0
1997-10-31,109300.0
1997-09-30,109700.0
1997-08-31,109700.0
1997-07-31,109900.0
1997-06-30,110500.0
1997-05-31,111100.0
1997-04-30,111500.0
1997-03-31,111400.0
1997-02-28,110900.0
1997-01-31,109800.0
1996-12-31,108300.0
1996-11-30,107400.0
1996-10-31,107100.0
1996-09-30,106600.0
1996-08-31,105800.0
1996-07-31,104600.0
1996-06-30,102800.0
1996-05-31,101000.0
1996-04-30,99100.0
