hood,influence
Fremont,0.026979515862132097
Junction,0.1259948120605962
Central,0.0668701111387985
Ravenna,0.01962375403704559
Garfield,0.03791487209859002
Seaview,0.12855111179935405
Green Lake,0.02071536430707507
Minor,0.07143638412679514
Roxhill,0.2750206909975962
Rainier View,0.14437094666170114
Denny - Blaine,0.047608496383121555
Broadview,0.016010466485144308
Pioneer Square,0.08319423582314725
Beacon Hill,0.9078894271788038
Lower Queen Anne,0.044059563370648196
High Point,0.26021212425830365
Industrial District,0.4030767567742291
Blue Ridge,0.133743246226718
Maple Leaf,0.015812050114581786
Greenwood,0.02052266468718126
Broadmoor,0.03571124532144205
View Ridge,0.016662877482297268
East Queen Anne,0.034255841246646594
Whittier Heights,0.024752798283215846
Riverview,0.5883851690873214
Denny Triangle,0.0434696378779222
Wedgwood,0.016130421944912446
Eastlake,0.033479372506975365
North Delridge,0.21105811764937946
Capitol Hill,0.04641115349872222
Atlantic,0.0970934959096047
South Park,6.815621694325174
Matthews Beach,0.014622117219054584
Mt. Baker,0.14514235628274158
Magnolia,0.027899134856734713
Sunset Hill,0.031127896438166047
Montlake,0.03322167575345679
Victory Heights,0.01311645028863972
Phinney Ridge,0.02216787467435006
Windermere,0.01949332236929115
Haller Lake,0.012957135199658304
Highland Park,0.7404118309756732
Admiral,0.0805609479406216
Little Saigon,0.073253700641891
Olympic Manor,0.073253700641891
South Beacon Hill,0.915844548962336
Fauntleroy,0.175106844051385
Westlake,0.03927348174109191
Leschi,0.0831066946866777
South Lake Union,0.04555292675700673
Cedar Park,0.011441934580572341
Interbay,0.0298794066503707
Madrona,0.05705959367264696
Downtown,0.073253700641891
North Queen Anne,0.029977320616069864
Portage Bay,0.030616855942078053
Laurelhurst,0.023455205818083497
Dunlap,0.3495100537749967
Judkins Park,0.1077602126536274
International District,0.09294383529569449
Arbor Heights,0.1440637414246751
South Delridge,0.39524821816195865
Ballard,0.027812134773356124
Pinehurst,0.013311090488520782
Loyal Heights,0.030895841058144233
Olympic Hills,0.011430528341637523
Cascade,0.04950685793604029
Wallingford,0.024645035536168276
Uptown,0.044059563370648196
Crown Hill,0.03155825777889206
Yesler Terrace ,0.08231133813580956
Waterfront,0.07283931752970171
Alki,0.066866793173334
Hawthorne Hills,0.01961840251983403
Lakewood,0.2156367999236336
Gatewood,0.17912085126937255
Jackson Place ,0.09248594770349199
Madison Valley,0.04791590233215068
Hillman City,0.44900055004952805
Bryant,0.02050731208162039
North Beach,0.133743246226718
Roosevelt,0.01956131699562753
North College Park,0.017112768896865135
Bitter Lake,0.012891442390332122
Brighton,0.44503047148945063
West Queen Anne,0.035848594409801156
Georgetown,6.057489318341412
Genesee,0.11055397893333643
Belltown,0.05659668030961711
Holly Park ,0.7894122857634943
Madison Park,0.03569029716719498
Rainier Beach,0.19458444985376466
Fairmount Park,0.17457345418689996
Meadowbrook,0.013494511169084109
West Woodland,0.02357026885513196
Northgate,0.014212742735998488
Seward Park,0.2479290100370739
University District,0.023859324650720604
First Hill,0.0680894805687097
Columbia City,0.3612421981967559
North Beacon Hill,0.1923501661406617
