hood,influence
Fremont,0.008391434713047973
Junction,0.02267330282953821
Central,0.025907646308360892
Ravenna,0.006863553197727101
Garfield,0.011787770327337063
Seaview,0.02186788624102221
Green Lake,0.006356399758792839
Minor,0.02547433471409921
Roxhill,0.03435770396187913
Rainier View,0.09415046419942419
Denny - Blaine,0.018968005945693308
Broadview,0.003566521806041916
Pioneer Square,0.024703940378421097
Beacon Hill,0.33439372594660444
Lower Queen Anne,0.013132451085738506
High Point,0.03504969171022052
Industrial District,0.06615485151393266
Blue Ridge,0.004266295279525767
Maple Leaf,0.005032410365470644
Greenwood,0.004722318165626872
Broadmoor,0.013654066374551826
View Ridge,0.0061402265980987246
East Queen Anne,0.010721430985915529
Whittier Heights,0.005335546517113492
Riverview,0.054361801177862684
Denny Triangle,0.014352731302942259
Wedgwood,0.005679758380955592
Eastlake,0.011247594668409395
North Delridge,0.03375344330037461
Capitol Hill,0.015705767250371698
Atlantic,0.03432084802769642
South Park,0.1309781225889195
Matthews Beach,0.00527888855925295
Mt. Baker,0.06340658705505654
Magnolia,0.007828254537923705
Sunset Hill,0.004839773880670975
Montlake,0.011981085476502876
Victory Heights,0.00433278228869762
Phinney Ridge,0.006164585027602813
Windermere,0.007466940962491385
Haller Lake,0.0038180834039772157
Highland Park,0.06042480776198625
Admiral,0.017206462234778144
Little Saigon,0.02255043059557925
Olympic Manor,0.02255043059557925
South Beacon Hill,1.6613817865828657
Fauntleroy,0.02601563029596575
Westlake,0.01247362015072579
Leschi,0.03365905948531046
South Lake Union,0.014683699563732102
Cedar Park,0.0038663505916653068
Interbay,0.008631763879291914
Madrona,0.022892514119406685
Downtown,0.02255043059557925
North Queen Anne,0.008992039382216476
Portage Bay,0.010526536794980923
Laurelhurst,0.008837065697114684
Dunlap,0.7028822154883555
Judkins Park,0.04126117462511892
International District,0.029133709169821467
Arbor Heights,0.023821405425360404
South Delridge,0.04239315519997535
Ballard,0.0052564358998200885
Pinehurst,0.004165240107691741
Loyal Heights,0.0050975795095318625
Olympic Hills,0.0037718087546681272
Cascade,0.016018848109581683
Wallingford,0.008082205258111623
Uptown,0.013132451085738506
Crown Hill,0.004568423533506312
Yesler Terrace ,0.02704493989459186
Waterfront,0.021410033120925768
Alki,0.014357880100012464
Hawthorne Hills,0.007307783115998251
Lakewood,0.20513114634140292
Gatewood,0.026447605767715866
Jackson Place ,0.032369489975369696
Madison Valley,0.018541504864426555
Hillman City,1.1005172997686845
Bryant,0.007488312763060808
North Beach,0.004266295279525767
Roosevelt,0.006524032171472244
North College Park,0.00490096994378011
Bitter Lake,0.0034770120033167803
Brighton,7.285909925956057
West Queen Anne,0.010537712854589766
Georgetown,0.15945709554169019
Genesee,0.02049018543020354
Belltown,0.016995419530248055
Holly Park ,8.382739107134931
Madison Park,0.014170404474989911
Rainier Beach,0.16061694310823654
Fairmount Park,0.027299699217285468
Meadowbrook,0.004613935393289955
West Woodland,0.006531486796139761
Northgate,0.0043940389782420805
Seward Park,0.5333333934250241
University District,0.008199275007118515
First Hill,0.022062316283588727
Columbia City,0.27744088970931896
North Beacon Hill,0.06201288916221112
