hood,influence
Fremont,0.17021963849317462
Junction,2197.5474829541795
Central,0.7606137990539076
Ravenna,0.0964093501201983
Garfield,0.3276776749323262
Seaview,4.318480017920781
Green Lake,0.10183752404224737
Minor,1.276866124383422
Roxhill,0.4720782085363726
Rainier View,0.1004015405517131
Denny - Blaine,0.35707775485873217
Broadview,0.04814365963167445
Pioneer Square,17.22764092483471
Beacon Hill,0.4350838966473636
Lower Queen Anne,0.4357193154355825
High Point,2.0121155742999997
Industrial District,1.0744731188452588
Blue Ridge,0.06497398671462215
Maple Leaf,0.06798966239168008
Greenwood,0.06971475269990682
Broadmoor,0.23487448316508427
View Ridge,0.07363944301756394
East Queen Anne,0.26879816172847437
Whittier Heights,0.08715816533339069
Riverview,0.8168353049901054
Denny Triangle,0.4312048228938841
Wedgwood,0.07181881615881167
Eastlake,0.25027647994985847
North Delridge,2.962355932398672
Capitol Hill,0.48811183742986186
Atlantic,2.966499086924626
South Park,0.3343228824094326
Matthews Beach,0.062127826587340895
Mt. Baker,0.9942022908132994
Magnolia,0.1863553249144857
Sunset Hill,0.0817312199678383
Montlake,0.22834770914751112
Victory Heights,0.05361356821780204
Phinney Ridge,0.10460994904038165
Windermere,0.088868112020861
Haller Lake,0.04897506536923909
Highland Park,0.34909236757405054
Admiral,1.9672128714980162
Little Saigon,2.169929701455318
Olympic Manor,2.169929701455318
South Beacon Hill,0.2183379392342506
Fauntleroy,0.4347899231251081
Westlake,0.3520977369320302
Leschi,0.9251759096414527
South Lake Union,0.4843747188965738
Cedar Park,0.0453044792090661
Interbay,0.20817231371596684
Madrona,0.4892824798033537
Downtown,2.169929701455318
North Queen Anne,0.2088381740147257
Portage Bay,0.20782003799741053
Laurelhurst,0.11989692097157537
Dunlap,0.1608894277413006
Judkins Park,1.787878469803367
International District,6.990271864626791
Arbor Heights,0.24753464904521622
South Delridge,0.44027536360645725
Ballard,0.08948168779829663
Pinehurst,0.053077190715662845
Loyal Heights,0.08502353575087018
Olympic Hills,0.04495399090461494
Cascade,0.5897550062752945
Wallingford,0.14330453918429503
Uptown,0.4357193154355825
Crown Hill,0.0693205825307838
Yesler Terrace ,3.0159159511997515
Waterfront,1.8716082507306244
Alki,1.3808790817932572
Hawthorne Hills,0.09249568894708689
Lakewood,0.32195876256179623
Gatewood,1.1423260837475644
Jackson Place ,2.8966495999787227
Madison Valley,0.39216759304951804
Hillman City,0.28430804467377546
Bryant,0.10067191604575397
North Beach,0.06497398671462215
Roosevelt,0.09626924714647134
North College Park,0.06957138310666924
Bitter Lake,0.04502060664149184
Brighton,0.20033361291367852
West Queen Anne,0.28966026963750724
Georgetown,0.44802003346453323
Genesee,29.241159741910376
Belltown,0.8014881436038629
Holly Park ,0.24556966512258555
Madison Park,0.21671068257266596
Rainier Beach,0.11778419857523698
Fairmount Park,5.453168483361476
Meadowbrook,0.05617398451838858
West Woodland,0.11998397657295203
Northgate,0.057402268903536585
Seward Park,0.22286053945943
University District,0.13363344277324396
First Hill,1.5140193227261498
Columbia City,0.41127936699908363
North Beacon Hill,2.4648040043473314
