hood,influence
Fremont,50.62709333295359
Junction,87.66056071292715
Central,36.579831350525275
Ravenna,11.657635003234406
Garfield,185.05509152494912
Seaview,8.429385899978199
Green Lake,14.13119010241454
Minor,60.400546527520156
Roxhill,4.204598044815134
Rainier View,2.263775806026655
Denny - Blaine,29.816707964474492
Broadview,4.414855733425116
Pioneer Square,114.19685713487549
Beacon Hill,9.149612977736707
Lower Queen Anne,175.23136361858496
High Point,8.206484500661574
Industrial District,17.38258811647588
Blue Ridge,5.7137212878351455
Maple Leaf,8.100985640634212
Greenwood,7.213640273291485
Broadmoor,28.896159120866773
View Ridge,6.520430309601636
East Queen Anne,104.19110769527097
Whittier Heights,9.9205715756575
Riverview,7.340321671036632
Denny Triangle,628.9378684124558
Wedgwood,6.982689716823877
Eastlake,82.43080131991549
North Delridge,12.244671796937244
Capitol Hill,311.33130096806667
Atlantic,37.58144006179309
South Park,5.3167483131009945
Matthews Beach,5.296244514103209
Mt. Baker,18.237115992233008
Magnolia,51.56419106643923
Sunset Hill,7.0287338844145815
Montlake,43.5880609857745
Victory Heights,5.2871411014174265
Phinney Ridge,16.73128903614564
Windermere,7.799964809215048
Haller Lake,6.8105294937954
Highland Park,4.33907191694533
Admiral,12.284556461008384
Little Saigon,804.5508736386801
Olympic Manor,804.5508736386801
South Beacon Hill,5.338653727240702
Fauntleroy,3.7279480861936007
Westlake,348.3734922940159
Leschi,25.68774428326559
South Lake Union,4751.42599209494
Cedar Park,3.6987389070931695
Interbay,27.19592290306439
Madrona,30.240247728897415
Downtown,804.5508736386801
North Queen Anne,41.61231966424062
Portage Bay,48.81025185881862
Laurelhurst,12.9843376671572
Dunlap,3.616710403521419
Judkins Park,28.09427275496362
International District,58.54959153702305
Arbor Heights,2.8290762809199315
South Delridge,4.387276411370595
Ballard,9.196391229428958
Pinehurst,7.13418799016116
Loyal Heights,8.589380678625487
Olympic Hills,3.7969391428512496
Cascade,2376.983012388567
Wallingford,25.48791166897961
Uptown,175.23136361858496
Crown Hill,7.0019101651576285
Yesler Terrace ,75.43093390436752
Waterfront,153.3991816955526
Alki,8.608978773973819
Hawthorne Hills,8.961668954998304
Lakewood,8.465703690862663
Gatewood,5.479550521909267
Jackson Place ,41.31879495832039
Madison Valley,42.12078450935355
Hillman City,7.234068049046433
Bryant,10.874405670571763
North Beach,5.7137212878351455
Roosevelt,23.69684881960209
North College Park,8.065193412143486
Bitter Lake,5.570148381535066
Brighton,4.693786358061206
West Queen Anne,56.577772940983984
Georgetown,9.637785135221321
Genesee,23.37320382045491
Belltown,393.90558609273086
Holly Park ,7.318737341091671
Madison Park,21.370940454532686
Rainier Beach,2.641404958771247
Fairmount Park,10.332206546172205
Meadowbrook,5.514072780863949
West Woodland,17.362289160813578
Northgate,64.36107485127457
Seward Park,5.494949212375151
University District,22.271465397142915
First Hill,255.34861703179115
Columbia City,10.750703208691121
North Beacon Hill,19.730664394419342
