hood,influence
Fremont,28.657162582576426
Junction,6.051677030738631
Central,20.11067782952179
Ravenna,6.53529050756106
Garfield,32.73065724475347
Seaview,3.6139198489518005
Green Lake,7.776826148267827
Minor,694.2784714006865
Roxhill,2.0196846672278785
Rainier View,1.0271411945578697
Denny - Blaine,10.988354762163928
Broadview,1.9663155085345472
Pioneer Square,157.26132417631806
Beacon Hill,3.997922344361865
Lower Queen Anne,38.19610853831933
High Point,4.141409844817209
Industrial District,50.949550079234086
Blue Ridge,2.6100493622376124
Maple Leaf,7.356792155156382
Greenwood,4.3610790663264885
Broadmoor,9.557832656336526
View Ridge,3.1861239694646004
East Queen Anne,32.55659809924496
Whittier Heights,4.9445604909208125
Riverview,3.666382937419953
Denny Triangle,47.48635634024825
Wedgwood,3.551840697581914
Eastlake,41.34716744516918
North Delridge,25.744500105347555
Capitol Hill,55.958773632603936
Atlantic,49.5086258473506
South Park,2.4031353299208553
Matthews Beach,2.4807455879970615
Mt. Baker,9.447363848590957
Magnolia,18.463142298985797
Sunset Hill,6.286649891460966
Montlake,13.813113179194298
Victory Heights,3.14719157379591
Phinney Ridge,7.4198061888747375
Windermere,3.456805857499175
Haller Lake,8.456181462252104
Highland Park,2.0402910812912793
Admiral,18.970990309023815
Little Saigon,402.46459307128436
Olympic Manor,402.46459307128436
South Beacon Hill,2.166589533944797
Fauntleroy,1.7842920973998047
Westlake,95.78064269000829
Leschi,15.839412069825883
South Lake Union,73.04601334011888
Cedar Park,1.951372697506264
Interbay,9.027863410602
Madrona,13.06379122251538
Downtown,402.46459307128436
North Queen Anne,14.73842750826394
Portage Bay,26.294318378691482
Laurelhurst,6.22078127665228
Dunlap,1.6308042671711995
Judkins Park,18.17291589395942
International District,65.53470695430714
Arbor Heights,1.3345734949482668
South Delridge,2.0957553799760427
Ballard,5.23018327021828
Pinehurst,8.528286239513244
Loyal Heights,4.535888401987302
Olympic Hills,2.2084687538098677
Cascade,119.06692328699197
Wallingford,19.406943013319058
Uptown,38.19610853831933
Crown Hill,3.2467704355121887
Yesler Terrace ,76.03955917395301
Waterfront,791.1906841787701
Alki,5.313926208243718
Hawthorne Hills,4.31888704985976
Lakewood,3.857407370540318
Gatewood,2.634335378816794
Jackson Place ,76.83460924241048
Madison Valley,13.82917394112395
Hillman City,2.977249444650193
Bryant,6.2028423658116285
North Beach,2.6100493622376124
Roosevelt,6.234249429590275
North College Park,5.8551728559821505
Bitter Lake,2.226017426349763
Brighton,2.1431792790025384
West Queen Anne,16.004333860549703
Georgetown,3.604073909858894
Genesee,5.447041422489176
Belltown,314.8594873976319
Holly Park ,3.146538096156624
Madison Park,7.453186328552578
Rainier Beach,1.1987049870039181
Fairmount Park,4.2647037345872025
Meadowbrook,2.60416022739873
West Woodland,7.308241843944577
Northgate,8.333220536227318
Seward Park,2.4691240950209488
University District,15.369442702315805
First Hill,167.667078561805
Columbia City,4.9240874218564725
North Beacon Hill,19.03773127971909
