hood,influence
Fremont,12.450601002996324
Junction,38.59488373236682
Central,13.256921681414054
Ravenna,9.080472243020065
Garfield,31.47564733697524
Seaview,2.883638370595148
Green Lake,12.83842261739783
Minor,31.52321100850235
Roxhill,2.765748308178978
Rainier View,1.0316467979161712
Denny - Blaine,8.677680180952072
Broadview,2.8855050158176265
Pioneer Square,131.53451214530017
Beacon Hill,3.463731191054662
Lower Queen Anne,44.172930654505535
High Point,4.2126879598624365
Industrial District,8.735608040933071
Blue Ridge,4.46252706467351
Maple Leaf,12.297426073220171
Greenwood,6.17529226174888
Broadmoor,8.045425465551698
View Ridge,3.7787252971718006
East Queen Anne,21.14353270515439
Whittier Heights,12.052640695286101
Riverview,2.96376248049461
Denny Triangle,50.02855710882868
Wedgwood,118.41415118250477
Eastlake,19.122478665422086
North Delridge,4.661024190192456
Capitol Hill,69.70215461926732
Atlantic,27.155076355856032
South Park,2.0100684300500067
Matthews Beach,3.5636746313601204
Mt. Baker,6.354716462534519
Magnolia,671.2779313558448
Sunset Hill,7.577681319897004
Montlake,11.475684155458396
Victory Heights,9.985546838700168
Phinney Ridge,14.523127173362246
Windermere,3.540841120209127
Haller Lake,7.142532468883431
Highland Park,1.7798368375439264
Admiral,9.954495771950045
Little Saigon,670.9115127171857
Olympic Manor,670.9115127171857
South Beacon Hill,2.7926190916353746
Fauntleroy,1.6891294254259424
Westlake,134.0573778857447
Leschi,10.237401377286103
South Lake Union,73.83004789325294
Cedar Park,4.197594487272525
Interbay,13.063929412971026
Madrona,9.761966723538563
Downtown,670.9115127171857
North Queen Anne,13.288403495877612
Portage Bay,19.512936250042408
Laurelhurst,5.632774915109257
Dunlap,7.638789909273917
Judkins Park,11.487955083662623
International District,59.466455670912694
Arbor Heights,1.2048311777920213
South Delridge,2.4403117882527146
Ballard,24.69407021940081
Pinehurst,38.91558972308576
Loyal Heights,14.827204356239367
Olympic Hills,4.425640985882902
Cascade,162.21521598407716
Wallingford,16.67256974087788
Uptown,44.172930654505535
Crown Hill,5.685713709790879
Yesler Terrace ,46.35331705279753
Waterfront,160.8689183313471
Alki,3.651467181004402
Hawthorne Hills,4.5460701507812615
Lakewood,2.9504106788730984
Gatewood,2.1907231444644504
Jackson Place ,23.90785235947109
Madison Valley,10.733243129602037
Hillman City,2.583653232915281
Bryant,6.106106960925663
North Beach,4.46252706467351
Roosevelt,18.19856407083649
North College Park,9.299874853642592
Bitter Lake,3.116362221630967
Brighton,3.41262005754412
West Queen Anne,21.79027136156849
Georgetown,3.4553236740261064
Genesee,6.254918712567202
Belltown,460.0929187335525
Holly Park ,2.4370934696898723
Madison Park,6.280791978523086
Rainier Beach,1.5402020889563213
Fairmount Park,3.4497358972800853
Meadowbrook,5.343259517067841
West Woodland,124.90583069673694
Northgate,3230.885554683813
Seward Park,2.2841817101658757
University District,62.49213167456713
First Hill,102.12682852370722
Columbia City,3.8461092037903386
North Beacon Hill,8.421107788668417
