hood,influence
Fremont,8.953346171760877
Junction,5.790523050496354
Central,10.740380933327195
Ravenna,3.0976145637290973
Garfield,11.703652713209697
Seaview,2.978675570192414
Green Lake,6.229307547829459
Minor,526.2629574955115
Roxhill,1.5672474187769874
Rainier View,0.4351441613835844
Denny - Blaine,4.60303788701325
Broadview,2.828719561039083
Pioneer Square,119.14704176433473
Beacon Hill,1.5340672392535784
Lower Queen Anne,21.32434937737889
High Point,3.3273234890211514
Industrial District,2.9856241573366606
Blue Ridge,7.033598780940548
Maple Leaf,3.342728675936858
Greenwood,6.78668378682212
Broadmoor,3.727464062576143
View Ridge,1.6226348874833654
East Queen Anne,8.006057538114478
Whittier Heights,53.107317925490825
Riverview,1.6334155582771157
Denny Triangle,80.36118872572142
Wedgwood,1.9533359227669531
Eastlake,6.840940590190077
North Delridge,4.312846485329679
Capitol Hill,15.710237801787104
Atlantic,76.25984216973227
South Park,1.009682352558017
Matthews Beach,1.4514420259529839
Mt. Baker,3.9707028893075296
Magnolia,335.24481527342203
Sunset Hill,11.818869042533114
Montlake,5.6840507578116615
Victory Heights,2.38641940444781
Phinney Ridge,17.32214146681276
Windermere,1.8681451054573146
Haller Lake,11.753870688480571
Highland Park,1.2257356412558733
Admiral,2.1149363036453046
Little Saigon,445.9060489207816
Olympic Manor,445.9060489207816
South Beacon Hill,1.1528527780550248
Fauntleroy,0.9317553579019741
Westlake,16.639299475449125
Leschi,8.685492115992746
South Lake Union,26.46119549965114
Cedar Park,2.1635714732551636
Interbay,4.698112846178503
Madrona,5.985100022667593
Downtown,445.9060489207816
North Queen Anne,6.076105207880014
Portage Bay,5.883026148523627
Laurelhurst,3.0777101476305955
Dunlap,1.1235619485013455
Judkins Park,10.829703328983804
International District,51.21331305374155
Arbor Heights,0.645065282695466
South Delridge,1.7572722922851804
Ballard,74.18266677497112
Pinehurst,4.875700534431882
Loyal Heights,56.96633258775409
Olympic Hills,2.0414631605322726
Cascade,23.279788098282342
Wallingford,6.386739922745591
Uptown,21.32434937737889
Crown Hill,9.31961111381367
Yesler Terrace ,40.643119676414955
Waterfront,298.51847263966675
Alki,1.5383572245024117
Hawthorne Hills,2.8138553975263094
Lakewood,1.3871087743458508
Gatewood,1.4917848162071508
Jackson Place ,968.0763428727145
Madison Valley,5.804949120810849
Hillman City,1.1436286276093126
Bryant,3.684146671399481
North Beach,7.033598780940548
Roosevelt,3.6791443345123427
North College Park,5.083680196820369
Bitter Lake,4.548421615211691
Brighton,0.9564288572361638
West Queen Anne,6.176477432106154
Georgetown,1.6777244402881621
Genesee,3.222766023952366
Belltown,31.61033310855285
Holly Park ,1.3132193844000852
Madison Park,3.910144537357445
Rainier Beach,0.5132001385779016
Fairmount Park,9.111041466024986
Meadowbrook,1.8462704202161888
West Woodland,22.161785639289203
Northgate,5.598494751487941
Seward Park,0.9799012358642404
University District,19.96980058404062
First Hill,65.14100028338203
Columbia City,1.556668891557465
North Beacon Hill,5.346649815319644
