hood,influence
Fremont,260.57835863239814
Junction,4.757941938575211
Central,31.796330536633192
Ravenna,13.58148314770103
Garfield,57.5897293808298
Seaview,3.379926573520521
Green Lake,23.466675816193383
Minor,243.48653184493395
Roxhill,2.0721879233641674
Rainier View,1.2463571901866206
Denny - Blaine,19.33388898622576
Broadview,3.9322270194924087
Pioneer Square,85.41503247580184
Beacon Hill,4.7178939987996715
Lower Queen Anne,143.93215433515627
High Point,3.54195351816808
Industrial District,6.153477345999083
Blue Ridge,7.853545788050205
Maple Leaf,7.778919556109281
Greenwood,11.320099411711064
Broadmoor,18.879621146273934
View Ridge,5.908705734451999
East Queen Anne,64.8246444863831
Whittier Heights,18.306901797474175
Riverview,3.3456517130577277
Denny Triangle,266.76420378796297
Wedgwood,6.701243710307555
Eastlake,71.39345321940884
North Delridge,5.468929359399052
Capitol Hill,156.22144292348298
Atlantic,25.28199814280455
South Park,2.8959494766624054
Matthews Beach,4.742270287252077
Mt. Baker,9.000572788623758
Magnolia,11.876919725480308
Sunset Hill,11.94623767719033
Montlake,33.60588851243018
Victory Heights,5.022378150765697
Phinney Ridge,29.181148210684974
Windermere,6.661703380355948
Haller Lake,4.210754128041544
Highland Park,2.1517919945841073
Admiral,7.393807543594212
Little Saigon,1231.3851638001333
Olympic Manor,1231.3851638001333
South Beacon Hill,2.408794047038771
Fauntleroy,1.8647125124151465
Westlake,131.22953804062638
Leschi,17.425279504694196
South Lake Union,107.85848274603295
Cedar Park,5.257555608974417
Interbay,19.019091032838144
Madrona,32.22979819182148
Downtown,1231.3851638001333
North Queen Anne,35.08573523460544
Portage Bay,61.63561982533154
Laurelhurst,12.007143533251776
Dunlap,1.9168374937366117
Judkins Park,15.613014177198117
International District,45.22419827138891
Arbor Heights,1.467214181357071
South Delridge,2.1518604464809084
Ballard,22.348712643920557
Pinehurst,7.172932523955083
Loyal Heights,17.57097234507592
Olympic Hills,3.699997274764691
Cascade,125.07290335113936
Wallingford,82.6728850497984
Uptown,143.93215433515627
Crown Hill,406.06570224331347
Yesler Terrace ,67.6961180802402
Waterfront,173.5989858792907
Alki,4.108301271682575
Hawthorne Hills,8.436210495315539
Lakewood,4.954313307912031
Gatewood,2.5379521189030783
Jackson Place ,30.195080628025092
Madison Valley,25.61369940966999
Hillman City,3.797121671565536
Bryant,11.610264446644734
North Beach,7.853545788050205
Roosevelt,16.288512718796905
North College Park,9.192152853092864
Bitter Lake,3.5463008129853635
Brighton,2.4779210784563315
West Queen Anne,25.889576097725712
Georgetown,4.272346355819837
Genesee,4.259444405955066
Belltown,229.25416041785525
Holly Park ,3.4924799348591202
Madison Park,13.719783876269139
Rainier Beach,1.4398305999193897
Fairmount Park,3.87995650217553
Meadowbrook,4.716446144147677
West Woodland,48.25961464628426
Northgate,7.2708527384834625
Seward Park,3.0420841246380643
University District,53.68922540408488
First Hill,138.0039417102107
Columbia City,140.50349088524197
North Beacon Hill,10.215172098358776
