hood,influence
Fremont,46.27216709668626
Junction,59.60391032805208
Central,32.92037048042374
Ravenna,13.11892054851128
Garfield,45.46345588538386
Seaview,6.389872025707808
Green Lake,23.1847503190522
Minor,76.08049769794971
Roxhill,3.9426693421197108
Rainier View,1.975613836694827
Denny - Blaine,19.724601710826306
Broadview,6.2498158250917335
Pioneer Square,260.7760182683226
Beacon Hill,7.681664088922664
Lower Queen Anne,149.3933056985231
High Point,8.52803108272315
Industrial District,29.14868359728707
Blue Ridge,15.024815477145959
Maple Leaf,10.303439188456673
Greenwood,16.67509656611223
Broadmoor,17.321888644155877
View Ridge,7.369971488744139
East Queen Anne,37.54474082922751
Whittier Heights,59.278999366930194
Riverview,7.849132219509851
Denny Triangle,4215.642464898352
Wedgwood,9.596939304819157
Eastlake,56.80674476926785
North Delridge,16.87724313466381
Capitol Hill,136.45358583097885
Atlantic,54.789389971555316
South Park,4.721837908663527
Matthews Beach,5.699837421719392
Mt. Baker,15.550622466858883
Magnolia,23.268554833307107
Sunset Hill,27.995899963372672
Montlake,25.519102534153912
Victory Heights,5.8173762959504325
Phinney Ridge,69.04904565620957
Windermere,8.249950008324378
Haller Lake,7.202435579654702
Highland Park,4.061551164796911
Admiral,9.70965518025772
Little Saigon,1407.9324084430864
Olympic Manor,1407.9324084430864
South Beacon Hill,4.249810996373595
Fauntleroy,3.4107397134185833
Westlake,148.1722386826763
Leschi,25.087356917343893
South Lake Union,165.7648179282738
Cedar Park,5.115095339043651
Interbay,24.607883275259507
Madrona,22.860277385028986
Downtown,1407.9324084430864
North Queen Anne,33.062296483565476
Portage Bay,30.476363537912384
Laurelhurst,16.24850797596851
Dunlap,4.639915947306129
Judkins Park,28.79107636734238
International District,258.30170404489166
Arbor Heights,2.555831928236954
South Delridge,4.157367495917118
Ballard,74.46953567664102
Pinehurst,6.713131961760867
Loyal Heights,54.74738811064768
Olympic Hills,5.004844518325729
Cascade,143.87813592968865
Wallingford,23.580555563371504
Uptown,149.3933056985231
Crown Hill,18.712642669587122
Yesler Terrace ,204.53588939566052
Waterfront,232.57139493428937
Alki,6.724842957711673
Hawthorne Hills,9.510784949870583
Lakewood,6.523395036649477
Gatewood,4.994562122611002
Jackson Place ,66.0432069913887
Madison Valley,25.408509482207204
Hillman City,6.128044603587805
Bryant,12.084120526581486
North Beach,15.024815477145959
Roosevelt,14.09336038336202
North College Park,12.284702846493982
Bitter Lake,5.747610637946367
Brighton,4.2112376357864765
West Queen Anne,36.150095814780336
Georgetown,6.8699340922613175
Genesee,10.287806393910763
Belltown,160.12073719939676
Holly Park ,4.612081062353645
Madison Park,13.451755608674548
Rainier Beach,2.334403683637964
Fairmount Park,8.300289074103288
Meadowbrook,5.643995102328746
West Woodland,489.04837860174837
Northgate,8.644512620319222
Seward Park,4.608432756745678
University District,64.53256238597011
First Hill,825.7514785881926
Columbia City,9.388503661050422
North Beacon Hill,22.887413741591484
