hood,influence
Fremont,16.66299466395437
Junction,3.4208479783287955
Central,15.285739936655004
Ravenna,70.67553951752535
Garfield,19.339931056379594
Seaview,2.4199189972643667
Green Lake,12.938950188038081
Minor,104.08297519556926
Roxhill,1.7360109829906156
Rainier View,1.0427371078456142
Denny - Blaine,9.276183534024813
Broadview,8.49719362543038
Pioneer Square,59.30387277052665
Beacon Hill,3.8431985400991433
Lower Queen Anne,27.31934431293392
High Point,3.214876014753873
Industrial District,23.266677781742064
Blue Ridge,7.339632674745256
Maple Leaf,15.645432108695914
Greenwood,12.9141065139528
Broadmoor,9.172321630031409
View Ridge,9.867506637509358
East Queen Anne,15.497968401042707
Whittier Heights,14.649265243726694
Riverview,3.335671186921453
Denny Triangle,34.33373279245156
Wedgwood,12.632335909172639
Eastlake,18.22432979974016
North Delridge,8.230992888888355
Capitol Hill,56.879654207177225
Atlantic,67.894365875203
South Park,2.5167703512030233
Matthews Beach,13.65931295560136
Mt. Baker,6.972950751936717
Magnolia,6.3817863795508805
Sunset Hill,10.46315877066629
Montlake,12.70706944572592
Victory Heights,35.81316045833198
Phinney Ridge,14.848864870640313
Windermere,7.670355298554878
Haller Lake,22.670359140252817
Highland Park,1.885709570744413
Admiral,3.7237821844252914
Little Saigon,185.90472873505772
Olympic Manor,185.90472873505772
South Beacon Hill,1.945234125921696
Fauntleroy,1.5175721778666444
Westlake,48.02882461334734
Leschi,11.666198213792903
South Lake Union,47.602650702156446
Cedar Park,181.48647164588985
Interbay,8.69838517436551
Madrona,10.574684159150669
Downtown,185.90472873505772
North Queen Anne,11.379976195656045
Portage Bay,18.43115160275083
Laurelhurst,14.463023144557601
Dunlap,1.6249004813346402
Judkins Park,14.634149235665042
International District,63.81150943020124
Arbor Heights,1.1950131556204153
South Delridge,1.8444807022073428
Ballard,24.029702969118794
Pinehurst,27.52906930445055
Loyal Heights,16.866461862398538
Olympic Hills,134.01216325097937
Cascade,78.3968090635758
Wallingford,597.0388790762179
Uptown,27.31934431293392
Crown Hill,9.26276610367487
Yesler Terrace ,61.895731568963505
Waterfront,86.91582253621303
Alki,2.7364803353823794
Hawthorne Hills,9.862644615970645
Lakewood,3.1048629618033403
Gatewood,2.0556969694163962
Jackson Place ,67.87511970570877
Madison Valley,11.223819563561353
Hillman City,2.651121808922973
Bryant,14.197701947242377
North Beach,7.339632674745256
Roosevelt,12.633188426343127
North College Park,13.209155524542334
Bitter Lake,12.337662625559876
Brighton,1.8949638008384264
West Queen Anne,11.523751226553212
Georgetown,11.663235593463579
Genesee,3.022498877713111
Belltown,235.70962753377398
Holly Park ,2.212263646865051
Madison Park,7.464545383644691
Rainier Beach,1.2370867819132771
Fairmount Park,3.0098035524684126
Meadowbrook,27.80385042295131
West Woodland,33.599729794806294
Northgate,23.073347256175154
Seward Park,2.218157226889889
University District,36.088961855517894
First Hill,1427.433860671499
Columbia City,5.121842604889116
North Beacon Hill,13.195877912514208
