hood,influence
Fremont,41.13553146142737
Junction,7.333565935965259
Central,43.529090417605794
Ravenna,8.36481331689678
Garfield,86.2672250311399
Seaview,5.846710587691799
Green Lake,9.989432540660244
Minor,80.88880225036702
Roxhill,3.550584599383907
Rainier View,2.000166007658727
Denny - Blaine,52.17443668001383
Broadview,3.5774747393149395
Pioneer Square,166.38450921679188
Beacon Hill,7.438546968606328
Lower Queen Anne,105.9590294071806
High Point,6.456295915834336
Industrial District,14.302112318156784
Blue Ridge,4.826376123491028
Maple Leaf,6.252897922895771
Greenwood,6.102087142996444
Broadmoor,25.938103521699933
View Ridge,4.996988389299542
East Queen Anne,56.292710152088034
Whittier Heights,8.22695512613653
Riverview,5.926820139736606
Denny Triangle,576.4054745077441
Wedgwood,5.140527259313163
Eastlake,55.084227578381906
North Delridge,9.680613393113749
Capitol Hill,354.960883819146
Atlantic,487.8145258922053
South Park,4.4778797158586965
Matthews Beach,4.0355624982376685
Mt. Baker,20.779050593200417
Magnolia,30.950401541383034
Sunset Hill,6.729656507516093
Montlake,32.12620106315406
Victory Heights,4.239905973160918
Phinney Ridge,11.153755245598537
Windermere,6.132626183872559
Haller Lake,4.860590009445497
Highland Park,3.6020041468548256
Admiral,8.581096919622373
Little Saigon,1044.557075537486
Olympic Manor,1044.557075537486
South Beacon Hill,6.475560577197361
Fauntleroy,3.1264178760227845
Westlake,135.7851007908748
Leschi,36.783481818214
South Lake Union,1202.6581788687854
Cedar Park,3.632559105908468
Interbay,21.615927730649567
Madrona,41.9675600054563
Downtown,1044.557075537486
North Queen Anne,32.4962854165397
Portage Bay,33.82887752147335
Laurelhurst,10.197104149101344
Dunlap,3.3827516813248737
Judkins Park,58.41128357065103
International District,118.23465332071626
Arbor Heights,2.336862933591975
South Delridge,3.6356539544131414
Ballard,8.14001195166656
Pinehurst,6.359108749949656
Loyal Heights,7.50528048547618
Olympic Hills,3.1642289611223964
Cascade,47453.13836113092
Wallingford,24.96349850793086
Uptown,105.9590294071806
Crown Hill,6.156822687119267
Yesler Terrace ,136.93211497042265
Waterfront,170.72963433733895
Alki,6.551728867574557
Hawthorne Hills,6.943080832854726
Lakewood,8.044553300194499
Gatewood,6.1889922183924515
Jackson Place ,459.0073063640435
Madison Valley,50.12247707446371
Hillman City,6.504033246903008
Bryant,8.455309447465359
North Beach,4.826376123491028
Roosevelt,8.749930020960251
North College Park,6.103075347924607
Bitter Lake,10.30861964436001
Brighton,4.218416454822197
West Queen Anne,35.07508388029159
Georgetown,5.963945723272495
Genesee,6.481885122398932
Belltown,416.0914753337235
Holly Park ,5.0692023211228605
Madison Park,24.09466262524751
Rainier Beach,2.3714270525314816
Fairmount Park,6.649742763535077
Meadowbrook,3.9184242723025653
West Woodland,19.740220229931445
Northgate,35.08920737907544
Seward Park,5.2206597537765775
University District,19.6659293613707
First Hill,248.92128292112088
Columbia City,14.87446633443393
North Beacon Hill,25.38502967861729
