hood,influence
Fremont,194.94107891021912
Junction,204.4778858252871
Central,65.14374573417984
Ravenna,24.08786226625725
Garfield,172.52780929924097
Seaview,11.230170202271312
Green Lake,33.40192854143327
Minor,118.33101479537538
Roxhill,7.421464597009183
Rainier View,3.715405647767174
Denny - Blaine,42.9337522042031
Broadview,8.21519224683507
Pioneer Square,539.6224050479298
Beacon Hill,13.628722395687623
Lower Queen Anne,282.9277918364667
High Point,12.728402815045108
Industrial District,29.35592835754779
Blue Ridge,11.167082222328425
Maple Leaf,13.622189395035642
Greenwood,16.937255166348876
Broadmoor,41.02919166065855
View Ridge,12.819939584931515
East Queen Anne,186.39736601840974
Whittier Heights,22.4768074971512
Riverview,13.976229643530505
Denny Triangle,290.51097156302166
Wedgwood,13.112781553166897
Eastlake,234.79738932234025
North Delridge,18.10829655068854
Capitol Hill,221.6351903033867
Atlantic,92.52094493975062
South Park,15.297843662948603
Matthews Beach,9.949061875898735
Mt. Baker,27.27334400781652
Magnolia,27.78361715387645
Sunset Hill,14.887503980812774
Montlake,67.12289185045267
Victory Heights,9.492504105666388
Phinney Ridge,34.133434472166876
Windermere,14.03084978157207
Haller Lake,14.17903814330314
Highland Park,7.6940004786302225
Admiral,24.533395367372396
Little Saigon,2193.803766971138
Olympic Manor,2193.803766971138
South Beacon Hill,7.500898457095636
Fauntleroy,6.213218396342994
Westlake,758.7839104098581
Leschi,50.805729889056934
South Lake Union,541.9062118330937
Cedar Park,21.189828422689704
Interbay,48.96158979071839
Madrona,71.66153343708385
Downtown,2193.803766971138
North Queen Anne,83.03040191183517
Portage Bay,132.88845932372982
Laurelhurst,23.340285350320624
Dunlap,5.998826108784794
Judkins Park,53.61244369407527
International District,175.055411505287
Arbor Heights,4.731699805372632
South Delridge,7.722336902340784
Ballard,23.032988145785456
Pinehurst,10.789300363680782
Loyal Heights,19.758580748859657
Olympic Hills,8.556097569094304
Cascade,1868.8914199706346
Wallingford,104.4881378173719
Uptown,282.9277918364667
Crown Hill,13.895468902518145
Yesler Terrace ,170.7714005738509
Waterfront,763.6615294390093
Alki,17.420734489388664
Hawthorne Hills,16.76633667632515
Lakewood,11.6938066997785
Gatewood,8.634644848157796
Jackson Place ,136.92356737847362
Madison Valley,53.41671934544462
Hillman City,9.711563713004903
Bryant,21.39717200686639
North Beach,11.167082222328425
Roosevelt,27.624627708624477
North College Park,14.887267552901218
Bitter Lake,15.624969557374977
Brighton,7.064166028183528
West Queen Anne,82.23765482386743
Georgetown,16.89794642203964
Genesee,16.633276686986427
Belltown,1626.87870667165
Holly Park ,8.258346362819584
Madison Park,30.923012009342017
Rainier Beach,4.34926065968898
Fairmount Park,13.595271187431267
Meadowbrook,9.403896159545337
West Woodland,51.262401592204135
Northgate,13.676646084958795
Seward Park,8.305517682302565
University District,214.57741661614784
First Hill,587.9441910995432
Columbia City,13.823707354059168
North Beacon Hill,77.31112909427058
