hood,influence
Fremont,43.093734747327915
Junction,8.952044716945348
Central,36.95997354576433
Ravenna,15.511691872193207
Garfield,180.34795398993492
Seaview,6.364942328403256
Green Lake,16.236633536535646
Minor,65.8178149982293
Roxhill,4.358090609247608
Rainier View,2.3469221316476307
Denny - Blaine,26.584718254156254
Broadview,5.108940873935437
Pioneer Square,312.1200468200185
Beacon Hill,9.109138773839978
Lower Queen Anne,396.1710252786394
High Point,7.672525238597768
Industrial District,16.8175779823837
Blue Ridge,5.873876367793205
Maple Leaf,13.932520974347245
Greenwood,7.945084087161448
Broadmoor,24.7633426143576
View Ridge,7.210798003877301
East Queen Anne,94.48787867818251
Whittier Heights,9.474403529848248
Riverview,7.577868063809322
Denny Triangle,269.23360424524003
Wedgwood,36.271369340253116
Eastlake,248.0682219920905
North Delridge,10.65047799593868
Capitol Hill,185.16409991625196
Atlantic,44.240345536290135
South Park,5.037778701060067
Matthews Beach,6.003220593057302
Mt. Baker,18.91463358375477
Magnolia,17.13459420992904
Sunset Hill,7.039442065445397
Montlake,34.6769674967036
Victory Heights,10.936888334072524
Phinney Ridge,13.602748230562176
Windermere,8.097767417073166
Haller Lake,5.898288537897126
Highland Park,4.298316503661715
Admiral,12.664288652647189
Little Saigon,866.8173199768996
Olympic Manor,866.8173199768996
South Beacon Hill,4.627406532560391
Fauntleroy,5.548161464718653
Westlake,396.9972998818884
Leschi,27.063667787027576
South Lake Union,791.8241317498326
Cedar Park,5.629439618947125
Interbay,28.005539649912194
Madrona,28.736439222006343
Downtown,866.8173199768996
North Queen Anne,41.270163043500276
Portage Bay,45.395258170386285
Laurelhurst,13.162939971165477
Dunlap,3.7652272875738433
Judkins Park,31.13904787647063
International District,212.34523192663684
Arbor Heights,3.055241361274279
South Delridge,4.43726476568794
Ballard,8.854671155675952
Pinehurst,8.928664637560972
Loyal Heights,8.26219312065925
Olympic Hills,4.616020917668494
Cascade,794.3288291794698
Wallingford,35.24773934329879
Uptown,396.1710252786394
Crown Hill,8.347178723765055
Yesler Terrace ,108.45364735845394
Waterfront,2459.5193047519306
Alki,9.750194661455257
Hawthorne Hills,9.77786288246331
Lakewood,7.815793440273657
Gatewood,5.224164826496615
Jackson Place ,50.47609358507366
Madison Valley,33.48557201329916
Hillman City,10.14955452348228
Bryant,12.722258425322533
North Beach,5.873876367793205
Roosevelt,18.85353148034901
North College Park,14.859468108721089
Bitter Lake,5.29554037363949
Brighton,5.244618420331587
West Queen Anne,63.35247171652199
Georgetown,7.604488508904808
Genesee,8.306603277519512
Belltown,846.7506610252175
Holly Park ,5.697547791970964
Madison Park,18.842528121720747
Rainier Beach,2.7670618114256436
Fairmount Park,7.392269573677523
Meadowbrook,8.292834782015653
West Woodland,15.499280770567058
Northgate,334.4601141290827
Seward Park,6.0531426777558845
University District,518.7388750060127
First Hill,228.92442185019516
Columbia City,11.802475746882543
North Beacon Hill,21.86986585242364
