hood,influence
Fremont,114.3457688512715
Junction,38.19726806828799
Central,211.74455140105616
Ravenna,39.11291224391402
Garfield,629.961051886031
Seaview,27.34624083289056
Green Lake,43.90466879186703
Minor,502.73169465148675
Roxhill,25.86386671805829
Rainier View,10.166976984451226
Denny - Blaine,128.57745220879366
Broadview,13.055238878936423
Pioneer Square,2840.618007112546
Beacon Hill,37.16255415687664
Lower Queen Anne,585.6185217025175
High Point,32.732444729822376
Industrial District,64.51159023988626
Blue Ridge,18.717353418568255
Maple Leaf,22.6892007960024
Greenwood,25.20747703086072
Broadmoor,104.18268475973795
View Ridge,23.046471083035907
East Queen Anne,300.4558202283993
Whittier Heights,31.00599131291376
Riverview,31.47726745913275
Denny Triangle,853.9370687919188
Wedgwood,23.33060320504311
Eastlake,265.3746057880323
North Delridge,48.361433187554766
Capitol Hill,816.4891062666163
Atlantic,297.29316634882485
South Park,24.498410657457217
Matthews Beach,18.457531975747433
Mt. Baker,90.15961335983992
Magnolia,58.17991520111126
Sunset Hill,23.899998375094114
Montlake,134.36550776884943
Victory Heights,15.619910397150342
Phinney Ridge,42.00818027016654
Windermere,29.637430638628434
Haller Lake,13.919669272224787
Highland Park,19.60145087912693
Admiral,50.06869829995638
Little Saigon,182778.59040961965
Olympic Manor,182778.59040961965
South Beacon Hill,19.900910079361974
Fauntleroy,16.955440229812577
Westlake,1849.0790078897367
Leschi,155.41728103201308
South Lake Union,1640.9819262762278
Cedar Park,12.27846807352206
Interbay,91.1623546918962
Madrona,149.56669927744562
Downtown,182778.59040961965
North Queen Anne,126.47777867026066
Portage Bay,143.27552791084767
Laurelhurst,44.537501628244854
Dunlap,15.898841792711318
Judkins Park,168.7782147304396
International District,906.271842219011
Arbor Heights,12.750215168338533
South Delridge,24.219285533115325
Ballard,30.227385483785998
Pinehurst,15.530529715428402
Loyal Heights,27.794139696261922
Olympic Hills,12.199720616245916
Cascade,2721.744101785848
Wallingford,78.86775878264649
Uptown,585.6185217025175
Crown Hill,22.14806276564173
Yesler Terrace ,1035.3785588602927
Waterfront,2186.452130579645
Alki,34.58530621741118
Hawthorne Hills,31.69203841300943
Lakewood,36.06878287884435
Gatewood,22.68830012607163
Jackson Place ,352.77552540846773
Madison Valley,163.27235977357407
Hillman City,28.88893991151873
Bryant,37.13504346100472
North Beach,18.717353418568255
Roosevelt,47.568955675244766
North College Park,23.871540180989054
Bitter Lake,12.714446809809347
Brighton,19.888778779259
West Queen Anne,192.32228696670057
Georgetown,50.15161346865223
Genesee,35.30237030206719
Belltown,2320.428719194165
Holly Park ,23.024317118595473
Madison Park,80.80296711118851
Rainier Beach,11.845481712710177
Fairmount Park,32.17276350165802
Meadowbrook,16.534193469922617
West Woodland,51.46182902715076
Northgate,17.534163437060776
Seward Park,25.465611811446077
University District,142.2507011484348
First Hill,2883.8777909206224
Columbia City,53.96861142444762
North Beacon Hill,122.2310826668999
