hood,influence
Fremont,59.498167855287015
Junction,33.4267378719321
Central,84.8597257815311
Ravenna,27.114879329816524
Garfield,261.2291302826272
Seaview,16.64832085860822
Green Lake,27.00051898167317
Minor,160.01423069547624
Roxhill,10.53339546235518
Rainier View,5.724555685251064
Denny - Blaine,57.539906165987176
Broadview,10.067292780659715
Pioneer Square,687.421671770383
Beacon Hill,17.250008380978628
Lower Queen Anne,1528.2452469056252
High Point,17.094209238588856
Industrial District,40.676044014300395
Blue Ridge,12.55283046031526
Maple Leaf,23.364928897703244
Greenwood,16.809722333652502
Broadmoor,50.43680181766485
View Ridge,17.61021998900935
East Queen Anne,151.94546254832434
Whittier Heights,21.544945698825785
Riverview,15.717554269999681
Denny Triangle,424.09610374249513
Wedgwood,21.572478913844193
Eastlake,109.28229942731735
North Delridge,24.796694214986786
Capitol Hill,348.94803608484307
Atlantic,125.20554199723574
South Park,11.380795161715367
Matthews Beach,20.68910662224709
Mt. Baker,37.88004899624652
Magnolia,40.4750246028214
Sunset Hill,16.180260997277593
Montlake,73.00051563118991
Victory Heights,77.89893443116674
Phinney Ridge,27.66169861680515
Windermere,17.54239891546259
Haller Lake,17.39617217848729
Highland Park,9.820435361098413
Admiral,28.23043761166382
Little Saigon,1185.5921181671772
Olympic Manor,1185.5921181671772
South Beacon Hill,10.005410369281957
Fauntleroy,8.947002187841735
Westlake,317.6371063576058
Leschi,63.082968977484164
South Lake Union,1106.3417748813954
Cedar Park,364.1930973319511
Interbay,65.59117555733818
Madrona,64.04422338810366
Downtown,1185.5921181671772
North Queen Anne,81.16874427109539
Portage Bay,72.76036177169564
Laurelhurst,26.635653387187595
Dunlap,10.586698409462992
Judkins Park,67.71996312597618
International District,214.04688090134408
Arbor Heights,6.589881443468385
South Delridge,10.46702402522
Ballard,24.936601722965023
Pinehurst,32.191137836351025
Loyal Heights,20.107387235330005
Olympic Hills,84.56186174154051
Cascade,1663.6691676625871
Wallingford,53.803957571070235
Uptown,1528.2452469056252
Crown Hill,14.739887770247687
Yesler Terrace ,227.91318903329253
Waterfront,655.3895183036295
Alki,19.669690799316577
Hawthorne Hills,20.48342980045376
Lakewood,15.989111197462654
Gatewood,11.975009613284792
Jackson Place ,141.0731915195863
Madison Valley,72.38230989329743
Hillman City,13.155952823135118
Bryant,25.543341103725794
North Beach,12.55283046031526
Roosevelt,26.794325142931218
North College Park,19.673970338249127
Bitter Lake,11.034363382337837
Brighton,9.955942278135169
West Queen Anne,181.52796719855442
Georgetown,21.060464895754347
Genesee,23.858875585616296
Belltown,2465.4290912407896
Holly Park ,11.167292704288796
Madison Park,39.14169164643445
Rainier Beach,8.384950911794204
Fairmount Park,19.41227580693215
Meadowbrook,62.523704607966806
West Woodland,37.238501786013046
Northgate,31.970686474189726
Seward Park,11.47447054069883
University District,193.67645636922393
First Hill,553.9401917825605
Columbia City,17.838591208647564
North Beacon Hill,48.0692250471587
