year,month,cumulativeInfluence
2001,8,2.7318969373527033
2002,9,2.767035165769986
2002,10,2.8418585873936077
2003,7,2.842325971213557
2003,10,3.1767196971601614
2003,11,4.222562873528608
2003,12,5.130452300707411
2004,1,5.136082061305258
2004,2,5.702169742685462
2004,3,6.055548327192533
2004,4,7.790545813308975
2004,5,8.189528863399746
2004,6,8.284299834329591
2004,7,10.33119790583136
2004,8,10.973240733356887
2004,9,11.40832463000425
2004,10,13.38456898684405
2004,11,13.577535807864718
2004,12,29.706683160585023
2005,1,30.22276684308732
2005,2,30.27179038465522
2005,3,48.296727588741334
2005,4,52.84538760345261
2005,5,55.77611104584923
2005,6,55.78297276324973
2005,7,57.627922487388645
2005,8,59.851444779898046
2005,9,61.36121473749064
2005,10,64.35650770990898
2005,11,67.58120077556217
2005,12,68.73386465368291
2006,1,73.07654216340703
2006,2,75.2668516316659
2006,3,85.08602197784137
2006,4,93.12818915368499
2006,5,103.53511892226156
2006,6,109.8162785862892
2006,7,116.81117578684662
2006,8,124.20749924689794
2006,9,133.8798357181457
2006,10,151.90852875930076
2006,11,159.49157302926443
2006,12,164.8887931886264
2007,1,170.31153971830727
2007,2,181.22668033404727
2007,3,195.1207159257084
2007,4,200.50427802937273
2007,5,216.86510218642042
2007,6,230.62156758179123
2007,7,242.56515623276624
2007,8,255.83896760798117
2007,9,264.39186145504675
2007,10,284.3799076218718
2007,11,292.7211594046324
2007,12,304.6924210121262
2008,1,323.26314657533146
2008,2,343.7030518915166
2008,3,351.14627570224826
2008,4,366.05908095351595
2008,5,385.189963039189
2008,6,393.1170064396534
2008,7,399.200693402219
2008,8,409.35691881961606
2008,9,423.0344830702361
2008,10,432.8763916905432
2008,11,441.1546833855416
2008,12,446.9480518635097
2009,1,459.9994165957222
2009,2,466.9609192976652
2009,3,476.1105322754019
2009,4,492.4640465006904
2009,5,499.23102956849715
2009,6,545.3163540012846
2009,7,553.9781952246966
2009,8,567.1478629125198
2009,9,575.1646148924949
2009,10,579.4379433397711
2009,11,589.6537385058156
2009,12,596.3013087974097
2010,1,635.0945338043799
2010,2,636.9361156622466
2010,3,649.9438193292945
2010,4,653.5739398900091
2010,5,663.6043179738722
2010,6,667.6022403182341
2010,7,687.0636909282097
2010,8,690.5274221192643
2010,9,711.0528691020307
2010,10,719.208269736215
2010,11,728.136382188679
2010,12,735.2497220884425
2011,1,749.3920146863821
2011,2,752.9955468855292
2011,3,763.0084408945801
2011,4,780.8893165377596
2011,5,792.8712665874216
2011,6,799.4009710037384
2011,7,804.1188650025381
2011,8,810.2761621605766
2011,9,822.1253383566279
2011,10,829.8070024455506
2011,11,835.9126045965929
2011,12,837.4466718358465
2012,1,845.5035229694438
2012,2,849.3467215095429
2012,3,856.6029130564066
2012,4,864.041460025013
2012,5,867.3549041979036
2012,6,873.1035743977627
2012,7,882.894291372129
2012,8,906.1414666644343
2012,9,920.5613350646939
2012,10,930.4759468400914
2012,11,934.5852966425152
2012,12,939.0326628030929
2013,1,945.8381919428625
2013,2,950.424911992042
2013,3,957.8848602593229
2013,4,968.8965908402417
2013,5,976.4897073791233
2013,6,1000.4927651765046
2013,7,1007.6365495597761
2013,8,1016.5997673798743
2013,9,1041.05791091824
2013,10,1077.6977471763994
2013,11,1198.8760674607427
2013,12,1209.2317130906208
2014,1,1224.8881570950884
2014,2,1241.5780080326326
2014,3,1251.1737612068232
2014,4,1261.4737889947778
2014,5,1272.4884260266324
2014,6,1280.4978583414243
2014,7,1314.934447730827
2014,8,1325.6976516788623
2014,9,1334.8067904527022
2014,10,1348.4355128483899
2014,11,1383.255725255973
2014,12,1395.359007202872
2015,1,1407.2704188944485
2015,2,1425.8475900280419
2015,3,1454.1813257396436
2015,4,1466.3741971407587
2015,5,1472.7997358045757
2015,6,1487.9146170533547
2015,7,1498.6080273575933
2015,8,1515.858035738572
2015,9,1553.0205898954487
2015,10,1561.6795751638795
2015,11,1569.3962183076833
2015,12,1575.575777093303
