year,month,cumulativeInfluence
2001,8,1.5257197878270161
2002,9,1.5568812296620202
2002,10,1.590855306662414
2003,7,1.5910398844821654
2003,10,1.6174874902498813
2003,11,5.444776936592802
2003,12,5.623897787862174
2004,1,5.626402683508943
2004,2,6.042728923155967
2004,3,6.2881351394235105
2004,4,7.010199225906132
2004,5,7.217399983335441
2004,6,7.259335992536583
2004,7,8.310052799286304
2004,8,8.664243876807847
2004,9,9.80656996055541
2004,10,10.505982152050843
2004,11,10.62334579214984
2004,12,21.24783444462546
2005,1,21.379394149470787
2005,2,21.421171519093683
2005,3,25.569025347921063
2005,4,27.686431053747878
2005,5,29.496486869912964
2005,6,29.50140460102641
2005,7,30.57934398040881
2005,8,32.061557632022534
2005,9,35.25566764657723
2005,10,37.17011632932037
2005,11,37.937621853535866
2005,12,38.45960997857607
2006,1,68.21808677160271
2006,2,69.71109180324004
2006,3,73.46451367698424
2006,4,76.82344306207573
2006,5,83.2034744984401
2006,6,88.52783961156274
2006,7,94.9846340818134
2006,8,99.18068194977036
2006,9,104.74835743063068
2006,10,111.41345069185729
2006,11,114.02513754260896
2006,12,116.90499223319094
2007,1,135.76532055692294
2007,2,143.83910754349034
2007,3,149.95253869323216
2007,4,153.0007405652663
2007,5,158.60090281277178
2007,6,163.4173845925346
2007,7,171.9467952795665
2007,8,181.51450255457365
2007,9,189.03605626507795
2007,10,221.2031771900818
2007,11,225.77758170538607
2007,12,237.07659892241168
2008,1,249.0049988965691
2008,2,273.4440760896913
2008,3,277.5218664243993
2008,4,289.43363733031117
2008,5,296.95835487903963
2008,6,302.373154927368
2008,7,307.2679538834982
2008,8,323.2882218872861
2008,9,333.4568382125492
2008,10,342.1804204356343
2008,11,354.0960656823632
2008,12,358.82223069107323
2009,1,364.71634904128996
2009,2,372.1489284370647
2009,3,377.628478958974
2009,4,388.84391980726264
2009,5,393.2071437188799
2009,6,440.48530457516523
2009,7,448.6484473104543
2009,8,452.57467271392085
2009,9,462.04977764329095
2009,10,464.5853559313718
2009,11,469.586951880265
2009,12,474.00710025169
2010,1,492.36131934447627
2010,2,493.4974840767344
2010,3,502.37813565024135
2010,4,507.9246606004847
2010,5,514.5638261096494
2010,6,517.1981614884662
2010,7,522.2520164182039
2010,8,524.4427395626683
2010,9,528.8587131471479
2010,10,534.6901708184502
2010,11,540.9465987558848
2010,12,546.4112476045887
2011,1,562.338887841674
2011,2,565.1122815283933
2011,3,571.4157386862715
2011,4,581.6373140729737
2011,5,590.0375024408027
2011,6,599.2388459129634
2011,7,601.7767980318664
2011,8,693.7228445227021
2011,9,700.1804038995434
2011,10,705.1749660221544
2011,11,708.8944220005371
2011,12,710.3862068167443
2012,1,714.6247671894026
2012,2,716.6804641588191
2012,3,720.0906849109521
2012,4,726.2796771293445
2012,5,728.2906181288872
2012,6,744.9439486553568
2012,7,751.6606746100757
2012,8,775.103514246864
2012,9,783.4839672260434
2012,10,792.9383695094284
2012,11,795.6734990081183
2012,12,797.7993803559698
2013,1,802.4014623884642
2013,2,806.3362474475231
2013,3,808.5113101742776
2013,4,823.1578001021286
2013,5,887.5633471008776
2013,6,895.4933526027337
2013,7,900.0131781445706
2013,8,915.9849631756798
2013,9,974.1141715935104
2013,10,995.0953292711648
2013,11,1014.6139436206392
2013,12,1022.2188755763732
2014,1,1031.9514837886184
2014,2,1041.9710119570145
2014,3,1047.5846025568785
2014,4,1053.734454682308
2014,5,1060.989225634734
2014,6,1085.8212270217377
2014,7,1105.7312850225462
2014,8,1113.4244851304097
2014,9,1118.6486499569064
2014,10,1127.2832948050643
2014,11,1146.9525765365481
2014,12,1154.3820359262004
2015,1,1161.1631756012105
2015,2,1172.4966833757505
2015,3,1187.200828045369
2015,4,1191.0366427025533
2015,5,1196.03011361631
2015,6,1201.8206982778308
2015,7,1207.5112648039226
2015,8,1219.4862744172074
2015,9,1242.174574543279
2015,10,1246.6169431726125
2015,11,1252.8000361485808
2015,12,1255.6519059282832
