year,month,cumulativeInfluence
2001,8,2.0317810762956072
2002,9,3.521892983047267
2002,10,3.532495148805659
2003,7,3.5325477786510633
2003,10,3.5389041784098563
2003,11,3.8917556021258135
2003,12,3.9124709664328887
2004,1,3.917034331872125
2004,2,7.044257136581617
2004,3,7.630054732212535
2004,4,15.921767702535176
2004,5,19.88378671347104
2004,6,19.966070912108023
2004,7,78.88676214389011
2004,8,79.79161384989156
2004,9,79.89345137393381
2004,10,84.19872380426939
2004,11,85.62888034337425
2004,12,103.41276960970043
2005,1,103.58143237623764
2005,2,105.08412298227177
2005,3,114.78552563783413
2005,4,118.61259020579323
2005,5,122.20932514124357
2005,6,122.22180436970764
2005,7,125.04353853914704
2005,8,127.73969762092436
2005,9,128.6498734652983
2005,10,131.39649781998526
2005,11,133.3218350923275
2005,12,135.3464747667981
2006,1,177.62455366694124
2006,2,187.92765752331
2006,3,198.48671774628139
2006,4,218.84544626293746
2006,5,243.7645918942697
2006,6,255.26707749789804
2006,7,270.1665078586607
2006,8,283.14655467514905
2006,9,290.81834982575083
2006,10,304.84788347380385
2006,11,310.01744651796986
2006,12,317.0631499113859
2007,1,329.71925161783315
2007,2,361.0270465023761
2007,3,376.2381864615168
2007,4,388.61568262672426
2007,5,407.95298623971723
2007,6,428.26864451615995
2007,7,472.10807519489026
2007,8,535.3727201844822
2007,9,557.2335171865968
2007,10,577.4114402218536
2007,11,617.5036120301589
2007,12,636.0982211641901
2008,1,795.6790900194474
2008,2,804.5777827337273
2008,3,812.8944005674407
2008,4,818.9819971148185
2008,5,837.3640440086189
2008,6,856.0770567640539
2008,7,868.7200732942155
2008,8,878.0213889528721
2008,9,887.1809558707484
2008,10,914.7525933370082
2008,11,918.6259396545646
2008,12,926.651240379538
2009,1,944.7178614190514
2009,2,957.2201256930259
2009,3,971.3513157954404
2009,4,1008.3807453435072
2009,5,1012.7284285306298
2009,6,1054.8695867712745
2009,7,1078.646068215183
2009,8,1102.8636149854867
2009,9,1110.5117032262544
2009,10,1122.7453296389272
2009,11,1130.7192023497566
2009,12,1140.786345566092
2010,1,1144.6894901864068
2010,2,1150.511513897178
2010,3,1165.9853789619578
2010,4,1173.5554920940451
2010,5,1194.8480809587556
2010,6,1202.6249071070235
2010,7,1212.960287520125
2010,8,1225.7987101375227
2010,9,1237.1207033956148
2010,10,1247.7758886276017
2010,11,1254.9509495184066
2010,12,1264.3786514099725
2011,1,1299.4963677602932
2011,2,1309.8075044458756
2011,3,1346.4427616242406
2011,4,1382.5206860441756
2011,5,1403.1514539184836
2011,6,1412.9161036101602
2011,7,1436.3827794263536
2011,8,1446.9555318386178
2011,9,1465.4249652118822
2011,10,1488.6097155309344
2011,11,1515.1288414155624
2011,12,1521.3581489633918
2012,1,1540.0978240727081
2012,2,1553.0367742607461
2012,3,1561.7441319257848
2012,4,1571.7335644664452
2012,5,1578.7989373171622
2012,6,1597.0505990955903
2012,7,1648.7667204044892
2012,8,1669.236574224389
2012,9,1684.1206474447872
2012,10,1693.5099997008683
2012,11,1717.5572569687977
2012,12,1722.8631310864862
2013,1,1732.9466073376439
2013,2,1766.2273061527942
2013,3,1780.786986290368
2013,4,1810.23083060964
2013,5,1828.3113539068693
2013,6,1847.7337377221684
2013,7,1858.0436290282332
2013,8,1904.8851360070937
2013,9,1926.1300494372783
2013,10,1982.6391477311315
2013,11,2017.8455852262887
2013,12,2032.9487797298636
2014,1,2074.622537047649
2014,2,2089.775579125512
2014,3,2107.248691137086
2014,4,2175.632510044886
2014,5,2193.9232353102484
2014,6,2203.9305171254186
2014,7,2244.9311756617717
2014,8,2307.7075000636305
2014,9,2323.944133600166
2014,10,2357.3460621415993
2014,11,2404.3090804869107
2014,12,2422.982532089179
2015,1,2435.5353082873335
2015,2,2468.456784046732
2015,3,2492.6989097579567
2015,4,2508.676423205493
2015,5,2532.6907552931157
2015,6,2577.3239638864766
2015,7,2589.2120197901822
2015,8,2616.2125387718556
2015,9,2660.117207563723
2015,10,2674.300958856534
2015,11,2695.8845469801167
2015,12,2699.0074153843516
