year,month,cumulativeInfluence
2001,8,4.770040842742782
2002,9,4.813731219848626
2002,10,5.146952495725496
2003,7,5.147202253036034
2003,10,5.213357104549966
2003,11,8.02525748130211
2003,12,8.428334238076339
2004,1,8.43566410960184
2004,2,9.432198534847805
2004,3,10.085558417361
2004,4,14.44018411707954
2004,5,14.811624013468421
2004,6,14.938156161146795
2004,7,17.08302776193439
2004,8,18.478244010740237
2004,9,19.552717129585496
2004,10,21.3801818560727
2004,11,21.547357179230087
2004,12,51.879996138245986
2005,1,52.249315805851055
2005,2,52.308405921972216
2005,3,113.35664731039603
2005,4,125.45521139155389
2005,5,130.18416500809462
2005,6,130.1953245364608
2005,7,132.4990934616973
2005,8,137.1110897759929
2005,9,140.1316558550534
2005,10,194.94713455499488
2005,11,199.56870037616682
2005,12,200.94423283823514
2006,1,212.30843477710198
2006,2,231.91970480052612
2006,3,247.97080586818032
2006,4,278.5276448759751
2006,5,296.4954864845348
2006,6,319.9955703646504
2006,7,340.06166283213287
2006,8,357.54228069239866
2006,9,421.88557320500297
2006,10,443.97104115294366
2006,11,454.28940892145846
2006,12,472.38047635184756
2007,1,488.7914157707652
2007,2,507.8636426714049
2007,3,531.9675829098703
2007,4,540.9200537517769
2007,5,582.0199274892798
2007,6,611.8721052245558
2007,7,659.1185876811842
2007,8,683.0494937534029
2007,9,698.660680257254
2007,10,737.4625166313386
2007,11,757.6235251503906
2007,12,777.4873094021733
2008,1,819.9479877461774
2008,2,865.7924633590674
2008,3,887.7375696137866
2008,4,997.431694137851
2008,5,1019.9594179751937
2008,6,1032.6416381072788
2008,7,1043.9970840709623
2008,8,1072.5525307344365
2008,9,1093.6112475264695
2008,10,1108.3112418075066
2008,11,1132.9162228812838
2008,12,1161.7440323226792
2009,1,1262.3872256217333
2009,2,1275.2491778052777
2009,3,1292.6317659217536
2009,4,1332.5186490627025
2009,5,1348.9889540391564
2009,6,1381.3246215783158
2009,7,1396.1065234212329
2009,8,1406.3227166877182
2009,9,1416.591424644266
2009,10,1433.9586266490949
2009,11,1451.8690593396582
2009,12,1467.1299626503267
2010,1,1497.1618648249773
2010,2,1500.7656650663685
2010,3,1526.8612821030324
2010,4,1533.3747273375038
2010,5,1557.250238651198
2010,6,1608.1997887304321
2010,7,1620.5652662261498
2010,8,1629.300874267083
2010,9,1639.1221788797175
2010,10,1653.5847722221565
2010,11,1661.8786882671177
2010,12,1678.4257600382734
2011,1,1697.4309379720023
2011,2,1706.5340033665257
2011,3,1725.2587682342505
2011,4,1758.0572874274076
2011,5,1780.4428633310124
2011,6,1803.0869140046966
2011,7,1809.2403913506957
2011,8,1820.9544375850662
2011,9,1843.5919347369193
2011,10,1872.7406183342064
2011,11,1883.0329296673046
2011,12,1886.0185538246412
2012,1,1898.6983625896835
2012,2,1921.9650403714256
2012,3,1956.042991445473
2012,4,1970.3451037636298
2012,5,1976.8371562137468
2012,6,1986.5675594638226
2012,7,2007.0765635277078
2012,8,2057.75565109244
2012,9,2083.2100750043983
2012,10,2106.208820257959
2012,11,2113.4536310909084
2012,12,2124.5636822957104
2013,1,2137.332042761374
2013,2,2143.5828241453873
2013,3,2151.9029767276015
2013,4,2172.3298019472695
2013,5,2182.1329139786676
2013,6,2206.8177922003015
2013,7,2215.4551886567842
2013,8,2236.4059673608785
2013,9,2277.891809109421
2013,10,2361.244621741147
2013,11,2423.739965215264
2013,12,2437.4550805696367
2014,1,2462.5289293218257
2014,2,2484.8078690005054
2014,3,2502.885146470718
2014,4,2520.210885000752
2014,5,2537.763633867792
2014,6,2553.2613108570044
2014,7,2634.872571784714
2014,8,2653.6109158280874
2014,9,2670.428493810471
2014,10,2699.784422168019
2014,11,2767.159786729478
2014,12,2786.699063562108
2015,1,2803.827798763826
2015,2,2836.7763279984697
2015,3,2894.9792754552523
2015,4,2917.0490615794056
2015,5,2931.428745354442
2015,6,2953.3728956068403
2015,7,3013.0396821778786
2015,8,3053.715726192179
2015,9,3118.227316432065
2015,10,3130.5215696032847
2015,11,3165.425784356673
2015,12,3176.755860231686
