year,month,cumulativeInfluence
2001,8,0.9570302697501112
2002,9,2.7170526841042557
2002,10,2.723515717246011
2003,7,2.7235538627149247
2003,10,2.7278201579944503
2003,11,2.9976543103925204
2003,12,3.1313975566192385
2004,1,3.133405530500481
2004,2,3.9552618765026155
2004,3,4.51698234757548
2004,4,8.212412599135392
2004,5,10.470983253175916
2004,6,10.497122437616502
2004,7,16.316558302034217
2004,8,17.83480729386449
2004,9,17.899781280579113
2004,10,21.22731380068032
2004,11,23.28935100987526
2004,12,47.99445643405369
2005,1,48.08330294987881
2005,2,49.380624554414695
2005,3,51.791852022792995
2005,4,56.35469264639311
2005,5,58.06290413644223
2005,6,58.06837956367706
2005,7,59.13759236358875
2005,8,60.3933331429723
2005,9,61.26893143214163
2005,10,62.789749036872195
2005,11,63.893849195638765
2005,12,64.95099889991332
2006,1,68.5499462200598
2006,2,70.4894539796757
2006,3,78.03741008818197
2006,4,88.91882314423432
2006,5,97.42626799078508
2006,6,103.6371622171632
2006,7,109.08671404637708
2006,8,113.53047963155339
2006,9,116.9670263382705
2006,10,124.05098419973753
2006,11,127.00172911203896
2006,12,129.5227172192185
2007,1,139.19153107849323
2007,2,154.62240132072074
2007,3,160.49013314051166
2007,4,165.45468366281824
2007,5,172.27094447451688
2007,6,182.6591380178678
2007,7,190.0742516824207
2007,8,209.7698425522991
2007,9,218.19417985608183
2007,10,230.8570268085394
2007,11,236.11048624124678
2007,12,240.68889925184166
2008,1,254.97857241650794
2008,2,259.99208513368785
2008,3,263.63702168769265
2008,4,266.90401923722345
2008,5,309.41271699181976
2008,6,319.1340462460138
2008,7,322.531567142796
2008,8,327.234833733269
2008,9,332.5667551135912
2008,10,341.9816419722252
2008,11,346.141103698998
2008,12,348.63712287136553
2009,1,352.6551046441115
2009,2,357.5897912888709
2009,3,363.30351257670605
2009,4,381.9289956254653
2009,5,383.6731884417694
2009,6,397.9660255157402
2009,7,408.3960514302254
2009,8,414.0303578873631
2009,9,417.34067869266573
2009,10,421.33598024205713
2009,11,427.7733128021148
2009,12,432.18734456479035
2010,1,434.1058869588142
2010,2,437.41737393049516
2010,3,447.1453331873051
2010,4,450.4167582597817
2010,5,454.2658346617841
2010,6,456.8758840240217
2010,7,461.3429199051585
2010,8,465.805446969832
2010,9,474.9992827368608
2010,10,480.2844301380939
2010,11,483.0520482972409
2010,12,486.75747693109406
2011,1,495.3065175924271
2011,2,498.675691313194
2011,3,517.8995106058621
2011,4,530.572337091681
2011,5,538.5961045410272
2011,6,542.2347376277667
2011,7,550.0882834158168
2011,8,554.8074668267121
2011,9,560.7251221363983
2011,10,575.7499376135443
2011,11,586.0217932830327
2011,12,593.0553920639733
2012,1,598.584865048395
2012,2,605.9244977231403
2012,3,612.5061122762958
2012,4,617.3324883997868
2012,5,620.3807203127883
2012,6,631.4381184389711
2012,7,641.6019234192183
2012,8,650.6931368553703
2012,9,658.543979748596
2012,10,663.6028848088758
2012,11,682.9723476677821
2012,12,685.7678239239457
2013,1,690.5192327394348
2013,2,696.4369787969686
2013,3,700.3124701669437
2013,4,708.2158493393904
2013,5,739.650579128632
2013,6,748.6565182417839
2013,7,752.3683699064975
2013,8,760.6824809669553
2013,9,774.0694807677503
2013,10,792.0546363495602
2013,11,810.6074346525736
2013,12,816.4185055248175
2014,1,829.5150586113677
2014,2,836.1385230100847
2014,3,849.1118155871941
2014,4,859.5300707381617
2014,5,866.5181518069724
2014,6,870.1444759741158
2014,7,887.4859025757818
2014,8,902.2253129710598
2014,9,908.099189338853
2014,10,919.2662715611814
2014,11,947.4962597517953
2014,12,954.6677429865822
2015,1,960.0695724107478
2015,2,978.0034474153248
2015,3,994.4687536252177
2015,4,1006.8066981920756
2015,5,1012.8765692762835
2015,6,1030.5581619144548
2015,7,1035.4610824324357
2015,8,1048.013912892751
2015,9,1066.7312663113194
2015,10,1071.3568266332543
2015,11,1089.2530627395458
2015,12,1090.8651759886477
