year,month,cumulativeInfluence
2001,8,959.6304855484923
2002,9,959.7232792090813
2002,10,959.875940143428
2003,7,959.8760677793817
2003,10,959.8986182099774
2003,11,961.5003300920752
2003,12,961.573583792717
2004,1,961.6264569950982
2004,2,966.7053483887021
2004,3,1004.1669714095235
2004,4,1011.4767345038505
2004,5,1014.7314619033945
2004,6,1028.7755451964235
2004,7,1042.108391560756
2004,8,1075.9261978725972
2004,9,1078.0961275740526
2004,10,1082.2772720839116
2004,11,1082.6485244797464
2004,12,4433.3169455217685
2005,1,4439.87107579707
2005,2,4439.992951665856
2005,3,4473.328723957601
2005,4,4509.496369051077
2005,5,4594.359389007732
2005,6,4594.499142356028
2005,7,4637.531652315185
2005,8,5331.095035659112
2005,9,5548.817154269584
2005,10,6861.343044123305
2005,11,7378.930357667536
2005,12,7499.214651018851
2006,1,8022.359478452651
2006,2,15676.71262808124
2006,3,16615.48525493342
2006,4,17059.08484744306
2006,5,34044.25829563974
2006,6,34826.64525083976
2006,7,35546.913016800645
2006,8,36345.95549682725
2006,9,37047.74478077872
2006,10,117240.63730394377
2006,11,117817.46692206338
2006,12,123115.49543999945
2007,1,123341.93837749382
2007,2,123812.60568874427
2007,3,125760.86028783207
2007,4,126584.77539545455
2007,5,127881.1189693739
2007,6,128933.64187998397
2007,7,129389.24300223571
2007,8,130561.498187252
2007,9,131202.92107605416
2007,10,134887.9225605571
2007,11,135668.26900682904
2007,12,136996.10689704216
2008,1,138397.68962984736
2008,2,141044.31299642814
2008,3,142210.23167102347
2008,4,147917.78757270722
2008,5,148195.76278175705
2008,6,149425.24680752485
2008,7,150415.10683079693
2008,8,151814.75192196656
2008,9,152693.3927289148
2008,10,154940.16091538485
2008,11,155083.01841783596
2008,12,155758.10621350547
2009,1,157788.80209396905
2009,2,158408.70385366253
2009,3,159213.25472730122
2009,4,159613.21179305462
2009,5,159711.93793502857
2009,6,164487.90879078512
2009,7,165819.43091011053
2009,8,166210.59256004318
2009,9,167068.40601377306
2009,10,167177.41901633053
2009,11,167990.71412275205
2009,12,168273.40938804526
2010,1,168382.0218470268
2010,2,168556.13705104523
2010,3,169804.04666774403
2010,4,170296.18396647432
2010,5,170590.27468233122
2010,6,170992.7392754025
2010,7,171647.5026183622
2010,8,172318.4141310794
2010,9,172438.51628608585
2010,10,173653.61703352886
2010,11,173900.55319902825
2010,12,174638.8471231456
2011,1,174897.73021437705
2011,2,175084.20495090136
2011,3,175563.34852956663
2011,4,176677.25904241487
2011,5,177788.32279485828
2011,6,178895.68439814038
2011,7,180127.0695619405
2011,8,186796.73414650254
2011,9,187382.1269957359
2011,10,188790.059404179
2011,11,189255.6504140253
2011,12,189701.5564629461
2012,1,191455.0926191081
2012,2,191640.99734784316
2012,3,194092.52836517047
2012,4,195137.08544070795
2012,5,199459.1361107961
2012,6,200664.73912058002
2012,7,204923.35924150754
2012,8,207925.11719291747
2012,9,208836.15398707474
2012,10,231361.29994982757
2012,11,232235.82644639388
2012,12,232812.85049136472
2013,1,234019.90769269122
2013,2,234233.52979992903
2013,3,234465.56607556777
2013,4,235303.97633964484
2013,5,245466.5823928686
2013,6,245914.59544486008
2013,7,247215.33414684408
2013,8,249651.32557118943
2013,9,250949.26392840655
2013,10,252503.03690178433
2013,11,306689.9790101336
2013,12,308402.9082865872
2014,1,309253.3178632688
2014,2,309914.5920297559
2014,3,310647.7836217942
2014,4,311951.0602658459
2014,5,315415.6800835835
2014,6,316182.1928329003
2014,7,317348.171866086
2014,8,318076.3398050012
2014,9,318943.15712497814
2014,10,321136.9608919493
2014,11,323631.4036035225
2014,12,324643.2727494281
2015,1,326525.15681888454
2015,2,328429.8559075979
2015,3,332367.36359326384
2015,4,332751.50124828937
2015,5,333169.88715961965
2015,6,338750.4257160913
2015,7,339913.047094786
2015,8,341098.6392129532
2015,9,523877.2296225729
2015,10,528120.9276467944
2015,11,528568.628242344
2015,12,529698.4441969413
