Date,Value
2015-09-30,1.784
2015-08-31,1.808
2015-07-31,1.792
2015-06-30,1.788
2015-05-31,1.784
2015-04-30,1.772
2015-03-31,1.756
2015-02-28,1.738
2015-01-31,1.722
2014-12-31,1.706
2014-11-30,1.698
2014-10-31,1.69
2014-09-30,1.684
2014-08-31,1.674
2014-07-31,1.652
2014-06-30,1.622
2014-05-31,1.598
2014-04-30,1.588
2014-03-31,1.592
2014-02-28,1.594
2014-01-31,1.588
2013-12-31,1.584
2013-11-30,1.572
2013-10-31,1.56
2013-09-30,1.544
2013-08-31,1.524
2013-07-31,1.512
2013-06-30,1.512
2013-05-31,1.522
2013-04-30,1.524
2013-03-31,1.514
2013-02-28,1.496
2013-01-31,1.48
2012-12-31,1.472
2012-11-30,1.47
2012-10-31,1.476
2012-09-30,1.48
2012-08-31,1.486
2012-07-31,1.484
2012-06-30,1.486
2012-05-31,1.468
2012-04-30,1.444
2012-03-31,1.42
2012-02-29,1.408
2012-01-31,1.396
2011-12-31,1.386
2011-11-30,1.372
2011-10-31,1.346
2011-09-30,1.328
2011-08-31,1.318
2011-07-31,1.322
2011-06-30,1.316
2011-05-31,1.314
2011-04-30,1.31
2011-03-31,1.308
2011-02-28,1.302
2011-01-31,1.29
2010-12-31,1.284
2010-11-30,1.278
