Date,Value
2013-07-31,200000.0
2013-06-30,199900.0
2013-05-31,169000.0
2013-04-30,184900.0
2011-12-31,174900.0
2011-11-30,174900.0
2011-10-31,194900.0
2011-09-30,194900.0
2011-08-31,194900.0
2011-07-31,194950.0
2011-06-30,175200.0
2011-05-31,197100.0
2011-04-30,202660.0
2011-03-31,202660.0
2011-02-28,205900.0
2010-12-31,179900.0
2010-11-30,179000.0
2010-10-31,179900.0
2010-09-30,179900.0
2010-08-31,205900.0
2010-07-31,219000.0
2010-06-30,219000.0
2010-05-31,224900.0
2010-04-30,239900.0
2010-03-31,229000.0
2010-02-28,269950.0
2010-01-31,269950.0
2009-12-31,269950.0
2009-11-30,269950.0
2009-10-31,229000.0
2009-09-30,229000.0
2009-08-31,209900.0
2009-07-31,229000.0
2009-06-30,209900.0
2009-05-31,209900.0
2009-04-30,200000.0
2009-03-31,199900.0
2009-02-28,199900.0
2009-01-31,200000.0
2008-12-31,200000.0
2008-11-30,209900.0
2008-10-31,209900.0
