Date,Value
2015-09-30,268800.0
2015-08-31,267600.0
2015-07-31,265600.0
2015-06-30,264700.0
2015-05-31,262400.0
2015-04-30,258700.0
2015-03-31,257400.0
2015-02-28,257300.0
2015-01-31,256100.0
2014-12-31,255100.0
2014-11-30,253500.0
2014-10-31,251000.0
2014-09-30,249100.0
2014-08-31,248700.0
2014-07-31,248500.0
2014-06-30,248700.0
2014-05-31,248900.0
2014-04-30,250700.0
2014-03-31,252500.0
2014-02-28,251800.0
2014-01-31,248700.0
2013-12-31,247300.0
2013-11-30,246600.0
2013-10-31,246300.0
2013-09-30,246600.0
2013-08-31,246900.0
2013-07-31,244700.0
2013-06-30,240700.0
2013-05-31,237600.0
2013-04-30,235200.0
2013-03-31,233800.0
2013-02-28,234500.0
2013-01-31,236200.0
2012-12-31,236700.0
2012-11-30,236500.0
2012-10-31,236900.0
2012-09-30,237600.0
2012-08-31,237000.0
2012-07-31,235300.0
2012-06-30,233800.0
2012-05-31,232700.0
2012-04-30,231800.0
2012-03-31,231900.0
2012-02-29,232100.0
2012-01-31,232500.0
2011-12-31,232700.0
2011-11-30,233500.0
2011-10-31,233900.0
2011-09-30,234200.0
2011-08-31,235100.0
2011-07-31,237000.0
2011-06-30,239400.0
2011-05-31,242000.0
2011-04-30,244100.0
2011-03-31,244200.0
2011-02-28,243700.0
2011-01-31,243800.0
2010-12-31,245100.0
2010-11-30,246600.0
2010-10-31,248800.0
2010-09-30,251200.0
2010-08-31,253300.0
2010-07-31,254700.0
2010-06-30,255400.0
2010-05-31,256400.0
2010-04-30,258100.0
2010-03-31,261700.0
2010-02-28,264700.0
2010-01-31,266000.0
2009-12-31,264900.0
2009-11-30,263300.0
2009-10-31,260700.0
2009-09-30,257600.0
2009-08-31,255900.0
2009-07-31,257300.0
2009-06-30,259000.0
2009-05-31,258500.0
2009-04-30,257400.0
2009-03-31,257600.0
2009-02-28,258100.0
2009-01-31,257800.0
2008-12-31,258200.0
2008-11-30,260200.0
2008-10-31,262800.0
2008-09-30,264500.0
2008-08-31,265000.0
2008-07-31,264800.0
2008-06-30,265600.0
2008-05-31,267400.0
2008-04-30,268400.0
2008-03-31,269200.0
2008-02-29,270600.0
2008-01-31,272000.0
2007-12-31,272100.0
2007-11-30,271900.0
2007-10-31,272800.0
2007-09-30,274100.0
2007-08-31,274500.0
2007-07-31,275300.0
2007-06-30,276800.0
2007-05-31,277500.0
2007-04-30,277700.0
2007-03-31,276300.0
2007-02-28,273500.0
2007-01-31,271500.0
2006-12-31,270700.0
2006-11-30,269500.0
2006-10-31,268100.0
2006-09-30,265800.0
2006-08-31,263700.0
2006-07-31,261500.0
2006-06-30,258500.0
2006-05-31,255200.0
2006-04-30,252600.0
2006-03-31,249600.0
2006-02-28,247100.0
2006-01-31,245400.0
2005-12-31,244300.0
2005-11-30,242700.0
2005-10-31,239800.0
2005-09-30,237200.0
2005-08-31,235900.0
2005-07-31,233700.0
2005-06-30,229800.0
2005-05-31,225200.0
2005-04-30,220300.0
2005-03-31,215400.0
2005-02-28,211700.0
2005-01-31,208700.0
2004-12-31,205600.0
2004-11-30,202100.0
2004-10-31,198400.0
2004-09-30,195800.0
2004-08-31,193200.0
2004-07-31,189700.0
2004-06-30,187000.0
2004-05-31,185400.0
2004-04-30,184100.0
2004-03-31,183700.0
2004-02-29,183500.0
2004-01-31,182500.0
2003-12-31,181600.0
2003-11-30,181200.0
2003-10-31,180200.0
2003-09-30,178500.0
2003-08-31,176900.0
2003-07-31,175400.0
2003-06-30,173900.0
2003-05-31,172300.0
2003-04-30,171000.0
2003-03-31,169700.0
2003-02-28,168100.0
2003-01-31,166300.0
2002-12-31,164600.0
2002-11-30,163200.0
2002-10-31,162000.0
2002-09-30,161000.0
2002-08-31,160100.0
2002-07-31,159700.0
2002-06-30,159200.0
2002-05-31,159800.0
2002-04-30,160600.0
2002-03-31,160600.0
2002-02-28,159800.0
2002-01-31,159600.0
2001-12-31,160000.0
2001-11-30,160300.0
2001-10-31,160200.0
2001-09-30,159500.0
2001-08-31,158500.0
2001-07-31,158100.0
2001-06-30,158700.0
2001-05-31,159000.0
2001-04-30,159000.0
2001-03-31,158600.0
2001-02-28,157800.0
2001-01-31,157300.0
2000-12-31,157500.0
2000-11-30,158400.0
2000-10-31,160000.0
2000-09-30,160300.0
2000-08-31,159600.0
2000-07-31,158600.0
2000-06-30,157900.0
2000-05-31,157200.0
2000-04-30,156300.0
2000-03-31,155600.0
2000-02-29,156100.0
2000-01-31,156000.0
1999-12-31,153700.0
1999-11-30,150900.0
1999-10-31,149500.0
1999-09-30,149800.0
1999-08-31,151200.0
1999-07-31,152000.0
1999-06-30,152100.0
1999-05-31,151400.0
1999-04-30,150400.0
1999-03-31,149800.0
1999-02-28,149700.0
1999-01-31,149300.0
1998-12-31,148800.0
1998-11-30,148400.0
1998-10-31,148000.0
1998-09-30,147400.0
1998-08-31,146500.0
1998-07-31,146700.0
1998-06-30,147000.0
1998-05-31,146800.0
1998-04-30,146600.0
1998-03-31,146900.0
1998-02-28,147000.0
1998-01-31,147000.0
1997-12-31,147100.0
1997-11-30,146900.0
1997-10-31,146800.0
1997-09-30,147000.0
1997-08-31,147200.0
1997-07-31,146800.0
1997-06-30,146500.0
1997-05-31,147000.0
1997-04-30,147600.0
1997-03-31,147300.0
1997-02-28,146800.0
1997-01-31,147400.0
1996-12-31,147900.0
1996-11-30,148000.0
1996-10-31,148200.0
1996-09-30,149200.0
1996-08-31,150900.0
1996-07-31,152800.0
1996-06-30,153900.0
1996-05-31,154900.0
1996-04-30,156700.0
