Date,Value
2015-02-28,575000.0
2014-12-31,750000.0
2014-11-30,658000.0
2014-10-31,680000.0
2014-09-30,680000.0
2014-08-31,775000.0
2014-07-31,850000.0
2014-06-30,798000.0
2014-05-31,749950.0
2014-04-30,749950.0
2014-03-31,525000.0
2014-02-28,475000.0
2014-01-31,475000.0
2013-12-31,484950.0
2013-11-30,450000.0
2013-10-31,489000.0
2013-09-30,484950.0
2013-08-31,465000.0
2013-07-31,565000.0
2013-06-30,465000.0
2013-05-31,524950.0
2013-04-30,524950.0
2013-03-31,568000.0
2013-02-28,600000.0
2013-01-31,549950.0
2012-12-31,450000.0
2012-11-30,439290.0
2012-10-31,437415.0
2012-09-30,462865.0
2012-08-31,650000.0
2012-07-31,560000.0
2012-06-30,525000.0
2012-05-31,498000.0
2012-04-30,498000.0
2012-03-31,495000.0
2012-02-29,449000.0
2012-01-31,445000.0
2011-12-31,445000.0
2011-11-30,445000.0
2011-10-31,449000.0
2011-09-30,419900.0
2011-08-31,419000.0
2011-07-31,470000.0
2011-06-30,429000.0
2011-05-31,419000.0
2011-04-30,350000.0
2011-03-31,348800.0
2011-02-28,425000.0
2011-01-31,439000.0
2010-12-31,455000.0
2010-11-30,445000.0
2010-10-31,455000.0
2010-09-30,459000.0
2010-08-31,459000.0
2010-07-31,448500.0
2010-06-30,445000.0
2010-05-31,415000.0
2010-04-30,439950.0
2010-03-31,445000.0
2010-02-28,425000.0
2010-01-31,450000.0
2009-12-31,450000.0
2009-11-30,425000.0
2009-10-31,599500.0
2009-09-30,524950.0
2009-08-31,499888.0
2009-07-31,410900.0
2009-06-30,410900.0
2009-05-31,425000.0
2009-04-30,439950.0
2009-03-31,439950.0
2009-02-28,439950.0
2009-01-31,449000.0
2008-12-31,479500.0
2008-11-30,479500.0
2008-10-31,549000.0
