Date,Value
2015-09-30,492000.0
2015-08-31,486900.0
2015-07-31,479300.0
2015-06-30,479200.0
2015-05-31,475700.0
2015-04-30,466700.0
2015-03-31,457600.0
2015-02-28,454600.0
2015-01-31,449100.0
2014-12-31,446500.0
2014-11-30,442600.0
2014-10-31,439500.0
2014-09-30,438000.0
2014-08-31,437100.0
2014-07-31,435400.0
2014-06-30,433600.0
2014-05-31,431300.0
2014-04-30,428400.0
2014-03-31,425100.0
2014-02-28,422100.0
2014-01-31,420500.0
2013-12-31,419100.0
2013-11-30,418200.0
2013-10-31,415800.0
2013-09-30,412700.0
2013-08-31,409000.0
2013-07-31,404600.0
2013-06-30,400200.0
2013-05-31,397300.0
2013-04-30,395100.0
2013-03-31,393600.0
2013-02-28,391100.0
2013-01-31,385700.0
2012-12-31,380000.0
2012-11-30,375900.0
2012-10-31,370800.0
2012-09-30,365000.0
2012-08-31,361300.0
2012-07-31,359200.0
2012-06-30,354100.0
2012-05-31,346100.0
2012-04-30,339400.0
2012-03-31,334700.0
2012-02-29,331000.0
2012-01-31,328700.0
2011-12-31,327600.0
2011-11-30,325600.0
2011-10-31,323900.0
2011-09-30,323300.0
2011-08-31,323900.0
2011-07-31,325400.0
2011-06-30,328100.0
2011-05-31,330700.0
2011-04-30,333200.0
2011-03-31,335800.0
2011-02-28,338000.0
2011-01-31,339500.0
2010-12-31,340600.0
2010-11-30,342100.0
2010-10-31,345300.0
2010-09-30,350300.0
2010-08-31,354400.0
2010-07-31,357200.0
2010-06-30,359400.0
2010-05-31,361900.0
2010-04-30,363900.0
2010-03-31,365000.0
2010-02-28,365600.0
2010-01-31,366400.0
2009-12-31,366900.0
2009-11-30,366800.0
2009-10-31,366100.0
2009-09-30,365000.0
2009-08-31,364200.0
2009-07-31,364700.0
2009-06-30,367600.0
2009-05-31,372000.0
2009-04-30,376700.0
2009-03-31,381100.0
2009-02-28,385700.0
2009-01-31,390600.0
2008-12-31,394800.0
2008-11-30,399200.0
2008-10-31,403300.0
2008-09-30,406000.0
2008-08-31,407800.0
2008-07-31,409000.0
2008-06-30,410400.0
2008-05-31,412300.0
2008-04-30,414800.0
2008-03-31,417900.0
2008-02-29,420800.0
2008-01-31,422400.0
2007-12-31,425100.0
2007-11-30,428100.0
2007-10-31,430200.0
2007-09-30,431400.0
2007-08-31,432800.0
2007-07-31,433000.0
2007-06-30,432000.0
2007-05-31,430700.0
2007-04-30,429400.0
2007-03-31,427600.0
2007-02-28,425500.0
2007-01-31,422800.0
2006-12-31,420300.0
2006-11-30,419200.0
2006-10-31,418800.0
2006-09-30,417700.0
2006-08-31,415600.0
2006-07-31,414200.0
2006-06-30,412200.0
2006-05-31,408000.0
2006-04-30,402600.0
2006-03-31,397100.0
2006-02-28,391300.0
2006-01-31,386700.0
2005-12-31,383500.0
2005-11-30,380100.0
2005-10-31,376100.0
2005-09-30,371400.0
2005-08-31,365600.0
2005-07-31,359200.0
2005-06-30,352600.0
2005-05-31,347800.0
2005-04-30,343200.0
2005-03-31,339400.0
2005-02-28,336900.0
2005-01-31,334600.0
2004-12-31,330100.0
2004-11-30,325100.0
2004-10-31,320000.0
2004-09-30,316300.0
2004-08-31,313300.0
2004-07-31,310100.0
2004-06-30,306800.0
2004-05-31,304300.0
2004-04-30,301900.0
2004-03-31,298900.0
2004-02-29,296000.0
2004-01-31,293300.0
2003-12-31,290600.0
2003-11-30,287900.0
2003-10-31,285600.0
2003-09-30,283400.0
2003-08-31,281600.0
2003-07-31,280900.0
2003-06-30,281500.0
2003-05-31,281500.0
2003-04-30,280500.0
2003-03-31,278900.0
2003-02-28,276100.0
2003-01-31,273300.0
2002-12-31,271700.0
2002-11-30,270200.0
2002-10-31,268400.0
2002-09-30,267300.0
2002-08-31,267000.0
2002-07-31,266600.0
2002-06-30,265600.0
2002-05-31,264300.0
2002-04-30,262900.0
2002-03-31,260600.0
2002-02-28,258800.0
2002-01-31,258300.0
2001-12-31,258000.0
2001-11-30,256500.0
2001-10-31,255000.0
2001-09-30,253900.0
2001-08-31,252400.0
2001-07-31,250800.0
2001-06-30,250200.0
2001-05-31,249900.0
2001-04-30,248700.0
2001-03-31,247300.0
2001-02-28,246200.0
2001-01-31,245300.0
2000-12-31,244000.0
2000-11-30,243000.0
2000-10-31,242400.0
2000-09-30,241800.0
2000-08-31,241000.0
2000-07-31,240600.0
2000-06-30,239200.0
2000-05-31,237100.0
2000-04-30,236200.0
2000-03-31,236800.0
2000-02-29,236600.0
2000-01-31,234400.0
1999-12-31,231200.0
1999-11-30,228100.0
1999-10-31,225400.0
1999-09-30,222400.0
1999-08-31,219800.0
1999-07-31,217300.0
1999-06-30,215500.0
1999-05-31,213500.0
1999-04-30,211500.0
1999-03-31,209900.0
1999-02-28,208600.0
1999-01-31,206800.0
1998-12-31,205100.0
1998-11-30,204900.0
1998-10-31,204400.0
1998-09-30,202700.0
1998-08-31,200400.0
1998-07-31,197700.0
1998-06-30,193800.0
1998-05-31,190300.0
1998-04-30,187700.0
1998-03-31,185500.0
1998-02-28,183200.0
1998-01-31,180800.0
1997-12-31,178600.0
1997-11-30,176800.0
1997-10-31,175200.0
1997-09-30,173500.0
1997-08-31,171500.0
1997-07-31,169400.0
1997-06-30,167300.0
1997-05-31,165200.0
1997-04-30,163800.0
1997-03-31,163300.0
1997-02-28,162800.0
1997-01-31,162200.0
1996-12-31,162000.0
1996-11-30,161800.0
1996-10-31,161700.0
1996-09-30,162200.0
1996-08-31,162900.0
1996-07-31,163100.0
1996-06-30,163100.0
1996-05-31,163400.0
1996-04-30,163700.0
