Date,Value
2015-09-30,112500.0
2015-08-31,112400.0
2015-07-31,111300.0
2015-06-30,110600.0
2015-05-31,110400.0
2015-04-30,110000.0
2015-03-31,110200.0
2015-02-28,110900.0
2015-01-31,111200.0
2014-12-31,111000.0
2014-11-30,110500.0
2014-10-31,109800.0
2014-09-30,109000.0
2014-08-31,108400.0
2014-07-31,107800.0
2014-06-30,107700.0
2014-05-31,107300.0
2014-04-30,106900.0
2014-03-31,106600.0
2014-02-28,106100.0
2014-01-31,104900.0
2013-12-31,103800.0
2013-11-30,103200.0
2013-10-31,102900.0
2013-09-30,102500.0
2013-08-31,101700.0
2013-07-31,100900.0
2013-06-30,99800.0
2013-05-31,98800.0
2013-04-30,98000.0
2013-03-31,98300.0
2013-02-28,99000.0
2013-01-31,99200.0
2012-12-31,99200.0
2012-11-30,99500.0
2012-10-31,99900.0
2012-09-30,100400.0
2012-08-31,101000.0
2012-07-31,101800.0
2012-06-30,102300.0
2012-05-31,102400.0
2012-04-30,101800.0
2012-03-31,101500.0
2012-02-29,101800.0
2012-01-31,102500.0
2011-12-31,102700.0
2011-11-30,102300.0
2011-10-31,101800.0
2011-09-30,102200.0
2011-08-31,102900.0
2011-07-31,103300.0
2011-06-30,103900.0
2011-05-31,105100.0
2011-04-30,106300.0
2011-03-31,107100.0
2011-02-28,107800.0
2011-01-31,109000.0
2010-12-31,110100.0
2010-11-30,111000.0
2010-10-31,111700.0
2010-09-30,112300.0
2010-08-31,112900.0
2010-07-31,113800.0
2010-06-30,114700.0
2010-05-31,115700.0
2010-04-30,116700.0
2010-03-31,117700.0
2010-02-28,118300.0
2010-01-31,119000.0
2009-12-31,119800.0
2009-11-30,120400.0
2009-10-31,121000.0
2009-09-30,122100.0
2009-08-31,123000.0
2009-07-31,123200.0
2009-06-30,123200.0
2009-05-31,123100.0
2009-04-30,122400.0
2009-03-31,122000.0
2009-02-28,122100.0
2009-01-31,121600.0
2008-12-31,120600.0
2008-11-30,120500.0
2008-10-31,121200.0
2008-09-30,121800.0
2008-08-31,122400.0
2008-07-31,123300.0
2008-06-30,124700.0
2008-05-31,126200.0
2008-04-30,127500.0
2008-03-31,128200.0
2008-02-29,127900.0
2008-01-31,127500.0
2007-12-31,127500.0
2007-11-30,128000.0
2007-10-31,128400.0
2007-09-30,128300.0
2007-08-31,127900.0
2007-07-31,127600.0
2007-06-30,127200.0
2007-05-31,126700.0
2007-04-30,126200.0
2007-03-31,125700.0
2007-02-28,125000.0
2007-01-31,123800.0
2006-12-31,122800.0
2006-11-30,122100.0
2006-10-31,121300.0
2006-09-30,119700.0
2006-08-31,118300.0
2006-07-31,117300.0
2006-06-30,116400.0
2006-05-31,114900.0
2006-04-30,113400.0
2006-03-31,112300.0
2006-02-28,111400.0
2006-01-31,111000.0
2005-12-31,110700.0
2005-11-30,109600.0
2005-10-31,107600.0
2005-09-30,105300.0
2005-08-31,102900.0
2005-07-31,100500.0
2005-06-30,98300.0
2005-05-31,96600.0
2005-04-30,95200.0
2005-03-31,94000.0
2005-02-28,93300.0
2005-01-31,92600.0
2004-12-31,91600.0
2004-11-30,90300.0
2004-10-31,89600.0
2004-09-30,89600.0
2004-08-31,89800.0
2004-07-31,89400.0
2004-06-30,88300.0
2004-05-31,87100.0
2004-04-30,86100.0
2004-03-31,85300.0
2004-02-29,84500.0
2004-01-31,83900.0
2003-12-31,83200.0
2003-11-30,82300.0
2003-10-31,81700.0
2003-09-30,81300.0
2003-08-31,81000.0
2003-07-31,80300.0
2003-06-30,79500.0
2003-05-31,79100.0
2003-04-30,79000.0
2003-03-31,78500.0
2003-02-28,78000.0
2003-01-31,77500.0
2002-12-31,77000.0
2002-11-30,76600.0
2002-10-31,76300.0
2002-09-30,75900.0
2002-08-31,75300.0
2002-07-31,74900.0
2002-06-30,74900.0
2002-05-31,74900.0
2002-04-30,74800.0
2002-03-31,74900.0
2002-02-28,75000.0
2002-01-31,75300.0
2001-12-31,75400.0
2001-11-30,75200.0
2001-10-31,75000.0
2001-09-30,74800.0
2001-08-31,74600.0
2001-07-31,74600.0
2001-06-30,74900.0
2001-05-31,75000.0
2001-04-30,74800.0
2001-03-31,74400.0
2001-02-28,73900.0
2001-01-31,73800.0
2000-12-31,74300.0
2000-11-30,75100.0
2000-10-31,75200.0
2000-09-30,74500.0
2000-08-31,74100.0
2000-07-31,74400.0
2000-06-30,74200.0
2000-05-31,73900.0
2000-04-30,73900.0
2000-03-31,74100.0
2000-02-29,74000.0
2000-01-31,73500.0
1999-12-31,73200.0
1999-11-30,73000.0
1999-10-31,73100.0
1999-09-30,73300.0
1999-08-31,73600.0
1999-07-31,73900.0
1999-06-30,74400.0
1999-05-31,75300.0
1999-04-30,75800.0
1999-03-31,75400.0
1999-02-28,74500.0
1999-01-31,73700.0
1998-12-31,72500.0
1998-11-30,71400.0
1998-10-31,71100.0
1998-09-30,71400.0
1998-08-31,71800.0
1998-07-31,71800.0
1998-06-30,71500.0
1998-05-31,71000.0
1998-04-30,70100.0
1998-03-31,69600.0
1998-02-28,69600.0
1998-01-31,69500.0
1997-12-31,69700.0
1997-11-30,70200.0
1997-10-31,70200.0
1997-09-30,69900.0
1997-08-31,69400.0
1997-07-31,69200.0
1997-06-30,69600.0
1997-05-31,69900.0
1997-04-30,70000.0
1997-03-31,70400.0
1997-02-28,70900.0
1997-01-31,70900.0
1996-12-31,70500.0
1996-11-30,70300.0
1996-10-31,70400.0
1996-09-30,70600.0
1996-08-31,70500.0
1996-07-31,70300.0
1996-06-30,70400.0
1996-05-31,70400.0
1996-04-30,70500.0
