Date,Value
2015-02-28,105000.0
2015-01-31,104900.0
2014-12-31,87500.0
2014-11-30,108900.0
2014-10-31,115000.0
2014-09-30,115000.0
2014-08-31,99999.0
2014-07-31,102000.0
2014-06-30,108500.0
2014-05-31,102000.0
2014-04-30,102000.0
2014-03-31,105000.0
2014-02-28,109000.0
2014-01-31,109000.0
2013-12-31,100000.0
2013-11-30,108500.0
2013-10-31,108500.0
2013-09-30,109500.0
2013-08-31,109500.0
2013-07-31,108000.0
2013-06-30,114500.0
2013-05-31,113000.0
2013-04-30,115000.0
2013-03-31,112000.0
2013-02-28,107100.0
2013-01-31,107100.0
2012-12-31,110000.0
2012-11-30,114900.0
2012-10-31,107100.0
2012-09-30,121900.0
2012-08-31,121900.0
2012-07-31,124900.0
2012-06-30,129900.0
2012-05-31,134500.0
2012-04-30,129900.0
2012-03-31,115000.0
2012-02-29,129900.0
2012-01-31,118900.0
2011-12-31,124900.0
2011-11-30,109000.0
2011-10-31,110000.0
2011-09-30,110000.0
2011-08-31,100000.0
2011-07-31,99950.0
2011-06-30,100000.0
2011-05-31,109900.0
2011-04-30,109000.0
2011-03-31,109000.0
2011-02-28,109000.0
2011-01-31,109000.0
2010-12-31,109000.0
2010-11-30,109999.0
2010-10-31,112900.0
2010-09-30,110000.0
2010-08-31,109000.0
2010-07-31,105000.0
2010-06-30,105000.0
2010-05-31,113995.0
2010-04-30,105500.0
2010-03-31,105000.0
2010-02-28,111900.0
2010-01-31,123000.0
2009-12-31,125000.0
2009-11-30,130000.0
2009-10-31,129900.0
2009-09-30,130000.0
2009-08-31,135000.0
2009-07-31,142405.0
2009-06-30,146900.0
2009-05-31,142405.0
2009-04-30,142405.0
2009-03-31,142405.0
2009-02-28,142405.0
2009-01-31,142405.0
2008-12-31,142405.0
2008-11-30,140000.0
2008-10-31,145000.0
