Date,Value
2015-08-31,1.558
2015-07-31,1.554
2015-06-30,1.548
2015-05-31,1.542
2015-04-30,1.534
2015-03-31,1.524
2015-02-28,1.512
2015-01-31,1.498
2014-12-31,1.482
2014-11-30,1.474
2014-10-31,1.466
2014-09-30,1.466
2014-08-31,1.454
2014-07-31,1.436
2014-06-30,1.416
2014-05-31,1.406
2014-04-30,1.4
2014-03-31,1.396
2014-02-28,1.39
2014-01-31,1.384
2013-12-31,1.384
2013-11-30,1.38
2013-10-31,1.372
2013-09-30,1.36
2013-08-31,1.346
2013-07-31,1.33
2013-06-30,1.322
2013-05-31,1.316
2013-04-30,1.308
2013-03-31,1.292
2013-02-28,1.282
2013-01-31,1.27
2012-12-31,1.27
2012-11-30,1.27
2012-10-31,1.266
2012-09-30,1.258
2012-08-31,1.252
2012-07-31,1.254
2012-06-30,1.258
2012-05-31,1.25
2012-04-30,1.242
2012-03-31,1.236
2012-02-29,1.236
2012-01-31,1.226
2011-12-31,1.216
2011-11-30,1.2
2011-10-31,1.182
2011-09-30,1.176
2011-08-31,1.18
2011-07-31,1.186
2011-06-30,1.186
2011-05-31,1.184
2011-04-30,1.18
2011-03-31,1.178
2011-02-28,1.17
2011-01-31,1.16
2010-12-31,1.154
2010-11-30,1.148
