Date,Value
2015-07-31,415384.6154
2014-08-31,335000.0
2013-06-30,410280.0
2008-06-30,452780.0
2007-08-31,377430.0
2006-08-31,360180.0
2006-05-31,469282.3529
2006-04-30,525000.0
2005-06-30,390000.0
2003-10-31,318461.5385
2003-08-31,313941.1765
2003-07-31,291000.0
2003-03-31,299147.0588
2003-02-28,302692.3077
2002-12-31,390000.0
2002-07-31,178700.0
2002-04-30,280155.8824
2002-03-31,235000.0
2001-08-31,226188.2353
2001-07-31,213600.0
2001-04-30,214705.8824
2001-03-31,220000.0
2000-10-31,222745.1538
2000-08-31,260391.75
2000-07-31,300197.0588
2000-06-30,272000.0
2000-03-31,210000.0
1999-07-31,191961.0
1998-11-30,191960.0
1998-07-31,180823.5294
1998-06-30,175000.0
