Date,Value
2010-07-31,735000.0
2007-08-31,500000.0
2007-04-30,849000.0
2006-06-30,764592.3077
2006-04-30,579900.0
2005-08-31,660000.0
2005-03-31,425000.0
2001-12-31,419000.0
2000-06-30,392296.1538
2000-04-30,349950.0
1999-05-31,315000.0
1998-11-30,322500.0
1998-06-30,243500.0
1997-09-30,255000.0
