Date,Value
2013-06-30,267000.0
2012-12-31,304000.0
2009-09-30,290000.0
2009-05-31,350000.0
2008-09-30,315000.0
2008-06-30,345000.0
2007-06-30,362875.0
2007-05-31,332058.8235
2007-04-30,365000.0
2006-11-30,368275.0
2006-10-31,360050.0
2006-09-30,357647.0588
2006-08-31,352307.6923
2006-06-30,364150.0
2006-05-31,357500.0
2006-04-30,328235.2941
2006-03-31,340000.0
2005-12-31,328235.2941
2005-11-30,337519.2308
2005-09-30,320317.5
2005-08-31,312032.5
2005-07-31,312417.5
2005-06-30,306687.5
2005-05-31,292920.0
2005-04-30,279300.0
2005-03-31,287750.0
2005-02-28,272941.1765
2005-01-31,273519.2308
2004-11-30,280576.9231
2004-09-30,262692.3077
2004-07-31,248992.5
2004-06-30,242282.5
2004-05-31,244575.0
2004-04-30,241882.3529
2004-03-31,256000.0
2003-12-31,256307.6923
2003-10-31,241682.5
2003-09-30,247025.0
2003-08-31,230172.2
2003-07-31,220400.3
2003-06-30,215671.1765
2003-05-31,214990.0
2002-07-31,242323.5294
2002-06-30,242500.0
2001-10-31,192500.0
2001-07-31,222500.0
2001-04-30,199008.8235
2001-03-31,211950.0
2000-11-30,219292.5
2000-10-31,234744.1176
2000-09-30,237950.0
1999-06-30,184250.0
1999-05-31,184450.0
1999-04-30,185000.0
1999-03-31,175000.0
1998-09-30,175967.5
1998-08-31,164982.5
1998-07-31,165750.0
1998-06-30,165975.0
1998-05-31,163235.2941
1998-04-30,167611.5385
1998-02-28,156961.5385
1997-12-31,148000.0
1997-02-28,150000.0
1996-08-31,145425.0
1996-07-31,134925.0
1996-06-30,139800.0
1996-05-31,143882.3529
1996-04-30,148000.0
