Date,Value
2015-07-31,332425.0
2015-05-31,261529.4118
2015-04-30,278000.0
2014-05-31,299000.0
2013-07-31,226691.7647
2013-06-30,257280.0
2009-06-30,285980.0
2008-06-30,291203.0769
2008-04-30,294691.7647
2008-03-31,295280.0
2007-11-30,332780.0
2007-08-31,309730.0
2007-07-31,301181.0
2007-06-30,320378.8235
2007-05-31,351568.4615
2007-03-31,311730.0
2006-11-30,293500.0
2006-10-31,275392.5
2006-09-30,275647.5
2006-08-31,289037.5
2006-07-31,303750.5882
2006-06-30,308895.3846
2006-04-30,297318.2353
2006-03-31,280230.0
2005-11-30,266625.0
2005-10-31,247865.0
2005-09-30,248097.5
2005-08-31,240710.5
2005-07-31,240723.5294
2005-06-30,238000.0
2005-03-31,209950.0
2004-12-31,176159.35
2004-11-30,163448.05
2004-09-30,219824.1176
2004-08-31,205670.7692
2004-06-30,212907.5
2004-05-31,201595.65
2004-04-30,204429.2353
2004-03-31,201449.3846
2004-01-31,207421.2308
2003-11-30,178348.5
2003-10-31,190061.65
2003-09-30,199889.8235
2003-08-31,209845.3846
2003-06-30,195405.0
2003-05-31,205823.5294
2003-04-30,182000.0
2002-08-31,194565.0
2002-07-31,227117.6471
2002-06-30,216000.0
2001-12-31,164773.5294
2001-11-30,151450.0
