Date,Value
2015-09-30,1.174
2015-08-31,1.178
2015-07-31,1.172
2015-06-30,1.168
2015-05-31,1.162
2015-04-30,1.154
2015-03-31,1.146
2015-02-28,1.142
2015-01-31,1.138
2014-12-31,1.134
2014-11-30,1.13
2014-10-31,1.118
2014-09-30,1.112
2014-08-31,1.108
2014-07-31,1.108
2014-06-30,1.106
2014-05-31,1.106
2014-04-30,1.11
2014-03-31,1.112
2014-02-28,1.112
2014-01-31,1.108
2013-12-31,1.108
2013-11-30,1.106
2013-10-31,1.098
2013-09-30,1.094
2013-08-31,1.09
2013-07-31,1.088
2013-06-30,1.08
2013-05-31,1.072
2013-04-30,1.064
2013-03-31,1.056
2013-02-28,1.044
2013-01-31,1.032
2012-12-31,1.024
2012-11-30,1.026
2012-10-31,1.026
2012-09-30,1.028
2012-08-31,1.024
2012-07-31,1.018
2012-06-30,1.016
2012-05-31,1.008
2012-04-30,1.004
2012-03-31,1.0
2012-02-29,1.0
2012-01-31,0.99
2011-12-31,0.986
2011-11-30,0.982
2011-10-31,0.978
2011-09-30,0.974
2011-08-31,0.968
2011-07-31,0.964
2011-06-30,0.96
2011-05-31,0.96
2011-04-30,0.954
2011-03-31,0.948
2011-02-28,0.944
2011-01-31,0.942
2010-12-31,0.94
2010-11-30,0.928
