Date,Value
2015-09-30,651000.0
2015-06-30,514538.4615
2015-04-30,563000.0
2014-06-30,566000.0
2013-08-31,414275.0
2013-07-31,459411.7647
2013-06-30,490000.0
2009-09-30,405000.0
2009-06-30,370000.0
2008-06-30,454500.0
2007-12-31,460000.0
2007-07-31,514647.0588
2007-06-30,507000.0
2007-03-31,469950.0
2006-09-30,447800.0
2006-08-31,436200.0
2006-07-31,447750.0
2006-06-30,446000.0
2006-05-31,467992.5
2006-04-30,468214.7059
2006-03-31,479950.0
2005-10-31,395731.0
2005-09-30,410057.5
2005-08-31,410125.0
2005-07-31,397088.2353
2005-06-30,406500.0
2004-11-30,329950.0
2004-08-31,345769.2308
2004-06-30,374875.0
2004-05-31,364275.0
2004-04-30,343352.9412
2004-03-31,316000.0
2003-06-30,312882.3529
2003-05-31,287000.0
2002-12-31,284150.0
2002-11-30,287294.1176
2002-10-31,282000.0
2002-04-30,300000.0
2001-11-30,255000.0
2001-08-31,273461.5385
2001-06-30,279219.2308
2001-04-30,259950.0
2000-07-31,272692.3077
2000-05-31,272600.0
2000-04-30,269529.4118
2000-03-31,266000.0
1999-06-30,259000.0
1999-02-28,224950.0
1998-10-31,215832.3529
1998-09-30,188450.0
1998-05-31,211019.2308
1998-03-31,197750.0
1997-10-31,170769.2308
1997-08-31,176038.4615
1997-06-30,180700.0
1997-05-31,178650.0
1997-04-30,170200.0
1997-03-31,170176.4706
1997-02-28,169000.0
1996-07-31,165000.0
