Date,Value
2015-09-30,1.172
2015-08-31,1.162
2015-07-31,1.144
2015-06-30,1.13
2015-05-31,1.126
2015-04-30,1.124
2015-03-31,1.128
2015-02-28,1.13
2015-01-31,1.136
2014-12-31,1.14
2014-11-30,1.142
2014-10-31,1.142
2014-09-30,1.142
2014-08-31,1.142
2014-07-31,1.132
2014-06-30,1.122
2014-05-31,1.112
2014-04-30,1.11
2014-03-31,1.112
2014-02-28,1.116
2014-01-31,1.116
2013-12-31,1.106
2013-11-30,1.094
2013-10-31,1.076
2013-09-30,1.06
2013-08-31,1.042
2013-07-31,1.03
2013-06-30,1.026
2013-05-31,1.024
2013-04-30,1.02
2013-03-31,1.012
2013-02-28,1.004
2013-01-31,1.0
2012-12-31,0.992
2012-11-30,0.99
2012-10-31,0.99
2012-09-30,0.992
2012-08-31,0.996
2012-07-31,0.998
2012-06-30,1.002
2012-05-31,0.996
2012-04-30,0.986
2012-03-31,0.98
2012-02-29,0.98
2012-01-31,0.98
2011-12-31,0.978
2011-11-30,0.974
2011-10-31,0.968
2011-09-30,0.966
2011-08-31,0.968
2011-07-31,0.968
2011-06-30,0.964
2011-05-31,0.964
2011-04-30,0.968
2011-03-31,0.964
2011-02-28,0.954
2011-01-31,0.948
2010-12-31,0.948
2010-11-30,0.946
