Date,Value
2015-09-30,1.386
2015-08-31,1.382
2015-07-31,1.37
2015-06-30,1.352
2015-05-31,1.338
2015-04-30,1.328
2015-03-31,1.322
2015-02-28,1.318
2015-01-31,1.314
2014-12-31,1.31
2014-11-30,1.31
2014-10-31,1.312
2014-09-30,1.31
2014-08-31,1.302
2014-07-31,1.288
2014-06-30,1.274
2014-05-31,1.26
2014-04-30,1.25
2014-03-31,1.244
2014-02-28,1.238
2014-01-31,1.232
2013-12-31,1.224
2013-11-30,1.21
2013-10-31,1.196
2013-09-30,1.186
2013-08-31,1.178
2013-07-31,1.172
2013-06-30,1.168
2013-05-31,1.166
2013-04-30,1.162
2013-03-31,1.15
2013-02-28,1.138
2013-01-31,1.13
2012-12-31,1.124
2012-11-30,1.118
2012-10-31,1.116
2012-09-30,1.118
2012-08-31,1.12
2012-07-31,1.118
2012-06-30,1.116
2012-05-31,1.112
2012-04-30,1.108
2012-03-31,1.106
2012-02-29,1.108
2012-01-31,1.108
2011-12-31,1.102
2011-11-30,1.094
2011-10-31,1.084
2011-09-30,1.07
2011-08-31,1.062
2011-07-31,1.062
2011-06-30,1.06
2011-05-31,1.058
2011-04-30,1.056
2011-03-31,1.056
2011-02-28,1.05
2011-01-31,1.046
2010-12-31,1.04
2010-11-30,1.042
