Date,Value
2015-02-28,479900.0
2015-01-31,475000.0
2014-12-31,350000.0
2014-11-30,357000.0
2014-10-31,475000.0
2014-09-30,479000.0
2014-08-31,500000.0
2014-07-31,550000.0
2014-06-30,475000.0
2014-05-31,499000.0
2014-04-30,575000.0
2014-03-31,425000.0
2014-02-28,429000.0
2014-01-31,429000.0
2013-12-31,425000.0
2013-11-30,425000.0
2013-10-31,425000.0
2013-09-30,425000.0
2013-08-31,425000.0
2013-07-31,479000.0
2013-06-30,474950.0
2013-05-31,474950.0
2013-04-30,412900.0
2013-03-31,499950.0
2013-02-28,399000.0
2013-01-31,399000.0
2012-12-31,425000.0
2012-11-30,499950.0
2012-10-31,499950.0
2012-09-30,489000.0
2012-08-31,425000.0
2012-07-31,525000.0
2012-06-30,585000.0
2012-05-31,550000.0
2012-04-30,599950.0
2012-03-31,419500.0
2012-02-29,365000.0
2012-01-31,350000.0
2011-12-31,350000.0
2011-11-30,379800.0
2011-10-31,379800.0
2011-09-30,369950.0
2011-08-31,399000.0
2011-07-31,389500.0
2011-06-30,449990.0
2011-05-31,439990.0
2011-04-30,449990.0
2011-03-31,325000.0
2011-02-28,300000.0
2011-01-31,300000.0
2010-12-31,379800.0
2010-11-30,379800.0
2010-10-31,395000.0
2010-09-30,379000.0
2010-08-31,374950.0
2010-07-31,359900.0
2010-06-30,349995.0
2010-05-31,375000.0
2010-04-30,395000.0
2010-03-31,397000.0
2010-02-28,450000.0
2010-01-31,499950.0
2009-12-31,469900.0
2009-11-30,450000.0
2009-10-31,500000.0
2009-09-30,499950.0
2009-08-31,500000.0
2009-07-31,549000.0
2009-06-30,525000.0
2009-05-31,593900.0
2009-04-30,593900.0
2009-03-31,629950.0
2009-02-28,629950.0
2009-01-31,539500.0
2008-12-31,549000.0
2008-11-30,549000.0
2008-10-31,539500.0
