Date,Value
2015-02-28,185000.0
2015-01-31,164800.0
2014-12-31,185000.0
2014-11-30,185000.0
2014-10-31,199500.0
2014-09-30,205000.0
2014-08-31,210000.0
2014-07-31,205000.0
2014-06-30,155000.0
2014-05-31,179000.0
2014-04-30,199950.0
2014-03-31,149700.0
2014-02-28,149950.0
2014-01-31,139500.0
2013-12-31,139500.0
2013-11-30,139500.0
2013-10-31,139500.0
2013-09-30,139500.0
2013-08-31,139500.0
2013-07-31,149900.0
2013-06-30,139500.0
2013-05-31,135000.0
2013-04-30,135000.0
2013-03-31,130000.0
2013-02-28,142000.0
2013-01-31,130000.0
2012-12-31,130000.0
2012-11-30,125000.0
2012-10-31,115000.0
2012-09-30,105000.0
2012-08-31,105000.0
2012-07-31,105000.0
2012-06-30,98000.0
2012-05-31,100000.0
2012-04-30,105000.0
2012-03-31,150000.0
2012-02-29,125000.0
2012-01-31,118000.0
2011-12-31,119950.0
2011-11-30,129000.0
2011-10-31,135000.0
2011-09-30,135000.0
2011-08-31,157000.0
2011-07-31,145000.0
2011-06-30,115000.0
2011-05-31,119900.0
2011-04-30,115000.0
2011-03-31,125000.0
2011-02-28,134950.0
2011-01-31,134950.0
2010-12-31,145000.0
2010-11-30,139950.0
2010-10-31,147000.0
2010-09-30,150000.0
2010-08-31,169000.0
2010-07-31,169900.0
2010-06-30,169950.0
2010-05-31,174900.0
2010-04-30,179000.0
2010-03-31,179900.0
2010-02-28,179950.0
2010-01-31,179000.0
2009-12-31,190000.0
2009-11-30,189950.0
2009-10-31,189950.0
2009-09-30,199950.0
2009-08-31,189950.0
2009-07-31,194950.0
2009-06-30,194950.0
2009-05-31,214500.0
2009-04-30,214950.0
2009-03-31,199950.0
2009-02-28,189950.0
2009-01-31,194950.0
2008-12-31,210000.0
2008-11-30,210000.0
2008-10-31,235000.0
