Date,Value
2015-09-30,146500.0
2015-08-31,144400.0
2015-07-31,143600.0
2015-06-30,146000.0
2015-05-31,146400.0
2015-04-30,146100.0
2015-03-31,145300.0
2015-02-28,145600.0
2015-01-31,144300.0
2014-12-31,143600.0
2014-11-30,143000.0
2014-10-31,142800.0
2014-09-30,142800.0
2014-08-31,143300.0
2014-07-31,143700.0
2014-06-30,143200.0
2014-05-31,142500.0
2014-04-30,141600.0
2014-03-31,140200.0
2014-02-28,139300.0
2014-01-31,138400.0
2013-12-31,136600.0
2013-11-30,134100.0
2013-10-31,131900.0
2013-09-30,129900.0
2013-08-31,128200.0
2013-07-31,125700.0
2013-06-30,123100.0
2013-05-31,119600.0
2013-04-30,116500.0
2013-03-31,114600.0
2013-02-28,113500.0
2013-01-31,112300.0
2012-12-31,111500.0
2012-11-30,110400.0
2012-10-31,109500.0
2012-09-30,108700.0
2012-08-31,108100.0
2012-07-31,108100.0
2012-06-30,109300.0
2012-05-31,110500.0
2012-04-30,110700.0
2012-03-31,109800.0
2012-02-29,109100.0
2012-01-31,109000.0
2011-12-31,108900.0
2011-11-30,109100.0
2011-10-31,110100.0
2011-09-30,111600.0
2011-08-31,112800.0
2011-07-31,114200.0
2011-06-30,115500.0
2011-05-31,116800.0
2011-04-30,118400.0
2011-03-31,120600.0
2011-02-28,122100.0
2011-01-31,123200.0
2010-12-31,124400.0
2010-11-30,125600.0
2010-10-31,125900.0
2010-09-30,126000.0
2010-08-31,127000.0
2010-07-31,129000.0
2010-06-30,130500.0
2010-05-31,131600.0
2010-04-30,132800.0
2010-03-31,134500.0
2010-02-28,135700.0
2010-01-31,136000.0
2009-12-31,135900.0
2009-11-30,135900.0
2009-10-31,135600.0
2009-09-30,135900.0
2009-08-31,136400.0
2009-07-31,136600.0
2009-06-30,137000.0
2009-05-31,138600.0
2009-04-30,140400.0
2009-03-31,142200.0
2009-02-28,144000.0
2009-01-31,146600.0
2008-12-31,150000.0
2008-11-30,153500.0
2008-10-31,156800.0
2008-09-30,159000.0
2008-08-31,158800.0
2008-07-31,157800.0
2008-06-30,157700.0
2008-05-31,158700.0
2008-04-30,160300.0
2008-03-31,162100.0
2008-02-29,163300.0
2008-01-31,164400.0
2007-12-31,165300.0
2007-11-30,166000.0
2007-10-31,166400.0
2007-09-30,167000.0
2007-08-31,167800.0
2007-07-31,168700.0
2007-06-30,170000.0
2007-05-31,170700.0
2007-04-30,170000.0
2007-03-31,168700.0
2007-02-28,168300.0
2007-01-31,168000.0
2006-12-31,167700.0
2006-11-30,167400.0
2006-10-31,167700.0
2006-09-30,168100.0
2006-08-31,168500.0
2006-07-31,168300.0
2006-06-30,167300.0
2006-05-31,165800.0
2006-04-30,164400.0
2006-03-31,162800.0
2006-02-28,161300.0
2006-01-31,159400.0
2005-12-31,157600.0
2005-11-30,156200.0
2005-10-31,154900.0
2005-09-30,153200.0
2005-08-31,151500.0
2005-07-31,150200.0
2005-06-30,148300.0
2005-05-31,145700.0
2005-04-30,143000.0
2005-03-31,141000.0
2005-02-28,138900.0
2005-01-31,137000.0
2004-12-31,134800.0
2004-11-30,132500.0
2004-10-31,130000.0
2004-09-30,127700.0
2004-08-31,125700.0
2004-07-31,124400.0
2004-06-30,123200.0
2004-05-31,121900.0
2004-04-30,120500.0
2004-03-31,119200.0
2004-02-29,118200.0
2004-01-31,117300.0
2003-12-31,116700.0
2003-11-30,116100.0
2003-10-31,115700.0
2003-09-30,115200.0
2003-08-31,114900.0
2003-07-31,114000.0
2003-06-30,113200.0
2003-05-31,112800.0
2003-04-30,112800.0
2003-03-31,112500.0
2003-02-28,112300.0
2003-01-31,112000.0
2002-12-31,111600.0
2002-11-30,110700.0
2002-10-31,109600.0
2002-09-30,108500.0
2002-08-31,107800.0
2002-07-31,107300.0
2002-06-30,106800.0
2002-05-31,106300.0
2002-04-30,106300.0
2002-03-31,106100.0
2002-02-28,105600.0
2002-01-31,104900.0
2001-12-31,104600.0
2001-11-30,104200.0
2001-10-31,103600.0
2001-09-30,103100.0
2001-08-31,102600.0
2001-07-31,102400.0
2001-06-30,102700.0
2001-05-31,103300.0
2001-04-30,103900.0
2001-03-31,104300.0
2001-02-28,104000.0
2001-01-31,103700.0
2000-12-31,103400.0
2000-11-30,103400.0
2000-10-31,103700.0
2000-09-30,104400.0
2000-08-31,105100.0
2000-07-31,105400.0
2000-06-30,105300.0
2000-05-31,105200.0
2000-04-30,104900.0
2000-03-31,104800.0
2000-02-29,104700.0
2000-01-31,104600.0
1999-12-31,104200.0
1999-11-30,104500.0
1999-10-31,104800.0
1999-09-30,105800.0
1999-08-31,107100.0
1999-07-31,108500.0
1999-06-30,109100.0
1999-05-31,109300.0
1999-04-30,109500.0
1999-03-31,109700.0
1999-02-28,109300.0
1999-01-31,108500.0
1998-12-31,108600.0
1998-11-30,108800.0
1998-10-31,108400.0
1998-09-30,107500.0
1998-08-31,106400.0
1998-07-31,105200.0
1998-06-30,104700.0
1998-05-31,104500.0
1998-04-30,104100.0
1998-03-31,104000.0
1998-02-28,105100.0
1998-01-31,106800.0
1997-12-31,108000.0
1997-11-30,108500.0
1997-10-31,109200.0
1997-09-30,109300.0
1997-08-31,108500.0
1997-07-31,107200.0
1997-06-30,106400.0
1997-05-31,106100.0
1997-04-30,105900.0
1997-03-31,105300.0
1997-02-28,104700.0
1997-01-31,103700.0
1996-12-31,102600.0
1996-11-30,102300.0
1996-10-31,102300.0
1996-09-30,102000.0
1996-08-31,101500.0
1996-07-31,101200.0
1996-06-30,100400.0
1996-05-31,99100.0
1996-04-30,97600.0
