Date,Value
2015-09-30,282600.0
2015-08-31,273900.0
2015-07-31,271500.0
2015-06-30,272800.0
2015-05-31,269900.0
2015-04-30,267600.0
2015-03-31,267600.0
2015-02-28,267100.0
2015-01-31,264100.0
2014-12-31,260800.0
2014-11-30,257800.0
2014-10-31,254900.0
2014-09-30,250200.0
2014-08-31,246100.0
2014-07-31,246900.0
2014-06-30,250900.0
2014-05-31,254100.0
2014-04-30,251700.0
2014-03-31,246400.0
2014-02-28,243200.0
2014-01-31,243000.0
2013-12-31,241500.0
2013-11-30,237400.0
2013-10-31,232400.0
2013-09-30,228600.0
2013-08-31,224900.0
2013-07-31,221400.0
2013-06-30,214600.0
2013-05-31,207700.0
2013-04-30,205000.0
2013-03-31,205500.0
2013-02-28,205400.0
2013-01-31,205600.0
2012-12-31,205000.0
2012-11-30,203600.0
2012-10-31,202900.0
2012-09-30,201800.0
2012-08-31,199300.0
2012-07-31,196200.0
2012-06-30,194100.0
2012-05-31,193300.0
2012-04-30,192800.0
2012-03-31,191200.0
2012-02-29,188500.0
2012-01-31,186300.0
2011-12-31,186500.0
2011-11-30,188500.0
2011-10-31,190400.0
2011-09-30,192100.0
2011-08-31,193600.0
2011-07-31,195300.0
2011-06-30,198200.0
2011-05-31,201700.0
2011-04-30,205200.0
2011-03-31,209700.0
2011-02-28,212700.0
2011-01-31,212000.0
2010-12-31,210500.0
2010-11-30,210200.0
2010-10-31,211200.0
2010-09-30,213900.0
2010-08-31,218800.0
2010-07-31,223600.0
2010-06-30,227200.0
2010-05-31,229100.0
2010-04-30,230200.0
2010-03-31,231300.0
2010-02-28,232500.0
2010-01-31,234900.0
2009-12-31,238700.0
2009-11-30,244000.0
2009-10-31,248400.0
2009-09-30,250300.0
2009-08-31,250600.0
2009-07-31,250100.0
2009-06-30,249400.0
2009-05-31,250400.0
2009-04-30,253400.0
2009-03-31,256500.0
2009-02-28,259700.0
2009-01-31,264300.0
2008-12-31,269700.0
2008-11-30,273400.0
2008-10-31,275600.0
2008-09-30,277900.0
2008-08-31,281000.0
2008-07-31,284300.0
2008-06-30,286400.0
2008-05-31,287900.0
2008-04-30,291000.0
2008-03-31,294500.0
2008-02-29,297400.0
2008-01-31,299700.0
2007-12-31,301500.0
2007-11-30,302900.0
2007-10-31,303800.0
2007-09-30,303900.0
2007-08-31,303800.0
2007-07-31,304200.0
2007-06-30,304900.0
2007-05-31,304400.0
2007-04-30,301900.0
2007-03-31,297800.0
2007-02-28,294300.0
2007-01-31,291100.0
2006-12-31,287800.0
2006-11-30,284700.0
2006-10-31,282500.0
2006-09-30,281300.0
2006-08-31,278800.0
2006-07-31,274700.0
2006-06-30,271100.0
2006-05-31,268400.0
2006-04-30,263900.0
2006-03-31,260400.0
2006-02-28,258500.0
2006-01-31,256000.0
2005-12-31,251800.0
2005-11-30,247400.0
2005-10-31,243600.0
2005-09-30,240800.0
2005-08-31,238000.0
2005-07-31,234800.0
2005-06-30,231700.0
2005-05-31,227900.0
2005-04-30,224300.0
2005-03-31,221900.0
2005-02-28,220000.0
2005-01-31,217600.0
2004-12-31,215000.0
2004-11-30,212300.0
2004-10-31,210000.0
2004-09-30,208200.0
2004-08-31,207200.0
2004-07-31,206500.0
2004-06-30,206300.0
2004-05-31,205500.0
2004-04-30,204100.0
2004-03-31,202500.0
2004-02-29,201700.0
2004-01-31,200200.0
2003-12-31,198200.0
2003-11-30,196400.0
2003-10-31,195300.0
2003-09-30,194400.0
2003-08-31,193800.0
2003-07-31,192500.0
2003-06-30,189900.0
2003-05-31,188100.0
2003-04-30,188000.0
2003-03-31,187800.0
2003-02-28,185900.0
2003-01-31,184700.0
2002-12-31,185200.0
2002-11-30,186700.0
2002-10-31,187500.0
2002-09-30,186800.0
2002-08-31,185100.0
2002-07-31,184900.0
2002-06-30,185700.0
2002-05-31,185700.0
2002-04-30,185100.0
2002-03-31,184100.0
2002-02-28,182600.0
2002-01-31,181200.0
2001-12-31,180300.0
2001-11-30,179100.0
2001-10-31,176600.0
2001-09-30,174400.0
2001-08-31,173200.0
2001-07-31,171800.0
2001-06-30,170400.0
2001-05-31,169800.0
2001-04-30,168600.0
2001-03-31,167600.0
2001-02-28,167700.0
2001-01-31,168400.0
2000-12-31,167900.0
2000-11-30,166600.0
2000-10-31,165700.0
2000-09-30,165200.0
2000-08-31,164500.0
2000-07-31,163600.0
2000-06-30,162600.0
2000-05-31,161900.0
2000-04-30,161300.0
2000-03-31,160100.0
2000-02-29,158800.0
2000-01-31,158300.0
1999-12-31,157500.0
1999-11-30,157000.0
1999-10-31,156300.0
1999-09-30,155400.0
1999-08-31,154800.0
1999-07-31,154900.0
1999-06-30,154900.0
1999-05-31,154700.0
1999-04-30,155100.0
1999-03-31,155000.0
1999-02-28,153600.0
1999-01-31,151400.0
1998-12-31,149300.0
1998-11-30,147600.0
1998-10-31,146700.0
1998-09-30,145400.0
1998-08-31,143600.0
1998-07-31,142500.0
1998-06-30,142400.0
1998-05-31,141900.0
1998-04-30,141500.0
1998-03-31,140700.0
1998-02-28,139100.0
1998-01-31,137700.0
1997-12-31,137500.0
1997-11-30,137200.0
1997-10-31,136000.0
1997-09-30,134500.0
1997-08-31,133400.0
1997-07-31,131200.0
1997-06-30,128700.0
1997-05-31,127100.0
1997-04-30,126200.0
1997-03-31,126000.0
1997-02-28,126100.0
1997-01-31,125400.0
1996-12-31,124400.0
1996-11-30,123900.0
1996-10-31,124200.0
1996-09-30,125000.0
1996-08-31,125500.0
1996-07-31,125400.0
1996-06-30,125600.0
1996-05-31,125800.0
1996-04-30,125600.0
