Date,Value
2015-09-30,262600.0
2015-08-31,260100.0
2015-07-31,258400.0
2015-06-30,258800.0
2015-05-31,256700.0
2015-04-30,254600.0
2015-03-31,254100.0
2015-02-28,253600.0
2015-01-31,250600.0
2014-12-31,250900.0
2014-11-30,250800.0
2014-10-31,250500.0
2014-09-30,250500.0
2014-08-31,250600.0
2014-07-31,250000.0
2014-06-30,248700.0
2014-05-31,247600.0
2014-04-30,247300.0
2014-03-31,247700.0
2014-02-28,248000.0
2014-01-31,247900.0
2013-12-31,246700.0
2013-11-30,244600.0
2013-10-31,242500.0
2013-09-30,240600.0
2013-08-31,238500.0
2013-07-31,235400.0
2013-06-30,231700.0
2013-05-31,229100.0
2013-04-30,227900.0
2013-03-31,227200.0
2013-02-28,226800.0
2013-01-31,226600.0
2012-12-31,226500.0
2012-11-30,226200.0
2012-10-31,225400.0
2012-09-30,224100.0
2012-08-31,222200.0
2012-07-31,220600.0
2012-06-30,219200.0
2012-05-31,218500.0
2012-04-30,217700.0
2012-03-31,216400.0
2012-02-29,215200.0
2012-01-31,214900.0
2011-12-31,214500.0
2011-11-30,213700.0
2011-10-31,212700.0
2011-09-30,212100.0
2011-08-31,212200.0
2011-07-31,212500.0
2011-06-30,213200.0
2011-05-31,215000.0
2011-04-30,218100.0
2011-03-31,219900.0
2011-02-28,220400.0
2011-01-31,221100.0
2010-12-31,223000.0
2010-11-30,225300.0
2010-10-31,228000.0
2010-09-30,230800.0
2010-08-31,233800.0
2010-07-31,236200.0
2010-06-30,237800.0
2010-05-31,237900.0
2010-04-30,237000.0
2010-03-31,235700.0
2010-02-28,235400.0
2010-01-31,235400.0
2009-12-31,235200.0
2009-11-30,234800.0
2009-10-31,234300.0
2009-09-30,234000.0
2009-08-31,233800.0
2009-07-31,233400.0
2009-06-30,233500.0
2009-05-31,233900.0
2009-04-30,233800.0
2009-03-31,234700.0
2009-02-28,236900.0
2009-01-31,239000.0
2008-12-31,240400.0
2008-11-30,241500.0
2008-10-31,242700.0
2008-09-30,243900.0
2008-08-31,244800.0
2008-07-31,246200.0
2008-06-30,248800.0
2008-05-31,252000.0
2008-04-30,254900.0
2008-03-31,256700.0
2008-02-29,256900.0
2008-01-31,256100.0
2007-12-31,256000.0
2007-11-30,256600.0
2007-10-31,257400.0
2007-09-30,257300.0
2007-08-31,256100.0
2007-07-31,254800.0
2007-06-30,254100.0
2007-05-31,253000.0
2007-04-30,252700.0
2007-03-31,252800.0
2007-02-28,251600.0
2007-01-31,250000.0
2006-12-31,248900.0
2006-11-30,247700.0
2006-10-31,247200.0
2006-09-30,249100.0
2006-08-31,253000.0
2006-07-31,257300.0
2006-06-30,259500.0
2006-05-31,259200.0
2006-04-30,257900.0
2006-03-31,257000.0
2006-02-28,256500.0
2006-01-31,254800.0
2005-12-31,251600.0
2005-11-30,249200.0
2005-10-31,246400.0
2005-09-30,241300.0
2005-08-31,235500.0
2005-07-31,230800.0
2005-06-30,226000.0
2005-05-31,221300.0
2005-04-30,215900.0
2005-03-31,210900.0
2005-02-28,207600.0
2005-01-31,205700.0
2004-12-31,203800.0
2004-11-30,201200.0
2004-10-31,197800.0
2004-09-30,194400.0
2004-08-31,190400.0
2004-07-31,185800.0
2004-06-30,182100.0
2004-05-31,179600.0
2004-04-30,177500.0
2004-03-31,175000.0
2004-02-29,172200.0
2004-01-31,169200.0
2003-12-31,166400.0
2003-11-30,163900.0
2003-10-31,162000.0
2003-09-30,160600.0
2003-08-31,159700.0
2003-07-31,159400.0
2003-06-30,158500.0
2003-05-31,157000.0
2003-04-30,155200.0
2003-03-31,153600.0
2003-02-28,152000.0
2003-01-31,151000.0
2002-12-31,150500.0
2002-11-30,150100.0
2002-10-31,149300.0
2002-09-30,148100.0
2002-08-31,145700.0
2002-07-31,142300.0
2002-06-30,139300.0
2002-05-31,137900.0
2002-04-30,137900.0
2002-03-31,138100.0
2002-02-28,137600.0
2002-01-31,136200.0
2001-12-31,134800.0
2001-11-30,133100.0
2001-10-31,130900.0
2001-09-30,129500.0
2001-08-31,129800.0
2001-07-31,131100.0
2001-06-30,132200.0
2001-05-31,132200.0
2001-04-30,131200.0
2001-03-31,130500.0
2001-02-28,130500.0
2001-01-31,131200.0
2000-12-31,132300.0
2000-11-30,133600.0
2000-10-31,134900.0
2000-09-30,136100.0
2000-08-31,136000.0
2000-07-31,134600.0
2000-06-30,133100.0
2000-05-31,132400.0
2000-04-30,131700.0
2000-03-31,130800.0
2000-02-29,129800.0
2000-01-31,128600.0
1999-12-31,127300.0
1999-11-30,126100.0
1999-10-31,125100.0
1999-09-30,124100.0
1999-08-31,123400.0
1999-07-31,122700.0
1999-06-30,122400.0
1999-05-31,122100.0
1999-04-30,121700.0
1999-03-31,121300.0
1999-02-28,121000.0
1999-01-31,120400.0
1998-12-31,119600.0
1998-11-30,118900.0
1998-10-31,118600.0
1998-09-30,117700.0
1998-08-31,116400.0
1998-07-31,115700.0
1998-06-30,115800.0
1998-05-31,115300.0
1998-04-30,115000.0
1998-03-31,115100.0
1998-02-28,114800.0
1998-01-31,113900.0
1997-12-31,113300.0
1997-11-30,112600.0
1997-10-31,112200.0
1997-09-30,112500.0
1997-08-31,113500.0
1997-07-31,113900.0
1997-06-30,113600.0
1997-05-31,113700.0
1997-04-30,114200.0
1997-03-31,114300.0
1997-02-28,113600.0
1997-01-31,112400.0
1996-12-31,111500.0
1996-11-30,110900.0
1996-10-31,110200.0
1996-09-30,109800.0
1996-08-31,109400.0
1996-07-31,109400.0
1996-06-30,109600.0
1996-05-31,109300.0
1996-04-30,108300.0
