Date,Value
2015-02-28,337500.0
2015-01-31,295000.0
2014-12-31,292950.0
2014-11-30,299950.0
2014-10-31,299950.0
2014-09-30,259900.0
2014-08-31,269000.0
2014-07-31,269000.0
2014-06-30,249950.0
2014-05-31,249000.0
2014-04-30,269999.0
2014-03-31,239967.0
2014-02-28,269999.0
2014-01-31,318000.0
2013-12-31,289000.0
2013-11-30,255000.0
2013-10-31,255000.0
2013-09-30,259800.0
2013-08-31,252950.0
2013-07-31,245663.0
2013-06-30,229000.0
2013-05-31,299900.0
2013-04-30,299000.0
2013-03-31,239950.0
2013-02-28,229000.0
2013-01-31,199999.0
2012-12-31,179000.0
2012-11-30,194000.0
2012-10-31,222000.0
2012-09-30,222000.0
2012-08-31,204500.0
2012-07-31,204500.0
2012-06-30,214900.0
2012-05-31,209000.0
2012-04-30,179950.0
2012-03-31,185000.0
2012-02-29,185000.0
2012-01-31,200000.0
2011-12-31,199900.0
2011-11-30,215000.0
2011-10-31,215000.0
2011-09-30,220000.0
2011-08-31,216500.0
2011-07-31,214900.0
2011-06-30,189950.0
2011-05-31,212500.0
2011-04-30,209000.0
2011-03-31,219950.0
2011-02-28,220500.0
2011-01-31,235000.0
2010-12-31,249950.0
2010-11-30,235000.0
2010-10-31,249950.0
2010-09-30,250000.0
2010-08-31,240000.0
2010-07-31,260000.0
2010-06-30,259000.0
2010-05-31,259000.0
2010-04-30,257990.0
2010-03-31,265000.0
2010-02-28,277500.0
2010-01-31,275000.0
2009-12-31,284900.0
2009-11-30,274950.0
2009-10-31,300000.0
2009-09-30,299950.0
2009-08-31,299950.0
2009-07-31,299950.0
2009-06-30,324990.0
2009-05-31,295000.0
2009-04-30,299990.0
2009-03-31,309000.0
2009-02-28,337000.0
2009-01-31,355000.0
2008-12-31,343000.0
2008-11-30,340000.0
2008-10-31,340000.0
