Date,Value
2015-09-30,210900.0
2015-08-31,209100.0
2015-07-31,208400.0
2015-06-30,210900.0
2015-05-31,213000.0
2015-04-30,212000.0
2015-03-31,209000.0
2015-02-28,207200.0
2015-01-31,205000.0
2014-12-31,202000.0
2014-11-30,197200.0
2014-10-31,193400.0
2014-09-30,193400.0
2014-08-31,191800.0
2014-07-31,187300.0
2014-06-30,183200.0
2014-05-31,178400.0
2014-04-30,171000.0
2014-03-31,165400.0
2014-02-28,162900.0
2014-01-31,161600.0
2013-12-31,160100.0
2013-11-30,158500.0
2013-10-31,156600.0
2013-09-30,153000.0
2013-08-31,150400.0
2013-07-31,149300.0
2013-06-30,147300.0
2013-05-31,143700.0
2013-04-30,141400.0
2013-03-31,139100.0
2013-02-28,136300.0
2013-01-31,133700.0
2012-12-31,132000.0
2012-11-30,130200.0
2012-10-31,128300.0
2012-09-30,126900.0
2012-08-31,126400.0
2012-07-31,126200.0
2012-06-30,126400.0
2012-05-31,126100.0
2012-04-30,125400.0
2012-03-31,124800.0
2012-02-29,124800.0
2012-01-31,125600.0
2011-12-31,127600.0
2011-11-30,130900.0
2011-10-31,134800.0
2011-09-30,138000.0
2011-08-31,140000.0
2011-07-31,142100.0
2011-06-30,144600.0
2011-05-31,147400.0
2011-04-30,152700.0
2011-03-31,160000.0
2011-02-28,165400.0
2011-01-31,168100.0
2010-12-31,170600.0
2010-11-30,172300.0
2010-10-31,173200.0
2010-09-30,174100.0
2010-08-31,175300.0
2010-07-31,177300.0
2010-06-30,180900.0
2010-05-31,186400.0
2010-04-30,190700.0
2010-03-31,193400.0
2010-02-28,196200.0
2010-01-31,199000.0
2009-12-31,198700.0
2009-11-30,197800.0
2009-10-31,197400.0
2009-09-30,196900.0
2009-08-31,196800.0
2009-07-31,198500.0
2009-06-30,200500.0
2009-05-31,203000.0
2009-04-30,207000.0
2009-03-31,211400.0
2009-02-28,214900.0
2009-01-31,218200.0
2008-12-31,222800.0
2008-11-30,227400.0
2008-10-31,231200.0
2008-09-30,234400.0
2008-08-31,236300.0
2008-07-31,236900.0
2008-06-30,239200.0
2008-05-31,242900.0
2008-04-30,242100.0
2008-03-31,238300.0
2008-02-29,238400.0
2008-01-31,241200.0
2007-12-31,242600.0
2007-11-30,244100.0
2007-10-31,245900.0
2007-09-30,248200.0
2007-08-31,250100.0
2007-07-31,249600.0
2007-06-30,248400.0
2007-05-31,246900.0
2007-04-30,246300.0
2007-03-31,244700.0
2007-02-28,239100.0
2007-01-31,232200.0
2006-12-31,228700.0
2006-11-30,226200.0
2006-10-31,222800.0
2006-09-30,219800.0
2006-08-31,217300.0
2006-07-31,212500.0
2006-06-30,204100.0
2006-05-31,194900.0
2006-04-30,188600.0
2006-03-31,184900.0
2006-02-28,182200.0
2006-01-31,179700.0
2005-12-31,177300.0
2005-11-30,175000.0
2005-10-31,172200.0
2005-09-30,168900.0
2005-08-31,166100.0
2005-07-31,164800.0
2005-06-30,164500.0
2005-05-31,165100.0
2005-04-30,165200.0
2005-03-31,164000.0
2005-02-28,162700.0
2005-01-31,160600.0
2004-12-31,156500.0
2004-11-30,151800.0
2004-10-31,149400.0
2004-09-30,148300.0
2004-08-31,147400.0
2004-07-31,147600.0
2004-06-30,147400.0
2004-05-31,144400.0
2004-04-30,141700.0
2004-03-31,140900.0
2004-02-29,140700.0
2004-01-31,140900.0
2003-12-31,141100.0
2003-11-30,140500.0
2003-10-31,139300.0
2003-09-30,139000.0
2003-08-31,138800.0
2003-07-31,138400.0
2003-06-30,138600.0
2003-05-31,140500.0
2003-04-30,140700.0
2003-03-31,138900.0
2003-02-28,137500.0
2003-01-31,137300.0
2002-12-31,137000.0
2002-11-30,137700.0
2002-10-31,138400.0
2002-09-30,137700.0
2002-08-31,136100.0
2002-07-31,135300.0
2002-06-30,135100.0
2002-05-31,135400.0
2002-04-30,135500.0
2002-03-31,135300.0
2002-02-28,135100.0
2002-01-31,134700.0
2001-12-31,135000.0
2001-11-30,135600.0
2001-10-31,135600.0
2001-09-30,135100.0
2001-08-31,134800.0
2001-07-31,134200.0
2001-06-30,133800.0
2001-05-31,132900.0
2001-04-30,131900.0
2001-03-31,131300.0
2001-02-28,130900.0
2001-01-31,130000.0
2000-12-31,129300.0
2000-11-30,129700.0
2000-10-31,129700.0
2000-09-30,129300.0
2000-08-31,129000.0
2000-07-31,128100.0
2000-06-30,126200.0
2000-05-31,124700.0
2000-04-30,124000.0
2000-03-31,123000.0
2000-02-29,122100.0
2000-01-31,121200.0
1999-12-31,120300.0
1999-11-30,118600.0
1999-10-31,118200.0
1999-09-30,117800.0
1999-08-31,116700.0
1999-07-31,115200.0
1999-06-30,114400.0
1999-05-31,113100.0
1999-04-30,112100.0
1999-03-31,111700.0
1999-02-28,111000.0
1999-01-31,109800.0
1998-12-31,108700.0
1998-11-30,107800.0
1998-10-31,107000.0
1998-09-30,107100.0
1998-08-31,107000.0
1998-07-31,106300.0
1998-06-30,105100.0
1998-05-31,102700.0
1998-04-30,101100.0
1998-03-31,101400.0
1998-02-28,101100.0
1998-01-31,99200.0
1997-12-31,98000.0
1997-11-30,96800.0
1997-10-31,95300.0
1997-09-30,94000.0
1997-08-31,92600.0
1997-07-31,91300.0
1997-06-30,90200.0
1997-05-31,89800.0
1997-04-30,89600.0
1997-03-31,89500.0
1997-02-28,89600.0
1997-01-31,89900.0
1996-12-31,89500.0
1996-11-30,89200.0
1996-10-31,87400.0
1996-09-30,85700.0
1996-08-31,85100.0
1996-07-31,86000.0
1996-06-30,86400.0
1996-05-31,87400.0
1996-04-30,88900.0
