Date,Value
2015-09-30,0.988
2015-08-31,0.984
2015-07-31,0.98
2015-06-30,0.974
2015-05-31,0.968
2015-04-30,0.96
2015-03-31,0.958
2015-02-28,0.96
2015-01-31,0.966
2014-12-31,0.962
2014-11-30,0.96
2014-10-31,0.95
2014-09-30,0.94
2014-08-31,0.932
2014-07-31,0.924
2014-06-30,0.918
2014-05-31,0.912
2014-04-30,0.906
2014-03-31,0.91
2014-02-28,0.916
2014-01-31,0.922
2013-12-31,0.916
2013-11-30,0.914
2013-10-31,0.91
2013-09-30,0.904
2013-08-31,0.9
2013-07-31,0.89
2013-06-30,0.88
2013-05-31,0.87
2013-04-30,0.862
2013-03-31,0.866
2013-02-28,0.876
2013-01-31,0.878
2012-12-31,0.862
2012-11-30,0.85
2012-10-31,0.844
2012-09-30,0.842
2012-08-31,0.842
2012-07-31,0.84
2012-06-30,0.838
2012-05-31,0.826
2012-04-30,0.814
2012-03-31,0.812
2012-02-29,0.824
2012-01-31,0.824
2011-12-31,0.81
2011-11-30,0.794
2011-10-31,0.784
2011-09-30,0.782
2011-08-31,0.778
2011-07-31,0.776
2011-06-30,0.774
2011-05-31,0.782
2011-04-30,0.786
2011-03-31,0.756
2011-02-28,0.704
2011-01-31,0.66
2010-12-31,0.676
2010-11-30,0.688
