Date,Value
2015-09-30,1.038
2015-08-31,1.022
2015-07-31,1.002
2015-06-30,0.988
2015-05-31,0.99
2015-04-30,1.0
2015-03-31,1.002
2015-02-28,0.992
2015-01-31,0.982
2014-12-31,0.978
2014-11-30,0.974
2014-10-31,0.964
2014-09-30,0.958
2014-08-31,0.942
2014-07-31,0.92
2014-06-30,0.892
2014-05-31,0.886
2014-04-30,0.9
2014-03-31,0.93
2014-02-28,0.946
2014-01-31,0.946
2013-12-31,0.958
2013-11-30,0.96
2013-10-31,0.96
2013-09-30,0.958
2013-08-31,0.962
2013-07-31,0.96
2013-06-30,0.956
2013-05-31,0.956
2013-04-30,0.948
2013-03-31,0.936
2013-02-28,0.92
2013-01-31,0.908
2012-12-31,0.904
2012-11-30,0.906
2012-10-31,0.9
2012-09-30,0.898
2012-08-31,0.888
2012-07-31,0.89
2012-06-30,0.906
2012-05-31,0.884
2012-04-30,0.86
2012-03-31,0.826
2012-02-29,0.822
2012-01-31,0.802
2011-12-31,0.79
2011-11-30,0.784
2011-10-31,0.778
2011-09-30,0.78
2011-08-31,0.79
2011-07-31,0.8
2011-06-30,0.804
2011-05-31,0.82
2011-04-30,0.826
2011-03-31,0.832
2011-02-28,0.826
2011-01-31,0.83
2010-12-31,0.826
2010-11-30,0.82
