Date,Value
2015-09-30,1.444
2015-08-31,1.444
2015-07-31,1.412
2015-06-30,1.41
2015-05-31,1.408
2015-04-30,1.402
2015-03-31,1.388
2015-02-28,1.372
2015-01-31,1.36
2014-12-31,1.348
2014-11-30,1.342
2014-10-31,1.34
2014-09-30,1.338
2014-08-31,1.33
2014-07-31,1.31
2014-06-30,1.282
2014-05-31,1.262
2014-04-30,1.25
2014-03-31,1.252
2014-02-28,1.254
2014-01-31,1.256
2013-12-31,1.254
2013-11-30,1.246
2013-10-31,1.242
2013-09-30,1.236
2013-08-31,1.228
2013-07-31,1.23
2013-06-30,1.236
2013-05-31,1.246
2013-04-30,1.246
2013-03-31,1.23
2013-02-28,1.212
2013-01-31,1.196
2012-12-31,1.188
2012-11-30,1.186
2012-10-31,1.194
2012-09-30,1.194
2012-08-31,1.19
2012-07-31,1.186
2012-06-30,1.184
2012-05-31,1.174
2012-04-30,1.162
2012-03-31,1.152
2012-02-29,1.15
2012-01-31,1.138
2011-12-31,1.122
2011-11-30,1.104
2011-10-31,1.09
2011-09-30,1.076
2011-08-31,1.07
2011-07-31,1.074
2011-06-30,1.074
2011-05-31,1.076
2011-04-30,1.076
2011-03-31,1.074
2011-02-28,1.07
2011-01-31,1.072
2010-12-31,1.08
2010-11-30,1.086
