Date,Value
2008-05-31,281591.5385
2008-03-31,310230.0
2007-05-31,296153.8462
2007-03-31,330000.0
2006-12-31,294446.1538
2006-10-31,301923.0769
2006-08-31,280100.0
2006-07-31,291100.0
2006-06-30,304755.0
2006-05-31,293187.5
2006-04-30,279155.8824
2006-03-31,256950.0
2005-11-30,246038.4615
2005-09-30,240090.0
2005-08-31,237150.0
2005-07-31,234142.5
2005-06-30,242157.65
2005-05-31,239950.35
2005-04-30,233425.5
2005-03-31,239647.0588
2005-02-28,207000.0
2004-11-30,232042.5
2004-10-31,226332.5
2004-09-30,224205.8824
2004-08-31,210615.3846
2004-06-30,219884.6154
2004-04-30,197647.0588
2004-03-31,195000.0
2003-10-31,181635.0
2003-09-30,193290.0
2003-08-31,190323.5294
2003-07-31,199500.0
2003-04-30,187911.7647
2003-03-31,185000.0
2002-05-31,199000.0
2002-04-30,185192.5
2002-03-31,191802.9412
2002-02-28,172950.0
2001-11-30,174750.0
2001-07-31,187500.0
2001-06-30,180117.6471
2001-05-31,180911.3077
2001-03-31,163949.0
2000-11-30,166911.5385
2000-09-30,167500.0
2000-08-31,160769.2308
2000-06-30,155147.0588
2000-05-31,160757.6923
2000-03-31,154950.0
1999-11-30,169937.0
1999-08-31,174675.0
1999-07-31,172550.0
1999-06-30,170529.4118
1999-05-31,157000.0
1999-02-28,175000.0
1998-08-31,150450.0
1998-07-31,153142.5
1998-06-30,154482.5
1998-05-31,139225.0
1998-04-30,137941.1765
1998-03-31,135000.0
1997-12-31,130500.0
1997-11-30,127125.0
1997-10-31,134592.5
1997-09-30,135567.6471
1997-08-31,140500.0
1997-06-30,155423.0769
1997-04-30,147823.5294
1997-03-31,154000.0
1996-09-30,143450.0
1996-07-31,144950.0
