Date,Value
2015-09-30,0.934
2015-08-31,0.924
2015-07-31,0.91
2015-06-30,0.898
2015-05-31,0.882
2015-04-30,0.868
2015-03-31,0.864
2015-02-28,0.858
2015-01-31,0.856
2014-12-31,0.85
2014-11-30,0.852
2014-10-31,0.856
2014-09-30,0.858
2014-08-31,0.856
2014-07-31,0.846
2014-06-30,0.832
2014-05-31,0.814
2014-04-30,0.802
2014-03-31,0.802
2014-02-28,0.808
2014-01-31,0.818
2013-12-31,0.824
2013-11-30,0.826
2013-10-31,0.828
2013-09-30,0.828
2013-08-31,0.826
2013-07-31,0.824
2013-06-30,0.822
2013-05-31,0.818
2013-04-30,0.814
2013-03-31,0.81
2013-02-28,0.804
2013-01-31,0.802
2012-12-31,0.8
2012-11-30,0.802
2012-10-31,0.802
2012-09-30,0.798
2012-08-31,0.786
2012-07-31,0.782
2012-06-30,0.782
2012-05-31,0.786
2012-04-30,0.776
2012-03-31,0.764
2012-02-29,0.748
2012-01-31,0.73
2011-12-31,0.716
2011-11-30,0.7
2011-10-31,0.692
2011-09-30,0.688
2011-08-31,0.694
2011-07-31,0.702
2011-06-30,0.712
2011-05-31,0.724
2011-04-30,0.74
2011-03-31,0.75
2011-02-28,0.758
2011-01-31,0.762
2010-12-31,0.77
2010-11-30,0.772
