Date,Value
2015-09-30,1.434
2015-08-31,1.426
2015-07-31,1.41
2015-06-30,1.39
2015-05-31,1.372
2015-04-30,1.358
2015-03-31,1.348
2015-02-28,1.34
2015-01-31,1.336
2014-12-31,1.334
2014-11-30,1.334
2014-10-31,1.332
2014-09-30,1.332
2014-08-31,1.32
2014-07-31,1.302
2014-06-30,1.278
2014-05-31,1.262
2014-04-30,1.25
2014-03-31,1.252
2014-02-28,1.252
2014-01-31,1.25
2013-12-31,1.242
2013-11-30,1.228
2013-10-31,1.216
2013-09-30,1.204
2013-08-31,1.196
2013-07-31,1.192
2013-06-30,1.192
2013-05-31,1.194
2013-04-30,1.194
2013-03-31,1.184
2013-02-28,1.172
2013-01-31,1.164
2012-12-31,1.158
2012-11-30,1.15
2012-10-31,1.144
2012-09-30,1.144
2012-08-31,1.142
2012-07-31,1.138
2012-06-30,1.138
2012-05-31,1.128
2012-04-30,1.116
2012-03-31,1.102
2012-02-29,1.102
2012-01-31,1.102
2011-12-31,1.096
2011-11-30,1.086
2011-10-31,1.072
2011-09-30,1.06
2011-08-31,1.054
2011-07-31,1.056
2011-06-30,1.054
2011-05-31,1.052
2011-04-30,1.05
2011-03-31,1.048
2011-02-28,1.036
2011-01-31,1.022
2010-12-31,1.014
2010-11-30,1.014
