Date,Value
2015-02-28,1499000.0
2015-01-31,1499000.0
2014-12-31,1250000.0
2014-11-30,1579000.0
2014-10-31,1399000.0
2014-09-30,1150000.0
2014-08-31,1150000.0
2014-07-31,1095000.0
2014-06-30,1295000.0
2014-05-31,1295000.0
2014-04-30,1250000.0
2014-03-31,1300000.0
2014-02-28,1100000.0
2014-01-31,995000.0
2013-12-31,1195000.0
2013-11-30,1495000.0
2013-10-31,1349000.0
2013-09-30,1445000.0
2013-08-31,1190000.0
2013-07-31,1150000.0
2013-06-30,1150000.0
2013-05-31,1250000.0
2013-04-30,1250000.0
2013-03-31,1195000.0
2013-02-28,1095000.0
2013-01-31,1079000.0
2012-12-31,1350000.0
2012-11-30,1290000.0
2012-10-31,1200000.0
2012-09-30,1195000.0
2012-08-31,1195000.0
2012-07-31,1150000.0
2012-06-30,1100000.0
2012-05-31,1095000.0
2012-04-30,920000.0
2012-03-31,889000.0
2012-02-29,920000.0
2012-01-31,949900.0
2011-12-31,949900.0
2011-11-30,1025000.0
2011-10-31,1100000.0
2011-09-30,1100000.0
2011-08-31,1100000.0
2011-07-31,1195000.0
2011-06-30,1150000.0
2011-05-31,1139500.0
2011-04-30,1249000.0
2011-03-31,1088000.0
2011-02-28,985000.0
2011-01-31,995000.0
2010-12-31,940000.0
2010-11-30,940000.0
2010-10-31,945000.0
2010-09-30,995000.0
2010-08-31,1100000.0
2010-07-31,1000000.0
2010-06-30,1100000.0
2010-05-31,1000000.0
2010-04-30,890000.0
2010-03-31,935000.0
2010-02-28,934000.0
2010-01-31,975000.0
2009-12-31,960000.0
2009-11-30,975000.0
2009-10-31,1175000.0
2009-09-30,995000.0
2009-08-31,1188000.0
2009-07-31,1188000.0
2009-06-30,1295000.0
2009-05-31,1350000.0
2009-04-30,1295000.0
2009-03-31,1350000.0
2009-02-28,1295000.0
2009-01-31,1350000.0
2008-12-31,1500000.0
2008-11-30,1549000.0
2008-10-31,1350000.0
