Date,Value
2015-08-31,482500.0
2015-07-31,463750.0
2015-05-31,395000.0
2014-09-30,377076.9231
2014-07-31,600475.0
2014-05-31,530000.0
2014-04-30,485000.0
2013-06-30,738000.0
2013-03-31,433138.4615
2013-01-31,277000.0
2012-10-31,388230.7692
2012-08-31,376988.4615
2012-06-30,536950.0
2012-03-31,368915.3846
2011-09-30,410955.8824
2011-08-31,473846.1538
2011-06-30,570000.0
2011-02-28,439461.5385
2010-12-31,423923.0769
2010-10-31,454615.3846
2010-08-31,480000.0
2009-09-30,370000.0
2008-10-31,458000.0
2008-05-31,430000.0
2007-09-30,483957.5
2007-08-31,573450.0
2007-07-31,522846.1538
2007-05-31,435225.0
2007-04-30,463525.0
2007-03-31,505950.0
2007-02-28,488067.5
2007-01-31,409950.0
2006-12-31,400957.5
2006-11-30,403275.0
2006-10-31,381592.5
2006-09-30,317775.0
2006-08-31,318150.0
2006-07-31,320085.0
2006-06-30,367872.5
2006-05-31,435075.0
2006-04-30,507176.4706
2006-03-31,444230.7692
2006-01-31,607307.6923
2005-11-30,567923.0769
2005-09-30,404000.0
2005-08-31,392750.0
2005-07-31,402750.0
2005-06-30,427650.0
2005-05-31,466335.0
2005-04-30,407965.0
2005-03-31,388300.0
2005-02-28,330400.0
2005-01-31,355800.0
2004-12-31,344240.0
2004-11-30,390510.0
2004-10-31,384300.0
2004-09-30,360975.0
2004-08-31,364525.0
2004-07-31,368500.0
2004-06-30,364800.0
2004-05-31,352588.2353
2004-04-30,342000.0
2003-12-31,349225.0
2003-11-30,366150.0
2003-09-30,301923.0769
2003-07-31,264500.0
2003-06-30,312250.0
2003-05-31,325750.0
2003-04-30,321470.5882
2003-03-31,299615.3846
2003-01-31,322411.7647
2002-12-31,333000.0
2002-09-30,460000.0
2002-05-31,417500.0
2001-08-31,315538.4615
2001-06-30,275750.0
2001-05-31,305450.0
2001-04-30,331823.5294
2001-03-31,363000.0
2000-10-31,265882.3529
2000-09-30,271153.8462
2000-07-31,394705.8824
2000-06-30,326730.7692
2000-03-31,330000.0
1999-12-31,280250.0
1999-11-30,299705.8824
1999-10-31,335000.0
1999-07-31,378411.7647
1999-06-30,382284.6154
1999-04-30,293857.5
1999-03-31,309585.0
1999-02-28,268200.0
1999-01-31,284840.0
1998-12-31,299735.2941
1998-11-30,299500.0
1998-09-30,269150.0
1998-08-31,255607.5
1998-07-31,274857.5
1998-05-31,189500.0
1997-12-31,291885.0
1997-11-30,303650.0
1997-10-31,329015.0
1997-09-30,271470.5882
1997-08-31,277692.3077
1997-06-30,281450.0
1997-05-31,243550.0
1997-04-30,228900.0
1997-03-31,237058.8235
1997-02-28,270000.0
1996-10-31,186500.0
1996-05-31,247000.0
