Date,Value
2015-02-28,175000.0
2015-01-31,175000.0
2014-12-31,199900.0
2014-11-30,205000.0
2014-10-31,205000.0
2014-09-30,200000.0
2014-08-31,214900.0
2014-07-31,200000.0
2014-06-30,189000.0
2014-05-31,200000.0
2014-04-30,179900.0
2014-03-31,173900.0
2014-02-28,179900.0
2014-01-31,194900.0
2013-12-31,179900.0
2013-11-30,178000.0
2013-10-31,165000.0
2013-09-30,159900.0
2013-08-31,179000.0
2013-07-31,178000.0
2013-06-30,164900.0
2013-05-31,186900.0
2013-04-30,169900.0
2013-03-31,179900.0
2013-02-28,190000.0
2013-01-31,175000.0
2012-12-31,175000.0
2012-11-30,159900.0
2012-10-31,164900.0
2012-09-30,164900.0
2012-08-31,162500.0
2012-07-31,159900.0
2012-06-30,159900.0
2012-05-31,159900.0
2012-04-30,174800.0
2012-03-31,155000.0
2012-02-29,158000.0
2012-01-31,159000.0
2011-12-31,150000.0
2011-11-30,155000.0
2011-10-31,160000.0
2011-09-30,169900.0
2011-08-31,169900.0
2011-07-31,155000.0
2011-06-30,175000.0
2011-05-31,175000.0
2011-04-30,159500.0
2011-03-31,175000.0
2011-02-28,175000.0
2011-01-31,175000.0
2010-12-31,179000.0
2010-11-30,179000.0
2010-10-31,169900.0
2010-09-30,173500.0
2010-08-31,177000.0
2010-07-31,175000.0
2010-06-30,179900.0
2010-05-31,184000.0
2010-04-30,189900.0
2010-03-31,190000.0
2010-02-28,199900.0
2010-01-31,210900.0
2009-12-31,218900.0
2009-11-30,209800.0
2009-10-31,218900.0
2009-09-30,209800.0
2009-08-31,213900.0
2009-07-31,199900.0
2009-06-30,199900.0
2009-05-31,189900.0
2009-04-30,194900.0
2009-03-31,190000.0
2009-02-28,190000.0
2009-01-31,215900.0
2008-12-31,215900.0
2008-11-30,215900.0
2008-10-31,215000.0
