Date,Value
2015-09-30,1.656
2015-08-31,1.626
2015-07-31,1.584
2015-06-30,1.574
2015-05-31,1.572
2015-04-30,1.572
2015-03-31,1.57
2015-02-28,1.558
2015-01-31,1.54
2014-12-31,1.518
2014-11-30,1.5
2014-10-31,1.498
2014-09-30,1.496
2014-08-31,1.488
2014-07-31,1.468
2014-06-30,1.446
2014-05-31,1.43
2014-04-30,1.418
2014-03-31,1.406
2014-02-28,1.394
2014-01-31,1.378
2013-12-31,1.372
2013-11-30,1.364
2013-10-31,1.358
2013-09-30,1.35
2013-08-31,1.342
2013-07-31,1.342
2013-06-30,1.344
2013-05-31,1.354
2013-04-30,1.358
2013-03-31,1.356
2013-02-28,1.342
2013-01-31,1.318
2012-12-31,1.3
2012-11-30,1.29
2012-10-31,1.294
2012-09-30,1.294
2012-08-31,1.292
2012-07-31,1.288
2012-06-30,1.282
2012-05-31,1.258
2012-04-30,1.232
2012-03-31,1.218
2012-02-29,1.222
2012-01-31,1.222
2011-12-31,1.226
2011-11-30,1.22
2011-10-31,1.206
2011-09-30,1.182
2011-08-31,1.168
2011-07-31,1.168
2011-06-30,1.166
2011-05-31,1.166
2011-04-30,1.176
2011-03-31,1.178
2011-02-28,1.172
2011-01-31,1.168
2010-12-31,1.174
2010-11-30,1.18
