Date,Value
2015-06-30,649000.0
2014-03-31,320000.0
2013-07-31,345000.0
2011-03-31,341000.0
2009-11-30,294950.0
2009-08-31,409000.0
2008-06-30,359000.0
2007-09-30,309117.6471
2007-08-31,321538.4615
2007-06-30,307267.5
2007-05-31,311382.5
2007-04-30,333750.0
2007-03-31,354352.9412
2007-02-28,377000.0
2006-08-31,312450.0
2006-07-31,291352.9412
2006-06-30,299000.0
2005-12-31,231768.5
2005-11-30,241896.5
2005-10-31,284170.0
2005-08-31,227239.0
2005-07-31,214312.5
2005-06-30,213340.0
2005-04-30,281000.0
2004-12-31,240000.0
2004-08-31,204475.0
2004-07-31,210411.7647
2004-06-30,175923.0769
2004-04-30,159230.7692
2004-02-29,160000.0
2003-09-30,215625.0
2003-08-31,194883.2
2003-06-30,163888.0
2002-12-31,258000.0
2002-07-31,163000.0
2002-04-30,260000.0
2001-10-31,136000.0
2001-05-31,299000.0
2000-12-31,126676.4706
2000-11-30,125811.5385
2000-09-30,166943.8462
2000-07-31,300590.0
2000-04-30,165653.8462
2000-02-29,118000.0
1999-10-31,157450.0
1999-09-30,179000.0
1999-08-31,196615.3846
1999-05-31,225368.9231
1999-03-31,219932.0
1998-11-30,228153.8462
1998-09-30,157505.8824
1998-08-31,161296.1538
1998-06-30,217832.3529
1998-05-31,193719.2308
1998-03-31,233642.3077
1997-12-31,102858.0769
1997-10-31,101385.25
1997-09-30,97274.75
1997-08-31,92825.25
1997-07-31,87728.25
1997-06-30,92287.0588
1997-05-31,99290.0
1996-04-30,140000.0
