Date,Value
2015-09-30,0.954
2015-08-31,0.952
2015-07-31,0.948
2015-06-30,0.94
2015-05-31,0.938
2015-04-30,0.94
2015-03-31,0.94
2015-02-28,0.94
2015-01-31,0.938
2014-12-31,0.936
2014-11-30,0.938
2014-10-31,0.936
2014-09-30,0.936
2014-08-31,0.934
2014-07-31,0.93
2014-06-30,0.928
2014-05-31,0.932
2014-04-30,0.938
2014-03-31,0.942
2014-02-28,0.942
2014-01-31,0.938
2013-12-31,0.93
2013-11-30,0.924
2013-10-31,0.92
2013-09-30,0.924
2013-08-31,0.928
2013-07-31,0.926
2013-06-30,0.92
2013-05-31,0.918
2013-04-30,0.918
2013-03-31,0.918
2013-02-28,0.924
2013-01-31,0.926
2012-12-31,0.928
2012-11-30,0.924
2012-10-31,0.916
2012-09-30,0.91
2012-08-31,0.904
2012-07-31,0.9
2012-06-30,0.9
2012-05-31,0.896
2012-04-30,0.89
2012-03-31,0.882
2012-02-29,0.884
2012-01-31,0.886
2011-12-31,0.89
2011-11-30,0.89
2011-10-31,0.886
2011-09-30,0.884
2011-08-31,0.884
2011-07-31,0.884
2011-06-30,0.884
2011-05-31,0.88
2011-04-30,0.872
2011-03-31,0.866
2011-02-28,0.854
2011-01-31,0.842
2010-12-31,0.836
2010-11-30,0.836
