Date,Value
2015-02-28,800000.0
2015-01-31,799000.0
2014-12-31,699000.0
2014-11-30,749000.0
2014-10-31,750000.0
2014-09-30,795000.0
2014-08-31,800000.0
2014-07-31,859950.0
2014-06-30,869950.0
2014-05-31,929500.0
2014-04-30,995000.0
2014-03-31,859950.0
2014-02-28,759950.0
2014-01-31,700000.0
2013-12-31,700000.0
2013-11-30,680000.0
2013-10-31,650000.0
2013-09-30,634000.0
2013-08-31,659900.0
2013-07-31,634000.0
2013-06-30,680000.0
2013-05-31,747950.0
2013-04-30,699500.0
2013-03-31,699950.0
2013-02-28,575000.0
2013-01-31,650000.0
2012-12-31,650000.0
2012-11-30,595000.0
2012-10-31,585000.0
2012-09-30,569950.0
2012-08-31,585000.0
2012-07-31,585000.0
2012-06-30,600000.0
2012-05-31,565000.0
2012-04-30,515000.0
2012-03-31,520000.0
2012-02-29,485000.0
2012-01-31,499950.0
2011-12-31,453950.0
2011-11-30,474500.0
2011-10-31,524950.0
2011-09-30,525000.0
2011-08-31,589000.0
2011-07-31,589000.0
2011-06-30,599000.0
2011-05-31,599000.0
2011-04-30,575000.0
2011-03-31,600000.0
2011-02-28,600000.0
2011-01-31,619500.0
2010-12-31,589000.0
2010-11-30,619500.0
2010-10-31,579990.0
2010-09-30,579990.0
2010-08-31,619950.0
2010-07-31,619950.0
2010-06-30,619950.0
2010-05-31,639000.0
2010-04-30,645000.0
2010-03-31,619500.0
2010-02-28,619500.0
2010-01-31,599000.0
2009-12-31,599950.0
2009-11-30,622777.0
2009-10-31,649000.0
2009-09-30,625000.0
2009-08-31,669000.0
2009-07-31,669000.0
2009-06-30,669000.0
2009-05-31,749950.0
2009-04-30,790000.0
2009-03-31,790000.0
2009-02-28,689000.0
2009-01-31,799950.0
2008-12-31,699000.0
2008-11-30,799950.0
2008-10-31,850000.0
