Date,Value
2015-09-30,139700.0
2015-08-31,138800.0
2015-07-31,137100.0
2015-06-30,135800.0
2015-05-31,134600.0
2015-04-30,132900.0
2015-03-31,133400.0
2015-02-28,134200.0
2015-01-31,133600.0
2014-12-31,132800.0
2014-11-30,131200.0
2014-10-31,129600.0
2014-09-30,128400.0
2014-08-31,127700.0
2014-07-31,127200.0
2014-06-30,127300.0
2014-05-31,128000.0
2014-04-30,129300.0
2014-03-31,130200.0
2014-02-28,129500.0
2014-01-31,128500.0
2013-12-31,128000.0
2013-11-30,128300.0
2013-10-31,128700.0
2013-09-30,128800.0
2013-08-31,128700.0
2013-07-31,128200.0
2013-06-30,127000.0
2013-05-31,125800.0
2013-04-30,124900.0
2013-03-31,124300.0
2013-02-28,124000.0
2013-01-31,124100.0
2012-12-31,124400.0
2012-11-30,124600.0
2012-10-31,124600.0
2012-09-30,124800.0
2012-08-31,125000.0
2012-07-31,125200.0
2012-06-30,125200.0
2012-05-31,124900.0
2012-04-30,124200.0
2012-03-31,123700.0
2012-02-29,123800.0
2012-01-31,123900.0
2011-12-31,123500.0
2011-11-30,123100.0
2011-10-31,122900.0
2011-09-30,123200.0
2011-08-31,123900.0
2011-07-31,124000.0
2011-06-30,123900.0
2011-05-31,124400.0
2011-04-30,124900.0
2011-03-31,125400.0
2011-02-28,126100.0
2011-01-31,127100.0
2010-12-31,128100.0
2010-11-30,129500.0
2010-10-31,131100.0
2010-09-30,132700.0
2010-08-31,134200.0
2010-07-31,135800.0
2010-06-30,136900.0
2010-05-31,137400.0
2010-04-30,137700.0
2010-03-31,138400.0
2010-02-28,139300.0
2010-01-31,140200.0
2009-12-31,141000.0
2009-11-30,141500.0
2009-10-31,141600.0
2009-09-30,141600.0
2009-08-31,141600.0
2009-07-31,141600.0
2009-06-30,141800.0
2009-05-31,142200.0
2009-04-30,142700.0
2009-03-31,143200.0
2009-02-28,143900.0
2009-01-31,144600.0
2008-12-31,145400.0
2008-11-30,146100.0
2008-10-31,147100.0
2008-09-30,148000.0
2008-08-31,148700.0
2008-07-31,149400.0
2008-06-30,150400.0
2008-05-31,151100.0
2008-04-30,151700.0
2008-03-31,152400.0
2008-02-29,152600.0
2008-01-31,152400.0
2007-12-31,152500.0
2007-11-30,152800.0
2007-10-31,153000.0
2007-09-30,152400.0
2007-08-31,151700.0
2007-07-31,151800.0
2007-06-30,152600.0
2007-05-31,153400.0
2007-04-30,153500.0
2007-03-31,152900.0
2007-02-28,151800.0
2007-01-31,150600.0
2006-12-31,149500.0
2006-11-30,148700.0
2006-10-31,147800.0
2006-09-30,146600.0
2006-08-31,145300.0
2006-07-31,144000.0
2006-06-30,142400.0
2006-05-31,140300.0
2006-04-30,137800.0
2006-03-31,135700.0
2006-02-28,134600.0
2006-01-31,133600.0
2005-12-31,132400.0
2005-11-30,130600.0
2005-10-31,128700.0
2005-09-30,126800.0
2005-08-31,125000.0
2005-07-31,123000.0
2005-06-30,121100.0
2005-05-31,119700.0
2005-04-30,118700.0
2005-03-31,117600.0
2005-02-28,116300.0
2005-01-31,115000.0
2004-12-31,113700.0
2004-11-30,112200.0
2004-10-31,111100.0
2004-09-30,110800.0
2004-08-31,110600.0
2004-07-31,109700.0
2004-06-30,108100.0
2004-05-31,106700.0
2004-04-30,105500.0
2004-03-31,104700.0
2004-02-29,103800.0
2004-01-31,103000.0
2003-12-31,102300.0
2003-11-30,101600.0
2003-10-31,101200.0
2003-09-30,100700.0
2003-08-31,100000.0
2003-07-31,99200.0
2003-06-30,98400.0
2003-05-31,97600.0
2003-04-30,97200.0
2003-03-31,96900.0
2003-02-28,96600.0
2003-01-31,96100.0
2002-12-31,95300.0
2002-11-30,94800.0
2002-10-31,94200.0
2002-09-30,93700.0
2002-08-31,93100.0
2002-07-31,92500.0
2002-06-30,92100.0
2002-05-31,92400.0
2002-04-30,92900.0
2002-03-31,93000.0
2002-02-28,93100.0
2002-01-31,93300.0
2001-12-31,93800.0
2001-11-30,94600.0
2001-10-31,95000.0
2001-09-30,94200.0
2001-08-31,93500.0
2001-07-31,93700.0
2001-06-30,94300.0
2001-05-31,94100.0
2001-04-30,93300.0
2001-03-31,92500.0
2001-02-28,91400.0
2001-01-31,90400.0
2000-12-31,89500.0
2000-11-30,88800.0
2000-10-31,88200.0
2000-09-30,87700.0
2000-08-31,87400.0
2000-07-31,87600.0
2000-06-30,87600.0
2000-05-31,87500.0
2000-04-30,87600.0
2000-03-31,87900.0
2000-02-29,88100.0
2000-01-31,87900.0
1999-12-31,87500.0
1999-11-30,87000.0
1999-10-31,86900.0
1999-09-30,87400.0
1999-08-31,87800.0
1999-07-31,87700.0
1999-06-30,87600.0
1999-05-31,87800.0
1999-04-30,87800.0
1999-03-31,87300.0
1999-02-28,86700.0
1999-01-31,86600.0
1998-12-31,86400.0
1998-11-30,85800.0
1998-10-31,85200.0
1998-09-30,85000.0
1998-08-31,84900.0
1998-07-31,84700.0
1998-06-30,84600.0
1998-05-31,84400.0
1998-04-30,84200.0
1998-03-31,84100.0
1998-02-28,84000.0
1998-01-31,83700.0
1997-12-31,83700.0
1997-11-30,83900.0
1997-10-31,84000.0
1997-09-30,83900.0
1997-08-31,83800.0
1997-07-31,83700.0
1997-06-30,83800.0
1997-05-31,83800.0
1997-04-30,83900.0
1997-03-31,84300.0
1997-02-28,84500.0
1997-01-31,84400.0
1996-12-31,84200.0
1996-11-30,84200.0
1996-10-31,84400.0
1996-09-30,84500.0
1996-08-31,84500.0
1996-07-31,84400.0
1996-06-30,84600.0
1996-05-31,84500.0
1996-04-30,84000.0
