Date,Value
2015-09-30,317409.5
2015-08-31,298559.5
2015-07-31,310100.0
2015-06-30,303709.5
2015-05-31,304800.0
2015-04-30,312762.5
2015-02-28,301950.0
2015-01-31,295025.0
2014-12-31,257075.0
2014-11-30,265275.0
2014-10-31,277375.0
2014-09-30,273750.0
2014-08-31,284500.0
2014-07-31,312350.0
2014-06-30,311000.0
2014-05-31,287650.0
2014-04-30,281250.0
2014-03-31,277000.0
2014-02-28,282235.0
2014-01-31,318215.0
2013-12-31,283450.0
2013-11-30,295350.0
2013-10-31,308362.5
2013-09-30,303712.5
2013-08-31,313375.0
2013-07-31,296825.0
2013-06-30,264071.5
2013-05-31,260758.5
2013-04-30,280757.35
2013-03-31,281422.15
2013-02-28,262724.5
2013-01-31,256000.0
2012-12-31,272050.0
2012-11-30,271125.0
2012-10-31,258425.0
2012-09-30,227200.0
2012-08-31,257100.0
2012-07-31,258800.0
2012-06-30,269600.0
2012-05-31,264500.0
2012-04-30,249117.6471
2012-03-31,245769.2308
2012-01-31,252250.0
2011-12-31,244475.0
2011-11-30,241942.5
2011-10-31,247232.5
2011-09-30,243975.0
2011-08-31,259250.0
2011-07-31,257550.0
2011-06-30,247475.0
2011-05-31,237100.0
2011-04-30,244852.9412
2011-03-31,244615.3846
2011-01-31,290650.0
2010-12-31,290425.0
2010-11-30,279525.0
2010-10-31,268150.0
2010-09-30,284350.0
2010-08-31,291750.0
2010-07-31,296500.0
2010-06-30,296000.0
2010-05-31,302000.0
2010-04-30,271750.0
2010-03-31,271158.75
2010-02-28,279203.75
2010-01-31,255412.5
2009-12-31,263650.0
2009-11-30,291000.0
2009-10-31,304537.4
2009-09-30,298420.6
2009-08-31,274802.5
2009-07-31,258597.5
2009-06-30,271225.0
2009-05-31,255250.0
2009-04-30,260700.0
2009-03-31,260294.1176
2009-02-28,261538.4615
2008-12-31,258076.9231
2008-10-31,296975.0
2008-09-30,306050.0
2008-08-31,302750.0
2008-07-31,302550.0
2008-06-30,302450.0
2008-05-31,286500.0
2008-04-30,293750.0
2008-03-31,310294.1176
2008-02-29,308846.1538
2007-12-31,290275.0
2007-11-30,320775.0
2007-10-31,312200.0
2007-09-30,292250.0
2007-08-31,304950.0
2007-07-31,312550.0
2007-06-30,306500.0
2007-05-31,308125.0
2007-04-30,303600.0
2007-03-31,298800.0
2007-02-28,295675.0
2007-01-31,293550.0
2006-12-31,286750.0
2006-11-30,308925.0
2006-10-31,301825.0
2006-09-30,301250.0
2006-08-31,301750.0
2006-07-31,319650.0
2006-06-30,327100.0
2006-05-31,301750.0
2006-04-30,278750.0
2006-03-31,284225.0
2006-02-28,272150.0
2006-01-31,272117.5
2005-12-31,266232.5
2005-11-30,275125.0
2005-10-31,277000.0
2005-09-30,277400.0
2005-08-31,275192.5
2005-07-31,265607.5
2005-06-30,268350.0
2005-05-31,261000.0
2005-04-30,248992.5
2005-03-31,234982.5
2005-02-28,238100.0
2005-01-31,233000.0
2004-12-31,229117.5
2004-11-30,233982.5
2004-10-31,242175.0
2004-09-30,235792.5
2004-08-31,237475.0
2004-07-31,238832.5
2004-06-30,232260.0
2004-05-31,226690.0
2004-04-30,217500.0
2004-03-31,195725.0
2004-02-29,188324.85
2004-01-31,191742.15
2003-12-31,199982.0
2003-11-30,189225.0
2003-10-31,189742.5
2003-09-30,193982.5
2003-08-31,203475.0
2003-07-31,203200.0
2003-06-30,193400.0
2003-05-31,186450.0
2003-04-30,187300.0
2003-03-31,187900.0
2003-02-28,184242.5
2003-01-31,172032.5
2002-12-31,178175.0
2002-11-30,173750.0
2002-10-31,170287.3
2002-09-30,170988.7
2002-08-31,181856.0
2002-07-31,184275.0
2002-06-30,177550.0
2002-05-31,178125.0
2002-04-30,168892.5
2002-03-31,178682.5
2002-02-28,179025.0
2002-01-31,182926.5
2001-12-31,168328.5
2001-11-30,170396.1
2001-10-31,168738.4
2001-09-30,172062.0
2001-08-31,172807.5
2001-07-31,167175.0
2001-06-30,171327.45
2001-05-31,170014.05
2001-04-30,167841.5
2001-03-31,164501.9
2001-02-28,164671.1
2001-01-31,165923.0
2000-12-31,158175.0
2000-11-30,157625.0
2000-10-31,161192.5
2000-09-30,163600.1
2000-08-31,165757.3
2000-07-31,167627.1
2000-06-30,168393.0
2000-05-31,164492.5
2000-04-30,154682.5
2000-03-31,150025.0
2000-02-29,151285.35
2000-01-31,154808.0
1999-12-31,152530.15
1999-11-30,149655.25
1999-10-31,144301.75
1999-09-30,150861.2
1999-08-31,152529.0
1999-07-31,156749.3
1999-06-30,155796.8
1999-05-31,151008.2
1999-04-30,145276.0
1999-03-31,139900.0
1999-02-28,145725.0
1999-01-31,141875.0
1998-12-31,137700.0
1998-11-30,138254.9
1998-10-31,135580.9
1998-09-30,142556.2
1998-08-31,138826.0
1998-07-31,136200.0
1998-06-30,137563.6
1998-05-31,137943.4
1998-04-30,137067.0
1998-03-31,128550.0
1998-02-28,128525.0
1998-01-31,132375.0
1997-12-31,133700.0
1997-11-30,133050.0
1997-10-31,134641.05
1997-09-30,135412.45
1997-08-31,137106.5
1997-07-31,133682.0
1997-06-30,130285.0
1997-05-31,129050.0
1997-04-30,120332.25
1997-03-31,115175.25
1997-02-28,113157.5
1997-01-31,121411.7647
1996-12-31,100384.6154
1996-10-31,102400.0
1996-09-30,112650.0
1996-08-31,117692.5
1996-07-31,119282.5
1996-06-30,112475.0
1996-05-31,112250.0
1996-04-30,109875.0
