Date,Value
2015-09-30,1.848
2015-08-31,1.888
2015-07-31,1.874
2015-06-30,1.858
2015-05-31,1.834
2015-04-30,1.814
2015-03-31,1.796
2015-02-28,1.786
2015-01-31,1.772
2014-12-31,1.762
2014-11-30,1.746
2014-10-31,1.744
2014-09-30,1.736
2014-08-31,1.72
2014-07-31,1.706
2014-06-30,1.69
2014-05-31,1.686
2014-04-30,1.674
2014-03-31,1.664
2014-02-28,1.65
2014-01-31,1.636
2013-12-31,1.628
2013-11-30,1.62
2013-10-31,1.618
2013-09-30,1.604
2013-08-31,1.582
2013-07-31,1.562
2013-06-30,1.552
2013-05-31,1.554
2013-04-30,1.558
2013-03-31,1.554
2013-02-28,1.542
2013-01-31,1.522
2012-12-31,1.512
2012-11-30,1.508
2012-10-31,1.524
2012-09-30,1.532
2012-08-31,1.544
2012-07-31,1.546
2012-06-30,1.552
2012-05-31,1.532
2012-04-30,1.506
2012-03-31,1.48
2012-02-29,1.47
2012-01-31,1.454
2011-12-31,1.432
2011-11-30,1.402
2011-10-31,1.374
2011-09-30,1.348
2011-08-31,1.332
2011-07-31,1.326
2011-06-30,1.31
2011-05-31,1.298
2011-04-30,1.292
2011-03-31,1.296
2011-02-28,1.29
2011-01-31,1.29
2010-12-31,1.294
2010-11-30,1.302
