Date,Value
2015-09-30,396100.0
2015-08-31,389100.0
2015-07-31,384000.0
2015-06-30,384600.0
2015-05-31,379100.0
2015-04-30,379100.0
2015-03-31,386700.0
2015-02-28,385600.0
2015-01-31,380700.0
2014-12-31,379300.0
2014-11-30,377500.0
2014-10-31,375800.0
2014-09-30,373900.0
2014-08-31,372400.0
2014-07-31,368800.0
2014-06-30,362800.0
2014-05-31,356200.0
2014-04-30,351100.0
2014-03-31,346700.0
2014-02-28,344100.0
2014-01-31,342200.0
2013-12-31,339500.0
2013-11-30,336600.0
2013-10-31,333500.0
2013-09-30,329100.0
2013-08-31,324800.0
2013-07-31,321200.0
2013-06-30,317600.0
2013-05-31,314000.0
2013-04-30,310200.0
2013-03-31,306100.0
2013-02-28,302800.0
2013-01-31,299600.0
2012-12-31,296700.0
2012-11-30,293700.0
2012-10-31,290700.0
2012-09-30,287800.0
2012-08-31,284600.0
2012-07-31,279200.0
2012-06-30,274200.0
2012-05-31,270100.0
2012-04-30,267000.0
2012-03-31,265000.0
2012-02-29,264400.0
2012-01-31,264100.0
2011-12-31,264900.0
2011-11-30,266200.0
2011-10-31,266900.0
2011-09-30,268100.0
2011-08-31,270300.0
2011-07-31,274300.0
2011-06-30,281700.0
2011-05-31,289800.0
2011-04-30,296400.0
2011-03-31,297700.0
2011-02-28,296100.0
2011-01-31,297000.0
2010-12-31,300500.0
2010-11-30,300700.0
2010-10-31,300200.0
2010-09-30,301500.0
2010-08-31,304200.0
2010-07-31,310400.0
2010-06-30,317100.0
2010-05-31,320500.0
2010-04-30,319800.0
2010-03-31,319700.0
2010-02-28,319000.0
2010-01-31,319200.0
2009-12-31,320800.0
2009-11-30,323700.0
2009-10-31,325100.0
2009-09-30,324900.0
2009-08-31,325200.0
2009-07-31,327100.0
2009-06-30,329200.0
2009-05-31,330900.0
2009-04-30,333800.0
2009-03-31,341400.0
2009-02-28,351500.0
2009-01-31,359500.0
2008-12-31,362100.0
2008-11-30,362900.0
2008-10-31,365300.0
2008-09-30,370400.0
2008-08-31,374400.0
2008-07-31,375500.0
2008-06-30,375800.0
2008-05-31,377900.0
2008-04-30,382500.0
2008-03-31,386900.0
2008-02-29,389900.0
2008-01-31,390300.0
2007-12-31,390700.0
2007-11-30,393300.0
2007-10-31,395600.0
2007-09-30,397500.0
2007-08-31,400500.0
2007-07-31,401000.0
2007-06-30,397100.0
2007-05-31,393800.0
2007-04-30,390000.0
2007-03-31,384100.0
2007-02-28,380600.0
2007-01-31,380600.0
2006-12-31,381000.0
2006-11-30,381100.0
2006-10-31,382300.0
2006-09-30,380100.0
2006-08-31,373600.0
2006-07-31,367300.0
2006-06-30,364900.0
2006-05-31,363900.0
2006-04-30,363600.0
2006-03-31,361400.0
2006-02-28,357300.0
2006-01-31,352900.0
2005-12-31,346900.0
2005-11-30,341200.0
2005-10-31,336600.0
2005-09-30,332200.0
2005-08-31,326500.0
2005-07-31,320000.0
2005-06-30,312100.0
2005-05-31,304400.0
2005-04-30,297200.0
2005-03-31,293300.0
2005-02-28,290400.0
2005-01-31,286400.0
2004-12-31,282300.0
2004-11-30,278900.0
2004-10-31,274500.0
2004-09-30,270500.0
2004-08-31,269300.0
2004-07-31,269500.0
2004-06-30,268600.0
2004-05-31,266100.0
2004-04-30,263000.0
2004-03-31,259800.0
2004-02-29,256600.0
2004-01-31,253400.0
2003-12-31,251200.0
2003-11-30,249800.0
2003-10-31,249600.0
2003-09-30,250200.0
2003-08-31,250700.0
2003-07-31,251600.0
2003-06-30,253400.0
2003-05-31,253700.0
2003-04-30,253100.0
2003-03-31,251900.0
2003-02-28,250100.0
2003-01-31,248700.0
2002-12-31,248500.0
2002-11-30,248000.0
2002-10-31,247000.0
2002-09-30,247200.0
2002-08-31,248600.0
2002-07-31,249400.0
2002-06-30,249600.0
2002-05-31,249900.0
2002-04-30,249800.0
2002-03-31,249500.0
2002-02-28,250100.0
2002-01-31,250800.0
2001-12-31,250400.0
2001-11-30,249100.0
2001-10-31,248000.0
2001-09-30,246800.0
2001-08-31,245300.0
2001-07-31,243200.0
2001-06-30,241300.0
2001-05-31,240600.0
2001-04-30,241100.0
2001-03-31,241800.0
2001-02-28,243100.0
2001-01-31,243100.0
2000-12-31,241400.0
2000-11-30,239300.0
2000-10-31,236900.0
2000-09-30,232800.0
2000-08-31,227800.0
2000-07-31,223900.0
2000-06-30,221500.0
2000-05-31,219500.0
2000-04-30,217200.0
2000-03-31,214000.0
2000-02-29,209700.0
2000-01-31,205700.0
1999-12-31,202500.0
1999-11-30,199400.0
1999-10-31,196100.0
1999-09-30,193900.0
1999-08-31,191500.0
1999-07-31,189000.0
1999-06-30,187400.0
1999-05-31,186400.0
1999-04-30,185300.0
1999-03-31,183600.0
1999-02-28,181100.0
1999-01-31,179000.0
1998-12-31,177800.0
1998-11-30,177700.0
1998-10-31,177500.0
1998-09-30,176500.0
1998-08-31,174100.0
1998-07-31,171500.0
1998-06-30,169000.0
1998-05-31,167600.0
1998-04-30,166300.0
1998-03-31,164300.0
1998-02-28,161600.0
1998-01-31,158800.0
1997-12-31,156100.0
1997-11-30,153900.0
1997-10-31,151900.0
1997-09-30,149600.0
1997-08-31,147300.0
1997-07-31,145200.0
1997-06-30,142900.0
1997-05-31,140300.0
1997-04-30,137900.0
1997-03-31,136600.0
1997-02-28,135700.0
1997-01-31,135400.0
1996-12-31,136200.0
1996-11-30,136100.0
1996-10-31,134900.0
1996-09-30,133700.0
1996-08-31,134100.0
1996-07-31,134000.0
1996-06-30,133000.0
1996-05-31,131600.0
1996-04-30,131000.0
