Date,Value
2015-09-30,0.778
2015-08-31,0.778
2015-07-31,0.778
2015-06-30,0.776
2015-05-31,0.77
2015-04-30,0.76
2015-03-31,0.756
2015-02-28,0.754
2015-01-31,0.752
2014-12-31,0.75
2014-11-30,0.75
2014-10-31,0.75
2014-09-30,0.752
2014-08-31,0.754
2014-07-31,0.752
2014-06-30,0.746
2014-05-31,0.736
2014-04-30,0.728
2014-03-31,0.728
2014-02-28,0.73
2014-01-31,0.732
2013-12-31,0.726
2013-11-30,0.728
2013-10-31,0.73
2013-09-30,0.734
2013-08-31,0.732
2013-07-31,0.726
2013-06-30,0.72
2013-05-31,0.718
2013-04-30,0.71
2013-03-31,0.708
2013-02-28,0.704
2013-01-31,0.706
2012-12-31,0.706
2012-11-30,0.708
2012-10-31,0.706
2012-09-30,0.706
2012-08-31,0.702
2012-07-31,0.696
2012-06-30,0.69
2012-05-31,0.684
2012-04-30,0.676
2012-03-31,0.672
2012-02-29,0.674
2012-01-31,0.678
2011-12-31,0.678
2011-11-30,0.674
2011-10-31,0.662
2011-09-30,0.652
2011-08-31,0.654
2011-07-31,0.664
2011-06-30,0.678
2011-05-31,0.694
2011-04-30,0.714
2011-03-31,0.718
2011-02-28,0.716
2011-01-31,0.708
2010-12-31,0.708
2010-11-30,0.706
