Date,Value
2015-09-30,470600.0
2015-08-31,449800.0
2015-07-31,441700.0
2015-06-30,441800.0
2015-05-31,443400.0
2015-04-30,440200.0
2015-03-31,435900.0
2015-02-28,436000.0
2015-01-31,435400.0
2014-12-31,435300.0
2014-11-30,432700.0
2014-10-31,428100.0
2014-09-30,426100.0
2014-08-31,426100.0
2014-07-31,423700.0
2014-06-30,418900.0
2014-05-31,416300.0
2014-04-30,415000.0
2014-03-31,410800.0
2014-02-28,406200.0
2014-01-31,402800.0
2013-12-31,399800.0
2013-11-30,399400.0
2013-10-31,400100.0
2013-09-30,397100.0
2013-08-31,392600.0
2013-07-31,390500.0
2013-06-30,389000.0
2013-05-31,386200.0
2013-04-30,383000.0
2013-03-31,380400.0
2013-02-28,377100.0
2013-01-31,373500.0
2012-12-31,370900.0
2012-11-30,369600.0
2012-10-31,366500.0
2012-09-30,362700.0
2012-08-31,359100.0
2012-07-31,354700.0
2012-06-30,348700.0
2012-05-31,343300.0
2012-04-30,339400.0
2012-03-31,336200.0
2012-02-29,334100.0
2012-01-31,333500.0
2011-12-31,334900.0
2011-11-30,335100.0
2011-10-31,334800.0
2011-09-30,335700.0
2011-08-31,338500.0
2011-07-31,340800.0
2011-06-30,342000.0
2011-05-31,343200.0
2011-04-30,346500.0
2011-03-31,348700.0
2011-02-28,348000.0
2011-01-31,347900.0
2010-12-31,348500.0
2010-11-30,348100.0
2010-10-31,349700.0
2010-09-30,353600.0
2010-08-31,357600.0
2010-07-31,360300.0
2010-06-30,362100.0
2010-05-31,363400.0
2010-04-30,363300.0
2010-03-31,362800.0
2010-02-28,362800.0
2010-01-31,362700.0
2009-12-31,362300.0
2009-11-30,362600.0
2009-10-31,361600.0
2009-09-30,359800.0
2009-08-31,359300.0
2009-07-31,360800.0
2009-06-30,364400.0
2009-05-31,368100.0
2009-04-30,371900.0
2009-03-31,376500.0
2009-02-28,381600.0
2009-01-31,385800.0
2008-12-31,389500.0
2008-11-30,393500.0
2008-10-31,398700.0
2008-09-30,401600.0
2008-08-31,403300.0
2008-07-31,406500.0
2008-06-30,411900.0
2008-05-31,417500.0
2008-04-30,422800.0
2008-03-31,426900.0
2008-02-29,429800.0
2008-01-31,432500.0
2007-12-31,434500.0
2007-11-30,435800.0
2007-10-31,438600.0
2007-09-30,445200.0
2007-08-31,451700.0
2007-07-31,456600.0
2007-06-30,460200.0
2007-05-31,461000.0
2007-04-30,457800.0
2007-03-31,453300.0
2007-02-28,449900.0
2007-01-31,445700.0
2006-12-31,439800.0
2006-11-30,433900.0
2006-10-31,429700.0
2006-09-30,425200.0
2006-08-31,418600.0
2006-07-31,411600.0
2006-06-30,407200.0
2006-05-31,403400.0
2006-04-30,397800.0
2006-03-31,394700.0
2006-02-28,393900.0
2006-01-31,390500.0
2005-12-31,386400.0
2005-11-30,383700.0
2005-10-31,378800.0
2005-09-30,372400.0
2005-08-31,367200.0
2005-07-31,362600.0
2005-06-30,355400.0
2005-05-31,347200.0
2005-04-30,340800.0
2005-03-31,337000.0
2005-02-28,334100.0
2005-01-31,334300.0
2004-12-31,334900.0
2004-11-30,333000.0
2004-10-31,327500.0
2004-09-30,321500.0
2004-08-31,316800.0
2004-07-31,312900.0
2004-06-30,309600.0
2004-05-31,308200.0
2004-04-30,308600.0
2004-03-31,307400.0
2004-02-29,304600.0
2004-01-31,301500.0
2003-12-31,298300.0
2003-11-30,296100.0
2003-10-31,295700.0
2003-09-30,295400.0
2003-08-31,293400.0
2003-07-31,290300.0
2003-06-30,287300.0
2003-05-31,286300.0
2003-04-30,286900.0
2003-03-31,287400.0
2003-02-28,288300.0
2003-01-31,289400.0
2002-12-31,290200.0
2002-11-30,291500.0
2002-10-31,292400.0
2002-09-30,292300.0
2002-08-31,291000.0
2002-07-31,290100.0
2002-06-30,289400.0
2002-05-31,287600.0
2002-04-30,285600.0
2002-03-31,285400.0
2002-02-28,284700.0
2002-01-31,282700.0
2001-12-31,281600.0
2001-11-30,281000.0
2001-10-31,281200.0
2001-09-30,282100.0
2001-08-31,283000.0
2001-07-31,282400.0
2001-06-30,280800.0
2001-05-31,279500.0
2001-04-30,278300.0
2001-03-31,276000.0
2001-02-28,272300.0
2001-01-31,268800.0
2000-12-31,266200.0
2000-11-30,264800.0
2000-10-31,264200.0
2000-09-30,264000.0
2000-08-31,264600.0
2000-07-31,265000.0
2000-06-30,265900.0
2000-05-31,265100.0
2000-04-30,261700.0
2000-03-31,255800.0
2000-02-29,250600.0
2000-01-31,246100.0
1999-12-31,241800.0
1999-11-30,235800.0
1999-10-31,230700.0
1999-09-30,227400.0
1999-08-31,227100.0
1999-07-31,227100.0
1999-06-30,226500.0
1999-05-31,224900.0
1999-04-30,223500.0
1999-03-31,222200.0
1999-02-28,222200.0
1999-01-31,221600.0
1998-12-31,220500.0
1998-11-30,220200.0
1998-10-31,219200.0
1998-09-30,216600.0
1998-08-31,212000.0
1998-07-31,207800.0
1998-06-30,204200.0
1998-05-31,201100.0
1998-04-30,196700.0
1998-03-31,193200.0
1998-02-28,190700.0
1998-01-31,189200.0
1997-12-31,186800.0
1997-11-30,184500.0
1997-10-31,183000.0
1997-09-30,182100.0
1997-08-31,180200.0
1997-07-31,178600.0
1997-06-30,177000.0
1997-05-31,175800.0
1997-04-30,174900.0
1997-03-31,174100.0
1997-02-28,172300.0
1997-01-31,170800.0
1996-12-31,169400.0
1996-11-30,167500.0
1996-10-31,165500.0
1996-09-30,164300.0
1996-08-31,163900.0
1996-07-31,164100.0
1996-06-30,164500.0
1996-05-31,165300.0
1996-04-30,167300.0
