Date,Value
2015-09-30,440000.0
2015-04-30,415000.0
2006-06-30,362653.8462
2006-04-30,355000.0
2005-10-31,264950.0
2005-07-31,288117.6471
2005-06-30,309000.0
2004-12-31,287000.0
2002-07-31,239950.0
2001-09-30,225000.0
