Date,Value
2015-02-28,414000.0
2015-01-31,549950.0
2014-12-31,414000.0
2014-11-30,525000.0
2014-10-31,525000.0
2014-09-30,419950.0
2014-08-31,383250.0
2014-07-31,360000.0
2014-06-30,339950.0
2014-05-31,360000.0
2014-04-30,429000.0
2014-03-31,429000.0
2014-02-28,479000.0
2014-01-31,489000.0
2013-12-31,364950.0
2013-11-30,395000.0
2013-10-31,340000.0
2013-09-30,364950.0
2013-08-31,514900.0
2013-07-31,569000.0
2013-06-30,550000.0
2013-05-31,499950.0
2013-04-30,499000.0
2013-03-31,409000.0
2013-02-28,349950.0
2013-01-31,480000.0
2012-12-31,646750.0
2012-11-30,646750.0
2012-10-31,646750.0
2012-09-30,495000.0
2012-08-31,479000.0
2012-07-31,475000.0
2012-06-30,479950.0
2012-05-31,525000.0
2012-04-30,410000.0
2012-03-31,399000.0
2012-02-29,399000.0
2012-01-31,410000.0
2011-12-31,375000.0
2011-11-30,399000.0
2011-10-31,319900.0
2011-09-30,319900.0
2011-08-31,365000.0
2011-07-31,350000.0
2011-06-30,350000.0
2011-05-31,334900.0
2011-04-30,315000.0
2011-03-31,285000.0
2011-02-28,299000.0
2011-01-31,349900.0
2010-12-31,340000.0
2010-11-30,364990.0
2010-10-31,340000.0
2010-09-30,350000.0
2010-08-31,374900.0
2010-07-31,425000.0
2010-06-30,425000.0
2010-05-31,449000.0
2010-04-30,454900.0
2010-03-31,539950.0
2010-02-28,575000.0
2010-01-31,624990.0
2009-12-31,550000.0
2009-11-30,500000.0
2009-10-31,550000.0
2009-09-30,525000.0
2009-08-31,499950.0
2009-07-31,385000.0
2009-06-30,389000.0
2009-05-31,499950.0
2009-04-30,499950.0
2009-03-31,579900.0
2009-02-28,599990.0
2009-01-31,525000.0
2008-12-31,550000.0
2008-11-30,459000.0
2008-10-31,434500.0
