Date,Value
2015-02-28,279950.0
2015-01-31,289900.0
2014-12-31,232002.0
2014-11-30,232002.0
2014-10-31,239990.0
2014-09-30,225000.0
2014-08-31,225000.0
2014-07-31,239990.0
2014-06-30,240000.0
2014-05-31,240000.0
2014-04-30,249900.0
2014-03-31,244900.0
2014-02-28,239999.0
2014-01-31,239999.0
2013-12-31,259000.0
2013-11-30,249950.0
2013-10-31,268000.0
2013-09-30,269000.0
2013-08-31,329950.0
2013-07-31,325000.0
2013-06-30,300000.0
2013-05-31,275000.0
2013-04-30,249950.0
2013-03-31,265000.0
2013-02-28,179900.0
2013-01-31,225000.0
2012-12-31,205000.0
2012-11-30,225000.0
2012-10-31,205000.0
2012-09-30,225000.0
2012-08-31,199950.0
2012-07-31,188888.0
2012-06-30,188888.0
2012-05-31,188888.0
2012-04-30,209900.0
2012-03-31,185000.0
2012-02-29,189900.0
2012-01-31,199900.0
2011-12-31,199900.0
2011-11-30,199950.0
2011-10-31,199950.0
2011-09-30,199950.0
2011-08-31,199950.0
2011-07-31,210000.0
2011-06-30,199950.0
2011-05-31,219000.0
2011-04-30,212500.0
2011-03-31,210000.0
2011-02-28,209950.0
2011-01-31,209950.0
2010-12-31,209950.0
2010-11-30,229900.0
2010-10-31,228950.0
2010-09-30,229900.0
2010-08-31,249999.0
2010-07-31,249950.0
2010-06-30,249950.0
2010-05-31,249999.0
2010-04-30,249950.0
2010-03-31,250000.0
2010-02-28,254500.0
2010-01-31,254500.0
2009-12-31,249000.0
2009-11-30,219985.0
2009-10-31,299562.0
2009-09-30,254500.0
2009-08-31,256999.0
2009-07-31,270000.0
2009-06-30,270000.0
2009-05-31,299562.0
2009-04-30,299562.0
2009-03-31,324950.0
2009-02-28,289950.0
2009-01-31,289950.0
2008-12-31,279000.0
2008-11-30,279000.0
2008-10-31,279000.0
