Date,Value
2015-08-31,254700.0
2015-07-31,250300.0
2015-06-30,251500.0
2015-05-31,256100.0
2015-04-30,256100.0
2015-03-31,248900.0
2015-02-28,249500.0
2015-01-31,246900.0
2014-12-31,244400.0
2014-11-30,242000.0
2014-10-31,240000.0
2014-09-30,238300.0
2014-08-31,236400.0
2014-07-31,234500.0
2014-06-30,232100.0
2014-05-31,230600.0
2014-04-30,229400.0
2014-03-31,227600.0
2014-02-28,225500.0
2014-01-31,223300.0
2013-12-31,220800.0
2013-11-30,218200.0
2013-10-31,215000.0
2013-09-30,210400.0
2013-08-31,204300.0
2013-07-31,197200.0
2013-06-30,190900.0
2013-05-31,186100.0
2013-04-30,181100.0
2013-03-31,175800.0
2013-02-28,171600.0
2013-01-31,169100.0
2012-12-31,167600.0
2012-11-30,165200.0
2012-10-31,162200.0
2012-09-30,161200.0
2012-08-31,162500.0
2012-07-31,164600.0
2012-06-30,165800.0
2012-05-31,165500.0
2012-04-30,164600.0
2012-03-31,163500.0
2012-02-29,162100.0
2012-01-31,161600.0
2011-12-31,162700.0
2011-11-30,164900.0
2011-10-31,166900.0
2011-09-30,167400.0
2011-08-31,167200.0
2011-07-31,168800.0
2011-06-30,172100.0
2011-05-31,175200.0
2011-04-30,177000.0
2011-03-31,178600.0
2011-02-28,182100.0
2011-01-31,186300.0
2010-12-31,189300.0
2010-11-30,191400.0
2010-10-31,194100.0
2010-09-30,197400.0
2010-08-31,200400.0
2010-07-31,203200.0
2010-06-30,206100.0
2010-05-31,208500.0
2010-04-30,210700.0
2010-03-31,213100.0
2010-02-28,215300.0
2010-01-31,217000.0
2009-12-31,217900.0
2009-11-30,217200.0
2009-10-31,217300.0
2009-09-30,219900.0
2009-08-31,224000.0
2009-07-31,228100.0
2009-06-30,231200.0
2009-05-31,234600.0
2009-04-30,239400.0
2009-03-31,243400.0
2009-02-28,245000.0
2009-01-31,245700.0
2008-12-31,247500.0
2008-11-30,251800.0
2008-10-31,258600.0
2008-09-30,265200.0
2008-08-31,268500.0
2008-07-31,270000.0
2008-06-30,273200.0
2008-05-31,277300.0
2008-04-30,279800.0
2008-03-31,280600.0
2008-02-29,281100.0
2008-01-31,281900.0
2007-12-31,284100.0
2007-11-30,286200.0
2007-10-31,285200.0
2007-09-30,282500.0
2007-08-31,282700.0
2007-07-31,283800.0
2007-06-30,281400.0
2007-05-31,276800.0
2007-04-30,273400.0
2007-03-31,271000.0
2007-02-28,267200.0
2007-01-31,263400.0
2006-12-31,260900.0
2006-11-30,257500.0
2006-10-31,253000.0
2006-09-30,248800.0
2006-08-31,243900.0
2006-07-31,236900.0
2006-06-30,229700.0
2006-05-31,224500.0
2006-04-30,220600.0
2006-03-31,217300.0
2006-02-28,215700.0
2006-01-31,214100.0
2005-12-31,209900.0
2005-11-30,204800.0
2005-10-31,199700.0
2005-09-30,193900.0
2005-08-31,188600.0
2005-07-31,185100.0
2005-06-30,182200.0
2005-05-31,179500.0
2005-04-30,177900.0
2005-03-31,177900.0
2005-02-28,178600.0
2005-01-31,177800.0
2004-12-31,175200.0
2004-11-30,171600.0
2004-10-31,168700.0
2004-09-30,167100.0
2004-08-31,165100.0
2004-07-31,162900.0
2004-06-30,162000.0
2004-05-31,162100.0
2004-04-30,161500.0
2004-03-31,159700.0
2004-02-29,157400.0
2004-01-31,154800.0
2003-12-31,153400.0
2003-11-30,154700.0
2003-10-31,157000.0
2003-09-30,157300.0
2003-08-31,156100.0
2003-07-31,155500.0
2003-06-30,155700.0
2003-05-31,154800.0
2003-04-30,152500.0
2003-03-31,151000.0
2003-02-28,149600.0
2003-01-31,148400.0
2002-12-31,148100.0
2002-11-30,148700.0
2002-10-31,148400.0
2002-09-30,147900.0
2002-08-31,147700.0
2002-07-31,147800.0
2002-06-30,147100.0
2002-05-31,146200.0
2002-04-30,145300.0
2002-03-31,144800.0
2002-02-28,144400.0
2002-01-31,143900.0
2001-12-31,143200.0
2001-11-30,141900.0
2001-10-31,140500.0
2001-09-30,140100.0
2001-08-31,140600.0
2001-07-31,140400.0
2001-06-30,139100.0
2001-05-31,138000.0
2001-04-30,137500.0
2001-03-31,136500.0
2001-02-28,135600.0
2001-01-31,135500.0
2000-12-31,135900.0
2000-11-30,136000.0
2000-10-31,136000.0
2000-09-30,135800.0
2000-08-31,135400.0
2000-07-31,134700.0
2000-06-30,134100.0
2000-05-31,133400.0
2000-04-30,132300.0
2000-03-31,131900.0
2000-02-29,131400.0
2000-01-31,130300.0
1999-12-31,128800.0
1999-11-30,126900.0
1999-10-31,124800.0
1999-09-30,123100.0
1999-08-31,122100.0
1999-07-31,121900.0
1999-06-30,121600.0
1999-05-31,121200.0
1999-04-30,120900.0
1999-03-31,119900.0
1999-02-28,117900.0
1999-01-31,116200.0
1998-12-31,114500.0
1998-11-30,113200.0
1998-10-31,112700.0
1998-09-30,113000.0
1998-08-31,112600.0
1998-07-31,111300.0
1998-06-30,109900.0
1998-05-31,109200.0
1998-04-30,109100.0
1998-03-31,108700.0
1998-02-28,107900.0
1998-01-31,106700.0
1997-12-31,105800.0
1997-11-30,105100.0
1997-10-31,104400.0
1997-09-30,103700.0
1997-08-31,103800.0
1997-07-31,104000.0
1997-06-30,103800.0
1997-05-31,103400.0
1997-04-30,103300.0
1997-03-31,103300.0
1997-02-28,103200.0
1997-01-31,102700.0
1996-12-31,102400.0
1996-11-30,102300.0
1996-10-31,101900.0
1996-09-30,101300.0
1996-08-31,100700.0
1996-07-31,100700.0
1996-06-30,100600.0
1996-05-31,100400.0
1996-04-30,99200.0
