Date,Value
2015-02-28,224900.0
2015-01-31,225000.0
2014-12-31,238000.0
2014-11-30,225000.0
2014-10-31,255900.0
2014-09-30,259000.0
2014-08-31,324900.0
2014-07-31,329500.0
2014-06-30,329500.0
2014-05-31,329500.0
2014-04-30,299900.0
2014-03-31,299900.0
2014-02-28,296900.0
2014-01-31,268000.0
2013-09-30,210000.0
2013-08-31,188000.0
2012-12-31,198000.0
2012-11-30,224900.0
2012-10-31,224900.0
2012-09-30,197900.0
2012-08-31,189000.0
2012-07-31,185000.0
2012-06-30,189000.0
2012-05-31,185000.0
2012-04-30,185000.0
2012-03-31,185000.0
2012-02-29,185000.0
2012-01-31,185600.0
2011-12-31,204900.0
2011-11-30,214900.0
2011-10-31,199600.0
2011-09-30,189900.0
2011-08-31,190000.0
2011-07-31,200000.0
2011-06-30,208000.0
2011-05-31,214000.0
2011-04-30,219900.0
2011-03-31,219900.0
2011-02-28,199900.0
2011-01-31,189900.0
2010-12-31,189900.0
2010-11-30,189900.0
2010-10-31,184900.0
2010-09-30,184900.0
2010-08-31,177000.0
2010-07-31,184000.0
2010-06-30,184000.0
2010-05-31,185000.0
2010-04-30,194500.0
2010-03-31,195000.0
2010-02-28,194500.0
2010-01-31,185000.0
2009-12-31,189900.0
2009-11-30,179900.0
2009-10-31,194900.0
2009-09-30,194900.0
2009-08-31,194500.0
2009-07-31,194500.0
2009-06-30,215000.0
2009-05-31,224900.0
2009-04-30,215000.0
2009-03-31,239900.0
2009-02-28,249900.0
2009-01-31,249900.0
2008-12-31,234900.0
2008-11-30,234900.0
2008-10-31,259900.0
