Date,Value
2015-09-30,155600.0
2015-08-31,152800.0
2015-07-31,150900.0
2015-06-30,151500.0
2015-05-31,152000.0
2015-04-30,152700.0
2015-03-31,153500.0
2015-02-28,154000.0
2015-01-31,153000.0
2014-12-31,151500.0
2014-11-30,149500.0
2014-10-31,148700.0
2014-09-30,148900.0
2014-08-31,148600.0
2014-07-31,147800.0
2014-06-30,146900.0
2014-05-31,145600.0
2014-04-30,144100.0
2014-03-31,142700.0
2014-02-28,141700.0
2014-01-31,140500.0
2013-12-31,138800.0
2013-11-30,137900.0
2013-10-31,137200.0
2013-09-30,135300.0
2013-08-31,132800.0
2013-07-31,131200.0
2013-06-30,129800.0
2013-05-31,127700.0
2013-04-30,125900.0
2013-03-31,124700.0
2013-02-28,123400.0
2013-01-31,121700.0
2012-12-31,120400.0
2012-11-30,118400.0
2012-10-31,116500.0
2012-09-30,115200.0
2012-08-31,114600.0
2012-07-31,113800.0
2012-06-30,113600.0
2012-05-31,113800.0
2012-04-30,114100.0
2012-03-31,113300.0
2012-02-29,112200.0
2012-01-31,111300.0
2011-12-31,111100.0
2011-11-30,111600.0
2011-10-31,112400.0
2011-09-30,113900.0
2011-08-31,115900.0
2011-07-31,117300.0
2011-06-30,118500.0
2011-05-31,119800.0
2011-04-30,121100.0
2011-03-31,122600.0
2011-02-28,124100.0
2011-01-31,125600.0
2010-12-31,127400.0
2010-11-30,129000.0
2010-10-31,129800.0
2010-09-30,130500.0
2010-08-31,131800.0
2010-07-31,133400.0
2010-06-30,134000.0
2010-05-31,135000.0
2010-04-30,136100.0
2010-03-31,137500.0
2010-02-28,139200.0
2010-01-31,140500.0
2009-12-31,140100.0
2009-11-30,139700.0
2009-10-31,139900.0
2009-09-30,140900.0
2009-08-31,141900.0
2009-07-31,142900.0
2009-06-30,144500.0
2009-05-31,146700.0
2009-04-30,148900.0
2009-03-31,151300.0
2009-02-28,154000.0
2009-01-31,157300.0
2008-12-31,161200.0
2008-11-30,165100.0
2008-10-31,167700.0
2008-09-30,168900.0
2008-08-31,169100.0
2008-07-31,169700.0
2008-06-30,170900.0
2008-05-31,172600.0
2008-04-30,174200.0
2008-03-31,175300.0
2008-02-29,175900.0
2008-01-31,176700.0
2007-12-31,177600.0
2007-11-30,178400.0
2007-10-31,179300.0
2007-09-30,180100.0
2007-08-31,180800.0
2007-07-31,181400.0
2007-06-30,182200.0
2007-05-31,182600.0
2007-04-30,182700.0
2007-03-31,182900.0
2007-02-28,183200.0
2007-01-31,183200.0
2006-12-31,183200.0
2006-11-30,183100.0
2006-10-31,183100.0
2006-09-30,183400.0
2006-08-31,183400.0
2006-07-31,182900.0
2006-06-30,181600.0
2006-05-31,179300.0
2006-04-30,176600.0
2006-03-31,173900.0
2006-02-28,171300.0
2006-01-31,169000.0
2005-12-31,167000.0
2005-11-30,164800.0
2005-10-31,162400.0
2005-09-30,159700.0
2005-08-31,157100.0
2005-07-31,154800.0
2005-06-30,152500.0
2005-05-31,149900.0
2005-04-30,147500.0
2005-03-31,145400.0
2005-02-28,143600.0
2005-01-31,141800.0
2004-12-31,140200.0
2004-11-30,139000.0
2004-10-31,138200.0
2004-09-30,137300.0
2004-08-31,136000.0
2004-07-31,134500.0
2004-06-30,133400.0
2004-05-31,132200.0
2004-04-30,130700.0
2004-03-31,129300.0
2004-02-29,128100.0
2004-01-31,126700.0
2003-12-31,125300.0
2003-11-30,123800.0
2003-10-31,122100.0
2003-09-30,120500.0
2003-08-31,119600.0
2003-07-31,118900.0
2003-06-30,118000.0
2003-05-31,117500.0
2003-04-30,117700.0
2003-03-31,117800.0
2003-02-28,117900.0
2003-01-31,117800.0
2002-12-31,117400.0
2002-11-30,116800.0
2002-10-31,116200.0
2002-09-30,115700.0
2002-08-31,115300.0
2002-07-31,115100.0
2002-06-30,114900.0
2002-05-31,114800.0
2002-04-30,115100.0
2002-03-31,115400.0
2002-02-28,115000.0
2002-01-31,114000.0
2001-12-31,112900.0
2001-11-30,112400.0
2001-10-31,112100.0
2001-09-30,112200.0
2001-08-31,112200.0
2001-07-31,112300.0
2001-06-30,112300.0
2001-05-31,112100.0
2001-04-30,111600.0
2001-03-31,111300.0
2001-02-28,111300.0
2001-01-31,111200.0
2000-12-31,111200.0
2000-11-30,111500.0
2000-10-31,111800.0
2000-09-30,111900.0
2000-08-31,111700.0
2000-07-31,111600.0
2000-06-30,111600.0
2000-05-31,111700.0
2000-04-30,111500.0
2000-03-31,111300.0
2000-02-29,111100.0
2000-01-31,111100.0
1999-12-31,111300.0
1999-11-30,111600.0
1999-10-31,112000.0
1999-09-30,112900.0
1999-08-31,114500.0
1999-07-31,115600.0
1999-06-30,115600.0
1999-05-31,115600.0
1999-04-30,116300.0
1999-03-31,116100.0
1999-02-28,114600.0
1999-01-31,113500.0
1998-12-31,113500.0
1998-11-30,113700.0
1998-10-31,113500.0
1998-09-30,112300.0
1998-08-31,110300.0
1998-07-31,108800.0
1998-06-30,108700.0
1998-05-31,109100.0
1998-04-30,109400.0
1998-03-31,109700.0
1998-02-28,110100.0
1998-01-31,110600.0
1997-12-31,110900.0
1997-11-30,110900.0
1997-10-31,111100.0
1997-09-30,111400.0
1997-08-31,111200.0
1997-07-31,110700.0
1997-06-30,111000.0
1997-05-31,110800.0
1997-04-30,109900.0
1997-03-31,109400.0
1997-02-28,109800.0
1997-01-31,110000.0
1996-12-31,109500.0
1996-11-30,108700.0
1996-10-31,107900.0
1996-09-30,107500.0
1996-08-31,107200.0
1996-07-31,106800.0
1996-06-30,105500.0
1996-05-31,103800.0
1996-04-30,102200.0
