Date,Value
2015-02-28,84900.0
2015-01-31,83800.0
2014-12-31,89900.0
2014-11-30,85000.0
2014-10-31,84900.0
2014-09-30,85900.0
2014-08-31,95000.0
2014-07-31,105000.0
2014-06-30,105000.0
2014-05-31,99900.0
2014-04-30,95000.0
2014-03-31,84900.0
2014-02-28,97850.0
2014-01-31,84900.0
2013-12-31,84900.0
2013-11-30,99900.0
2013-10-31,89900.0
2013-09-30,89900.0
2013-08-31,82000.0
2013-07-31,95000.0
2013-06-30,99900.0
2013-05-31,104900.0
2013-04-30,99500.0
2013-03-31,90000.0
2013-02-28,90000.0
2013-01-31,89500.0
2012-12-31,89500.0
2012-11-30,92000.0
2012-10-31,90000.0
2012-09-30,94900.0
2012-08-31,97000.0
2012-07-31,97000.0
2012-06-30,90000.0
2012-05-31,89500.0
2012-04-30,94900.0
2012-03-31,89000.0
2012-02-29,89000.0
2012-01-31,89000.0
2011-12-31,80000.0
2011-11-30,80000.0
2011-10-31,84950.0
2011-09-30,85000.0
2011-08-31,92500.0
2011-07-31,92500.0
2011-06-30,98000.0
2011-05-31,99997.0
2011-04-30,99900.0
2011-03-31,97500.0
2011-02-28,97500.0
2011-01-31,97500.0
2010-12-31,97500.0
2010-11-30,98000.0
2010-10-31,102000.0
2010-09-30,104950.0
2010-08-31,105000.0
2010-07-31,107000.0
2010-06-30,115000.0
2010-05-31,108000.0
2010-04-30,119900.0
2010-03-31,107500.0
2010-02-28,107500.0
2010-01-31,119900.0
2009-12-31,119900.0
2009-11-30,119500.0
2009-10-31,117000.0
2009-09-30,115000.0
2009-08-31,111300.0
2009-07-31,110000.0
2009-06-30,117000.0
2009-05-31,115000.0
2009-04-30,115000.0
2009-03-31,130000.0
2009-02-28,130000.0
2009-01-31,130000.0
2008-12-31,129900.0
2008-11-30,129000.0
2008-10-31,127500.0
