Date,Value
2015-02-28,339000.0
2015-01-31,309950.0
2014-12-31,289900.0
2014-11-30,298000.0
2014-10-31,299900.0
2014-09-30,303000.0
2014-08-31,319900.0
2014-07-31,299900.0
2014-06-30,299900.0
2014-05-31,295000.0
2014-04-30,294900.0
2014-03-31,269900.0
2014-02-28,269900.0
2014-01-31,290000.0
2013-12-31,290000.0
2013-11-30,290000.0
2013-10-31,290000.0
2013-09-30,289000.0
2013-08-31,275000.0
2013-07-31,309950.0
2013-06-30,265000.0
2013-05-31,309950.0
2013-04-30,274900.0
2013-03-31,285000.0
2013-02-28,279000.0
2013-01-31,285000.0
2012-12-31,292000.0
2012-11-30,255000.0
2012-10-31,259000.0
2012-09-30,238000.0
2012-08-31,238000.0
2012-07-31,230000.0
2012-06-30,232000.0
2012-05-31,225000.0
2012-04-30,220000.0
2012-03-31,214000.0
2012-02-29,219900.0
2012-01-31,220000.0
2011-12-31,220000.0
2011-11-30,229900.0
2011-10-31,240000.0
2011-09-30,249000.0
2011-08-31,239900.0
2011-07-31,225000.0
2011-06-30,229000.0
2011-05-31,249000.0
2011-04-30,250000.0
2011-03-31,259900.0
2011-02-28,275000.0
2011-01-31,259000.0
2010-12-31,245000.0
2010-11-30,249900.0
2010-10-31,275000.0
2010-09-30,265000.0
2010-08-31,279000.0
2010-07-31,265000.0
2010-06-30,200900.0
2010-05-31,210000.0
2010-04-30,210000.0
2010-03-31,200900.0
2010-02-28,200900.0
2010-01-31,204900.0
2009-12-31,314500.0
2009-11-30,314500.0
2009-10-31,289000.0
2009-09-30,289900.0
2009-08-31,278000.0
2009-07-31,278000.0
2009-06-30,279000.0
2009-05-31,279000.0
2009-04-30,274900.0
2009-03-31,274900.0
2009-02-28,279000.0
2009-01-31,314000.0
2008-12-31,274900.0
2008-11-30,279000.0
2008-10-31,272000.0
