Date,Value
2015-09-30,356300.0
2015-08-31,351600.0
2015-07-31,343700.0
2015-06-30,339400.0
2015-05-31,331300.0
2015-04-30,326700.0
2015-03-31,325900.0
2015-02-28,326800.0
2015-01-31,326300.0
2014-12-31,324100.0
2014-11-30,321000.0
2014-10-31,318300.0
2014-09-30,316300.0
2014-08-31,313200.0
2014-07-31,310100.0
2014-06-30,308400.0
2014-05-31,305500.0
2014-04-30,299000.0
2014-03-31,292200.0
2014-02-28,288200.0
2014-01-31,285100.0
2013-12-31,280600.0
2013-11-30,277400.0
2013-10-31,275400.0
2013-09-30,273500.0
2013-08-31,272100.0
2013-07-31,270200.0
2013-06-30,266400.0
2013-05-31,261900.0
2013-04-30,258700.0
2013-03-31,255700.0
2013-02-28,252900.0
2013-01-31,250200.0
2012-12-31,248300.0
2012-11-30,245400.0
2012-10-31,242100.0
2012-09-30,239200.0
2012-08-31,238000.0
2012-07-31,236500.0
2012-06-30,234300.0
2012-05-31,231900.0
2012-04-30,230600.0
2012-03-31,229600.0
2012-02-29,228400.0
2012-01-31,228000.0
2011-12-31,229200.0
2011-11-30,230800.0
2011-10-31,233900.0
2011-09-30,238300.0
2011-08-31,242400.0
2011-07-31,245100.0
2011-06-30,247600.0
2011-05-31,251200.0
2011-04-30,255000.0
2011-03-31,259000.0
2011-02-28,262500.0
2011-01-31,265700.0
2010-12-31,268000.0
2010-11-30,270100.0
2010-10-31,270900.0
2010-09-30,271300.0
2010-08-31,272000.0
2010-07-31,274400.0
2010-06-30,277700.0
2010-05-31,281200.0
2010-04-30,284900.0
2010-03-31,288000.0
2010-02-28,290000.0
2010-01-31,291100.0
2009-12-31,292200.0
2009-11-30,293600.0
2009-10-31,293900.0
2009-09-30,292700.0
2009-08-31,291900.0
2009-07-31,292500.0
2009-06-30,293600.0
2009-05-31,294500.0
2009-04-30,295800.0
2009-03-31,298900.0
2009-02-28,302700.0
2009-01-31,306000.0
2008-12-31,308400.0
2008-11-30,311300.0
2008-10-31,314300.0
2008-09-30,316900.0
2008-08-31,317600.0
2008-07-31,318600.0
2008-06-30,321500.0
2008-05-31,325300.0
2008-04-30,327800.0
2008-03-31,330300.0
2008-02-29,332400.0
2008-01-31,334400.0
2007-12-31,336000.0
2007-11-30,338300.0
2007-10-31,342000.0
2007-09-30,346500.0
2007-08-31,350200.0
2007-07-31,352500.0
2007-06-30,353800.0
2007-05-31,354700.0
2007-04-30,355800.0
2007-03-31,356100.0
2007-02-28,355300.0
2007-01-31,353200.0
2006-12-31,351300.0
2006-11-30,348000.0
2006-10-31,342500.0
2006-09-30,336200.0
2006-08-31,331800.0
2006-07-31,327800.0
2006-06-30,324200.0
2006-05-31,320800.0
2006-04-30,317700.0
2006-03-31,313800.0
2006-02-28,309900.0
2006-01-31,307100.0
2005-12-31,304800.0
2005-11-30,301800.0
2005-10-31,298600.0
2005-09-30,295500.0
2005-08-31,292100.0
2005-07-31,288200.0
2005-06-30,283100.0
2005-05-31,278100.0
2005-04-30,273500.0
2005-03-31,268100.0
2005-02-28,263600.0
2005-01-31,260800.0
2004-12-31,258300.0
2004-11-30,256500.0
2004-10-31,256000.0
2004-09-30,255500.0
2004-08-31,254600.0
2004-07-31,252500.0
2004-06-30,249800.0
2004-05-31,246000.0
2004-04-30,242200.0
2004-03-31,239200.0
2004-02-29,237200.0
2004-01-31,235100.0
2003-12-31,232900.0
2003-11-30,230800.0
2003-10-31,229300.0
2003-09-30,228300.0
2003-08-31,227700.0
2003-07-31,227500.0
2003-06-30,227600.0
2003-05-31,227200.0
2003-04-30,226000.0
2003-03-31,225200.0
2003-02-28,224700.0
2003-01-31,223600.0
2002-12-31,222100.0
2002-11-30,220700.0
2002-10-31,219400.0
2002-09-30,219100.0
2002-08-31,218400.0
2002-07-31,217200.0
2002-06-30,217100.0
2002-05-31,217900.0
2002-04-30,217300.0
2002-03-31,215900.0
2002-02-28,214300.0
2002-01-31,212900.0
2001-12-31,211900.0
2001-11-30,210800.0
2001-10-31,208900.0
2001-09-30,206500.0
2001-08-31,204500.0
2001-07-31,202700.0
2001-06-30,200400.0
2001-05-31,198300.0
2001-04-30,197500.0
2001-03-31,196700.0
2001-02-28,194900.0
2001-01-31,193500.0
2000-12-31,192400.0
2000-11-30,191100.0
2000-10-31,189100.0
2000-09-30,186800.0
2000-08-31,183500.0
2000-07-31,180700.0
2000-06-30,178800.0
2000-05-31,177500.0
2000-04-30,176500.0
2000-03-31,176000.0
2000-02-29,175400.0
2000-01-31,174100.0
1999-12-31,172100.0
1999-11-30,169700.0
1999-10-31,167200.0
1999-09-30,164700.0
1999-08-31,163500.0
1999-07-31,163300.0
1999-06-30,162500.0
1999-05-31,161000.0
1999-04-30,161000.0
1999-03-31,161400.0
1999-02-28,160900.0
1999-01-31,159300.0
1998-12-31,157700.0
1998-11-30,156800.0
1998-10-31,156400.0
1998-09-30,155400.0
1998-08-31,154300.0
1998-07-31,153300.0
1998-06-30,152100.0
1998-05-31,150300.0
1998-04-30,147600.0
1998-03-31,145100.0
1998-02-28,143400.0
1998-01-31,142000.0
1997-12-31,140900.0
1997-11-30,139900.0
1997-10-31,139100.0
1997-09-30,138200.0
1997-08-31,136800.0
1997-07-31,134900.0
1997-06-30,133300.0
1997-05-31,132100.0
1997-04-30,130700.0
1997-03-31,129400.0
1997-02-28,128400.0
1997-01-31,127300.0
1996-12-31,126000.0
1996-11-30,124800.0
1996-10-31,124200.0
1996-09-30,124400.0
1996-08-31,124900.0
1996-07-31,125300.0
1996-06-30,125400.0
1996-05-31,125400.0
1996-04-30,125800.0
