Date,Value
2015-09-30,1.278
2015-08-31,1.274
2015-07-31,1.262
2015-06-30,1.254
2015-05-31,1.25
2015-04-30,1.248
2015-03-31,1.244
2015-02-28,1.236
2015-01-31,1.236
2014-12-31,1.234
2014-11-30,1.232
2014-10-31,1.228
2014-09-30,1.226
2014-08-31,1.22
2014-07-31,1.212
2014-06-30,1.196
2014-05-31,1.182
2014-04-30,1.168
2014-03-31,1.164
2014-02-28,1.164
2014-01-31,1.166
2013-12-31,1.166
2013-11-30,1.162
2013-10-31,1.156
2013-09-30,1.146
2013-08-31,1.136
2013-07-31,1.132
2013-06-30,1.136
2013-05-31,1.144
2013-04-30,1.144
2013-03-31,1.136
2013-02-28,1.126
2013-01-31,1.12
2012-12-31,1.116
2012-11-30,1.112
2012-10-31,1.108
2012-09-30,1.104
2012-08-31,1.098
2012-07-31,1.092
2012-06-30,1.082
2012-05-31,1.076
2012-04-30,1.074
2012-03-31,1.076
2012-02-29,1.07
2012-01-31,1.058
2011-12-31,1.048
2011-11-30,1.038
2011-10-31,1.03
2011-09-30,1.028
2011-08-31,1.03
2011-07-31,1.034
2011-06-30,1.038
2011-05-31,1.034
2011-04-30,1.028
2011-03-31,1.022
2011-02-28,1.02
2011-01-31,1.02
2010-12-31,1.014
2010-11-30,1.01
