Date,Value
2015-02-28,229950.0
2015-01-31,239500.0
2014-12-31,239950.0
2014-11-30,257950.0
2014-10-31,250000.0
2014-09-30,250000.0
2014-08-31,239000.0
2014-07-31,229888.0
2014-06-30,219988.0
2014-05-31,235000.0
2014-04-30,229000.0
2014-03-31,199950.0
2014-02-28,239000.0
2014-01-31,239000.0
2013-12-31,205000.0
2013-11-30,205000.0
2013-10-31,199950.0
2013-09-30,199950.0
2013-08-31,199950.0
2013-07-31,219999.0
2013-06-30,205000.0
2013-05-31,215000.0
2013-04-30,225000.0
2013-03-31,205000.0
2013-02-28,205000.0
2013-01-31,199000.0
2012-12-31,159950.0
2012-11-30,149000.0
2012-10-31,170000.0
2012-09-30,190000.0
2012-08-31,190000.0
2012-07-31,199950.0
2012-06-30,155000.0
2012-05-31,195000.0
2012-04-30,195000.0
2012-03-31,170000.0
2012-02-29,155000.0
2012-01-31,159990.0
2011-12-31,152500.0
2011-11-30,179950.0
2011-10-31,179990.0
2011-09-30,199950.0
2011-08-31,199950.0
2011-07-31,180000.0
2011-06-30,189500.0
2011-05-31,189500.0
2011-04-30,199900.0
2011-03-31,179990.0
2011-02-28,194900.0
2011-01-31,165900.0
2010-12-31,174900.0
2010-11-30,209950.0
2010-10-31,220000.0
2010-09-30,224900.0
2010-08-31,229000.0
2010-07-31,239000.0
2010-06-30,239000.0
2010-05-31,224900.0
2010-04-30,224900.0
2010-03-31,219900.0
2010-02-28,194000.0
2010-01-31,194000.0
2009-12-31,224900.0
2009-11-30,250000.0
2009-10-31,234950.0
2009-09-30,289950.0
2009-08-31,289950.0
2009-07-31,324555.0
2009-06-30,249950.0
2009-05-31,249950.0
2009-04-30,250000.0
2009-03-31,249950.0
2009-02-28,249950.0
2009-01-31,299995.0
2008-12-31,319950.0
2008-11-30,349900.0
2008-10-31,349900.0
