Date,Value
2008-06-30,273780.0
2007-06-30,295755.0
2007-05-31,296368.2353
2007-04-30,270780.0
2006-08-31,300280.0
2005-05-31,227000.0
2004-10-31,219000.0
2004-07-31,198779.4118
2004-06-30,206461.5385
2004-04-30,185915.3846
2004-02-29,187300.0
2003-09-30,179571.5
2003-08-31,183900.0
2003-07-31,178185.0
2003-06-30,165815.0
2003-05-31,168100.0
2003-04-30,165294.1176
2003-03-31,160000.0
2002-11-30,153373.8462
2002-09-30,142058.8235
2002-08-31,150169.2308
2002-06-30,162807.6923
2002-04-30,142147.0588
2002-03-31,134500.0
2001-12-31,139909.5385
2001-10-31,139744.0
2001-09-30,138875.0
2001-08-31,140350.0
2001-07-31,138882.3529
2001-06-30,147576.9231
2001-04-30,130194.8462
2001-02-28,132511.0
2000-11-30,128000.0
2000-07-31,135061.9231
2000-05-31,140861.0
2000-03-31,137281.0
1999-11-30,150353.0
1999-10-31,132292.15
1999-09-30,126898.35
1999-08-31,137988.8235
1999-07-31,135769.2308
1999-05-31,118300.0
1999-04-30,112382.3529
1999-03-31,112680.7692
1999-01-31,99950.0
1998-06-30,106741.7059
1998-05-31,102777.0
1998-02-28,122000.0
1996-10-31,112000.0
