Date,Value
2014-11-30,500000.0
2014-10-31,519000.0
2014-09-30,525000.0
2014-08-31,539000.0
2014-07-31,550000.0
2014-06-30,495000.0
2014-05-31,485000.0
2013-08-31,474950.0
2013-07-31,459950.0
2013-06-30,459950.0
2013-03-31,539950.0
2013-02-28,499000.0
2013-01-31,475000.0
2012-12-31,399950.0
2012-11-30,450000.0
2012-10-31,419950.0
2012-09-30,425000.0
2012-08-31,399000.0
2012-07-31,399000.0
2012-05-31,399950.0
2012-04-30,269000.0
2012-03-31,399950.0
2012-02-29,450000.0
2012-01-31,400000.0
2011-12-31,450000.0
2011-11-30,450000.0
2011-10-31,399950.0
2011-09-30,465000.0
2011-08-31,375000.0
2011-07-31,375000.0
2011-06-30,379950.0
2011-05-31,425000.0
2011-04-30,425000.0
2011-03-31,399500.0
2011-02-28,425000.0
2011-01-31,385000.0
2010-12-31,385000.0
2010-11-30,375000.0
2010-10-31,369000.0
2010-09-30,369000.0
2010-08-31,369000.0
2010-07-31,369000.0
2010-06-30,359000.0
2010-05-31,369000.0
2010-04-30,369000.0
2010-03-31,325500.0
2010-02-28,325500.0
2010-01-31,369000.0
2009-12-31,389950.0
2009-11-30,415000.0
2009-10-31,429000.0
2009-09-30,439950.0
2009-08-31,439950.0
2009-07-31,469000.0
2009-06-30,429000.0
2009-05-31,415000.0
2009-04-30,415000.0
2009-03-31,415000.0
2009-02-28,439000.0
2009-01-31,410000.0
2008-12-31,399500.0
2008-11-30,439950.0
2008-10-31,439950.0
