Date,Value
2015-09-30,2.33
2015-08-31,2.29
2015-07-31,2.248
2015-06-30,2.224
2015-05-31,2.208
2015-04-30,2.19
2015-03-31,2.178
2015-02-28,2.162
2015-01-31,2.156
2014-12-31,2.148
2014-11-30,2.146
2014-10-31,2.14
2014-09-30,2.144
2014-08-31,2.138
2014-07-31,2.116
2014-06-30,2.078
2014-05-31,2.06
2014-04-30,2.052
2014-03-31,2.054
2014-02-28,2.048
2014-01-31,2.034
2013-12-31,2.018
2013-11-30,1.998
2013-10-31,1.978
2013-09-30,1.956
2013-08-31,1.934
2013-07-31,1.91
2013-06-30,1.888
2013-05-31,1.878
2013-04-30,1.87
2013-03-31,1.868
2013-02-28,1.86
2013-01-31,1.85
2012-12-31,1.842
2012-11-30,1.836
2012-10-31,1.828
2012-09-30,1.83
2012-08-31,1.83
2012-07-31,1.826
2012-06-30,1.83
2012-05-31,1.81
2012-04-30,1.786
2012-03-31,1.754
2012-02-29,1.74
2012-01-31,1.728
2011-12-31,1.722
2011-11-30,1.71
2011-10-31,1.68
2011-09-30,1.65
2011-08-31,1.636
2011-07-31,1.642
2011-06-30,1.654
2011-05-31,1.66
2011-04-30,1.656
2011-03-31,1.646
2011-02-28,1.63
2011-01-31,1.618
2010-12-31,1.606
2010-11-30,1.59
