Date,Value
2015-09-30,339100.0
2015-08-31,332700.0
2015-07-31,327400.0
2015-06-30,328700.0
2015-05-31,328700.0
2015-04-30,324800.0
2015-03-31,317800.0
2015-02-28,318100.0
2015-01-31,319400.0
2014-12-31,318900.0
2014-11-30,315600.0
2014-10-31,312200.0
2014-09-30,309400.0
2014-08-31,305200.0
2014-07-31,299500.0
2014-06-30,297000.0
2014-05-31,295800.0
2014-04-30,293200.0
2014-03-31,288300.0
2014-02-28,284900.0
2014-01-31,281900.0
2013-12-31,277100.0
2013-11-30,272600.0
2013-10-31,270500.0
2013-09-30,267700.0
2013-08-31,265400.0
2013-07-31,265800.0
2013-06-30,266300.0
2013-05-31,264100.0
2013-04-30,261300.0
2013-03-31,257600.0
2013-02-28,254000.0
2013-01-31,251600.0
2012-12-31,250100.0
2012-11-30,249100.0
2012-10-31,247000.0
2012-09-30,244900.0
2012-08-31,244700.0
2012-07-31,245300.0
2012-06-30,244600.0
2012-05-31,244000.0
2012-04-30,244200.0
2012-03-31,244500.0
2012-02-29,243700.0
2012-01-31,242200.0
2011-12-31,241600.0
2011-11-30,242100.0
2011-10-31,243400.0
2011-09-30,244300.0
2011-08-31,244900.0
2011-07-31,245600.0
2011-06-30,247300.0
2011-05-31,249500.0
2011-04-30,251600.0
2011-03-31,253600.0
2011-02-28,256300.0
2011-01-31,259500.0
2010-12-31,262600.0
2010-11-30,265500.0
2010-10-31,269300.0
2010-09-30,276700.0
2010-08-31,284700.0
2010-07-31,289800.0
2010-06-30,292800.0
2010-05-31,293500.0
2010-04-30,292100.0
2010-03-31,292100.0
2010-02-28,293400.0
2010-01-31,295100.0
2009-12-31,298100.0
2009-11-30,300200.0
2009-10-31,301100.0
2009-09-30,301800.0
2009-08-31,302800.0
2009-07-31,304400.0
2009-06-30,304500.0
2009-05-31,304200.0
2009-04-30,306300.0
2009-03-31,310000.0
2009-02-28,313200.0
2009-01-31,315200.0
2008-12-31,316400.0
2008-11-30,318600.0
2008-10-31,319800.0
2008-09-30,318600.0
2008-08-31,317500.0
2008-07-31,318000.0
2008-06-30,319500.0
2008-05-31,323400.0
2008-04-30,327800.0
2008-03-31,331400.0
2008-02-29,333300.0
2008-01-31,332800.0
2007-12-31,331700.0
2007-11-30,331900.0
2007-10-31,334600.0
2007-09-30,338100.0
2007-08-31,341700.0
2007-07-31,343800.0
2007-06-30,346800.0
2007-05-31,349800.0
2007-04-30,351600.0
2007-03-31,353200.0
2007-02-28,354700.0
2007-01-31,356000.0
2006-12-31,355500.0
2006-11-30,354400.0
2006-10-31,351700.0
2006-09-30,349300.0
2006-08-31,346300.0
2006-07-31,343000.0
2006-06-30,338100.0
2006-05-31,330500.0
2006-04-30,323000.0
2006-03-31,318000.0
2006-02-28,316200.0
2006-01-31,314700.0
2005-12-31,313400.0
2005-11-30,312900.0
2005-10-31,311200.0
2005-09-30,306500.0
2005-08-31,298900.0
2005-07-31,291200.0
2005-06-30,287700.0
2005-05-31,287800.0
2005-04-30,287700.0
2005-03-31,284600.0
2005-02-28,280900.0
2005-01-31,278200.0
2004-12-31,275500.0
2004-11-30,270700.0
2004-10-31,266600.0
2004-09-30,264700.0
2004-08-31,263900.0
2004-07-31,262000.0
2004-06-30,255700.0
2004-05-31,250700.0
2004-04-30,248600.0
2004-03-31,247200.0
2004-02-29,244100.0
2004-01-31,242100.0
2003-12-31,239600.0
2003-11-30,236200.0
2003-10-31,233900.0
2003-09-30,232200.0
2003-08-31,231700.0
2003-07-31,233000.0
2003-06-30,234800.0
2003-05-31,234000.0
2003-04-30,231200.0
2003-03-31,226900.0
2003-02-28,224000.0
2003-01-31,222700.0
2002-12-31,222300.0
2002-11-30,223200.0
2002-10-31,225500.0
2002-09-30,227000.0
2002-08-31,225900.0
2002-07-31,225000.0
2002-06-30,226100.0
2002-05-31,226700.0
2002-04-30,225300.0
2002-03-31,224400.0
2002-02-28,223000.0
2002-01-31,221000.0
2001-12-31,220300.0
2001-11-30,220500.0
2001-10-31,219400.0
2001-09-30,218600.0
2001-08-31,219000.0
2001-07-31,217900.0
2001-06-30,215900.0
2001-05-31,214600.0
2001-04-30,213100.0
2001-03-31,212500.0
2001-02-28,212800.0
2001-01-31,211300.0
2000-12-31,210300.0
2000-11-30,210200.0
2000-10-31,206000.0
2000-09-30,201500.0
2000-08-31,201200.0
2000-07-31,202400.0
2000-06-30,203000.0
2000-05-31,202500.0
2000-04-30,200500.0
2000-03-31,199900.0
2000-02-29,199800.0
2000-01-31,197300.0
1999-12-31,195300.0
1999-11-30,196200.0
1999-10-31,195500.0
1999-09-30,192200.0
1999-08-31,188200.0
1999-07-31,184400.0
1999-06-30,181900.0
1999-05-31,182000.0
1999-04-30,181300.0
1999-03-31,180200.0
1999-02-28,179600.0
1999-01-31,178500.0
1998-12-31,177600.0
1998-11-30,179600.0
1998-10-31,179900.0
1998-09-30,177300.0
1998-08-31,174500.0
