Date,Value
2015-09-30,1.042
2015-08-31,1.036
2015-07-31,1.024
2015-06-30,1.018
2015-05-31,1.01
2015-04-30,1.004
2015-03-31,0.998
2015-02-28,0.992
2015-01-31,0.99
2014-12-31,0.99
2014-11-30,0.988
2014-10-31,0.982
2014-09-30,0.978
2014-08-31,0.976
2014-07-31,0.974
2014-06-30,0.97
2014-05-31,0.966
2014-04-30,0.962
2014-03-31,0.962
2014-02-28,0.964
2014-01-31,0.964
2013-12-31,0.964
2013-11-30,0.958
2013-10-31,0.956
2013-09-30,0.952
2013-08-31,0.948
2013-07-31,0.94
2013-06-30,0.934
2013-05-31,0.928
2013-04-30,0.922
2013-03-31,0.914
2013-02-28,0.906
2013-01-31,0.9
2012-12-31,0.896
2012-11-30,0.892
2012-10-31,0.892
2012-09-30,0.892
2012-08-31,0.896
2012-07-31,0.894
2012-06-30,0.89
2012-05-31,0.884
2012-04-30,0.882
2012-03-31,0.882
2012-02-29,0.882
2012-01-31,0.878
2011-12-31,0.872
2011-11-30,0.866
2011-10-31,0.858
2011-09-30,0.852
2011-08-31,0.844
2011-07-31,0.842
2011-06-30,0.844
2011-05-31,0.846
2011-04-30,0.844
2011-03-31,0.84
2011-02-28,0.834
2011-01-31,0.826
2010-12-31,0.822
2010-11-30,0.822
