Date,Value
2015-09-30,835384.6154
2015-07-31,668730.0
2015-06-30,712150.0
2015-04-30,400000.0
2014-09-30,798738.5
2014-08-31,699350.0
2014-07-31,684882.3529
2014-06-30,630107.6923
2014-04-30,233800.0
2013-10-31,635835.0
2013-04-30,700700.0
2012-10-31,696000.0
2012-07-31,634600.0
2012-06-30,422517.5
2012-05-31,189244.1176
2012-04-30,132450.0
2011-06-30,630000.0
2011-03-31,265000.0
2010-05-31,719000.0
2009-07-31,250000.0
2008-06-30,475384.6154
2008-04-30,370000.0
2007-08-31,774475.0
2007-06-30,283000.0
2007-05-31,306764.7059
2007-04-30,321576.9231
2007-02-28,303038.4615
2006-12-31,434500.0
2006-10-31,451307.6923
2006-07-31,264250.0
2006-06-30,307275.0
2006-05-31,314200.0
2006-03-31,212875.0
2006-02-28,216525.0
2006-01-31,210992.5
2005-12-31,220625.0
2005-11-30,194250.0
2005-10-31,202400.0
2005-09-30,203050.0
2005-08-31,215207.5
2005-07-31,221075.0
2005-06-30,212575.0
2005-05-31,189560.0
2005-04-30,215115.0
2005-03-31,205352.9412
2005-02-28,238346.1538
2004-12-31,203200.0
2004-09-30,194200.0
2004-08-31,224625.0
2004-07-31,263425.0
2004-05-31,370650.0
2004-02-29,397100.0
2003-10-31,246900.0
2003-09-30,282975.0
2003-08-31,250725.0
2003-06-30,350341.5
2003-05-31,384161.0
2003-04-30,359250.0
2003-02-28,314350.0
2003-01-31,256400.0
2002-11-30,175733.5
2002-09-30,237870.0
2002-08-31,266625.0
2002-07-31,299750.0
2002-06-30,288250.0
2002-05-31,285250.0
2002-04-30,245250.0
2002-02-28,144075.0
2002-01-31,150400.0
2001-12-31,180290.0
2001-11-30,204435.0
2001-10-31,168100.0
2001-09-30,165600.0
2001-06-30,327375.0
2001-05-31,304825.0
2001-04-30,308823.5294
2001-03-31,315000.0
2000-10-31,308075.0
2000-09-30,298300.0
2000-08-31,267350.0
2000-07-31,229550.0
2000-05-31,294398.5
2000-04-30,290246.5
2000-03-31,266495.0
2000-02-29,244248.5
2000-01-31,236496.5
1999-12-31,250595.0
1999-10-31,268998.5
1999-09-30,285446.5
1999-08-31,283370.0
1999-06-30,136750.0
1999-05-31,159850.0
1999-03-31,92192.3077
1998-12-31,161525.0
1998-11-30,143875.0
1998-07-31,183007.5
1998-05-31,109700.0
1998-04-30,118625.0
1998-03-31,119675.0
1998-01-31,194992.5
1997-12-31,189532.5
1997-10-31,128317.5
1997-07-31,291674.1
1997-05-31,155879.5
1997-04-30,180575.0
1997-02-28,118435.0
1997-01-31,123190.0
1996-12-31,110475.0
1996-09-30,180384.6154
1996-07-31,166050.0
1996-05-31,189650.0
