Date,Value
2015-06-30,1510.0
2015-05-31,1430.0
2015-04-30,1430.0
2015-03-31,1299.0
2015-02-28,1299.0
2015-01-31,1299.0
2014-12-31,1299.0
2014-11-30,1299.0
2014-10-31,1395.0
2014-09-30,1375.0
2014-08-31,1425.0
2014-07-31,1425.0
2014-06-30,1330.0
2014-05-31,1375.0
2014-04-30,1272.0
2014-03-31,1346.0
2014-02-28,1339.0
2014-01-31,1350.0
2013-12-31,1290.0
2013-11-30,1199.0
2013-10-31,1295.0
2013-09-30,1350.0
2013-08-31,1267.0
2013-07-31,1400.0
2013-06-30,1215.0
2013-05-31,1320.0
2013-04-30,1350.0
2013-03-31,1320.0
2013-02-28,1239.0
2013-01-31,1075.0
2012-12-31,1074.0
2012-11-30,1090.0
2012-10-31,1145.0
2012-09-30,1250.0
2012-08-31,1240.0
2012-07-31,1145.0
2012-06-30,1150.0
2012-05-31,1140.0
2012-04-30,1140.0
2012-03-31,1070.0
2012-02-29,1050.0
2012-01-31,1150.0
2011-12-31,1195.0
2011-10-31,1100.0
2011-08-31,1150.0
2011-07-31,1195.0
2011-03-31,1195.0
2011-02-28,1162.0
2011-01-31,1114.0
2010-12-31,1150.0
2010-11-30,1218.0
2010-10-31,1200.0
2010-09-30,1150.0
2010-08-31,1200.0
