Date,Value
2015-09-30,632000.0
2015-08-31,622900.0
2015-07-31,615000.0
2015-06-30,615700.0
2015-05-31,607500.0
2015-04-30,593100.0
2015-03-31,583800.0
2015-02-28,581700.0
2015-01-31,578000.0
2014-12-31,578100.0
2014-11-30,575600.0
2014-10-31,571400.0
2014-09-30,568100.0
2014-08-31,566100.0
2014-07-31,563800.0
2014-06-30,561200.0
2014-05-31,557000.0
2014-04-30,552500.0
2014-03-31,550100.0
2014-02-28,549700.0
2014-01-31,548600.0
2013-12-31,545800.0
2013-11-30,543900.0
2013-10-31,541900.0
2013-09-30,538500.0
2013-08-31,534200.0
2013-07-31,531300.0
2013-06-30,526000.0
2013-05-31,519100.0
2013-04-30,513300.0
2013-03-31,506800.0
2013-02-28,499500.0
2013-01-31,493500.0
2012-12-31,488900.0
2012-11-30,484500.0
2012-10-31,481600.0
2012-09-30,480000.0
2012-08-31,478600.0
2012-07-31,473300.0
2012-06-30,466900.0
2012-05-31,461900.0
2012-04-30,458100.0
2012-03-31,454300.0
2012-02-29,451500.0
2012-01-31,449200.0
2011-12-31,448300.0
2011-11-30,447500.0
2011-10-31,445600.0
2011-09-30,444100.0
2011-08-31,443000.0
2011-07-31,442800.0
2011-06-30,443800.0
2011-05-31,444800.0
2011-04-30,445400.0
2011-03-31,446100.0
2011-02-28,446300.0
2011-01-31,447100.0
2010-12-31,448400.0
2010-11-30,449300.0
2010-10-31,450400.0
2010-09-30,451600.0
2010-08-31,453500.0
2010-07-31,456300.0
2010-06-30,459000.0
2010-05-31,461800.0
2010-04-30,462600.0
2010-03-31,461900.0
2010-02-28,462000.0
2010-01-31,463400.0
2009-12-31,462500.0
2009-11-30,461400.0
2009-10-31,461600.0
2009-09-30,464000.0
2009-08-31,465400.0
2009-07-31,465900.0
2009-06-30,466700.0
2009-05-31,470000.0
2009-04-30,474600.0
2009-03-31,480400.0
2009-02-28,486400.0
2009-01-31,492700.0
2008-12-31,497700.0
2008-11-30,503300.0
2008-10-31,510200.0
2008-09-30,515800.0
2008-08-31,518300.0
2008-07-31,520100.0
2008-06-30,522900.0
2008-05-31,527400.0
2008-04-30,532000.0
2008-03-31,534900.0
2008-02-29,536800.0
2008-01-31,539200.0
2007-12-31,543000.0
2007-11-30,545800.0
2007-10-31,547600.0
2007-09-30,550000.0
2007-08-31,554100.0
2007-07-31,558300.0
2007-06-30,562100.0
2007-05-31,562300.0
2007-04-30,560500.0
2007-03-31,558500.0
2007-02-28,555500.0
2007-01-31,549900.0
2006-12-31,544400.0
2006-11-30,537700.0
2006-10-31,528900.0
2006-09-30,519900.0
2006-08-31,512800.0
2006-07-31,507300.0
2006-06-30,502400.0
2006-05-31,496600.0
2006-04-30,490900.0
2006-03-31,488300.0
2006-02-28,487400.0
2006-01-31,484500.0
2005-12-31,480200.0
2005-11-30,476800.0
2005-10-31,474200.0
2005-09-30,469100.0
2005-08-31,462200.0
2005-07-31,456300.0
2005-06-30,450400.0
2005-05-31,443400.0
2005-04-30,437400.0
2005-03-31,431700.0
2005-02-28,425800.0
2005-01-31,420400.0
2004-12-31,415200.0
2004-11-30,410100.0
2004-10-31,405100.0
2004-09-30,400200.0
2004-08-31,395700.0
2004-07-31,391200.0
2004-06-30,387700.0
2004-05-31,385800.0
2004-04-30,384700.0
2004-03-31,381900.0
2004-02-29,377700.0
2004-01-31,374100.0
2003-12-31,371400.0
2003-11-30,368700.0
2003-10-31,366300.0
2003-09-30,365500.0
2003-08-31,365200.0
2003-07-31,364900.0
2003-06-30,363800.0
2003-05-31,361600.0
2003-04-30,359000.0
2003-03-31,356200.0
2003-02-28,352900.0
2003-01-31,349600.0
2002-12-31,347900.0
2002-11-30,346900.0
2002-10-31,345300.0
2002-09-30,344700.0
2002-08-31,346100.0
2002-07-31,346300.0
2002-06-30,345500.0
2002-05-31,346100.0
2002-04-30,345700.0
2002-03-31,344500.0
2002-02-28,344700.0
2002-01-31,346000.0
2001-12-31,346700.0
2001-11-30,347100.0
2001-10-31,346400.0
2001-09-30,344300.0
2001-08-31,340600.0
2001-07-31,336500.0
2001-06-30,333200.0
2001-05-31,331100.0
2001-04-30,328800.0
2001-03-31,325900.0
2001-02-28,323000.0
2001-01-31,320400.0
2000-12-31,317100.0
2000-11-30,315100.0
2000-10-31,313500.0
2000-09-30,311600.0
2000-08-31,310200.0
2000-07-31,310200.0
2000-06-30,309900.0
2000-05-31,308600.0
2000-04-30,306400.0
2000-03-31,305000.0
2000-02-29,303400.0
2000-01-31,300700.0
1999-12-31,298200.0
1999-11-30,295700.0
1999-10-31,293000.0
1999-09-30,290800.0
1999-08-31,288400.0
1999-07-31,285200.0
1999-06-30,281100.0
1999-05-31,275200.0
1999-04-30,270600.0
1999-03-31,268800.0
1999-02-28,267800.0
1999-01-31,265600.0
1998-12-31,262800.0
1998-11-30,260400.0
1998-10-31,258900.0
1998-09-30,257000.0
1998-08-31,253900.0
1998-07-31,248900.0
1998-06-30,242900.0
1998-05-31,238800.0
1998-04-30,236700.0
1998-03-31,232300.0
1998-02-28,226700.0
1998-01-31,222700.0
1997-12-31,219200.0
1997-11-30,215800.0
1997-10-31,213500.0
1997-09-30,211300.0
1997-08-31,208600.0
1997-07-31,206200.0
1997-06-30,205200.0
1997-05-31,203300.0
1997-04-30,199600.0
1997-03-31,196500.0
1997-02-28,195000.0
1997-01-31,193700.0
1996-12-31,192400.0
1996-11-30,190000.0
1996-10-31,187800.0
1996-09-30,185800.0
1996-08-31,184100.0
1996-07-31,182900.0
1996-06-30,182400.0
1996-05-31,182300.0
1996-04-30,182900.0
