Date,Value
2015-09-30,218300.0
2015-08-31,213800.0
2015-07-31,211300.0
2015-06-30,210900.0
2015-05-31,207600.0
2015-04-30,207300.0
2015-03-31,207700.0
2015-02-28,208300.0
2015-01-31,207500.0
2014-12-31,206600.0
2014-11-30,205900.0
2014-10-31,205300.0
2014-09-30,204700.0
2014-08-31,204000.0
2014-07-31,203700.0
2014-06-30,203400.0
2014-05-31,203400.0
2014-04-30,204000.0
2014-03-31,204600.0
2014-02-28,204700.0
2014-01-31,204200.0
2013-12-31,203600.0
2013-11-30,203200.0
2013-10-31,202400.0
2013-09-30,200900.0
2013-08-31,200100.0
2013-07-31,200400.0
2013-06-30,200800.0
2013-05-31,200400.0
2013-04-30,199500.0
2013-03-31,198000.0
2013-02-28,196500.0
2013-01-31,195600.0
2012-12-31,195100.0
2012-11-30,195300.0
2012-10-31,196400.0
2012-09-30,197200.0
2012-08-31,196800.0
2012-07-31,194800.0
2012-06-30,192900.0
2012-05-31,192400.0
2012-04-30,192100.0
2012-03-31,191900.0
2012-02-29,192600.0
2012-01-31,193700.0
2011-12-31,193800.0
2011-11-30,193600.0
2011-10-31,193600.0
2011-09-30,194500.0
2011-08-31,195900.0
2011-07-31,197800.0
2011-06-30,199900.0
2011-05-31,201700.0
2011-04-30,203100.0
2011-03-31,204900.0
2011-02-28,206300.0
2011-01-31,206900.0
2010-12-31,208000.0
2010-11-30,209300.0
2010-10-31,210400.0
2010-09-30,212300.0
2010-08-31,214900.0
2010-07-31,217000.0
2010-06-30,218200.0
2010-05-31,219300.0
2010-04-30,220200.0
2010-03-31,220800.0
2010-02-28,221300.0
2010-01-31,221900.0
2009-12-31,221700.0
2009-11-30,221000.0
2009-10-31,220500.0
2009-09-30,221000.0
2009-08-31,222400.0
2009-07-31,223700.0
2009-06-30,224400.0
2009-05-31,225000.0
2009-04-30,225700.0
2009-03-31,226400.0
2009-02-28,227800.0
2009-01-31,230700.0
2008-12-31,233900.0
2008-11-30,236700.0
2008-10-31,238900.0
2008-09-30,239200.0
2008-08-31,238800.0
2008-07-31,239500.0
2008-06-30,240300.0
2008-05-31,239700.0
2008-04-30,239600.0
2008-03-31,239900.0
2008-02-29,238800.0
2008-01-31,236800.0
2007-12-31,236100.0
2007-11-30,236900.0
2007-10-31,238300.0
2007-09-30,239900.0
2007-08-31,240200.0
2007-07-31,240200.0
2007-06-30,241000.0
2007-05-31,242700.0
2007-04-30,243800.0
2007-03-31,244000.0
2007-02-28,243600.0
2007-01-31,243300.0
2006-12-31,243100.0
2006-11-30,242800.0
2006-10-31,242600.0
2006-09-30,241900.0
2006-08-31,241000.0
2006-07-31,240100.0
2006-06-30,239700.0
2006-05-31,239100.0
2006-04-30,237500.0
2006-03-31,234700.0
2006-02-28,232800.0
2006-01-31,230800.0
2005-12-31,227800.0
2005-11-30,224100.0
2005-10-31,220200.0
2005-09-30,215900.0
2005-08-31,211400.0
2005-07-31,206700.0
2005-06-30,201400.0
2005-05-31,195600.0
2005-04-30,190800.0
2005-03-31,187600.0
2005-02-28,185000.0
2005-01-31,182400.0
2004-12-31,180800.0
2004-11-30,178500.0
2004-10-31,175500.0
2004-09-30,172500.0
2004-08-31,170400.0
2004-07-31,168100.0
2004-06-30,165400.0
2004-05-31,163400.0
2004-04-30,161800.0
2004-03-31,160500.0
2004-02-29,159300.0
2004-01-31,158000.0
2003-12-31,155800.0
2003-11-30,153400.0
2003-10-31,151400.0
2003-09-30,150000.0
2003-08-31,148600.0
2003-07-31,147300.0
2003-06-30,146800.0
2003-05-31,146900.0
2003-04-30,146800.0
2003-03-31,145900.0
2003-02-28,144500.0
2003-01-31,143400.0
2002-12-31,142000.0
2002-11-30,140500.0
2002-10-31,139000.0
2002-09-30,137800.0
2002-08-31,136800.0
2002-07-31,136400.0
2002-06-30,135500.0
2002-05-31,133800.0
2002-04-30,132200.0
2002-03-31,131700.0
2002-02-28,131800.0
2002-01-31,131300.0
2001-12-31,130400.0
2001-11-30,130100.0
2001-10-31,130400.0
2001-09-30,130700.0
2001-08-31,130400.0
2001-07-31,129500.0
2001-06-30,128800.0
2001-05-31,128600.0
2001-04-30,128400.0
2001-03-31,128000.0
2001-02-28,126700.0
2001-01-31,125500.0
2000-12-31,125500.0
2000-11-30,125900.0
2000-10-31,125600.0
2000-09-30,125400.0
2000-08-31,125400.0
2000-07-31,125800.0
2000-06-30,126200.0
2000-05-31,126000.0
2000-04-30,125100.0
2000-03-31,123900.0
2000-02-29,122900.0
2000-01-31,122500.0
1999-12-31,122500.0
1999-11-30,122400.0
1999-10-31,122300.0
1999-09-30,122100.0
1999-08-31,122000.0
1999-07-31,121500.0
1999-06-30,120800.0
1999-05-31,120900.0
1999-04-30,121500.0
1999-03-31,122000.0
1999-02-28,122000.0
1999-01-31,121600.0
1998-12-31,120800.0
1998-11-30,119600.0
1998-10-31,118300.0
1998-09-30,117000.0
1998-08-31,116000.0
1998-07-31,115500.0
1998-06-30,114900.0
1998-05-31,113900.0
1998-04-30,112400.0
1998-03-31,110900.0
1998-02-28,110100.0
1998-01-31,109600.0
1997-12-31,109100.0
1997-11-30,109100.0
1997-10-31,109900.0
1997-09-30,110200.0
1997-08-31,109900.0
1997-07-31,109300.0
1997-06-30,108700.0
1997-05-31,108000.0
1997-04-30,107800.0
1997-03-31,107600.0
1997-02-28,107500.0
1997-01-31,107100.0
1996-12-31,106800.0
1996-11-30,106500.0
1996-10-31,106300.0
1996-09-30,105900.0
1996-08-31,105800.0
1996-07-31,105900.0
1996-06-30,106400.0
1996-05-31,107200.0
1996-04-30,108000.0
