Date,Value
2014-10-31,197500.0
2014-09-30,168000.0
2014-08-31,168000.0
2014-07-31,179000.0
2014-06-30,179000.0
2014-05-31,182000.0
2014-04-30,179000.0
2014-03-31,172700.0
2014-02-28,174900.0
2014-01-31,185000.0
2013-12-31,185000.0
2013-11-30,160000.0
2013-10-31,177900.0
2013-09-30,185000.0
2013-08-31,229000.0
2013-07-31,229000.0
2013-06-30,199000.0
2013-05-31,215000.0
2013-04-30,349000.0
2013-03-31,349900.0
2013-02-28,329900.0
2013-01-31,339900.0
2012-12-31,339900.0
2012-11-30,339900.0
2012-10-31,329900.0
2012-09-30,329900.0
2012-08-31,329900.0
2012-07-31,245000.0
2012-06-30,245000.0
2012-05-31,174000.0
2012-04-30,149900.0
2012-03-31,169555.0
2012-02-29,195000.0
2012-01-31,225000.0
2011-12-31,249000.0
2011-11-30,289000.0
2011-10-31,298000.0
2011-09-30,225000.0
2011-08-31,199000.0
2011-07-31,175000.0
2011-06-30,175000.0
2011-05-31,199900.0
2011-04-30,199900.0
2011-03-31,242500.0
2011-02-28,250000.0
2011-01-31,270000.0
2010-12-31,269500.0
2010-11-30,259900.0
2010-10-31,298000.0
2010-09-30,299500.0
2010-08-31,245000.0
2010-07-31,289000.0
2010-06-30,298000.0
2010-05-31,318000.0
2010-04-30,318000.0
2010-03-31,229000.0
2010-02-28,372500.0
2010-01-31,386785.0
2009-12-31,386785.0
2009-11-30,386785.0
2009-10-31,265000.0
2009-09-30,357000.0
2009-08-31,285000.0
2009-07-31,253900.0
2009-06-30,242550.0
2009-05-31,759000.0
2009-04-30,774000.0
2009-03-31,774000.0
2009-02-28,759000.0
