Date,Value
2015-09-30,709300.0
2015-08-31,703700.0
2015-07-31,693800.0
2015-06-30,693400.0
2015-05-31,688800.0
2015-04-30,682000.0
2015-03-31,674500.0
2015-02-28,673500.0
2015-01-31,667500.0
2014-12-31,664800.0
2014-11-30,661300.0
2014-10-31,656900.0
2014-09-30,654100.0
2014-08-31,651800.0
2014-07-31,649900.0
2014-06-30,648300.0
2014-05-31,646900.0
2014-04-30,644800.0
2014-03-31,642500.0
2014-02-28,638200.0
2014-01-31,631500.0
2013-12-31,624000.0
2013-11-30,617600.0
2013-10-31,612000.0
2013-09-30,608300.0
2013-08-31,607500.0
2013-07-31,606900.0
2013-06-30,604000.0
2013-05-31,598000.0
2013-04-30,590100.0
2013-03-31,584200.0
2013-02-28,579700.0
2013-01-31,573800.0
2012-12-31,569100.0
2012-11-30,567500.0
2012-10-31,565700.0
2012-09-30,561800.0
2012-08-31,555600.0
2012-07-31,548200.0
2012-06-30,538800.0
2012-05-31,528500.0
2012-04-30,519400.0
2012-03-31,512200.0
2012-02-29,507500.0
2012-01-31,505600.0
2011-12-31,507600.0
2011-11-30,511100.0
2011-10-31,513100.0
2011-09-30,514100.0
2011-08-31,516300.0
2011-07-31,519500.0
2011-06-30,522000.0
2011-05-31,524600.0
2011-04-30,525600.0
2011-03-31,526000.0
2011-02-28,526100.0
2011-01-31,528100.0
2010-12-31,529700.0
2010-11-30,528900.0
2010-10-31,527100.0
2010-09-30,526000.0
2010-08-31,525300.0
2010-07-31,524500.0
2010-06-30,527100.0
2010-05-31,532600.0
2010-04-30,538700.0
2010-03-31,543000.0
2010-02-28,544100.0
2010-01-31,541700.0
2009-12-31,539000.0
2009-11-30,537300.0
2009-10-31,532800.0
2009-09-30,527000.0
2009-08-31,522000.0
2009-07-31,519100.0
2009-06-30,519100.0
2009-05-31,520800.0
2009-04-30,523400.0
2009-03-31,529200.0
2009-02-28,537300.0
2009-01-31,544900.0
2008-12-31,552700.0
2008-11-30,561000.0
2008-10-31,569200.0
2008-09-30,576600.0
2008-08-31,583600.0
2008-07-31,591100.0
2008-06-30,599200.0
2008-05-31,609000.0
2008-04-30,618300.0
2008-03-31,623100.0
2008-02-29,625800.0
2008-01-31,629500.0
2007-12-31,631800.0
2007-11-30,631400.0
2007-10-31,630000.0
2007-09-30,627800.0
2007-08-31,626900.0
2007-07-31,628100.0
2007-06-30,628400.0
2007-05-31,625900.0
2007-04-30,624500.0
2007-03-31,623700.0
2007-02-28,622700.0
2007-01-31,622000.0
2006-12-31,619200.0
2006-11-30,614400.0
2006-10-31,612000.0
2006-09-30,611100.0
2006-08-31,608100.0
2006-07-31,604100.0
2006-06-30,600000.0
2006-05-31,594300.0
2006-04-30,589100.0
2006-03-31,587800.0
2006-02-28,589300.0
2006-01-31,588400.0
2005-12-31,582500.0
2005-11-30,573100.0
2005-10-31,563800.0
2005-09-30,555700.0
2005-08-31,547500.0
2005-07-31,539100.0
2005-06-30,531500.0
2005-05-31,524800.0
2005-04-30,516600.0
2005-03-31,504100.0
2005-02-28,489600.0
2005-01-31,476600.0
2004-12-31,467200.0
2004-11-30,462400.0
2004-10-31,462000.0
2004-09-30,463700.0
2004-08-31,465200.0
2004-07-31,464100.0
2004-06-30,459400.0
2004-05-31,451700.0
2004-04-30,443800.0
2004-03-31,438400.0
2004-02-29,434000.0
2004-01-31,428300.0
2003-12-31,423200.0
2003-11-30,420600.0
2003-10-31,418000.0
2003-09-30,414100.0
2003-08-31,410000.0
2003-07-31,406100.0
2003-06-30,402300.0
2003-05-31,400100.0
2003-04-30,399200.0
2003-03-31,397200.0
2003-02-28,393900.0
2003-01-31,392000.0
2002-12-31,393100.0
2002-11-30,393700.0
2002-10-31,393700.0
2002-09-30,393900.0
2002-08-31,393300.0
2002-07-31,391800.0
2002-06-30,390700.0
2002-05-31,390900.0
2002-04-30,390700.0
2002-03-31,390300.0
2002-02-28,390300.0
2002-01-31,391600.0
2001-12-31,392500.0
2001-11-30,392400.0
2001-10-31,389800.0
2001-09-30,386300.0
2001-08-31,383600.0
2001-07-31,381600.0
2001-06-30,381100.0
2001-05-31,381900.0
2001-04-30,381800.0
2001-03-31,379800.0
2001-02-28,377500.0
2001-01-31,374500.0
2000-12-31,371600.0
2000-11-30,369500.0
2000-10-31,368100.0
2000-09-30,367600.0
2000-08-31,367500.0
2000-07-31,367300.0
2000-06-30,365300.0
2000-05-31,361000.0
2000-04-30,355900.0
2000-03-31,352500.0
2000-02-29,349800.0
2000-01-31,347300.0
1999-12-31,344400.0
1999-11-30,340700.0
1999-10-31,336400.0
1999-09-30,332600.0
1999-08-31,330100.0
1999-07-31,326900.0
1999-06-30,322100.0
1999-05-31,317800.0
1999-04-30,316200.0
1999-03-31,315700.0
1999-02-28,314100.0
1999-01-31,310800.0
1998-12-31,306500.0
1998-11-30,302500.0
1998-10-31,299000.0
1998-09-30,295000.0
1998-08-31,289400.0
1998-07-31,283200.0
1998-06-30,278600.0
1998-05-31,274800.0
1998-04-30,270200.0
1998-03-31,265900.0
1998-02-28,263400.0
1998-01-31,261600.0
1997-12-31,259600.0
1997-11-30,257300.0
1997-10-31,254300.0
1997-09-30,250000.0
1997-08-31,245800.0
1997-07-31,242900.0
1997-06-30,240700.0
1997-05-31,237900.0
1997-04-30,234300.0
1997-03-31,230800.0
1997-02-28,228700.0
1997-01-31,227600.0
1996-12-31,226100.0
1996-11-30,224100.0
1996-10-31,221800.0
1996-09-30,219400.0
1996-08-31,217100.0
1996-07-31,215800.0
1996-06-30,215300.0
1996-05-31,215600.0
1996-04-30,216400.0
