Date,Value
2015-09-30,333800.0
2015-08-31,336100.0
2015-07-31,333700.0
2015-06-30,336400.0
2015-05-31,335800.0
2015-04-30,331400.0
2015-03-31,323900.0
2015-02-28,319900.0
2015-01-31,314500.0
2014-12-31,312700.0
2014-11-30,310800.0
2014-10-31,310300.0
2014-09-30,310200.0
2014-08-31,308500.0
2014-07-31,305400.0
2014-06-30,303400.0
2014-05-31,301800.0
2014-04-30,298000.0
2014-03-31,293000.0
2014-02-28,289900.0
2014-01-31,288500.0
2013-12-31,286200.0
2013-11-30,283400.0
2013-10-31,281300.0
2013-09-30,280000.0
2013-08-31,278900.0
2013-07-31,277400.0
2013-06-30,274600.0
2013-05-31,270100.0
2013-04-30,265500.0
2013-03-31,261600.0
2013-02-28,259000.0
2013-01-31,257200.0
2012-12-31,255500.0
2012-11-30,253300.0
2012-10-31,251400.0
2012-09-30,249900.0
2012-08-31,249600.0
2012-07-31,248900.0
2012-06-30,248000.0
2012-05-31,246500.0
2012-04-30,245300.0
2012-03-31,244400.0
2012-02-29,243800.0
2012-01-31,243600.0
2011-12-31,244300.0
2011-11-30,245100.0
2011-10-31,244400.0
2011-09-30,242900.0
2011-08-31,242000.0
2011-07-31,242700.0
2011-06-30,243300.0
2011-05-31,243800.0
2011-04-30,244800.0
2011-03-31,247500.0
2011-02-28,250300.0
2011-01-31,252700.0
2010-12-31,254300.0
2010-11-30,255700.0
2010-10-31,257400.0
2010-09-30,260700.0
2010-08-31,264900.0
2010-07-31,268800.0
2010-06-30,271800.0
2010-05-31,274900.0
2010-04-30,277800.0
2010-03-31,280100.0
2010-02-28,281700.0
2010-01-31,282900.0
2009-12-31,284500.0
2009-11-30,286600.0
2009-10-31,287500.0
2009-09-30,287200.0
2009-08-31,288500.0
2009-07-31,291000.0
2009-06-30,293500.0
2009-05-31,296500.0
2009-04-30,301100.0
2009-03-31,306700.0
2009-02-28,311900.0
2009-01-31,316800.0
2008-12-31,321000.0
2008-11-30,325400.0
2008-10-31,330500.0
2008-09-30,336000.0
2008-08-31,339000.0
2008-07-31,341100.0
2008-06-30,345000.0
2008-05-31,350600.0
2008-04-30,356100.0
2008-03-31,360300.0
2008-02-29,363500.0
2008-01-31,366300.0
2007-12-31,368800.0
2007-11-30,370700.0
2007-10-31,373100.0
2007-09-30,375100.0
2007-08-31,376900.0
2007-07-31,378200.0
2007-06-30,379800.0
2007-05-31,381500.0
2007-04-30,382700.0
2007-03-31,382700.0
2007-02-28,381900.0
2007-01-31,380000.0
2006-12-31,378300.0
2006-11-30,376600.0
2006-10-31,374200.0
2006-09-30,370700.0
2006-08-31,367300.0
2006-07-31,364900.0
2006-06-30,361900.0
2006-05-31,356700.0
2006-04-30,350800.0
2006-03-31,345500.0
2006-02-28,341300.0
2006-01-31,337700.0
2005-12-31,333700.0
2005-11-30,329300.0
2005-10-31,325100.0
2005-09-30,320600.0
2005-08-31,314400.0
2005-07-31,307900.0
2005-06-30,301900.0
2005-05-31,296300.0
2005-04-30,290500.0
2005-03-31,285100.0
2005-02-28,280700.0
2005-01-31,276600.0
2004-12-31,272800.0
2004-11-30,269400.0
2004-10-31,266300.0
2004-09-30,263600.0
2004-08-31,261200.0
2004-07-31,258600.0
2004-06-30,255900.0
2004-05-31,253900.0
2004-04-30,251800.0
2004-03-31,249100.0
2004-02-29,246200.0
2004-01-31,243800.0
2003-12-31,242500.0
2003-11-30,242000.0
2003-10-31,241600.0
2003-09-30,241500.0
2003-08-31,242400.0
2003-07-31,242700.0
2003-06-30,242100.0
2003-05-31,241300.0
2003-04-30,240900.0
2003-03-31,240200.0
2003-02-28,239500.0
2003-01-31,238700.0
2002-12-31,237700.0
2002-11-30,236500.0
2002-10-31,234900.0
2002-09-30,233700.0
2002-08-31,232300.0
2002-07-31,231100.0
2002-06-30,230300.0
2002-05-31,229600.0
2002-04-30,229100.0
2002-03-31,228500.0
2002-02-28,227700.0
2002-01-31,227100.0
2001-12-31,226400.0
2001-11-30,225400.0
2001-10-31,224700.0
2001-09-30,224900.0
2001-08-31,224800.0
2001-07-31,224100.0
2001-06-30,223500.0
2001-05-31,222800.0
2001-04-30,221900.0
2001-03-31,221400.0
2001-02-28,220600.0
2001-01-31,219000.0
2000-12-31,216400.0
2000-11-30,214200.0
2000-10-31,212800.0
2000-09-30,211700.0
2000-08-31,210200.0
2000-07-31,208500.0
2000-06-30,207200.0
2000-05-31,206400.0
2000-04-30,206100.0
2000-03-31,205600.0
2000-02-29,205300.0
2000-01-31,205300.0
1999-12-31,205100.0
1999-11-30,204300.0
1999-10-31,203100.0
1999-09-30,201200.0
1999-08-31,199900.0
1999-07-31,199200.0
1999-06-30,198300.0
1999-05-31,196500.0
1999-04-30,194900.0
1999-03-31,193700.0
1999-02-28,192600.0
1999-01-31,191300.0
1998-12-31,190500.0
1998-11-30,190100.0
1998-10-31,188500.0
1998-09-30,186600.0
1998-08-31,184900.0
1998-07-31,183600.0
1998-06-30,182200.0
1998-05-31,180800.0
1998-04-30,179800.0
1998-03-31,179200.0
1998-02-28,178300.0
1998-01-31,177000.0
1997-12-31,176300.0
1997-11-30,176000.0
1997-10-31,176100.0
1997-09-30,175600.0
1997-08-31,174700.0
1997-07-31,173800.0
1997-06-30,172800.0
1997-05-31,171800.0
1997-04-30,170400.0
1997-03-31,168400.0
1997-02-28,166700.0
1997-01-31,165700.0
1996-12-31,164400.0
1996-11-30,162600.0
1996-10-31,161000.0
1996-09-30,159500.0
1996-08-31,158700.0
1996-07-31,158500.0
1996-06-30,158500.0
1996-05-31,158000.0
1996-04-30,157500.0
