Date,Value
2015-09-30,379257.1538
2015-07-31,371265.5
2015-06-30,375655.55
2015-05-31,363544.6471
2015-04-30,370037.0
2014-12-31,313511.25
2014-11-30,313288.2353
2014-10-31,319950.0
2010-03-31,315000.0
2009-11-30,361392.5
2009-10-31,322920.5882
2009-09-30,349950.0
2008-07-31,341000.0
2007-12-31,270000.0
2007-09-30,360700.0
2007-08-31,351850.0
2007-07-31,329750.0
2007-06-30,347950.0
2007-05-31,357492.5
2007-04-30,358508.8235
2007-03-31,334950.0
2006-11-30,361500.0
2006-09-30,316470.5882
2006-08-31,334000.0
2006-06-30,340850.0
2006-05-31,355775.0
2006-04-30,326507.5
2006-03-31,332079.4118
2006-02-28,324653.8462
2005-12-31,294050.0
2005-11-30,300425.0
2005-10-31,307260.0
2005-09-30,295590.0
2005-08-31,290967.5
2005-07-31,281275.0
2005-06-30,281407.5
2005-05-31,280567.5
2005-04-30,279032.5
2005-03-31,267852.9412
2005-02-28,266346.1538
2004-12-31,254800.0
2004-11-30,259100.0
2004-10-31,255892.5
2004-09-30,259982.5
2004-08-31,270315.0
2004-07-31,260860.0
2004-06-30,238650.0
2004-05-31,251000.0
2004-04-30,252647.0588
2004-03-31,235000.0
2003-12-31,220115.3846
2003-10-31,253076.9231
2003-08-31,243100.0
2003-07-31,235025.0
2003-06-30,233475.0
2003-05-31,241749.95
2003-04-30,243137.1176
2003-03-31,236717.6923
2003-01-31,233176.4706
2002-12-31,215000.0
2002-10-31,225000.0
2002-07-31,227005.0
2002-06-30,229450.0
2002-05-31,212100.0
2002-04-30,197600.0
2002-03-31,190882.3529
2002-02-28,205000.0
2001-09-30,206300.0
2001-08-31,214975.0
2001-07-31,221700.0
2001-06-30,233117.6471
2001-05-31,217576.9231
2001-03-31,179500.0
2000-09-30,195000.0
2000-06-30,223732.5
2000-05-31,224725.0
2000-04-30,221176.4706
2000-03-31,230000.0
1999-11-30,181820.0
1999-10-31,173080.0
1999-09-30,170176.4706
1999-08-31,169846.1538
1999-06-30,189950.0
1999-05-31,190882.3529
1999-04-30,175000.0
1999-01-31,170225.0
1998-12-31,168823.5294
1998-11-30,160923.0769
1998-09-30,171075.0
1998-08-31,177550.0
1998-07-31,174500.0
1998-06-30,169750.0
1998-05-31,163250.0
1998-04-30,161950.0
1998-03-31,170000.0
1998-02-28,157680.7692
1997-12-31,149876.7059
1997-11-30,149247.6923
1997-08-31,422884.6154
1997-06-30,142382.3529
1997-05-31,156500.0
1997-02-28,145000.0
1996-07-31,139951.0
1996-04-30,129300.0
