Date,Value
2015-09-30,1.062
2015-08-31,1.05
2015-07-31,1.036
2015-06-30,1.024
2015-05-31,1.014
2015-04-30,1.012
2015-03-31,1.016
2015-02-28,1.026
2015-01-31,1.028
2014-12-31,1.022
2014-11-30,1.004
2014-10-31,0.976
2014-09-30,0.95
2014-08-31,0.93
2014-07-31,0.912
2014-06-30,0.898
2014-05-31,0.896
2014-04-30,0.912
2014-03-31,0.938
2014-02-28,0.96
2014-01-31,0.96
2013-12-31,0.962
2013-11-30,0.972
2013-10-31,0.976
2013-09-30,0.974
2013-08-31,0.96
2013-07-31,0.94
2013-06-30,0.926
2013-05-31,0.922
2013-04-30,0.914
2013-03-31,0.91
2013-02-28,0.916
2013-01-31,0.916
2012-12-31,0.91
2012-11-30,0.904
2012-10-31,0.904
2012-09-30,0.916
2012-08-31,0.92
2012-07-31,0.92
2012-06-30,0.922
2012-05-31,0.916
2012-04-30,0.898
2012-03-31,0.888
2012-02-29,0.9
2012-01-31,0.896
2011-12-31,0.876
2011-11-30,0.85
2011-10-31,0.824
2011-09-30,0.82
2011-08-31,0.832
2011-07-31,0.846
2011-06-30,0.844
2011-05-31,0.83
2011-04-30,0.814
2011-03-31,0.772
2011-02-28,0.704
2011-01-31,0.638
2010-12-31,0.638
2010-11-30,0.65
