Date,Value
2015-02-28,1339000.0
2015-01-31,925000.0
2014-12-31,925000.0
2014-11-30,1095000.0
2014-10-31,925000.0
2014-09-30,949900.0
2014-08-31,949900.0
2014-07-31,1489000.0
2014-06-30,1489000.0
2014-05-31,1599900.0
2014-04-30,2000000.0
2014-03-31,1999950.0
2014-02-28,1999950.0
2014-01-31,1699000.0
2013-12-31,1585000.0
2013-11-30,1349000.0
2013-10-31,1485000.0
2013-09-30,1495000.0
2013-08-31,1495000.0
2013-07-31,1499000.0
2013-06-30,1375000.0
2013-05-31,998000.0
2013-04-30,998000.0
2013-03-31,889000.0
2013-02-28,925000.0
2013-01-31,950000.0
2012-12-31,925000.0
2012-11-30,925000.0
2012-10-31,895000.0
2012-09-30,879950.0
2012-08-31,999000.0
2012-07-31,1225000.0
2012-06-30,1379950.0
2012-05-31,1295000.0
2012-04-30,1175000.0
2012-03-31,1225000.0
2012-02-29,1349999.0
2012-01-31,1222000.0
2011-12-31,875000.0
2011-11-30,1049000.0
2011-10-31,1195000.0
2011-09-30,1098000.0
2011-08-31,1100000.0
2011-07-31,1099000.0
2011-06-30,1100000.0
2011-05-31,958888.0
2011-04-30,895000.0
2011-03-31,1050000.0
2011-02-28,958888.0
2011-01-31,899900.0
2010-12-31,1000000.0
2010-11-30,1000000.0
2010-10-31,1000000.0
2010-09-30,1099000.0
2010-08-31,1099000.0
2010-07-31,1125000.0
2010-06-30,1269900.0
2010-05-31,1225000.0
2010-04-30,1249000.0
2010-03-31,1249000.0
2010-02-28,1450000.0
2010-01-31,1299900.0
2009-12-31,1299900.0
2009-11-30,1395000.0
2009-10-31,1395000.0
2009-09-30,1450000.0
2009-08-31,1450000.0
2009-07-31,1649000.0
2009-06-30,1649000.0
2009-05-31,1525000.0
2009-04-30,1499950.0
2009-03-31,1525000.0
2009-02-28,1499500.0
2009-01-31,1395000.0
2008-12-31,1395000.0
2008-11-30,1375000.0
2008-10-31,1395000.0
