Date,Value
2015-09-30,169100.0
2015-08-31,166100.0
2015-07-31,163800.0
2015-06-30,162000.0
2015-05-31,160100.0
2015-04-30,158100.0
2015-03-31,158500.0
2015-02-28,158300.0
2015-01-31,156300.0
2014-12-31,155500.0
2014-11-30,154200.0
2014-10-31,153100.0
2014-09-30,152500.0
2014-08-31,152200.0
2014-07-31,151600.0
2014-06-30,151200.0
2014-05-31,151100.0
2014-04-30,151000.0
2014-03-31,150200.0
2014-02-28,149400.0
2014-01-31,148100.0
2013-12-31,146500.0
2013-11-30,144600.0
2013-10-31,143100.0
2013-09-30,141700.0
2013-08-31,140500.0
2013-07-31,138500.0
2013-06-30,135700.0
2013-05-31,133200.0
2013-04-30,130800.0
2013-03-31,128600.0
2013-02-28,127000.0
2013-01-31,126200.0
2012-12-31,125600.0
2012-11-30,125200.0
2012-10-31,125100.0
2012-09-30,124900.0
2012-08-31,124800.0
2012-07-31,125000.0
2012-06-30,125300.0
2012-05-31,125900.0
2012-04-30,127200.0
2012-03-31,128100.0
2012-02-29,128000.0
2012-01-31,128200.0
2011-12-31,129200.0
2011-11-30,130400.0
2011-10-31,131100.0
2011-09-30,131000.0
2011-08-31,131100.0
2011-07-31,132100.0
2011-06-30,134200.0
2011-05-31,137000.0
2011-04-30,139300.0
2011-03-31,141000.0
2011-02-28,142700.0
2011-01-31,143700.0
2010-12-31,143700.0
2010-11-30,144100.0
2010-10-31,145200.0
2010-09-30,147100.0
2010-08-31,149400.0
2010-07-31,151400.0
2010-06-30,152200.0
2010-05-31,151800.0
2010-04-30,151700.0
2010-03-31,152700.0
2010-02-28,154300.0
2010-01-31,156200.0
2009-12-31,158600.0
2009-11-30,160400.0
2009-10-31,161400.0
2009-09-30,162100.0
2009-08-31,163200.0
2009-07-31,165000.0
2009-06-30,167300.0
2009-05-31,169300.0
2009-04-30,171400.0
2009-03-31,173800.0
2009-02-28,175800.0
2009-01-31,177000.0
2008-12-31,178400.0
2008-11-30,180700.0
2008-10-31,183500.0
2008-09-30,186600.0
2008-08-31,188500.0
2008-07-31,189200.0
2008-06-30,189800.0
2008-05-31,190800.0
2008-04-30,191300.0
2008-03-31,192200.0
2008-02-29,193700.0
2008-01-31,196200.0
2007-12-31,198700.0
2007-11-30,200300.0
2007-10-31,201400.0
2007-09-30,202400.0
2007-08-31,203000.0
2007-07-31,203200.0
2007-06-30,203900.0
2007-05-31,204500.0
2007-04-30,204700.0
2007-03-31,204300.0
2007-02-28,203800.0
2007-01-31,203000.0
2006-12-31,202200.0
2006-11-30,201100.0
2006-10-31,199300.0
2006-09-30,197100.0
2006-08-31,195000.0
2006-07-31,193200.0
2006-06-30,191600.0
2006-05-31,190100.0
2006-04-30,188800.0
2006-03-31,187800.0
2006-02-28,186400.0
2006-01-31,184400.0
2005-12-31,182200.0
2005-11-30,179900.0
2005-10-31,177400.0
2005-09-30,174700.0
2005-08-31,172400.0
2005-07-31,170000.0
2005-06-30,167400.0
2005-05-31,165100.0
2005-04-30,162700.0
2005-03-31,159900.0
2005-02-28,157200.0
2005-01-31,155100.0
2004-12-31,153400.0
2004-11-30,151600.0
2004-10-31,150200.0
2004-09-30,149100.0
2004-08-31,148300.0
2004-07-31,147000.0
2004-06-30,145200.0
2004-05-31,143100.0
2004-04-30,140600.0
2004-03-31,138200.0
2004-02-29,136300.0
2004-01-31,134800.0
2003-12-31,133300.0
2003-11-30,132100.0
2003-10-31,131200.0
2003-09-30,130400.0
2003-08-31,129800.0
2003-07-31,129700.0
2003-06-30,129700.0
2003-05-31,129200.0
2003-04-30,128500.0
2003-03-31,128200.0
2003-02-28,127800.0
2003-01-31,126900.0
2002-12-31,125900.0
2002-11-30,125200.0
2002-10-31,124600.0
2002-09-30,124400.0
2002-08-31,123900.0
2002-07-31,123700.0
2002-06-30,123800.0
2002-05-31,124400.0
2002-04-30,125400.0
2002-03-31,126400.0
2002-02-28,126900.0
2002-01-31,126600.0
2001-12-31,125800.0
2001-11-30,125000.0
2001-10-31,124300.0
2001-09-30,123100.0
2001-08-31,121900.0
2001-07-31,120900.0
2001-06-30,119900.0
2001-05-31,119200.0
2001-04-30,119000.0
2001-03-31,119000.0
2001-02-28,118800.0
2001-01-31,118500.0
2000-12-31,117900.0
2000-11-30,118000.0
2000-10-31,119000.0
2000-09-30,120200.0
2000-08-31,120300.0
2000-07-31,119300.0
2000-06-30,117800.0
2000-05-31,116200.0
2000-04-30,114400.0
2000-03-31,112400.0
2000-02-29,110700.0
2000-01-31,109800.0
1999-12-31,109000.0
1999-11-30,107900.0
1999-10-31,106100.0
1999-09-30,104100.0
1999-08-31,102700.0
1999-07-31,102000.0
1999-06-30,101400.0
1999-05-31,100700.0
1999-04-30,100100.0
1999-03-31,99500.0
1999-02-28,98800.0
1999-01-31,98200.0
1998-12-31,97800.0
1998-11-30,97300.0
1998-10-31,96400.0
1998-09-30,95700.0
1998-08-31,95000.0
1998-07-31,94400.0
1998-06-30,93800.0
1998-05-31,93600.0
1998-04-30,93500.0
1998-03-31,93000.0
1998-02-28,92100.0
1998-01-31,90900.0
1997-12-31,90000.0
1997-11-30,89300.0
1997-10-31,88600.0
1997-09-30,87600.0
1997-08-31,86800.0
1997-07-31,85700.0
1997-06-30,84600.0
1997-05-31,83300.0
1997-04-30,82200.0
1997-03-31,81200.0
1997-02-28,80600.0
1997-01-31,80100.0
1996-12-31,80000.0
1996-11-30,79700.0
1996-10-31,79000.0
1996-09-30,78500.0
1996-08-31,78400.0
1996-07-31,78400.0
1996-06-30,78700.0
1996-05-31,78800.0
1996-04-30,78600.0
