Date,Value
2015-02-28,236000.0
2015-01-31,170000.0
2014-12-31,200000.0
2014-11-30,200000.0
2014-10-31,185000.0
2014-09-30,159900.0
2014-08-31,184000.0
2014-07-31,165000.0
2014-06-30,244500.0
2014-05-31,269000.0
2014-04-30,250000.0
2014-03-31,199000.0
2013-12-31,179500.0
2013-10-31,210000.0
2013-09-30,245000.0
2013-08-31,245000.0
2013-07-31,255000.0
2013-06-30,245000.0
2013-05-31,209900.0
2013-04-30,238500.0
2013-03-31,215000.0
2013-02-28,209900.0
2013-01-31,200000.0
2012-12-31,200000.0
2012-11-30,185000.0
2012-10-31,200000.0
2012-09-30,199000.0
2012-08-31,227500.0
2012-07-31,239900.0
2012-06-30,249900.0
2012-05-31,239900.0
2012-04-30,275000.0
2012-03-31,332000.0
2012-02-29,275000.0
2012-01-31,325000.0
2011-12-31,325000.0
2011-11-30,325000.0
2011-10-31,325000.0
2011-09-30,329900.0
2011-08-31,339900.0
2011-07-31,275000.0
2011-06-30,209900.0
2011-05-31,264900.0
2011-04-30,264900.0
2011-03-31,389900.0
2011-02-28,389900.0
2011-01-31,389900.0
2010-12-31,389900.0
2010-11-30,389900.0
2010-10-31,309000.0
2010-09-30,299000.0
2010-08-31,309000.0
2010-07-31,329900.0
2010-06-30,309000.0
2010-05-31,309000.0
2010-04-30,329900.0
2010-03-31,329900.0
2010-02-28,349900.0
2010-01-31,329900.0
2009-12-31,259900.0
2009-11-30,287000.0
2009-10-31,279000.0
2009-09-30,271400.0
2009-08-31,259900.0
2009-07-31,271400.0
2009-06-30,271400.0
2009-05-31,285000.0
2009-04-30,285000.0
2009-03-31,271400.0
2009-02-28,289500.0
2009-01-31,292000.0
2008-12-31,285000.0
2008-11-30,292000.0
2008-10-31,292000.0
