Date,Value
2015-06-30,2300.0
2015-05-31,2300.0
2015-04-30,2145.0
2015-03-31,2100.0
2015-02-28,2000.0
2015-01-31,2300.0
2014-12-31,2395.0
2014-11-30,2100.0
2014-10-31,1800.0
2014-09-30,2100.0
2014-08-31,2200.0
2014-07-31,2150.0
2014-06-30,2650.0
2014-05-31,2250.0
2014-04-30,1750.0
2014-03-31,2099.0
2014-02-28,1895.0
2014-01-31,1725.0
2013-12-31,1795.0
2013-11-30,1925.0
2013-10-31,2145.0
2013-09-30,2300.0
2013-08-31,1895.0
2013-07-31,1300.0
2013-06-30,1795.0
2013-05-31,1600.0
2013-04-30,1224.0
2013-03-31,1250.0
2013-02-28,1150.0
2013-01-31,1125.0
2012-12-31,1150.0
2012-11-30,1750.0
2012-10-31,1150.0
2012-09-30,1550.0
2012-08-31,1550.0
2012-07-31,1550.0
2012-06-30,1210.0
2012-05-31,1795.0
2012-04-30,1500.0
2012-03-31,1500.0
2012-02-29,1650.0
2012-01-31,1650.0
2011-12-31,1725.0
2011-11-30,1700.0
2011-10-31,1650.0
2011-09-30,1650.0
2011-08-31,1795.0
2011-07-31,1750.0
2011-06-30,1850.0
2011-05-31,1785.0
2011-04-30,1800.0
2011-03-31,1800.0
2011-02-28,1800.0
2011-01-31,1675.0
2010-12-31,1675.0
2010-11-30,945.0
2010-10-31,1400.0
2010-09-30,1695.0
2010-08-31,1495.0
