Date,Value
2015-09-30,162100.0
2015-08-31,156700.0
2015-07-31,154100.0
2015-06-30,151300.0
2015-05-31,150100.0
2015-04-30,149500.0
2015-03-31,150800.0
2015-02-28,153600.0
2015-01-31,154700.0
2014-12-31,154600.0
2014-11-30,154200.0
2014-10-31,153400.0
2014-09-30,153100.0
2014-08-31,153400.0
2014-07-31,153500.0
2014-06-30,152800.0
2014-05-31,152700.0
2014-04-30,154800.0
2014-03-31,158000.0
2014-02-28,159200.0
2014-01-31,158100.0
2013-12-31,156500.0
2013-11-30,155900.0
2013-10-31,155400.0
2013-09-30,154900.0
2013-08-31,155000.0
2013-07-31,155100.0
2013-06-30,153500.0
2013-05-31,151500.0
2013-04-30,150600.0
2013-03-31,150600.0
2013-02-28,150700.0
2013-01-31,150900.0
2012-12-31,151400.0
2012-11-30,151600.0
2012-10-31,152000.0
2012-09-30,152600.0
2012-08-31,152500.0
2012-07-31,151900.0
2012-06-30,152100.0
2012-05-31,152400.0
2012-04-30,152000.0
2012-03-31,151400.0
2012-02-29,151100.0
2012-01-31,150700.0
2011-12-31,150000.0
2011-11-30,149500.0
2011-10-31,149100.0
2011-09-30,149200.0
2011-08-31,149500.0
2011-07-31,150100.0
2011-06-30,152200.0
2011-05-31,155000.0
2011-04-30,155900.0
2011-03-31,155100.0
2011-02-28,155400.0
2011-01-31,156800.0
2010-12-31,158200.0
2010-11-30,158700.0
2010-10-31,159500.0
2010-09-30,161300.0
2010-08-31,163900.0
2010-07-31,165400.0
2010-06-30,166100.0
2010-05-31,165600.0
2010-04-30,165100.0
2010-03-31,165700.0
2010-02-28,167400.0
2010-01-31,169200.0
2009-12-31,170800.0
2009-11-30,171900.0
2009-10-31,172300.0
2009-09-30,171500.0
2009-08-31,170500.0
2009-07-31,170700.0
2009-06-30,171500.0
2009-05-31,172000.0
2009-04-30,172500.0
2009-03-31,172400.0
2009-02-28,172000.0
2009-01-31,171900.0
2008-12-31,172000.0
2008-11-30,173000.0
2008-10-31,174900.0
2008-09-30,176600.0
2008-08-31,177200.0
2008-07-31,177800.0
2008-06-30,178200.0
2008-05-31,178600.0
2008-04-30,179100.0
2008-03-31,179700.0
2008-02-29,179400.0
2008-01-31,179100.0
2007-12-31,179700.0
2007-11-30,180000.0
2007-10-31,179700.0
2007-09-30,179700.0
2007-08-31,179500.0
2007-07-31,179200.0
2007-06-30,179000.0
2007-05-31,179100.0
2007-04-30,179100.0
2007-03-31,179100.0
2007-02-28,179100.0
2007-01-31,178500.0
2006-12-31,176900.0
2006-11-30,175300.0
2006-10-31,174200.0
2006-09-30,173900.0
2006-08-31,174200.0
2006-07-31,174100.0
2006-06-30,172900.0
2006-05-31,171100.0
2006-04-30,169100.0
2006-03-31,166800.0
2006-02-28,164000.0
2006-01-31,161100.0
2005-12-31,159300.0
2005-11-30,158000.0
2005-10-31,155400.0
2005-09-30,150900.0
2005-08-31,146500.0
2005-07-31,143200.0
2005-06-30,140500.0
2005-05-31,138200.0
2005-04-30,136100.0
2005-03-31,134200.0
2005-02-28,132700.0
2005-01-31,131700.0
2004-12-31,130600.0
2004-11-30,129100.0
2004-10-31,128000.0
2004-09-30,127700.0
2004-08-31,127200.0
2004-07-31,125600.0
2004-06-30,123900.0
2004-05-31,123000.0
2004-04-30,122800.0
2004-03-31,122900.0
2004-02-29,123000.0
2004-01-31,122300.0
2003-12-31,121000.0
2003-11-30,120200.0
2003-10-31,120000.0
2003-09-30,119400.0
2003-08-31,118600.0
2003-07-31,118000.0
2003-06-30,118000.0
2003-05-31,118000.0
2003-04-30,117800.0
2003-03-31,117600.0
2003-02-28,117600.0
2003-01-31,117600.0
2002-12-31,117200.0
2002-11-30,116200.0
2002-10-31,114900.0
2002-09-30,113900.0
2002-08-31,112500.0
2002-07-31,111100.0
2002-06-30,109700.0
2002-05-31,108600.0
2002-04-30,107800.0
2002-03-31,106900.0
2002-02-28,105700.0
2002-01-31,105300.0
2001-12-31,105700.0
2001-11-30,105600.0
2001-10-31,105400.0
2001-09-30,105500.0
2001-08-31,105500.0
2001-07-31,105300.0
2001-06-30,105100.0
2001-05-31,104400.0
2001-04-30,102800.0
2001-03-31,101100.0
2001-02-28,99500.0
2001-01-31,98000.0
2000-12-31,97800.0
2000-11-30,98500.0
2000-10-31,98500.0
2000-09-30,98200.0
2000-08-31,99000.0
2000-07-31,101000.0
2000-06-30,102700.0
2000-05-31,103200.0
2000-04-30,102900.0
2000-03-31,102900.0
2000-02-29,103200.0
2000-01-31,102700.0
1999-12-31,101400.0
1999-11-30,100300.0
1999-10-31,100000.0
1999-09-30,100100.0
1999-08-31,100400.0
1999-07-31,100700.0
1999-06-30,101000.0
1999-05-31,102100.0
1999-04-30,103700.0
1999-03-31,105100.0
1999-02-28,106400.0
1999-01-31,107100.0
1998-12-31,106800.0
1998-11-30,106300.0
1998-10-31,106300.0
1998-09-30,106300.0
1998-08-31,106100.0
1998-07-31,106000.0
1998-06-30,105100.0
1998-05-31,103900.0
1998-04-30,103100.0
1998-03-31,102900.0
1998-02-28,102300.0
1998-01-31,101300.0
1997-12-31,100200.0
1997-11-30,100100.0
1997-10-31,100000.0
1997-09-30,99400.0
1997-08-31,98300.0
1997-07-31,98000.0
1997-06-30,98100.0
1997-05-31,99000.0
1997-04-30,100500.0
1997-03-31,101700.0
1997-02-28,102100.0
1997-01-31,102500.0
1996-12-31,103100.0
1996-11-30,103500.0
1996-10-31,104100.0
1996-09-30,105200.0
1996-08-31,105900.0
1996-07-31,105100.0
1996-06-30,103800.0
1996-05-31,102500.0
1996-04-30,101500.0
