Date,Value
2015-02-28,199900.0
2015-01-31,178500.0
2014-12-31,188000.0
2014-11-30,207000.0
2014-10-31,209900.0
2014-09-30,214900.0
2014-08-31,216900.0
2014-07-31,216900.0
2014-06-30,215900.0
2014-05-31,200000.0
2014-04-30,215900.0
2014-03-31,220000.0
2014-02-28,199500.0
2014-01-31,199500.0
2013-12-31,199500.0
2013-11-30,191000.0
2013-10-31,196000.0
2013-09-30,179900.0
2013-08-31,175000.0
2013-07-31,175000.0
2013-06-30,165000.0
2013-05-31,162400.0
2013-04-30,165000.0
2013-03-31,155000.0
2013-02-28,145000.0
2013-01-31,155000.0
2012-12-31,145000.0
2012-11-30,139900.0
2012-10-31,135000.0
2012-09-30,135000.0
2012-08-31,138900.0
2012-07-31,138900.0
2012-06-30,135000.0
2012-05-31,138900.0
2012-04-30,138900.0
2012-03-31,138900.0
2012-02-29,138900.0
2012-01-31,149000.0
2011-12-31,149900.0
2011-11-30,149900.0
2011-10-31,148850.0
2011-09-30,150000.0
2011-08-31,150000.0
2011-07-31,149900.0
2011-06-30,150000.0
2011-05-31,142000.0
2011-04-30,144900.0
2011-03-31,149900.0
2011-02-28,149900.0
2011-01-31,149900.0
2010-12-31,150000.0
2010-11-30,162240.0
2010-10-31,150000.0
2010-09-30,150000.0
2010-08-31,158900.0
2010-07-31,159900.0
2010-06-30,154900.0
2010-05-31,165000.0
2010-04-30,169900.0
2010-03-31,170000.0
2010-02-28,170000.0
2010-01-31,171900.0
2009-12-31,171900.0
2009-11-30,174900.0
2009-10-31,194900.0
2009-09-30,184900.0
2009-08-31,179900.0
2009-07-31,180000.0
2009-06-30,195000.0
2009-05-31,189900.0
2009-04-30,189900.0
2009-03-31,189900.0
2009-02-28,179900.0
2009-01-31,189900.0
2008-12-31,197500.0
2008-11-30,199900.0
2008-10-31,200000.0
