Date,Value
2014-12-31,1250000.0
2013-08-31,876600.0
2013-06-30,1325000.0
2012-11-30,1120000.0
2011-09-30,1175000.0
2010-12-31,900000.0
2010-04-30,835000.0
2009-11-30,975000.0
2007-06-30,1070000.0
2006-08-31,832230.7692
2006-06-30,740000.0
2005-09-30,600000.0
2005-05-31,708823.5294
2005-04-30,725000.0
2004-12-31,495000.0
2004-04-30,585000.0
2003-08-31,590588.2353
2003-07-31,670000.0
2003-04-30,420000.0
2002-05-31,515000.0
2000-06-30,750000.0
1999-09-30,668461.5385
1999-07-31,553529.4118
1999-06-30,630000.0
1998-08-31,386088.2353
1998-07-31,377615.3846
1998-05-31,417205.8824
1998-04-30,487500.0
1997-07-31,662000.0
1996-10-31,207000.0
