Date,Value
2014-06-30,225000.0
2007-07-31,262653.8462
2007-05-31,305000.0
2006-10-31,259975.0
2006-09-30,265000.0
2006-08-31,270900.0
2006-07-31,268050.0
2006-06-30,262411.7647
2006-05-31,234230.7692
2006-03-31,205000.0
2005-12-31,222742.3077
2005-10-31,222461.5385
2005-08-31,233200.0
2005-07-31,224050.0
2005-06-30,204242.5
2005-05-31,204932.5
2005-04-30,190567.5
2005-03-31,181932.5
2005-02-28,182323.5294
2005-01-31,190000.0
2004-10-31,185000.0
2004-06-30,203470.5882
2004-05-31,187615.3846
2004-03-31,173000.0
2003-10-31,189938.4615
2003-08-31,190126.4706
2003-07-31,190450.0
2003-04-30,175861.7647
2003-03-31,169950.0
2002-12-31,142000.0
2002-06-30,163400.0
2002-05-31,170558.8235
2002-04-30,178500.0
2001-08-31,142038.4615
2001-06-30,141375.0
2001-05-31,142920.0
2001-04-30,143594.1176
2001-03-31,142300.0
2000-12-31,162000.0
2000-08-31,154655.8824
2000-07-31,149950.0
2000-02-29,156500.0
1999-11-30,150000.0
1999-04-30,138000.0
1998-12-31,155000.0
1998-07-31,127375.0
1998-06-30,125882.3529
1998-05-31,141769.2308
1998-03-31,131000.0
1997-12-31,156846.1538
1997-10-31,123000.0
1997-07-31,159950.0
1997-04-30,120882.3529
1997-03-31,140000.0
1996-06-30,137500.0
