Date,Value
2015-09-30,621764.7059
2015-08-31,657846.1538
2015-06-30,484000.0
2009-07-31,450000.0
2009-06-30,400000.0
2007-08-31,481176.4706
2007-07-31,451307.6923
2007-05-31,589000.0
2006-10-31,562492.5
2006-09-30,623508.8235
2006-08-31,543576.9231
2006-06-30,623461.5385
2006-04-30,425700.0
2006-03-31,440588.2353
2006-02-28,430076.9231
2005-12-31,497000.0
2005-09-30,449492.5
2005-08-31,429982.5
2005-07-31,421735.2941
2005-06-30,485769.2308
2005-04-30,392852.9412
2005-03-31,375500.0
2004-08-31,410384.6154
2004-06-30,395000.0
2003-09-30,315000.0
2003-06-30,322058.8235
2003-05-31,306153.8462
2003-03-31,309538.4615
2003-01-31,308000.0
2002-09-30,295332.5
2002-08-31,307794.1176
2002-07-31,319000.0
2001-08-31,359250.0
2001-07-31,342294.1176
2001-06-30,334884.6154
2001-04-30,244500.0
2000-10-31,323000.0
2000-04-30,309058.8235
2000-03-31,322000.0
1999-06-30,255769.2308
1999-04-30,285000.0
1998-12-31,266346.1538
1998-10-31,235300.0
1998-09-30,243775.0
1998-08-31,226375.0
1998-07-31,237650.0
1998-06-30,222100.0
1998-05-31,210550.0
1998-04-30,212000.0
1998-03-31,222000.0
1997-12-31,171384.6154
1997-10-31,197307.6923
1997-08-31,219690.7692
1997-06-30,177426.4706
1997-05-31,183730.7692
1997-03-31,163000.0
1996-12-31,242500.0
1996-08-31,167500.0
1996-06-30,195600.0
1996-05-31,200000.0
1996-04-30,220000.0
