Date,Value
2015-09-30,458846.1538
2015-06-30,545000.0
2014-08-31,423800.0
2014-05-31,417000.0
2012-11-30,350000.0
2007-04-30,435000.0
2005-10-31,375000.0
2005-06-30,343076.9231
2005-04-30,310000.0
2004-09-30,286846.1538
2004-07-31,271979.4118
2004-06-30,281950.0
2003-12-31,260000.0
2003-09-30,265000.0
2003-05-31,241500.0
2003-03-31,230000.0
2002-03-31,265000.0
2001-06-30,228900.0
1999-07-31,203500.0
1998-06-30,176000.0
1996-08-31,165000.0
