Date,Value
2015-02-28,330000.0
2015-01-31,385000.0
2014-12-31,410000.0
2014-11-30,385000.0
2014-10-31,465000.0
2014-09-30,459000.0
2014-08-31,385000.0
2014-07-31,424950.0
2014-06-30,438750.0
2014-05-31,309000.0
2014-04-30,317170.0
2014-03-31,289000.0
2014-02-28,275000.0
2014-01-31,275000.0
2013-12-31,299000.0
2013-11-30,315000.0
2013-10-31,320000.0
2013-09-30,330000.0
2013-08-31,315250.0
2013-07-31,320000.0
2013-06-30,300000.0
2013-05-31,300000.0
2013-04-30,312800.0
2013-03-31,299999.0
2013-02-28,300000.0
2013-01-31,299999.0
2012-12-31,339900.0
2012-11-30,355000.0
2012-10-31,219900.0
2012-09-30,269900.0
2012-08-31,219900.0
2012-07-31,245000.0
2012-06-30,312500.0
2012-05-31,239950.0
2012-04-30,288500.0
2012-03-31,219900.0
2012-02-29,219000.0
2012-01-31,219000.0
2011-12-31,249000.0
2011-11-30,255000.0
2011-10-31,250000.0
2011-09-30,269990.0
2011-08-31,313422.0
2011-07-31,269000.0
2011-06-30,269995.0
2011-05-31,279995.0
2011-04-30,289900.0
2011-03-31,275000.0
2011-02-28,293000.0
2011-01-31,300000.0
2010-12-31,324950.0
2010-11-30,325000.0
2010-10-31,325000.0
2010-09-30,324900.0
2010-08-31,324900.0
2010-07-31,329950.0
2010-06-30,349950.0
2010-05-31,349952.0
2010-04-30,359000.0
2010-03-31,335000.0
2010-02-28,382950.0
2010-01-31,375000.0
2009-12-31,339950.0
2009-11-30,339950.0
2009-10-31,374950.0
2009-09-30,369000.0
2009-08-31,379950.0
2009-07-31,379950.0
2009-06-30,350000.0
2009-05-31,384900.0
2009-04-30,379950.0
2009-03-31,410000.0
2009-02-28,399950.0
2009-01-31,399000.0
2008-12-31,375000.0
2008-11-30,325000.0
2008-10-31,417000.0
