Date,Value
2015-09-30,223600.0
2015-08-31,222700.0
2015-07-31,216800.0
2015-06-30,216700.0
2015-05-31,209300.0
2015-04-30,201100.0
2015-03-31,203900.0
2015-02-28,203900.0
2015-01-31,199400.0
2014-12-31,198100.0
2014-11-30,197800.0
2014-10-31,197900.0
2014-09-30,195900.0
2014-08-31,194400.0
2014-07-31,193200.0
2014-06-30,192500.0
2014-05-31,192000.0
2014-04-30,188400.0
2014-03-31,183400.0
2014-02-28,181300.0
2014-01-31,181200.0
2013-12-31,180100.0
2013-11-30,178100.0
2013-10-31,174800.0
2013-09-30,172200.0
2013-08-31,169200.0
2013-07-31,165400.0
2013-06-30,161000.0
2013-05-31,158300.0
2013-04-30,158400.0
2013-03-31,156400.0
2013-02-28,151000.0
2013-01-31,147100.0
2012-12-31,145200.0
2012-11-30,143000.0
2012-10-31,141400.0
2012-09-30,140100.0
2012-08-31,137900.0
2012-07-31,137200.0
2012-06-30,138500.0
2012-05-31,140200.0
2012-04-30,141900.0
2012-03-31,143400.0
2012-02-29,144800.0
2012-01-31,146500.0
2011-12-31,149600.0
2011-11-30,153500.0
2011-10-31,157200.0
2011-09-30,158200.0
2011-08-31,158100.0
2011-07-31,160500.0
2011-06-30,164000.0
2011-05-31,165400.0
2011-04-30,164500.0
2011-03-31,165800.0
2011-02-28,169600.0
2011-01-31,174200.0
2010-12-31,177500.0
2010-11-30,179100.0
2010-10-31,178800.0
2010-09-30,180200.0
2010-08-31,185900.0
2010-07-31,191000.0
2010-06-30,193500.0
2010-05-31,195900.0
2010-04-30,198300.0
2010-03-31,199000.0
2010-02-28,198500.0
2010-01-31,198000.0
2009-12-31,196900.0
2009-11-30,195800.0
2009-10-31,195500.0
2009-09-30,195400.0
2009-08-31,194800.0
2009-07-31,193300.0
2009-06-30,191000.0
2009-05-31,190000.0
2009-04-30,192500.0
2009-03-31,197400.0
2009-02-28,201600.0
2009-01-31,203200.0
2008-12-31,203600.0
2008-11-30,205200.0
2008-10-31,208100.0
2008-09-30,212100.0
2008-08-31,215700.0
2008-07-31,219300.0
2008-06-30,224000.0
2008-05-31,228800.0
2008-04-30,233200.0
2008-03-31,238400.0
2008-02-29,242800.0
2008-01-31,245900.0
2007-12-31,246800.0
2007-11-30,246300.0
2007-10-31,245200.0
2007-09-30,244300.0
2007-08-31,242100.0
2007-07-31,238500.0
2007-06-30,235100.0
2007-05-31,233400.0
2007-04-30,232300.0
2007-03-31,229200.0
2007-02-28,225100.0
2007-01-31,222100.0
2006-12-31,221100.0
2006-11-30,220700.0
2006-10-31,220700.0
2006-09-30,221900.0
2006-08-31,222800.0
2006-07-31,222500.0
2006-06-30,221900.0
2006-05-31,218900.0
2006-04-30,211600.0
2006-03-31,204000.0
2006-02-28,200300.0
2006-01-31,198600.0
2005-12-31,197100.0
2005-11-30,196100.0
2005-10-31,195200.0
2005-09-30,192800.0
2005-08-31,189600.0
2005-07-31,187700.0
2005-06-30,186400.0
2005-05-31,184600.0
2005-04-30,182800.0
2005-03-31,181600.0
2005-02-28,180100.0
2005-01-31,177200.0
2004-12-31,174400.0
2004-11-30,172300.0
2004-10-31,170700.0
2004-09-30,168500.0
2004-08-31,167600.0
2004-07-31,167200.0
2004-06-30,166000.0
2004-05-31,164100.0
2004-04-30,163500.0
2004-03-31,163000.0
2004-02-29,161500.0
2004-01-31,161000.0
2003-12-31,161800.0
2003-11-30,162100.0
2003-10-31,161000.0
2003-09-30,159800.0
2003-08-31,157300.0
2003-07-31,154300.0
2003-06-30,152400.0
2003-05-31,152300.0
2003-04-30,152200.0
2003-03-31,151800.0
2003-02-28,151300.0
2003-01-31,150600.0
2002-12-31,149500.0
2002-11-30,148200.0
2002-10-31,146400.0
2002-09-30,145700.0
2002-08-31,146900.0
2002-07-31,147200.0
2002-06-30,145400.0
2002-05-31,143300.0
2002-04-30,141500.0
2002-03-31,139700.0
2002-02-28,138200.0
2002-01-31,137700.0
2001-12-31,137700.0
2001-11-30,137500.0
2001-10-31,137800.0
2001-09-30,138100.0
2001-08-31,138000.0
2001-07-31,138600.0
2001-06-30,139900.0
2001-05-31,140700.0
2001-04-30,141200.0
2001-03-31,142600.0
2001-02-28,144200.0
2001-01-31,144300.0
2000-12-31,143000.0
2000-11-30,142100.0
2000-10-31,140800.0
2000-09-30,139300.0
2000-08-31,138100.0
2000-07-31,137000.0
2000-06-30,136100.0
2000-05-31,135600.0
2000-04-30,134800.0
2000-03-31,133500.0
2000-02-29,132700.0
2000-01-31,132000.0
1999-12-31,130100.0
1999-11-30,127000.0
1999-10-31,125200.0
1999-09-30,124000.0
1999-08-31,121900.0
1999-07-31,119100.0
1999-06-30,117400.0
1999-05-31,116800.0
1999-04-30,117100.0
1999-03-31,116800.0
1999-02-28,115700.0
1999-01-31,114000.0
1998-12-31,112700.0
1998-11-30,112500.0
1998-10-31,112600.0
1998-09-30,111900.0
1998-08-31,110600.0
1998-07-31,109900.0
1998-06-30,108700.0
1998-05-31,107300.0
1998-04-30,105900.0
1998-03-31,105000.0
1998-02-28,104200.0
1998-01-31,103300.0
1997-12-31,102200.0
1997-11-30,101400.0
1997-10-31,100800.0
1997-09-30,99900.0
1997-08-31,98600.0
1997-07-31,97400.0
1997-06-30,96500.0
1997-05-31,95500.0
1997-04-30,94800.0
1997-03-31,94200.0
1997-02-28,93600.0
1997-01-31,93700.0
1996-12-31,93800.0
1996-11-30,93400.0
1996-10-31,92700.0
1996-09-30,92800.0
1996-08-31,93400.0
1996-07-31,94800.0
1996-06-30,96300.0
1996-05-31,97100.0
1996-04-30,97800.0
