Date,Value
2015-09-30,618500.0
2015-08-31,619200.0
2015-07-31,613800.0
2015-06-30,616400.0
2015-05-31,613800.0
2015-04-30,599500.0
2015-03-31,583600.0
2015-02-28,581200.0
2015-01-31,575100.0
2014-12-31,570600.0
2014-11-30,565600.0
2014-10-31,561400.0
2014-09-30,558100.0
2014-08-31,556400.0
2014-07-31,555000.0
2014-06-30,552500.0
2014-05-31,550400.0
2014-04-30,548900.0
2014-03-31,544800.0
2014-02-28,539300.0
2014-01-31,533800.0
2013-12-31,528200.0
2013-11-30,523500.0
2013-10-31,520500.0
2013-09-30,517100.0
2013-08-31,514200.0
2013-07-31,509800.0
2013-06-30,503100.0
2013-05-31,496100.0
2013-04-30,490200.0
2013-03-31,483900.0
2013-02-28,476700.0
2013-01-31,469400.0
2012-12-31,464600.0
2012-11-30,461400.0
2012-10-31,458400.0
2012-09-30,454800.0
2012-08-31,450200.0
2012-07-31,443000.0
2012-06-30,434600.0
2012-05-31,426700.0
2012-04-30,421100.0
2012-03-31,416000.0
2012-02-29,412200.0
2012-01-31,411200.0
2011-12-31,412300.0
2011-11-30,412400.0
2011-10-31,411900.0
2011-09-30,412000.0
2011-08-31,413000.0
2011-07-31,415000.0
2011-06-30,417500.0
2011-05-31,419000.0
2011-04-30,420200.0
2011-03-31,423900.0
2011-02-28,428600.0
2011-01-31,433000.0
2010-12-31,436000.0
2010-11-30,438700.0
2010-10-31,440800.0
2010-09-30,443100.0
2010-08-31,444400.0
2010-07-31,445800.0
2010-06-30,448100.0
2010-05-31,452200.0
2010-04-30,455100.0
2010-03-31,457400.0
2010-02-28,458400.0
2010-01-31,457600.0
2009-12-31,455000.0
2009-11-30,454000.0
2009-10-31,452600.0
2009-09-30,452100.0
2009-08-31,452900.0
2009-07-31,454100.0
2009-06-30,454100.0
2009-05-31,455300.0
2009-04-30,459400.0
2009-03-31,464800.0
2009-02-28,469200.0
2009-01-31,473700.0
2008-12-31,479400.0
2008-11-30,486000.0
2008-10-31,492200.0
2008-09-30,497700.0
2008-08-31,503600.0
2008-07-31,512100.0
2008-06-30,521400.0
2008-05-31,528600.0
2008-04-30,533900.0
2008-03-31,539700.0
2008-02-29,545700.0
2008-01-31,551000.0
2007-12-31,555800.0
2007-11-30,558700.0
2007-10-31,559400.0
2007-09-30,558200.0
2007-08-31,556900.0
2007-07-31,557500.0
2007-06-30,561000.0
2007-05-31,563300.0
2007-04-30,561400.0
2007-03-31,554200.0
2007-02-28,546000.0
2007-01-31,539300.0
2006-12-31,533900.0
2006-11-30,529000.0
2006-10-31,526800.0
2006-09-30,525800.0
2006-08-31,522600.0
2006-07-31,515100.0
2006-06-30,506800.0
2006-05-31,499700.0
2006-04-30,495100.0
2006-03-31,492100.0
2006-02-28,490000.0
2006-01-31,484400.0
2005-12-31,475600.0
2005-11-30,466100.0
2005-10-31,457500.0
2005-09-30,450000.0
2005-08-31,443600.0
2005-07-31,437000.0
2005-06-30,429700.0
2005-05-31,421900.0
2005-04-30,412900.0
2005-03-31,403600.0
2005-02-28,395800.0
2005-01-31,391200.0
2004-12-31,388700.0
2004-11-30,385300.0
2004-10-31,380200.0
2004-09-30,375000.0
2004-08-31,370200.0
2004-07-31,365800.0
2004-06-30,360900.0
2004-05-31,356200.0
2004-04-30,353000.0
2004-03-31,351100.0
2004-02-29,348300.0
2004-01-31,344800.0
2003-12-31,341900.0
2003-11-30,340100.0
2003-10-31,338700.0
2003-09-30,336200.0
2003-08-31,332700.0
2003-07-31,329400.0
2003-06-30,326500.0
2003-05-31,324400.0
2003-04-30,323000.0
2003-03-31,321200.0
2003-02-28,318900.0
2003-01-31,316900.0
2002-12-31,315100.0
2002-11-30,314700.0
2002-10-31,314900.0
2002-09-30,314900.0
2002-08-31,314600.0
2002-07-31,314700.0
2002-06-30,315900.0
2002-05-31,315900.0
2002-04-30,314000.0
2002-03-31,312300.0
2002-02-28,311900.0
2002-01-31,311300.0
2001-12-31,310900.0
2001-11-30,309900.0
2001-10-31,308500.0
2001-09-30,307300.0
2001-08-31,305900.0
2001-07-31,303200.0
2001-06-30,300100.0
2001-05-31,297500.0
2001-04-30,295400.0
2001-03-31,293800.0
2001-02-28,292400.0
2001-01-31,291100.0
2000-12-31,289700.0
2000-11-30,288700.0
2000-10-31,287300.0
2000-09-30,285700.0
2000-08-31,284900.0
2000-07-31,285200.0
2000-06-30,285000.0
2000-05-31,283800.0
2000-04-30,281500.0
2000-03-31,279500.0
2000-02-29,278000.0
2000-01-31,276100.0
1999-12-31,273000.0
1999-11-30,269800.0
1999-10-31,266900.0
1999-09-30,265200.0
1999-08-31,264400.0
1999-07-31,263400.0
1999-06-30,263500.0
1999-05-31,264300.0
1999-04-30,265000.0
1999-03-31,265300.0
1999-02-28,264900.0
1999-01-31,263300.0
1998-12-31,261200.0
1998-11-30,259800.0
1998-10-31,257700.0
1998-09-30,254600.0
1998-08-31,251000.0
1998-07-31,247200.0
1998-06-30,243000.0
1998-05-31,239600.0
1998-04-30,237400.0
1998-03-31,235300.0
1998-02-28,232400.0
1998-01-31,229600.0
1997-12-31,226800.0
1997-11-30,223900.0
1997-10-31,221500.0
1997-09-30,219400.0
1997-08-31,217000.0
1997-07-31,215100.0
1997-06-30,213400.0
1997-05-31,211600.0
1997-04-30,210400.0
1997-03-31,209300.0
1997-02-28,207800.0
1997-01-31,206100.0
1996-12-31,204300.0
1996-11-30,202200.0
1996-10-31,200600.0
1996-09-30,199800.0
1996-08-31,200200.0
1996-07-31,200400.0
1996-06-30,199700.0
1996-05-31,199000.0
1996-04-30,199000.0
