Date,Value
2015-09-30,631300.0
2015-08-31,634300.0
2015-07-31,625500.0
2015-06-30,614300.0
2015-05-31,597900.0
2015-04-30,586600.0
2015-03-31,582300.0
2015-02-28,587400.0
2015-01-31,594300.0
2014-12-31,595800.0
2014-11-30,594000.0
2014-10-31,588100.0
2014-09-30,582700.0
2014-08-31,578200.0
2014-07-31,571700.0
2014-06-30,564300.0
2014-05-31,556000.0
2014-04-30,547300.0
2014-03-31,539900.0
2014-02-28,536200.0
2014-01-31,532800.0
2013-12-31,527400.0
2013-11-30,522600.0
2013-10-31,519200.0
2013-09-30,515800.0
2013-08-31,512700.0
2013-07-31,511200.0
2013-06-30,509100.0
2013-05-31,504300.0
2013-04-30,498000.0
2013-03-31,491900.0
2013-02-28,486100.0
2013-01-31,479500.0
2012-12-31,472900.0
2012-11-30,466900.0
2012-10-31,461500.0
2012-09-30,457300.0
2012-08-31,452900.0
2012-07-31,447600.0
2012-06-30,443600.0
2012-05-31,440400.0
2012-04-30,435200.0
2012-03-31,427600.0
2012-02-29,420900.0
2012-01-31,417900.0
2011-12-31,417100.0
2011-11-30,415100.0
2011-10-31,412400.0
2011-09-30,411200.0
2011-08-31,411400.0
2011-07-31,412300.0
2011-06-30,412000.0
2011-05-31,412500.0
2011-04-30,414800.0
2011-03-31,417900.0
2011-02-28,421100.0
2011-01-31,424200.0
2010-12-31,425300.0
2010-11-30,426000.0
2010-10-31,428700.0
2010-09-30,431600.0
2010-08-31,433400.0
2010-07-31,435600.0
2010-06-30,438000.0
2010-05-31,440100.0
2010-04-30,440700.0
2010-03-31,439500.0
2010-02-28,438200.0
2010-01-31,438300.0
2009-12-31,439200.0
2009-11-30,441100.0
2009-10-31,443900.0
2009-09-30,447000.0
2009-08-31,451000.0
2009-07-31,454400.0
2009-06-30,457600.0
2009-05-31,461800.0
2009-04-30,467200.0
2009-03-31,472700.0
2009-02-28,477600.0
2009-01-31,482700.0
2008-12-31,486900.0
2008-11-30,491600.0
2008-10-31,496800.0
2008-09-30,502500.0
2008-08-31,509300.0
2008-07-31,517700.0
2008-06-30,525000.0
2008-05-31,532800.0
2008-04-30,543400.0
2008-03-31,554900.0
2008-02-29,563900.0
2008-01-31,569000.0
2007-12-31,571200.0
2007-11-30,571700.0
2007-10-31,571600.0
2007-09-30,570500.0
2007-08-31,568100.0
2007-07-31,564800.0
2007-06-30,563200.0
2007-05-31,561600.0
2007-04-30,558400.0
2007-03-31,554000.0
2007-02-28,549200.0
2007-01-31,543900.0
2006-12-31,540100.0
2006-11-30,538000.0
2006-10-31,535000.0
2006-09-30,530400.0
2006-08-31,523700.0
2006-07-31,516300.0
2006-06-30,509400.0
2006-05-31,500300.0
2006-04-30,489100.0
2006-03-31,482100.0
2006-02-28,478400.0
2006-01-31,472500.0
2005-12-31,466400.0
2005-11-30,461300.0
2005-10-31,455000.0
2005-09-30,447700.0
2005-08-31,441000.0
2005-07-31,433600.0
2005-06-30,426000.0
2005-05-31,420100.0
2005-04-30,415900.0
2005-03-31,410200.0
2005-02-28,403600.0
2005-01-31,398600.0
2004-12-31,394200.0
2004-11-30,388200.0
2004-10-31,381200.0
2004-09-30,374600.0
2004-08-31,368600.0
2004-07-31,363100.0
2004-06-30,358700.0
2004-05-31,355000.0
2004-04-30,351200.0
2004-03-31,346500.0
2004-02-29,341900.0
2004-01-31,338000.0
2003-12-31,334500.0
2003-11-30,332000.0
2003-10-31,330900.0
2003-09-30,329200.0
2003-08-31,327000.0
2003-07-31,326300.0
2003-06-30,324600.0
2003-05-31,321500.0
2003-04-30,319600.0
2003-03-31,318800.0
2003-02-28,316800.0
2003-01-31,315300.0
2002-12-31,314900.0
2002-11-30,314900.0
2002-10-31,314800.0
2002-09-30,314800.0
2002-08-31,315000.0
2002-07-31,315600.0
2002-06-30,317200.0
2002-05-31,318400.0
2002-04-30,317100.0
2002-03-31,315300.0
2002-02-28,314500.0
2002-01-31,313700.0
2001-12-31,312600.0
2001-11-30,311200.0
2001-10-31,309700.0
2001-09-30,309600.0
2001-08-31,309500.0
2001-07-31,307400.0
2001-06-30,305000.0
2001-05-31,303700.0
2001-04-30,302500.0
2001-03-31,300500.0
2001-02-28,298300.0
2001-01-31,296700.0
2000-12-31,295500.0
2000-11-30,294000.0
2000-10-31,292600.0
2000-09-30,291800.0
2000-08-31,291500.0
2000-07-31,291200.0
2000-06-30,290000.0
2000-05-31,288400.0
2000-04-30,287000.0
2000-03-31,286300.0
2000-02-29,285300.0
2000-01-31,283300.0
1999-12-31,280900.0
1999-11-30,278900.0
1999-10-31,276400.0
1999-09-30,273300.0
1999-08-31,270400.0
1999-07-31,268300.0
1999-06-30,266900.0
1999-05-31,265500.0
1999-04-30,263900.0
1999-03-31,262900.0
1999-02-28,262400.0
1999-01-31,261500.0
1998-12-31,259000.0
1998-11-30,255800.0
1998-10-31,252800.0
1998-09-30,250600.0
1998-08-31,248300.0
1998-07-31,245500.0
1998-06-30,242400.0
1998-05-31,240700.0
1998-04-30,239800.0
1998-03-31,238800.0
1998-02-28,237600.0
1998-01-31,235500.0
1997-12-31,232100.0
1997-11-30,228800.0
1997-10-31,227000.0
1997-09-30,225000.0
1997-08-31,221700.0
1997-07-31,218300.0
1997-06-30,215000.0
1997-05-31,211400.0
1997-04-30,208500.0
1997-03-31,206500.0
1997-02-28,204900.0
1997-01-31,203500.0
1996-12-31,202300.0
1996-11-30,202300.0
1996-10-31,202300.0
1996-09-30,202200.0
1996-08-31,203100.0
1996-07-31,204100.0
1996-06-30,204400.0
1996-05-31,203700.0
1996-04-30,203700.0
