Date,Value
2014-04-30,1695.0
2014-03-31,1650.0
2014-02-28,1755.0
2013-11-30,1747.0
2013-10-31,1683.0
2013-09-30,1649.0
2013-08-31,1725.0
2013-07-31,2350.0
2013-05-31,1699.0
2013-02-28,1627.0
2013-01-31,1665.0
2012-10-31,1395.0
2012-09-30,1551.0
2012-08-31,1299.0
2012-04-30,1591.0
2012-03-31,1305.0
2012-02-29,1305.0
2011-11-30,1250.0
2011-08-31,2490.0
