Date,Value
2015-09-30,327200.0
2015-08-31,339500.0
2015-07-31,330900.0
2015-06-30,327400.0
2015-05-31,325000.0
2015-04-30,321200.0
2015-03-31,320300.0
2015-02-28,322000.0
2015-01-31,314600.0
2014-12-31,314000.0
2014-11-30,313600.0
2014-10-31,312500.0
2014-09-30,309600.0
2014-08-31,308400.0
2014-07-31,306900.0
2014-06-30,303300.0
2014-05-31,299800.0
2014-04-30,298900.0
2014-03-31,297800.0
2014-02-28,297000.0
2014-01-31,294800.0
2013-12-31,291300.0
2013-11-30,288400.0
2013-10-31,286800.0
2013-09-30,284700.0
2013-08-31,280600.0
2013-07-31,275800.0
2013-06-30,271100.0
2013-05-31,268100.0
2013-04-30,265600.0
2013-03-31,262700.0
2013-02-28,260100.0
2013-01-31,257600.0
2012-12-31,253600.0
2012-11-30,248100.0
2012-10-31,242000.0
2012-09-30,237600.0
2012-08-31,237100.0
2012-07-31,235900.0
2012-06-30,233500.0
2012-05-31,232500.0
2012-04-30,230100.0
2012-03-31,225600.0
2012-02-29,224300.0
2012-01-31,227600.0
2011-12-31,232000.0
2011-11-30,237800.0
2011-10-31,243800.0
2011-09-30,245900.0
2011-08-31,244200.0
2011-07-31,243100.0
2011-06-30,243400.0
2011-05-31,244700.0
2011-04-30,247200.0
2011-03-31,250800.0
2011-02-28,252800.0
2011-01-31,252300.0
2010-12-31,250200.0
2010-11-30,250200.0
2010-10-31,253600.0
2010-09-30,258500.0
2010-08-31,262200.0
2010-07-31,267600.0
2010-06-30,273200.0
2010-05-31,274900.0
2010-04-30,276000.0
2010-03-31,279400.0
2010-02-28,282200.0
2010-01-31,283500.0
2009-12-31,283500.0
2009-11-30,282200.0
2009-10-31,281700.0
2009-09-30,283000.0
2009-08-31,283000.0
2009-07-31,283100.0
2009-06-30,286500.0
2009-05-31,292000.0
2009-04-30,295600.0
2009-03-31,298600.0
2009-02-28,302400.0
2009-01-31,306000.0
2008-12-31,310200.0
2008-11-30,314200.0
2008-10-31,319800.0
2008-09-30,326400.0
2008-08-31,334800.0
2008-07-31,342000.0
2008-06-30,344300.0
2008-05-31,343600.0
2008-04-30,345200.0
2008-03-31,344300.0
2008-02-29,341300.0
2008-01-31,341100.0
2007-12-31,342700.0
2007-11-30,343700.0
2007-10-31,343700.0
2007-09-30,342700.0
2007-08-31,339500.0
2007-07-31,335300.0
2007-06-30,332900.0
2007-05-31,332500.0
2007-04-30,331400.0
2007-03-31,330500.0
2007-02-28,330200.0
2007-01-31,330400.0
2006-12-31,329300.0
2006-11-30,327300.0
2006-10-31,320900.0
2006-09-30,312700.0
2006-08-31,307700.0
2006-07-31,306200.0
2006-06-30,303700.0
2006-05-31,297000.0
2006-04-30,289700.0
2006-03-31,285400.0
2006-02-28,282300.0
2006-01-31,276800.0
2005-12-31,272200.0
2005-11-30,266900.0
2005-10-31,260200.0
2005-09-30,256000.0
2005-08-31,251400.0
2005-07-31,244400.0
2005-06-30,239200.0
2005-05-31,237700.0
2005-04-30,234900.0
2005-03-31,231200.0
2005-02-28,228200.0
2005-01-31,226000.0
2004-12-31,223900.0
2004-11-30,222600.0
2004-10-31,222800.0
2004-09-30,223300.0
2004-08-31,223600.0
2004-07-31,223100.0
2004-06-30,222200.0
2004-05-31,220800.0
2004-04-30,219500.0
2004-03-31,216600.0
2004-02-29,213300.0
2004-01-31,210300.0
2003-12-31,208200.0
2003-11-30,206000.0
2003-10-31,204300.0
2003-09-30,202000.0
2003-08-31,199600.0
2003-07-31,197900.0
2003-06-30,196500.0
2003-05-31,196200.0
2003-04-30,197200.0
2003-03-31,198300.0
2003-02-28,197800.0
2003-01-31,197200.0
2002-12-31,197200.0
2002-11-30,197800.0
2002-10-31,197500.0
2002-09-30,197300.0
2002-08-31,198600.0
2002-07-31,200200.0
2002-06-30,200900.0
2002-05-31,200400.0
2002-04-30,199500.0
2002-03-31,198800.0
2002-02-28,198500.0
2002-01-31,196800.0
2001-12-31,194600.0
2001-11-30,192800.0
2001-10-31,190600.0
2001-09-30,187800.0
2001-08-31,185400.0
2001-07-31,183700.0
2001-06-30,183000.0
2001-05-31,182700.0
2001-04-30,182800.0
2001-03-31,182800.0
2001-02-28,183100.0
2001-01-31,182000.0
2000-12-31,181200.0
2000-11-30,182300.0
2000-10-31,183900.0
2000-09-30,183800.0
2000-08-31,183600.0
2000-07-31,183500.0
2000-06-30,183400.0
2000-05-31,182500.0
2000-04-30,180000.0
2000-03-31,177600.0
2000-02-29,176700.0
2000-01-31,176300.0
1999-12-31,174800.0
1999-11-30,173200.0
1999-10-31,173100.0
1999-09-30,174200.0
1999-08-31,175200.0
1999-07-31,173900.0
1999-06-30,168800.0
1999-05-31,164100.0
1999-04-30,162900.0
1999-03-31,162900.0
1999-02-28,161600.0
1999-01-31,160800.0
1998-12-31,159400.0
1998-11-30,157800.0
1998-10-31,157800.0
1998-09-30,158700.0
1998-08-31,157000.0
1998-07-31,153900.0
1998-06-30,152100.0
1998-05-31,151800.0
1998-04-30,150600.0
1998-03-31,149300.0
1998-02-28,149300.0
1998-01-31,149600.0
1997-12-31,147000.0
1997-11-30,142400.0
1997-10-31,139300.0
1997-09-30,137600.0
1997-08-31,135400.0
1997-07-31,134600.0
1997-06-30,134800.0
1997-05-31,133900.0
1997-04-30,132400.0
1997-03-31,131700.0
1997-02-28,130800.0
1997-01-31,131900.0
1996-12-31,135000.0
1996-11-30,137100.0
1996-10-31,135100.0
1996-09-30,131800.0
1996-08-31,129800.0
1996-07-31,130800.0
1996-06-30,132600.0
1996-05-31,133300.0
1996-04-30,134700.0
