Date,Value
2015-06-30,1750.0
2015-05-31,1780.0
2015-04-30,1945.0
2015-03-31,1890.0
2015-02-28,1800.0
2015-01-31,1800.0
2014-12-31,1720.0
2014-11-30,1750.0
2014-10-31,1795.0
2014-09-30,1890.0
2014-08-31,1830.0
2014-07-31,1725.0
2014-06-30,1495.0
2014-05-31,1630.0
2014-04-30,2115.0
2014-03-31,1735.0
2014-02-28,1995.0
2014-01-31,2200.0
2013-12-31,2015.0
2013-11-30,1595.0
2013-10-31,1565.0
2013-09-30,1715.0
2013-08-31,1695.0
2013-07-31,1695.0
2013-06-30,1675.0
2013-05-31,1345.0
2013-04-30,1620.0
2013-03-31,1570.0
2013-02-28,1570.0
2013-01-31,1290.0
2012-12-31,1290.0
2012-11-30,1400.0
2012-10-31,1550.0
2012-09-30,1395.0
2012-08-31,1395.0
2012-07-31,1550.0
2012-06-30,1495.0
2012-05-31,1325.0
2012-04-30,1295.0
2012-03-31,1350.0
2012-02-29,950.0
2012-01-31,950.0
2011-12-31,1050.0
2011-11-30,1595.0
2011-10-31,1170.0
2011-09-30,1200.0
2011-08-31,1300.0
2011-07-31,1495.0
2011-06-30,1675.0
2011-05-31,1800.0
2011-04-30,1150.0
2011-03-31,995.0
2011-02-28,1150.0
