Date,Value
2015-02-28,619900.0
2015-01-31,639750.0
2014-12-31,649950.0
2014-11-30,568680.0
2014-10-31,575000.0
2014-09-30,559950.0
2014-08-31,545000.0
2014-07-31,548000.0
2014-06-30,525000.0
2014-05-31,499000.0
2014-04-30,499500.0
2014-03-31,510000.0
2014-02-28,475000.0
2014-01-31,440000.0
2013-12-31,489999.0
2013-11-30,449900.0
2013-10-31,465000.0
2013-09-30,465000.0
2013-08-31,465000.0
2013-07-31,479000.0
2013-06-30,475000.0
2013-05-31,465000.0
2013-04-30,420000.0
2013-03-31,420000.0
2013-02-28,429000.0
2013-01-31,389995.0
2012-12-31,334000.0
2012-11-30,330000.0
2012-10-31,325500.0
2012-09-30,375000.0
2012-08-31,399000.0
2012-07-31,399000.0
2012-06-30,399000.0
2012-05-31,419000.0
2012-04-30,429950.0
2012-03-31,395000.0
2012-02-29,394950.0
2012-01-31,389950.0
2011-12-31,394500.0
2011-11-30,385000.0
2011-10-31,370000.0
2011-09-30,370000.0
2011-08-31,377861.0
2011-07-31,375000.0
2011-06-30,349950.0
2011-05-31,359000.0
2011-04-30,374900.0
2011-03-31,389000.0
2011-02-28,399950.0
2011-01-31,399950.0
2010-12-31,395000.0
2010-11-30,389950.0
2010-10-31,385000.0
2010-09-30,399000.0
2010-08-31,400000.0
2010-07-31,400000.0
2010-06-30,400000.0
2010-05-31,399000.0
2010-04-30,409900.0
2010-03-31,415000.0
2010-02-28,419950.0
2010-01-31,417900.0
2009-12-31,419950.0
2009-11-30,419950.0
2009-10-31,440000.0
2009-09-30,445950.0
2009-08-31,449900.0
2009-07-31,465000.0
2009-06-30,450000.0
2009-05-31,500000.0
2009-04-30,465000.0
2009-03-31,479000.0
2009-02-28,479000.0
2009-01-31,475000.0
2008-12-31,500000.0
2008-11-30,529950.0
2008-10-31,515000.0
