Date,Value
2015-06-30,1035.0
2014-08-31,795.0
2014-07-31,825.0
2014-05-31,850.0
2014-03-31,795.0
2014-02-28,695.0
2013-11-30,685.0
2013-10-31,685.0
2013-09-30,875.0
2013-08-31,795.0
2013-07-31,695.0
2013-06-30,685.0
2013-05-31,875.0
2013-02-28,800.0
2013-01-31,795.0
2012-12-31,795.0
2012-10-31,830.0
2012-09-30,695.0
2012-08-31,795.0
2012-07-31,660.0
2012-06-30,660.0
