Date,Value
2015-09-30,293700.0
2015-08-31,287600.0
2015-07-31,284600.0
2015-06-30,284700.0
2015-05-31,282600.0
2015-04-30,281900.0
2015-03-31,282100.0
2015-02-28,283300.0
2015-01-31,282100.0
2014-12-31,282800.0
2014-11-30,283100.0
2014-10-31,282900.0
2014-09-30,283200.0
2014-08-31,283000.0
2014-07-31,282300.0
2014-06-30,281400.0
2014-05-31,281100.0
2014-04-30,281500.0
2014-03-31,282500.0
2014-02-28,283000.0
2014-01-31,282700.0
2013-12-31,281700.0
2013-11-30,280100.0
2013-10-31,277800.0
2013-09-30,275200.0
2013-08-31,272200.0
2013-07-31,269000.0
2013-06-30,266000.0
2013-05-31,263500.0
2013-04-30,261600.0
2013-03-31,260600.0
2013-02-28,259900.0
2013-01-31,258400.0
2012-12-31,256600.0
2012-11-30,255900.0
2012-10-31,255000.0
2012-09-30,252700.0
2012-08-31,250600.0
2012-07-31,249300.0
2012-06-30,248000.0
2012-05-31,246700.0
2012-04-30,245100.0
2012-03-31,242700.0
2012-02-29,240600.0
2012-01-31,239300.0
2011-12-31,238000.0
2011-11-30,237100.0
2011-10-31,236900.0
2011-09-30,236600.0
2011-08-31,236200.0
2011-07-31,236200.0
2011-06-30,237900.0
2011-05-31,240600.0
2011-04-30,242600.0
2011-03-31,244500.0
2011-02-28,247300.0
2011-01-31,249900.0
2010-12-31,252400.0
2010-11-30,254700.0
2010-10-31,257000.0
2010-09-30,260300.0
2010-08-31,264300.0
2010-07-31,267400.0
2010-06-30,269300.0
2010-05-31,270000.0
2010-04-30,270000.0
2010-03-31,269400.0
2010-02-28,268400.0
2010-01-31,267800.0
2009-12-31,267300.0
2009-11-30,266100.0
2009-10-31,264600.0
2009-09-30,263300.0
2009-08-31,261700.0
2009-07-31,259500.0
2009-06-30,257300.0
2009-05-31,255600.0
2009-04-30,254400.0
2009-03-31,254200.0
2009-02-28,255500.0
2009-01-31,256300.0
2008-12-31,255800.0
2008-11-30,256200.0
2008-10-31,258000.0
2008-09-30,259500.0
2008-08-31,260900.0
2008-07-31,263500.0
2008-06-30,266600.0
2008-05-31,269200.0
2008-04-30,271100.0
2008-03-31,271600.0
2008-02-29,270200.0
2008-01-31,269400.0
2007-12-31,269900.0
2007-11-30,270900.0
2007-10-31,271500.0
2007-09-30,272000.0
2007-08-31,271500.0
2007-07-31,270000.0
2007-06-30,268300.0
2007-05-31,268000.0
2007-04-30,269500.0
2007-03-31,271100.0
2007-02-28,270800.0
2007-01-31,269700.0
2006-12-31,268900.0
2006-11-30,268000.0
2006-10-31,267200.0
2006-09-30,267700.0
2006-08-31,269200.0
2006-07-31,270200.0
2006-06-30,269800.0
2006-05-31,268100.0
2006-04-30,265400.0
2006-03-31,263000.0
2006-02-28,261900.0
2006-01-31,261200.0
2005-12-31,259900.0
2005-11-30,257400.0
2005-10-31,253700.0
2005-09-30,249600.0
2005-08-31,245900.0
2005-07-31,243000.0
2005-06-30,240400.0
2005-05-31,236900.0
2005-04-30,232400.0
2005-03-31,227700.0
2005-02-28,223800.0
2005-01-31,220900.0
2004-12-31,218700.0
2004-11-30,216800.0
2004-10-31,213900.0
2004-09-30,209500.0
2004-08-31,204800.0
2004-07-31,200800.0
2004-06-30,197100.0
2004-05-31,193800.0
2004-04-30,191600.0
2004-03-31,190000.0
2004-02-29,187800.0
2004-01-31,184400.0
2003-12-31,180300.0
2003-11-30,176600.0
2003-10-31,173900.0
2003-09-30,171800.0
2003-08-31,170300.0
2003-07-31,168600.0
2003-06-30,166700.0
2003-05-31,164800.0
2003-04-30,162400.0
2003-03-31,159600.0
2003-02-28,157300.0
2003-01-31,155500.0
2002-12-31,154200.0
2002-11-30,153200.0
2002-10-31,152300.0
2002-09-30,150900.0
2002-08-31,148800.0
2002-07-31,146400.0
2002-06-30,144200.0
2002-05-31,142800.0
2002-04-30,142500.0
2002-03-31,142200.0
2002-02-28,141400.0
2002-01-31,140100.0
2001-12-31,138700.0
2001-11-30,136600.0
2001-10-31,134400.0
2001-09-30,132900.0
2001-08-31,132700.0
2001-07-31,133500.0
2001-06-30,134700.0
2001-05-31,135000.0
2001-04-30,134300.0
2001-03-31,134000.0
2001-02-28,134600.0
2001-01-31,135600.0
2000-12-31,136600.0
2000-11-30,137400.0
2000-10-31,138000.0
2000-09-30,138800.0
2000-08-31,138300.0
2000-07-31,136300.0
2000-06-30,134100.0
2000-05-31,132300.0
2000-04-30,130900.0
2000-03-31,129500.0
2000-02-29,127800.0
2000-01-31,126400.0
1999-12-31,125200.0
1999-11-30,124300.0
1999-10-31,123900.0
1999-09-30,123500.0
1999-08-31,123200.0
1999-07-31,122800.0
1999-06-30,122100.0
1999-05-31,121300.0
1999-04-30,120400.0
1999-03-31,119700.0
1999-02-28,119300.0
1999-01-31,119000.0
1998-12-31,118500.0
1998-11-30,118000.0
1998-10-31,117300.0
1998-09-30,116600.0
1998-08-31,116100.0
1998-07-31,115500.0
1998-06-30,115200.0
1998-05-31,115600.0
1998-04-30,116100.0
1998-03-31,116000.0
1998-02-28,115300.0
1998-01-31,114300.0
1997-12-31,113300.0
1997-11-30,112800.0
1997-10-31,112600.0
1997-09-30,112700.0
1997-08-31,112900.0
1997-07-31,112700.0
1997-06-30,112300.0
1997-05-31,111700.0
1997-04-30,111700.0
1997-03-31,112100.0
1997-02-28,111900.0
1997-01-31,110800.0
1996-12-31,110100.0
1996-11-30,110000.0
1996-10-31,110200.0
1996-09-30,109800.0
1996-08-31,109200.0
1996-07-31,109100.0
1996-06-30,109800.0
1996-05-31,110200.0
1996-04-30,109900.0
