Date,Value
2014-11-30,249000.0
2014-10-31,275000.0
2014-09-30,265000.0
2014-08-31,277000.0
2014-07-31,265000.0
2014-06-30,265000.0
2014-05-31,247500.0
2014-04-30,228000.0
2014-03-31,235000.0
2014-02-28,235000.0
2014-01-31,229000.0
2013-12-31,235000.0
2013-11-30,235000.0
2013-10-31,235000.0
2013-09-30,235000.0
2013-08-31,235000.0
2013-07-31,235000.0
2013-06-30,239000.0
2013-05-31,235000.0
2013-04-30,239000.0
2012-12-31,244500.0
2012-11-30,250000.0
2012-10-31,250000.0
2012-09-30,252000.0
2012-08-31,250000.0
2012-07-31,259000.0
2012-06-30,255000.0
2012-05-31,255000.0
2012-03-31,249000.0
2012-01-31,267000.0
2011-12-31,267000.0
2011-11-30,245000.0
2011-10-31,242900.0
2011-09-30,229500.0
2011-08-31,229500.0
2011-07-31,229500.0
2011-06-30,225000.0
2011-05-31,246000.0
2011-04-30,249900.0
2011-03-31,246000.0
2011-02-28,235000.0
2011-01-31,229500.0
2010-12-31,229000.0
2010-11-30,229000.0
2010-10-31,229500.0
2010-09-30,229900.0
2010-08-31,230000.0
2010-07-31,247900.0
2010-06-30,249900.0
2010-05-31,234800.0
2010-04-30,234800.0
2010-03-31,229900.0
2010-02-28,229000.0
2010-01-31,229000.0
2009-12-31,224900.0
2009-11-30,225900.0
2009-10-31,255000.0
2009-09-30,225000.0
2009-08-31,219000.0
