Date,Value
2015-09-30,1.462
2015-08-31,1.464
2015-07-31,1.452
2015-06-30,1.436
2015-05-31,1.418
2015-04-30,1.406
2015-03-31,1.404
2015-02-28,1.406
2015-01-31,1.404
2014-12-31,1.398
2014-11-30,1.394
2014-10-31,1.388
2014-09-30,1.38
2014-08-31,1.368
2014-07-31,1.356
2014-06-30,1.348
2014-05-31,1.338
2014-04-30,1.328
2014-03-31,1.312
2014-02-28,1.3
2014-01-31,1.282
2013-12-31,1.268
2013-11-30,1.256
2013-10-31,1.244
2013-09-30,1.232
2013-08-31,1.222
2013-07-31,1.216
2013-06-30,1.21
2013-05-31,1.208
2013-04-30,1.204
2013-03-31,1.196
2013-02-28,1.186
2013-01-31,1.178
2012-12-31,1.168
2012-11-30,1.162
2012-10-31,1.162
2012-09-30,1.166
2012-08-31,1.166
2012-07-31,1.16
2012-06-30,1.15
2012-05-31,1.138
2012-04-30,1.13
2012-03-31,1.132
2012-02-29,1.14
2012-01-31,1.144
2011-12-31,1.142
2011-11-30,1.134
2011-10-31,1.122
2011-09-30,1.106
2011-08-31,1.1
2011-07-31,1.098
2011-06-30,1.098
2011-05-31,1.096
2011-04-30,1.094
2011-03-31,1.09
2011-02-28,1.08
2011-01-31,1.076
2010-12-31,1.07
2010-11-30,1.07
