Date,Value
2015-09-30,150900.0
2015-08-31,152100.0
2015-07-31,152100.0
2015-06-30,154500.0
2015-05-31,158600.0
2015-04-30,158400.0
2015-03-31,155300.0
2015-02-28,150200.0
2015-01-31,145700.0
2014-12-31,144900.0
2014-11-30,143500.0
2014-10-31,142800.0
2014-09-30,142300.0
2014-08-31,141200.0
2014-07-31,138900.0
2014-06-30,136700.0
2014-05-31,135400.0
2014-04-30,135800.0
2014-03-31,135500.0
2014-02-28,134900.0
2014-01-31,134800.0
2013-12-31,134500.0
2013-11-30,134400.0
2013-10-31,134200.0
2013-09-30,133000.0
2013-08-31,130300.0
2013-07-31,127900.0
2013-06-30,126900.0
2013-05-31,127300.0
2013-04-30,127500.0
2013-03-31,127900.0
2013-02-28,128400.0
2013-01-31,128300.0
2012-12-31,127500.0
2012-11-30,127100.0
2012-10-31,128000.0
2012-09-30,129800.0
2012-08-31,131100.0
2012-07-31,131800.0
2012-06-30,132500.0
2012-05-31,133200.0
2012-04-30,133600.0
2012-03-31,133600.0
2012-02-29,133400.0
2012-01-31,133400.0
2011-12-31,134600.0
2011-11-30,134900.0
2011-10-31,134000.0
2011-09-30,135500.0
2011-08-31,140400.0
2011-07-31,146600.0
2011-06-30,151800.0
2011-05-31,154600.0
2011-04-30,155400.0
2011-03-31,156500.0
2011-02-28,158400.0
2011-01-31,161300.0
2010-12-31,164200.0
2010-11-30,167000.0
2010-10-31,168400.0
2010-09-30,167800.0
2010-08-31,167100.0
2010-07-31,166600.0
2010-06-30,165700.0
2010-05-31,164500.0
2010-04-30,165300.0
2010-03-31,170000.0
2010-02-28,174300.0
2010-01-31,171800.0
2009-12-31,167600.0
2009-11-30,167500.0
2009-10-31,168600.0
2009-09-30,168700.0
2009-08-31,169100.0
2009-07-31,170600.0
2009-06-30,171400.0
2009-05-31,173200.0
2009-04-30,176300.0
2009-03-31,176900.0
2009-02-28,175100.0
2009-01-31,175600.0
2008-12-31,177900.0
2008-11-30,179900.0
2008-10-31,182000.0
2008-09-30,183300.0
2008-08-31,183700.0
2008-07-31,184300.0
2008-06-30,184800.0
2008-05-31,184900.0
2008-04-30,184400.0
2008-03-31,183400.0
2008-02-29,183900.0
2008-01-31,186900.0
2007-12-31,189900.0
2007-11-30,190800.0
2007-10-31,191000.0
2007-09-30,191800.0
2007-08-31,192200.0
2007-07-31,191600.0
2007-06-30,191700.0
2007-05-31,191900.0
2007-04-30,191300.0
2007-03-31,190400.0
2007-02-28,190700.0
2007-01-31,190500.0
2006-12-31,189800.0
2006-11-30,188900.0
2006-10-31,187900.0
2006-09-30,187100.0
2006-08-31,186400.0
2006-07-31,185100.0
2006-06-30,184400.0
2006-05-31,184100.0
2006-04-30,183900.0
2006-03-31,183000.0
2006-02-28,181600.0
2006-01-31,179800.0
2005-12-31,177400.0
2005-11-30,174600.0
2005-10-31,172300.0
2005-09-30,169700.0
2005-08-31,167000.0
2005-07-31,164500.0
2005-06-30,161400.0
2005-05-31,157300.0
2005-04-30,153200.0
2005-03-31,149700.0
2005-02-28,146700.0
2005-01-31,144700.0
2004-12-31,143200.0
2004-11-30,141800.0
2004-10-31,140200.0
2004-09-30,139200.0
2004-08-31,138500.0
2004-07-31,137400.0
2004-06-30,135800.0
2004-05-31,134400.0
2004-04-30,133200.0
2004-03-31,131800.0
2004-02-29,130100.0
2004-01-31,128800.0
2003-12-31,128100.0
2003-11-30,127300.0
2003-10-31,126400.0
2003-09-30,126100.0
2003-08-31,125900.0
2003-07-31,125500.0
2003-06-30,125100.0
2003-05-31,124600.0
2003-04-30,123500.0
2003-03-31,122100.0
2003-02-28,121100.0
2003-01-31,120400.0
2002-12-31,120200.0
2002-11-30,119900.0
2002-10-31,119600.0
2002-09-30,118200.0
2002-08-31,116400.0
2002-07-31,115600.0
2002-06-30,116300.0
2002-05-31,117000.0
2002-04-30,117600.0
2002-03-31,119200.0
2002-02-28,120800.0
2002-01-31,121000.0
2001-12-31,120400.0
2001-11-30,119900.0
2001-10-31,119300.0
2001-09-30,119200.0
2001-08-31,119800.0
2001-07-31,119000.0
2001-06-30,116900.0
2001-05-31,115900.0
2001-04-30,115700.0
2001-03-31,115400.0
2001-02-28,115500.0
2001-01-31,115800.0
2000-12-31,115700.0
2000-11-30,115600.0
2000-10-31,115800.0
2000-09-30,115400.0
2000-08-31,114900.0
2000-07-31,114800.0
2000-06-30,114500.0
2000-05-31,113500.0
2000-04-30,111800.0
2000-03-31,110400.0
2000-02-29,109100.0
2000-01-31,107600.0
1999-12-31,106000.0
1999-11-30,105200.0
1999-10-31,104400.0
1999-09-30,103400.0
1999-08-31,102400.0
1999-07-31,101400.0
1999-06-30,100300.0
1999-05-31,99700.0
1999-04-30,99500.0
1999-03-31,99100.0
1999-02-28,97500.0
1999-01-31,96300.0
1998-12-31,95900.0
1998-11-30,95400.0
1998-10-31,94900.0
1998-09-30,94400.0
1998-08-31,93100.0
1998-07-31,92400.0
1998-06-30,93100.0
1998-05-31,93600.0
1998-04-30,93700.0
1998-03-31,93400.0
1998-02-28,92800.0
1998-01-31,91700.0
1997-12-31,90300.0
1997-11-30,88700.0
1997-10-31,87400.0
1997-09-30,86600.0
1997-08-31,85600.0
1997-07-31,84500.0
1997-06-30,83800.0
1997-05-31,83500.0
1997-04-30,83300.0
1997-03-31,83100.0
1997-02-28,82900.0
1997-01-31,82400.0
1996-12-31,81700.0
1996-11-30,81300.0
1996-10-31,81100.0
1996-09-30,81100.0
1996-08-31,81500.0
1996-07-31,82200.0
1996-06-30,82000.0
1996-05-31,81700.0
1996-04-30,81800.0
