Date,Value
2015-09-30,271800.0
2015-08-31,267200.0
2015-07-31,264000.0
2015-06-30,264000.0
2015-05-31,262500.0
2015-04-30,260600.0
2015-03-31,261000.0
2015-02-28,263600.0
2015-01-31,263000.0
2014-12-31,262700.0
2014-11-30,262000.0
2014-10-31,261400.0
2014-09-30,262200.0
2014-08-31,263500.0
2014-07-31,264600.0
2014-06-30,265300.0
2014-05-31,266000.0
2014-04-30,266700.0
2014-03-31,267200.0
2014-02-28,266200.0
2014-01-31,263900.0
2013-12-31,261900.0
2013-11-30,260300.0
2013-10-31,259300.0
2013-09-30,257300.0
2013-08-31,253900.0
2013-07-31,251400.0
2013-06-30,249700.0
2013-05-31,247100.0
2013-04-30,244300.0
2013-03-31,242400.0
2013-02-28,241600.0
2013-01-31,241300.0
2012-12-31,241200.0
2012-11-30,241500.0
2012-10-31,241900.0
2012-09-30,241800.0
2012-08-31,240900.0
2012-07-31,239100.0
2012-06-30,236600.0
2012-05-31,234600.0
2012-04-30,232800.0
2012-03-31,231200.0
2012-02-29,230100.0
2012-01-31,229700.0
2011-12-31,229000.0
2011-11-30,227700.0
2011-10-31,225700.0
2011-09-30,223600.0
2011-08-31,222400.0
2011-07-31,222000.0
2011-06-30,222500.0
2011-05-31,224000.0
2011-04-30,225900.0
2011-03-31,228300.0
2011-02-28,231700.0
2011-01-31,234400.0
2010-12-31,235600.0
2010-11-30,236700.0
2010-10-31,238700.0
2010-09-30,241700.0
2010-08-31,244200.0
2010-07-31,246200.0
2010-06-30,248500.0
2010-05-31,250600.0
2010-04-30,252000.0
2010-03-31,253600.0
2010-02-28,255000.0
2010-01-31,256000.0
2009-12-31,258000.0
2009-11-30,259700.0
2009-10-31,259200.0
2009-09-30,257900.0
2009-08-31,257200.0
2009-07-31,255500.0
2009-06-30,252900.0
2009-05-31,250700.0
2009-04-30,249100.0
2009-03-31,247600.0
2009-02-28,246600.0
2009-01-31,245300.0
2008-12-31,243300.0
2008-11-30,242900.0
2008-10-31,243800.0
2008-09-30,244200.0
2008-08-31,244400.0
2008-07-31,245800.0
2008-06-30,247600.0
2008-05-31,249200.0
2008-04-30,250100.0
2008-03-31,249400.0
2008-02-29,247400.0
2008-01-31,245500.0
2007-12-31,244900.0
2007-11-30,244500.0
2007-10-31,244600.0
2007-09-30,245200.0
2007-08-31,246100.0
2007-07-31,246400.0
2007-06-30,247100.0
2007-05-31,247400.0
2007-04-30,247900.0
2007-03-31,248300.0
2007-02-28,248900.0
2007-01-31,249400.0
2006-12-31,250200.0
2006-11-30,250100.0
2006-10-31,250000.0
2006-09-30,250400.0
2006-08-31,251500.0
2006-07-31,253700.0
2006-06-30,255800.0
2006-05-31,256600.0
2006-04-30,256200.0
2006-03-31,255000.0
2006-02-28,252700.0
2006-01-31,251200.0
2005-12-31,249900.0
2005-11-30,248000.0
2005-10-31,245000.0
2005-09-30,241300.0
2005-08-31,237000.0
2005-07-31,232300.0
2005-06-30,226200.0
2005-05-31,220200.0
2005-04-30,215200.0
2005-03-31,211400.0
2005-02-28,208500.0
2005-01-31,205500.0
2004-12-31,201900.0
2004-11-30,198300.0
2004-10-31,195000.0
2004-09-30,191400.0
2004-08-31,187800.0
2004-07-31,184600.0
2004-06-30,182100.0
2004-05-31,179900.0
2004-04-30,177700.0
2004-03-31,175700.0
2004-02-29,173400.0
2004-01-31,170700.0
2003-12-31,167400.0
2003-11-30,163900.0
2003-10-31,161000.0
2003-09-30,158600.0
2003-08-31,156300.0
2003-07-31,154100.0
2003-06-30,152100.0
2003-05-31,150300.0
2003-04-30,148200.0
2003-03-31,146400.0
2003-02-28,145000.0
2003-01-31,143800.0
2002-12-31,143200.0
2002-11-30,143300.0
2002-10-31,143100.0
2002-09-30,142400.0
2002-08-31,140700.0
2002-07-31,138200.0
2002-06-30,135400.0
2002-05-31,133800.0
2002-04-30,133500.0
2002-03-31,133200.0
2002-02-28,132300.0
2002-01-31,130700.0
2001-12-31,128900.0
2001-11-30,127200.0
2001-10-31,125600.0
2001-09-30,124200.0
2001-08-31,124100.0
2001-07-31,125500.0
2001-06-30,127000.0
2001-05-31,126900.0
2001-04-30,126100.0
2001-03-31,126100.0
2001-02-28,126200.0
2001-01-31,126600.0
2000-12-31,127700.0
2000-11-30,128500.0
2000-10-31,128900.0
2000-09-30,129600.0
2000-08-31,129700.0
2000-07-31,127800.0
2000-06-30,125400.0
2000-05-31,123900.0
2000-04-30,122800.0
2000-03-31,121000.0
2000-02-29,119700.0
2000-01-31,119000.0
1999-12-31,118400.0
1999-11-30,117600.0
1999-10-31,117300.0
1999-09-30,117500.0
1999-08-31,117300.0
1999-07-31,116700.0
1999-06-30,116200.0
1999-05-31,115800.0
1999-04-30,115000.0
1999-03-31,114400.0
1999-02-28,113800.0
1999-01-31,113000.0
1998-12-31,112200.0
1998-11-30,112000.0
1998-10-31,111400.0
1998-09-30,110500.0
1998-08-31,109700.0
1998-07-31,109500.0
1998-06-30,109600.0
1998-05-31,109800.0
1998-04-30,109900.0
1998-03-31,110100.0
1998-02-28,109900.0
1998-01-31,109100.0
1997-12-31,107800.0
1997-11-30,106400.0
1997-10-31,105400.0
1997-09-30,104600.0
1997-08-31,104000.0
1997-07-31,103700.0
1997-06-30,103200.0
1997-05-31,102200.0
1997-04-30,101300.0
1997-03-31,100900.0
1997-02-28,100500.0
1997-01-31,100100.0
1996-12-31,99800.0
1996-11-30,99600.0
1996-10-31,99500.0
1996-09-30,99500.0
1996-08-31,99300.0
1996-07-31,99700.0
1996-06-30,101300.0
1996-05-31,103400.0
1996-04-30,104500.0
