Date,Value
2015-09-30,2.756
2015-08-31,2.72
2015-07-31,2.7
2015-06-30,2.692
2015-05-31,2.67
2015-04-30,2.634
2015-03-31,2.598
2015-02-28,2.566
2015-01-31,2.554
2014-12-31,2.54
2014-11-30,2.542
2014-10-31,2.558
2014-09-30,2.58
2014-08-31,2.594
2014-07-31,2.584
2014-06-30,2.556
2014-05-31,2.53
2014-04-30,2.51
2014-03-31,2.506
2014-02-28,2.504
2014-01-31,2.498
2013-12-31,2.484
2013-11-30,2.462
2013-10-31,2.44
2013-09-30,2.432
2013-08-31,2.42
2013-07-31,2.412
2013-06-30,2.392
2013-05-31,2.372
2013-04-30,2.354
2013-03-31,2.324
2013-02-28,2.302
2013-01-31,2.288
2012-12-31,2.282
2012-11-30,2.29
2012-10-31,2.308
2012-09-30,2.306
2012-08-31,2.292
2012-07-31,2.276
2012-06-30,2.286
2012-05-31,2.306
2012-04-30,2.306
2012-03-31,2.3
2012-02-29,2.288
2012-01-31,2.28
2011-12-31,2.276
2011-11-30,2.246
2011-10-31,2.192
2011-09-30,2.14
2011-08-31,2.11
2011-07-31,2.108
2011-06-30,2.106
2011-05-31,2.094
2011-04-30,2.09
2011-03-31,2.084
2011-02-28,2.08
2011-01-31,2.068
2010-12-31,2.052
2010-11-30,2.042
