Date,Value
2015-02-28,99900.0
2015-01-31,76900.0
2014-12-31,89900.0
2014-11-30,94900.0
2014-10-31,95000.0
2014-09-30,99900.0
2014-08-31,100000.0
2014-07-31,107500.0
2014-06-30,115000.0
2014-05-31,110000.0
2014-04-30,110000.0
2014-03-31,99900.0
2014-02-28,82500.0
2014-01-31,89900.0
2013-12-31,89900.0
2013-11-30,99900.0
2013-10-31,100800.0
2013-09-30,100000.0
2013-08-31,105000.0
2013-07-31,100000.0
2013-06-30,95000.0
2013-05-31,98000.0
2013-04-30,100000.0
2013-03-31,99000.0
2013-02-28,98000.0
2013-01-31,99000.0
2012-12-31,99870.0
2012-11-30,95000.0
2012-10-31,99950.0
2012-09-30,99870.0
2012-08-31,84950.0
2012-07-31,90000.0
2012-06-30,95000.0
2012-05-31,89900.0
2012-04-30,82900.0
2012-03-31,79950.0
2012-02-29,85000.0
2012-01-31,85000.0
2011-12-31,84000.0
2011-11-30,94000.0
2011-10-31,98900.0
2011-09-30,95000.0
2011-08-31,95000.0
2011-07-31,95000.0
2011-06-30,100000.0
2011-05-31,109900.0
2011-04-30,98500.0
2011-03-31,104999.0
2011-02-28,101000.0
2011-01-31,109900.0
2010-12-31,104999.0
2010-11-30,114900.0
2010-10-31,114999.0
2010-09-30,114900.0
2010-08-31,104950.0
2010-07-31,115000.0
2010-06-30,121000.0
2010-05-31,115900.0
2010-04-30,114900.0
2010-03-31,114900.0
2010-02-28,114900.0
2010-01-31,114900.0
2009-12-31,119500.0
2009-11-30,114900.0
2009-10-31,112500.0
2009-09-30,120000.0
2009-08-31,112500.0
2009-07-31,109900.0
2009-06-30,110000.0
2009-05-31,110000.0
2009-04-30,120000.0
2009-03-31,120000.0
2009-02-28,121900.0
2009-01-31,129900.0
2008-12-31,130000.0
2008-11-30,129900.0
2008-10-31,132900.0
