Date,Value
2015-09-30,1.418
2015-08-31,1.412
2015-07-31,1.402
2015-06-30,1.39
2015-05-31,1.374
2015-04-30,1.362
2015-03-31,1.354
2015-02-28,1.352
2015-01-31,1.348
2014-12-31,1.338
2014-11-30,1.33
2014-10-31,1.328
2014-09-30,1.328
2014-08-31,1.324
2014-07-31,1.318
2014-06-30,1.306
2014-05-31,1.294
2014-04-30,1.284
2014-03-31,1.274
2014-02-28,1.268
2014-01-31,1.262
2013-12-31,1.26
2013-11-30,1.252
2013-10-31,1.236
2013-09-30,1.222
2013-08-31,1.208
2013-07-31,1.2
2013-06-30,1.196
2013-05-31,1.196
2013-04-30,1.194
2013-03-31,1.186
2013-02-28,1.178
2013-01-31,1.166
2012-12-31,1.16
2012-11-30,1.154
2012-10-31,1.154
2012-09-30,1.148
2012-08-31,1.142
2012-07-31,1.132
2012-06-30,1.13
2012-05-31,1.122
2012-04-30,1.116
2012-03-31,1.112
2012-02-29,1.108
2012-01-31,1.102
2011-12-31,1.092
2011-11-30,1.084
2011-10-31,1.08
2011-09-30,1.076
2011-08-31,1.078
2011-07-31,1.078
2011-06-30,1.078
2011-05-31,1.072
2011-04-30,1.068
2011-03-31,1.07
2011-02-28,1.068
2011-01-31,1.064
2010-12-31,1.064
2010-11-30,1.068
