Date,Value
2015-09-30,248500.0
2015-08-31,248100.0
2015-07-31,245500.0
2015-06-30,247900.0
2015-05-31,247600.0
2015-04-30,246500.0
2015-03-31,246300.0
2015-02-28,246100.0
2015-01-31,243800.0
2014-12-31,241800.0
2014-11-30,238900.0
2014-10-31,236000.0
2014-09-30,233900.0
2014-08-31,231700.0
2014-07-31,227700.0
2014-06-30,224200.0
2014-05-31,222000.0
2014-04-30,218900.0
2014-03-31,215700.0
2014-02-28,215700.0
2014-01-31,217100.0
2013-12-31,216900.0
2013-11-30,216000.0
2013-10-31,216300.0
2013-09-30,217000.0
2013-08-31,217100.0
2013-07-31,217800.0
2013-06-30,217500.0
2013-05-31,215200.0
2013-04-30,211900.0
2013-03-31,209300.0
2013-02-28,206900.0
2013-01-31,203500.0
2012-12-31,199100.0
2012-11-30,195400.0
2012-10-31,193100.0
2012-09-30,190600.0
2012-08-31,187500.0
2012-07-31,184100.0
2012-06-30,181700.0
2012-05-31,180600.0
2012-04-30,179500.0
2012-03-31,177800.0
2012-02-29,176100.0
2012-01-31,174400.0
2011-12-31,173200.0
2011-11-30,172700.0
2011-10-31,172800.0
2011-09-30,174100.0
2011-08-31,176300.0
2011-07-31,178800.0
2011-06-30,180900.0
2011-05-31,182900.0
2011-04-30,184700.0
2011-03-31,186300.0
2011-02-28,187000.0
2011-01-31,188600.0
2010-12-31,191800.0
2010-11-30,195100.0
2010-10-31,198900.0
2010-09-30,203100.0
2010-08-31,207500.0
2010-07-31,212100.0
2010-06-30,216100.0
2010-05-31,219100.0
2010-04-30,222400.0
2010-03-31,225900.0
2010-02-28,228500.0
2010-01-31,231300.0
2009-12-31,235200.0
2009-11-30,239400.0
2009-10-31,240900.0
2009-09-30,240700.0
2009-08-31,240900.0
2009-07-31,243000.0
2009-06-30,244700.0
2009-05-31,245800.0
2009-04-30,247100.0
2009-03-31,248600.0
2009-02-28,249200.0
2009-01-31,249600.0
2008-12-31,250100.0
2008-11-30,250400.0
2008-10-31,251400.0
2008-09-30,253600.0
2008-08-31,256600.0
2008-07-31,259300.0
2008-06-30,262900.0
2008-05-31,266900.0
2008-04-30,270900.0
2008-03-31,274800.0
2008-02-29,277900.0
2008-01-31,280100.0
2007-12-31,282400.0
2007-11-30,284200.0
2007-10-31,284800.0
2007-09-30,285000.0
2007-08-31,285000.0
2007-07-31,284200.0
2007-06-30,283300.0
2007-05-31,282700.0
2007-04-30,282100.0
2007-03-31,282300.0
2007-02-28,283300.0
2007-01-31,283400.0
2006-12-31,282400.0
2006-11-30,281400.0
2006-10-31,279700.0
2006-09-30,276100.0
2006-08-31,271500.0
2006-07-31,267200.0
2006-06-30,262500.0
2006-05-31,258100.0
2006-04-30,255000.0
2006-03-31,252000.0
2006-02-28,248800.0
2006-01-31,245800.0
2005-12-31,242900.0
2005-11-30,240100.0
2005-10-31,237400.0
2005-09-30,234700.0
2005-08-31,231100.0
2005-07-31,227500.0
2005-06-30,224600.0
2005-05-31,220600.0
2005-04-30,215400.0
2005-03-31,211000.0
2005-02-28,208500.0
2005-01-31,206400.0
2004-12-31,203500.0
2004-11-30,200000.0
2004-10-31,197200.0
2004-09-30,195500.0
2004-08-31,194700.0
2004-07-31,193300.0
2004-06-30,191800.0
2004-05-31,190900.0
2004-04-30,191000.0
2004-03-31,190700.0
2004-02-29,190100.0
2004-01-31,189300.0
2003-12-31,188200.0
2003-11-30,187300.0
2003-10-31,186900.0
2003-09-30,186400.0
2003-08-31,185600.0
2003-07-31,184700.0
2003-06-30,183500.0
2003-05-31,182700.0
2003-04-30,181500.0
2003-03-31,179900.0
2003-02-28,178400.0
2003-01-31,177500.0
2002-12-31,177100.0
2002-11-30,177100.0
2002-10-31,176600.0
2002-09-30,175700.0
2002-08-31,174900.0
2002-07-31,174100.0
2002-06-30,173600.0
2002-05-31,173300.0
2002-04-30,172900.0
2002-03-31,172200.0
2002-02-28,171300.0
2002-01-31,170300.0
2001-12-31,169500.0
2001-11-30,168600.0
2001-10-31,167600.0
2001-09-30,166700.0
2001-08-31,166100.0
2001-07-31,165500.0
2001-06-30,165300.0
2001-05-31,164700.0
2001-04-30,163900.0
2001-03-31,163300.0
2001-02-28,162000.0
2001-01-31,160100.0
2000-12-31,158400.0
2000-11-30,157100.0
2000-10-31,155600.0
2000-09-30,154100.0
2000-08-31,152500.0
2000-07-31,151200.0
2000-06-30,150300.0
2000-05-31,150000.0
2000-04-30,150100.0
2000-03-31,150000.0
2000-02-29,149500.0
2000-01-31,149000.0
1999-12-31,148600.0
1999-11-30,148300.0
1999-10-31,148200.0
1999-09-30,148100.0
1999-08-31,148000.0
1999-07-31,147300.0
1999-06-30,146200.0
1999-05-31,145100.0
1999-04-30,143900.0
1999-03-31,142200.0
1999-02-28,140700.0
1999-01-31,139700.0
1998-12-31,138600.0
1998-11-30,137200.0
1998-10-31,136500.0
1998-09-30,136500.0
1998-08-31,136600.0
1998-07-31,136700.0
1998-06-30,136100.0
1998-05-31,134900.0
1998-04-30,133300.0
1998-03-31,131900.0
1998-02-28,130500.0
1998-01-31,129400.0
1997-12-31,128200.0
1997-11-30,127400.0
1997-10-31,126900.0
1997-09-30,125800.0
1997-08-31,124500.0
1997-07-31,123500.0
1997-06-30,122900.0
1997-05-31,122400.0
1997-04-30,122100.0
1997-03-31,122200.0
1997-02-28,122100.0
1997-01-31,121800.0
1996-12-31,121700.0
1996-11-30,121700.0
1996-10-31,121400.0
1996-09-30,121200.0
1996-08-31,121700.0
1996-07-31,122400.0
1996-06-30,123000.0
1996-05-31,123000.0
1996-04-30,123000.0
