Date,Value
2015-02-28,329900.0
2015-01-31,329700.0
2014-12-31,385000.0
2014-11-30,385000.0
2014-10-31,329700.0
2014-09-30,319950.0
2014-08-31,329975.0
2014-07-31,329975.0
2014-06-30,339950.0
2014-05-31,325000.0
2014-04-30,325000.0
2014-03-31,339950.0
2014-02-28,325000.0
2014-01-31,285000.0
2013-12-31,299000.0
2013-11-30,274950.0
2013-10-31,239888.0
2013-09-30,250000.0
2013-08-31,239888.0
2013-07-31,239000.0
2013-06-30,249000.0
2013-05-31,285000.0
2013-04-30,235000.0
2013-03-31,199000.0
2013-02-28,182000.0
2013-01-31,218000.0
2012-12-31,239000.0
2012-11-30,240000.0
2012-10-31,245000.0
2012-09-30,249000.0
2012-08-31,285000.0
2012-07-31,259000.0
2012-06-30,319000.0
2012-05-31,249000.0
2012-04-30,269900.0
2012-03-31,275000.0
2012-02-29,229900.0
2012-01-31,229900.0
2011-12-31,229900.0
2011-11-30,229900.0
2011-10-31,235000.0
2011-09-30,239950.0
2011-08-31,249950.0
2011-07-31,249302.0
2011-06-30,259000.0
2011-05-31,256000.0
2011-04-30,229000.0
2011-03-31,256000.0
2011-02-28,259000.0
2011-01-31,260000.0
2010-12-31,264000.0
2010-11-30,265000.0
2010-10-31,275000.0
2010-09-30,275000.0
2010-08-31,275000.0
2010-07-31,285999.0
2010-06-30,275000.0
2010-05-31,279999.0
2010-04-30,284790.0
2010-03-31,284790.0
2010-02-28,285000.0
2010-01-31,284790.0
2009-12-31,289950.0
2009-11-30,290000.0
2009-10-31,310000.0
2009-09-30,317000.0
2009-08-31,319950.0
2009-07-31,329900.0
2009-06-30,324950.0
2009-05-31,330000.0
2009-04-30,360000.0
2009-03-31,364000.0
2009-02-28,385000.0
2009-01-31,375000.0
2008-12-31,364000.0
2008-11-30,364000.0
2008-10-31,336000.0
