Date,Value
2015-02-28,450000.0
2015-01-31,484000.0
2014-12-31,299950.0
2014-11-30,419900.0
2014-10-31,460000.0
2014-09-30,469000.0
2014-08-31,499950.0
2014-07-31,485000.0
2014-06-30,480000.0
2014-05-31,485000.0
2014-04-30,499900.0
2014-03-31,485000.0
2014-02-28,499950.0
2014-01-31,519900.0
2013-12-31,449950.0
2013-11-30,449995.0
2013-10-31,449950.0
2013-09-30,449950.0
2013-08-31,499990.0
2013-07-31,599900.0
2013-06-30,528800.0
2013-05-31,450000.0
2013-04-30,399900.0
2013-03-31,365000.0
2013-02-28,365000.0
2013-01-31,344400.0
2012-12-31,335000.0
