Date,Value
2015-09-30,242300.0
2015-08-31,241100.0
2015-07-31,235700.0
2015-06-30,233200.0
2015-05-31,230900.0
2015-04-30,228000.0
2015-03-31,225600.0
2015-02-28,225300.0
2015-01-31,223500.0
2014-12-31,221800.0
2014-11-30,219600.0
2014-10-31,218000.0
2014-09-30,217600.0
2014-08-31,218100.0
2014-07-31,218100.0
2014-06-30,217500.0
2014-05-31,216200.0
2014-04-30,215000.0
2014-03-31,214400.0
2014-02-28,214200.0
2014-01-31,213000.0
2013-12-31,211100.0
2013-11-30,209600.0
2013-10-31,207700.0
2013-09-30,205000.0
2013-08-31,202100.0
2013-07-31,199400.0
2013-06-30,195200.0
2013-05-31,190600.0
2013-04-30,187000.0
2013-03-31,185000.0
2013-02-28,183500.0
2013-01-31,182300.0
2012-12-31,180900.0
2012-11-30,179200.0
2012-10-31,177000.0
2012-09-30,174600.0
2012-08-31,172400.0
2012-07-31,171100.0
2012-06-30,170800.0
2012-05-31,170600.0
2012-04-30,169600.0
2012-03-31,168400.0
2012-02-29,167700.0
2012-01-31,168100.0
2011-12-31,168700.0
2011-11-30,169600.0
2011-10-31,171000.0
2011-09-30,172300.0
2011-08-31,172900.0
2011-07-31,174000.0
2011-06-30,176300.0
2011-05-31,178300.0
2011-04-30,180500.0
2011-03-31,183200.0
2011-02-28,185900.0
2011-01-31,188000.0
2010-12-31,189400.0
2010-11-30,189100.0
2010-10-31,188100.0
2010-09-30,188600.0
2010-08-31,190600.0
2010-07-31,191700.0
2010-06-30,191000.0
2010-05-31,190700.0
2010-04-30,191100.0
2010-03-31,191500.0
2010-02-28,191600.0
2010-01-31,191500.0
2009-12-31,192600.0
2009-11-30,194900.0
2009-10-31,197100.0
2009-09-30,198300.0
2009-08-31,199200.0
2009-07-31,200900.0
2009-06-30,204200.0
2009-05-31,208400.0
2009-04-30,212100.0
2009-03-31,214600.0
2009-02-28,215800.0
2009-01-31,216900.0
2008-12-31,219000.0
2008-11-30,221700.0
2008-10-31,223800.0
2008-09-30,225400.0
2008-08-31,226300.0
2008-07-31,226700.0
2008-06-30,227800.0
2008-05-31,229700.0
2008-04-30,231300.0
2008-03-31,232100.0
2008-02-29,232900.0
2008-01-31,233700.0
2007-12-31,234400.0
2007-11-30,235700.0
2007-10-31,237700.0
2007-09-30,238800.0
2007-08-31,240200.0
2007-07-31,241800.0
2007-06-30,242700.0
2007-05-31,242600.0
2007-04-30,242800.0
2007-03-31,242800.0
2007-02-28,242700.0
2007-01-31,242100.0
2006-12-31,241000.0
2006-11-30,239500.0
2006-10-31,238400.0
2006-09-30,238200.0
2006-08-31,237300.0
2006-07-31,236400.0
2006-06-30,235300.0
2006-05-31,233500.0
2006-04-30,230700.0
2006-03-31,228500.0
2006-02-28,226800.0
2006-01-31,225600.0
2005-12-31,224400.0
2005-11-30,223300.0
2005-10-31,221400.0
2005-09-30,218700.0
2005-08-31,215300.0
2005-07-31,211500.0
2005-06-30,207300.0
2005-05-31,203200.0
2005-04-30,199600.0
2005-03-31,196000.0
2005-02-28,192600.0
2005-01-31,189700.0
2004-12-31,187300.0
2004-11-30,184500.0
2004-10-31,181600.0
2004-09-30,179300.0
2004-08-31,177600.0
2004-07-31,175600.0
2004-06-30,173700.0
2004-05-31,172400.0
2004-04-30,171000.0
2004-03-31,169400.0
2004-02-29,168500.0
2004-01-31,167500.0
2003-12-31,166100.0
2003-11-30,164600.0
2003-10-31,162800.0
2003-09-30,160800.0
2003-08-31,159600.0
2003-07-31,159000.0
2003-06-30,157900.0
2003-05-31,156700.0
2003-04-30,156000.0
2003-03-31,155500.0
2003-02-28,154800.0
2003-01-31,153700.0
2002-12-31,152600.0
2002-11-30,151900.0
2002-10-31,152100.0
2002-09-30,152300.0
2002-08-31,151800.0
2002-07-31,151100.0
2002-06-30,150600.0
2002-05-31,150500.0
2002-04-30,150600.0
2002-03-31,150400.0
2002-02-28,149500.0
2002-01-31,148700.0
2001-12-31,148200.0
2001-11-30,147600.0
2001-10-31,146900.0
2001-09-30,146700.0
2001-08-31,146500.0
2001-07-31,146200.0
2001-06-30,146300.0
2001-05-31,146300.0
2001-04-30,145700.0
2001-03-31,145400.0
2001-02-28,145700.0
2001-01-31,146000.0
2000-12-31,145500.0
2000-11-30,144600.0
2000-10-31,143900.0
2000-09-30,143300.0
2000-08-31,142600.0
2000-07-31,142400.0
2000-06-30,142100.0
2000-05-31,141100.0
2000-04-30,140200.0
2000-03-31,140000.0
2000-02-29,139900.0
2000-01-31,139200.0
1999-12-31,138600.0
1999-11-30,138600.0
1999-10-31,139100.0
1999-09-30,139900.0
1999-08-31,140900.0
1999-07-31,141300.0
1999-06-30,141200.0
1999-05-31,141100.0
1999-04-30,141100.0
1999-03-31,141100.0
1999-02-28,141100.0
1999-01-31,140800.0
1998-12-31,140400.0
1998-11-30,139600.0
1998-10-31,138700.0
1998-09-30,138100.0
1998-08-31,138000.0
1998-07-31,137900.0
1998-06-30,138000.0
1998-05-31,138200.0
1998-04-30,138800.0
1998-03-31,139200.0
1998-02-28,139000.0
1998-01-31,139000.0
1997-12-31,139100.0
1997-11-30,139000.0
1997-10-31,139100.0
1997-09-30,138800.0
1997-08-31,138100.0
1997-07-31,137400.0
1997-06-30,137100.0
1997-05-31,137000.0
1997-04-30,136400.0
1997-03-31,134600.0
1997-02-28,132700.0
1997-01-31,131600.0
1996-12-31,131000.0
1996-11-30,130500.0
1996-10-31,129800.0
1996-09-30,128400.0
1996-08-31,126800.0
1996-07-31,125400.0
1996-06-30,124200.0
1996-05-31,123400.0
1996-04-30,122300.0
