Date,Value
2015-06-30,572307.6923
2015-04-30,780000.0
2014-09-30,810940.5882
2014-08-31,889230.7692
2014-06-30,860000.0
2013-09-30,668950.0
2013-07-31,424603.8462
2013-05-31,509525.0
2013-03-31,367000.0
2012-11-30,439175.0
2012-10-31,496575.0
2012-09-30,550000.0
2012-08-31,662692.3077
2012-06-30,655000.0
2011-08-31,648888.0
2011-05-31,639117.6471
2011-04-30,645000.0
2010-05-31,638692.3077
2010-03-31,601000.0
2009-11-30,630000.0
2008-08-31,614230.7692
2008-06-30,410992.5
2008-05-31,414685.2941
2008-04-30,349950.0
2007-10-31,611384.6154
2007-08-31,905900.0
2007-07-31,880000.0
2007-06-30,774500.0
2007-04-30,865000.0
2006-11-30,705294.1176
2006-10-31,705723.0769
2006-08-31,759004.65
2006-07-31,748660.85
2006-06-30,744515.5
2006-05-31,762750.0
2006-04-30,708823.5294
2006-03-31,718230.7692
2006-01-31,721600.0
2005-12-31,690930.0
2005-11-30,744650.0
2005-10-31,791075.0
2005-09-30,716800.0
2005-08-31,648110.0
2005-07-31,691429.4118
2005-06-30,600480.7692
2005-04-30,675500.0
2005-03-31,717205.8824
2005-02-28,732692.3077
2004-12-31,612000.0
2004-10-31,617470.0
2004-09-30,614165.0
2004-08-31,651715.0
2004-07-31,632400.0
2004-06-30,604350.0
2004-05-31,567500.0
2004-04-30,535650.0
2004-03-31,520000.0
2004-02-29,416461.5385
2003-12-31,620346.1538
2003-10-31,640650.0
2003-07-31,520900.0
2003-06-30,518983.5
2003-05-31,473711.5
2003-04-30,471545.0
2003-03-31,406352.9412
2003-02-28,392923.0769
2002-12-31,534526.9231
2002-10-31,472653.8462
2002-08-31,487192.5
2002-07-31,449232.5
2002-06-30,432272.5
2002-04-30,511307.5
2002-03-31,476475.0
2002-02-28,449242.5
2002-01-31,429097.0588
2001-12-31,484950.0
2001-09-30,393310.0
2001-08-31,360965.0
2001-06-30,493250.0
2001-05-31,560250.0
2001-03-31,404603.8462
2001-01-31,536420.5882
2000-12-31,550719.2308
2000-10-31,525730.7692
2000-08-31,650500.0
2000-06-30,546150.0
2000-05-31,528303.0
2000-04-30,525837.0
2000-03-31,506364.7059
2000-02-29,519615.3846
1999-12-31,493650.0
1999-11-30,514080.0
1999-10-31,554400.0
1999-09-30,579245.0
1999-08-31,538405.0
1999-07-31,469250.0
1999-06-30,501450.0
1999-04-30,415941.1765
1999-03-31,405576.9231
1999-01-31,351896.5
1998-12-31,282595.0
1998-10-31,443150.0
1998-09-30,430350.0
1998-08-31,437925.0
1998-07-31,452075.0
1998-06-30,495250.0
1998-05-31,562529.4118
1998-04-30,539000.0
1997-10-31,419125.0
1997-09-30,420882.3529
1997-08-31,412000.0
1997-06-30,416430.0
1997-05-31,422098.5
1997-04-30,394760.5882
1997-03-31,416519.2308
1997-01-31,389275.0
1996-12-31,382705.8824
1996-11-30,381000.0
1996-09-30,380294.1176
1996-08-31,373030.7692
1996-06-30,366150.0
1996-05-31,334176.4706
1996-04-30,343000.0
