Date,Value
2015-02-28,1348000.0
2015-01-31,1595000.0
2014-12-31,1050000.0
2014-11-30,985000.0
2014-10-31,1100000.0
2014-09-30,1198000.0
2014-08-31,1388000.0
2014-07-31,1100000.0
2014-06-30,1150000.0
2014-05-31,1098000.0
2014-04-30,1289000.0
2014-03-31,1249950.0
2014-02-28,1100000.0
2014-01-31,1245000.0
2013-12-31,1100000.0
2013-11-30,1155000.0
2013-10-31,1100000.0
2013-09-30,1179900.0
2013-08-31,1185000.0
2013-07-31,1179900.0
2013-06-30,989000.0
2013-05-31,1395000.0
2013-04-30,1249950.0
2013-03-31,1175000.0
2013-02-28,1159500.0
2013-01-31,1175000.0
2012-12-31,1190000.0
2012-11-30,1175000.0
2012-10-31,1175000.0
2012-09-30,1099000.0
2012-08-31,965000.0
2012-07-31,899000.0
2012-06-30,887000.0
2012-05-31,849900.0
2012-04-30,849900.0
2012-03-31,749000.0
2012-02-29,665000.0
2012-01-31,674500.0
2011-12-31,655500.0
2011-11-30,575000.0
2011-10-31,575000.0
2011-09-30,750000.0
2011-08-31,694024.0
2011-07-31,750000.0
2011-06-30,639800.0
2011-05-31,724900.0
2011-04-30,724900.0
2011-03-31,648888.0
2011-02-28,724900.0
2011-01-31,724900.0
2010-12-31,750000.0
2010-11-30,724900.0
2010-10-31,724900.0
2010-09-30,699000.0
2010-08-31,724900.0
2010-07-31,724900.0
2010-06-30,724900.0
2010-05-31,749950.0
2010-04-30,749900.0
2010-03-31,695000.0
2010-02-28,749900.0
2010-01-31,749000.0
2009-12-31,749900.0
2009-11-30,789000.0
2009-10-31,868500.0
2009-09-30,899000.0
2009-08-31,858000.0
2009-07-31,870000.0
2009-06-30,825000.0
2009-05-31,825000.0
2009-04-30,799000.0
2009-03-31,858000.0
2009-02-28,849900.0
2009-01-31,858000.0
2008-12-31,778000.0
2008-11-30,849900.0
2008-10-31,825000.0
