Date,Value
2015-09-30,306000.0
2013-07-31,250000.0
2010-05-31,260000.0
2008-08-31,264390.0
2007-06-30,325000.0
2006-06-30,319642.0
2006-05-31,308383.0
2006-04-30,290729.4118
2006-03-31,306263.3846
2006-01-31,300796.15
2005-12-31,291189.5
2005-11-30,283665.85
2005-10-31,276751.65
2005-09-30,271380.0
2005-08-31,268109.85
2005-07-31,255988.55
2005-06-30,255502.9
2005-05-31,251566.2
2005-04-30,261506.0
2005-03-31,259460.0
2005-02-28,255970.5882
2005-01-31,268823.0769
2004-11-30,259900.0
2004-08-31,282925.0
2003-11-30,222446.0
2003-08-31,223497.0
2002-08-31,205057.0
2001-10-31,179620.0
2001-06-30,182631.1765
2001-05-31,192000.0
1998-06-30,209000.0
1997-08-31,171765.5882
1997-07-31,177835.0
1997-03-31,184000.0
1996-12-31,162825.0
1996-09-30,175075.0
