Date,Value
2015-09-30,1.16
2015-08-31,1.144
2015-07-31,1.136
2015-06-30,1.134
2015-05-31,1.13
2015-04-30,1.122
2015-03-31,1.118
2015-02-28,1.12
2015-01-31,1.118
2014-12-31,1.12
2014-11-30,1.116
2014-10-31,1.108
2014-09-30,1.11
2014-08-31,1.116
2014-07-31,1.122
2014-06-30,1.12
2014-05-31,1.116
2014-04-30,1.116
2014-03-31,1.118
2014-02-28,1.124
2014-01-31,1.12
2013-12-31,1.114
2013-11-30,1.106
2013-10-31,1.096
2013-09-30,1.088
2013-08-31,1.08
2013-07-31,1.07
2013-06-30,1.062
2013-05-31,1.056
2013-04-30,1.048
2013-03-31,1.042
2013-02-28,1.034
2013-01-31,1.024
2012-12-31,1.016
2012-11-30,1.014
2012-10-31,1.01
2012-09-30,1.004
2012-08-31,1.006
2012-07-31,1.002
2012-06-30,0.998
2012-05-31,0.99
2012-04-30,0.98
2012-03-31,0.98
2012-02-29,0.98
2012-01-31,0.984
2011-12-31,0.984
2011-11-30,0.988
2011-10-31,0.984
2011-09-30,0.978
2011-08-31,0.968
2011-07-31,0.96
2011-06-30,0.958
2011-05-31,0.964
2011-04-30,0.964
2011-03-31,0.952
2011-02-28,0.942
2011-01-31,0.93
2010-12-31,0.924
2010-11-30,0.92
