hood,influence,lat,long
Mt. Baker,0.1187199663338867,47.583237,-122.292342
Whittier Heights,0.031711507558088575,47.683059,-122.369514
Lower Queen Anne,0.04673159167702255,47.62414,-122.35631
Haller Lake,0.013752047703357223,47.720027,-122.33389
Dunlap,0.09441019095784488,47.526109,-122.27208
Olympic Manor,0.16063399651386273,47.606209,-122.332071
Madrona,0.0562178192997635,47.613915,-122.288742
Little Saigon,0.16063399651386273,47.606209,-122.332071
Olympic Hills,0.012065475777531727,47.723973,-122.30501
South Delridge,0.02325035839307125,47.526912,-122.360682
Beacon Hill,0.17265125040049104,47.552585,-122.300937
Alki,0.019051834106323037,47.575463,-122.410658
North College Park,0.030933277278728074,47.697236,-122.33761
Minor,0.1109700749134069,47.607515,-122.309073
Jackson Place ,0.2242883298687894,47.598803,-122.310284
Eastlake,0.09674217962337742,47.641765,-122.326487
Crown Hill,0.020803254653715093,47.696062,-122.371798
Broadview,0.011558090999417707,47.720748,-122.367532
Laurelhurst,0.04622419252227247,47.660184,-122.281039
North Beach,0.015826357285188924,47.698279,-122.386521
Madison Park,0.039630250810330274,47.634609,-122.279645
Columbia City,0.4246550746797954,47.559866,-122.286499
Rainier View,0.030442630736948088,47.503821,-122.260378
Wallingford,4.444551718904274,47.661258,-122.329891
Sunset Hill,0.016913108703537273,47.68143,-122.40075
Broadmoor,0.04686546020569059,47.6362,-122.289753
Portage Bay,0.14158208044090967,47.646928,-122.318802
West Woodland,0.0480776940583955,47.66703,-122.368131
Hawthorne Hills,0.03626062925197936,47.672292,-122.277413
South Lake Union,0.05952651486445245,47.62557,-122.334388
Admiral,0.026189650778046754,47.579265,-122.394485
Waterfront,0.1343220441737744,47.605452,-122.340148
Fairmount Park,0.025858665878813657,47.553543,-122.380356
Leschi,0.08980360758095682,47.600309,-122.292811
Riverview,0.03581752750965868,47.544587,-122.352364
Junction,0.026243772859742297,47.563178,-122.386696
Hillman City,1.0757714883505973,47.549469,-122.280412
Ballard,0.023322749037883252,47.679217,-122.386031
Downtown,0.16063399651386273,47.606209,-122.332071
Madison Valley,0.05055830255633214,47.622119,-122.292575
Meadowbrook,0.01850196882209089,47.706592,-122.294822
Cedar Park,0.012186185408231982,47.722128,-122.295926
Windermere,0.027510703115525052,47.670505,-122.265652
Pinehurst,0.016761253433660847,47.713634,-122.32041
Seward Park,2.76050420351858,47.55026,-122.26485
Fremont,0.11279016415799856,47.654177,-122.35
View Ridge,0.025689470067924887,47.684402,-122.273785
Northgate,0.019947772146582218,47.70859,-122.323235
Roxhill,0.020463198714647794,47.52673,-122.369928
Highland Park,0.027556323557632365,47.524698,-122.346023
Greenwood,0.025642977101095053,47.696873,-122.356176
Judkins Park,0.14726141632934608,47.593173,-122.300505
Maple Leaf,0.03125892849640348,47.697595,-122.319047
Ravenna,0.07685808760403641,47.675861,-122.300939
Wedgwood,0.030498251228239067,47.690109,-122.290527
South Park,0.04498853904016817,47.531094,-122.325736
Denny - Blaine,0.04721923381304642,47.621475,-122.286481
Garfield,0.053286482823392683,47.633164,-122.348862
Blue Ridge,0.015826357285188924,47.698279,-122.386521
Industrial District,0.07745660982292552,47.563958,-122.334335
Cascade,0.06380368189244522,47.621969,-122.331715
Bryant,0.05185614526117257,47.670603,-122.28714
High Point,0.029738816178627617,47.550263,-122.369068
Montlake,0.0712110117190153,47.641676,-122.30501
Capitol Hill,0.061583689817924545,47.625305,-122.322183
Holly Park ,0.21273921591122422,47.538914,-122.286104
Lakewood,0.6859742172077464,47.563155,-122.271791
Genesee,0.023563162089737806,47.563306,-122.392791
Victory Heights,0.017165597699531868,47.711406,-122.30569
Gatewood,0.02027486748056704,47.539951,-122.384389
Seaview,0.020798578201434686,47.55229,-122.392991
Fauntleroy,0.016681493301993623,47.523969,-122.383002
Loyal Heights,0.022518963314512697,47.682246,-122.385132
Atlantic,0.22592523585574534,47.59719,-122.308864
North Delridge,0.039284781673616646,47.562347,-122.365478
Magnolia,0.021960307815118745,47.63963,-122.39966
Central,0.07529438801955829,47.608758,-122.296424
Georgetown,0.06504439282395097,47.543172,-122.322136
Westlake,0.05772686157628961,47.632197,-122.341627
South Beacon Hill,0.11415128850292666,47.531799,-122.28876
Rainier Beach,0.04325146389922662,47.512255,-122.263976
First Hill,0.12547704007776544,47.609369,-122.325036
Denny Triangle,0.060553857227751445,47.628132,-122.329114
Bitter Lake,0.011050217909500662,47.726327,-122.352019
International District,0.6050261233117892,47.598712,-122.323976
Pioneer Square,0.2639280698695038,47.601518,-122.334297
Roosevelt,0.11576951535799662,47.678088,-122.315646
North Queen Anne,0.04603180609805702,47.644511,-122.365608
North Beacon Hill,0.1843806558783019,47.579421,-122.311323
Interbay,0.030386204042058346,47.640673,-122.38211
Matthews Beach,0.020165607081148555,47.695897,-122.276218
Green Lake,0.12949242049511506,47.67666,-122.337595
West Queen Anne,0.037491091848596,47.632407,-122.369207
Uptown,0.04673159167702255,47.62414,-122.35631
Phinney Ridge,0.0640245807314147,47.674783,-122.356601
Arbor Heights,0.01391513505586916,47.509502,-122.381167
Yesler Terrace ,0.24431986823484658,47.602803,-122.319687
Brighton,0.218171389281392,47.536055,-122.275231
East Queen Anne,0.060694440580866,47.638823,-122.348868
University District,0.48176035639535525,47.662777,-122.313877
Belltown,0.06946281518305472,47.614702,-122.344796
