hood,influence
Fremont,2.13935598618813
Junction,1.2618087159353817
Central,5.063861055070177
Ravenna,2.0083714324860944
Garfield,9.05274387519982
Seaview,0.667165516918345
Green Lake,2.0246396744706248
Minor,435.0122952479614
Roxhill,0.4623298145506034
Rainier View,0.2334351990146499
Denny - Blaine,2.322467763725879
Broadview,1.4870726726759487
Pioneer Square,59.99448839965372
Beacon Hill,1.1526638781207543
Lower Queen Anne,16.682964217822654
High Point,0.7890725584009207
Industrial District,1.3755324620683156
Blue Ridge,1.0571497042745497
Maple Leaf,5.842918413001851
Greenwood,2.6341344031449987
Broadmoor,1.9107350122418838
View Ridge,0.935229906136741
East Queen Anne,5.079014854257051
Whittier Heights,1.4691354132432801
Riverview,0.7276645750348094
Denny Triangle,25.32454682437484
Wedgwood,1.2145620617194473
Eastlake,4.437145544092606
North Delridge,1.2179111046283866
Capitol Hill,8.203885628575508
Atlantic,9.47131096871061
South Park,0.9206097359252216
Matthews Beach,0.8697972699544912
Mt. Baker,1.9626841746366395
Magnolia,1.5167524990570165
Sunset Hill,1.0070715127518595
Montlake,2.3963793354947844
Victory Heights,2.2146728642067184
Phinney Ridge,1.5732947529060686
Windermere,0.9858045395427378
Haller Lake,6.8603585442245425
Highland Park,0.7642279751160731
Admiral,1.1238235210749303
Little Saigon,120.28429335131558
Olympic Manor,120.28429335131558
South Beacon Hill,0.495924608172277
Fauntleroy,0.38340497143941543
Westlake,6.899445759611789
Leschi,3.514781657528373
South Lake Union,13.721385259467413
Cedar Park,1.1348433180448585
Interbay,2.1397583883460576
Madrona,2.8855084659617662
Downtown,120.28429335131558
North Queen Anne,2.674701717664915
Portage Bay,3.215159218710243
Laurelhurst,2.372700022086918
Dunlap,0.3845239154003954
Judkins Park,3.989602828647779
International District,30.682037300583666
Arbor Heights,0.29791698821971185
South Delridge,0.5367560467049308
Ballard,1.5975763470025732
Pinehurst,6.313517171559543
Loyal Heights,1.3497498734969353
Olympic Hills,1.5024612941136724
Cascade,20.933712807955438
Wallingford,2.333824964626512
Uptown,16.682964217822654
Crown Hill,1.4645319329309845
Yesler Terrace ,18.307276276149885
Waterfront,42.445362982814764
Alki,0.7764379837734408
Hawthorne Hills,1.376506686822893
Lakewood,1.264758354089769
Gatewood,0.5219881250402023
Jackson Place ,11.948973452059413
Madison Valley,2.8656813565653403
Hillman City,1.2578523259582843
Bryant,2.351138579383625
North Beach,1.0571497042745497
Roosevelt,1.9619772800007025
North College Park,5.7824833294600815
Bitter Lake,2.0281532272760634
Brighton,0.5191275904640782
West Queen Anne,4.212398853399708
Georgetown,0.7562110014126046
Genesee,0.9101215714258744
Belltown,273.30454492234855
Holly Park ,0.6189842509780882
Madison Park,1.551487676665085
Rainier Beach,0.27503291961604004
Fairmount Park,0.9034424219704553
Meadowbrook,1.3784660881891964
West Woodland,1.65087623648158
Northgate,30.36451287050015
Seward Park,0.9651525377619115
University District,4.441486534317632
First Hill,29.678645659441663
Columbia City,2.9846122061017386
North Beacon Hill,2.601148987464287
