hood,influence
Fremont,5.714570911255798
Junction,3.1433941421299005
Central,4.704688807531523
Ravenna,1.56428000588244
Garfield,24.644261030854967
Seaview,1.4739465501374207
Green Lake,2.8217341694393996
Minor,7.841226447003596
Roxhill,0.8384679045351512
Rainier View,0.4188737035187481
Denny - Blaine,3.452802940699737
Broadview,0.6768001863936738
Pioneer Square,29.539849794742587
Beacon Hill,1.8449497241389134
Lower Queen Anne,160.56115643020186
High Point,1.521371357211492
Industrial District,2.3037689252365086
Blue Ridge,1.069212799911691
Maple Leaf,1.080285382141243
Greenwood,1.270353926070687
Broadmoor,3.1875733926162324
View Ridge,0.9597688782723863
East Queen Anne,13.968582665608352
Whittier Heights,2.053068163400024
Riverview,1.4024205549207949
Denny Triangle,18.240270729695936
Wedgwood,1.0166269876171277
Eastlake,9.093524026065053
North Delridge,2.2111231334422854
Capitol Hill,15.456858338096033
Atlantic,5.549001326043124
South Park,1.0359033881140411
Matthews Beach,0.8003412184285599
Mt. Baker,2.443726661574728
Magnolia,4.688315068262266
Sunset Hill,1.4449351234034309
Montlake,4.278273300292863
Victory Heights,0.7328993136103443
Phinney Ridge,6.281869544888899
Windermere,1.107495055337768
Haller Lake,0.6808653657768207
Highland Park,0.8555862033025792
Admiral,2.968619440898241
Little Saigon,43.032509959157565
Olympic Manor,43.032509959157565
South Beacon Hill,0.9408207672971202
Fauntleroy,0.7553830541804926
Westlake,22.095933893226455
Leschi,3.6327130927684266
South Lake Union,31.941483105515267
Cedar Park,0.5717007292666798
Interbay,7.545617528062649
Madrona,3.7402307739488556
Downtown,43.032509959157565
North Queen Anne,8.562496487061889
Portage Bay,6.269246613097812
Laurelhurst,1.6665636453693191
Dunlap,0.6606712232149685
Judkins Park,3.807535541328188
International District,10.5020044373409
Arbor Heights,0.573741244435214
South Delridge,0.8676605995602875
Ballard,1.8430545877454874
Pinehurst,0.7488763564386064
Loyal Heights,1.701860191793607
Olympic Hills,0.5758190734117975
Cascade,38.45089173421777
Wallingford,3.6743535209077747
Uptown,160.56115643020186
Crown Hill,1.241111498767291
Yesler Terrace ,11.109197335653262
Waterfront,32.389936411962196
Alki,2.0463799091012236
Hawthorne Hills,1.2515923952870665
Lakewood,1.3256420066622128
Gatewood,1.0779393793824001
Jackson Place ,6.186815988513443
Madison Valley,4.200780135599256
Hillman City,1.2953552431722777
Bryant,1.4733614662378507
North Beach,1.069212799911691
Roosevelt,1.7772487312605603
North College Park,1.2117947342438042
Bitter Lake,0.6103020064341691
Brighton,0.8929184441736132
West Queen Anne,20.89646391479051
Georgetown,1.8676414901123852
Genesee,2.142203166799781
Belltown,99.80141781894648
Holly Park ,1.3418932148869178
Madison Park,2.5170430804766726
Rainier Beach,0.48572598006105133
Fairmount Park,1.7360129649137341
Meadowbrook,0.7558433735113055
West Woodland,4.469826936861807
Northgate,0.8466989719018314
Seward Park,0.9533494689065962
University District,2.6742533532476163
First Hill,24.620157930732432
Columbia City,3.2829399109242026
North Beacon Hill,3.1000106751616268
