hood,influence
Fremont,48.343295419629015
Junction,1684.5275518531398
Central,80.25368982820324
Ravenna,20.855269264606306
Garfield,160.87435521689451
Seaview,96.58184683802445
Green Lake,20.17792303525677
Minor,169.21119258846707
Roxhill,15.84203101464459
Rainier View,5.475899440449761
Denny - Blaine,44.869864474982634
Broadview,7.1807231358529044
Pioneer Square,1143.3648236318904
Beacon Hill,19.988046166825026
Lower Queen Anne,490.8471096679213
High Point,56.98274400969395
Industrial District,38.80183637408474
Blue Ridge,12.662846952457565
Maple Leaf,11.119478045691375
Greenwood,18.74249028864205
Broadmoor,35.999463434336775
View Ridge,10.807833174559308
East Queen Anne,101.69738670496712
Whittier Heights,24.943682209768387
Riverview,27.44014864265384
Denny Triangle,218.34435508394307
Wedgwood,11.146640211163453
Eastlake,67.51684673844974
North Delridge,81.90930151085195
Capitol Hill,213.06467723821368
Atlantic,263.4584011739228
South Park,14.075563259511537
Matthews Beach,8.753952163814679
Mt. Baker,41.176807985141394
Magnolia,76.3773142100687
Sunset Hill,15.49358425302158
Montlake,43.769625342892354
Victory Heights,8.727192897840183
Phinney Ridge,24.123737056176548
Windermere,12.925473314779284
Haller Lake,8.769194583566506
Highland Park,13.760749964562635
Admiral,52.277803063275634
Little Saigon,3685.001484502943
Olympic Manor,3685.001484502943
South Beacon Hill,11.36937538130703
Fauntleroy,14.340811175817812
Westlake,174.5849461544655
Leschi,65.38235998302451
South Lake Union,403.4584498088036
Cedar Park,19.26696171820503
Interbay,147.57854428230644
Madrona,54.083689816644885
Downtown,3685.001484502943
North Queen Anne,80.3042608586308
Portage Bay,46.80923680371819
Laurelhurst,24.504952175839048
Dunlap,22.512024039971777
Judkins Park,79.04430926592183
International District,434.21652651324814
Arbor Heights,9.246617554896766
South Delridge,15.400673767412682
Ballard,20.36012159695707
Pinehurst,8.48797576133078
Loyal Heights,19.491655262010212
Olympic Hills,7.832935405890923
Cascade,518.8840440266476
Wallingford,84.12065788271912
Uptown,490.8471096679213
Crown Hill,20.970618081174344
Yesler Terrace ,412.0911965709361
Waterfront,640.9904030399615
Alki,36.302595057129885
Hawthorne Hills,15.817191059979065
Lakewood,18.309217270527427
Gatewood,32.16712092500384
Jackson Place ,639.2761224746093
Madison Valley,54.49723387711676
Hillman City,18.183392598053107
Bryant,23.289443964365816
North Beach,12.662846952457565
Roosevelt,18.366001755885957
North College Park,13.224544331010128
Bitter Lake,6.577004468873796
Brighton,11.276307557162287
West Queen Anne,219.8224699917215
Georgetown,20.012909256788415
Genesee,287.0749546977718
Belltown,1324.7289687770758
Holly Park ,14.916108641422518
Madison Park,29.570555942144168
Rainier Beach,6.565280421336727
Fairmount Park,154.66982068724576
Meadowbrook,9.952254059071594
West Woodland,30.775278394491323
Northgate,9.418534206760196
Seward Park,13.546122548477
University District,276.0446450713735
First Hill,1472.3845981597765
Columbia City,27.75798881189381
North Beacon Hill,253.0260557491802
