hood,influence
Fremont,69.45559386853085
Junction,161.512106415582
Central,18.09727814103754
Ravenna,7.972889312400669
Garfield,85.89970733278898
Seaview,3.7207820151328628
Green Lake,12.377496165207475
Minor,33.19880410526984
Roxhill,2.7428806255778384
Rainier View,1.3744997675645807
Denny - Blaine,13.264658936755763
Broadview,2.9400503414971744
Pioneer Square,257.05714409862264
Beacon Hill,5.3835621036643255
Lower Queen Anne,206.00874762229995
High Point,4.4777277758499565
Industrial District,8.952470841906582
Blue Ridge,4.964550522306576
Maple Leaf,10.859489709947226
Greenwood,7.90487947490983
Broadmoor,13.009065549756977
View Ridge,4.071826355017918
East Queen Anne,54.71347617838771
Whittier Heights,8.392315857232479
Riverview,6.114530968114341
Denny Triangle,4184.692150080705
Wedgwood,4.83185188375878
Eastlake,40.370676866388436
North Delridge,6.001433721024135
Capitol Hill,135.38164795089034
Atlantic,23.408024497188634
South Park,9.982584339099386
Matthews Beach,3.4449134887895365
Mt. Baker,8.365077226827644
Magnolia,10.09155211407201
Sunset Hill,6.602672761526195
Montlake,19.306213406116136
Victory Heights,5.995756338824333
Phinney Ridge,11.013205042693738
Windermere,4.456632492531985
Haller Lake,4.965186151218156
Highland Park,3.8403867088469177
Admiral,6.235301135499762
Little Saigon,823.9151076224857
Olympic Manor,823.9151076224857
South Beacon Hill,3.282890933366271
Fauntleroy,2.2676454696737913
Westlake,120.68773221680995
Leschi,13.463375814205765
South Lake Union,252.5189792776138
Cedar Park,4.677880265432346
Interbay,16.79300114342614
Madrona,14.49123039759438
Downtown,823.9151076224857
North Queen Anne,28.326406037047196
Portage Bay,23.736872906084283
Laurelhurst,7.735273666955066
Dunlap,2.2351357131230687
Judkins Park,14.250036736002556
International District,72.74223663159292
Arbor Heights,1.7515331934195126
South Delridge,3.119781876646503
Ballard,7.100686678505642
Pinehurst,9.893472754565773
Loyal Heights,7.084217904985394
Olympic Hills,6.956680103101062
Cascade,202.4247377206432
Wallingford,20.371880923919395
Uptown,206.00874762229995
Crown Hill,7.443637868712006
Yesler Terrace ,66.0942947201075
Waterfront,214.38529967168768
Alki,4.425125956878057
Hawthorne Hills,5.519225836733734
Lakewood,3.888972885380966
Gatewood,3.0482018720341606
Jackson Place ,27.410080076211706
Madison Valley,16.679171086818418
Hillman City,4.042704979320339
Bryant,7.568770128818184
North Beach,4.964550522306576
Roosevelt,10.254203584340285
North College Park,32.86988350951765
Bitter Lake,2.9338833326337217
Brighton,2.7505812022680183
West Queen Anne,38.01339941277574
Georgetown,51.067425389659384
Genesee,7.260231040514924
Belltown,280.3708104062239
Holly Park ,3.4839276342917764
Madison Park,9.7282441042975
Rainier Beach,1.6209747578468443
Fairmount Park,4.385826726264759
Meadowbrook,4.153389749420343
West Woodland,12.146877503270831
Northgate,315.97009288223586
Seward Park,2.9485682923317658
University District,30.41628439631513
First Hill,175.89163291280073
Columbia City,4.552611841446964
North Beacon Hill,10.558427721691013
