hood,influence
Fremont,18.754816559167104
Junction,380.43704593854414
Central,42.876671056292714
Ravenna,22.66236131293115
Garfield,44.90914848924184
Seaview,33.0953378897794
Green Lake,18.59460913403126
Minor,871.855558913192
Roxhill,7.273594438105494
Rainier View,2.5100811331448547
Denny - Blaine,20.417774315847552
Broadview,4.05959641648233
Pioneer Square,3834.3476423700017
Beacon Hill,11.971261607493835
Lower Queen Anne,217.88935299943256
High Point,19.14971272109746
Industrial District,19.86378425178274
Blue Ridge,4.578413010594896
Maple Leaf,20.233602147036155
Greenwood,8.182493069815795
Broadmoor,15.257194911100353
View Ridge,7.230759434133726
East Queen Anne,30.74827873617665
Whittier Heights,7.355842514537822
Riverview,11.449225302341487
Denny Triangle,126.74782760610164
Wedgwood,11.955661243065013
Eastlake,27.852447467725845
North Delridge,29.11077720289376
Capitol Hill,56.44231995416256
Atlantic,95.0209805700652
South Park,7.689070278574841
Matthews Beach,6.411852704714144
Mt. Baker,24.179189345781356
Magnolia,11.752220310134177
Sunset Hill,5.068032461615165
Montlake,17.922868714509743
Victory Heights,7.710371619630012
Phinney Ridge,10.171671241220231
Windermere,6.668331217752895
Haller Lake,9.055547783216715
Highland Park,6.116817817625495
Admiral,21.520056294192315
Little Saigon,1327.8378902131208
Olympic Manor,1327.8378902131208
South Beacon Hill,5.3951942915471145
Fauntleroy,5.770664122511776
Westlake,46.54308806930626
Leschi,35.49839798382116
South Lake Union,78.60901697109014
Cedar Park,53.03208334113882
Interbay,17.63739711190948
Madrona,26.369910065556034
Downtown,1327.8378902131208
North Queen Anne,20.98967866407298
Portage Bay,19.552530511076274
Laurelhurst,9.77415587909139
Dunlap,4.009936749711585
Judkins Park,44.83252231084388
International District,711.4682358671508
Arbor Heights,3.8473585586770405
South Delridge,7.73831848471984
Ballard,6.34046630974797
Pinehurst,11.247923169691717
Loyal Heights,6.029778237271612
Olympic Hills,5.201462304603448
Cascade,92.10679919926211
Wallingford,15.180791907168826
Uptown,217.88935299943256
Crown Hill,5.880197815300607
Yesler Terrace ,457.2165782799475
Waterfront,433.01875905861056
Alki,14.381657178901591
Hawthorne Hills,8.587391739244946
Lakewood,8.382460831715276
Gatewood,11.2990172170256
Jackson Place ,119.1798296788732
Madison Valley,24.489731082997437
Hillman City,7.323868999472015
Bryant,11.453588440928934
North Beach,4.578413010594896
Roosevelt,106.37262645202553
North College Park,16.210927191043442
Bitter Lake,4.412654175935988
Brighton,5.1695536990180315
West Queen Anne,44.890396258467156
Georgetown,21.863407309841207
Genesee,117.68573801812944
Belltown,127.94179958182107
Holly Park ,6.23285837754526
Madison Park,12.738832798315016
Rainier Beach,3.973753859939988
Fairmount Park,46.06961490323251
Meadowbrook,7.352203647481111
West Woodland,9.868690167345793
Northgate,330.85709814840556
Seward Park,5.836519874157429
University District,17.673235224862264
First Hill,407.8057666296218
Columbia City,10.153033445948696
North Beacon Hill,32.11741400239343
