hood,influence
Fremont,60.05085087727348
Junction,166.69006072588428
Central,40.3015659488493
Ravenna,12.992790569930941
Garfield,128.4129196304555
Seaview,14.295799287591189
Green Lake,21.860797002114648
Minor,76.07027363664054
Roxhill,7.47313091176248
Rainier View,2.541651893403308
Denny - Blaine,28.51278541670343
Broadview,5.1141914487594455
Pioneer Square,283.7768811006705
Beacon Hill,8.552893847065558
Lower Queen Anne,207.70189075155687
High Point,11.929991859544238
Industrial District,15.611186503851044
Blue Ridge,8.424337303782732
Maple Leaf,12.51548848171375
Greenwood,9.204517160692141
Broadmoor,49.95943976054314
View Ridge,6.914251476877341
East Queen Anne,77.38800295008785
Whittier Heights,12.71999413269681
Riverview,9.495529017450647
Denny Triangle,226.15202871737782
Wedgwood,7.7943893707439535
Eastlake,56.115720585840826
North Delridge,17.61130566717737
Capitol Hill,170.65283335140055
Atlantic,53.19489278823552
South Park,7.261315225065942
Matthews Beach,5.829137305336176
Mt. Baker,18.88043145387055
Magnolia,502.9320930830129
Sunset Hill,10.080143152592631
Montlake,37.593860456688084
Victory Heights,8.792039186525365
Phinney Ridge,14.409821966286337
Windermere,8.000535701659397
Haller Lake,9.534289487320097
Highland Park,6.9751685509154795
Admiral,14.658144685768885
Little Saigon,641.4228888021504
Olympic Manor,641.4228888021504
South Beacon Hill,4.794341527952601
Fauntleroy,5.171626913571613
Westlake,332.5346021024663
Leschi,29.578697044078123
South Lake Union,457.6700983192969
Cedar Park,9.763028328389085
Interbay,27.292874175673518
Madrona,30.79534252193602
Downtown,641.4228888021504
North Queen Anne,39.41244789900804
Portage Bay,39.392104491599646
Laurelhurst,13.374954271768015
Dunlap,4.628802838684505
Judkins Park,31.591908864705893
International District,115.46524529013486
Arbor Heights,3.781231485164829
South Delridge,11.573712292615872
Ballard,11.521602450109754
Pinehurst,22.25559841028534
Loyal Heights,13.009643984798894
Olympic Hills,5.712209516539157
Cascade,762.5461940873314
Wallingford,26.143025666872905
Uptown,207.70189075155687
Crown Hill,11.676986539801163
Yesler Terrace ,134.55187915157128
Waterfront,272.1554651037726
Alki,10.25887608099477
Hawthorne Hills,9.35166772208633
Lakewood,8.181795579201813
Gatewood,7.521553710504287
Jackson Place ,63.15645490986839
Madison Valley,35.671094407938526
Hillman City,6.570844033207667
Bryant,11.77515774411979
North Beach,8.424337303782732
Roosevelt,22.85944836080087
North College Park,12.267504010169
Bitter Lake,7.938883745082472
Brighton,4.7366903672381655
West Queen Anne,56.12805353418285
Georgetown,8.102867480975817
Genesee,34.2754516972715
Belltown,1683.3229826449979
Holly Park ,5.4117679516837605
Madison Park,26.71253797218953
Rainier Beach,3.183202097905898
Fairmount Park,20.690803822956383
Meadowbrook,6.682932452227952
West Woodland,17.19092156952809
Northgate,2217.361858773931
Seward Park,5.591213509808317
University District,78.45384568717293
First Hill,482.70037967192644
Columbia City,14.864616664767768
North Beacon Hill,62.21729057320279
