hood,influence
Fremont,43.0698276908242
Junction,14.520938394372548
Central,33.15188164901153
Ravenna,20.73065705893451
Garfield,86.21557647483169
Seaview,9.806254531439407
Green Lake,43.8394306787303
Minor,50.2752086749387
Roxhill,8.427665102863884
Rainier View,3.321284523660954
Denny - Blaine,25.580347963971462
Broadview,6.124336837375659
Pioneer Square,145.8519789266646
Beacon Hill,11.943588650975013
Lower Queen Anne,601.1414261974832
High Point,13.391421935628781
Industrial District,47.246482456628414
Blue Ridge,7.415113664552904
Maple Leaf,58.661178541888674
Greenwood,14.924303418264618
Broadmoor,25.385180656892953
View Ridge,9.37366148997778
East Queen Anne,56.795353720057484
Whittier Heights,14.595727783702767
Riverview,12.72795931380282
Denny Triangle,466.3467576562588
Wedgwood,10.988704440476972
Eastlake,55.031201778859185
North Delridge,24.50044635015103
Capitol Hill,1596.4144733942614
Atlantic,43.094242955404695
South Park,7.524048142744243
Matthews Beach,7.758743914121375
Mt. Baker,20.403902043765314
Magnolia,141.82690041515522
Sunset Hill,7.804912391603707
Montlake,38.92260004910137
Victory Heights,15.924698418962361
Phinney Ridge,27.772407696343677
Windermere,9.670802955549942
Haller Lake,13.212330815365213
Highland Park,6.644624575697433
Admiral,16.911890582931704
Little Saigon,455.6011222517398
Olympic Manor,455.6011222517398
South Beacon Hill,6.316749329771939
Fauntleroy,5.7443846784718255
Westlake,123.15885206395171
Leschi,25.247877640100096
South Lake Union,246.81533449561772
Cedar Park,7.0626651768810085
Interbay,32.926957831398674
Madrona,26.657566711004858
Downtown,455.6011222517398
North Queen Anne,36.890577439284705
Portage Bay,65.44172340379811
Laurelhurst,18.010104122923487
Dunlap,9.768472245880119
Judkins Park,29.86477828692442
International District,73.3694785679703
Arbor Heights,4.052028234302849
South Delridge,8.329706226821422
Ballard,10.437757321152795
Pinehurst,39.15653203104279
Loyal Heights,10.066787506927223
Olympic Hills,7.948714415408324
Cascade,270.6924352216299
Wallingford,41.268235116915754
Uptown,601.1414261974832
Crown Hill,11.505615219739623
Yesler Terrace ,61.374915870375915
Waterfront,122.72812893726027
Alki,11.248964027331763
Hawthorne Hills,12.329118266255051
Lakewood,9.000220244162444
Gatewood,8.529410687031875
Jackson Place ,43.56367987605875
Madison Valley,33.367305509472516
Hillman City,7.99789676209144
Bryant,18.03857487001664
North Beach,7.415113664552904
Roosevelt,19.753068907648654
North College Park,30.967771617024063
Bitter Lake,6.557001332620355
Brighton,6.2034024604933995
West Queen Anne,106.16874059165922
Georgetown,11.187235590059469
Genesee,12.722028128953593
Belltown,433.02399060509674
Holly Park ,6.971296356987779
Madison Park,18.75506042812882
Rainier Beach,5.387519467357365
Fairmount Park,12.473701233991877
Meadowbrook,10.761961819098573
West Woodland,19.13657166204652
Northgate,2898.6861786744944
Seward Park,6.5396129948262045
University District,47.58587502522552
First Hill,137.94821134406718
Columbia City,11.099019185307666
North Beacon Hill,38.44246753095332
