hood,influence
Fremont,8.995689619767369
Junction,13.50520989955065
Central,14.169635960090423
Ravenna,3.5699835790910104
Garfield,39.81567033831108
Seaview,4.884597077874333
Green Lake,4.347683187122591
Minor,17.087610912888977
Roxhill,8.539375206936278
Rainier View,2.1381450179453374
Denny - Blaine,25.56214244850978
Broadview,1.5555943173610651
Pioneer Square,405.612048163493
Beacon Hill,6.766983067806721
Lower Queen Anne,196.43964249278514
High Point,5.173619570344449
Industrial District,16.470304976453942
Blue Ridge,1.744192816304138
Maple Leaf,4.800258766629678
Greenwood,2.3878771476175897
Broadmoor,8.167102594346723
View Ridge,3.97713876879889
East Queen Anne,22.120839698084755
Whittier Heights,3.103928823247067
Riverview,7.849700993987732
Denny Triangle,129.5655940677327
Wedgwood,2.800669400597848
Eastlake,18.74230908324102
North Delridge,5.152679473312808
Capitol Hill,61.768033237443845
Atlantic,13.406080744932812
South Park,27.174108525213125
Matthews Beach,2.310398906259172
Mt. Baker,5.907122691767454
Magnolia,4.585035919062695
Sunset Hill,2.27514909552494
Montlake,10.094540743819053
Victory Heights,7.5269265071146325
Phinney Ridge,3.86422973224316
Windermere,3.016229814335894
Haller Lake,3.458050529501912
Highland Park,60.21069582317368
Admiral,5.296632085215059
Little Saigon,98.72614197396092
Olympic Manor,98.72614197396092
South Beacon Hill,5.381456001064687
Fauntleroy,5.068317848037801
Westlake,116.80711300632314
Leschi,9.091227056248712
South Lake Union,1235.3630145096706
Cedar Park,5.6045721635984425
Interbay,7.41085425779856
Madrona,21.22831629309038
Downtown,98.72614197396092
North Queen Anne,10.133847114380341
Portage Bay,14.217169758551913
Laurelhurst,3.5960349581521758
Dunlap,3.486532387419886
Judkins Park,9.559404994339
International District,23.800899606962336
Arbor Heights,4.731561907803034
South Delridge,13.904258715105144
Ballard,3.367248318310192
Pinehurst,35.077880967833984
Loyal Heights,2.900385065825156
Olympic Hills,2.9520364990867276
Cascade,366.0176096751607
Wallingford,6.3065161938957885
Uptown,196.43964249278514
Crown Hill,2.078791155575486
Yesler Terrace ,21.730992912347606
Waterfront,61.981785596846045
Alki,3.028991018447516
Hawthorne Hills,3.131545793772284
Lakewood,3.4268459282913164
Gatewood,4.36322391161726
Jackson Place ,14.44814070774495
Madison Valley,62.530071153897744
Hillman City,7.840318501148579
Bryant,3.375208191460072
North Beach,1.744192816304138
Roosevelt,4.364042763106617
North College Park,3.3464964247595708
Bitter Lake,3.7088828332026553
Brighton,4.013492403911065
West Queen Anne,17.63422588580362
Georgetown,9.984471339056663
Genesee,5.875402803701228
Belltown,426.50137925133373
Holly Park ,6.065549038583242
Madison Park,6.467917050702184
Rainier Beach,2.5523871511548863
Fairmount Park,4.723437612144617
Meadowbrook,3.1014865799544418
West Woodland,5.357197601748667
Northgate,23.580904880665344
Seward Park,3.18958204272254
University District,11.384300829128202
First Hill,48.59000524914881
Columbia City,4.506255363022136
North Beacon Hill,9.879073570116494
