hood,influence
Fremont,17.50024198300346
Junction,13.467307498853296
Central,45.268135938888435
Ravenna,8.30838551274043
Garfield,50.44291495093112
Seaview,6.302525725406337
Green Lake,7.973872710829441
Minor,116.04669980313827
Roxhill,4.027971838387146
Rainier View,2.217483972423183
Denny - Blaine,20.287915803224585
Broadview,2.9693500441078573
Pioneer Square,930.5858625118783
Beacon Hill,10.215795166044519
Lower Queen Anne,52.556206040634464
High Point,8.463338536016584
Industrial District,17.910432690563415
Blue Ridge,6.437332560057636
Maple Leaf,4.280255964879595
Greenwood,8.067173053297642
Broadmoor,14.112598620762139
View Ridge,4.21403454557554
East Queen Anne,32.800330155159934
Whittier Heights,7.638044104559919
Riverview,7.4257169596640065
Denny Triangle,40.63218379654524
Wedgwood,4.396103586731236
Eastlake,20.373515900782177
North Delridge,13.397524641654813
Capitol Hill,44.311950133571905
Atlantic,114.82652273705845
South Park,6.601881092622819
Matthews Beach,3.31394706409933
Mt. Baker,25.880287100862283
Magnolia,22.477894332370706
Sunset Hill,5.419047340068792
Montlake,15.682641938968464
Victory Heights,3.042414166071035
Phinney Ridge,8.356391320597462
Windermere,5.116959664155291
Haller Lake,2.8866126312517855
Highland Park,4.464001534585499
Admiral,11.433681984202654
Little Saigon,813.2951064215075
Olympic Manor,813.2951064215075
South Beacon Hill,4.700401196065979
Fauntleroy,3.4818743801700154
Westlake,37.71328662879859
Leschi,39.57411291525987
South Lake Union,102.47282415042687
Cedar Park,2.2833896736550523
Interbay,91.13736473078534
Madrona,27.281759599426934
Downtown,813.2951064215075
North Queen Anne,39.41685468819651
Portage Bay,17.481578271644253
Laurelhurst,12.529623812695997
Dunlap,3.602009091903228
Judkins Park,53.991197335723065
International District,1170.3152116220115
Arbor Heights,2.6351924649571608
South Delridge,4.275621983061119
Ballard,7.092584159117012
Pinehurst,3.4392681395515603
Loyal Heights,7.071389439157383
Olympic Hills,2.2909902652213074
Cascade,63.71194795901644
Wallingford,14.035655975224765
Uptown,52.556206040634464
Crown Hill,8.718760059043257
Yesler Terrace ,744.9081502126371
Waterfront,277.72639594607614
Alki,7.082104166598875
Hawthorne Hills,6.283154687482703
Lakewood,10.20544114467574
Gatewood,5.001595948893249
Jackson Place ,142.84329068945416
Madison Valley,24.14870045633103
Hillman City,7.362737709221458
Bryant,9.260084887747206
North Beach,6.437332560057636
Roosevelt,7.118863520705204
North College Park,4.807763240453266
Bitter Lake,3.230659041999536
Brighton,4.6564588781179985
West Queen Anne,161.80366475965974
Georgetown,10.751340846902055
Genesee,8.474091497340217
Belltown,94.23370551376468
Holly Park ,5.576528991677202
Madison Park,11.97772521789571
Rainier Beach,3.5322857680859303
Fairmount Park,9.036120034518916
Meadowbrook,3.0332587498152637
West Woodland,10.432279408028231
Northgate,5.244616009297809
Seward Park,5.915605497335903
University District,14.176397322575346
First Hill,394.23405172802995
Columbia City,18.370275363403472
North Beacon Hill,35.601202592405514
