hood,influence
Fremont,44.26073045411337
Junction,30.809544369583545
Central,15.52944697042838
Ravenna,4.578475875420622
Garfield,57.456509472138144
Seaview,9.009252901396044
Green Lake,7.175060890804825
Minor,658.7952878256137
Roxhill,4.142405167948896
Rainier View,1.3737503137785456
Denny - Blaine,11.111271723762517
Broadview,2.1285000650768127
Pioneer Square,87.69651307741594
Beacon Hill,8.928112452464045
Lower Queen Anne,222.60262262204762
High Point,9.298397309108775
Industrial District,8.29391604496107
Blue Ridge,2.76761815914697
Maple Leaf,3.0185803946038994
Greenwood,3.274049172270495
Broadmoor,12.696650685717529
View Ridge,2.6516443822887323
East Queen Anne,36.10124909102268
Whittier Heights,4.719424686022141
Riverview,6.5897577408802865
Denny Triangle,57.892164802389566
Wedgwood,2.827227390422565
Eastlake,21.014728491319644
North Delridge,104.85622014325533
Capitol Hill,37.731527442995386
Atlantic,17.88135925204899
South Park,17.823664273781176
Matthews Beach,2.1966435554122534
Mt. Baker,9.352023221594125
Magnolia,12.210829880190984
Sunset Hill,3.805738281921469
Montlake,22.829344586058284
Victory Heights,2.0790977678937876
Phinney Ridge,7.731795140375134
Windermere,3.094640541113705
Haller Lake,3.9451004000149785
Highland Park,5.7082599979402495
Admiral,63.818968929326914
Little Saigon,246.93616549939256
Olympic Manor,246.93616549939256
South Beacon Hill,3.273673427288359
Fauntleroy,4.4543373439507405
Westlake,69.13663311511793
Leschi,11.377397657534171
South Lake Union,124.77643749003064
Cedar Park,1.6236842271015974
Interbay,21.3638709201612
Madrona,11.564297907785056
Downtown,246.93616549939256
North Queen Anne,23.93145729872924
Portage Bay,15.140033243250441
Laurelhurst,5.625929141454595
Dunlap,2.3030221855283135
Judkins Park,15.70000335179203
International District,36.843115932125556
Arbor Heights,2.5499441543351535
South Delridge,4.325715859631091
Ballard,4.862492710059581
Pinehurst,2.281863154811276
Loyal Heights,4.361720520733075
Olympic Hills,1.6975730533090676
Cascade,84.83323193989976
Wallingford,15.928015320140064
Uptown,222.60262262204762
Crown Hill,6.4279390898271
Yesler Terrace ,32.9701498849696
Waterfront,86.92129758505995
Alki,11.660098892558104
Hawthorne Hills,3.539064987376247
Lakewood,4.8256190182104985
Gatewood,6.256427937434659
Jackson Place ,20.297915745607664
Madison Valley,13.046484880271693
Hillman City,15.58992262239607
Bryant,4.243159298690993
North Beach,2.76761815914697
Roosevelt,5.932438981589032
North College Park,3.273286866645706
Bitter Lake,4.548498874028738
Brighton,3.186534747799499
West Queen Anne,91.34676488374691
Georgetown,6.444566711881816
Genesee,16.722146547970986
Belltown,670.0030617388607
Holly Park ,4.353113253368044
Madison Park,160.3883721529644
Rainier Beach,1.6223928247947943
Fairmount Park,13.767872144160613
Meadowbrook,2.097097875709519
West Woodland,8.720479087106185
Northgate,2.4801976593566475
Seward Park,3.793623584165491
University District,10.00024583638893
First Hill,55.92802313528385
Columbia City,11.936507042658224
North Beacon Hill,9.84945746609349
