hood,influence
Fremont,38.07407191928184
Junction,17.011150274166976
Central,29.646991916554814
Ravenna,9.207122225781887
Garfield,288.662317354476
Seaview,15.014748915243983
Green Lake,10.57275241226413
Minor,69.25207276352484
Roxhill,7.349657178456888
Rainier View,1.7501028206823208
Denny - Blaine,24.798917725765744
Broadview,3.1550642289503705
Pioneer Square,178.22526841845794
Beacon Hill,6.157297158038587
Lower Queen Anne,515.9760047586265
High Point,12.289151741381241
Industrial District,11.714046234370374
Blue Ridge,4.7191834108953605
Maple Leaf,6.6272243746540225
Greenwood,6.51519519641732
Broadmoor,21.554760937910036
View Ridge,5.7617514715354945
East Queen Anne,110.27599723366566
Whittier Heights,9.577828422120017
Riverview,8.034866219243852
Denny Triangle,230.64184073633564
Wedgwood,5.5122194680496355
Eastlake,64.73629585438314
North Delridge,9.991059767651624
Capitol Hill,122.28079509840322
Atlantic,92.1554490541532
South Park,4.243645839743767
Matthews Beach,4.34865001199879
Mt. Baker,12.551517192300473
Magnolia,50.51821678020654
Sunset Hill,6.576839280082468
Montlake,28.00410240289579
Victory Heights,8.908592464426981
Phinney Ridge,12.83978835492843
Windermere,6.134747501396786
Haller Lake,4.898100859637672
Highland Park,4.368256885541257
Admiral,9.084835168367183
Little Saigon,6669.664584562036
Olympic Manor,6669.664584562036
South Beacon Hill,3.3352426930980177
Fauntleroy,6.283099536347349
Westlake,667.5605610780476
Leschi,21.90516965285469
South Lake Union,510.23254555538495
Cedar Park,3.557626503897772
Interbay,23.218198743680173
Madrona,22.91578264864114
Downtown,6669.664584562036
North Queen Anne,37.63497436044163
Portage Bay,35.444099015895276
Laurelhurst,9.97265228233285
Dunlap,2.6610888461175835
Judkins Park,24.110670016081507
International District,87.22599034350108
Arbor Heights,3.1279265176199185
South Delridge,6.04847762288276
Ballard,10.706390877591076
Pinehurst,10.496573908254025
Loyal Heights,8.78406519289917
Olympic Hills,3.5303959526509026
Cascade,352.9368136526138
Wallingford,19.182524613543215
Uptown,515.9760047586265
Crown Hill,5.641591937514109
Yesler Terrace ,99.71004391208747
Waterfront,291.1353860742795
Alki,7.036367874800224
Hawthorne Hills,7.119748615498866
Lakewood,5.479615615967609
Gatewood,91.94604649083567
Jackson Place ,145.24973850217265
Madison Valley,28.04226599843482
Hillman City,5.019443184676026
Bryant,9.084179423662205
North Beach,4.7191834108953605
Roosevelt,9.164681974329058
North College Park,6.542599225952215
Bitter Lake,3.073535714439927
Brighton,3.2876521669630527
West Queen Anne,52.619550391563614
Georgetown,5.686104899640787
Genesee,9.681888535767
Belltown,365.1079622616741
Holly Park ,3.8435524121996085
Madison Park,21.182643206422412
Rainier Beach,2.0196415154263474
Fairmount Park,14.389909979814107
Meadowbrook,6.285290486809097
West Woodland,33.56453716898773
Northgate,92.56371002469304
Seward Park,3.8986957240267643
University District,39.11191632403183
First Hill,204.45058499251974
Columbia City,6.584349748403453
North Beacon Hill,14.933737054685741
