hood,influence
Fremont,243.32182420946586
Junction,3.4750395601632484
Central,23.453589087803117
Ravenna,14.469187687100133
Garfield,33.78625291528699
Seaview,2.6197706596547863
Green Lake,10.311136685582433
Minor,130.9265236191948
Roxhill,18.748166404991974
Rainier View,1.0264557089815178
Denny - Blaine,13.429535154956882
Broadview,2.652822892830373
Pioneer Square,133.09509810245507
Beacon Hill,3.6035321991469726
Lower Queen Anne,34.164240541397895
High Point,3.2834913303635456
Industrial District,9.103065394523428
Blue Ridge,3.3691737207669403
Maple Leaf,10.971346903593624
Greenwood,5.20636680367412
Broadmoor,12.815061447473466
View Ridge,6.317656730856755
East Queen Anne,38.55996864840851
Whittier Heights,6.061794341442191
Riverview,3.420558276560381
Denny Triangle,86.36022942965973
Wedgwood,6.27869317772802
Eastlake,26.292487465919027
North Delridge,4.377039960317397
Capitol Hill,113.94736987653613
Atlantic,32.185570058098605
South Park,2.4573960349492854
Matthews Beach,4.35262126024482
Mt. Baker,8.0950416917978
Magnolia,15.505105443606858
Sunset Hill,3.9819792447878335
Montlake,18.314511125619912
Victory Heights,7.441729518934329
Phinney Ridge,9.972586638156304
Windermere,9.414643456883494
Haller Lake,6.30621334637035
Highland Park,3.1843489281097614
Admiral,4.07959666195613
Little Saigon,186.47473652432186
Olympic Manor,186.47473652432186
South Beacon Hill,1.990528334988111
Fauntleroy,5.181229118039423
Westlake,71.72993353600062
Leschi,16.548539487977312
South Lake Union,161.26522384081258
Cedar Park,3.344627367439026
Interbay,12.149814619656144
Madrona,20.239190587391988
Downtown,186.47473652432186
North Queen Anne,33.566287486805045
Portage Bay,27.84655986247449
Laurelhurst,162.5144804159222
Dunlap,1.7036312067528414
Judkins Park,17.00251515949661
International District,118.03946444839488
Arbor Heights,2.643901590383661
South Delridge,8.759117589306184
Ballard,5.570434016135291
Pinehurst,23.829324757610078
Loyal Heights,5.8701503109428375
Olympic Hills,3.774514818251119
Cascade,491.42468173725393
Wallingford,22.170723424726244
Uptown,34.164240541397895
Crown Hill,4.191310678071087
Yesler Terrace ,89.64196303101473
Waterfront,92.38061606472566
Alki,2.922472972550897
Hawthorne Hills,14.664449684649119
Lakewood,3.3389040301481456
Gatewood,2.7733936867192903
Jackson Place ,36.07885774751137
Madison Valley,17.437232098763303
Hillman City,5.863183491810483
Bryant,24.480810525784864
North Beach,3.3691737207669403
Roosevelt,13.074015994683972
North College Park,8.366980478403233
Bitter Lake,2.899379302629128
Brighton,2.0153639537132384
West Queen Anne,17.376183220995376
Georgetown,3.648424578166597
Genesee,3.1250135668601224
Belltown,91.66681057802424
Holly Park ,2.409887588909452
Madison Park,10.014186054756818
Rainier Beach,1.2573983558832873
Fairmount Park,3.0816577612170435
Meadowbrook,4.957780790459266
West Woodland,12.829066595212797
Northgate,2651.4916971806797
Seward Park,2.9287231070912836
University District,34.38259738382603
First Hill,154.708525131116
Columbia City,3.7876380354404704
North Beacon Hill,10.987986699981013
