hood,influence
Fremont,41.26807302431251
Junction,33.95901115458291
Central,70.87817817760494
Ravenna,18.575346947453845
Garfield,228.90368794058065
Seaview,12.382791954109537
Green Lake,20.6307678743081
Minor,218.28245676102551
Roxhill,6.349567305477518
Rainier View,3.30057443355294
Denny - Blaine,36.93756073750244
Broadview,5.492660811317386
Pioneer Square,2607.9279919802075
Beacon Hill,11.98195004966208
Lower Queen Anne,7365.235410807594
High Point,13.041419716273747
Industrial District,22.38557590360491
Blue Ridge,8.02376744934621
Maple Leaf,10.087801088800106
Greenwood,25.032161810493957
Broadmoor,29.547358596641587
View Ridge,8.68135999864336
East Queen Anne,107.33051404774353
Whittier Heights,15.368385036868645
Riverview,10.637576571061276
Denny Triangle,161.6050865203778
Wedgwood,23.419894533807476
Eastlake,64.22229254307685
North Delridge,19.877872947512913
Capitol Hill,137.25333822563414
Atlantic,101.55883239696276
South Park,7.274351388039414
Matthews Beach,7.2823940399607485
Mt. Baker,28.539314353129704
Magnolia,58.59087070179419
Sunset Hill,9.292234932701158
Montlake,38.498897327033895
Victory Heights,9.816030616649249
Phinney Ridge,17.519555217756785
Windermere,10.008928548100553
Haller Lake,6.485150899848405
Highland Park,6.309660989676107
Admiral,19.212963948587635
Little Saigon,1111.06375244341
Olympic Manor,1111.06375244341
South Beacon Hill,6.552949530769672
Fauntleroy,5.782166519306465
Westlake,326.5619076001131
Leschi,77.77232621636571
South Lake Union,269.23684925264365
Cedar Park,869.9732193975663
Interbay,41.22625567014358
Madrona,45.423797997383744
Downtown,1111.06375244341
North Queen Anne,52.57610962636259
Portage Bay,44.56899756757046
Laurelhurst,16.901459979637746
Dunlap,5.139638737542956
Judkins Park,61.88585993664509
International District,474.48282062847755
Arbor Heights,4.291326276419233
South Delridge,6.524367213373489
Ballard,11.86215526881087
Pinehurst,8.847435838922026
Loyal Heights,11.273646784858101
Olympic Hills,13.554895077793436
Cascade,272.5315284508445
Wallingford,27.078684584187513
Uptown,7365.235410807594
Crown Hill,12.301894468559828
Yesler Terrace ,358.57558346177314
Waterfront,1362.6137852916306
Alki,13.154977761204888
Hawthorne Hills,12.162065239289033
Lakewood,10.98814470796281
Gatewood,8.400188367828965
Jackson Place ,123.03409664759415
Madison Valley,45.95642311351233
Hillman City,8.949432153630061
Bryant,17.135100775959597
North Beach,8.02376744934621
Roosevelt,30.394022074295407
North College Park,12.412585785383008
Bitter Lake,5.160625001018093
Brighton,6.614051447635717
West Queen Anne,116.74639788142264
Georgetown,10.066137603746611
Genesee,18.096903777505602
Belltown,13535.184413563491
Holly Park ,11.997296982005947
Madison Park,23.501472907250932
Rainier Beach,3.834121277487511
Fairmount Park,18.039379010165998
Meadowbrook,8.813855546677397
West Woodland,19.01955072064317
Northgate,13.573838898400929
Seward Park,7.6740896461050605
University District,35.942994725433
First Hill,462.0590633592966
Columbia City,12.451460623770785
North Beacon Hill,36.13779389400206
