hood,influence
Fremont,80.93800864322372
Junction,34.326469789369646
Central,97.68462867648938
Ravenna,74.09339571011004
Garfield,209.32005210117597
Seaview,13.7077784666335
Green Lake,32.92147575939877
Minor,185.35894083351135
Roxhill,8.925066920336594
Rainier View,5.092335915563481
Denny - Blaine,66.13375990851029
Broadview,11.10398055423942
Pioneer Square,674.5732236857609
Beacon Hill,18.577171133593357
Lower Queen Anne,280.52620682091856
High Point,15.698977147290416
Industrial District,32.9485292346434
Blue Ridge,17.933875004577025
Maple Leaf,18.810196857858138
Greenwood,22.589737599912123
Broadmoor,56.834801542929995
View Ridge,16.340039108376676
East Queen Anne,132.21417585797766
Whittier Heights,35.22639095751343
Riverview,14.613289050156768
Denny Triangle,622.62217665951
Wedgwood,18.041123001271735
Eastlake,117.86462007438455
North Delridge,23.054146113320673
Capitol Hill,549.3892203227415
Atlantic,113.81266909576952
South Park,10.625678448234476
Matthews Beach,15.683615794279012
Mt. Baker,40.24069671197708
Magnolia,110.82563217119468
Sunset Hill,39.4242943878777
Montlake,74.9825341316175
Victory Heights,23.95430000341701
Phinney Ridge,38.25193475558608
Windermere,18.21484344122005
Haller Lake,16.021202807232232
Highland Park,9.087521236921287
Admiral,24.88287643955118
Little Saigon,1904.699088713406
Olympic Manor,1904.699088713406
South Beacon Hill,9.927020218974441
Fauntleroy,8.111006321171875
Westlake,563.5887734479688
Leschi,68.20666030331756
South Lake Union,2027.3014719988748
Cedar Park,102.182211858428
Interbay,62.27628573431577
Madrona,90.34401874477064
Downtown,1904.699088713406
North Queen Anne,70.86552084623995
Portage Bay,82.50892500934418
Laurelhurst,28.079687880919483
Dunlap,7.9320575948738306
Judkins Park,70.07228301325313
International District,486.1806297880498
Arbor Heights,6.1994145922353345
South Delridge,9.235145279015512
Ballard,76.24861477002376
Pinehurst,19.418410860055314
Loyal Heights,50.01883972467176
Olympic Hills,60.10859694407295
Cascade,4413.278856660406
Wallingford,184.3861131053803
Uptown,280.52620682091856
Crown Hill,20.344673085127095
Yesler Terrace ,267.557917692984
Waterfront,10219.350261049822
Alki,18.498228957794886
Hawthorne Hills,21.57837784063622
Lakewood,58.55467639152616
Gatewood,11.333507774540056
Jackson Place ,132.21565845319174
Madison Valley,84.80280254337677
Hillman City,23.273231278279294
Bryant,29.211155173487086
North Beach,17.933875004577025
Roosevelt,32.513666348296006
North College Park,20.251234058663208
Bitter Lake,11.706781290698267
Brighton,10.287592969998059
West Queen Anne,95.90816707638446
Georgetown,14.552305815174106
Genesee,18.08501614326035
Belltown,813.5666954099479
Holly Park ,14.043257988979743
Madison Park,43.45578325605488
Rainier Beach,5.9116796582811615
Fairmount Park,15.84511799142872
Meadowbrook,21.475442640461438
West Woodland,71.52058968107266
Northgate,18.052424314251432
Seward Park,12.945797918587239
University District,124.99773562088527
First Hill,750.0375481783277
Columbia City,50.326835797250396
North Beacon Hill,49.78775607127324
