Date,Value
2015-02-28,474000.0
2015-01-31,500000.0
2014-12-31,514950.0
2014-11-30,517200.0
2014-10-31,474950.0
2014-09-30,479000.0
2014-08-31,445000.0
2014-07-31,479000.0
2014-06-30,449000.0
2014-05-31,465000.0
2014-04-30,476950.0
2014-03-31,410000.0
2014-02-28,389500.0
2014-01-31,359000.0
2013-12-31,359000.0
2013-11-30,405000.0
2013-10-31,415000.0
2013-09-30,450000.0
2013-08-31,477950.0
2013-07-31,499000.0
2013-06-30,554950.0
2013-05-31,519000.0
2013-04-30,499950.0
2013-03-31,519000.0
2013-02-28,499950.0
2013-01-31,475000.0
2012-12-31,450000.0
2012-11-30,499950.0
2012-10-31,450000.0
2012-09-30,433519.0
2012-08-31,389000.0
2012-07-31,378000.0
2012-06-30,384950.0
2012-05-31,398000.0
2012-04-30,415500.0
2012-03-31,419950.0
2012-02-29,400000.0
2012-01-31,400000.0
2011-12-31,399900.0
2011-11-30,390000.0
2011-10-31,415000.0
2011-09-30,439000.0
2011-08-31,389000.0
2011-07-31,350000.0
2011-06-30,355000.0
2011-05-31,369900.0
2011-04-30,389900.0
2011-03-31,410000.0
2011-02-28,409950.0
2011-01-31,435000.0
2010-12-31,435000.0
2010-11-30,469000.0
2010-10-31,479000.0
2010-09-30,449950.0
2010-08-31,425000.0
2010-07-31,419000.0
2010-06-30,439000.0
2010-05-31,424000.0
2010-04-30,417000.0
2010-03-31,399950.0
2010-02-28,429900.0
2010-01-31,440000.0
2009-12-31,489000.0
2009-11-30,498500.0
2009-10-31,399000.0
2009-09-30,435000.0
2009-08-31,459000.0
2009-07-31,375000.0
2009-06-30,399500.0
2009-05-31,385000.0
2009-04-30,439990.0
2009-03-31,495000.0
2009-02-28,490000.0
2009-01-31,399990.0
2008-12-31,445000.0
2008-11-30,429000.0
2008-10-31,430000.0
