Date,Value
2015-02-28,385000.0
2015-01-31,385000.0
2014-12-31,393000.0
2014-11-30,379500.0
2014-10-31,379950.0
2014-09-30,379500.0
2014-08-31,374950.0
2014-07-31,375000.0
2014-06-30,350000.0
2014-05-31,334500.0
2014-04-30,333000.0
2014-03-31,327000.0
2014-02-28,347000.0
2014-01-31,349950.0
2013-12-31,342500.0
2013-11-30,325000.0
2013-10-31,340000.0
2013-09-30,344000.0
2013-08-31,335000.0
2013-07-31,334950.0
2013-06-30,337950.0
2013-05-31,325000.0
2013-04-30,309800.0
2013-03-31,325000.0
2013-02-28,309000.0
2013-01-31,299900.0
2012-12-31,305000.0
2012-11-30,309950.0
2012-10-31,299950.0
2012-09-30,299000.0
2012-08-31,298950.0
2012-07-31,295000.0
2012-06-30,295000.0
2012-05-31,279000.0
2012-04-30,277000.0
2012-03-31,259950.0
2012-02-29,249950.0
2012-01-31,245000.0
2011-12-31,274900.0
2011-11-30,265000.0
2011-10-31,259000.0
2011-09-30,249950.0
2011-08-31,279950.0
2011-07-31,275000.0
2011-06-30,289950.0
2011-05-31,275000.0
2011-04-30,285000.0
2011-03-31,285000.0
2011-02-28,275990.0
2011-01-31,288000.0
2010-12-31,299000.0
2010-11-30,299950.0
2010-10-31,315000.0
2010-09-30,309900.0
2010-08-31,310000.0
2010-07-31,319950.0
2010-06-30,329000.0
2010-05-31,339000.0
2010-04-30,339950.0
2010-03-31,338500.0
2010-02-28,349950.0
2010-01-31,339950.0
2009-12-31,339950.0
2009-11-30,339000.0
2009-10-31,339000.0
2009-09-30,339000.0
2009-08-31,339000.0
2009-07-31,339000.0
2009-06-30,339000.0
2009-05-31,347975.0
2009-04-30,340000.0
2009-03-31,340000.0
2009-02-28,355000.0
2009-01-31,365000.0
2008-12-31,397500.0
2008-11-30,385000.0
2008-10-31,399950.0
