year,month,cumulativeInfluence
2001,8,2.221373840721957
2002,9,2.269847130035743
2002,10,2.3054481177172996
2003,7,2.3055523070848616
2003,10,2.319910187184874
2003,11,24.066305952398647
2003,12,24.13317274557198
2004,1,24.136336241796506
2004,2,24.863682965748232
2004,3,25.274131949219036
2004,4,26.242617744514526
2004,5,26.580715462959084
2004,6,26.620347067840125
2004,7,28.08718684616547
2004,8,28.56729536696247
2004,9,29.948174448755726
2004,10,31.101157110957736
2004,11,31.31815686641
2004,12,48.480297428865526
2005,1,48.71586391625034
2005,2,48.777764276518184
2005,3,52.765012755564754
2005,4,55.524941160575
2005,5,58.46634882887263
2005,6,58.47475503046585
2005,7,60.52113493956708
2005,8,63.0597654959808
2005,9,67.9103316561313
2005,10,70.39332275917617
2005,11,71.33298001571096
2005,12,72.10941799948439
2006,1,75.89292134762903
2006,2,77.96805263334925
2006,3,81.81651238702207
2006,4,86.4192675171654
2006,5,111.83800031881746
2006,6,117.60380294956072
2006,7,125.4648574104042
2006,8,130.59665301551794
2006,9,137.6227668234349
2006,10,147.43309805502918
2006,11,151.69353393065427
2006,12,154.97730027726317
2007,1,159.30778750816955
2007,2,170.30258348573324
2007,3,178.4806969268064
2007,4,182.90582288368444
2007,5,190.9201373462678
2007,6,199.15902070802625
2007,7,210.407984735358
2007,8,235.88140284789299
2007,9,246.14027892888777
2007,10,282.4428739860177
2007,11,290.8189488753414
2007,12,305.200606054243
2008,1,324.0764122674528
2008,2,339.97281302102783
2008,3,345.9481331189102
2008,4,351.9824568713429
2008,5,361.51080077464155
2008,6,371.5174382206052
2008,7,375.9059240313181
2008,8,404.03735541209676
2008,9,416.20178821693236
2008,10,423.42270847025065
2008,11,433.33432256322624
2008,12,437.70778227294363
2009,1,443.24817426179345
2009,2,449.7229259281319
2009,3,458.3319047021057
2009,4,475.8078052359104
2009,5,478.8367962543579
2009,6,492.0461172443945
2009,7,504.9774450506899
2009,8,510.0464440644038
2009,9,515.2211609595228
2009,10,518.0189560074483
2009,11,525.1010601740472
2009,12,532.1155058506364
2010,1,545.3137153451166
2010,2,547.0411930884045
2010,3,564.925896394808
2010,4,568.6838241052577
2010,5,576.4996339830177
2010,6,581.8135601912614
2010,7,603.5419353844633
2010,8,607.1934025654676
2010,9,620.0716369626095
2010,10,629.0276260728884
2010,11,640.6877249654466
2010,12,647.0211467492111
2011,1,661.2393179513552
2011,2,664.1617909239061
2011,3,674.7044499222162
2011,4,689.492192304951
2011,5,702.6471700661559
2011,6,707.6963922195688
2011,7,711.8046934912513
2011,8,718.8410613660516
2011,9,728.057434695388
2011,10,734.7822776530996
2011,11,740.8599232971384
2011,12,742.3982805216408
2012,1,749.8947399580779
2012,2,752.6312202934603
2012,3,758.1293266599996
2012,4,764.6810555275741
2012,5,767.4566994574998
2012,6,775.6706636636601
2012,7,785.4594571004352
2012,8,815.0779243122212
2012,9,827.3768470471092
2012,10,835.4406735020084
2012,11,839.4823957971123
2012,12,842.1322295932484
2013,1,850.7032284208072
2013,2,857.4000942278188
2013,3,860.1718761079899
2013,4,870.7893001713348
2013,5,877.9955147425794
2013,6,890.7235215953021
2013,7,895.0143484502466
2013,8,907.8873085498101
2013,9,963.0354162555392
2013,10,993.9926255969975
2013,11,1021.6568364993101
2013,12,1036.105042405382
2014,1,1051.0294591835418
2014,2,1062.5517607354468
2014,3,1072.1072711101058
2014,4,1081.430583981003
2014,5,1092.5642180909679
2014,6,1098.3253112491059
2014,7,1129.0716383810206
2014,8,1139.2846050310718
2014,9,1149.034799692527
2014,10,1166.4555341819157
2014,11,1196.2567176507803
2014,12,1208.2465269737017
2015,1,1223.325944393569
2015,2,1241.824173351364
2015,3,1264.4631568108355
2015,4,1270.5181948653521
2015,5,1279.9340211493839
2015,6,1288.3150885948235
2015,7,1296.1509926310368
2015,8,1315.8206834303535
2015,9,1350.4059896477647
2015,10,1370.3262840325024
2015,11,1376.270161976448
2015,12,1380.0274075484722
