year,month,cumulativeInfluence
2001,8,1.9560645039422986
2002,9,2.2340652195231927
2002,10,2.2448370673182443
2003,7,2.2448985881919197
2003,10,2.2523869009549804
2003,11,2.5474237853114094
2003,12,2.56793109739303
2004,1,2.573938214597092
2004,2,4.314665755659373
2004,3,4.656010489598157
2004,4,15.671041467867823
2004,5,17.050129839930857
2004,6,17.366798039455126
2004,7,65.37961325256228
2004,8,65.97235582247632
2004,9,66.07302773852207
2004,10,67.6278442056635
2004,11,68.01654327987283
2004,12,80.8799296051182
2005,1,81.01840166034053
2005,2,81.57900516055709
2005,3,128.05002754829277
2005,4,129.78766616388697
2005,5,132.92744925222422
2005,6,132.93782807702738
2005,7,134.41118954326524
2005,8,148.62687371120646
2005,9,149.8676365161935
2005,10,152.11497809935162
2005,11,154.09944305515205
2005,12,156.45058163453567
2006,1,168.08296557754386
2006,2,178.59917925648614
2006,3,191.0289957771196
2006,4,199.30571795904308
2006,5,221.75610072917397
2006,6,229.7484304067279
2006,7,241.0726234145853
2006,8,253.87965980900742
2006,9,260.0821345476235
2006,10,271.92635561542915
2006,11,275.3308284271649
2006,12,286.9193769716908
2007,1,295.9496831299393
2007,2,321.67406989005957
2007,3,334.63420506240305
2007,4,342.20297519122124
2007,5,358.47227214507865
2007,6,372.71113879298395
2007,7,390.7497136630006
2007,8,512.3924209913326
2007,9,524.1675787354525
2007,10,547.4570226998183
2007,11,563.7388617511699
2007,12,575.1924501920988
2008,1,615.5450502620649
2008,2,623.5586945979984
2008,3,633.3654575227546
2008,4,639.5039188886484
2008,5,659.0429613638481
2008,6,670.8965551479544
2008,7,687.6057911233563
2008,8,693.8537927415553
2008,9,701.1855456129338
2008,10,728.3254620397357
2008,11,731.7674922784727
2008,12,737.3854875995871
2009,1,745.3649334005075
2009,2,755.5417820979427
2009,3,766.4161877685144
2009,4,793.5701290708371
2009,5,796.9453372622971
2009,6,867.9534552108446
2009,7,897.4455554620946
2009,8,937.0399304837613
2009,9,943.366859623275
2009,10,952.830137922157
2009,11,962.0902228099042
2009,12,971.116709216355
2010,1,977.0714850089428
2010,2,980.1463702600503
2010,3,992.2222924537272
2010,4,1000.8682383132638
2010,5,1015.6072078164977
2010,6,1021.8100501823094
2010,7,1030.2485221465747
2010,8,1036.3546291075004
2010,9,1043.5009119646575
2010,10,1052.161245872086
2010,11,1056.404405170777
2010,12,1064.8980029086385
2011,1,1139.2239255255497
2011,2,1163.7047360513345
2011,3,1192.292977854426
2011,4,1560.2252362461518
2011,5,1577.3603370221115
2011,6,1584.1478717890998
2011,7,1595.7581362357446
2011,8,1604.8423156594067
2011,9,1624.5035712210104
2011,10,1636.5876917475919
2011,11,1646.663793814424
2011,12,1650.3479404858235
2012,1,1725.0521437385228
2012,2,1739.2498456857652
2012,3,1745.405773525261
2012,4,1753.8610829727265
2012,5,1762.5053479845449
2012,6,1778.6120664920015
2012,7,1825.108466531798
2012,8,1842.389227536011
2012,9,1856.6341232518864
2012,10,1867.7972997268896
2012,11,1880.679401691159
2012,12,1884.9569911161884
2013,1,1894.640063687195
2013,2,1911.5593313539775
2013,3,1918.8974490740452
2013,4,1944.4582962972581
2013,5,1957.8157476508645
2013,6,1979.9623666299215
2013,7,2027.3928406712362
2013,8,2061.6148214827494
2013,9,2078.0459641459415
2013,10,2109.8230066939586
2013,11,2133.6138457836037
2013,12,2145.48212412975
2014,1,2178.8039025705825
2014,2,2194.2207936090513
2014,3,2205.35122203953
2014,4,2236.4492602985633
2014,5,2251.8085193005372
2014,6,2261.763010128395
2014,7,2292.5543578320435
2014,8,2313.8322015531076
2014,9,2326.5544599784303
2014,10,2347.9516319852964
2014,11,2384.290962246805
2014,12,2404.3759438714196
2015,1,2416.3089975238167
2015,2,2445.5201526973037
2015,3,2465.8564413581275
2015,4,2480.891526281248
2015,5,2493.2121247282853
2015,6,2550.3021069339284
2015,7,2563.522958766788
2015,8,2589.066299870514
2015,9,2626.2013433315187
2015,10,2644.314179113562
2015,11,2656.9400766569765
2015,12,2659.747227309775
