year,month,cumulativeInfluence
2001,8,0.6818893358395511
2002,9,1.015087399318505
2002,10,1.0198080846052413
2003,7,1.0198443707101756
2003,10,1.023710721301841
2003,11,1.1849307229471362
2003,12,1.1963726575277085
2004,1,1.1981077456159197
2004,2,1.6813213197412935
2004,3,1.8229459029459234
2004,4,5.157195914135228
2004,5,5.658050902931059
2004,6,5.701106942545289
2004,7,13.463194404886517
2004,8,14.892698518783073
2004,9,14.93800299799214
2004,10,15.724133437267147
2004,11,15.989717984537045
2004,12,22.765406348502783
2005,1,22.81901626881429
2005,2,23.68629456834173
2005,3,26.457205915136047
2005,4,27.373986675162147
2005,5,28.552679782170763
2005,6,28.55611791326779
2005,7,29.12781864253447
2005,8,29.987223521158505
2005,9,30.31413019612663
2005,10,31.810858715636456
2005,11,33.59398922414575
2005,12,34.72883254219061
2006,1,37.73806637637407
2006,2,40.243221765037376
2006,3,52.31083966820275
2006,4,55.3950107063695
2006,5,68.23793095037182
2006,6,74.69320773853207
2006,7,233.10163884380086
2006,8,237.47382777098628
2006,9,244.2258897326857
2006,10,247.9973894561941
2006,11,249.3350119611144
2006,12,254.57404594080424
2007,1,257.2969502435516
2007,2,387.7400217995363
2007,3,395.13864416247947
2007,4,399.8165244279118
2007,5,404.16341408897216
2007,6,417.80748005111917
2007,7,424.8701452280002
2007,8,464.1923117077382
2007,9,473.9553400361273
2007,10,493.22230175433236
2007,11,510.745639961725
2007,12,563.7777233028638
2008,1,574.2507798538386
2008,2,590.716029504993
2008,3,602.1796248846866
2008,4,604.6225785605885
2008,5,609.8203550228144
2008,6,613.7246563378328
2008,7,616.6594922970597
2008,8,618.823018745906
2008,9,624.7223009202537
2008,10,645.6752559606928
2008,11,648.127839327687
2008,12,650.8655137578392
2009,1,812.6234355100175
2009,2,842.1717287627114
2009,3,845.8704676698045
2009,4,860.4597636695745
2009,5,866.0643358331729
2009,6,881.2039915978178
2009,7,949.1886499374772
2009,8,954.3815427456819
2009,9,957.8466981220896
2009,10,961.3693798795534
2009,11,963.6527695532085
2009,12,968.464355096879
2010,1,970.4712406684163
2010,2,972.4860380057091
2010,3,977.3612273599497
2010,4,996.3377481370685
2010,5,1306.9721675321969
2010,6,1308.9235402297031
2010,7,1331.5985069253713
2010,8,1335.7961014126438
2010,9,1339.902949167594
2010,10,1344.8624202150122
2010,11,1346.4861044421139
2010,12,1348.9975078571606
2011,1,1412.501078938512
2011,2,1415.845706305951
2011,3,1422.8299184069135
2011,4,1799.898695627593
2011,5,2669.871915025159
2011,6,2672.4967972237705
2011,7,2677.754352832745
2011,8,2681.3119793366427
2011,9,2709.078400815129
2011,10,2714.193496154173
2011,11,2720.1667962359547
2011,12,2722.33036770921
2012,1,2732.1290886372703
2012,2,2913.61556028316
2012,3,2916.6062412495335
2012,4,2920.238800355442
2012,5,2928.9973216824806
2012,6,2933.9775389282445
2012,7,2942.1447293164283
2012,8,2949.3691829518257
2012,9,2957.698779911914
2012,10,2960.939864824583
2012,11,2965.2820178857974
2012,12,3188.5087557983215
2013,1,3191.2189402290924
2013,2,3197.6542690915157
2013,3,3200.178636997748
2013,4,3209.404128725307
2013,5,3234.173633308008
2013,6,3239.4779189344713
2013,7,3271.8070042975314
2013,8,3278.09888416831
2013,9,3416.1295509798583
2013,10,3428.9806052905583
2013,11,3438.8456134575003
2013,12,3442.781859105064
2014,1,3450.8824351572594
2014,2,3455.2300786149167
2014,3,3462.4044166350395
2014,4,3482.4994652572836
2014,5,3488.6211837250344
2014,6,3492.3749867828037
2014,7,3504.251527476054
2014,8,3787.080846662013
2014,9,3792.71028628096
2014,10,3813.9001147036497
2014,11,3825.8875792248105
2014,12,3831.0279700732317
2015,1,3835.4630982443045
2015,2,3937.6453101027328
2015,3,3946.695032116892
2015,4,3953.6781369725177
2015,5,4025.0779468493515
2015,6,4076.278298751395
2015,7,4079.94147913967
2015,8,4444.134576471621
2015,9,4456.413044545143
2015,10,4464.698277196166
2015,11,4469.166105878694
2015,12,4470.399922476306
