year,month,cumulativeInfluence
2001,8,2.3738739317113606
2002,9,2.4161446557318977
2002,10,2.46713961440537
2003,7,2.4672763762318035
2003,10,2.4877665616620073
2003,11,46.37924537134808
2003,12,46.489799350281416
2004,1,46.49323288714779
2004,2,47.164014467227304
2004,3,47.57251063777058
2004,4,48.55755787489759
2004,5,48.85435169903635
2004,6,48.89885271484852
2004,7,50.313407416001475
2004,8,50.85393903971612
2004,9,80.09509878162649
2004,10,81.11541955088698
2004,11,81.2900570399948
2004,12,98.85313291968511
2005,1,99.07770551414457
2005,2,99.13287655192242
2005,3,104.40388702634442
2005,4,107.6797994198816
2005,5,110.5763737366101
2005,6,110.5843134129211
2005,7,112.72651657972088
2005,8,115.20010951563722
2005,9,180.4578500801693
2005,10,183.16944047144526
2005,11,184.34250816115778
2005,12,185.25262973258364
2006,1,191.10355143794644
2006,2,193.75359836803835
2006,3,199.32693847833804
2006,4,204.77824561640708
2006,5,223.10857768539304
2006,6,228.89259674927553
2006,7,281.6247755975574
2006,8,287.8672767631067
2006,9,295.82662774295386
2006,10,306.6905664038096
2006,11,312.09520860865143
2006,12,316.2947060487333
2007,1,322.4956296336768
2007,2,333.3974970515564
2007,3,348.09408499147355
2007,4,355.35431603198845
2007,5,363.8232067161232
2007,6,370.7638163039395
2007,7,383.4858444328931
2007,8,399.4380592436339
2007,9,433.7135109409054
2007,10,720.7884656386772
2007,11,732.7026708274102
2007,12,850.3884088455396
2008,1,880.086562151555
2008,2,916.6917136564446
2008,3,923.403302789243
2008,4,932.117653213422
2008,5,980.8076889678521
2008,6,989.8203180871033
2008,7,1010.9074477464204
2008,8,1041.2060154835158
2008,9,1100.8300751691063
2008,10,1110.152174934365
2008,11,1190.206896150433
2008,12,1200.5465447713484
2009,1,1209.0758431093411
2009,2,1216.745899563601
2009,3,1240.1191033840557
2009,4,1257.6044418059143
2009,5,1263.4798446096156
2009,6,1281.603948782022
2009,7,1308.3859644338743
2009,8,1313.6791094511811
2009,9,1323.837391324323
2009,10,1326.9788191396165
2009,11,1335.4529106369566
2009,12,1343.475821064148
2010,1,1431.5242547506546
2010,2,1433.3187374576064
2010,3,1450.2592523374817
2010,4,1454.3774335207845
2010,5,1469.896659544756
2010,6,1475.343700967245
2010,7,1484.817921280631
2010,8,1491.0728399931982
2010,9,1504.3145640287084
2010,10,1513.673040316519
2010,11,1530.3951868644901
2010,12,1536.9113163435502
2011,1,1555.135522941442
2011,2,1558.2605365083023
2011,3,1568.5647667941769
2011,4,1584.8854332942276
2011,5,1602.9823370717331
2011,6,1615.4435396385568
2011,7,1619.7029840445118
2011,8,1629.3848725802789
2011,9,1640.2739669749658
2011,10,1650.5617733688766
2011,11,1656.813605419957
2011,12,1660.0363714439093
2012,1,1667.3096102972186
2012,2,1670.3321091749317
2012,3,1675.864859484444
2012,4,1682.346744606843
2012,5,1686.857333822322
2012,6,1710.126578675633
2012,7,1720.154694701294
2012,8,1952.2569459140832
2012,9,1965.3041888409916
2012,10,1976.2075392784068
2012,11,1980.1198172301476
2012,12,1983.4763898500296
2013,1,1992.9973780117848
2013,2,1997.149213189641
2013,3,2000.0557641662845
2013,4,2011.7726138517726
2013,5,2023.2622716302499
2013,6,2044.3680165826706
2013,7,2048.9683220160045
2013,8,2210.0821442107067
2013,9,2854.9063947541863
2013,10,2886.7960542355795
2013,11,2916.801507517976
2013,12,2946.8116343963334
2014,1,2961.369270500525
2014,2,2979.3282176912353
2014,3,2988.5820969054125
2014,4,2998.463625853806
2014,5,3014.09520552663
2014,6,3020.7476609825144
2014,7,3062.416831115536
2014,8,3095.3970920689685
2014,9,3103.703695346488
2014,10,3120.3369720334745
2014,11,3153.419204506986
2014,12,3166.5414475136645
2015,1,3178.80698824129
2015,2,3196.8920043845505
2015,3,3220.3609929000395
2015,4,3226.399575987624
2015,5,3258.4271374993195
2015,6,3270.964240076356
2015,7,3285.45806450952
2015,8,3309.3169400951365
2015,9,3344.6193103972037
2015,10,3351.7551676520206
2015,11,3361.8754873028493
2015,12,3366.517849493569
