year,month,cumulativeInfluence
2001,8,2.203634610881309
2002,9,2.235917568326761
2002,10,2.3009122410662375
2003,7,2.3013446633470274
2003,10,2.4608017588887177
2003,11,3.8712194220963974
2003,12,9.92870874043781
2004,1,9.93281503854013
2004,2,10.427516458263439
2004,3,10.733765790583957
2004,4,11.861019546648544
2004,5,12.228360921943487
2004,6,12.28847437520287
2004,7,13.719912581764689
2004,8,14.248224465252513
2004,9,14.696244498717046
2004,10,19.112923466625514
2004,11,19.241305109820928
2004,12,33.01162902451203
2005,1,33.31699834230288
2005,2,33.36154635634309
2005,3,44.874322699142056
2005,4,48.48196892403212
2005,5,50.85041204981026
2005,6,50.85634491941375
2005,7,52.723986409526134
2005,8,54.86593301229471
2005,9,56.50635317192104
2005,10,59.044377218254695
2005,11,62.41453969488357
2005,12,63.170750696296174
2006,1,67.75116911870373
2006,2,69.92178200277357
2006,3,106.9950890625177
2006,4,114.55528733263273
2006,5,132.3551229296444
2006,6,138.83389434171127
2006,7,146.89800938405816
2006,8,153.41277266270993
2006,9,169.05291925666896
2006,10,180.1549717465304
2006,11,197.25295644219085
2006,12,256.80531351741325
2007,1,261.93363097727274
2007,2,271.92746995954957
2007,3,282.1470903732769
2007,4,333.2145157629363
2007,5,350.27554606959865
2007,6,360.89836615651984
2007,7,372.0856017465793
2007,8,383.50557383633554
2007,9,391.60844131731136
2007,10,411.6213505740998
2007,11,427.3308768917568
2007,12,449.194284201598
2008,1,466.269167573442
2008,2,490.44827381955844
2008,3,498.4041876007161
2008,4,519.9086654073288
2008,5,533.4596094530267
2008,6,555.1519560291084
2008,7,560.7017003286999
2008,8,571.9546356900163
2008,9,583.5304258304004
2008,10,597.6261995262215
2008,11,604.6435177044829
2008,12,611.2042075646356
2009,1,631.8963399887676
2009,2,642.6164474495442
2009,3,652.2542325847655
2009,4,686.4277727088372
2009,5,696.4122440478939
2009,6,730.4685083465503
2009,7,738.7040879761264
2009,8,746.8958845373556
2009,9,752.2179408996975
2009,10,757.2942027282269
2009,11,768.0455435751289
2009,12,773.6852176548722
2010,1,799.1563769705281
2010,2,800.6811847723911
2010,3,812.3733819839827
2010,4,818.1549101712684
2010,5,831.7835902777813
2010,6,835.3876641876402
2010,7,856.3504144124825
2010,8,859.8057380865085
2010,9,867.5780306314049
2010,10,875.6793323688491
2010,11,882.123899080731
2010,12,888.344936172659
2011,1,948.1853255137812
2011,2,951.8337500919478
2011,3,959.6001565396864
2011,4,996.663435044244
2011,5,1006.7295726479906
2011,6,1015.6535266395879
2011,7,1019.9258729954078
2011,8,1025.6119778950485
2011,9,1036.4291460012319
2011,10,1043.299080093493
2011,11,1048.9101980645712
2011,12,1050.5879225048593
2012,1,1074.9670682052665
2012,2,1086.63030379873
2012,3,1091.8685430648627
2012,4,1097.8324887881352
2012,5,1101.0440187301012
2012,6,1106.79171099613
2012,7,1115.2153696433325
2012,8,1135.7087185413382
2012,9,1150.4189574671993
2012,10,1161.104710009435
2012,11,1166.4248373101027
2012,12,1171.4723962428748
2013,1,1179.9178049524335
2013,2,1186.1135558672556
2013,3,1191.0944762043682
2013,4,1203.5051408754816
2013,5,1214.6950051419392
2013,6,1229.177194877631
2013,7,1234.4010019969728
2013,8,1245.3154478475499
2013,9,1328.8132124426209
2013,10,1366.0287281226133
2013,11,1418.0068847777832
2013,12,1426.7931637419238
2014,1,1461.9154830448444
2014,2,1511.5837811325332
2014,3,1522.40440896898
2014,4,1533.0025067550243
2014,5,1547.3387729166643
2014,6,1561.1544144789561
2014,7,1590.3832387383616
2014,8,1620.0709841320347
2014,9,1627.6754726409395
2014,10,1644.5734190629792
2014,11,1672.5695173905438
2014,12,1682.5055530780285
2015,1,1706.6660855729956
2015,2,1721.2183913881697
2015,3,1743.6891602977664
2015,4,1749.6366470106564
2015,5,1760.4794890004764
2015,6,1777.5827931477054
2015,7,1789.8732689770177
2015,8,1810.933733872772
2015,9,1861.0853473414243
2015,10,1872.8884904014917
2015,11,1884.3393697307197
2015,12,1891.0981713356525
