year,month,cumulativeInfluence
2001,8,2.7499135651873745
2002,9,2.940397226524915
2002,10,2.958327530863263
2003,7,2.958388932927979
2003,10,2.9662171874659027
2003,11,3.9118626245636485
2003,12,3.9397617594203833
2004,1,3.944062309365117
2004,2,6.083552098642571
2004,3,6.914710769020422
2004,4,9.25920221228226
2004,5,11.551135962082245
2004,6,11.59986264381428
2004,7,15.471804525398447
2004,8,16.040787214620696
2004,9,16.227142539535183
2004,10,32.2462699771904
2004,11,35.26193828932206
2004,12,61.05155697557153
2005,1,61.42795917047019
2005,2,61.62843119498558
2005,3,65.88560347780053
2005,4,71.02667212764666
2005,5,76.44590801212274
2005,6,76.46496889141113
2005,7,81.1532839596734
2005,8,86.03470985222859
2005,9,87.24337692127878
2005,10,144.07988611418617
2005,11,145.58532897861016
2005,12,147.10208147766718
2006,1,153.0757134942203
2006,2,157.933088926468
2006,3,163.7138367667864
2006,4,184.31486051222
2006,5,195.90123550342585
2006,6,210.07959366763268
2006,7,231.25144640498823
2006,8,240.82927352112245
2006,9,251.70710967881
2006,10,268.9610647986963
2006,11,293.0104063828458
2006,12,297.9146615696098
2007,1,308.2422102881084
2007,2,340.18360630548466
2007,3,357.5801475961968
2007,4,367.6716997102688
2007,5,547.7690259422749
2007,6,561.8750118283136
2007,7,703.7019122434689
2007,8,728.4504841170244
2007,9,1231.3825772000373
2007,10,1307.759891410106
2007,11,1318.159458566104
2007,12,1329.911678876238
2008,1,2800.7370327599983
2008,2,2824.01963293362
2008,3,2833.421666099413
2008,4,2841.101113933223
2008,5,2854.832248516946
2008,6,2896.6865812035253
2008,7,2904.215776019674
2008,8,2914.3827416207105
2008,9,2929.3947646895467
2008,10,2944.61897539489
2008,11,2948.986601262175
2008,12,2955.498256884861
2009,1,3058.799421551704
2009,2,3072.4530475355373
2009,3,3124.0172386019767
2009,4,3172.4027134237326
2009,5,3176.9877493427953
2009,6,3190.060155494316
2009,7,3209.7830546635146
2009,8,3219.1202977494713
2009,9,3229.8999839058542
2009,10,3237.4396267271213
2009,11,3259.917521059492
2009,12,3363.2944410801065
2010,1,3676.6539715253143
2010,2,3681.908562389973
2010,3,3725.2119580244475
2010,4,3829.44923305465
2010,5,3836.117911735982
2010,6,3854.581054034968
2010,7,3869.9212013860297
2010,8,4541.199132741875
2010,9,4557.090624078913
2010,10,4572.702277905272
2010,11,4584.913107785464
2010,12,4596.004229618247
2011,1,4609.423861965573
2011,2,4624.928967409181
2011,3,4665.653494930821
2011,4,4687.262334933477
2011,5,4745.8532056352715
2011,6,4756.565849208773
2011,7,4768.442768934254
2011,8,4818.960985714461
2011,9,4831.229285525316
2011,10,4854.497840358624
2011,11,4904.6490695631
2011,12,5239.893884836522
2012,1,5251.342756771538
2012,2,5257.724543151089
2012,3,5344.162809308689
2012,4,5375.113210850072
2012,5,5381.938406924177
2012,6,5394.287372157605
2012,7,5415.477788154066
2012,8,5440.730826216651
2012,9,5492.34214810681
2012,10,5502.241180154377
2012,11,5522.783261925665
2012,12,5590.474152576049
2013,1,5609.825529478955
2013,2,5621.724014526082
2013,3,5629.17865037229
2013,4,5649.789836868017
2013,5,5658.293086376009
2013,6,5710.554416147165
2013,7,5717.582488025031
2013,8,5729.400084824641
2013,9,5760.53314228663
2013,10,5812.099661930875
2013,11,5855.5412684021885
2013,12,5940.8427570692265
2014,1,5974.710677000549
2014,2,5995.395979167851
2014,3,6013.156013320188
2014,4,6033.008917819412
2014,5,6056.715085156698
2014,6,6066.887811078517
2014,7,6121.023099731107
2014,8,6149.223748309721
2014,9,6166.358342519649
2014,10,6194.141959673526
2014,11,6240.480892321419
2014,12,6260.700547400756
2015,1,6279.566481372532
2015,2,6390.392113543727
2015,3,6423.884667403928
2015,4,6488.786272272002
2015,5,6589.736355856513
2015,6,6611.97839553417
2015,7,6625.579644390751
2015,8,6666.054668993573
2015,9,6724.2345841946835
2015,10,6739.109289924517
2015,11,6760.838094002215
2015,12,6766.060691856278
