year,month,cumulativeInfluence
2001,8,1.1464222417570342
2002,9,2.4050211503163803
2002,10,2.412111849728212
2003,7,2.4121561540616345
2003,10,2.4171885644271054
2003,11,2.654829147862186
2003,12,2.6706411979767677
2004,1,2.673500926819123
2004,2,3.759710844580683
2004,3,4.030151201772443
2004,4,11.555910775773626
2004,5,12.806142396507402
2004,6,12.948527940092943
2004,7,50.91169463245129
2004,8,52.30074692597112
2004,9,52.3687365883628
2004,10,54.03274891138584
2004,11,54.62282342428472
2004,12,74.41147128191618
2005,1,74.50415185929695
2005,2,77.18457383089168
2005,3,83.82153556365253
2005,4,85.60318776087448
2005,5,87.58830865855055
2005,6,87.59464023072029
2005,7,88.67492561286153
2005,8,90.37082240235868
2005,9,91.01532081982363
2005,10,95.33230567918645
2005,11,97.33444367872268
2005,12,103.17736209172453
2006,1,115.77275322715288
2006,2,121.02429450015514
2006,3,145.70949384565864
2006,4,155.06126963328572
2006,5,227.84601774410183
2006,6,277.6168269862036
2006,7,285.4326091086017
2006,8,301.61083096147115
2006,9,306.28119709243055
2006,10,314.254759415587
2006,11,316.95948074719
2006,12,324.3654954973779
2007,1,331.9915569687177
2007,2,351.0103593412058
2007,3,376.863427296509
2007,4,387.7229170064562
2007,5,403.15224191032354
2007,6,539.5752645383557
2007,7,598.2364430802444
2007,8,984.6654677864924
2007,9,997.1809562682062
2007,10,1008.3004343138975
2007,11,1025.0613893432
2007,12,1045.2949914902363
2008,1,1080.8885867222689
2008,2,1089.836921601268
2008,3,1099.7878440375744
2008,4,1104.8068982534949
2008,5,1112.513284555912
2008,6,1121.2783412304177
2008,7,1127.6959141539535
2008,8,1132.927997448789
2008,9,1145.238131745745
2008,10,1165.5082140842924
2008,11,1168.0779292382613
2008,12,1171.8471664416884
2009,1,1181.2666585303837
2009,2,1190.3550082736347
2009,3,1198.455993914269
2009,4,1224.9741261993054
2009,5,1229.774384965935
2009,6,1536.2000278461937
2009,7,1591.415894293468
2009,8,1603.389100005906
2009,9,1610.1034405786957
2009,10,1616.5032291594346
2009,11,1620.7834851243142
2009,12,1626.7852398148498
2010,1,1630.1854800272417
2010,2,1635.2928256383955
2010,3,1643.9879228393515
2010,4,1656.5122463144623
2010,5,1671.868467488129
2010,6,1679.2252596432854
2010,7,1688.4057917378923
2010,8,1700.7032178111124
2010,9,1706.9852174730518
2010,10,1714.7090377846012
2010,11,1717.7276181792051
2010,12,1722.416305226001
2011,1,1742.2465752025146
2011,2,1753.2179221061083
2011,3,1768.5194851259266
2011,4,1803.7616270930878
2011,5,1813.8494281818878
2011,6,1818.2561747698394
2011,7,1826.0350943259486
2011,8,1832.6623187006028
2011,9,1844.9593373393234
2011,10,1855.26277652778
2011,11,1880.7976138685392
2011,12,1884.140342544476
2012,1,1898.10041403561
2012,2,1913.745846144306
2012,3,1923.557010239736
2012,4,1929.8099081626317
2012,5,1933.4678230685286
2012,6,1950.2382887024767
2012,7,1980.6312438192629
2012,8,2024.2926825933766
2012,9,2036.889927884371
2012,10,2044.463136499832
2012,11,2055.501614623711
2012,12,2067.553421347466
2013,1,2074.734159431049
2013,2,2088.6915763070992
2013,3,2105.0948826381064
2013,4,2122.0511392855096
2013,5,2220.7178299316
2013,6,2234.1217863581232
2013,7,2245.3766582455455
2013,8,2266.6112421273447
2013,9,2353.4097174690887
2013,10,2375.515007841819
2013,11,2397.731741063741
2013,12,2409.8739410670164
2014,1,2428.9219404208866
2014,2,2437.115693255242
2014,3,2452.1590991610356
2014,4,2486.5355810530714
2014,5,2497.2519890058434
2014,6,2506.556810919605
2014,7,2529.9456699303864
2014,8,2550.532996267678
2014,9,2564.4655172420253
2014,10,2578.087706637061
2014,11,2603.596493220447
2014,12,2613.207822154509
2015,1,2625.4437503915915
2015,2,2644.2539472494495
2015,3,2656.948617280617
2015,4,2673.9536068647826
2015,5,2712.2511618332805
2015,6,2899.6348309532877
2015,7,2915.692334745554
2015,8,2939.057263643257
2015,9,2961.7464644392594
2015,10,2969.1456276814383
2015,11,2979.4398143836333
2015,12,2982.1856268266383
