year,month,cumulativeInfluence
2001,8,0.8388345536699101
2002,9,0.859325061226591
2002,10,0.873303172034045
2003,7,0.8813908907426509
2003,10,1.0420078338508874
2003,11,1.4286806843042095
2003,12,1.623265134157974
2004,1,1.6251569221936943
2004,2,1.8423628932248222
2004,3,1.9608412275593308
2004,4,2.477158921444704
2004,5,28.6373739116531
2004,6,28.655079379149406
2004,7,29.444750608148553
2004,8,29.632306242943333
2004,9,29.75009044151857
2004,10,30.142365715532325
2004,11,30.216010049640374
2004,12,35.39229458871186
2005,1,35.454157454855675
2005,2,35.483519490748286
2005,3,37.88061550978658
2005,4,38.89393358605671
2005,5,39.85565844929222
2005,6,39.858228940485674
2005,7,40.34395492054672
2005,8,41.24614586105903
2005,9,42.12861219176328
2005,10,42.89764513826577
2005,11,43.52171324632532
2005,12,43.79674616594136
2006,1,45.13731530681054
2006,2,45.831765182797774
2006,3,48.43243320965635
2006,4,50.41839135874
2006,5,53.45134995951145
2006,6,56.24859816438602
2006,7,58.283073063096914
2006,8,60.32702452627695
2006,9,63.128114676905774
2006,10,67.06306639476918
2006,11,71.62866283225884
2006,12,72.9302650307184
2007,1,74.57719313081355
2007,2,78.62992200876889
2007,3,81.92920653218056
2007,4,83.5501812900274
2007,5,87.1686570227016
2007,6,90.32697000080086
2007,7,95.71448946815822
2007,8,102.14537476174269
2007,9,105.32857685964859
2007,10,111.89385728098532
2007,11,114.55164531730857
2007,12,118.52539917724856
2008,1,124.70464519924498
2008,2,130.8605925084109
2008,3,132.95244229741095
2008,4,135.9398882795895
2008,5,142.76762446727375
2008,6,145.96647007032655
2008,7,148.01036792337484
2008,8,150.5566242429508
2008,9,155.4964958780539
2008,10,173.4058484532116
2008,11,174.99434562046227
2008,12,176.459668632331
2009,1,178.93635582061387
2009,2,181.16397637894778
2009,3,183.80538133771904
2009,4,190.70906617832384
2009,5,193.2614533294787
2009,6,200.57306188306617
2009,7,203.85693299976933
2009,8,210.79674221717403
2009,9,226.26132620031166
2009,10,227.87915344121961
2009,11,231.41143920930554
2009,12,233.7451876538905
2010,1,262.501701102727
2010,2,263.09185201378915
2010,3,267.92549313882296
2010,4,269.2202501168371
2010,5,271.93892612417113
2010,6,273.13763111117504
2010,7,275.8035031399089
2010,8,277.34370522886525
2010,9,279.89652483167583
2010,10,282.61289463568335
2010,11,284.23528746047816
2010,12,289.930713083024
2011,1,294.82842381281364
2011,2,296.08582216869695
2011,3,299.43923127725407
2011,4,305.28909039886645
2011,5,309.12321167635395
2011,6,314.13135294456765
2011,7,315.57118354448704
2011,8,317.5908250599134
2011,9,320.974782553212
2011,10,323.30918623684994
2011,11,325.3114237329634
2011,12,325.82462387154135
2012,1,328.3028060523093
2012,2,329.53989283422254
2012,3,331.2773034775499
2012,4,333.64873053008137
2012,5,334.7618134217696
2012,6,337.0261586300988
2012,7,340.4256952165461
2012,8,347.13286465503876
2012,9,351.6964620304859
2012,10,354.67688356210635
2012,11,356.04186961889764
2012,12,357.0264641259257
2013,1,359.5573598935348
2013,2,361.255664945263
2013,3,365.8983964255619
2013,4,369.5177322690139
2013,5,372.2480617460093
2013,6,377.7229618425866
2013,7,379.5749218961946
2013,8,382.1553481991394
2013,9,390.51538396468595
2013,10,401.3182348788639
2013,11,416.09029411637005
2013,12,418.8274446298306
2014,1,424.05572059956944
2014,2,429.1633992017124
2014,3,445.204893543118
2014,4,448.73325171251423
2014,5,452.13571255409374
2014,6,454.44923553161016
2014,7,464.9449449761075
2014,8,468.55874192936943
2014,9,471.3258037407951
2014,10,475.6750644004841
2014,11,486.6247317305889
2014,12,490.74786018854167
2015,1,494.11014978429773
2015,2,500.0218294425789
2015,3,509.09250007267195
2015,4,511.6412991596857
2015,5,513.3692006264367
2015,6,516.5857424670569
2015,7,519.2268201445268
2015,8,527.611771056321
2015,9,539.4572527690311
2015,10,541.8815459592731
2015,11,544.1739905257398
2015,12,545.6838698919107
