year,month,cumulativeInfluence
2001,8,1.8572249053409788
2002,9,2.2948503376926057
2002,10,2.3050854240120406
2003,7,2.305142361422315
2003,10,2.3120059146200425
2003,11,2.610219762191892
2003,12,2.6298435162289375
2004,1,2.635088911845777
2004,2,4.654228124087686
2004,3,5.015033748840782
2004,4,15.696830415890638
2004,5,17.486102417571345
2004,6,18.938926531053742
2004,7,266.2726147194518
2004,8,266.97231040475026
2004,9,267.0687197548705
2004,10,268.9736088748332
2004,11,269.4839714965531
2004,12,282.7774297754412
2005,1,282.9169928140654
2005,2,284.1044052458845
2005,3,332.54581160564544
2005,4,334.4739836473042
2005,5,337.5884043889621
2005,6,337.5988619290168
2005,7,339.1631419348992
2005,8,343.5988298461682
2005,9,345.15366830319255
2005,10,347.5368990949238
2005,11,349.38598112122935
2005,12,351.39435255371546
2006,1,369.6114042339483
2006,2,385.49747183222706
2006,3,594.1518773013863
2006,4,603.216554039728
2006,5,631.688520767726
2006,6,640.7847702455258
2006,7,656.0012332205993
2006,8,1096.0311257289268
2006,9,1102.245831410669
2006,10,1114.5363833094787
2006,11,1118.1796073417172
2006,12,1127.4195123182337
2007,1,1138.1358182554773
2007,2,1180.9108744886873
2007,3,1194.136035133211
2007,4,1202.1089244456116
2007,5,1222.7750149637077
2007,6,1239.9147511536494
2007,7,1260.6454082125838
2007,8,1413.536361820145
2007,9,1426.529152390076
2007,10,1447.3844216546822
2007,11,1469.7758140053922
2007,12,1492.4381753183234
2008,1,1546.6053363430462
2008,2,1554.256716744304
2008,3,1562.7837792959076
2008,4,1568.9993962476397
2008,5,1587.4865703468572
2008,6,1601.626187289312
2008,7,1620.0705775052404
2008,8,1627.3218706538448
2008,9,1636.2214682455035
2008,10,1667.8284450672277
2008,11,1670.7285253035068
2008,12,1677.7075101525825
2009,1,1688.8362569508113
2009,2,1698.639215341527
2009,3,1710.2968503447614
2009,4,1739.4318725769233
2009,5,1743.0018561560144
2009,6,1790.6653439797758
2009,7,1829.1635521105834
2009,8,1863.6637777548406
2009,9,1870.3441739694715
2009,10,1880.3385375496853
2009,11,1888.6469230624257
2009,12,1897.5963003620664
2010,1,1902.5364310590273
2010,2,1906.3487380486117
2010,3,2427.1398111975304
2010,4,2436.3795499845983
2010,5,2464.867281045021
2010,6,2471.4025715525822
2010,7,2480.2125018867196
2010,8,2489.29297412974
2010,9,2497.0616953154426
2010,10,2506.385291862609
2010,11,2510.9637677380297
2010,12,2519.6464274704517
2011,1,2586.4600454278334
2011,2,2600.9292331149336
2011,3,2627.558241964315
2011,4,2736.5778553351315
2011,5,2755.1532022825854
2011,6,2763.545138786911
2011,7,2777.126621934612
2011,8,2786.333744160394
2011,9,2818.0486066863814
2011,10,2831.1675272348925
2011,11,2845.245469073533
2011,12,2848.343083637262
2012,1,2904.0585298617075
2012,2,2974.734069379233
2012,3,2981.739847571056
2012,4,2990.104660887953
2012,5,2998.1927404440635
2012,6,3013.787479903879
2012,7,3080.6742843208717
2012,8,3112.4723468147363
2012,9,3126.2775244485424
2012,10,3136.271680422031
2012,11,3150.31580056877
2012,12,3157.258092997278
2013,1,3165.2965426857227
2013,2,3205.9649760849966
2013,3,3214.5216258096752
2013,4,3251.4003424191887
2013,5,3268.1708730860805
2013,6,3288.4185348090587
2013,7,3316.2847214883946
2013,8,3388.8760972379587
2013,9,3405.838593503832
2013,10,3439.2261699964415
2013,11,3463.642708403765
2013,12,3476.0708895799553
2014,1,3517.8784248479296
2014,2,3530.5134234455604
2014,3,3542.989927818149
2014,4,3618.549931501129
2014,5,3634.305318851377
2014,6,3644.9144270581037
2014,7,3679.3064441269566
2014,8,3705.3482746248874
2014,9,3720.8599664970807
2014,10,3744.947828763338
2014,11,3778.60426406363
2014,12,3796.4474691583987
2015,1,3808.432458799685
2015,2,3882.525854509795
2015,3,3901.220988419348
2015,4,3916.1361403393926
2015,5,3928.3341509738843
2015,6,3989.6741950824685
2015,7,4071.3456092952824
2015,8,4098.460488625099
2015,9,4137.573400869013
2015,10,4153.087544252165
2015,11,4164.05013756236
2015,12,4166.800813682425
