year,month,cumulativeInfluence
2001,8,1.1873651847205902
2002,9,1.8689363615179166
2002,10,1.8769412958071234
2003,7,1.8769834345145149
2003,10,1.8818232083951858
2003,11,2.240653320610987
2003,12,2.271781217049153
2004,1,2.27411425039946
2004,2,3.3082152570427468
2004,3,4.114848516274552
2004,4,6.577578323587259
2004,5,11.30933528804727
2004,6,11.336359754650669
2004,7,16.21307958309016
2004,8,16.99409402625989
2004,9,17.07582524622773
2004,10,58.34132409353286
2004,11,66.38619858518412
2004,12,740.6180822805356
2005,1,740.7371615082458
2005,2,741.2824495535092
2005,3,743.8631159293091
2005,4,759.3823800913417
2005,5,761.534445078626
2005,6,761.5415756887077
2005,7,762.9865108121111
2005,8,764.6191602327859
2005,9,765.2039314376193
2005,10,769.607666052439
2005,11,770.424531661363
2005,12,771.4316031741148
2006,1,775.4145255190527
2006,2,777.5951973509583
2006,3,782.3413678760207
2006,4,809.2362702651067
2006,5,817.1912531991165
2006,6,824.909888317671
2006,7,834.015164843906
2006,8,839.3568892276999
2006,9,843.9535826164808
2006,10,856.0475006536558
2006,11,863.7419843398021
2006,12,870.8177082258737
2007,1,880.5890932558535
2007,2,904.3834654625292
2007,3,910.961175028817
2007,4,917.5638477903432
2007,5,928.1053218272356
2007,6,944.0230155113343
2007,7,951.827927902938
2007,8,969.078322302809
2007,9,979.1584654554017
2007,10,994.6520497084233
2007,11,1000.3622301870636
2007,12,1005.4302626486788
2008,1,1020.855763810684
2008,2,1027.4787971498909
2008,3,1031.7165707468232
2008,4,1035.2426100007397
2008,5,1052.2409771208431
2008,6,1062.5611979099715
2008,7,1066.857178785855
2008,8,1075.0623828064552
2008,9,1080.5403491075972
2008,10,1088.2834718042743
2008,11,1097.1305014306356
2008,12,1100.4019341414878
2009,1,1105.5399679554912
2009,2,1111.4676879750525
2009,3,1118.496421859467
2009,4,1149.9296275743395
2009,5,1152.2047766698645
2009,6,1162.2651743664728
2009,7,1172.5733432274462
2009,8,1178.764117512338
2009,9,1183.359753609286
2009,10,1187.732306075908
2009,11,1193.1513534159767
2009,12,1199.0438573962754
2010,1,1200.9861665262638
2010,2,1208.051360979223
2010,3,1220.1495673006762
2010,4,1223.544274360187
2010,5,1227.7056600094627
2010,6,1233.9923099009236
2010,7,1239.044871313049
2010,8,1246.622552632946
2010,9,1271.9684242681542
2010,10,1278.2956590595372
2010,11,1282.1013973414588
2010,12,1286.8226568143798
2011,1,1296.0153685468065
2011,2,1299.9973477915944
2011,3,1338.0781179414255
2011,4,1351.3265850150456
2011,5,1360.6188199477467
2011,6,1365.9270045482765
2011,7,1377.8732422254668
2011,8,1384.4500815055492
2011,9,1391.1733756122799
2011,10,1419.1692755756526
2011,11,1432.8396954482696
2011,12,1444.6585644908027
2012,1,1451.352888068087
2012,2,1461.8160468387532
2012,3,1467.9875071614313
2012,4,1474.7171636689473
2012,5,1477.7507502942908
2012,6,1485.6608360783923
2012,7,1497.028655328189
2012,8,1507.637614907523
2012,9,1519.906999678326
2012,10,1524.8081543089127
2012,11,1593.2745839601926
2012,12,1596.4670914684832
2013,1,1602.8019218624843
2013,2,1609.6297079185715
2013,3,1614.515144728295
2013,4,1623.9561523943614
2013,5,1631.7759254553712
2013,6,1642.0390536399814
2013,7,1646.6117637060122
2013,8,1659.7006498413814
2013,9,1690.2269897858112
2013,10,1712.788648524184
2013,11,1739.482186436427
2013,12,1746.9642533040335
2014,1,1764.849918712317
2014,2,1773.538380024088
2014,3,1812.6839736557815
2014,4,1824.854294538433
2014,5,1834.3217277676156
2014,6,1838.7673437350832
2014,7,1860.341766742798
2014,8,1881.303280184239
2014,9,1888.3427222496844
2014,10,1903.2302262304972
2014,11,1928.2532847889233
2014,12,1937.2429339875098
2015,1,1943.818938831616
2015,2,1983.2432332194937
2015,3,2001.1558313695534
2015,4,2009.5604717504837
2015,5,2016.5071986934308
2015,6,2048.022310469459
2015,7,2054.389761436795
2015,8,2070.5700224340726
2015,9,2094.4700208091667
2015,10,2100.6039856447487
2015,11,2143.312694658183
2015,12,2145.2752789371384
