year,month,cumulativeInfluence
2001,8,1.5142537057591274
2002,9,4.589105963727874
2002,10,4.5979332306379
2003,7,4.597978827906289
2003,10,4.603314374423403
2003,11,4.947501138447815
2003,12,4.972253936731031
2004,1,4.9752929182724595
2004,2,6.607376462108933
2004,3,7.593789807320314
2004,4,12.180531920149997
2004,5,20.17056591703044
2004,6,20.210557425531245
2004,7,31.458828469556657
2004,8,32.51730553525264
2004,9,32.60446370058603
2004,10,38.349282583584255
2004,11,43.294004816548664
2004,12,69.58783838658512
2005,1,69.72468167922423
2005,2,71.00782055710313
2005,3,74.97761295013467
2005,4,85.87228307639897
2005,5,88.59605673280544
2005,6,88.60507453832558
2005,7,90.65814270172561
2005,8,92.68139006787013
2005,9,93.52892894749414
2005,10,95.80656864875054
2005,11,97.68986532977868
2005,12,99.15900074302196
2006,1,106.5515865800587
2006,2,110.05345197667256
2006,3,117.6936697306668
2006,4,147.01412040752842
2006,5,160.3249150361318
2006,6,172.54012299615786
2006,7,181.9455284432033
2006,8,189.90202237557412
2006,9,196.43818641484376
2006,10,210.46698413296912
2006,11,215.29586515918552
2006,12,219.26215184549574
2007,1,235.24969193127407
2007,2,267.7157936020524
2007,3,278.27626578193195
2007,4,286.6685816391644
2007,5,300.43937732354743
2007,6,321.1586764424955
2007,7,335.7544042261983
2007,8,365.6345481213741
2007,9,378.3545422540709
2007,10,403.2982244638393
2007,11,412.6529375733502
2007,12,420.008780087888
2008,1,446.24387437908814
2008,2,455.5663174302706
2008,3,461.2391138806946
2008,4,466.0435707789616
2008,5,483.021720732755
2008,6,497.969639635085
2008,7,503.77735070277157
2008,8,512.9378118345455
2008,9,523.8641506913391
2008,10,536.9815918437678
2008,11,545.1537786229712
2008,12,549.5847948856446
2009,1,556.2692600589555
2009,2,567.9984971763736
2009,3,577.9190687520311
2009,4,615.5587330575433
2009,5,618.6626618807904
2009,6,637.4301432777892
2009,7,653.8854405327083
2009,8,664.0404205820536
2009,9,669.7647446573812
2009,10,677.2879888701675
2009,11,684.9260329747274
2009,12,693.9321815303595
2010,1,696.3653363620176
2010,2,705.7289463771648
2010,3,720.7605444194735
2010,4,725.3573043308085
2010,5,733.6317595939463
2010,6,738.5763200848671
2010,7,745.8780455937081
2010,8,757.9306862889941
2010,9,779.5086851582037
2010,10,787.571380605533
2010,11,792.2908052915552
2010,12,798.5961543398195
2011,1,813.3094220736481
2011,2,819.3712164150903
2011,3,868.8838906148877
2011,4,888.4096321210274
2011,5,903.778017157896
2011,6,911.2396744817808
2011,7,929.546576279255
2011,8,939.1244047013749
2011,9,949.9957727457154
2011,10,1009.2747721126456
2011,11,1027.8781770086582
2011,12,1080.985494934149
2012,1,1091.0571718022497
2012,2,1105.7064370459764
2012,3,1114.6037528718298
2012,4,1122.8307079979663
2012,5,1127.531799237184
2012,6,1155.773778797861
2012,7,1175.5120451362138
2012,8,1189.799450205016
2012,9,1202.9734945974888
2012,10,1213.3404813931277
2012,11,1257.9440607841111
2012,12,1263.8708438374395
2013,1,1272.0980159081532
2013,2,1284.7445230669796
2013,3,1293.2779901153378
2013,4,1306.844317007985
2013,5,1323.1665322506133
2013,6,1337.2954854672469
2013,7,1344.0686867617403
2013,8,1363.4757948779932
2013,9,1389.5268252252754
2013,10,1418.3217654593632
2013,11,1463.6190391723753
2013,12,1474.2771044853382
2014,1,1498.2110288923236
2014,2,1509.6985340749416
2014,3,1542.0240723596546
2014,4,1566.7498823134838
2014,5,1579.1083281042547
2014,6,1585.065334079236
2014,7,1614.5164442459652
2014,8,1651.9656247646478
2014,9,1661.4400282944962
2014,10,1683.9168357916474
2014,11,1761.5254337297372
2014,12,1773.651502266754
2015,1,1782.097100443398
2015,2,1817.3234914009113
2015,3,1842.5807153019855
2015,4,1874.537264471791
2015,5,1896.998382497549
2015,6,1943.5907558645513
2015,7,1952.0000794144485
2015,8,1973.5450251132743
2015,9,2004.551016426188
2015,10,2012.475209206746
2015,11,2065.851230955784
2015,12,2068.2663900765556
