Date,Value
2015-06-30,995.0
2015-05-31,1150.0
2015-04-30,1050.0
2015-03-31,875.0
2015-02-28,750.0
2015-01-31,800.0
2014-12-31,750.0
2014-11-30,750.0
2014-10-31,800.0
2014-09-30,850.0
2014-08-31,850.0
2014-06-30,795.0
2014-05-31,800.0
2014-04-30,1000.0
2014-03-31,900.0
2014-02-28,850.0
2014-01-31,850.0
2013-12-31,850.0
2013-11-30,795.0
2013-10-31,750.0
2013-09-30,750.0
2013-08-31,775.0
2013-07-31,750.0
2013-06-30,850.0
2013-05-31,995.0
2013-04-30,850.0
2013-03-31,675.0
2013-02-28,650.0
2013-01-31,650.0
2012-12-31,700.0
2012-11-30,700.0
2012-10-31,750.0
2012-09-30,750.0
2012-07-31,650.0
2012-05-31,950.0
2012-04-30,790.0
2012-03-31,775.0
2012-02-29,728.0
2012-01-31,750.0
2011-12-31,700.0
2011-11-30,800.0
2011-10-31,850.0
2011-09-30,750.0
2011-08-31,850.0
2011-07-31,750.0
2011-06-30,750.0
2011-05-31,550.0
2011-04-30,550.0
