Date,Value
2015-07-31,349999.0
2015-04-30,288349.0
2007-04-30,336764.7059
2007-03-31,325000.0
2006-07-31,274500.0
2005-09-30,277058.8235
2005-08-31,293846.1538
2005-06-30,313482.3529
2005-05-31,275600.0
2004-11-30,325000.0
2004-06-30,279961.5385
2004-04-30,220000.0
2003-03-31,239705.8824
2003-02-28,225000.0
2002-08-31,241588.2353
2002-07-31,201000.0
2001-06-30,195730.7692
2001-04-30,188911.7647
2001-03-31,194500.0
2000-08-31,185692.3077
2000-06-30,188000.0
1999-12-31,194500.0
1998-06-30,276153.8462
1998-04-30,200000.0
