Date,Value
2015-09-30,159600.0
2015-08-31,152700.0
2015-07-31,152900.0
2015-06-30,156300.0
2015-05-31,155800.0
2015-04-30,156900.0
2015-03-31,156200.0
2015-02-28,155000.0
2015-01-31,153700.0
2014-12-31,152600.0
2014-11-30,151300.0
2014-10-31,149800.0
2014-09-30,148400.0
2014-08-31,148300.0
2014-07-31,149000.0
2014-06-30,148900.0
2014-05-31,145900.0
2014-04-30,144300.0
2014-03-31,144900.0
2014-02-28,145600.0
2014-01-31,144100.0
2013-12-31,140400.0
2013-11-30,136100.0
2013-10-31,136200.0
2013-09-30,137500.0
2013-08-31,136000.0
2013-07-31,131400.0
2013-06-30,124700.0
2013-05-31,120200.0
2013-04-30,120300.0
2013-03-31,121400.0
2013-02-28,122000.0
2013-01-31,123000.0
2012-12-31,123300.0
2012-11-30,123000.0
2012-10-31,121900.0
2012-09-30,119300.0
2012-08-31,117300.0
2012-07-31,117200.0
2012-06-30,118300.0
2012-05-31,117700.0
2012-04-30,116600.0
2012-03-31,115900.0
2012-02-29,115700.0
2012-01-31,115300.0
2011-12-31,115500.0
2011-11-30,116200.0
2011-10-31,117200.0
2011-09-30,118700.0
2011-08-31,120000.0
2011-07-31,121800.0
2011-06-30,126100.0
2011-05-31,131800.0
2011-04-30,135700.0
2011-03-31,138000.0
2011-02-28,139700.0
2011-01-31,141800.0
2010-12-31,144500.0
2010-11-30,146800.0
2010-10-31,147700.0
2010-09-30,149100.0
2010-08-31,151300.0
2010-07-31,154200.0
2010-06-30,156700.0
2010-05-31,157800.0
2010-04-30,156200.0
2010-03-31,154700.0
2010-02-28,155100.0
2010-01-31,157100.0
2009-12-31,159500.0
2009-11-30,162500.0
2009-10-31,166100.0
2009-09-30,169500.0
2009-08-31,172300.0
2009-07-31,172800.0
2009-06-30,172500.0
2009-05-31,173400.0
2009-04-30,175800.0
2009-03-31,178000.0
2009-02-28,180000.0
2009-01-31,182400.0
2008-12-31,185300.0
2008-11-30,187400.0
2008-10-31,188700.0
2008-09-30,189700.0
2008-08-31,191400.0
2008-07-31,193000.0
2008-06-30,194200.0
2008-05-31,195700.0
2008-04-30,197900.0
2008-03-31,199400.0
2008-02-29,200000.0
2008-01-31,200500.0
2007-12-31,201200.0
2007-11-30,202900.0
2007-10-31,204400.0
2007-09-30,205400.0
2007-08-31,205300.0
2007-07-31,204200.0
2007-06-30,203900.0
2007-05-31,204300.0
2007-04-30,204200.0
2007-03-31,203600.0
2007-02-28,202800.0
2007-01-31,201100.0
2006-12-31,198900.0
2006-11-30,196300.0
2006-10-31,192800.0
2006-09-30,189900.0
2006-08-31,188200.0
2006-07-31,187200.0
2006-06-30,185100.0
2006-05-31,182800.0
2006-04-30,180600.0
2006-03-31,178200.0
2006-02-28,175400.0
2006-01-31,172100.0
2005-12-31,169000.0
2005-11-30,166900.0
2005-10-31,165300.0
2005-09-30,162800.0
2005-08-31,159800.0
2005-07-31,158000.0
2005-06-30,157100.0
2005-05-31,155100.0
2005-04-30,151700.0
2005-03-31,148800.0
2005-02-28,146500.0
2005-01-31,144600.0
2004-12-31,142800.0
2004-11-30,141500.0
2004-10-31,140500.0
2004-09-30,140300.0
2004-08-31,140200.0
2004-07-31,140000.0
2004-06-30,139300.0
2004-05-31,138600.0
2004-04-30,138800.0
2004-03-31,139900.0
2004-02-29,141200.0
2004-01-31,141900.0
2003-12-31,141300.0
2003-11-30,139900.0
2003-10-31,138400.0
2003-09-30,136800.0
2003-08-31,135700.0
2003-07-31,135200.0
2003-06-30,135200.0
2003-05-31,135200.0
2003-04-30,134900.0
2003-03-31,134300.0
2003-02-28,133500.0
2003-01-31,133400.0
2002-12-31,134400.0
2002-11-30,134900.0
2002-10-31,134000.0
2002-09-30,133000.0
2002-08-31,132000.0
2002-07-31,130300.0
2002-06-30,128700.0
2002-05-31,128100.0
2002-04-30,128000.0
2002-03-31,127600.0
2002-02-28,126500.0
2002-01-31,125000.0
2001-12-31,123700.0
2001-11-30,123100.0
2001-10-31,123600.0
2001-09-30,123800.0
2001-08-31,123500.0
2001-07-31,123500.0
2001-06-30,124200.0
2001-05-31,124300.0
2001-04-30,123800.0
2001-03-31,123500.0
2001-02-28,123700.0
2001-01-31,123700.0
2000-12-31,123200.0
2000-11-30,122300.0
2000-10-31,122200.0
2000-09-30,122000.0
2000-08-31,122100.0
2000-07-31,122000.0
2000-06-30,121400.0
2000-05-31,120100.0
2000-04-30,118700.0
2000-03-31,117600.0
2000-02-29,117200.0
2000-01-31,117200.0
1999-12-31,117000.0
1999-11-30,116700.0
1999-10-31,116000.0
1999-09-30,116000.0
1999-08-31,116500.0
1999-07-31,116100.0
1999-06-30,114800.0
1999-05-31,113900.0
1999-04-30,113000.0
1999-03-31,111600.0
1999-02-28,110600.0
1999-01-31,109800.0
1998-12-31,108700.0
1998-11-30,108100.0
1998-10-31,108100.0
1998-09-30,107800.0
1998-08-31,107700.0
1998-07-31,107200.0
1998-06-30,106100.0
1998-05-31,105100.0
1998-04-30,105600.0
1998-03-31,106400.0
1998-02-28,106400.0
1998-01-31,106100.0
1997-12-31,106300.0
1997-11-30,106000.0
1997-10-31,105100.0
1997-09-30,104400.0
1997-08-31,103100.0
1997-07-31,101700.0
1997-06-30,101000.0
1997-05-31,101400.0
1997-04-30,101600.0
1997-03-31,101200.0
1997-02-28,100300.0
1997-01-31,99800.0
1996-12-31,99300.0
1996-11-30,98700.0
1996-10-31,98600.0
1996-09-30,98600.0
1996-08-31,98300.0
1996-07-31,98300.0
1996-06-30,98500.0
1996-05-31,98400.0
1996-04-30,98500.0
