Date,Value
2015-02-28,249900.0
2015-01-31,239900.0
2014-12-31,230000.0
2014-11-30,239900.0
2014-10-31,238000.0
2014-09-30,239000.0
2014-08-31,239900.0
2014-07-31,249999.0
2014-06-30,250000.0
2014-05-31,249990.0
2014-04-30,239900.0
2014-03-31,234900.0
2014-02-28,224900.0
2014-01-31,224900.0
2013-12-31,222400.0
2013-11-30,219000.0
2013-10-31,224900.0
2013-09-30,209900.0
2013-08-31,209900.0
2013-07-31,200000.0
2013-06-30,200000.0
2013-05-31,199900.0
2013-04-30,198900.0
2013-03-31,189900.0
2013-02-28,185000.0
2013-01-31,184900.0
2012-12-31,179900.0
2012-11-30,179000.0
2012-10-31,185000.0
2012-09-30,174900.0
2012-08-31,175000.0
2012-07-31,178500.0
2012-06-30,173000.0
2012-05-31,173000.0
2012-04-30,169900.0
2012-03-31,173000.0
2012-02-29,165900.0
2012-01-31,166000.0
2011-12-31,172000.0
2011-11-30,169900.0
2011-10-31,179000.0
2011-09-30,175000.0
2011-08-31,179900.0
2011-07-31,174900.0
2011-06-30,179000.0
2011-05-31,179000.0
2011-04-30,175000.0
2011-03-31,184900.0
2011-02-28,189000.0
2011-01-31,184900.0
2010-12-31,184800.0
2010-11-30,184900.0
2010-10-31,180000.0
2010-09-30,181500.0
2010-08-31,184900.0
2010-07-31,189900.0
2010-06-30,195000.0
2010-05-31,190000.0
2010-04-30,190000.0
2010-03-31,189900.0
2010-02-28,189900.0
2010-01-31,199000.0
2009-12-31,199900.0
2009-11-30,205000.0
2009-10-31,209900.0
2009-09-30,219900.0
2009-08-31,217900.0
2009-07-31,219900.0
2009-06-30,217900.0
2009-05-31,232900.0
2009-04-30,220000.0
2009-03-31,222900.0
2009-02-28,224900.0
2009-01-31,227000.0
2008-12-31,229900.0
2008-11-30,237900.0
2008-10-31,239000.0
