Date,Value
2015-09-30,292100.0
2015-08-31,288700.0
2015-07-31,286400.0
2015-06-30,284600.0
2015-05-31,282600.0
2015-04-30,279400.0
2015-03-31,278400.0
2015-02-28,276100.0
2015-01-31,273200.0
2014-12-31,271200.0
2014-11-30,269200.0
2014-10-31,267400.0
2014-09-30,266700.0
2014-08-31,266000.0
2014-07-31,265200.0
2014-06-30,264300.0
2014-05-31,263200.0
2014-04-30,262400.0
2014-03-31,262300.0
2014-02-28,262400.0
2014-01-31,261000.0
2013-12-31,257900.0
2013-11-30,256000.0
2013-10-31,255600.0
2013-09-30,254300.0
2013-08-31,252400.0
2013-07-31,250600.0
2013-06-30,248500.0
2013-05-31,246900.0
2013-04-30,245900.0
2013-03-31,244500.0
2013-02-28,242000.0
2013-01-31,239300.0
2012-12-31,237800.0
2012-11-30,237100.0
2012-10-31,236500.0
2012-09-30,235700.0
2012-08-31,234300.0
2012-07-31,232200.0
2012-06-30,230200.0
2012-05-31,228600.0
2012-04-30,228400.0
2012-03-31,229000.0
2012-02-29,229500.0
2012-01-31,228900.0
2011-12-31,228400.0
2011-11-30,228900.0
2011-10-31,230200.0
2011-09-30,231800.0
2011-08-31,234900.0
2011-07-31,238800.0
2011-06-30,242000.0
2011-05-31,243600.0
2011-04-30,244100.0
2011-03-31,245400.0
2011-02-28,248700.0
2011-01-31,251700.0
2010-12-31,253000.0
2010-11-30,254300.0
2010-10-31,257400.0
2010-09-30,260700.0
2010-08-31,262600.0
2010-07-31,263300.0
2010-06-30,264800.0
2010-05-31,268900.0
2010-04-30,273300.0
2010-03-31,274700.0
2010-02-28,274800.0
2010-01-31,277500.0
2009-12-31,282000.0
2009-11-30,284700.0
2009-10-31,284200.0
2009-09-30,282400.0
2009-08-31,281900.0
2009-07-31,282900.0
2009-06-30,285600.0
2009-05-31,288300.0
2009-04-30,290300.0
2009-03-31,292900.0
2009-02-28,297100.0
2009-01-31,302400.0
2008-12-31,307300.0
2008-11-30,311900.0
2008-10-31,316300.0
2008-09-30,320600.0
2008-08-31,323500.0
2008-07-31,325600.0
2008-06-30,326300.0
2008-05-31,326200.0
2008-04-30,326300.0
2008-03-31,327700.0
2008-02-29,329200.0
2008-01-31,331300.0
2007-12-31,333300.0
2007-11-30,335100.0
2007-10-31,336800.0
2007-09-30,338900.0
2007-08-31,340700.0
2007-07-31,342100.0
2007-06-30,343300.0
2007-05-31,343700.0
2007-04-30,343300.0
2007-03-31,342500.0
2007-02-28,341300.0
2007-01-31,339000.0
2006-12-31,337000.0
2006-11-30,335200.0
2006-10-31,333700.0
2006-09-30,331900.0
2006-08-31,330200.0
2006-07-31,327400.0
2006-06-30,323700.0
2006-05-31,320700.0
2006-04-30,318300.0
2006-03-31,315200.0
2006-02-28,311800.0
2006-01-31,309000.0
2005-12-31,305600.0
2005-11-30,301000.0
2005-10-31,295500.0
2005-09-30,290400.0
2005-08-31,286100.0
2005-07-31,282300.0
2005-06-30,278100.0
2005-05-31,273800.0
2005-04-30,269700.0
2005-03-31,265600.0
2005-02-28,261100.0
2005-01-31,256300.0
2004-12-31,252400.0
2004-11-30,249300.0
2004-10-31,246400.0
2004-09-30,243700.0
2004-08-31,241600.0
2004-07-31,239800.0
2004-06-30,238200.0
2004-05-31,236000.0
2004-04-30,233500.0
2004-03-31,231800.0
2004-02-29,230200.0
2004-01-31,228100.0
2003-12-31,225900.0
2003-11-30,223900.0
2003-10-31,222400.0
2003-09-30,221400.0
2003-08-31,220500.0
2003-07-31,219900.0
2003-06-30,219700.0
2003-05-31,219300.0
2003-04-30,218500.0
2003-03-31,218000.0
2003-02-28,217200.0
2003-01-31,215900.0
2002-12-31,214300.0
2002-11-30,213300.0
2002-10-31,211900.0
2002-09-30,210400.0
2002-08-31,208700.0
2002-07-31,207200.0
2002-06-30,205900.0
2002-05-31,205000.0
2002-04-30,203700.0
2002-03-31,202200.0
2002-02-28,201200.0
2002-01-31,200300.0
2001-12-31,199700.0
2001-11-30,199300.0
2001-10-31,198500.0
2001-09-30,197500.0
2001-08-31,196600.0
2001-07-31,195700.0
2001-06-30,194700.0
2001-05-31,193600.0
2001-04-30,192900.0
2001-03-31,192300.0
2001-02-28,191400.0
2001-01-31,190200.0
2000-12-31,188700.0
2000-11-30,187300.0
2000-10-31,187200.0
2000-09-30,187300.0
2000-08-31,186200.0
2000-07-31,184500.0
2000-06-30,183400.0
2000-05-31,183000.0
2000-04-30,182700.0
2000-03-31,181900.0
2000-02-29,181200.0
2000-01-31,180800.0
1999-12-31,180100.0
1999-11-30,179100.0
1999-10-31,177400.0
1999-09-30,175400.0
1999-08-31,174100.0
1999-07-31,173400.0
1999-06-30,171800.0
1999-05-31,169900.0
1999-04-30,168900.0
1999-03-31,168000.0
1999-02-28,166700.0
1999-01-31,165600.0
1998-12-31,164500.0
1998-11-30,163200.0
1998-10-31,162700.0
1998-09-30,162800.0
1998-08-31,162100.0
1998-07-31,161000.0
1998-06-30,160100.0
1998-05-31,159100.0
1998-04-30,158000.0
1998-03-31,157300.0
1998-02-28,156600.0
1998-01-31,155900.0
1997-12-31,155500.0
1997-11-30,154700.0
1997-10-31,153300.0
1997-09-30,152000.0
1997-08-31,151200.0
1997-07-31,150500.0
1997-06-30,149500.0
1997-05-31,148700.0
1997-04-30,147200.0
1997-03-31,145500.0
1997-02-28,144200.0
1997-01-31,143200.0
1996-12-31,142000.0
1996-11-30,141400.0
1996-10-31,141100.0
1996-09-30,140300.0
1996-08-31,139400.0
1996-07-31,139100.0
1996-06-30,139100.0
1996-05-31,139100.0
1996-04-30,139300.0
