Date,Value
2015-09-30,165400.0
2015-08-31,153500.0
2015-07-31,150100.0
2015-06-30,149800.0
2015-05-31,149000.0
2015-04-30,148500.0
2015-03-31,150200.0
2015-02-28,151200.0
2015-01-31,150100.0
2014-12-31,148400.0
2014-11-30,147100.0
2014-10-31,144000.0
2014-09-30,140300.0
2014-08-31,138100.0
2014-07-31,137700.0
2014-06-30,137700.0
2014-05-31,137700.0
2014-04-30,136900.0
2014-03-31,135200.0
2014-02-28,134100.0
2014-01-31,134000.0
2013-12-31,132100.0
2013-11-30,128800.0
2013-10-31,126800.0
2013-09-30,125400.0
2013-08-31,121800.0
2013-07-31,117200.0
2013-06-30,114000.0
2013-05-31,111600.0
2013-04-30,109800.0
2013-03-31,107800.0
2013-02-28,106200.0
2013-01-31,103800.0
2012-12-31,102600.0
2012-11-30,104300.0
2012-10-31,105900.0
2012-09-30,104700.0
2012-08-31,103500.0
2012-07-31,103300.0
2012-06-30,100700.0
2012-05-31,98000.0
2012-04-30,97200.0
2012-03-31,97800.0
2012-02-29,96900.0
2012-01-31,97100.0
2011-12-31,99200.0
2011-11-30,100600.0
2011-10-31,100100.0
2011-09-30,100300.0
2011-08-31,102000.0
2011-07-31,106000.0
2011-06-30,113100.0
2011-05-31,120000.0
2011-04-30,123600.0
2011-03-31,122900.0
2011-02-28,121800.0
2011-01-31,122200.0
2010-12-31,123700.0
2010-11-30,126500.0
2010-10-31,131200.0
2010-09-30,134300.0
2010-08-31,135900.0
2010-07-31,137600.0
2010-06-30,138700.0
2010-05-31,140000.0
2010-04-30,141900.0
2010-03-31,143900.0
2010-02-28,146100.0
2010-01-31,148100.0
2009-12-31,149400.0
2009-11-30,149900.0
2009-10-31,150900.0
2009-09-30,155600.0
2009-08-31,161700.0
2009-07-31,164000.0
2009-06-30,163700.0
2009-05-31,164400.0
2009-04-30,166100.0
2009-03-31,169800.0
2009-02-28,173700.0
2009-01-31,177600.0
2008-12-31,181000.0
2008-11-30,183100.0
2008-10-31,183800.0
2008-09-30,184900.0
2008-08-31,186100.0
2008-07-31,187500.0
2008-06-30,190100.0
2008-05-31,193000.0
2008-04-30,195100.0
2008-03-31,196300.0
2008-02-29,198500.0
2008-01-31,201000.0
2007-12-31,202100.0
2007-11-30,203100.0
2007-10-31,204900.0
2007-09-30,205500.0
2007-08-31,205000.0
2007-07-31,203400.0
2007-06-30,201400.0
2007-05-31,200300.0
2007-04-30,200400.0
2007-03-31,200400.0
2007-02-28,200000.0
2007-01-31,198000.0
2006-12-31,195100.0
2006-11-30,192100.0
2006-10-31,190000.0
2006-09-30,188400.0
2006-08-31,186500.0
2006-07-31,184400.0
2006-06-30,182800.0
2006-05-31,180700.0
2006-04-30,177300.0
2006-03-31,173700.0
2006-02-28,170600.0
2006-01-31,167300.0
2005-12-31,163900.0
2005-11-30,161300.0
2005-10-31,159700.0
2005-09-30,157700.0
2005-08-31,155400.0
2005-07-31,154000.0
2005-06-30,154100.0
2005-05-31,154100.0
2005-04-30,153300.0
2005-03-31,151500.0
2005-02-28,149300.0
2005-01-31,147300.0
2004-12-31,145700.0
2004-11-30,144600.0
2004-10-31,142800.0
2004-09-30,140200.0
2004-08-31,138300.0
2004-07-31,137300.0
2004-06-30,134200.0
2004-05-31,129600.0
2004-04-30,127100.0
2004-03-31,127700.0
2004-02-29,128600.0
2004-01-31,129200.0
2003-12-31,129300.0
2003-11-30,128100.0
2003-10-31,126400.0
2003-09-30,125600.0
2003-08-31,125600.0
2003-07-31,125400.0
2003-06-30,124700.0
2003-05-31,124400.0
2003-04-30,124400.0
2003-03-31,123700.0
2003-02-28,122500.0
2003-01-31,121800.0
2002-12-31,122000.0
2002-11-30,122400.0
2002-10-31,122200.0
2002-09-30,121900.0
2002-08-31,121400.0
2002-07-31,120200.0
2002-06-30,119800.0
2002-05-31,119800.0
2002-04-30,119100.0
2002-03-31,117900.0
2002-02-28,117100.0
2002-01-31,116700.0
2001-12-31,116200.0
2001-11-30,115200.0
2001-10-31,114200.0
2001-09-30,113700.0
2001-08-31,113600.0
2001-07-31,114200.0
2001-06-30,114800.0
2001-05-31,115100.0
2001-04-30,114700.0
2001-03-31,114600.0
2001-02-28,114600.0
2001-01-31,114600.0
2000-12-31,114500.0
2000-11-30,114500.0
2000-10-31,113800.0
2000-09-30,112100.0
2000-08-31,110000.0
2000-07-31,108100.0
2000-06-30,107400.0
2000-05-31,107200.0
2000-04-30,106400.0
2000-03-31,105500.0
2000-02-29,105000.0
2000-01-31,104200.0
1999-12-31,103600.0
1999-11-30,104200.0
1999-10-31,105500.0
1999-09-30,106100.0
1999-08-31,105800.0
1999-07-31,104700.0
1999-06-30,102900.0
1999-05-31,101000.0
1999-04-30,99400.0
1999-03-31,98000.0
1999-02-28,96800.0
1999-01-31,95700.0
1998-12-31,94400.0
1998-11-30,93200.0
1998-10-31,92500.0
1998-09-30,92100.0
1998-08-31,91400.0
1998-07-31,91100.0
1998-06-30,91200.0
1998-05-31,91000.0
1998-04-30,90300.0
1998-03-31,89600.0
1998-02-28,89000.0
1998-01-31,88000.0
1997-12-31,86600.0
1997-11-30,85400.0
1997-10-31,85000.0
1997-09-30,85100.0
1997-08-31,85300.0
1997-07-31,85200.0
1997-06-30,84900.0
1997-05-31,84800.0
1997-04-30,85800.0
1997-03-31,87000.0
1997-02-28,87100.0
1997-01-31,86100.0
1996-12-31,85600.0
1996-11-30,85200.0
1996-10-31,84700.0
1996-09-30,84400.0
1996-08-31,84600.0
1996-07-31,84500.0
1996-06-30,83800.0
1996-05-31,84300.0
1996-04-30,85700.0
