Date,Value
2015-02-28,320000.0
2015-01-31,320000.0
2014-12-31,315900.0
2014-11-30,300000.0
2014-10-31,329000.0
2014-09-30,339950.0
2014-08-31,334990.0
2014-07-31,336990.0
2014-06-30,329950.0
2014-05-31,330000.0
2014-04-30,324990.0
2014-03-31,320000.0
2014-02-28,334990.0
2014-01-31,309000.0
2013-12-31,299900.0
2013-11-30,309000.0
2013-10-31,315000.0
2013-09-30,325000.0
2013-08-31,323000.0
2013-07-31,312500.0
2013-06-30,298950.0
2013-05-31,309900.0
2013-04-30,300000.0
2013-03-31,292000.0
2013-02-28,309000.0
2013-01-31,289990.0
2012-12-31,284000.0
2012-11-30,279990.0
2012-10-31,279990.0
2012-09-30,279990.0
2012-08-31,289000.0
2012-07-31,285000.0
2012-06-30,299000.0
2012-05-31,285000.0
2012-04-30,269950.0
2012-03-31,263000.0
2012-02-29,240000.0
2012-01-31,219990.0
2011-12-31,247285.0
2011-11-30,250000.0
2011-10-31,259000.0
2011-09-30,249500.0
2011-08-31,252222.0
2011-07-31,249000.0
2011-06-30,250000.0
2011-05-31,259900.0
2011-04-30,264000.0
2011-03-31,265000.0
2011-02-28,265000.0
2011-01-31,265000.0
2010-12-31,280000.0
2010-11-30,299950.0
2010-10-31,289950.0
2010-09-30,299000.0
2010-08-31,309000.0
2010-07-31,299999.0
2010-06-30,324950.0
2010-05-31,327000.0
2010-04-30,325000.0
2010-03-31,315000.0
2010-02-28,319950.0
2010-01-31,315000.0
2009-12-31,314500.0
2009-11-30,329950.0
2009-10-31,324995.0
2009-09-30,343500.0
2009-08-31,335000.0
2009-07-31,360000.0
2009-06-30,374000.0
2009-05-31,374000.0
2009-04-30,374000.0
2009-03-31,374000.0
2009-02-28,380000.0
2009-01-31,379950.0
2008-12-31,380000.0
2008-11-30,382000.0
2008-10-31,385000.0
