Date,Value
2015-06-30,1395.0
2015-05-31,1330.0
2015-04-30,1295.0
2015-03-31,1310.0
2015-02-28,1310.0
2015-01-31,1370.0
2014-12-31,1295.0
2014-11-30,1195.0
2014-10-31,1050.0
2014-09-30,1110.0
2014-08-31,1055.0
2014-07-31,1095.0
2014-06-30,1030.0
2014-05-31,1095.0
2014-04-30,1052.0
2014-03-31,1090.0
2014-02-28,990.0
2014-01-31,905.0
2013-12-31,1055.0
2013-11-30,1150.0
2013-10-31,1325.0
2013-09-30,1250.0
2013-08-31,1200.0
2013-07-31,1200.0
2013-06-30,995.0
2013-05-31,995.0
2013-04-30,999.0
2013-03-31,1100.0
2013-02-28,1010.0
2013-01-31,985.0
2012-12-31,895.0
2012-11-30,895.0
2012-10-31,880.0
2012-09-30,950.0
2012-08-31,1150.0
2012-07-31,1095.0
2012-06-30,1050.0
2012-05-31,1095.0
2012-04-30,1100.0
2012-03-31,1100.0
2012-02-29,1100.0
2012-01-31,1225.0
2011-12-31,1350.0
2011-11-30,1100.0
2011-10-31,1050.0
2011-09-30,1095.0
2011-08-31,1100.0
2011-07-31,1095.0
2011-06-30,1195.0
2011-05-31,1050.0
2011-04-30,1150.0
2011-03-31,925.0
2011-02-28,925.0
2011-01-31,950.0
2010-12-31,855.0
