Date,Value
2015-09-30,0.734
2015-08-31,0.702
2015-07-31,0.698
2015-06-30,0.692
2015-05-31,0.692
2015-04-30,0.696
2015-03-31,0.704
2015-02-28,0.708
2015-01-31,0.708
2014-12-31,0.704
2014-11-30,0.698
2014-10-31,0.686
2014-09-30,0.674
2014-08-31,0.664
2014-07-31,0.66
2014-06-30,0.668
2014-05-31,0.684
2014-04-30,0.702
2014-03-31,0.714
2014-02-28,0.716
2014-01-31,0.71
2013-12-31,0.706
2013-11-30,0.698
2013-10-31,0.678
2013-09-30,0.662
2013-08-31,0.65
2013-07-31,0.648
2013-06-30,0.648
2013-05-31,0.646
2013-04-30,0.64
2013-03-31,0.632
2013-02-28,0.628
2013-01-31,0.638
2012-12-31,0.654
2012-11-30,0.676
2012-10-31,0.682
2012-09-30,0.676
2012-08-31,0.662
2012-07-31,0.652
2012-06-30,0.652
2012-05-31,0.65
2012-04-30,0.65
2012-03-31,0.65
2012-02-29,0.658
2012-01-31,0.668
2011-12-31,0.67
2011-11-30,0.672
2011-10-31,0.686
2011-09-30,0.728
2011-08-31,0.77
2011-07-31,0.79
2011-06-30,0.788
2011-05-31,0.782
2011-04-30,0.78
2011-03-31,0.778
2011-02-28,0.778
2011-01-31,0.778
2010-12-31,0.78
2010-11-30,0.782
