Date,Value
2015-06-30,1898.0
2015-05-31,1821.0
2015-04-30,1770.0
2015-03-31,1720.0
2015-02-28,1715.0
2015-01-31,1744.0
2014-12-31,1700.0
2014-11-30,1734.0
2014-10-31,1720.0
2014-09-30,1725.0
2014-08-31,1800.0
2014-07-31,1800.0
2014-06-30,1800.0
2014-05-31,1825.0
2014-04-30,1790.0
2014-03-31,1770.0
2014-02-28,1778.0
2014-01-31,1795.0
2013-12-31,1770.0
2013-11-30,1800.0
2013-10-31,1780.0
2013-09-30,1695.0
2013-08-31,1745.0
2013-07-31,1725.0
2013-06-30,1725.0
2013-05-31,1750.0
2013-04-30,1725.0
2013-03-31,1580.0
2013-02-28,1550.0
2013-01-31,1520.0
2012-12-31,1555.0
2012-11-30,1500.0
2012-10-31,1540.0
2012-09-30,1655.0
2012-08-31,1645.0
2012-07-31,1805.0
2012-06-30,1815.0
2012-05-31,1829.0
2012-04-30,1700.0
2012-03-31,1760.0
2012-02-29,1775.0
2012-01-31,1890.0
2011-12-31,1760.0
2011-11-30,1812.0
2011-10-31,1949.0
2011-09-30,1983.0
2011-08-31,2100.0
2011-07-31,2050.0
2011-06-30,1850.0
2011-05-31,1800.0
2011-04-30,1750.0
2011-03-31,1425.0
2011-02-28,1415.0
2011-01-31,1415.0
2010-12-31,1450.0
2010-11-30,1430.0
2010-10-31,1420.0
2010-09-30,1420.0
2010-08-31,1425.0
2010-07-31,2100.0
2010-06-30,1650.0
2010-05-31,1650.0
2010-04-30,1800.0
2010-03-31,1850.0
