Date,Value
2015-09-30,156200.0
2015-08-31,154600.0
2015-07-31,150900.0
2015-06-30,149800.0
2015-05-31,149100.0
2015-04-30,149500.0
2015-03-31,148900.0
2015-02-28,148300.0
2015-01-31,148200.0
2014-12-31,148400.0
2014-11-30,148300.0
2014-10-31,147900.0
2014-09-30,147900.0
2014-08-31,148100.0
2014-07-31,148300.0
2014-06-30,148300.0
2014-05-31,147700.0
2014-04-30,147200.0
2014-03-31,147200.0
2014-02-28,147200.0
2014-01-31,147200.0
2013-12-31,146600.0
2013-11-30,144900.0
2013-10-31,142600.0
2013-09-30,140500.0
2013-08-31,138700.0
2013-07-31,136900.0
2013-06-30,135200.0
2013-05-31,133700.0
2013-04-30,132700.0
2013-03-31,131500.0
2013-02-28,130500.0
2013-01-31,130500.0
2012-12-31,131400.0
2012-11-30,132200.0
2012-10-31,132200.0
2012-09-30,131800.0
2012-08-31,131700.0
2012-07-31,131800.0
2012-06-30,132000.0
2012-05-31,132600.0
2012-04-30,133000.0
2012-03-31,133200.0
2012-02-29,133400.0
2012-01-31,133600.0
2011-12-31,133700.0
2011-11-30,133900.0
2011-10-31,134800.0
2011-09-30,135900.0
2011-08-31,136800.0
2011-07-31,137800.0
2011-06-30,139200.0
2011-05-31,140300.0
2011-04-30,140900.0
2011-03-31,142000.0
2011-02-28,143700.0
2011-01-31,144800.0
2010-12-31,145400.0
2010-11-30,146900.0
2010-10-31,148900.0
2010-09-30,151000.0
2010-08-31,152700.0
2010-07-31,154200.0
2010-06-30,155700.0
2010-05-31,156800.0
2010-04-30,157200.0
2010-03-31,157400.0
2010-02-28,157600.0
2010-01-31,157500.0
2009-12-31,157500.0
2009-11-30,158000.0
2009-10-31,158200.0
2009-09-30,158300.0
2009-08-31,159100.0
2009-07-31,160400.0
2009-06-30,161300.0
2009-05-31,161700.0
2009-04-30,162200.0
2009-03-31,162700.0
2009-02-28,163100.0
2009-01-31,163700.0
2008-12-31,164600.0
2008-11-30,165100.0
2008-10-31,165700.0
2008-09-30,166600.0
2008-08-31,167100.0
2008-07-31,167400.0
2008-06-30,168300.0
2008-05-31,170300.0
2008-04-30,173000.0
2008-03-31,174900.0
2008-02-29,175900.0
2008-01-31,176300.0
2007-12-31,176200.0
2007-11-30,176000.0
2007-10-31,176300.0
2007-09-30,176600.0
2007-08-31,176800.0
2007-07-31,176700.0
2007-06-30,175900.0
2007-05-31,174700.0
2007-04-30,173600.0
2007-03-31,172600.0
2007-02-28,171700.0
2007-01-31,171100.0
2006-12-31,170900.0
2006-11-30,170800.0
2006-10-31,170300.0
2006-09-30,169500.0
2006-08-31,168700.0
2006-07-31,167400.0
2006-06-30,165800.0
2006-05-31,163900.0
2006-04-30,161600.0
2006-03-31,158800.0
2006-02-28,156200.0
2006-01-31,153500.0
2005-12-31,150700.0
2005-11-30,147400.0
2005-10-31,143500.0
2005-09-30,139100.0
2005-08-31,135800.0
2005-07-31,133600.0
2005-06-30,132100.0
2005-05-31,130500.0
2005-04-30,129100.0
2005-03-31,127500.0
2005-02-28,125900.0
2005-01-31,124600.0
2004-12-31,124100.0
2004-11-30,124200.0
2004-10-31,124200.0
2004-09-30,123400.0
2004-08-31,122600.0
2004-07-31,122400.0
2004-06-30,122400.0
2004-05-31,122200.0
2004-04-30,121900.0
2004-03-31,122800.0
2004-02-29,123700.0
2004-01-31,123000.0
2003-12-31,121800.0
2003-11-30,121700.0
2003-10-31,122400.0
2003-09-30,123300.0
2003-08-31,122900.0
2003-07-31,120900.0
2003-06-30,119400.0
2003-05-31,118400.0
2003-04-30,118200.0
2003-03-31,118100.0
2003-02-28,118700.0
2003-01-31,120100.0
2002-12-31,119800.0
2002-11-30,117100.0
2002-10-31,114900.0
2002-09-30,114300.0
2002-08-31,115200.0
2002-07-31,116300.0
2002-06-30,115700.0
2002-05-31,114600.0
2002-04-30,114200.0
2002-03-31,114000.0
2002-02-28,113200.0
2002-01-31,112200.0
2001-12-31,112400.0
2001-11-30,112800.0
2001-10-31,112500.0
2001-09-30,111700.0
2001-08-31,111100.0
2001-07-31,110200.0
2001-06-30,109700.0
2001-05-31,109300.0
2001-04-30,108700.0
2001-03-31,108500.0
2001-02-28,107900.0
2001-01-31,107200.0
2000-12-31,106600.0
2000-11-30,106400.0
2000-10-31,106400.0
2000-09-30,107100.0
2000-08-31,107500.0
2000-07-31,107500.0
2000-06-30,107800.0
2000-05-31,109000.0
2000-04-30,108300.0
2000-03-31,106400.0
2000-02-29,105700.0
2000-01-31,106000.0
1999-12-31,106600.0
1999-11-30,107900.0
1999-10-31,109800.0
1999-09-30,111100.0
1999-08-31,110300.0
1999-07-31,108500.0
1999-06-30,106600.0
1999-05-31,105300.0
1999-04-30,105800.0
1999-03-31,107900.0
1999-02-28,109000.0
1999-01-31,109400.0
1998-12-31,109600.0
1998-11-30,110100.0
1998-10-31,109400.0
1998-09-30,108400.0
1998-08-31,108300.0
1998-07-31,109800.0
1998-06-30,111500.0
1998-05-31,112600.0
1998-04-30,112000.0
1998-03-31,110300.0
1998-02-28,108900.0
1998-01-31,108400.0
1997-12-31,107700.0
1997-11-30,107400.0
1997-10-31,108100.0
1997-09-30,108100.0
1997-08-31,107500.0
1997-07-31,107100.0
1997-06-30,107600.0
1997-05-31,108000.0
1997-04-30,108100.0
1997-03-31,106500.0
1997-02-28,104500.0
1997-01-31,103300.0
1996-12-31,103100.0
1996-11-30,102200.0
1996-10-31,100800.0
1996-09-30,99700.0
1996-08-31,99500.0
1996-07-31,99500.0
1996-06-30,99100.0
1996-05-31,97900.0
1996-04-30,96900.0
