Date,Value
2015-09-30,341800.0
2015-08-31,341800.0
2015-07-31,341200.0
2015-06-30,342100.0
2015-05-31,342900.0
2015-04-30,337600.0
2015-03-31,336300.0
2015-02-28,333400.0
2015-01-31,331500.0
2014-12-31,332300.0
2014-11-30,332200.0
2014-10-31,328300.0
2014-09-30,325800.0
2014-08-31,324600.0
2014-07-31,322200.0
2014-06-30,317900.0
2014-05-31,312800.0
2014-04-30,305200.0
2014-03-31,301100.0
2014-02-28,300900.0
2014-01-31,301800.0
2013-12-31,303400.0
2013-11-30,309700.0
2013-10-31,316900.0
2013-09-30,321400.0
2013-08-31,324500.0
2013-07-31,328300.0
2013-06-30,329800.0
2013-05-31,329200.0
2013-04-30,330300.0
2013-03-31,332300.0
2013-02-28,334000.0
2013-01-31,334900.0
2012-12-31,333600.0
2012-11-30,329700.0
2012-10-31,326400.0
2012-09-30,324400.0
2012-08-31,324600.0
2012-07-31,325600.0
2012-06-30,326300.0
2012-05-31,327300.0
2012-04-30,327500.0
2012-03-31,325300.0
2012-02-29,323000.0
2012-01-31,323900.0
2011-12-31,325400.0
2011-11-30,325400.0
2011-10-31,323600.0
2011-09-30,322400.0
2011-08-31,322200.0
2011-07-31,322600.0
2011-06-30,323400.0
2011-05-31,323900.0
2011-04-30,325400.0
2011-03-31,325600.0
2011-02-28,324300.0
2011-01-31,324000.0
2010-12-31,325400.0
2010-11-30,324800.0
2010-10-31,324100.0
2010-09-30,324500.0
2010-08-31,326200.0
2010-07-31,328300.0
2010-06-30,329400.0
2010-05-31,328700.0
2010-04-30,327400.0
2010-03-31,328000.0
2010-02-28,330200.0
2010-01-31,332200.0
2009-12-31,333800.0
2009-11-30,335700.0
2009-10-31,335800.0
2009-09-30,334200.0
2009-08-31,332700.0
2009-07-31,332200.0
2009-06-30,333000.0
2009-05-31,335500.0
2009-04-30,338800.0
2009-03-31,341600.0
2009-02-28,344200.0
2009-01-31,344400.0
2008-12-31,341900.0
2008-11-30,342100.0
2008-10-31,348500.0
2008-09-30,354500.0
2008-08-31,354800.0
2008-07-31,351900.0
2008-06-30,352200.0
2008-05-31,356900.0
2008-04-30,364100.0
2008-03-31,370500.0
2008-02-29,373100.0
2008-01-31,371700.0
2007-12-31,370900.0
2007-11-30,374000.0
2007-10-31,376700.0
2007-09-30,378400.0
2007-08-31,381300.0
2007-07-31,386400.0
2007-06-30,391700.0
2007-05-31,395800.0
2007-04-30,397600.0
2007-03-31,396600.0
2007-02-28,394900.0
2007-01-31,396200.0
2006-12-31,399600.0
2006-11-30,400200.0
2006-10-31,398100.0
2006-09-30,397000.0
2006-08-31,395400.0
2006-07-31,393200.0
2006-06-30,390300.0
2006-05-31,386500.0
2006-04-30,379700.0
2006-03-31,372700.0
2006-02-28,368400.0
2006-01-31,366500.0
2005-12-31,361500.0
2005-11-30,352500.0
2005-10-31,344500.0
2005-09-30,339800.0
2005-08-31,336100.0
2005-07-31,329900.0
2005-06-30,321200.0
2005-05-31,313200.0
2005-04-30,306900.0
2005-03-31,302500.0
2005-02-28,297700.0
2005-01-31,291300.0
2004-12-31,285600.0
2004-11-30,281600.0
2004-10-31,277000.0
2004-09-30,271500.0
2004-08-31,266400.0
2004-07-31,260500.0
2004-06-30,254800.0
2004-05-31,250100.0
2004-04-30,248000.0
2004-03-31,245500.0
2004-02-29,241800.0
2004-01-31,237700.0
2003-12-31,235700.0
2003-11-30,235500.0
2003-10-31,236200.0
2003-09-30,237000.0
2003-08-31,238500.0
2003-07-31,240600.0
2003-06-30,241600.0
2003-05-31,241500.0
2003-04-30,239800.0
2003-03-31,238900.0
2003-02-28,239800.0
2003-01-31,241700.0
2002-12-31,241700.0
2002-11-30,239200.0
2002-10-31,236000.0
2002-09-30,232400.0
2002-08-31,228600.0
2002-07-31,226500.0
2002-06-30,226500.0
2002-05-31,226100.0
2002-04-30,225300.0
2002-03-31,224700.0
2002-02-28,223600.0
2002-01-31,221500.0
2001-12-31,219600.0
2001-11-30,218300.0
2001-10-31,216600.0
2001-09-30,215400.0
2001-08-31,215500.0
2001-07-31,215100.0
2001-06-30,214100.0
2001-05-31,212600.0
2001-04-30,211300.0
2001-03-31,210700.0
2001-02-28,208900.0
2001-01-31,206600.0
2000-12-31,206000.0
2000-11-30,207300.0
2000-10-31,208100.0
2000-09-30,207000.0
2000-08-31,204500.0
2000-07-31,203100.0
2000-06-30,202600.0
2000-05-31,201100.0
2000-04-30,198200.0
2000-03-31,195500.0
2000-02-29,192900.0
2000-01-31,191000.0
1999-12-31,189100.0
1999-11-30,187500.0
1999-10-31,185500.0
1999-09-30,183400.0
1999-08-31,181300.0
1999-07-31,180400.0
1999-06-30,179400.0
1999-05-31,177500.0
1999-04-30,175900.0
1999-03-31,175800.0
1999-02-28,175800.0
1999-01-31,174200.0
1998-12-31,172800.0
1998-11-30,172100.0
1998-10-31,171500.0
1998-09-30,170600.0
1998-08-31,169800.0
1998-07-31,168800.0
1998-06-30,167300.0
1998-05-31,167000.0
1998-04-30,168500.0
1998-03-31,169500.0
1998-02-28,167900.0
1998-01-31,165400.0
1997-12-31,162600.0
1997-11-30,160500.0
1997-10-31,158700.0
1997-09-30,157300.0
1997-08-31,156200.0
1997-07-31,155100.0
1997-06-30,153700.0
1997-05-31,153700.0
1997-04-30,154600.0
1997-03-31,156900.0
1997-02-28,159800.0
