Date,Value
2015-08-31,150000.0
2015-07-31,148400.0
2015-06-30,147000.0
2015-05-31,147600.0
2015-04-30,147200.0
2015-03-31,146600.0
2015-02-28,144300.0
2015-01-31,141300.0
2014-12-31,140900.0
2014-11-30,141600.0
2014-10-31,140600.0
2014-09-30,139300.0
2014-08-31,139100.0
2014-07-31,140000.0
2014-06-30,142600.0
2014-05-31,145900.0
2014-04-30,148300.0
2014-03-31,149800.0
2014-02-28,151200.0
2014-01-31,151400.0
2013-12-31,149200.0
2013-11-30,148500.0
2013-10-31,148600.0
2013-09-30,146900.0
2013-08-31,143600.0
2013-07-31,141800.0
2013-06-30,140500.0
2013-05-31,140000.0
2013-04-30,139000.0
2013-03-31,138900.0
2013-02-28,139900.0
2013-01-31,140900.0
2012-12-31,140600.0
2012-11-30,140000.0
2012-10-31,139900.0
2012-09-30,140400.0
2012-08-31,140100.0
2012-07-31,139500.0
2012-06-30,138600.0
2012-05-31,137800.0
2012-04-30,137900.0
2012-03-31,138300.0
2012-02-29,139300.0
2012-01-31,141000.0
2011-12-31,143200.0
2011-11-30,142200.0
2011-10-31,140100.0
2011-09-30,141300.0
2011-08-31,146900.0
2011-07-31,150000.0
2011-06-30,151700.0
2011-05-31,154400.0
2011-04-30,156500.0
2011-03-31,156900.0
2011-02-28,158600.0
2011-01-31,160700.0
2010-12-31,161500.0
2010-11-30,163000.0
2010-10-31,166700.0
2010-09-30,171000.0
2010-08-31,174200.0
2010-07-31,176600.0
2010-06-30,179900.0
2010-05-31,182600.0
2010-04-30,184900.0
2010-03-31,185600.0
2010-02-28,183500.0
2010-01-31,180300.0
2009-12-31,180400.0
2009-11-30,182000.0
2009-10-31,182600.0
2009-09-30,182900.0
2009-08-31,182900.0
2009-07-31,183100.0
2009-06-30,182000.0
2009-05-31,179600.0
2009-04-30,177500.0
2009-03-31,178700.0
2009-02-28,181600.0
2009-01-31,185200.0
2008-12-31,187600.0
2008-11-30,189400.0
2008-10-31,190800.0
2008-09-30,191400.0
2008-08-31,191700.0
2008-07-31,192700.0
2008-06-30,194400.0
2008-05-31,196200.0
2008-04-30,198000.0
2008-03-31,199400.0
2008-02-29,201200.0
2008-01-31,203600.0
2007-12-31,206100.0
2007-11-30,207700.0
2007-10-31,209000.0
2007-09-30,208400.0
2007-08-31,206400.0
2007-07-31,204800.0
2007-06-30,204600.0
2007-05-31,204600.0
2007-04-30,205600.0
2007-03-31,205700.0
2007-02-28,204200.0
2007-01-31,202100.0
2006-12-31,200300.0
2006-11-30,199600.0
2006-10-31,198900.0
2006-09-30,198400.0
2006-08-31,197800.0
2006-07-31,196900.0
2006-06-30,195400.0
2006-05-31,193900.0
2006-04-30,191600.0
2006-03-31,188200.0
2006-02-28,184800.0
2006-01-31,182300.0
2005-12-31,179900.0
2005-11-30,176500.0
2005-10-31,172500.0
2005-09-30,169800.0
2005-08-31,167700.0
2005-07-31,164000.0
2005-06-30,158800.0
2005-05-31,155900.0
2005-04-30,154800.0
2005-03-31,153700.0
2005-02-28,153000.0
2005-01-31,152700.0
2004-12-31,151900.0
2004-11-30,151900.0
2004-10-31,152000.0
2004-09-30,150800.0
2004-08-31,150200.0
2004-07-31,150200.0
2004-06-30,149300.0
2004-05-31,146600.0
2004-04-30,143600.0
2004-03-31,141400.0
2004-02-29,139200.0
2004-01-31,137200.0
2003-12-31,136500.0
2003-11-30,136400.0
2003-10-31,136400.0
2003-09-30,137300.0
2003-08-31,137500.0
2003-07-31,137600.0
2003-06-30,137700.0
2003-05-31,134800.0
2003-04-30,130300.0
2003-03-31,127900.0
2003-02-28,127400.0
2003-01-31,126900.0
2002-12-31,126300.0
2002-11-30,125500.0
2002-10-31,125800.0
2002-09-30,126100.0
2002-08-31,125400.0
2002-07-31,124900.0
2002-06-30,126600.0
2002-05-31,129800.0
2002-04-30,133300.0
2002-03-31,136100.0
2002-02-28,137300.0
2002-01-31,136500.0
2001-12-31,133900.0
2001-11-30,130800.0
2001-10-31,126900.0
2001-09-30,123700.0
2001-08-31,121900.0
2001-07-31,121500.0
2001-06-30,121400.0
2001-05-31,121500.0
2001-04-30,122000.0
2001-03-31,122700.0
2001-02-28,123000.0
2001-01-31,122800.0
2000-12-31,122600.0
2000-11-30,123300.0
2000-10-31,124500.0
2000-09-30,125600.0
2000-08-31,125600.0
2000-07-31,124900.0
2000-06-30,124100.0
2000-05-31,123900.0
2000-04-30,123400.0
2000-03-31,122100.0
2000-02-29,121100.0
2000-01-31,120900.0
1999-12-31,121000.0
1999-11-30,121400.0
1999-10-31,121500.0
1999-09-30,120600.0
1999-08-31,120300.0
1999-07-31,120500.0
1999-06-30,119000.0
1999-05-31,117300.0
1999-04-30,115900.0
1999-03-31,114000.0
1999-02-28,112600.0
1999-01-31,112400.0
1998-12-31,112300.0
1998-11-30,111700.0
1998-10-31,110700.0
1998-09-30,110400.0
1998-08-31,109900.0
1998-07-31,108900.0
1998-06-30,108200.0
1998-05-31,107900.0
1998-04-30,107400.0
1998-03-31,107200.0
1998-02-28,107600.0
1998-01-31,108000.0
1997-12-31,107900.0
1997-11-30,106900.0
1997-10-31,106000.0
1997-09-30,105600.0
1997-08-31,105300.0
1997-07-31,104300.0
1997-06-30,103800.0
1997-05-31,104900.0
1997-04-30,106000.0
1997-03-31,105400.0
1997-02-28,103900.0
