Date,Value
2015-06-30,1250.0
2015-05-31,1225.0
2015-04-30,1195.0
2015-03-31,1195.0
2015-02-28,1195.0
2015-01-31,1200.0
2014-12-31,1195.0
2014-11-30,1200.0
2014-10-31,1160.0
2014-09-30,1225.0
2014-08-31,1250.0
2014-07-31,1150.0
2014-06-30,1155.0
2014-05-31,1218.0
2014-04-30,1350.0
2014-03-31,1350.0
2014-02-28,1349.0
2014-01-31,1300.0
2013-12-31,1200.0
2013-11-30,1250.0
2013-10-31,1400.0
2013-09-30,1300.0
2013-08-31,1195.0
2013-07-31,1195.0
2013-06-30,995.0
2013-05-31,905.0
2013-04-30,880.0
2013-03-31,1275.0
2013-02-28,930.0
2013-01-31,870.0
2012-12-31,885.0
2012-11-30,850.0
2012-10-31,850.0
2012-09-30,879.0
2012-08-31,1095.0
2012-07-31,1100.0
2012-06-30,999.0
2012-05-31,995.0
2012-04-30,995.0
2012-03-31,1000.0
2012-02-29,995.0
2012-01-31,1195.0
2011-12-31,1150.0
2011-11-30,1250.0
2011-10-31,1250.0
2011-09-30,1295.0
2011-08-31,1195.0
2011-07-31,1400.0
2011-03-31,890.0
2011-02-28,890.0
2011-01-31,890.0
2010-12-31,890.0
2010-11-30,900.0
2010-10-31,1075.0
2010-09-30,1075.0
2010-08-31,1075.0
