Date,Value
2015-09-30,449500.0
2015-08-31,433950.0
2015-07-31,424800.0
2015-06-30,430322.5
2015-05-31,407852.5
2015-04-30,445212.5
2015-03-31,445955.8824
2015-02-28,438538.4615
2014-12-31,432682.5
2014-11-30,450400.0
2014-10-31,414717.5
2014-09-30,433382.5
2014-08-31,420125.0
2014-07-31,430092.5
2014-06-30,405225.0
2014-05-31,390907.85
2014-04-30,394109.15
2014-03-31,382726.5
2014-02-28,368548.0
2014-01-31,364632.0
2013-12-31,379240.0
2013-11-30,403305.0
2013-10-31,383613.0
2013-09-30,417390.0
2013-08-31,404284.5
2013-07-31,374980.5
2013-06-30,380249.5
2013-05-31,395372.5
2013-04-30,396013.0
2013-03-31,385290.0
2013-02-28,360342.0
2013-01-31,376318.0
2012-12-31,356862.0
2012-11-30,362840.0
2012-10-31,360008.0
2012-09-30,357512.0
2012-08-31,352040.0
2012-07-31,350279.4
2012-06-30,368846.6
2012-05-31,381938.0
2012-04-30,404650.0
2012-03-31,383294.1176
2012-02-29,360756.9231
2011-12-31,328177.5
2011-11-30,363738.0
2011-10-31,380882.5
2011-09-30,375861.7647
2011-08-31,321562.8462
2011-06-30,311109.5
2011-05-31,295280.0
2011-04-30,295280.0
2011-01-31,312950.0
2010-12-31,327600.0
2010-11-30,336142.5
2010-10-31,374459.75
2010-09-30,367065.25
2010-08-31,383440.0
2010-07-31,394932.5
2010-06-30,378075.0
2010-05-31,360192.0
2010-04-30,367762.3529
2010-03-31,375600.0
2010-01-31,365892.0
2009-12-31,360215.0
2009-11-30,344113.0
2009-10-31,346807.0
2009-09-30,380098.0
2009-08-31,376238.0
2009-07-31,381635.2941
2009-06-30,405000.0
2009-02-28,420449.2308
2008-12-31,396690.0
2008-11-30,388592.0
2008-10-31,400498.0
2008-09-30,401890.0
2008-08-31,422492.5
2008-07-31,395082.5
2008-06-30,381167.0
2008-05-31,364232.9412
2008-04-30,404830.7692
2008-02-29,429250.0
2008-01-31,436150.0
2007-12-31,431000.0
2007-11-30,467250.0
2007-10-31,500534.5
2007-09-30,522280.5
2007-08-31,464565.0
2007-07-31,437850.0
2007-06-30,440735.0
2007-05-31,452715.0
2007-04-30,477950.0
2007-03-31,484097.0
2007-02-28,479143.0
2007-01-31,497590.0
2006-12-31,515400.0
2006-11-30,472875.0
2006-10-31,448517.5
2006-09-30,444874.5
2006-08-31,463573.0
2006-07-31,452690.0
2006-06-30,458050.0
2006-05-31,412917.0
2006-04-30,411115.5
2006-03-31,405072.5
2006-02-28,413525.0
2006-01-31,401000.0
2005-12-31,428900.0
2005-11-30,403267.0
2005-10-31,411973.0
2005-09-30,399232.25
2005-08-31,378915.25
2005-07-31,368750.0
2005-06-30,361803.75
2005-05-31,348939.75
2005-04-30,353784.0
2005-03-31,342985.0
2005-02-28,321560.0
2005-01-31,311650.0
2004-12-31,317175.0
2004-11-30,334475.0
2004-10-31,337790.0
2004-09-30,353935.0
2004-08-31,356125.0
2004-07-31,343755.0
2004-06-30,336870.0
2004-05-31,336833.55
2004-04-30,315069.95
2004-03-31,312228.5
2004-02-29,300100.0
2004-01-31,308600.0
2003-12-31,321000.0
2003-11-30,336700.0
2003-10-31,324925.0
2003-09-30,311124.85
2003-08-31,325405.15
2003-07-31,335571.5
2003-06-30,344917.5
2003-05-31,337625.0
2003-04-30,320100.0
2003-03-31,307250.0
2003-02-28,287787.85
2003-01-31,292789.15
2002-12-31,307809.5
2002-11-30,324482.5
2002-10-31,310692.5
2002-09-30,294475.0
2002-08-31,278072.5
2002-07-31,272910.0
2002-06-30,275415.0
2002-05-31,269877.5
2002-04-30,252625.0
2002-03-31,241115.75
2002-02-28,250918.65
2002-01-31,269575.2
2001-12-31,266620.9
2001-11-30,265622.0
2001-10-31,260166.05
2001-09-30,265137.45
2001-08-31,284203.5
2001-07-31,280327.45
2001-06-30,283931.7
2001-05-31,280316.85
2001-04-30,276458.0
2001-03-31,282716.45
2001-02-28,285930.05
2001-01-31,282262.95
2000-12-31,289980.05
2000-11-30,283499.0
2000-10-31,284922.5
2000-09-30,258682.45
2000-08-31,254616.55
2000-07-31,269309.0
2000-06-30,281710.0
2000-05-31,302950.0
2000-04-30,306145.35
2000-03-31,290404.15
2000-02-29,283689.5
2000-01-31,286095.0
1999-12-31,271934.5
1999-11-30,254980.5
1999-10-31,251650.4
1999-09-30,240375.1
1999-08-31,240859.85
1999-07-31,243072.65
1999-06-30,264345.5
1999-05-31,277771.5
1999-04-30,256445.0
1999-03-31,234242.5
1999-02-28,244193.95
1999-01-31,255694.75
1998-12-31,263260.8
1998-11-30,238199.0
1998-10-31,231800.0
1998-09-30,229692.5
1998-08-31,251145.0
1998-07-31,268287.5
1998-06-30,246517.5
1998-05-31,235041.55
1998-04-30,222021.95
1998-03-31,222544.5
1998-02-28,221296.5
1998-01-31,213770.0
1997-12-31,214700.0
1997-11-30,211700.0
1997-10-31,238392.5
1997-09-30,234132.5
1997-08-31,235214.25
1997-07-31,237247.85
1997-06-30,225639.9
1997-05-31,227732.0
1997-04-30,220000.0
1997-03-31,214800.0
1997-02-28,211125.0
1997-01-31,210425.0
1996-12-31,189400.0
1996-11-30,185750.0
1996-10-31,203325.0
1996-09-30,191617.5
1996-08-31,197282.5
1996-07-31,203473.2
1996-06-30,217238.3
1996-05-31,213361.5
1996-04-30,222032.5
