Date,Value
2015-09-30,1.124
2015-08-31,1.12
2015-07-31,1.11
2015-06-30,1.098
2015-05-31,1.092
2015-04-30,1.088
2015-03-31,1.088
2015-02-28,1.086
2015-01-31,1.086
2014-12-31,1.084
2014-11-30,1.082
2014-10-31,1.082
2014-09-30,1.08
2014-08-31,1.076
2014-07-31,1.068
2014-06-30,1.062
2014-05-31,1.054
2014-04-30,1.05
2014-03-31,1.048
2014-02-28,1.048
2014-01-31,1.044
2013-12-31,1.04
2013-11-30,1.032
2013-10-31,1.016
2013-09-30,1.0
2013-08-31,0.986
2013-07-31,0.98
2013-06-30,0.976
2013-05-31,0.978
2013-04-30,0.976
2013-03-31,0.97
2013-02-28,0.96
2013-01-31,0.954
2012-12-31,0.946
2012-11-30,0.946
2012-10-31,0.946
2012-09-30,0.95
2012-08-31,0.954
2012-07-31,0.956
2012-06-30,0.956
2012-05-31,0.95
2012-04-30,0.944
2012-03-31,0.938
2012-02-29,0.94
2012-01-31,0.938
2011-12-31,0.934
2011-11-30,0.932
2011-10-31,0.928
2011-09-30,0.93
2011-08-31,0.932
2011-07-31,0.93
2011-06-30,0.926
2011-05-31,0.926
2011-04-30,0.926
2011-03-31,0.924
2011-02-28,0.916
2011-01-31,0.914
2010-12-31,0.914
2010-11-30,0.912
