Date,Value
2015-09-30,1.734
2015-08-31,1.714
2015-07-31,1.67
2015-06-30,1.666
2015-05-31,1.662
2015-04-30,1.652
2015-03-31,1.636
2015-02-28,1.616
2015-01-31,1.598
2014-12-31,1.578
2014-11-30,1.564
2014-10-31,1.564
2014-09-30,1.558
2014-08-31,1.556
2014-07-31,1.544
2014-06-30,1.52
2014-05-31,1.5
2014-04-30,1.476
2014-03-31,1.476
2014-02-28,1.47
2014-01-31,1.468
2013-12-31,1.462
2013-11-30,1.452
2013-10-31,1.45
2013-09-30,1.45
2013-08-31,1.442
2013-07-31,1.432
2013-06-30,1.428
2013-05-31,1.432
2013-04-30,1.426
2013-03-31,1.416
2013-02-28,1.402
2013-01-31,1.392
2012-12-31,1.386
2012-11-30,1.388
2012-10-31,1.396
2012-09-30,1.398
2012-08-31,1.396
2012-07-31,1.39
2012-06-30,1.388
2012-05-31,1.372
2012-04-30,1.352
2012-03-31,1.338
2012-02-29,1.336
2012-01-31,1.33
2011-12-31,1.32
2011-11-30,1.302
2011-10-31,1.276
2011-09-30,1.246
2011-08-31,1.226
2011-07-31,1.226
2011-06-30,1.228
2011-05-31,1.228
2011-04-30,1.23
2011-03-31,1.232
2011-02-28,1.232
2011-01-31,1.228
2010-12-31,1.228
2010-11-30,1.228
