Date,Value
2015-09-30,239900.0
2015-08-31,239200.0
2015-07-31,235800.0
2015-06-30,239000.0
2015-05-31,241500.0
2015-04-30,240800.0
2015-03-31,238700.0
2015-02-28,237500.0
2015-01-31,237300.0
2014-12-31,236100.0
2014-11-30,234000.0
2014-10-31,232900.0
2014-09-30,231400.0
2014-08-31,228900.0
2014-07-31,227100.0
2014-06-30,226500.0
2014-05-31,225700.0
2014-04-30,221600.0
2014-03-31,215600.0
2014-02-28,212300.0
2014-01-31,211500.0
2013-12-31,210200.0
2013-11-30,209200.0
2013-10-31,207800.0
2013-09-30,204900.0
2013-08-31,202200.0
2013-07-31,198900.0
2013-06-30,194200.0
2013-05-31,190100.0
2013-04-30,187700.0
2013-03-31,184500.0
2013-02-28,181500.0
2013-01-31,179900.0
2012-12-31,178900.0
2012-11-30,177100.0
2012-10-31,175300.0
2012-09-30,174200.0
2012-08-31,174200.0
2012-07-31,176400.0
2012-06-30,178200.0
2012-05-31,177100.0
2012-04-30,175100.0
2012-03-31,173900.0
2012-02-29,172200.0
2012-01-31,171400.0
2011-12-31,172300.0
2011-11-30,173600.0
2011-10-31,175300.0
2011-09-30,177300.0
2011-08-31,178900.0
2011-07-31,180600.0
2011-06-30,182900.0
2011-05-31,185000.0
2011-04-30,186500.0
2011-03-31,188900.0
2011-02-28,192200.0
2011-01-31,195400.0
2010-12-31,198400.0
2010-11-30,200500.0
2010-10-31,201400.0
2010-09-30,203500.0
2010-08-31,207000.0
2010-07-31,209000.0
2010-06-30,209100.0
2010-05-31,209900.0
2010-04-30,212500.0
2010-03-31,216000.0
2010-02-28,218500.0
2010-01-31,218400.0
2009-12-31,217500.0
2009-11-30,217700.0
2009-10-31,219600.0
2009-09-30,222200.0
2009-08-31,224700.0
2009-07-31,227200.0
2009-06-30,229500.0
2009-05-31,232100.0
2009-04-30,235300.0
2009-03-31,239900.0
2009-02-28,244100.0
2009-01-31,247200.0
2008-12-31,249700.0
2008-11-30,253400.0
2008-10-31,257700.0
2008-09-30,260600.0
2008-08-31,262100.0
2008-07-31,263500.0
2008-06-30,265400.0
2008-05-31,267800.0
2008-04-30,270100.0
2008-03-31,272000.0
2008-02-29,273700.0
2008-01-31,275400.0
2007-12-31,277200.0
2007-11-30,279300.0
2007-10-31,280600.0
2007-09-30,281200.0
2007-08-31,281300.0
2007-07-31,281600.0
2007-06-30,282700.0
2007-05-31,282900.0
2007-04-30,282000.0
2007-03-31,281400.0
2007-02-28,281000.0
2007-01-31,280600.0
2006-12-31,281100.0
2006-11-30,280300.0
2006-10-31,278100.0
2006-09-30,275900.0
2006-08-31,274200.0
2006-07-31,272100.0
2006-06-30,270400.0
2006-05-31,268900.0
2006-04-30,267400.0
2006-03-31,264700.0
2006-02-28,261600.0
2006-01-31,258800.0
2005-12-31,255600.0
2005-11-30,252200.0
2005-10-31,248600.0
2005-09-30,244900.0
2005-08-31,240900.0
2005-07-31,236300.0
2005-06-30,232000.0
2005-05-31,229200.0
2005-04-30,226800.0
2005-03-31,224000.0
2005-02-28,221400.0
2005-01-31,218700.0
2004-12-31,215400.0
2004-11-30,212300.0
2004-10-31,210000.0
2004-09-30,207500.0
2004-08-31,204400.0
2004-07-31,201800.0
2004-06-30,199900.0
2004-05-31,198200.0
2004-04-30,196100.0
2004-03-31,193500.0
2004-02-29,191200.0
2004-01-31,189600.0
2003-12-31,188600.0
2003-11-30,187200.0
2003-10-31,185800.0
2003-09-30,184800.0
2003-08-31,184500.0
2003-07-31,184600.0
2003-06-30,184200.0
2003-05-31,183400.0
2003-04-30,182900.0
2003-03-31,182700.0
2003-02-28,181900.0
2003-01-31,180700.0
2002-12-31,179600.0
2002-11-30,178800.0
2002-10-31,178300.0
2002-09-30,178200.0
2002-08-31,177800.0
2002-07-31,177000.0
2002-06-30,175400.0
2002-05-31,173300.0
2002-04-30,172100.0
2002-03-31,171500.0
2002-02-28,170700.0
2002-01-31,169900.0
2001-12-31,169200.0
2001-11-30,168500.0
2001-10-31,167500.0
2001-09-30,166100.0
2001-08-31,164900.0
2001-07-31,164000.0
2001-06-30,163200.0
2001-05-31,162300.0
2001-04-30,161300.0
2001-03-31,160200.0
2001-02-28,158900.0
2001-01-31,157600.0
2000-12-31,156500.0
2000-11-30,155500.0
2000-10-31,154500.0
2000-09-30,154100.0
2000-08-31,154500.0
2000-07-31,154700.0
2000-06-30,154500.0
2000-05-31,154200.0
2000-04-30,153500.0
2000-03-31,153100.0
2000-02-29,152300.0
2000-01-31,151000.0
1999-12-31,149900.0
1999-11-30,149200.0
1999-10-31,148000.0
1999-09-30,146600.0
1999-08-31,145300.0
1999-07-31,144600.0
1999-06-30,144400.0
1999-05-31,143600.0
1999-04-30,142400.0
1999-03-31,141300.0
1999-02-28,141000.0
1999-01-31,140800.0
1998-12-31,140600.0
1998-11-30,140700.0
1998-10-31,140600.0
1998-09-30,139800.0
1998-08-31,138500.0
1998-07-31,137200.0
1998-06-30,135800.0
1998-05-31,135200.0
1998-04-30,134800.0
1998-03-31,134000.0
1998-02-28,133500.0
1998-01-31,133200.0
1997-12-31,132500.0
1997-11-30,131500.0
1997-10-31,131400.0
1997-09-30,131400.0
1997-08-31,131200.0
1997-07-31,130600.0
1997-06-30,130200.0
1997-05-31,129900.0
1997-04-30,129600.0
1997-03-31,129200.0
1997-02-28,128600.0
1997-01-31,128300.0
1996-12-31,127900.0
1996-11-30,127400.0
1996-10-31,127000.0
1996-09-30,127100.0
1996-08-31,127400.0
1996-07-31,127800.0
1996-06-30,128400.0
1996-05-31,129000.0
1996-04-30,129300.0
