Date,Value
2015-09-30,250200.0
2015-08-31,266925.0
2015-07-31,293675.0
2015-06-30,283875.0
2015-05-31,245560.0
2015-04-30,234117.6471
2015-03-31,200000.0
2014-11-30,248300.0
2014-10-31,225415.0
2014-09-30,233200.0
2014-08-31,254500.0
2014-07-31,259135.0
2014-06-30,259205.3
2014-05-31,239245.7
2014-04-30,211195.2941
2014-03-31,224461.5385
2014-01-31,254409.4118
2013-12-31,281856.9231
2013-10-31,278730.0
2013-09-30,310780.0
2013-08-31,258265.0
2013-07-31,236695.0
2013-06-30,253180.0
2013-05-31,255380.0
2013-04-30,227927.0588
2013-03-31,230280.0
2012-12-31,196917.0
2012-11-30,210805.0
2012-10-31,194515.0
2012-09-30,229795.0
2012-08-31,221030.0
2012-07-31,211044.7059
2012-06-30,259280.0
2012-05-31,287395.3846
2011-11-30,222458.0
2011-10-31,224875.0
2011-09-30,240203.0
2011-08-31,247392.0
2011-07-31,224310.0
2011-06-30,219307.4
2011-05-31,209174.8235
2011-04-30,213596.0
2010-12-31,212780.0
2010-09-30,234599.05
2010-08-31,212811.5
2010-07-31,218390.05
2010-06-30,174393.45
2010-05-31,171171.5
2010-04-30,180223.5294
2010-03-31,173000.0
2009-11-30,233932.0
2009-10-31,211440.0
2009-09-30,219738.0
2009-08-31,232472.65
2009-07-31,272269.85
2009-06-30,274455.5
2009-05-31,265074.1176
2009-04-30,265664.6154
2009-02-28,319960.7692
2008-12-31,288213.0
2008-11-30,271929.4118
2008-10-31,258910.7692
2008-08-31,244182.5
2008-07-31,250145.0
2008-06-30,289687.5
2008-05-31,299655.0
2008-04-30,280905.0
2008-03-31,268405.0
2008-02-29,261530.0
2008-01-31,283905.0
2007-12-31,271788.15
2007-11-30,282632.35
2007-10-31,258765.5
2007-09-30,258530.0
2007-08-31,262680.0
2007-07-31,258115.0
2007-06-30,267365.0
2007-05-31,269617.05
2007-04-30,272280.2
2007-03-31,265482.25
2007-02-28,254812.0
2007-01-31,246170.5
2006-12-31,250750.5
2006-11-30,275064.5
2006-10-31,269507.5
2006-09-30,270947.5
2006-08-31,267755.5
2006-07-31,280678.35
2006-06-30,270095.65
2006-05-31,247759.5
2006-04-30,245433.95
2006-03-31,225735.05
2006-02-28,238531.5
2006-01-31,243857.5
2005-12-31,236890.0
2005-11-30,242775.0
2005-10-31,229424.15
2005-09-30,218368.85
2005-08-31,228470.2
2005-07-31,240924.8
2005-06-30,235700.05
2005-05-31,222463.75
2005-04-30,197623.65
2005-03-31,174469.35
2005-02-28,164275.2
2005-01-31,160307.45
2004-12-31,164085.05
2004-11-30,170791.5
2004-10-31,184042.5
2004-09-30,195732.5
2004-08-31,205210.0
2004-07-31,200715.0
2004-06-30,179700.0
2004-05-31,162318.35
2004-04-30,166726.15
2004-03-31,167244.5
2004-02-29,175844.7
2004-01-31,196605.95
2003-12-31,188528.35
2003-11-30,173790.0
2003-10-31,175960.0
2003-09-30,174750.0
2003-08-31,184242.5
2003-07-31,176252.5
2003-06-30,170980.0
2003-05-31,166201.25
2003-04-30,164895.5882
2003-03-31,151673.0769
2003-01-31,135975.0
2002-12-31,144250.0
2002-11-30,127015.0
2002-10-31,150435.0
2002-09-30,157225.0
2002-08-31,156500.0
2002-07-31,165100.0
2002-06-30,149275.0
2002-05-31,127050.0
2002-04-30,126352.9412
2002-03-31,104000.0
2001-12-31,149682.5
2001-11-30,147975.0
2001-10-31,144350.0
2001-09-30,145820.0
2001-08-31,140965.0
2001-07-31,147690.0
2001-06-30,143125.0
2001-05-31,127735.0
2001-03-31,154900.0
2000-11-30,137000.0
2000-08-31,148585.0
2000-07-31,125877.5
2000-06-30,116287.5
2000-05-31,115975.0
2000-03-31,137500.0
1999-12-31,120746.1538
1999-10-31,145307.6923
1999-08-31,117550.0
1999-06-30,159411.7647
1999-05-31,170000.0
1998-11-30,139207.45
1998-10-31,146804.05
1998-09-30,120764.0
1998-08-31,118807.5
1998-07-31,117551.0
1998-06-30,123419.0
1998-03-31,121235.2941
1998-02-28,130730.7692
1997-12-31,135307.6923
1997-10-31,115750.0
1997-09-30,136125.0
1997-05-31,92341.1765
1997-04-30,103615.3846
1997-02-28,106000.0
1996-06-30,103132.3529
1996-05-31,112884.6154
