Date,Value
2015-09-30,1.16
2015-08-31,1.148
2015-07-31,1.13
2015-06-30,1.118
2015-05-31,1.11
2015-04-30,1.104
2015-03-31,1.098
2015-02-28,1.092
2015-01-31,1.088
2014-12-31,1.084
2014-11-30,1.08
2014-10-31,1.074
2014-09-30,1.068
2014-08-31,1.06
2014-07-31,1.052
2014-06-30,1.046
2014-05-31,1.042
2014-04-30,1.042
2014-03-31,1.044
2014-02-28,1.044
2014-01-31,1.04
2013-12-31,1.036
2013-11-30,1.026
2013-10-31,1.01
2013-09-30,0.992
2013-08-31,0.978
2013-07-31,0.97
2013-06-30,0.97
2013-05-31,0.976
2013-04-30,0.976
2013-03-31,0.972
2013-02-28,0.962
2013-01-31,0.954
2012-12-31,0.946
2012-11-30,0.948
2012-10-31,0.952
2012-09-30,0.958
2012-08-31,0.96
2012-07-31,0.962
2012-06-30,0.962
2012-05-31,0.956
2012-04-30,0.948
2012-03-31,0.938
2012-02-29,0.932
2012-01-31,0.924
2011-12-31,0.92
2011-11-30,0.92
2011-10-31,0.926
2011-09-30,0.93
2011-08-31,0.934
2011-07-31,0.934
2011-06-30,0.924
2011-05-31,0.914
2011-04-30,0.902
2011-03-31,0.9
2011-02-28,0.906
2011-01-31,0.914
2010-12-31,0.918
2010-11-30,0.914
