Date,Value
2015-09-30,0.866
2015-08-31,0.8
2015-07-31,0.804
2015-06-30,0.802
2015-05-31,0.786
2015-04-30,0.77
2015-03-31,0.762
2015-02-28,0.762
2015-01-31,0.76
2014-12-31,0.762
2014-11-30,0.76
2014-10-31,0.752
2014-09-30,0.754
2014-08-31,0.766
2014-07-31,0.766
2014-06-30,0.762
2014-05-31,0.752
2014-04-30,0.746
2014-03-31,0.746
2014-02-28,0.742
2014-01-31,0.742
2013-12-31,0.744
2013-11-30,0.748
2013-10-31,0.742
2013-09-30,0.738
2013-08-31,0.73
2013-07-31,0.718
2013-06-30,0.704
2013-05-31,0.702
2013-04-30,0.7
2013-03-31,0.71
2013-02-28,0.708
2013-01-31,0.71
2012-12-31,0.71
2012-11-30,0.714
2012-10-31,0.706
2012-09-30,0.702
2012-08-31,0.696
2012-07-31,0.704
2012-06-30,0.718
2012-05-31,0.726
2012-04-30,0.724
2012-03-31,0.716
2012-02-29,0.714
2012-01-31,0.71
2011-12-31,0.698
2011-11-30,0.686
