Date,Value
2015-02-28,344000.0
2015-01-31,345000.0
2014-12-31,334990.0
2014-11-30,349900.0
2014-10-31,349950.0
2014-09-30,357000.0
2014-08-31,354950.0
2014-07-31,350000.0
2014-06-30,354990.0
2014-05-31,320000.0
2014-04-30,329000.0
2014-03-31,324950.0
2014-02-28,325000.0
2014-01-31,309950.0
2013-12-31,300000.0
2013-11-30,309900.0
2013-10-31,329900.0
2013-09-30,335000.0
2013-08-31,324950.0
2013-07-31,319950.0
2013-06-30,307950.0
2013-05-31,299950.0
2013-04-30,299500.0
2013-03-31,294400.0
2013-02-28,290000.0
2013-01-31,289900.0
2012-12-31,284950.0
2012-11-30,284950.0
2012-10-31,284950.0
2012-09-30,285000.0
2012-08-31,289900.0
2012-07-31,289950.0
2012-06-30,285000.0
2012-05-31,284995.0
2012-04-30,279950.0
2012-03-31,275000.0
2012-02-29,265000.0
2012-01-31,265500.0
2011-12-31,259950.0
2011-11-30,271765.0
2011-10-31,279000.0
2011-09-30,279995.0
2011-08-31,280000.0
2011-07-31,279000.0
2011-06-30,280000.0
2011-05-31,275950.0
2011-04-30,279900.0
2011-03-31,282900.0
2011-02-28,279900.0
2011-01-31,279000.0
2010-12-31,285000.0
2010-11-30,289000.0
2010-10-31,294950.0
2010-09-30,298000.0
2010-08-31,294995.0
2010-07-31,299000.0
2010-06-30,299950.0
2010-05-31,317950.0
2010-04-30,318395.0
2010-03-31,314995.0
2010-02-28,329950.0
2010-01-31,325000.0
2009-12-31,320000.0
2009-11-30,319950.0
2009-10-31,320000.0
2009-09-30,329900.0
2009-08-31,339000.0
2009-07-31,349950.0
2009-06-30,347579.0
2009-05-31,349950.0
2009-04-30,357000.0
2009-03-31,355950.0
2009-02-28,357000.0
2009-01-31,357000.0
2008-12-31,364804.0
2008-11-30,369950.0
2008-10-31,374950.0
