Date,Value
2015-09-30,309307.6923
2015-07-31,294615.3846
2015-05-31,310883.6154
2015-03-31,313829.0
2013-09-30,265361.5385
2013-07-31,245200.0
2013-06-30,258823.5294
2013-05-31,261307.6923
2013-03-31,280192.3077
2013-01-31,217500.0
2010-06-30,233000.0
2009-08-31,258000.0
2007-08-31,398660.55
2007-07-31,345260.2353
2007-06-30,362886.1538
2007-04-30,299900.0
2006-10-31,344100.15
2006-09-30,308400.35
2006-08-31,347750.5
2006-07-31,386300.0
2006-06-30,380735.0
2006-05-31,361915.0
2006-04-30,339941.1765
2006-03-31,330000.0
2005-10-31,340223.0
2005-09-30,365752.9412
2005-08-31,310307.6923
2005-06-30,271192.55
2005-05-31,271761.5
2005-04-30,289058.8235
2005-03-31,273226.2308
2005-01-31,227557.0588
2004-12-31,263461.5385
2004-10-31,242600.0
2004-09-30,226335.0
2004-08-31,221465.0
2004-07-31,250935.0
2004-06-30,248450.0
2004-05-31,207940.0
2004-04-30,200567.05
2004-02-29,248455.3077
2003-12-31,220866.5
2003-11-30,211757.25
2003-10-31,210310.25
2003-09-30,207122.5
2003-08-31,238925.0
2003-07-31,220975.0
2003-06-30,237350.0
2003-05-31,234920.0
2003-04-30,249564.7059
2003-03-31,221800.0
2002-12-31,235220.5882
2002-11-30,191250.0
2002-07-31,183556.6154
2002-05-31,184387.4615
2002-03-31,189741.05
2002-02-28,187137.0588
2002-01-31,211538.4615
2001-11-30,199769.2308
2001-09-30,195769.2308
2001-07-31,182646.3
2001-06-30,177859.0
2001-05-31,183150.0
2001-03-31,229000.0
1999-10-31,193319.4
1999-09-30,199204.2353
1999-08-31,238496.0
1998-12-31,194900.0
1998-08-31,183657.5
1998-07-31,182700.0
1998-06-30,173550.0
1998-05-31,176764.7059
1998-04-30,175000.0
1997-12-31,184996.5385
1997-10-31,173633.55
1997-09-30,167478.6
1997-08-31,179682.4118
1997-07-31,176671.5385
1997-05-31,141027.5
1997-04-30,128702.9412
1997-03-31,126850.0
1996-09-30,159923.0769
1996-07-31,146907.6923
1996-05-31,136600.0
