Date,Value
2015-09-30,0.982
2015-08-31,0.942
2015-07-31,0.916
2015-06-30,0.908
2015-05-31,0.92
2015-04-30,0.95
2015-03-31,0.962
2015-02-28,0.974
2015-01-31,0.972
2014-12-31,0.972
2014-11-30,0.952
2014-10-31,0.938
2014-09-30,0.912
2014-08-31,0.896
2014-07-31,0.888
2014-06-30,0.866
2014-05-31,0.856
2014-04-30,0.864
2014-03-31,0.85
2014-02-28,0.822
2014-01-31,0.836
2013-12-31,0.87
2013-11-30,0.93
2013-10-31,0.95
2013-09-30,0.96
2013-08-31,0.964
2013-07-31,0.964
2013-06-30,0.96
2013-05-31,0.966
2013-04-30,0.982
2013-03-31,0.98
2013-02-28,0.982
2013-01-31,0.988
2012-12-31,1.004
2012-11-30,1.01
2012-10-31,1.01
2012-09-30,0.988
2012-08-31,0.974
2012-07-31,0.966
2012-06-30,0.948
2012-05-31,0.926
2012-04-30,0.908
