Date,Value
2015-09-30,914750.0
2015-08-31,919550.0
2015-07-31,904200.0
2015-06-30,841750.0
2015-05-31,865250.0
2015-04-30,871765.0
2015-03-31,853785.0
2015-02-28,809800.0
2015-01-31,803375.0
2014-12-31,795875.0
2014-11-30,697500.0
2014-10-31,722300.0
2014-09-30,693550.0
2014-08-31,753675.0
2014-07-31,768725.0
2014-06-30,865700.0
2014-05-31,869300.0
2014-04-30,821950.0
2014-03-31,678500.0
2014-02-28,640125.0
2014-01-31,654425.0
2013-12-31,714250.0
2013-11-30,798000.0
2013-10-31,668250.0
2013-09-30,564250.0
2013-08-31,573735.0
2013-07-31,665565.0
2013-06-30,606450.0
2013-05-31,556600.0
2013-04-30,573850.0
2013-03-31,563074.7
2013-02-28,516824.3
2013-01-31,610799.0
2012-12-31,684000.0
2012-11-30,694950.0
2012-10-31,645050.0
2012-09-30,667950.0
2012-08-31,632650.0
2012-07-31,657150.0
2012-06-30,632250.0
2012-05-31,481250.0
2012-04-30,488750.0
2012-03-31,462500.0
2012-02-29,537200.0
2012-01-31,498670.0
2011-12-31,453780.0
2011-11-30,520540.0
2011-10-31,558410.0
2011-09-30,603835.0
2011-08-31,573015.0
2011-07-31,527600.0
2011-06-30,529250.0
2011-05-31,535250.0
2011-04-30,586500.0
2011-03-31,594750.0
2011-02-28,628500.0
2011-01-31,597250.0
2010-12-31,708250.0
2010-11-30,658500.0
2010-10-31,604350.0
2010-09-30,610150.0
2010-08-31,722350.0
2010-07-31,677615.0
2010-06-30,675835.0
2010-05-31,586550.0
2010-04-30,558750.0
2010-03-31,569350.0
2010-02-28,564450.0
2010-01-31,619700.0
2009-12-31,665050.0
2009-11-30,684950.0
2009-10-31,680250.0
2009-09-30,608950.0
2009-08-31,708530.0
2009-07-31,716370.0
2009-06-30,668100.0
2009-05-31,549145.0
2009-04-30,580855.0
2009-03-31,616800.0
2009-01-31,841538.4615
2008-11-30,839667.5
2008-10-31,721307.5
2008-08-31,999750.0
2008-07-31,1028500.0
2008-06-30,880250.0
2008-05-31,738500.0
2008-04-30,814100.0
2008-03-31,813900.0
2008-02-29,825750.0
2008-01-31,703750.0
2007-12-31,691000.0
2007-11-30,694750.0
2007-10-31,752500.0
2007-09-30,888750.0
2007-08-31,829750.0
2007-07-31,810375.0
2007-06-30,814375.0
2007-05-31,730250.0
2007-04-30,702125.0
2007-03-31,672975.0
2007-02-28,666900.0
2007-01-31,661350.0
2006-12-31,595400.0
2006-11-30,540735.0
2006-10-31,647957.5
2006-09-30,746932.5
2006-08-31,791825.0
2006-07-31,788900.0
2006-06-30,702850.0
2006-05-31,631967.5
2006-04-30,536407.5
2006-03-31,529225.0
2006-02-28,582250.0
2006-01-31,576000.0
2005-12-31,570500.0
2005-11-30,551000.0
2005-06-30,550500.0
2005-05-31,563000.0
2005-04-30,505550.0
2005-03-31,461950.0
2005-02-28,390750.0
2005-01-31,399535.0
2004-12-31,389065.0
2004-11-30,377300.0
2004-10-31,405137.5
2004-09-30,443687.5
2004-08-31,433475.0
2004-07-31,431200.0
2004-06-30,398425.0
2004-05-31,389875.0
2004-04-30,418325.0
2004-03-31,401625.0
2004-02-29,395375.0
2004-01-31,324875.0
2003-12-31,385750.0
2003-11-30,344600.0
2003-10-31,342642.5
2003-09-30,333232.5
2003-08-31,363525.0
2003-07-31,422050.0
2003-06-30,411400.0
2003-05-31,379100.0
2003-04-30,366398.5
2003-03-31,350996.5
2003-02-28,374495.0
2003-01-31,340500.0
2002-12-31,334500.0
2002-11-30,373250.0
2002-10-31,373250.0
2002-09-30,357000.0
2002-08-31,366025.0
2002-07-31,370775.0
2002-06-30,354950.0
2002-05-31,355125.0
2002-04-30,367875.0
2002-03-31,366492.5
2002-02-28,340475.0
2002-01-31,292457.5
2001-12-31,342467.5
2001-11-30,319682.5
2001-10-31,322775.0
2001-09-30,310750.0
2001-08-31,369500.0
2001-07-31,376000.0
2001-06-30,353550.0
2001-05-31,331050.0
2001-04-30,315650.0
2001-03-31,267250.0
2001-01-31,363375.0
2000-12-31,366750.0
2000-11-30,387110.0
2000-10-31,384257.5
2000-09-30,327382.5
2000-08-31,319075.0
2000-07-31,318650.0
2000-06-30,321500.0
2000-05-31,324800.0
2000-04-30,312050.0
2000-03-31,299325.0
2000-02-29,271125.0
2000-01-31,322317.5
1999-12-31,372357.5
1999-11-30,380475.0
1999-10-31,310850.0
1999-09-30,313350.0
1999-08-31,331650.0
1999-07-31,377950.0
1999-06-30,392950.0
1999-05-31,389500.0
1999-04-30,327450.0
1999-03-31,310550.0
1999-02-28,266000.0
1999-01-31,281000.0
1998-12-31,269142.5
1998-11-30,231895.0
1998-09-30,281875.0
1998-08-31,336875.0
1998-07-31,372350.0
1998-06-30,337125.0
1998-01-31,314600.0
1997-12-31,285150.0
1997-11-30,290500.0
1997-10-31,285392.5
1997-09-30,262582.5
1997-08-31,266025.0
1997-07-31,239750.0
1997-06-30,227950.0
1997-05-31,220500.0
1997-04-30,229950.0
1997-03-31,228650.0
1997-02-28,245250.0
1997-01-31,234775.0
1996-12-31,222075.0
1996-04-30,203800.0
