Date,Value
2015-02-28,229000.0
2015-01-31,215000.0
2014-12-31,215000.0
2014-11-30,179000.0
2014-10-31,225000.0
2014-09-30,225000.0
2014-08-31,189500.0
2014-07-31,229000.0
2014-06-30,159900.0
2014-05-31,155900.0
2014-04-30,159900.0
2014-03-31,159900.0
2014-02-28,159900.0
2014-01-31,185000.0
2013-12-31,215000.0
2013-11-30,295000.0
2013-10-31,219000.0
2013-09-30,215000.0
2013-08-31,219000.0
2013-07-31,249900.0
2013-06-30,199950.0
2013-05-31,189000.0
2013-04-30,194500.0
2013-03-31,194500.0
2013-02-28,194500.0
2013-01-31,199950.0
2012-12-31,199900.0
2012-11-30,190000.0
2012-10-31,190000.0
2012-09-30,229000.0
2012-08-31,229000.0
2012-07-31,139900.0
2012-06-30,135500.0
2012-05-31,149900.0
2012-04-30,133900.0
2012-03-31,169900.0
2012-02-29,133900.0
2012-01-31,133900.0
2011-12-31,126500.0
2011-11-30,169500.0
2011-10-31,169500.0
2011-09-30,185000.0
2011-08-31,185000.0
2011-07-31,185000.0
2011-06-30,166500.0
2011-05-31,178800.0
2011-04-30,230000.0
2011-03-31,229900.0
2011-02-28,260000.0
2011-01-31,199500.0
2010-12-31,230000.0
2010-11-30,285000.0
2010-10-31,227500.0
2010-09-30,199500.0
2010-08-31,190000.0
2010-07-31,260000.0
2010-06-30,249900.0
2010-05-31,249900.0
2010-04-30,230000.0
2010-03-31,230000.0
2010-02-28,230000.0
2010-01-31,260000.0
2009-12-31,260000.0
2009-11-30,230000.0
2009-10-31,240000.0
2009-09-30,225000.0
2009-08-31,275000.0
2009-07-31,275000.0
2009-06-30,334000.0
2009-05-31,299000.0
2009-04-30,334000.0
2009-03-31,372500.0
2009-02-28,334000.0
2009-01-31,299000.0
2008-12-31,285000.0
2008-11-30,285000.0
2008-10-31,275000.0
