Date,Value
2015-02-28,204000.0
2015-01-31,224900.0
2014-12-31,225000.0
2014-11-30,248000.0
2014-10-31,249900.0
2014-09-30,250000.0
2014-08-31,249000.0
2014-07-31,248000.0
2014-06-30,249000.0
2014-05-31,239000.0
2014-04-30,246000.0
2014-03-31,239000.0
2014-02-28,240000.0
2014-01-31,237500.0
2013-12-31,225000.0
2013-11-30,219900.0
2013-10-31,225000.0
2013-09-30,224900.0
2013-08-31,224900.0
2013-07-31,225000.0
2013-06-30,240000.0
2013-05-31,229900.0
2013-04-30,220000.0
2013-03-31,219500.0
2013-02-28,197950.0
2013-01-31,219500.0
2012-12-31,220000.0
2012-11-30,199900.0
2012-10-31,160000.0
2012-09-30,221000.0
2012-08-31,220000.0
2012-07-31,199900.0
2012-06-30,200000.0
2012-05-31,199900.0
2012-04-30,199000.0
2012-03-31,220000.0
2012-02-29,199000.0
2012-01-31,209900.0
2011-12-31,220000.0
2011-11-30,199400.0
2011-10-31,215000.0
2011-09-30,225000.0
2011-08-31,229000.0
2011-07-31,229000.0
2011-06-30,229000.0
2011-05-31,224900.0
2011-04-30,225000.0
2011-03-31,225000.0
2011-02-28,199995.0
2011-01-31,220000.0
2010-12-31,224900.0
2010-11-30,239900.0
2010-10-31,239900.0
2010-09-30,239900.0
2010-08-31,239900.0
2010-07-31,239900.0
2010-06-30,249900.0
2010-05-31,249900.0
2010-04-30,249900.0
2010-03-31,255000.0
2010-02-28,265000.0
2010-01-31,265000.0
2009-12-31,289900.0
2009-11-30,299000.0
2009-10-31,295000.0
2009-09-30,299000.0
2009-08-31,295000.0
2009-07-31,295000.0
2009-06-30,295000.0
2009-05-31,288000.0
2009-04-30,289900.0
2009-03-31,279900.0
2009-02-28,280000.0
2009-01-31,295000.0
2008-12-31,295000.0
2008-11-30,295000.0
2008-10-31,295000.0
