Date,Value
2015-02-28,799000.0
2015-01-31,799000.0
2014-12-31,799000.0
2014-11-30,799000.0
2014-10-31,820000.0
2014-09-30,820000.0
2014-08-31,1400000.0
2014-07-31,1400000.0
2014-06-30,1400000.0
2014-05-31,1400000.0
