Date,Value
2015-09-30,0.96
2015-08-31,0.954
2015-07-31,0.95
2015-06-30,0.946
2015-05-31,0.944
2015-04-30,0.942
2015-03-31,0.936
2015-02-28,0.932
2015-01-31,0.932
2014-12-31,0.934
2014-11-30,0.938
2014-10-31,0.932
2014-09-30,0.926
2014-08-31,0.922
2014-07-31,0.922
2014-06-30,0.926
2014-05-31,0.93
2014-04-30,0.93
2014-03-31,0.93
2014-02-28,0.928
2014-01-31,0.928
2013-12-31,0.926
2013-11-30,0.922
2013-10-31,0.914
2013-09-30,0.912
2013-08-31,0.908
2013-07-31,0.9
2013-06-30,0.894
2013-05-31,0.894
2013-04-30,0.894
2013-03-31,0.896
2013-02-28,0.89
2013-01-31,0.886
2012-12-31,0.884
2012-11-30,0.884
2012-10-31,0.882
2012-09-30,0.882
2012-08-31,0.88
2012-07-31,0.876
2012-06-30,0.872
2012-05-31,0.864
2012-04-30,0.854
2012-03-31,0.848
2012-02-29,0.846
2012-01-31,0.842
2011-12-31,0.846
2011-11-30,0.85
2011-10-31,0.854
2011-09-30,0.856
2011-08-31,0.864
2011-07-31,0.87
2011-06-30,0.874
2011-05-31,0.874
2011-04-30,0.874
2011-03-31,0.878
2011-02-28,0.89
2011-01-31,0.9
2010-12-31,0.894
2010-11-30,0.886
