Date,Value
2015-09-30,299400.0
2015-08-31,295100.0
2015-07-31,293700.0
2015-06-30,293300.0
2015-05-31,292900.0
2015-04-30,290200.0
2015-03-31,289400.0
2015-02-28,287700.0
2015-01-31,286400.0
2014-12-31,284900.0
2014-11-30,282400.0
2014-10-31,280500.0
2014-09-30,281000.0
2014-08-31,281200.0
2014-07-31,280200.0
2014-06-30,278900.0
2014-05-31,277200.0
2014-04-30,276000.0
2014-03-31,274800.0
2014-02-28,273100.0
2014-01-31,270400.0
2013-12-31,267600.0
2013-11-30,265300.0
2013-10-31,264200.0
2013-09-30,262600.0
2013-08-31,260700.0
2013-07-31,259300.0
2013-06-30,258300.0
2013-05-31,256800.0
2013-04-30,254600.0
2013-03-31,253600.0
2013-02-28,253100.0
2013-01-31,252000.0
2012-12-31,251500.0
2012-11-30,251200.0
2012-10-31,251100.0
2012-09-30,251700.0
2012-08-31,252100.0
2012-07-31,251100.0
2012-06-30,249300.0
2012-05-31,247300.0
2012-04-30,245900.0
2012-03-31,245200.0
2012-02-29,244700.0
2012-01-31,245200.0
2011-12-31,246500.0
2011-11-30,248000.0
2011-10-31,249000.0
2011-09-30,249400.0
2011-08-31,250200.0
2011-07-31,251900.0
2011-06-30,255400.0
2011-05-31,260700.0
2011-04-30,264800.0
2011-03-31,267000.0
2011-02-28,269800.0
2011-01-31,273000.0
2010-12-31,274800.0
2010-11-30,275700.0
2010-10-31,277100.0
2010-09-30,278900.0
2010-08-31,280400.0
2010-07-31,280700.0
2010-06-30,280500.0
2010-05-31,280800.0
2010-04-30,282400.0
2010-03-31,283700.0
2010-02-28,283500.0
2010-01-31,282600.0
2009-12-31,283500.0
2009-11-30,285600.0
2009-10-31,286500.0
2009-09-30,285100.0
2009-08-31,284200.0
2009-07-31,285200.0
2009-06-30,286600.0
2009-05-31,286300.0
2009-04-30,286000.0
2009-03-31,287300.0
2009-02-28,290700.0
2009-01-31,293400.0
2008-12-31,294100.0
2008-11-30,295300.0
2008-10-31,298700.0
2008-09-30,303200.0
2008-08-31,306500.0
2008-07-31,309700.0
2008-06-30,312900.0
2008-05-31,315800.0
2008-04-30,318000.0
2008-03-31,319900.0
2008-02-29,321300.0
2008-01-31,323100.0
2007-12-31,326100.0
2007-11-30,329300.0
2007-10-31,331300.0
2007-09-30,332600.0
2007-08-31,333900.0
2007-07-31,335400.0
2007-06-30,336200.0
2007-05-31,336400.0
2007-04-30,336400.0
2007-03-31,335900.0
2007-02-28,334500.0
2007-01-31,333500.0
2006-12-31,333700.0
2006-11-30,333800.0
2006-10-31,333900.0
2006-09-30,333700.0
2006-08-31,332600.0
2006-07-31,330300.0
2006-06-30,327300.0
2006-05-31,325100.0
2006-04-30,324400.0
2006-03-31,323100.0
2006-02-28,320400.0
2006-01-31,317700.0
2005-12-31,314100.0
2005-11-30,308800.0
2005-10-31,302200.0
2005-09-30,295300.0
2005-08-31,289300.0
2005-07-31,285200.0
2005-06-30,282200.0
2005-05-31,279700.0
2005-04-30,276500.0
2005-03-31,272200.0
2005-02-28,267800.0
2005-01-31,263400.0
2004-12-31,259200.0
2004-11-30,254500.0
2004-10-31,250200.0
2004-09-30,247200.0
2004-08-31,244800.0
2004-07-31,240900.0
2004-06-30,237000.0
2004-05-31,234100.0
2004-04-30,231100.0
2004-03-31,228400.0
2004-02-29,227300.0
2004-01-31,227500.0
2003-12-31,227000.0
2003-11-30,225700.0
2003-10-31,224800.0
2003-09-30,224600.0
2003-08-31,224000.0
2003-07-31,222000.0
2003-06-30,219700.0
2003-05-31,217200.0
2003-04-30,214500.0
2003-03-31,212100.0
2003-02-28,210900.0
2003-01-31,209600.0
2002-12-31,208200.0
2002-11-30,207800.0
2002-10-31,207000.0
2002-09-30,205800.0
2002-08-31,206200.0
2002-07-31,208700.0
2002-06-30,211200.0
2002-05-31,212400.0
2002-04-30,212700.0
2002-03-31,213400.0
2002-02-28,212700.0
2002-01-31,210200.0
2001-12-31,207500.0
2001-11-30,206000.0
2001-10-31,204400.0
2001-09-30,203300.0
2001-08-31,202100.0
2001-07-31,200000.0
2001-06-30,197200.0
2001-05-31,195000.0
2001-04-30,193800.0
2001-03-31,193000.0
2001-02-28,193000.0
2001-01-31,192700.0
2000-12-31,192500.0
2000-11-30,192800.0
2000-10-31,194200.0
2000-09-30,194900.0
2000-08-31,194400.0
2000-07-31,193400.0
2000-06-30,192200.0
2000-05-31,190900.0
2000-04-30,190000.0
2000-03-31,189100.0
2000-02-29,187900.0
2000-01-31,187400.0
1999-12-31,187200.0
1999-11-30,186300.0
1999-10-31,184700.0
1999-09-30,182800.0
1999-08-31,180800.0
1999-07-31,178900.0
1999-06-30,177800.0
1999-05-31,177000.0
1999-04-30,176600.0
1999-03-31,176100.0
1999-02-28,174500.0
1999-01-31,173700.0
1998-12-31,174000.0
1998-11-30,174600.0
1998-10-31,175000.0
1998-09-30,175100.0
1998-08-31,174900.0
1998-07-31,174900.0
1998-06-30,175000.0
1998-05-31,174700.0
1998-04-30,174000.0
1998-03-31,172500.0
1998-02-28,171000.0
1998-01-31,169800.0
1997-12-31,167600.0
1997-11-30,164900.0
1997-10-31,162400.0
1997-09-30,160400.0
1997-08-31,158400.0
1997-07-31,156400.0
1997-06-30,154600.0
1997-05-31,153300.0
1997-04-30,152000.0
1997-03-31,150400.0
1997-02-28,148700.0
1997-01-31,146800.0
1996-12-31,145300.0
1996-11-30,144300.0
1996-10-31,143300.0
1996-09-30,142200.0
1996-08-31,141600.0
1996-07-31,141800.0
1996-06-30,142300.0
1996-05-31,141900.0
1996-04-30,141300.0
