Date,Value
2015-09-30,122800.0
2015-08-31,121600.0
2015-07-31,121300.0
2015-06-30,122600.0
2015-05-31,122000.0
2015-04-30,120500.0
2015-03-31,120000.0
2015-02-28,119400.0
2015-01-31,118800.0
2014-12-31,118800.0
2014-11-30,118600.0
2014-10-31,118700.0
2014-09-30,118700.0
2014-08-31,118500.0
2014-07-31,118600.0
2014-06-30,119700.0
2014-05-31,120500.0
2014-04-30,121100.0
2014-03-31,121500.0
2014-02-28,122500.0
2014-01-31,122900.0
2013-12-31,122300.0
2013-11-30,121800.0
2013-10-31,122300.0
2013-09-30,122800.0
2013-08-31,123800.0
2013-07-31,124400.0
2013-06-30,123500.0
2013-05-31,122000.0
2013-04-30,120800.0
2013-03-31,119900.0
2013-02-28,119000.0
2013-01-31,117700.0
2012-12-31,116300.0
2012-11-30,115800.0
2012-10-31,115200.0
2012-09-30,114000.0
2012-08-31,112700.0
2012-07-31,111900.0
2012-06-30,110900.0
2012-05-31,110100.0
2012-04-30,109900.0
2012-03-31,110200.0
2012-02-29,110600.0
2012-01-31,111500.0
2011-12-31,112400.0
2011-11-30,113100.0
2011-10-31,113700.0
2011-09-30,114200.0
2011-08-31,114500.0
2011-07-31,115300.0
2011-06-30,116500.0
2011-05-31,117400.0
2011-04-30,117300.0
2011-03-31,116600.0
2011-02-28,115900.0
2011-01-31,116000.0
2010-12-31,116400.0
2010-11-30,116100.0
2010-10-31,115400.0
2010-09-30,115200.0
2010-08-31,115000.0
2010-07-31,114900.0
2010-06-30,115400.0
2010-05-31,116200.0
2010-04-30,116700.0
2010-03-31,116900.0
2010-02-28,116300.0
2010-01-31,115500.0
2009-12-31,114800.0
2009-11-30,114400.0
2009-10-31,114200.0
2009-09-30,114300.0
2009-08-31,114600.0
2009-07-31,115100.0
2009-06-30,115300.0
2009-05-31,114800.0
2009-04-30,114300.0
2009-03-31,114300.0
2009-02-28,114600.0
2009-01-31,115100.0
2008-12-31,116100.0
2008-11-30,117300.0
2008-10-31,118100.0
2008-09-30,118600.0
2008-08-31,119400.0
2008-07-31,120000.0
2008-06-30,120100.0
2008-05-31,119800.0
2008-04-30,119300.0
2008-03-31,118800.0
2008-02-29,119000.0
2008-01-31,118600.0
2007-12-31,118100.0
2007-11-30,117600.0
2007-10-31,117700.0
2007-09-30,118000.0
2007-08-31,117700.0
2007-07-31,116500.0
2007-06-30,115500.0
2007-05-31,114500.0
2007-04-30,113800.0
2007-03-31,113700.0
2007-02-28,114200.0
2007-01-31,114700.0
2006-12-31,114800.0
2006-11-30,114300.0
2006-10-31,113400.0
2006-09-30,112800.0
2006-08-31,112400.0
2006-07-31,111700.0
2006-06-30,110700.0
2006-05-31,110100.0
2006-04-30,110200.0
2006-03-31,110500.0
2006-02-28,110500.0
2006-01-31,110300.0
2005-12-31,109500.0
2005-11-30,108800.0
2005-10-31,108200.0
2005-09-30,106800.0
2005-08-31,105600.0
2005-07-31,105200.0
2005-06-30,105100.0
2005-05-31,105000.0
2005-04-30,105000.0
2005-03-31,104800.0
2005-02-28,104500.0
2005-01-31,103900.0
2004-12-31,103000.0
2004-11-30,102400.0
2004-10-31,101900.0
2004-09-30,101500.0
2004-08-31,101500.0
2004-07-31,101400.0
2004-06-30,101100.0
2004-05-31,100700.0
2004-04-30,100200.0
2004-03-31,99400.0
2004-02-29,98200.0
2004-01-31,97200.0
2003-12-31,96500.0
2003-11-30,96000.0
2003-10-31,95400.0
2003-09-30,95000.0
2003-08-31,94000.0
2003-07-31,92900.0
2003-06-30,92200.0
2003-05-31,91900.0
2003-04-30,91700.0
2003-03-31,91800.0
2003-02-28,91900.0
2003-01-31,92100.0
2002-12-31,92400.0
2002-11-30,92200.0
2002-10-31,91400.0
2002-09-30,90600.0
2002-08-31,90100.0
2002-07-31,89500.0
2002-06-30,89300.0
2002-05-31,89300.0
2002-04-30,88800.0
2002-03-31,87700.0
2002-02-28,86600.0
2002-01-31,86200.0
2001-12-31,86300.0
2001-11-30,86700.0
2001-10-31,87700.0
2001-09-30,88600.0
2001-08-31,89000.0
2001-07-31,89500.0
2001-06-30,90200.0
2001-05-31,90200.0
2001-04-30,89900.0
2001-03-31,89600.0
2001-02-28,88900.0
2001-01-31,87800.0
2000-12-31,86500.0
2000-11-30,85500.0
2000-10-31,84900.0
2000-09-30,84400.0
2000-08-31,83900.0
2000-07-31,83200.0
2000-06-30,82700.0
2000-05-31,82400.0
2000-04-30,82100.0
2000-03-31,81900.0
2000-02-29,82200.0
2000-01-31,82400.0
1999-12-31,82500.0
1999-11-30,82800.0
1999-10-31,82900.0
1999-09-30,83000.0
1999-08-31,83600.0
1999-07-31,84400.0
1999-06-30,84700.0
1999-05-31,84800.0
1999-04-30,84800.0
1999-03-31,85000.0
1999-02-28,85100.0
1999-01-31,85000.0
1998-12-31,85000.0
1998-11-30,85000.0
1998-10-31,84900.0
1998-09-30,84500.0
1998-08-31,84400.0
1998-07-31,84300.0
1998-06-30,84000.0
1998-05-31,83900.0
1998-04-30,83900.0
1998-03-31,83800.0
1998-02-28,83500.0
1998-01-31,83400.0
1997-12-31,83400.0
1997-11-30,83200.0
1997-10-31,83000.0
1997-09-30,82600.0
1997-08-31,82100.0
1997-07-31,81900.0
1997-06-30,81800.0
1997-05-31,81300.0
1997-04-30,81200.0
1997-03-31,81700.0
1997-02-28,81800.0
1997-01-31,81200.0
1996-12-31,80900.0
1996-11-30,80800.0
1996-10-31,80800.0
1996-09-30,80900.0
1996-08-31,80800.0
1996-07-31,80400.0
1996-06-30,79800.0
1996-05-31,79200.0
1996-04-30,78300.0
