Date,Value
2015-09-30,277357.5
2015-08-31,271767.5
2015-07-31,262750.0
2015-06-30,273500.0
2015-05-31,277442.5
2015-04-30,271600.0
2015-03-31,261350.0
2015-02-28,254600.0
2015-01-31,245725.0
2014-12-31,255550.0
2014-11-30,260562.5
2014-10-31,262080.0
2014-09-30,265657.5
2014-08-31,259460.0
2014-07-31,249215.0
2014-06-30,257975.0
2014-05-31,253525.0
2014-04-30,251977.0
2014-03-31,248705.0
2014-02-28,255838.0
2014-01-31,244682.0
2013-12-31,239348.0
2013-11-30,239932.0
2013-10-31,243240.0
2013-09-30,250130.5
2013-08-31,244914.5
2013-07-31,230065.0
2013-06-30,222130.5
2013-05-31,224064.5
2013-04-30,228823.0
2013-03-31,210140.0
2013-02-28,201500.0
2013-01-31,229842.5
2012-12-31,232424.5
2012-11-30,227673.0
2012-10-31,220082.0
2012-09-30,220422.0
2012-08-31,218013.0
2012-07-31,222103.0
2012-06-30,213440.0
2012-05-31,219688.0
2012-04-30,230640.0
2012-03-31,226117.0
2012-02-29,204015.0
2012-01-31,194038.0
2011-12-31,216432.0
2011-11-30,207390.0
2011-10-31,200130.0
2011-09-30,216205.0
2011-08-31,188461.5
2011-07-31,194548.0
2011-06-30,190480.5
2011-05-31,196917.05
2011-04-30,187878.95
2011-03-31,189490.5
2011-02-28,196190.0
2011-01-31,207088.0
2010-12-31,210640.0
2010-11-30,224992.5
2010-10-31,229907.5
2010-09-30,228252.0
2010-08-31,224863.0
2010-07-31,219575.0
2010-06-30,233915.0
2010-05-31,232353.5
2010-04-30,236990.75
2010-03-31,234416.5
2010-02-28,237955.05
2010-01-31,239094.95
2009-12-31,241575.75
2009-11-30,233630.5
2009-10-31,238727.85
2009-09-30,240723.0
2009-08-31,245540.0
2009-07-31,242580.0
2009-06-30,246550.0
2009-05-31,247500.0
2009-04-30,250764.7059
2009-03-31,247372.3077
2009-01-31,281579.4
2008-12-31,287541.1
2008-11-30,285773.0
2008-10-31,292150.0
2008-09-30,297948.5
2008-08-31,303581.5
2008-07-31,290760.0
2008-06-30,288777.5
2008-05-31,303739.5
2008-04-30,303390.5
2008-03-31,302890.0
2008-02-29,304257.5
2008-01-31,299667.5
2007-12-31,305832.5
2007-11-30,311875.0
2007-10-31,316298.45
2007-09-30,322088.05
2007-08-31,319679.0
2007-07-31,320731.0
2007-06-30,324071.5
2007-05-31,324079.25
2007-04-30,324313.7
2007-03-31,324448.55
2007-02-28,311701.5
2007-01-31,300085.0
2006-12-31,297707.5
2006-11-30,296582.5
2006-10-31,300217.5
2006-09-30,302025.0
2006-08-31,303150.0
2006-07-31,297207.5
2006-06-30,289417.5
2006-05-31,278707.5
2006-04-30,279142.0
2006-03-31,270465.5
2006-02-28,269447.5
2006-01-31,265467.5
2005-12-31,261200.0
2005-11-30,260826.0
2005-10-31,256924.0
2005-09-30,256615.0
2005-08-31,253907.5
2005-07-31,247925.0
2005-06-30,242425.0
2005-05-31,237625.0
2005-04-30,235942.5
2005-03-31,230632.5
2005-02-28,224475.0
2005-01-31,211200.0
2004-12-31,214052.05
2004-11-30,216921.45
2004-10-31,215141.0
2004-09-30,213007.5
2004-08-31,213160.0
2004-07-31,207455.0
2004-06-30,201310.0
2004-05-31,203675.0
2004-04-30,201118.75
2004-03-31,197043.75
2004-02-29,195415.0
2004-01-31,193222.5
2003-12-31,190750.0
2003-11-30,194542.5
2003-10-31,196897.5
2003-09-30,197935.0
2003-08-31,192625.65
2003-07-31,196814.85
2003-06-30,201680.5
2003-05-31,198875.0
2003-04-30,193050.0
2003-03-31,192277.5
2003-02-28,188490.15
2003-01-31,187957.85
2002-12-31,185618.0
2002-11-30,185532.5
2002-10-31,188467.5
2002-09-30,191007.5
2002-08-31,189250.0
2002-07-31,186340.55
2002-06-30,186577.95
2002-05-31,184368.5
2002-04-30,183950.0
2002-03-31,181217.5
2002-02-28,180720.0
2002-01-31,184625.0
2001-12-31,182237.5
2001-11-30,183832.5
2001-10-31,183492.5
2001-09-30,183625.0
2001-08-31,181345.65
2001-07-31,181163.95
2001-06-30,181858.4
2001-05-31,182789.5
2001-04-30,179830.0
2001-03-31,176845.0
2001-02-28,173607.5
2001-01-31,172925.0
2000-12-31,171100.0
2000-11-30,172750.0
2000-10-31,166350.0
2000-09-30,170000.0
2000-08-31,172250.0
2000-07-31,174825.0
2000-06-30,170975.0
2000-05-31,167750.0
2000-04-30,165000.0
2000-03-31,161500.0
2000-02-29,163875.0
2000-01-31,167075.0
1999-12-31,166292.5
1999-11-30,168706.6
1999-10-31,166090.4
1999-09-30,156822.0
1999-08-31,155957.5
1999-07-31,153425.0
1999-06-30,154042.5
1999-05-31,155007.5
1999-04-30,154760.25
1999-03-31,156349.75
1999-02-28,156900.0
1999-01-31,156667.5
1998-12-31,156275.0
1998-11-30,151482.5
1998-10-31,154017.5
1998-09-30,155800.0
1998-08-31,156250.0
1998-07-31,155557.5
1998-06-30,157800.0
1998-05-31,156217.5
1998-04-30,157207.5
1998-03-31,154180.0
1998-02-28,151420.0
1998-01-31,147750.0
1997-12-31,141942.5
1997-11-30,139082.5
1997-10-31,141975.0
1997-09-30,144255.0
1997-08-31,144137.5
1997-07-31,144075.0
1997-06-30,142482.5
1997-05-31,142792.5
1997-04-30,140632.5
1997-03-31,142135.0
1997-02-28,144340.0
1997-01-31,141687.5
1996-12-31,139763.75
1996-11-30,132128.75
1996-10-31,133289.5
1996-09-30,134313.0
1996-08-31,135240.0
1996-07-31,138356.0
1996-06-30,140332.5
1996-05-31,136154.0
1996-04-30,135362.5
