Date,Value
2015-09-30,0.968
2015-08-31,0.954
2015-07-31,0.95
2015-06-30,0.946
2015-05-31,0.942
2015-04-30,0.936
2015-03-31,0.932
2015-02-28,0.928
2015-01-31,0.926
2014-12-31,0.92
2014-11-30,0.914
2014-10-31,0.902
2014-09-30,0.892
2014-08-31,0.878
2014-07-31,0.86
2014-06-30,0.842
2014-05-31,0.83
2014-04-30,0.83
2014-03-31,0.842
2014-02-28,0.854
2014-01-31,0.866
2013-12-31,0.868
2013-11-30,0.868
2013-10-31,0.86
2013-09-30,0.852
2013-08-31,0.848
2013-07-31,0.844
2013-06-30,0.844
2013-05-31,0.844
2013-04-30,0.842
2013-03-31,0.84
2013-02-28,0.838
2013-01-31,0.836
2012-12-31,0.826
2012-11-30,0.818
2012-10-31,0.812
2012-09-30,0.812
2012-08-31,0.812
2012-07-31,0.808
2012-06-30,0.808
2012-05-31,0.798
2012-04-30,0.79
2012-03-31,0.784
2012-02-29,0.79
2012-01-31,0.796
2011-12-31,0.786
2011-11-30,0.774
2011-10-31,0.76
2011-09-30,0.758
2011-08-31,0.76
2011-07-31,0.76
2011-06-30,0.758
2011-05-31,0.754
2011-04-30,0.752
2011-03-31,0.724
2011-02-28,0.676
2011-01-31,0.636
2010-12-31,0.634
2010-11-30,0.636
