Date,Value
2015-09-30,336200.0
2015-08-31,332600.0
2015-07-31,327900.0
2015-06-30,326000.0
2015-05-31,323600.0
2015-04-30,323800.0
2015-03-31,323000.0
2015-02-28,320900.0
2015-01-31,318500.0
2014-12-31,317800.0
2014-11-30,317600.0
2014-10-31,316900.0
2014-09-30,317200.0
2014-08-31,317500.0
2014-07-31,317600.0
2014-06-30,317900.0
2014-05-31,316900.0
2014-04-30,315100.0
2014-03-31,314000.0
2014-02-28,313600.0
2014-01-31,312400.0
2013-12-31,311000.0
2013-11-30,309700.0
2013-10-31,308400.0
2013-09-30,305700.0
2013-08-31,302400.0
2013-07-31,298800.0
2013-06-30,293700.0
2013-05-31,287900.0
2013-04-30,283700.0
2013-03-31,282000.0
2013-02-28,280700.0
2013-01-31,278800.0
2012-12-31,276500.0
2012-11-30,274200.0
2012-10-31,271700.0
2012-09-30,269400.0
2012-08-31,268200.0
2012-07-31,268100.0
2012-06-30,268400.0
2012-05-31,267800.0
2012-04-30,265600.0
2012-03-31,263300.0
2012-02-29,261800.0
2012-01-31,260900.0
2011-12-31,259800.0
2011-11-30,259400.0
2011-10-31,259100.0
2011-09-30,258300.0
2011-08-31,257100.0
2011-07-31,256900.0
2011-06-30,257500.0
2011-05-31,258900.0
2011-04-30,260200.0
2011-03-31,262100.0
2011-02-28,265000.0
2011-01-31,268200.0
2010-12-31,270500.0
2010-11-30,272200.0
2010-10-31,273200.0
2010-09-30,273300.0
2010-08-31,273100.0
2010-07-31,273200.0
2010-06-30,274800.0
2010-05-31,278400.0
2010-04-30,282000.0
2010-03-31,284400.0
2010-02-28,286400.0
2010-01-31,289800.0
2009-12-31,293500.0
2009-11-30,296800.0
2009-10-31,299300.0
2009-09-30,302600.0
2009-08-31,305700.0
2009-07-31,307500.0
2009-06-30,307800.0
2009-05-31,307900.0
2009-04-30,309200.0
2009-03-31,310900.0
2009-02-28,313100.0
2009-01-31,313700.0
2008-12-31,314600.0
2008-11-30,317700.0
2008-10-31,323300.0
2008-09-30,328400.0
2008-08-31,333600.0
2008-07-31,337600.0
2008-06-30,341200.0
2008-05-31,346000.0
2008-04-30,351700.0
2008-03-31,355900.0
2008-02-29,358900.0
2008-01-31,362200.0
2007-12-31,365300.0
2007-11-30,367300.0
2007-10-31,368400.0
2007-09-30,368700.0
2007-08-31,369900.0
2007-07-31,371800.0
2007-06-30,373600.0
2007-05-31,374000.0
2007-04-30,373700.0
2007-03-31,373800.0
2007-02-28,373600.0
2007-01-31,372900.0
2006-12-31,372200.0
2006-11-30,371500.0
2006-10-31,371900.0
2006-09-30,375200.0
2006-08-31,378000.0
2006-07-31,378100.0
2006-06-30,376000.0
2006-05-31,373200.0
2006-04-30,370700.0
2006-03-31,367700.0
2006-02-28,363600.0
2006-01-31,359800.0
2005-12-31,355900.0
2005-11-30,350500.0
2005-10-31,343100.0
2005-09-30,334400.0
2005-08-31,326200.0
2005-07-31,319500.0
2005-06-30,314200.0
2005-05-31,309600.0
2005-04-30,304900.0
2005-03-31,300400.0
2005-02-28,297100.0
2005-01-31,294500.0
2004-12-31,291700.0
2004-11-30,289400.0
2004-10-31,287500.0
2004-09-30,286000.0
2004-08-31,284000.0
2004-07-31,282500.0
2004-06-30,281200.0
2004-05-31,279000.0
2004-04-30,275900.0
2004-03-31,272900.0
2004-02-29,269500.0
2004-01-31,265800.0
2003-12-31,262400.0
2003-11-30,259000.0
2003-10-31,255100.0
2003-09-30,251500.0
2003-08-31,248600.0
2003-07-31,246400.0
2003-06-30,244900.0
2003-05-31,243100.0
2003-04-30,241000.0
2003-03-31,239300.0
2003-02-28,238600.0
2003-01-31,238400.0
2002-12-31,238300.0
2002-11-30,238300.0
2002-10-31,237600.0
2002-09-30,236200.0
2002-08-31,235100.0
2002-07-31,234300.0
2002-06-30,233300.0
2002-05-31,233300.0
2002-04-30,234000.0
2002-03-31,233900.0
2002-02-28,233100.0
2002-01-31,231900.0
2001-12-31,230900.0
2001-11-30,230100.0
2001-10-31,229800.0
2001-09-30,229500.0
2001-08-31,228400.0
2001-07-31,226600.0
2001-06-30,225500.0
2001-05-31,224700.0
2001-04-30,223300.0
2001-03-31,222400.0
2001-02-28,221300.0
2001-01-31,219600.0
2000-12-31,217600.0
2000-11-30,216300.0
2000-10-31,215800.0
2000-09-30,216000.0
2000-08-31,216200.0
2000-07-31,216400.0
2000-06-30,216800.0
2000-05-31,216500.0
2000-04-30,215800.0
2000-03-31,215200.0
2000-02-29,214700.0
2000-01-31,213700.0
1999-12-31,212700.0
1999-11-30,212600.0
1999-10-31,213900.0
1999-09-30,215600.0
1999-08-31,216000.0
1999-07-31,215900.0
1999-06-30,215700.0
1999-05-31,215200.0
1999-04-30,214600.0
1999-03-31,213800.0
1999-02-28,212600.0
1999-01-31,212100.0
1998-12-31,211600.0
1998-11-30,210200.0
1998-10-31,207900.0
1998-09-30,206000.0
1998-08-31,204700.0
1998-07-31,203500.0
1998-06-30,202200.0
1998-05-31,201400.0
1998-04-30,201400.0
1998-03-31,202000.0
1998-02-28,202300.0
1998-01-31,201600.0
1997-12-31,200000.0
1997-11-30,198500.0
1997-10-31,196600.0
1997-09-30,194100.0
1997-08-31,191700.0
1997-07-31,189400.0
1997-06-30,187000.0
1997-05-31,185200.0
1997-04-30,185100.0
1997-03-31,184700.0
1997-02-28,182700.0
1997-01-31,180500.0
1996-12-31,180200.0
1996-11-30,180900.0
1996-10-31,181100.0
1996-09-30,181000.0
1996-08-31,181300.0
1996-07-31,181600.0
1996-06-30,180900.0
1996-05-31,179100.0
1996-04-30,176500.0
