Date,Value
2015-02-28,449950.0
2015-01-31,475000.0
2014-12-31,520000.0
2014-11-30,523990.0
2014-10-31,520000.0
2014-09-30,490000.0
2014-08-31,479500.0
2014-07-31,498000.0
2014-06-30,475000.0
2014-05-31,428500.0
2014-04-30,432500.0
2014-03-31,424450.0
2014-02-28,411350.0
2014-01-31,409950.0
2013-12-31,430650.0
2013-11-30,411550.0
2013-10-31,419065.0
2013-09-30,415000.0
2013-08-31,400000.0
2013-07-31,405000.0
2013-06-30,390000.0
2013-05-31,381990.0
2013-04-30,386750.0
2013-03-31,371150.0
2013-02-28,374950.0
2013-01-31,373350.0
2012-12-31,364950.0
2012-11-30,379950.0
2012-10-31,380000.0
2012-09-30,389000.0
2012-08-31,400000.0
2012-07-31,414500.0
2012-06-30,424500.0
2012-05-31,408500.0
2012-04-30,409995.0
2012-03-31,400000.0
2012-02-29,399950.0
2012-01-31,399000.0
2011-12-31,394995.0
2011-11-30,392420.0
2011-10-31,384950.0
2011-09-30,387000.0
2011-08-31,394900.0
2011-07-31,399995.0
2011-06-30,407000.0
2011-05-31,404900.0
2011-04-30,399995.0
2011-03-31,404900.0
2011-02-28,409800.0
2011-01-31,418000.0
2010-12-31,404900.0
2010-11-30,409990.0
2010-10-31,415000.0
2010-09-30,409990.0
2010-08-31,414950.0
2010-07-31,424900.0
2010-06-30,439900.0
2010-05-31,439950.0
2010-04-30,425000.0
2010-03-31,423900.0
2010-02-28,399950.0
2010-01-31,420000.0
2009-12-31,420000.0
2009-11-30,429990.0
2009-10-31,428900.0
2009-09-30,449000.0
2009-08-31,437900.0
2009-07-31,437900.0
2009-06-30,453900.0
2009-05-31,453900.0
2009-04-30,463900.0
2009-03-31,462500.0
2009-02-28,475425.0
2009-01-31,464750.0
2008-12-31,477900.0
2008-11-30,475000.0
2008-10-31,489999.0
