Date,Value
2015-02-28,184000.0
2015-01-31,180000.0
2014-12-31,179000.0
2014-11-30,183000.0
2014-10-31,185000.0
2014-09-30,179950.0
2014-08-31,179900.0
2014-07-31,179950.0
2014-06-30,174900.0
2014-05-31,184000.0
2014-04-30,169900.0
2014-03-31,179500.0
2014-02-28,175000.0
2014-01-31,175000.0
2013-12-31,175000.0
2013-11-30,185000.0
2013-10-31,189000.0
2013-09-30,194900.0
2013-08-31,195000.0
2013-07-31,189900.0
2013-06-30,194900.0
2013-05-31,194500.0
2013-04-30,189900.0
2013-03-31,189500.0
2013-02-28,175000.0
2013-01-31,175000.0
2012-12-31,179000.0
2012-11-30,179900.0
2012-10-31,169950.0
2012-09-30,189900.0
2012-08-31,197800.0
2012-07-31,197500.0
2012-06-30,197900.0
2012-05-31,189500.0
2012-04-30,179000.0
2012-03-31,184900.0
2012-02-29,179900.0
2012-01-31,182500.0
2011-12-31,180000.0
2011-11-30,189900.0
2011-10-31,189900.0
2011-09-30,194900.0
2011-08-31,189694.0
2011-07-31,180000.0
2011-06-30,179500.0
2011-05-31,179500.0
2011-04-30,175000.0
2011-03-31,178500.0
2011-02-28,179900.0
2011-01-31,180000.0
2010-12-31,189000.0
2010-11-30,199500.0
2010-10-31,199900.0
2010-09-30,208000.0
2010-08-31,214900.0
2010-07-31,215000.0
2010-06-30,209000.0
2010-05-31,210000.0
2010-04-30,200000.0
2010-03-31,199999.0
2010-02-28,199500.0
2010-01-31,209500.0
2009-12-31,214500.0
2009-11-30,217000.0
2009-10-31,215000.0
2009-09-30,215000.0
2009-08-31,219000.0
2009-07-31,224500.0
2009-06-30,222000.0
2009-05-31,215000.0
2009-04-30,223780.0
2009-03-31,219900.0
2009-02-28,218500.0
2009-01-31,226950.0
2008-12-31,229700.0
2008-11-30,234500.0
2008-10-31,239900.0
