Date,Value
2015-06-30,850.0
2015-05-31,775.0
2014-04-30,825.0
2013-10-31,975.0
2013-09-30,795.0
2013-08-31,795.0
2013-07-31,850.0
2013-06-30,795.0
2013-05-31,825.0
2013-04-30,825.0
2013-03-31,895.0
2013-02-28,995.0
2013-01-31,995.0
2012-12-31,995.0
2012-11-30,1100.0
2012-10-31,1000.0
2012-09-30,875.0
2012-08-31,885.0
2012-07-31,875.0
2012-06-30,850.0
2012-05-31,795.0
2012-04-30,795.0
2012-03-31,795.0
2012-02-29,795.0
2012-01-31,775.0
2011-12-31,900.0
2011-11-30,875.0
2011-10-31,875.0
