Date,Value
2015-02-28,625000.0
2015-01-31,599000.0
2014-12-31,569950.0
2014-11-30,565000.0
2014-10-31,500000.0
2014-09-30,519500.0
2014-08-31,500000.0
2014-07-31,500000.0
2014-06-30,500000.0
2014-05-31,469000.0
2014-04-30,445000.0
2014-03-31,420000.0
2014-02-28,399000.0
2014-01-31,422000.0
2013-12-31,479950.0
2013-11-30,499995.0
2013-10-31,489000.0
2013-09-30,449900.0
2013-08-31,439950.0
2013-07-31,439950.0
2013-06-30,435000.0
2013-05-31,449000.0
2013-04-30,489888.0
2013-03-31,450000.0
2013-02-28,449900.0
2013-01-31,459900.0
2012-12-31,449940.0
2012-11-30,449940.0
2012-10-31,469988.0
2012-09-30,489000.0
2012-08-31,499000.0
2012-07-31,495000.0
2012-06-30,473100.0
2012-05-31,450000.0
2012-04-30,474950.0
2012-03-31,449950.0
2012-02-29,410000.0
2012-01-31,399950.0
2011-12-31,399950.0
2011-11-30,425000.0
2011-10-31,415000.0
2011-09-30,409000.0
2011-08-31,429950.0
2011-07-31,440000.0
2011-06-30,434900.0
2011-05-31,430000.0
2011-04-30,439950.0
2011-03-31,430000.0
2011-02-28,449500.0
2011-01-31,449950.0
2010-12-31,430000.0
2010-11-30,445000.0
2010-10-31,457900.0
2010-09-30,469000.0
2010-08-31,494800.0
2010-07-31,475000.0
2010-06-30,474000.0
2010-05-31,439950.0
2010-04-30,449500.0
2010-03-31,449500.0
2010-02-28,458000.0
2010-01-31,459950.0
2009-12-31,484950.0
2009-11-30,495000.0
2009-10-31,499950.0
2009-09-30,499950.0
2009-08-31,499000.0
2009-07-31,499950.0
2009-06-30,529950.0
2009-05-31,563500.0
2009-04-30,529950.0
2009-03-31,499950.0
2009-02-28,529950.0
2009-01-31,525000.0
2008-12-31,549950.0
2008-11-30,549989.0
2008-10-31,595000.0
