Date,Value
2015-09-30,300340.0
2015-08-31,303175.0
2015-07-31,301450.0
2015-06-30,309600.0
2015-05-31,293500.0
2015-04-30,277137.5
2015-03-31,274137.5
2015-02-28,275375.0
2015-01-31,274350.0
2014-12-31,280100.0
2014-11-30,269050.0
2014-10-31,272350.0
2014-09-30,274442.0
2014-08-31,287990.0
2014-07-31,276530.0
2014-06-30,288180.0
2014-05-31,274530.0
2014-04-30,281280.0
2014-03-31,239780.0
2014-02-28,244980.0
2014-01-31,256892.0
2013-12-31,256758.0
2013-11-30,259353.0
2013-10-31,271107.0
2013-09-30,259915.0
2013-08-31,268380.0
2013-07-31,274905.0
2013-06-30,273030.0
2013-05-31,262272.5
2013-04-30,262170.5
2013-03-31,253057.0
2013-02-28,256690.0
2013-01-31,253865.0
2012-12-31,265903.0
2012-11-30,256657.0
2012-10-31,261165.0
2012-09-30,255955.0
2012-08-31,259355.0
2012-07-31,260530.0
2012-06-30,259891.4
2012-05-31,255164.6
2012-04-30,239736.4706
2012-03-31,235600.0
2012-01-31,224390.0
2011-12-31,236780.0
2011-11-30,249280.0
2011-10-31,265130.0
2011-09-30,249280.0
2011-08-31,260530.0
2011-07-31,272530.0
2011-06-30,277290.0
2011-05-31,254755.0
2011-04-30,249655.0
2011-03-31,250780.0
2011-02-28,234280.0
2011-01-31,236480.0
2010-12-31,246980.0
2010-11-30,259230.0
2010-10-31,254800.0
2010-09-30,251400.0
2010-08-31,261075.0
2010-07-31,257725.0
2010-06-30,230500.0
2010-05-31,233600.0
2010-04-30,240525.0
2010-03-31,235375.0
2010-02-28,248050.0
2010-01-31,250850.0
2009-12-31,250800.0
2009-11-30,243075.0
2009-10-31,237725.0
2009-09-30,253730.0
2009-08-31,254330.0
2009-07-31,262280.0
2009-06-30,289738.0
2009-05-31,280367.0
2009-04-30,282905.0
2009-03-31,264980.0
2009-02-28,256959.1
2009-01-31,255815.4
2008-12-31,259759.5
2008-11-30,289430.0
2008-10-31,280355.0
2008-09-30,268505.0
2008-08-31,272780.0
2008-07-31,281563.65
2008-06-30,281691.85
2008-05-31,276475.5
2008-04-30,270530.0
2008-03-31,258530.0
2008-02-29,250530.0
2008-01-31,249730.0
2007-12-31,252180.0
2007-11-30,272930.0
2007-10-31,290921.4
2007-09-30,291261.6
2007-08-31,288133.0
2007-07-31,300438.0
2007-06-30,294982.0
2007-05-31,279190.0
2007-04-30,262930.0
2007-03-31,253455.0
2007-02-28,248855.0
2007-01-31,257030.0
2006-12-31,255280.0
2006-11-30,266440.0
2006-10-31,259970.0
2006-09-30,249788.0
2006-08-31,255932.0
2006-07-31,257940.0
2006-06-30,270580.0
2006-05-31,259180.0
2006-04-30,238515.0
2006-03-31,234953.0
2006-02-28,230257.0
2006-01-31,250250.0
2005-12-31,272045.0
2005-11-30,289738.0
2005-10-31,284332.0
2005-09-30,279990.0
2005-08-31,262638.0
2005-07-31,245140.0
2005-06-30,244700.0
2005-05-31,256400.0
2005-04-30,254400.0
2005-03-31,236125.0
2005-02-28,201110.0
2004-12-31,234900.0
2004-11-30,234398.5
2004-10-31,233371.5
2004-09-30,234470.0
2004-08-31,230748.5
2004-07-31,221996.5
2004-06-30,217820.0
2004-05-31,202525.0
2004-04-30,192635.0
2004-03-31,188450.0
2004-02-29,189400.0
2004-01-31,205650.0
2003-12-31,214915.0
2003-11-30,203538.0
2003-10-31,186372.0
2003-09-30,196846.75
2003-08-31,194735.75
2003-07-31,189372.5
2003-06-30,179075.0
2003-05-31,167203.9
2003-04-30,175509.1
2003-03-31,180238.0
2003-02-28,176835.0
2003-01-31,178174.75
2002-12-31,172522.75
2002-11-30,179357.5
2002-10-31,184275.0
2002-09-30,187950.0
2002-08-31,170725.0
2002-07-31,157875.0
2002-06-30,155650.0
2002-05-31,162635.0
2002-04-30,167933.25
2002-03-31,173114.85
2002-02-28,160478.9
2002-01-31,158697.0
2001-12-31,163550.0
2001-11-30,153300.0
2001-10-31,158345.0
2001-09-30,159190.0
2001-08-31,158850.0
2001-07-31,156665.0
2001-06-30,158425.0
2001-05-31,158850.0
2001-04-30,162675.0
2001-03-31,162735.0
2001-02-28,159665.0
2001-01-31,160675.0
2000-12-31,161710.0
2000-11-30,163812.1
2000-10-31,160594.9
2000-09-30,164296.25
2000-08-31,162873.25
2000-07-31,154751.45
2000-06-30,160282.55
2000-05-31,168606.5
2000-04-30,182750.0
2000-03-31,164200.0
2000-02-29,153835.0
2000-01-31,158015.0
1999-12-31,154803.0
1999-11-30,167782.0
1999-10-31,174162.45
1999-09-30,177155.35
1999-08-31,171171.2
1999-07-31,164951.0
1999-06-30,150655.0
1999-05-31,151604.8
1999-04-30,144917.65
1999-03-31,140031.05
1999-02-28,148636.5
1999-01-31,140750.0
1998-12-31,149535.0
1998-11-30,150565.0
1998-10-31,157625.0
1998-09-30,154251.7
1998-08-31,150462.3
1998-07-31,143139.0
1998-06-30,143525.0
1998-05-31,150275.0
1998-04-30,146750.0
1998-03-31,143950.0
1998-02-28,139935.0
1998-01-31,144315.0
1997-12-31,154175.0
1997-11-30,151125.0
1997-10-31,147675.0
1997-09-30,150475.0
1997-08-31,153335.0
1997-07-31,155915.0
1997-06-30,150150.0
1997-05-31,145010.0
1997-04-30,144190.0
1997-03-31,144957.75
1997-02-28,147934.75
1997-01-31,139942.5
1996-12-31,139750.0
1996-11-30,146150.0
1996-10-31,149300.0
1996-09-30,143350.0
1996-08-31,141825.0
1996-07-31,144375.0
1996-06-30,140050.0
1996-05-31,137200.0
1996-04-30,136000.0
