Date,Value
2015-02-28,169500.0
2015-01-31,170000.0
2014-12-31,183000.0
2014-11-30,185500.0
2014-10-31,194000.0
2014-09-30,200000.0
2014-08-31,207900.0
2014-07-31,207500.0
2014-06-30,209000.0
2014-05-31,217000.0
2014-04-30,207500.0
2014-03-31,187000.0
2014-02-28,205000.0
2014-01-31,179900.0
2013-12-31,175000.0
2013-11-30,165000.0
2013-10-31,175000.0
2013-09-30,175000.0
2013-08-31,179500.0
2013-07-31,187000.0
2013-06-30,189900.0
2013-05-31,214000.0
2013-04-30,205000.0
2013-03-31,204900.0
2013-02-28,199950.0
2013-01-31,197000.0
2012-12-31,149000.0
2012-11-30,139000.0
2012-10-31,125000.0
2012-09-30,197000.0
2012-08-31,197000.0
2012-07-31,202500.0
2012-06-30,219000.0
2012-05-31,239000.0
2012-04-30,209000.0
2012-03-31,169000.0
2012-02-29,159000.0
2012-01-31,197000.0
2011-12-31,197000.0
2011-11-30,160000.0
2011-10-31,209000.0
2011-09-30,249900.0
2011-08-31,245000.0
2011-07-31,249000.0
2011-06-30,285000.0
2011-05-31,275000.0
2011-04-30,259000.0
2011-03-31,230000.0
2011-02-28,285000.0
2011-01-31,283000.0
2010-12-31,265000.0
2010-11-30,265000.0
2010-10-31,285000.0
2010-09-30,299900.0
2010-08-31,285000.0
2010-07-31,298000.0
2010-06-30,285000.0
2010-05-31,285000.0
2010-04-30,279900.0
2010-03-31,265000.0
2010-02-28,209000.0
2010-01-31,209000.0
2009-12-31,285000.0
2009-11-30,330000.0
2009-10-31,334700.0
2009-09-30,339900.0
2009-08-31,350000.0
2009-07-31,285000.0
2009-06-30,230000.0
2009-05-31,209000.0
2009-04-30,319000.0
2009-03-31,350000.0
2009-02-28,350000.0
2009-01-31,399500.0
2008-12-31,399500.0
2008-11-30,395000.0
2008-10-31,360000.0
