Date,Value
2015-02-28,265000.0
2015-01-31,260000.0
2014-12-31,279000.0
2014-11-30,296000.0
2014-10-31,325000.0
2014-09-30,323900.0
2014-08-31,310000.0
2014-07-31,325000.0
2014-06-30,310000.0
2014-05-31,315000.0
2014-04-30,305000.0
2014-03-31,310000.0
2014-02-28,299900.0
2014-01-31,269950.0
2013-12-31,330000.0
2013-11-30,269900.0
2013-10-31,295000.0
2013-09-30,274950.0
2013-08-31,295000.0
2013-07-31,314900.0
2013-06-30,299000.0
2013-05-31,304950.0
2013-04-30,275000.0
2013-03-31,265000.0
2013-02-28,249900.0
2013-01-31,249900.0
2012-12-31,262000.0
2012-11-30,262000.0
2012-10-31,259000.0
2012-09-30,279000.0
2012-08-31,275000.0
2012-07-31,289000.0
2012-06-30,295000.0
2012-05-31,310000.0
2012-04-30,315000.0
2012-03-31,310000.0
2012-02-29,299000.0
2012-01-31,285000.0
2011-12-31,264900.0
2011-11-30,289900.0
2011-10-31,295000.0
2011-09-30,289900.0
2011-08-31,279999.0
2011-07-31,289500.0
2011-06-30,289900.0
2011-05-31,339000.0
2011-04-30,349900.0
2011-03-31,295000.0
2011-02-28,289900.0
2011-01-31,299900.0
2010-12-31,289900.0
2010-11-30,289900.0
2010-10-31,269000.0
2010-09-30,269900.0
2010-08-31,269900.0
2010-07-31,275000.0
2010-06-30,269900.0
2010-05-31,260000.0
2010-04-30,285000.0
2010-03-31,269900.0
2010-02-28,249900.0
2010-01-31,250000.0
2009-12-31,269900.0
2009-11-30,270000.0
2009-10-31,279900.0
2009-09-30,289900.0
2009-08-31,295000.0
2009-07-31,299900.0
2009-06-30,305000.0
2009-05-31,299900.0
2009-04-30,325000.0
2009-03-31,299900.0
2009-02-28,300000.0
2009-01-31,330000.0
2008-12-31,319900.0
2008-11-30,329900.0
2008-10-31,330000.0
