Date,Value
2015-09-30,192500.0
2015-08-31,199500.0
2015-07-31,197100.0
2015-05-31,194300.0
2015-04-30,188300.0
2015-03-31,184600.0
2015-02-28,181600.0
2015-01-31,180300.0
2014-12-31,179000.0
2014-11-30,178400.0
2014-10-31,179500.0
2014-09-30,182000.0
2014-08-31,184000.0
2014-07-31,185000.0
2014-06-30,185900.0
2014-05-31,186500.0
2014-04-30,187200.0
2014-03-31,188300.0
2014-02-28,187600.0
2014-01-31,186000.0
2013-12-31,184200.0
2013-11-30,182200.0
2013-10-31,181100.0
2013-09-30,179400.0
2013-08-31,171600.0
2013-07-31,161700.0
2013-06-30,155300.0
2013-05-31,153000.0
2013-04-30,152100.0
2013-03-31,153400.0
2013-02-28,155600.0
2013-01-31,156400.0
2012-12-31,156000.0
2012-11-30,155900.0
2012-10-31,156300.0
2012-09-30,157500.0
2012-08-31,160400.0
2012-07-31,163300.0
2012-06-30,165000.0
2012-05-31,165800.0
2012-04-30,165400.0
2012-03-31,163000.0
2012-02-29,160700.0
2012-01-31,159300.0
2011-12-31,159800.0
2011-11-30,161600.0
2011-10-31,162900.0
2011-09-30,164400.0
2011-08-31,166900.0
2011-07-31,169200.0
2011-06-30,171100.0
2011-05-31,173900.0
2011-04-30,176100.0
2011-03-31,177200.0
2011-02-28,178700.0
2011-01-31,182100.0
2010-12-31,185800.0
2010-11-30,189700.0
2010-10-31,191300.0
2010-09-30,189500.0
2010-08-31,188800.0
2010-07-31,193200.0
2010-06-30,198200.0
2010-05-31,199100.0
2010-04-30,199500.0
2010-03-31,201700.0
2010-02-28,205000.0
2010-01-31,207300.0
2009-12-31,207900.0
2009-11-30,205800.0
2009-10-31,204000.0
2009-09-30,204300.0
2009-08-31,205400.0
2009-07-31,206400.0
2009-06-30,206900.0
2009-05-31,206500.0
2009-04-30,206300.0
2009-03-31,208100.0
2009-02-28,211100.0
2009-01-31,214500.0
2008-12-31,218300.0
2008-11-30,222000.0
2008-10-31,223600.0
2008-09-30,224500.0
2008-08-31,227300.0
2008-07-31,230700.0
2008-06-30,232000.0
2008-05-31,233500.0
2008-04-30,236300.0
2008-03-31,240100.0
2008-02-29,242800.0
2008-01-31,243400.0
2007-12-31,243700.0
2007-11-30,245800.0
2007-10-31,248600.0
2007-09-30,249600.0
2007-08-31,248800.0
2007-07-31,247500.0
2007-06-30,247600.0
2007-05-31,246900.0
2007-04-30,244900.0
2007-03-31,241900.0
2007-02-28,239500.0
2007-01-31,237400.0
2006-12-31,235700.0
2006-11-30,234000.0
2006-10-31,231400.0
2006-09-30,227600.0
2006-08-31,223200.0
2006-07-31,219500.0
2006-06-30,216500.0
2006-05-31,214600.0
2006-04-30,213700.0
2006-03-31,211300.0
2006-02-28,207300.0
2006-01-31,203300.0
2005-12-31,198700.0
2005-11-30,193000.0
2005-10-31,188900.0
2005-09-30,188700.0
2005-08-31,188100.0
2005-07-31,184700.0
2005-06-30,181300.0
2005-05-31,179300.0
2005-04-30,177100.0
2005-03-31,174800.0
2005-02-28,172300.0
2005-01-31,170400.0
2004-12-31,169000.0
2004-11-30,167900.0
2004-10-31,167000.0
2004-09-30,167000.0
2004-08-31,166600.0
2004-07-31,165700.0
2004-06-30,164900.0
2004-05-31,164200.0
2004-04-30,162800.0
2004-03-31,161200.0
2004-02-29,160400.0
2004-01-31,159700.0
2003-12-31,158400.0
2003-11-30,158100.0
2003-10-31,158500.0
2003-09-30,157800.0
2003-08-31,156700.0
2003-07-31,156300.0
2003-06-30,155800.0
2003-05-31,155100.0
2003-04-30,154400.0
2003-03-31,153900.0
2003-02-28,153600.0
2003-01-31,153000.0
2002-12-31,152700.0
2002-11-30,152900.0
2002-10-31,152500.0
2002-09-30,151600.0
2002-08-31,151200.0
2002-07-31,151400.0
2002-06-30,150200.0
2002-05-31,148300.0
2002-04-30,147800.0
2002-03-31,148100.0
2002-02-28,147700.0
2002-01-31,147800.0
2001-12-31,148000.0
2001-11-30,147600.0
2001-10-31,147200.0
2001-09-30,146900.0
2001-08-31,146600.0
2001-07-31,146300.0
2001-06-30,146100.0
2001-05-31,145600.0
2001-04-30,145300.0
2001-03-31,145300.0
2001-02-28,145500.0
2001-01-31,145200.0
2000-12-31,144700.0
2000-11-30,143800.0
2000-10-31,142800.0
2000-09-30,141200.0
2000-08-31,139700.0
2000-07-31,138900.0
2000-06-30,139100.0
2000-05-31,138900.0
2000-04-30,138500.0
2000-03-31,138600.0
2000-02-29,138600.0
2000-01-31,138200.0
1999-12-31,137600.0
1999-11-30,137100.0
1999-10-31,137000.0
1999-09-30,136900.0
1999-08-31,136500.0
1999-07-31,136200.0
1999-06-30,136100.0
1999-05-31,136100.0
1999-04-30,135400.0
1999-03-31,134400.0
1999-02-28,133200.0
1999-01-31,132400.0
1998-12-31,131500.0
1998-11-30,130300.0
1998-10-31,129000.0
1998-09-30,127900.0
1998-08-31,127000.0
1998-07-31,125900.0
1998-06-30,124700.0
1998-05-31,123900.0
1998-04-30,121600.0
1998-03-31,118900.0
1998-02-28,117900.0
1998-01-31,117900.0
1997-12-31,117600.0
1997-11-30,117900.0
1997-10-31,117700.0
1997-09-30,117400.0
1997-08-31,118000.0
1997-07-31,118000.0
1997-06-30,117100.0
1997-05-31,116300.0
1997-04-30,115800.0
1997-03-31,114200.0
1997-02-28,111800.0
1997-01-31,110100.0
1996-12-31,109900.0
1996-11-30,109500.0
1996-10-31,108700.0
1996-09-30,108000.0
1996-08-31,107300.0
1996-07-31,107100.0
1996-06-30,107200.0
1996-05-31,107500.0
1996-04-30,108900.0
