Date,Value
2015-09-30,64200.0
2015-08-31,63000.0
2015-07-31,62700.0
2015-06-30,62800.0
2015-05-31,62600.0
2015-04-30,62200.0
2015-03-31,62400.0
2015-02-28,62700.0
2015-01-31,62500.0
2014-12-31,61100.0
2014-11-30,59700.0
2014-10-31,59400.0
2014-09-30,59500.0
2014-08-31,59900.0
2014-07-31,61200.0
2014-06-30,62800.0
2014-05-31,64900.0
2014-04-30,68600.0
2014-03-31,72700.0
2014-02-28,74900.0
2014-01-31,75200.0
2013-12-31,75400.0
2013-11-30,76100.0
2013-10-31,77100.0
2013-09-30,77800.0
2013-08-31,78000.0
2013-07-31,77600.0
2013-06-30,76500.0
2013-05-31,75400.0
2013-04-30,74200.0
2013-03-31,73500.0
2013-02-28,73900.0
2013-01-31,74600.0
2012-12-31,74100.0
2012-11-30,72500.0
2012-10-31,70400.0
2012-09-30,69700.0
2012-08-31,70100.0
2012-07-31,70600.0
2012-06-30,71400.0
2012-05-31,72800.0
2012-04-30,73600.0
2012-03-31,74000.0
2012-02-29,74300.0
2012-01-31,74700.0
2011-12-31,75400.0
2011-11-30,76000.0
2011-10-31,76300.0
2011-09-30,77300.0
2011-08-31,79200.0
2011-07-31,81400.0
2011-06-30,83600.0
2011-05-31,85100.0
2011-04-30,85500.0
2011-03-31,84900.0
2011-02-28,84900.0
2011-01-31,86500.0
2010-12-31,89200.0
2010-11-30,91100.0
2010-10-31,92400.0
2010-09-30,93600.0
2010-08-31,94400.0
2010-07-31,94700.0
2010-06-30,94200.0
2010-05-31,92500.0
2010-04-30,91300.0
2010-03-31,91600.0
2010-02-28,92800.0
2010-01-31,93600.0
2009-12-31,94000.0
2009-11-30,94300.0
2009-10-31,94500.0
2009-09-30,94000.0
2009-08-31,93200.0
2009-07-31,92100.0
2009-06-30,91200.0
2009-05-31,90800.0
2009-04-30,90900.0
2009-03-31,91000.0
2009-02-28,91200.0
2009-01-31,90800.0
2008-12-31,90600.0
2008-11-30,91100.0
2008-10-31,92300.0
2008-09-30,93800.0
2008-08-31,94000.0
2008-07-31,92700.0
2008-06-30,91400.0
2008-05-31,90700.0
2008-04-30,90000.0
2008-03-31,89800.0
2008-02-29,88400.0
2008-01-31,86300.0
2007-12-31,85000.0
2007-11-30,84800.0
2007-10-31,84500.0
2007-09-30,84400.0
2007-08-31,84500.0
2007-07-31,84900.0
2007-06-30,84900.0
2007-05-31,84800.0
2007-04-30,84700.0
2007-03-31,85500.0
2007-02-28,86900.0
2007-01-31,87900.0
2006-12-31,87700.0
2006-11-30,88700.0
2006-10-31,90200.0
2006-09-30,90200.0
2006-08-31,88500.0
2006-07-31,87000.0
2006-06-30,85600.0
2006-05-31,84000.0
2006-04-30,82400.0
2006-03-31,80700.0
2006-02-28,78700.0
2006-01-31,77500.0
2005-12-31,76300.0
2005-11-30,73700.0
2005-10-31,69800.0
2005-09-30,66600.0
2005-08-31,64900.0
2005-07-31,63800.0
2005-06-30,62200.0
2005-05-31,60800.0
2005-04-30,60300.0
2005-03-31,59900.0
2005-02-28,59600.0
2005-01-31,59500.0
2004-12-31,59900.0
2004-11-30,60300.0
2004-10-31,60500.0
2004-09-30,60700.0
2004-08-31,60800.0
2004-07-31,61000.0
2004-06-30,62500.0
2004-05-31,64400.0
2004-04-30,63500.0
2004-03-31,59400.0
2004-02-29,56000.0
2004-01-31,55000.0
2003-12-31,54800.0
2003-11-30,54100.0
2003-10-31,53600.0
2003-09-30,53400.0
2003-08-31,53800.0
2003-07-31,54200.0
2003-06-30,54200.0
2003-05-31,54500.0
2003-04-30,56200.0
2003-03-31,58800.0
2003-02-28,61100.0
2003-01-31,61400.0
2002-12-31,60500.0
2002-11-30,59600.0
2002-10-31,59200.0
2002-09-30,59400.0
2002-08-31,59100.0
2002-07-31,58200.0
2002-06-30,57100.0
2002-05-31,55300.0
2002-04-30,53900.0
2002-03-31,53900.0
2002-02-28,54400.0
2002-01-31,54600.0
2001-12-31,54900.0
2001-11-30,55400.0
2001-10-31,55500.0
2001-09-30,54900.0
2001-08-31,53900.0
2001-07-31,53500.0
2001-06-30,53200.0
2001-05-31,53200.0
2001-04-30,53300.0
2001-03-31,53400.0
2001-02-28,53000.0
2001-01-31,52400.0
2000-12-31,52300.0
2000-11-30,52800.0
2000-10-31,53900.0
2000-09-30,54700.0
2000-08-31,55100.0
2000-07-31,55000.0
2000-06-30,54800.0
2000-05-31,54600.0
2000-04-30,54600.0
2000-03-31,54800.0
2000-02-29,55000.0
2000-01-31,55200.0
1999-12-31,55100.0
1999-11-30,54100.0
1999-10-31,52400.0
1999-09-30,51400.0
1999-08-31,51600.0
1999-07-31,52500.0
1999-06-30,53500.0
1999-05-31,53900.0
1999-04-30,53700.0
1999-03-31,53700.0
1999-02-28,53900.0
1999-01-31,53300.0
1998-12-31,52500.0
1998-11-30,52400.0
1998-10-31,52800.0
1998-09-30,53100.0
1998-08-31,53000.0
1998-07-31,52900.0
1998-06-30,53200.0
1998-05-31,54900.0
1998-04-30,57300.0
1998-03-31,58600.0
1998-02-28,58800.0
1998-01-31,59700.0
1997-12-31,60800.0
1997-11-30,61400.0
1997-10-31,61300.0
1997-09-30,61100.0
1997-08-31,61200.0
1997-07-31,61900.0
1997-06-30,61600.0
1997-05-31,60000.0
1997-04-30,58300.0
1997-03-31,56700.0
1997-02-28,55300.0
1997-01-31,54200.0
1996-12-31,53400.0
1996-11-30,53000.0
1996-10-31,53800.0
1996-09-30,55000.0
1996-08-31,55300.0
1996-07-31,54600.0
1996-06-30,54200.0
1996-05-31,53700.0
1996-04-30,52100.0
