Date,Value
2015-09-30,368100.0
2015-08-31,363200.0
2015-07-31,358400.0
2015-06-30,358300.0
2015-05-31,355600.0
2015-04-30,353200.0
2015-03-31,351500.0
2015-02-28,348700.0
2015-01-31,346100.0
2014-12-31,345200.0
2014-11-30,344700.0
2014-10-31,343800.0
2014-09-30,343300.0
2014-08-31,342600.0
2014-07-31,341100.0
2014-06-30,338800.0
2014-05-31,336400.0
2014-04-30,335200.0
2014-03-31,334000.0
2014-02-28,332200.0
2014-01-31,330200.0
2013-12-31,328000.0
2013-11-30,325200.0
2013-10-31,322500.0
2013-09-30,319500.0
2013-08-31,316200.0
2013-07-31,313200.0
2013-06-30,309100.0
2013-05-31,304600.0
2013-04-30,300500.0
2013-03-31,297500.0
2013-02-28,295000.0
2013-01-31,292300.0
2012-12-31,289200.0
2012-11-30,286100.0
2012-10-31,282900.0
2012-09-30,280200.0
2012-08-31,278600.0
2012-07-31,277800.0
2012-06-30,276600.0
2012-05-31,274400.0
2012-04-30,271800.0
2012-03-31,270500.0
2012-02-29,270400.0
2012-01-31,270200.0
2011-12-31,269300.0
2011-11-30,268900.0
2011-10-31,268800.0
2011-09-30,268700.0
2011-08-31,268300.0
2011-07-31,268200.0
2011-06-30,269000.0
2011-05-31,270700.0
2011-04-30,272500.0
2011-03-31,273600.0
2011-02-28,274400.0
2011-01-31,276100.0
2010-12-31,278900.0
2010-11-30,281500.0
2010-10-31,282800.0
2010-09-30,283800.0
2010-08-31,284900.0
2010-07-31,286600.0
2010-06-30,288500.0
2010-05-31,290700.0
2010-04-30,292400.0
2010-03-31,293700.0
2010-02-28,294100.0
2010-01-31,293700.0
2009-12-31,292700.0
2009-11-30,292200.0
2009-10-31,292200.0
2009-09-30,293100.0
2009-08-31,294900.0
2009-07-31,297300.0
2009-06-30,299700.0
2009-05-31,302200.0
2009-04-30,304900.0
2009-03-31,307900.0
2009-02-28,311900.0
2009-01-31,315500.0
2008-12-31,319800.0
2008-11-30,325300.0
2008-10-31,331200.0
2008-09-30,335600.0
2008-08-31,338800.0
2008-07-31,340300.0
2008-06-30,342500.0
2008-05-31,346400.0
2008-04-30,351200.0
2008-03-31,354600.0
2008-02-29,357200.0
2008-01-31,359800.0
2007-12-31,362300.0
2007-11-30,363500.0
2007-10-31,364400.0
2007-09-30,365400.0
2007-08-31,367000.0
2007-07-31,368900.0
2007-06-30,370100.0
2007-05-31,369700.0
2007-04-30,368700.0
2007-03-31,368400.0
2007-02-28,369200.0
2007-01-31,371000.0
2006-12-31,372500.0
2006-11-30,373600.0
2006-10-31,375200.0
2006-09-30,378000.0
2006-08-31,380200.0
2006-07-31,381100.0
2006-06-30,381100.0
2006-05-31,380100.0
2006-04-30,377800.0
2006-03-31,374000.0
2006-02-28,369200.0
2006-01-31,364000.0
2005-12-31,358400.0
2005-11-30,352300.0
2005-10-31,346000.0
2005-09-30,338900.0
2005-08-31,331200.0
2005-07-31,324100.0
2005-06-30,317400.0
2005-05-31,311200.0
2005-04-30,305400.0
2005-03-31,301000.0
2005-02-28,297100.0
2005-01-31,293100.0
2004-12-31,289100.0
2004-11-30,285500.0
2004-10-31,281500.0
2004-09-30,277700.0
2004-08-31,274400.0
2004-07-31,271200.0
2004-06-30,267700.0
2004-05-31,264400.0
2004-04-30,261200.0
2004-03-31,258100.0
2004-02-29,254900.0
2004-01-31,252200.0
2003-12-31,250300.0
2003-11-30,248600.0
2003-10-31,246500.0
2003-09-30,244400.0
2003-08-31,242600.0
2003-07-31,240400.0
2003-06-30,238400.0
2003-05-31,237200.0
2003-04-30,236000.0
2003-03-31,234400.0
2003-02-28,233400.0
2003-01-31,232200.0
2002-12-31,230300.0
2002-11-30,228000.0
2002-10-31,226400.0
2002-09-30,225100.0
2002-08-31,223600.0
2002-07-31,222400.0
2002-06-30,221600.0
2002-05-31,221200.0
2002-04-30,221100.0
2002-03-31,221000.0
2002-02-28,220100.0
2002-01-31,218800.0
2001-12-31,217500.0
2001-11-30,216600.0
2001-10-31,215500.0
2001-09-30,214300.0
2001-08-31,213300.0
2001-07-31,212600.0
2001-06-30,212100.0
2001-05-31,211500.0
2001-04-30,210700.0
2001-03-31,210600.0
2001-02-28,211400.0
2001-01-31,212500.0
2000-12-31,213300.0
2000-11-30,213700.0
2000-10-31,214200.0
2000-09-30,215000.0
2000-08-31,215900.0
2000-07-31,217300.0
2000-06-30,218300.0
2000-05-31,217300.0
2000-04-30,215700.0
2000-03-31,214900.0
2000-02-29,214000.0
2000-01-31,212100.0
1999-12-31,210600.0
1999-11-30,210500.0
1999-10-31,211000.0
1999-09-30,211200.0
1999-08-31,211300.0
1999-07-31,210700.0
1999-06-30,209800.0
1999-05-31,208900.0
1999-04-30,208200.0
1999-03-31,207300.0
1999-02-28,206100.0
1999-01-31,204900.0
1998-12-31,204200.0
1998-11-30,203400.0
1998-10-31,202500.0
1998-09-30,202000.0
1998-08-31,201900.0
1998-07-31,202500.0
1998-06-30,203300.0
1998-05-31,204300.0
1998-04-30,205300.0
1998-03-31,205400.0
1998-02-28,204800.0
1998-01-31,204200.0
1997-12-31,203700.0
1997-11-30,202800.0
1997-10-31,201400.0
1997-09-30,200200.0
1997-08-31,199000.0
1997-07-31,197600.0
1997-06-30,196100.0
1997-05-31,195900.0
1997-04-30,197000.0
1997-03-31,197300.0
1997-02-28,196200.0
1997-01-31,195000.0
1996-12-31,194700.0
1996-11-30,194900.0
1996-10-31,195200.0
1996-09-30,194800.0
1996-08-31,194300.0
1996-07-31,193500.0
1996-06-30,192600.0
1996-05-31,191800.0
1996-04-30,190100.0
