Date,Value
2015-06-30,300041.1765
2015-05-31,350000.0
2014-08-31,342794.1176
2014-07-31,325000.0
2013-08-31,310000.0
2007-05-31,319705.8824
2007-04-30,355000.0
2006-10-31,285000.0
2006-07-31,394441.1765
2006-06-30,379500.0
2006-03-31,271764.7059
2006-02-28,235000.0
2005-11-30,356500.0
2005-08-31,338565.0
2005-07-31,292350.0
2005-06-30,253550.0
2005-05-31,243450.0
2005-04-30,240588.2353
2005-03-31,260000.0
2004-07-31,283529.4118
2004-06-30,260000.0
2004-03-31,280000.0
2003-08-31,237175.0
2003-07-31,244823.5294
2003-06-30,209253.8462
2003-04-30,170100.0
2002-12-31,209354.0
2001-12-31,175950.5385
2001-10-31,181618.4615
2001-08-31,183794.1176
2001-07-31,175000.0
2001-01-31,171601.0
2000-08-31,325000.0
2000-05-31,248698.95
2000-03-31,151500.0
1999-10-31,200105.0
1999-06-30,196380.7
1999-05-31,162594.55
1999-03-31,123000.0
1998-06-30,175050.7692
1998-04-30,185000.0
1997-08-31,185500.0
1997-05-31,129000.0
