Date,Value
2015-09-30,0.836
2015-08-31,0.824
2015-07-31,0.818
2015-06-30,0.802
2015-05-31,0.808
2015-04-30,0.808
2015-03-31,0.808
2015-02-28,0.812
2015-01-31,0.818
2014-12-31,0.814
2014-11-30,0.81
2014-10-31,0.81
2014-09-30,0.81
2014-08-31,0.79
2014-07-31,0.772
2014-06-30,0.764
2014-05-31,0.766
2014-04-30,0.772
2014-03-31,0.764
2014-02-28,0.752
2014-01-31,0.744
2013-12-31,0.74
2013-11-30,0.736
2013-10-31,0.736
2013-09-30,0.742
2013-08-31,0.752
2013-07-31,0.76
2013-06-30,0.77
2013-05-31,0.78
2013-04-30,0.79
2013-03-31,0.79
2013-02-28,0.784
2013-01-31,0.764
2012-12-31,0.746
2012-11-30,0.736
2012-10-31,0.742
2012-09-30,0.752
2012-08-31,0.754
2012-07-31,0.752
2012-06-30,0.752
2012-05-31,0.754
2012-04-30,0.766
2012-03-31,0.784
2012-02-29,0.798
2012-01-31,0.824
2011-12-31,0.852
2011-11-30,0.868
2011-10-31,0.862
2011-09-30,0.85
2011-08-31,0.86
2011-07-31,0.874
2011-06-30,0.876
2011-05-31,0.862
2011-04-30,0.848
2011-03-31,0.838
2011-02-28,0.84
2011-01-31,0.84
2010-12-31,0.838
2010-11-30,0.842
