Date,Value
2015-09-30,1.168
2015-08-31,1.168
2015-07-31,1.168
2015-06-30,1.166
2015-05-31,1.164
2015-04-30,1.156
2015-03-31,1.148
2015-02-28,1.144
2015-01-31,1.138
2014-12-31,1.136
2014-11-30,1.132
2014-10-31,1.12
2014-09-30,1.116
2014-08-31,1.108
2014-07-31,1.104
2014-06-30,1.098
2014-05-31,1.098
2014-04-30,1.094
2014-03-31,1.092
2014-02-28,1.09
2014-01-31,1.09
2013-12-31,1.088
2013-11-30,1.084
2013-10-31,1.076
2013-09-30,1.07
2013-08-31,1.062
2013-07-31,1.054
2013-06-30,1.046
2013-05-31,1.044
2013-04-30,1.04
2013-03-31,1.04
2013-02-28,1.032
2013-01-31,1.022
2012-12-31,1.012
2012-11-30,1.004
2012-10-31,1.0
2012-09-30,1.0
2012-08-31,1.002
2012-07-31,1.0
2012-06-30,0.994
2012-05-31,0.978
2012-04-30,0.966
2012-03-31,0.966
2012-02-29,0.972
2012-01-31,0.976
2011-12-31,0.976
2011-11-30,0.976
2011-10-31,0.974
2011-09-30,0.97
2011-08-31,0.966
2011-07-31,0.966
2011-06-30,0.97
2011-05-31,0.972
2011-04-30,0.972
2011-03-31,0.96
2011-02-28,0.948
2011-01-31,0.938
2010-12-31,0.936
2010-11-30,0.934
