Date,Value
2015-02-28,224900.0
2015-01-31,214900.0
2014-12-31,200000.0
2014-11-30,219000.0
2014-10-31,200000.0
2014-09-30,198500.0
2014-08-31,198500.0
2014-07-31,184950.0
2014-06-30,198500.0
2014-05-31,187450.0
2014-04-30,179000.0
2014-03-31,171000.0
2014-02-28,169900.0
2014-01-31,164000.0
2013-12-31,169000.0
2013-11-30,160000.0
2013-10-31,172950.0
2013-09-30,190000.0
2013-08-31,165000.0
2013-07-31,160000.0
2013-06-30,184000.0
2013-05-31,159900.0
2013-04-30,160000.0
2013-03-31,149900.0
2013-02-28,152900.0
2013-01-31,145000.0
2012-12-31,134950.0
2012-11-30,145000.0
2012-10-31,149000.0
2012-09-30,152900.0
2012-08-31,159500.0
2012-07-31,149950.0
2012-06-30,149950.0
2012-05-31,148900.0
2012-04-30,144900.0
2012-03-31,144900.0
2012-02-29,144000.0
2012-01-31,144000.0
2011-12-31,144900.0
2011-11-30,154900.0
2011-10-31,158400.0
2011-09-30,145000.0
2011-08-31,159000.0
2011-07-31,159000.0
2011-06-30,159900.0
2011-05-31,174900.0
2011-04-30,165000.0
2011-03-31,165000.0
2011-02-28,169900.0
2011-01-31,177000.0
2010-12-31,180000.0
2010-11-30,180000.0
2010-10-31,188960.0
2010-09-30,189000.0
2010-08-31,189950.0
2010-07-31,190000.0
2010-06-30,199950.0
2010-05-31,206000.0
2010-04-30,199950.0
2010-03-31,199950.0
2010-02-28,215000.0
2010-01-31,225000.0
2009-12-31,219950.0
2009-11-30,229950.0
2009-10-31,235000.0
2009-09-30,235000.0
2009-08-31,230900.0
2009-07-31,230000.0
2009-06-30,235000.0
2009-05-31,239000.0
2009-04-30,269900.0
2009-03-31,249500.0
2009-02-28,259000.0
2009-01-31,263825.0
2008-12-31,264990.0
2008-11-30,263825.0
2008-10-31,269500.0
