Date,Value
2013-03-31,240000.0
2013-01-31,250000.0
2012-10-31,206978.05
2012-09-30,191040.45
2012-08-31,203993.5
2012-07-31,213800.0
2012-06-30,211700.0
2012-05-31,193250.0
2012-04-30,196176.4706
2012-03-31,205000.0
2011-11-30,205000.0
2011-09-30,208750.0
2011-08-31,219850.0
