Date,Value
2015-06-30,950.0
2015-05-31,1100.0
2015-04-30,1100.0
2015-03-31,800.0
2015-02-28,800.0
2015-01-31,950.0
2014-12-31,575.0
2014-11-30,650.0
2014-10-31,850.0
2014-09-30,700.0
2014-08-31,715.0
2014-07-31,675.0
2014-06-30,625.0
2014-05-31,625.0
2014-04-30,535.0
2014-02-28,950.0
2014-01-31,800.0
2013-12-31,825.0
2013-11-30,700.0
2013-10-31,715.0
2013-09-30,825.0
2013-08-31,900.0
2013-07-31,1045.0
2013-06-30,1075.0
2013-05-31,1100.0
2013-04-30,1100.0
2013-03-31,1100.0
2013-02-28,1100.0
2013-01-31,1000.0
2012-12-31,1200.0
2012-11-30,1000.0
2012-10-31,1050.0
2012-09-30,900.0
2012-08-31,900.0
2012-07-31,995.0
2012-06-30,715.0
2012-05-31,995.0
2012-04-30,1025.0
2012-03-31,700.0
2012-02-29,985.0
