Date,Value
2015-09-30,0.88
2015-08-31,0.87
2015-07-31,0.862
2015-06-30,0.854
2015-05-31,0.846
2015-04-30,0.842
2015-03-31,0.84
2015-02-28,0.834
2015-01-31,0.828
2014-12-31,0.824
2014-11-30,0.824
2014-10-31,0.826
2014-09-30,0.826
2014-08-31,0.824
2014-07-31,0.822
2014-06-30,0.82
2014-05-31,0.82
2014-04-30,0.818
2014-03-31,0.824
2014-02-28,0.83
2014-01-31,0.834
2013-12-31,0.834
2013-11-30,0.832
2013-10-31,0.828
2013-09-30,0.824
2013-08-31,0.82
2013-07-31,0.816
2013-06-30,0.812
2013-05-31,0.808
2013-04-30,0.802
2013-03-31,0.8
2013-02-28,0.802
2013-01-31,0.804
2012-12-31,0.802
2012-11-30,0.8
2012-10-31,0.798
2012-09-30,0.798
2012-08-31,0.796
2012-07-31,0.792
2012-06-30,0.79
2012-05-31,0.788
2012-04-30,0.784
2012-03-31,0.78
2012-02-29,0.778
2012-01-31,0.778
2011-12-31,0.778
2011-11-30,0.774
2011-10-31,0.77
2011-09-30,0.772
2011-08-31,0.776
2011-07-31,0.78
2011-06-30,0.78
2011-05-31,0.782
2011-04-30,0.784
2011-03-31,0.78
2011-02-28,0.772
2011-01-31,0.766
2010-12-31,0.766
2010-11-30,0.772
