Date,Value
2015-09-30,1.008
2015-08-31,1.014
2015-07-31,1.008
2015-06-30,1.008
2015-05-31,1.004
2015-04-30,0.998
2015-03-31,0.99
2015-02-28,0.984
2015-01-31,0.982
2014-12-31,0.984
2014-11-30,0.982
2014-10-31,0.98
2014-09-30,0.976
2014-08-31,0.97
2014-07-31,0.968
2014-06-30,0.96
2014-05-31,0.954
2014-04-30,0.95
2014-03-31,0.954
2014-02-28,0.954
2014-01-31,0.954
2013-12-31,0.95
2013-11-30,0.944
2013-10-31,0.942
2013-09-30,0.938
2013-08-31,0.93
2013-07-31,0.922
2013-06-30,0.918
2013-05-31,0.916
2013-04-30,0.908
2013-03-31,0.902
2013-02-28,0.892
2013-01-31,0.886
2012-12-31,0.878
2012-11-30,0.874
2012-10-31,0.876
2012-09-30,0.884
2012-08-31,0.892
2012-07-31,0.894
2012-06-30,0.89
2012-05-31,0.884
2012-04-30,0.88
2012-03-31,0.876
2012-02-29,0.874
2012-01-31,0.868
2011-12-31,0.862
2011-11-30,0.856
2011-10-31,0.852
2011-09-30,0.84
2011-08-31,0.832
2011-07-31,0.83
2011-06-30,0.834
2011-05-31,0.834
2011-04-30,0.834
2011-03-31,0.832
2011-02-28,0.834
2011-01-31,0.832
2010-12-31,0.836
2010-11-30,0.836
