Date,Value
2015-02-28,237900.0
2015-01-31,237900.0
2014-12-31,204900.0
2014-11-30,190000.0
2014-10-31,212900.0
2014-09-30,217900.0
2014-08-31,203000.0
2014-07-31,203000.0
2014-06-30,210000.0
2014-05-31,194900.0
2014-04-30,210000.0
2014-03-31,190000.0
2014-02-28,194880.0
2014-01-31,194880.0
2013-12-31,189000.0
2013-11-30,190000.0
2013-10-31,210000.0
2013-09-30,209000.0
2013-08-31,213995.0
2013-07-31,209995.0
2013-06-30,198995.0
2013-05-31,205950.0
2013-04-30,209995.0
2013-03-31,200000.0
2013-02-28,200000.0
2013-01-31,199000.0
2012-12-31,198900.0
2012-11-30,188900.0
2012-10-31,179900.0
2012-09-30,169900.0
2012-08-31,198900.0
2012-07-31,189900.0
2012-06-30,170000.0
2012-05-31,160000.0
2012-04-30,160000.0
2012-03-31,168000.0
2012-02-29,155000.0
2012-01-31,168000.0
2011-12-31,169000.0
2011-11-30,162900.0
2011-10-31,159900.0
2011-09-30,154500.0
2011-08-31,157900.0
2011-07-31,159900.0
2011-06-30,157900.0
2011-05-31,154900.0
2011-04-30,149900.0
2011-03-31,153000.0
2011-02-28,147900.0
2011-01-31,146900.0
2010-12-31,160000.0
2010-11-30,164950.0
2010-10-31,165000.0
2010-09-30,174000.0
2010-08-31,174900.0
2010-07-31,179900.0
2010-06-30,189900.0
2010-05-31,189900.0
2010-04-30,186900.0
2010-03-31,198000.0
2010-02-28,192500.0
2010-01-31,209000.0
2009-12-31,210000.0
2009-11-30,200000.0
2009-10-31,199500.0
2009-09-30,219000.0
2009-08-31,214900.0
2009-07-31,200000.0
2009-06-30,199900.0
2009-05-31,219000.0
2009-04-30,199900.0
2009-03-31,225000.0
2009-02-28,209900.0
2009-01-31,215000.0
2008-12-31,219900.0
2008-11-30,229000.0
2008-10-31,225000.0
