Date,Value
2015-09-30,0.874
2015-08-31,0.86
2015-07-31,0.844
2015-06-30,0.842
2015-05-31,0.846
2015-04-30,0.85
2015-03-31,0.85
2015-02-28,0.844
2015-01-31,0.836
2014-12-31,0.826
2014-11-30,0.816
2014-10-31,0.806
2014-09-30,0.794
2014-08-31,0.784
2014-07-31,0.772
2014-06-30,0.764
2014-05-31,0.766
2014-04-30,0.774
2014-03-31,0.778
2014-02-28,0.774
2014-01-31,0.772
2013-12-31,0.776
2013-11-30,0.776
2013-10-31,0.77
2013-09-30,0.766
2013-08-31,0.764
2013-07-31,0.764
2013-06-30,0.766
2013-05-31,0.764
2013-04-30,0.756
2013-03-31,0.744
2013-02-28,0.734
2013-01-31,0.732
2012-12-31,0.734
2012-11-30,0.738
2012-10-31,0.742
2012-09-30,0.748
2012-08-31,0.75
2012-07-31,0.75
2012-06-30,0.744
2012-05-31,0.718
2012-04-30,0.698
2012-03-31,0.684
2012-02-29,0.686
2012-01-31,0.68
2011-12-31,0.674
2011-11-30,0.676
2011-10-31,0.676
2011-09-30,0.676
2011-08-31,0.676
2011-07-31,0.678
2011-06-30,0.684
2011-05-31,0.702
2011-04-30,0.714
2011-03-31,0.724
2011-02-28,0.73
2011-01-31,0.738
2010-12-31,0.74
2010-11-30,0.734
