Date,Value
2015-09-30,204565.0
2015-08-31,203700.0
2015-06-30,202485.0
2015-05-31,220115.0
2015-04-30,179378.4
2015-03-31,172899.6
2015-02-28,159628.0
2015-01-31,170100.0
2014-12-31,189050.0
2014-11-30,211375.0
2014-10-31,190275.0
2014-09-30,215250.0
2014-08-31,202035.0
2014-07-31,227965.0
2014-06-30,208650.0
2014-05-31,212250.0
2014-04-30,188600.0
2014-03-31,173525.0
2014-02-28,177250.0
2014-01-31,198525.0
2013-12-31,195885.0
2013-11-30,194415.0
2013-10-31,208678.4
2013-09-30,213199.6
2013-08-31,180928.0
2013-07-31,181485.0
2013-06-30,182665.0
2013-05-31,190500.0
2013-04-30,193529.4118
2013-03-31,180000.0
2012-12-31,209100.0
2012-11-30,198650.0
2012-10-31,212434.4
2012-09-30,230013.6
2012-08-31,236198.0
2012-07-31,198750.0
2012-06-30,185250.0
2012-05-31,195600.0
2012-04-30,226058.8235
2012-03-31,196023.0769
2012-01-31,184550.0
2011-12-31,181235.0
2011-11-30,180450.0
2011-10-31,174765.0
2011-09-30,185050.0
2011-08-31,189450.0
2011-07-31,194700.0
2011-06-30,197823.5294
2011-05-31,186961.5385
2011-03-31,210625.0
2011-02-28,206500.0
2011-01-31,196500.0
2010-12-31,205250.0
2010-11-30,190750.0
2010-10-31,193063.2353
2010-09-30,161725.0
2010-06-30,195000.0
2010-04-30,208208.8
2010-03-31,184485.7
2010-02-28,183177.5
2010-01-31,197945.0
2009-12-31,175415.0
2009-11-30,175997.75
2009-10-31,165894.75
2009-09-30,178292.5
2009-08-31,191075.0
2009-07-31,204925.0
2009-06-30,205750.0
2009-05-31,215100.0
2009-04-30,185585.0
2009-03-31,193765.0
2009-02-28,179400.0
2009-01-31,170544.4
2008-12-31,181478.6
2008-11-30,183353.0
2008-10-31,202270.0
2008-09-30,199850.0
2008-08-31,208700.0
2008-07-31,196300.0
2008-06-30,190250.0
2008-05-31,177000.0
2008-04-30,173275.0
2008-03-31,178460.0
2008-02-29,180215.0
2008-01-31,193450.0
2007-11-30,180465.0
2007-10-31,197620.0
2007-09-30,212635.0
2007-08-31,230165.0
2007-07-31,217700.0
2007-06-30,198300.0
2007-05-31,197956.25
2007-04-30,178481.25
2007-03-31,180687.5
2007-02-28,161250.0
2007-01-31,159985.0
2006-12-31,163615.0
2006-11-30,183500.0
2006-10-31,177650.0
2006-09-30,179310.0
2006-08-31,193290.0
2006-07-31,198950.0
2006-06-30,202200.0
2006-05-31,200800.0
2006-04-30,195474.75
2006-03-31,182607.75
2006-02-28,155532.5
2006-01-31,164525.0
2005-12-31,175025.0
2005-11-30,186250.0
2005-10-31,161800.0
2005-09-30,155800.0
2005-08-31,171650.0
2005-07-31,181110.0
2005-06-30,169015.0
2005-05-31,155525.0
2005-04-30,149300.0
2005-03-31,138500.0
2005-02-28,134600.0
2005-01-31,131400.0
2004-12-31,126450.0
2004-11-30,133000.0
2004-10-31,135675.0
2004-09-30,149325.0
2004-08-31,148650.0
2004-07-31,144835.0
2004-06-30,151215.0
2004-05-31,137950.0
2004-04-30,131500.0
2004-03-31,119117.6471
2004-02-29,123846.1538
2003-12-31,136475.0
2003-11-30,145950.0
2003-10-31,129035.0
2003-09-30,141365.0
2003-08-31,146350.0
2003-07-31,149500.0
2003-06-30,150085.0
2003-05-31,150565.0
2003-04-30,137465.0
2003-03-31,123685.0
2003-02-28,115800.0
2003-01-31,124750.0
2002-12-31,122878.25
2002-11-30,136049.25
2002-10-31,140177.5
2002-09-30,122800.0
2002-08-31,131135.0
2002-07-31,131640.0
2002-06-30,126696.0
2002-05-31,120074.0
2002-04-30,115817.6471
2002-03-31,132500.0
2001-12-31,93075.0
2001-11-30,107512.5
2001-10-31,112637.5
2001-09-30,117205.0
2001-08-31,121350.0
2001-07-31,116595.0
2001-06-30,109585.0
2001-05-31,105315.0
2001-04-30,107764.7059
2001-03-31,116692.3077
2001-01-31,102000.0
2000-12-31,99500.0
2000-10-31,119375.0
2000-09-30,116125.0
2000-08-31,118950.0
2000-07-31,112625.0
2000-06-30,100025.0
2000-05-31,91000.0
2000-04-30,96000.0
1999-11-30,91375.0
1999-09-30,117200.0
1999-08-31,116535.0
1999-07-31,108400.0
1999-06-30,96565.0
1999-05-31,100600.0
1999-04-30,99435.0
1999-03-31,96515.0
1999-02-28,103700.0
1999-01-31,92350.0
1998-12-31,99588.2353
1998-11-30,92769.2308
1998-08-31,117850.0
1998-07-31,106500.0
1998-06-30,102050.0
1998-05-31,88850.0
1998-04-30,84735.0
1998-03-31,88965.0
1998-02-28,90385.0
1998-01-31,100065.0
1997-12-31,104085.0
1997-11-30,105465.0
1997-10-31,95350.0
1997-09-30,109650.0
1997-08-31,113750.0
1997-07-31,111235.0
1997-06-30,110715.0
1997-04-30,80470.5882
1997-03-31,74000.0
1996-10-31,90000.0
1996-08-31,90576.9231
1996-06-30,92500.0
