Date,Value
2015-09-30,0.836
2015-08-31,0.818
2015-07-31,0.818
2015-06-30,0.816
2015-05-31,0.808
2015-04-30,0.802
2015-03-31,0.796
2015-02-28,0.792
2015-01-31,0.788
2014-12-31,0.786
2014-11-30,0.784
2014-10-31,0.782
2014-09-30,0.78
2014-08-31,0.778
2014-07-31,0.772
2014-06-30,0.764
2014-05-31,0.758
2014-04-30,0.754
2014-03-31,0.75
2014-02-28,0.748
2014-01-31,0.748
2013-12-31,0.75
2013-11-30,0.752
2013-10-31,0.75
2013-09-30,0.744
2013-08-31,0.738
2013-07-31,0.738
2013-06-30,0.74
2013-05-31,0.742
2013-04-30,0.742
2013-03-31,0.744
2013-02-28,0.746
2013-01-31,0.746
2012-12-31,0.748
2012-11-30,0.746
2012-10-31,0.738
2012-09-30,0.73
2012-08-31,0.726
2012-07-31,0.726
2012-06-30,0.728
2012-05-31,0.728
2012-04-30,0.73
2012-03-31,0.73
2012-02-29,0.726
2012-01-31,0.72
2011-12-31,0.714
2011-11-30,0.712
2011-10-31,0.716
2011-09-30,0.728
2011-08-31,0.734
2011-07-31,0.738
2011-06-30,0.736
2011-05-31,0.734
2011-04-30,0.73
2011-03-31,0.728
2011-02-28,0.73
2011-01-31,0.736
2010-12-31,0.736
2010-11-30,0.734
