Date,Value
2015-09-30,222200.0
2015-08-31,220100.0
2015-07-31,218900.0
2015-06-30,220200.0
2015-05-31,220800.0
2015-04-30,218700.0
2015-03-31,217300.0
2015-02-28,215700.0
2015-01-31,214200.0
2014-12-31,212700.0
2014-11-30,211200.0
2014-10-31,209500.0
2014-09-30,209300.0
2014-08-31,210200.0
2014-07-31,208700.0
2014-06-30,205600.0
2014-05-31,203800.0
2014-04-30,204400.0
2014-03-31,204800.0
2014-02-28,203500.0
2014-01-31,201500.0
2013-12-31,200400.0
2013-11-30,199300.0
2013-10-31,197600.0
2013-09-30,195500.0
2013-08-31,194000.0
2013-07-31,193200.0
2013-06-30,190700.0
2013-05-31,186700.0
2013-04-30,183800.0
2013-03-31,183000.0
2013-02-28,184000.0
2013-01-31,186500.0
2012-12-31,188300.0
2012-11-30,188900.0
2012-10-31,189300.0
2012-09-30,190200.0
2012-08-31,190900.0
2012-07-31,191700.0
2012-06-30,193100.0
2012-05-31,195600.0
2012-04-30,197500.0
2012-03-31,198300.0
2012-02-29,198100.0
2012-01-31,197400.0
2011-12-31,196600.0
2011-11-30,196200.0
2011-10-31,196900.0
2011-09-30,197900.0
2011-08-31,197600.0
2011-07-31,196000.0
2011-06-30,194800.0
2011-05-31,194600.0
2011-04-30,195100.0
2011-03-31,196300.0
2011-02-28,197900.0
2011-01-31,199900.0
2010-12-31,202300.0
2010-11-30,204300.0
2010-10-31,205400.0
2010-09-30,206100.0
2010-08-31,206900.0
2010-07-31,207900.0
2010-06-30,208800.0
2010-05-31,209600.0
2010-04-30,210200.0
2010-03-31,211600.0
2010-02-28,213500.0
2010-01-31,214800.0
2009-12-31,215600.0
2009-11-30,217100.0
2009-10-31,218500.0
2009-09-30,219300.0
2009-08-31,220700.0
2009-07-31,222800.0
2009-06-30,225000.0
2009-05-31,226800.0
2009-04-30,227100.0
2009-03-31,226400.0
2009-02-28,226400.0
2009-01-31,225300.0
2008-12-31,223200.0
2008-11-30,222400.0
2008-10-31,223000.0
2008-09-30,222900.0
2008-08-31,222100.0
2008-07-31,222000.0
2008-06-30,222200.0
2008-05-31,222900.0
2008-04-30,224300.0
2008-03-31,225200.0
2008-02-29,224100.0
2008-01-31,223000.0
2007-12-31,223000.0
2007-11-30,223200.0
2007-10-31,223700.0
2007-09-30,225200.0
2007-08-31,226800.0
2007-07-31,227900.0
2007-06-30,229900.0
2007-05-31,231600.0
2007-04-30,231900.0
2007-03-31,231100.0
2007-02-28,230700.0
2007-01-31,230300.0
2006-12-31,230200.0
2006-11-30,229400.0
2006-10-31,228600.0
2006-09-30,227900.0
2006-08-31,227000.0
2006-07-31,225700.0
2006-06-30,223000.0
2006-05-31,218400.0
2006-04-30,213800.0
2006-03-31,210600.0
2006-02-28,208000.0
2006-01-31,205600.0
2005-12-31,203500.0
2005-11-30,200700.0
2005-10-31,196600.0
2005-09-30,192300.0
2005-08-31,188000.0
2005-07-31,183800.0
2005-06-30,179800.0
2005-05-31,176400.0
2005-04-30,173300.0
2005-03-31,170200.0
2005-02-28,167500.0
2005-01-31,165800.0
2004-12-31,164500.0
2004-11-30,162700.0
2004-10-31,160000.0
2004-09-30,157600.0
2004-08-31,156400.0
2004-07-31,155600.0
2004-06-30,154000.0
2004-05-31,152400.0
2004-04-30,151700.0
2004-03-31,151800.0
2004-02-29,151900.0
2004-01-31,151300.0
2003-12-31,150200.0
2003-11-30,149200.0
2003-10-31,148500.0
2003-09-30,147700.0
2003-08-31,146300.0
2003-07-31,145000.0
2003-06-30,144300.0
2003-05-31,143800.0
2003-04-30,142500.0
2003-03-31,141200.0
2003-02-28,140500.0
2003-01-31,139600.0
2002-12-31,138600.0
2002-11-30,138000.0
2002-10-31,138200.0
2002-09-30,138200.0
2002-08-31,137800.0
2002-07-31,137800.0
2002-06-30,138900.0
2002-05-31,140300.0
2002-04-30,141300.0
2002-03-31,141400.0
2002-02-28,141200.0
2002-01-31,141100.0
2001-12-31,141100.0
2001-11-30,141300.0
2001-10-31,141900.0
2001-09-30,141300.0
2001-08-31,139900.0
2001-07-31,139200.0
2001-06-30,138800.0
2001-05-31,138000.0
2001-04-30,137300.0
2001-03-31,136300.0
2001-02-28,135200.0
2001-01-31,134500.0
2000-12-31,134000.0
2000-11-30,133500.0
2000-10-31,133000.0
2000-09-30,132600.0
2000-08-31,132800.0
2000-07-31,132400.0
2000-06-30,131200.0
2000-05-31,130900.0
2000-04-30,131600.0
2000-03-31,132000.0
2000-02-29,131800.0
2000-01-31,131400.0
1999-12-31,130900.0
1999-11-30,130000.0
1999-10-31,129400.0
1999-09-30,129700.0
1999-08-31,130100.0
1999-07-31,130200.0
1999-06-30,130200.0
1999-05-31,129700.0
1999-04-30,128400.0
1999-03-31,127400.0
1999-02-28,127100.0
1999-01-31,127000.0
1998-12-31,126100.0
1998-11-30,124800.0
1998-10-31,124200.0
1998-09-30,124500.0
1998-08-31,125000.0
1998-07-31,125100.0
1998-06-30,124900.0
1998-05-31,124700.0
1998-04-30,124700.0
1998-03-31,124200.0
1998-02-28,123500.0
1998-01-31,122600.0
1997-12-31,122300.0
1997-11-30,122300.0
1997-10-31,122000.0
1997-09-30,121500.0
1997-08-31,120700.0
1997-07-31,120100.0
1997-06-30,120100.0
1997-05-31,120200.0
1997-04-30,119500.0
1997-03-31,118900.0
1997-02-28,119000.0
1997-01-31,119400.0
1996-12-31,119800.0
1996-11-30,120100.0
1996-10-31,120300.0
1996-09-30,120600.0
1996-08-31,121300.0
1996-07-31,122000.0
1996-06-30,122300.0
1996-05-31,122900.0
1996-04-30,124500.0
