Date,Value
2015-09-30,325700.0
2015-08-31,321200.0
2015-07-31,314000.0
2015-06-30,307600.0
2015-05-31,299000.0
2015-04-30,296000.0
2015-03-31,296200.0
2015-02-28,295700.0
2015-01-31,294800.0
2014-12-31,294500.0
2014-11-30,294800.0
2014-10-31,295000.0
2014-09-30,295800.0
2014-08-31,297400.0
2014-07-31,299200.0
2014-06-30,299900.0
2014-05-31,299600.0
2014-04-30,301100.0
2014-03-31,303200.0
2014-02-28,304300.0
2014-01-31,303200.0
2013-12-31,301600.0
2013-11-30,301700.0
2013-10-31,302400.0
2013-09-30,299900.0
2013-08-31,295900.0
2013-07-31,291800.0
2013-06-30,285300.0
2013-05-31,277300.0
2013-04-30,271800.0
2013-03-31,268600.0
2013-02-28,266700.0
2013-01-31,266000.0
2012-12-31,264700.0
2012-11-30,261900.0
2012-10-31,259100.0
2012-09-30,257400.0
2012-08-31,256500.0
2012-07-31,256600.0
2012-06-30,256700.0
2012-05-31,256000.0
2012-04-30,254100.0
2012-03-31,252400.0
2012-02-29,252100.0
2012-01-31,253300.0
2011-12-31,254600.0
2011-11-30,255200.0
2011-10-31,255500.0
2011-09-30,255400.0
2011-08-31,255500.0
2011-07-31,256700.0
2011-06-30,258400.0
2011-05-31,259800.0
2011-04-30,262300.0
2011-03-31,266200.0
2011-02-28,270200.0
2011-01-31,274900.0
2010-12-31,279300.0
2010-11-30,281400.0
2010-10-31,281800.0
2010-09-30,282400.0
2010-08-31,282700.0
2010-07-31,282900.0
2010-06-30,285200.0
2010-05-31,289100.0
2010-04-30,293100.0
2010-03-31,297700.0
2010-02-28,300900.0
2010-01-31,304200.0
2009-12-31,308600.0
2009-11-30,312600.0
2009-10-31,314600.0
2009-09-30,318600.0
2009-08-31,322400.0
2009-07-31,324500.0
2009-06-30,326800.0
2009-05-31,329500.0
2009-04-30,328000.0
2009-03-31,324000.0
2009-02-28,321400.0
2009-01-31,313700.0
2008-12-31,305600.0
2008-11-30,305600.0
2008-10-31,311000.0
2008-09-30,315000.0
2008-08-31,320600.0
2008-07-31,326000.0
2008-06-30,329800.0
2008-05-31,333100.0
2008-04-30,337200.0
2008-03-31,339600.0
2008-02-29,341100.0
2008-01-31,344800.0
2007-12-31,350000.0
2007-11-30,353200.0
2007-10-31,353900.0
2007-09-30,354000.0
2007-08-31,354300.0
2007-07-31,355500.0
2007-06-30,355900.0
2007-05-31,355400.0
2007-04-30,355700.0
2007-03-31,356700.0
2007-02-28,356500.0
2007-01-31,356200.0
2006-12-31,355800.0
2006-11-30,355300.0
2006-10-31,354700.0
2006-09-30,355000.0
2006-08-31,355400.0
2006-07-31,355000.0
2006-06-30,353700.0
2006-05-31,352100.0
2006-04-30,348400.0
2006-03-31,343500.0
2006-02-28,339800.0
2006-01-31,338500.0
2005-12-31,335800.0
2005-11-30,328800.0
2005-10-31,319400.0
2005-09-30,310100.0
2005-08-31,300900.0
2005-07-31,292500.0
2005-06-30,285500.0
2005-05-31,281200.0
2005-04-30,278000.0
2005-03-31,275000.0
2005-02-28,272000.0
2005-01-31,269800.0
2004-12-31,267400.0
2004-11-30,266300.0
2004-10-31,266200.0
2004-09-30,264900.0
2004-08-31,260700.0
2004-07-31,256500.0
2004-06-30,254200.0
2004-05-31,252600.0
2004-04-30,251000.0
2004-03-31,249300.0
2004-02-29,247300.0
2004-01-31,244500.0
2003-12-31,241400.0
2003-11-30,238900.0
2003-10-31,237000.0
2003-09-30,235200.0
2003-08-31,234000.0
2003-07-31,233000.0
2003-06-30,231500.0
2003-05-31,228300.0
2003-04-30,225200.0
2003-03-31,224900.0
2003-02-28,225300.0
2003-01-31,224600.0
2002-12-31,223500.0
2002-11-30,221900.0
2002-10-31,220400.0
2002-09-30,220100.0
2002-08-31,220300.0
2002-07-31,220100.0
2002-06-30,219800.0
2002-05-31,219600.0
2002-04-30,220200.0
2002-03-31,219700.0
2002-02-28,218200.0
2002-01-31,216000.0
2001-12-31,213800.0
2001-11-30,211600.0
2001-10-31,210400.0
2001-09-30,210000.0
2001-08-31,210200.0
2001-07-31,209600.0
2001-06-30,208900.0
2001-05-31,208400.0
2001-04-30,207500.0
2001-03-31,206300.0
2001-02-28,205500.0
2001-01-31,205300.0
2000-12-31,205500.0
2000-11-30,205600.0
2000-10-31,205200.0
2000-09-30,204500.0
2000-08-31,204700.0
2000-07-31,204800.0
2000-06-30,203200.0
2000-05-31,200500.0
2000-04-30,198800.0
2000-03-31,198100.0
2000-02-29,198000.0
2000-01-31,197800.0
1999-12-31,198100.0
1999-11-30,199700.0
1999-10-31,201200.0
1999-09-30,202200.0
1999-08-31,202700.0
1999-07-31,203100.0
1999-06-30,204000.0
1999-05-31,205100.0
1999-04-30,205100.0
1999-03-31,204200.0
1999-02-28,203100.0
1999-01-31,202700.0
1998-12-31,203500.0
1998-11-30,204000.0
1998-10-31,203200.0
1998-09-30,202200.0
1998-08-31,201400.0
1998-07-31,201000.0
1998-06-30,200800.0
1998-05-31,202000.0
1998-04-30,203100.0
1998-03-31,203000.0
1998-02-28,200800.0
1998-01-31,198000.0
1997-12-31,194600.0
1997-11-30,191300.0
1997-10-31,189000.0
1997-09-30,186300.0
1997-08-31,183300.0
1997-07-31,181400.0
1997-06-30,180600.0
1997-05-31,178500.0
1997-04-30,176600.0
1997-03-31,175500.0
1997-02-28,175400.0
1997-01-31,175500.0
1996-12-31,176000.0
1996-11-30,176500.0
1996-10-31,177300.0
1996-09-30,178700.0
1996-08-31,179900.0
1996-07-31,180700.0
1996-06-30,180900.0
1996-05-31,181300.0
1996-04-30,181300.0
