Date,Value
2015-09-30,1.018
2015-08-31,1.034
2015-07-31,1.052
2015-06-30,1.058
2015-05-31,1.048
2015-04-30,1.028
2015-03-31,1.014
2015-02-28,1.012
2015-01-31,1.02
2014-12-31,1.028
2014-11-30,1.03
2014-10-31,1.026
2014-09-30,1.02
2014-08-31,1.014
2014-07-31,1.008
2014-06-30,1.004
2014-05-31,1.008
2014-04-30,1.01
2014-03-31,1.016
2014-02-28,1.016
2014-01-31,1.008
2013-12-31,1.002
2013-11-30,0.99
2013-10-31,0.98
2013-09-30,0.972
2013-08-31,0.962
2013-07-31,0.954
2013-06-30,0.948
2013-05-31,0.946
2013-04-30,0.938
2013-03-31,0.934
2013-02-28,0.922
2013-01-31,0.908
2012-12-31,0.9
2012-11-30,0.9
2012-10-31,0.902
2012-09-30,0.904
2012-08-31,0.906
2012-07-31,0.9
2012-06-30,0.896
2012-05-31,0.886
2012-04-30,0.88
2012-03-31,0.88
2012-02-29,0.88
2012-01-31,0.882
2011-12-31,0.882
2011-11-30,0.884
2011-10-31,0.878
2011-09-30,0.88
2011-08-31,0.882
2011-07-31,0.89
2011-06-30,0.896
2011-05-31,0.894
2011-04-30,0.886
2011-03-31,0.886
2011-02-28,0.89
2011-01-31,0.892
2010-12-31,0.89
2010-11-30,0.886
