Date,Value
2015-09-30,1.268
2015-08-31,1.25
2015-07-31,1.228
2015-06-30,1.218
2015-05-31,1.204
2015-04-30,1.19
2015-03-31,1.18
2015-02-28,1.18
2015-01-31,1.184
2014-12-31,1.184
2014-11-30,1.184
2014-10-31,1.184
2014-09-30,1.178
2014-08-31,1.168
2014-07-31,1.156
2014-06-30,1.146
2014-05-31,1.136
2014-04-30,1.128
2014-03-31,1.122
2014-02-28,1.112
2014-01-31,1.1
2013-12-31,1.094
2013-11-30,1.088
2013-10-31,1.08
2013-09-30,1.07
2013-08-31,1.058
2013-07-31,1.048
2013-06-30,1.042
2013-05-31,1.046
2013-04-30,1.048
2013-03-31,1.048
2013-02-28,1.04
2013-01-31,1.036
2012-12-31,1.028
2012-11-30,1.022
2012-10-31,1.018
2012-09-30,1.022
2012-08-31,1.026
2012-07-31,1.032
2012-06-30,1.036
2012-05-31,1.03
2012-04-30,1.02
2012-03-31,1.01
2012-02-29,1.01
2012-01-31,1.006
2011-12-31,1.0
2011-11-30,0.994
2011-10-31,0.986
2011-09-30,0.982
2011-08-31,0.982
2011-07-31,0.982
2011-06-30,0.976
2011-05-31,0.97
2011-04-30,0.97
2011-03-31,0.972
2011-02-28,0.968
2011-01-31,0.966
2010-12-31,0.964
2010-11-30,0.964
