Date,Value
2015-07-31,1.098
2015-06-30,1.09
2015-05-31,1.086
2015-04-30,1.092
2015-03-31,1.096
2015-02-28,1.094
2015-01-31,1.084
2014-12-31,1.056
2014-11-30,1.032
2014-10-31,1.024
2014-09-30,1.034
2014-08-31,1.038
2014-07-31,1.038
2014-06-30,1.028
2014-05-31,1.026
2014-04-30,1.028
2014-03-31,1.04
2014-02-28,1.044
2014-01-31,1.038
2013-12-31,1.03
2013-11-30,1.032
2013-10-31,1.056
2013-09-30,1.06
2013-08-31,1.048
2013-07-31,1.03
2013-06-30,1.022
2013-05-31,1.026
2013-04-30,1.022
2013-03-31,1.012
2013-02-28,0.998
2013-01-31,0.996
2012-12-31,0.996
2012-11-30,1.004
2012-10-31,1.002
2012-09-30,1.008
2012-08-31,1.004
2012-07-31,1.008
2012-06-30,1.014
2012-05-31,1.012
2012-04-30,1.004
2012-03-31,0.984
2012-02-29,0.98
2012-01-31,0.98
2011-12-31,1.0
2011-11-30,0.986
2011-10-31,0.974
2011-09-30,0.936
2011-08-31,0.938
2011-07-31,0.938
2011-06-30,0.938
2011-05-31,0.926
2011-04-30,0.914
2011-03-31,0.914
2011-02-28,0.914
2011-01-31,0.912
2010-12-31,0.91
2010-11-30,0.918
