Date,Value
2015-06-30,2599.0
2015-05-31,2600.0
2015-04-30,1900.0
2015-03-31,1965.0
2015-02-28,1990.0
2015-01-31,1935.0
2014-12-31,1780.0
2014-11-30,1925.0
2014-10-31,2195.0
2014-09-30,2300.0
2014-08-31,2500.0
2014-07-31,2675.0
2014-06-30,2500.0
2014-05-31,2450.0
2014-04-30,2150.0
2014-03-31,2195.0
2014-02-28,2390.0
2014-01-31,2300.0
2013-12-31,2195.0
2013-11-30,2020.0
2013-10-31,2000.0
2013-09-30,2195.0
2013-08-31,2000.0
2013-07-31,2000.0
2013-06-30,2495.0
2013-05-31,1900.0
2013-04-30,1900.0
2013-03-31,2250.0
2013-02-28,1900.0
2013-01-31,1795.0
2012-12-31,2020.0
2012-11-30,1885.0
2012-10-31,2195.0
2012-09-30,2350.0
2012-08-31,2100.0
2012-07-31,2290.0
2012-06-30,2550.0
2012-05-31,2450.0
2012-04-30,2950.0
2012-03-31,2400.0
2012-02-29,2500.0
2012-01-31,2690.0
2011-12-31,2500.0
2011-11-30,1775.0
2011-10-31,2395.0
2011-09-30,2500.0
2011-08-31,2600.0
2011-07-31,2695.0
2011-05-31,2100.0
2011-04-30,1750.0
2011-03-31,1795.0
2011-02-28,1450.0
2011-01-31,1150.0
2010-12-31,1165.0
2010-06-30,2100.0
2010-05-31,2195.0
