Date,Value
2015-06-30,2044.0
2015-05-31,1800.0
2015-04-30,1627.0
2015-03-31,1550.0
2015-02-28,1576.0
2015-01-31,1800.0
2014-12-31,1875.0
2014-11-30,1906.0
2014-10-31,1950.0
2014-09-30,1815.0
2014-08-31,1850.0
2014-07-31,1895.0
2014-06-30,1945.0
2014-05-31,1935.0
2014-04-30,1850.0
2014-03-31,1750.0
2014-02-28,1658.0
2014-01-31,1431.0
2013-12-31,1790.0
2013-11-30,1750.0
2013-10-31,1750.0
2013-09-30,1585.0
2013-08-31,1150.0
2013-07-31,1175.0
2013-06-30,1645.0
2013-05-31,1610.0
2013-04-30,1476.0
2013-03-31,1353.0
2013-02-28,1450.0
2013-01-31,1354.0
2012-12-31,1288.0
2012-11-30,1544.0
2012-10-31,1565.0
2012-09-30,1575.0
2012-08-31,1610.0
2012-07-31,1544.0
2012-06-30,1544.0
2012-05-31,1228.0
2012-04-30,1138.0
2012-03-31,1233.0
2012-02-29,1131.0
2012-01-31,1245.0
2011-12-31,1205.0
2011-11-30,1270.0
2011-10-31,1450.0
2011-09-30,1320.0
2011-08-31,1650.0
2011-07-31,1695.0
2011-06-30,1195.0
2011-05-31,1195.0
2011-04-30,1250.0
2011-03-31,1085.0
2011-02-28,1085.0
2011-01-31,1100.0
2010-12-31,1175.0
2010-10-31,1500.0
2010-09-30,1500.0
2010-08-31,1270.0
