Date,Value
2015-09-30,0.968
2015-08-31,0.956
2015-07-31,0.944
2015-06-30,0.944
2015-05-31,0.946
2015-04-30,0.94
2015-03-31,0.936
2015-02-28,0.926
2015-01-31,0.916
2014-12-31,0.91
2014-11-30,0.912
2014-10-31,0.914
2014-09-30,0.918
2014-08-31,0.924
2014-07-31,0.922
2014-06-30,0.916
2014-05-31,0.912
2014-04-30,0.91
2014-03-31,0.914
2014-02-28,0.912
2014-01-31,0.908
2013-12-31,0.908
2013-11-30,0.91
2013-10-31,0.902
2013-09-30,0.894
2013-08-31,0.884
2013-07-31,0.878
2013-06-30,0.872
2013-05-31,0.868
2013-04-30,0.858
2013-03-31,0.852
2013-02-28,0.852
2013-01-31,0.858
2012-12-31,0.866
2012-11-30,0.872
2012-10-31,0.87
2012-09-30,0.87
2012-08-31,0.868
2012-07-31,0.866
2012-06-30,0.868
2012-05-31,0.87
2012-04-30,0.868
2012-03-31,0.864
2012-02-29,0.862
2012-01-31,0.86
2011-12-31,0.864
2011-11-30,0.86
2011-10-31,0.846
2011-09-30,0.842
2011-08-31,0.844
2011-07-31,0.846
2011-06-30,0.85
2011-05-31,0.85
2011-04-30,0.844
2011-03-31,0.846
2011-02-28,0.852
2011-01-31,0.852
2010-12-31,0.836
2010-11-30,0.818
