Date,Value
2015-09-30,392900.0
2015-08-31,385100.0
2015-07-31,381200.0
2015-06-30,381700.0
2015-05-31,379000.0
2015-04-30,371500.0
2015-03-31,364900.0
2015-02-28,359400.0
2015-01-31,356400.0
2014-12-31,353700.0
2014-11-30,351800.0
2014-10-31,349800.0
2014-09-30,347800.0
2014-08-31,345500.0
2014-07-31,343600.0
2014-06-30,343800.0
2014-05-31,345100.0
2014-04-30,346400.0
2014-03-31,346200.0
2014-02-28,344300.0
2014-01-31,341500.0
2013-12-31,339000.0
2013-11-30,336600.0
2013-10-31,333900.0
2013-09-30,330100.0
2013-08-31,325600.0
2013-07-31,319800.0
2013-06-30,313100.0
2013-05-31,306500.0
2013-04-30,300400.0
2013-03-31,295000.0
2013-02-28,291100.0
2013-01-31,288000.0
2012-12-31,285800.0
2012-11-30,283000.0
2012-10-31,279100.0
2012-09-30,275200.0
2012-08-31,273500.0
2012-07-31,273700.0
2012-06-30,274000.0
2012-05-31,271900.0
2012-04-30,269500.0
2012-03-31,267900.0
2012-02-29,267100.0
2012-01-31,266900.0
2011-12-31,267700.0
2011-11-30,267500.0
2011-10-31,267900.0
2011-09-30,269000.0
2011-08-31,269900.0
2011-07-31,270200.0
2011-06-30,270200.0
2011-05-31,270700.0
2011-04-30,272200.0
2011-03-31,274800.0
2011-02-28,278200.0
2011-01-31,282200.0
2010-12-31,285300.0
2010-11-30,287500.0
2010-10-31,289400.0
2010-09-30,291900.0
2010-08-31,296000.0
2010-07-31,300700.0
2010-06-30,304100.0
2010-05-31,305300.0
2010-04-30,305500.0
2010-03-31,306200.0
2010-02-28,307500.0
2010-01-31,308200.0
2009-12-31,308700.0
2009-11-30,309500.0
2009-10-31,310000.0
2009-09-30,310700.0
2009-08-31,312400.0
2009-07-31,315000.0
2009-06-30,317800.0
2009-05-31,322500.0
2009-04-30,328700.0
2009-03-31,335300.0
2009-02-28,340700.0
2009-01-31,344300.0
2008-12-31,347000.0
2008-11-30,351500.0
2008-10-31,357600.0
2008-09-30,363100.0
2008-08-31,366300.0
2008-07-31,368800.0
2008-06-30,372400.0
2008-05-31,376600.0
2008-04-30,380300.0
2008-03-31,383500.0
2008-02-29,387000.0
2008-01-31,390600.0
2007-12-31,393800.0
2007-11-30,396500.0
2007-10-31,398700.0
2007-09-30,400000.0
2007-08-31,400500.0
2007-07-31,400500.0
2007-06-30,400800.0
2007-05-31,401200.0
2007-04-30,401400.0
2007-03-31,401800.0
2007-02-28,401500.0
2007-01-31,400400.0
2006-12-31,398500.0
2006-11-30,396200.0
2006-10-31,393500.0
2006-09-30,390300.0
2006-08-31,386100.0
2006-07-31,381200.0
2006-06-30,376200.0
2006-05-31,370500.0
2006-04-30,364900.0
2006-03-31,359500.0
2006-02-28,354300.0
2006-01-31,349300.0
2005-12-31,345100.0
2005-11-30,341200.0
2005-10-31,337300.0
2005-09-30,334000.0
2005-08-31,330600.0
2005-07-31,326200.0
2005-06-30,321100.0
2005-05-31,315800.0
2005-04-30,310000.0
2005-03-31,304100.0
2005-02-28,299100.0
2005-01-31,295200.0
2004-12-31,291900.0
2004-11-30,288200.0
2004-10-31,284400.0
2004-09-30,281100.0
2004-08-31,278500.0
2004-07-31,276800.0
2004-06-30,275600.0
2004-05-31,274400.0
2004-04-30,273000.0
2004-03-31,271000.0
2004-02-29,268600.0
2004-01-31,266000.0
2003-12-31,263900.0
2003-11-30,262200.0
2003-10-31,260500.0
2003-09-30,258200.0
2003-08-31,256600.0
2003-07-31,255500.0
2003-06-30,254100.0
2003-05-31,252200.0
2003-04-30,250500.0
2003-03-31,249300.0
2003-02-28,248100.0
2003-01-31,246500.0
2002-12-31,245100.0
2002-11-30,244100.0
2002-10-31,243200.0
2002-09-30,242000.0
2002-08-31,240700.0
2002-07-31,239700.0
2002-06-30,239200.0
2002-05-31,239200.0
2002-04-30,239000.0
2002-03-31,238600.0
2002-02-28,237800.0
2002-01-31,237100.0
2001-12-31,235900.0
2001-11-30,234500.0
2001-10-31,233400.0
2001-09-30,233000.0
2001-08-31,232300.0
2001-07-31,231000.0
2001-06-30,229500.0
2001-05-31,228600.0
2001-04-30,228100.0
2001-03-31,227500.0
2001-02-28,226100.0
2001-01-31,224900.0
2000-12-31,223600.0
2000-11-30,222200.0
2000-10-31,221000.0
2000-09-30,220000.0
2000-08-31,218400.0
2000-07-31,216100.0
2000-06-30,214200.0
2000-05-31,212800.0
2000-04-30,211300.0
2000-03-31,209400.0
2000-02-29,208300.0
2000-01-31,207600.0
1999-12-31,206800.0
1999-11-30,205600.0
1999-10-31,204300.0
1999-09-30,203200.0
1999-08-31,202700.0
1999-07-31,202400.0
1999-06-30,201800.0
1999-05-31,199800.0
1999-04-30,197700.0
1999-03-31,196100.0
1999-02-28,194800.0
1999-01-31,193100.0
1998-12-31,191400.0
1998-11-30,190200.0
1998-10-31,189100.0
1998-09-30,187500.0
1998-08-31,185400.0
1998-07-31,183600.0
1998-06-30,181700.0
1998-05-31,179600.0
1998-04-30,177800.0
1998-03-31,176900.0
1998-02-28,176000.0
1998-01-31,174500.0
1997-12-31,173400.0
1997-11-30,172600.0
1997-10-31,171300.0
1997-09-30,169900.0
1997-08-31,168100.0
1997-07-31,166100.0
1997-06-30,164600.0
1997-05-31,163300.0
1997-04-30,161900.0
1997-03-31,159900.0
1997-02-28,158000.0
1997-01-31,156900.0
1996-12-31,155700.0
1996-11-30,154200.0
1996-10-31,153000.0
1996-09-30,152400.0
1996-08-31,152300.0
1996-07-31,152300.0
1996-06-30,152000.0
1996-05-31,151900.0
1996-04-30,152200.0
