Date,Value
2015-09-30,223300.0
2015-08-31,219200.0
2015-07-31,215100.0
2015-06-30,213900.0
2015-05-31,212600.0
2015-04-30,209800.0
2015-03-31,209600.0
2015-02-28,209600.0
2015-01-31,210800.0
2014-12-31,212300.0
2014-11-30,211100.0
2014-10-31,210000.0
2014-09-30,211300.0
2014-08-31,212000.0
2014-07-31,209800.0
2014-06-30,207700.0
2014-05-31,205300.0
2014-04-30,205600.0
2014-03-31,209600.0
2014-02-28,212600.0
2014-01-31,211900.0
2013-12-31,211000.0
2013-11-30,211500.0
2013-10-31,211400.0
2013-09-30,210400.0
2013-08-31,209300.0
2013-07-31,210000.0
2013-06-30,209800.0
2013-05-31,207800.0
2013-04-30,205300.0
2013-03-31,205200.0
2013-02-28,207900.0
2013-01-31,213000.0
2012-12-31,217700.0
2012-11-30,220600.0
2012-10-31,221300.0
2012-09-30,220400.0
2012-08-31,218100.0
2012-07-31,216100.0
2012-06-30,214000.0
2012-05-31,209600.0
2012-04-30,205200.0
2012-03-31,204800.0
2012-02-29,207200.0
2012-01-31,210500.0
2011-12-31,213200.0
2011-11-30,215600.0
2011-10-31,217500.0
2011-09-30,220200.0
2011-08-31,223300.0
2011-07-31,226200.0
2011-06-30,226100.0
2011-05-31,224400.0
2011-04-30,224900.0
2011-03-31,227800.0
2011-02-28,230900.0
2011-01-31,234100.0
2010-12-31,235500.0
2010-11-30,233700.0
2010-10-31,231700.0
2010-09-30,232800.0
2010-08-31,233600.0
2010-07-31,231800.0
2010-06-30,229300.0
2010-05-31,227400.0
2010-04-30,225800.0
2010-03-31,225600.0
2010-02-28,226500.0
2010-01-31,228400.0
2009-12-31,231700.0
2009-11-30,235000.0
2009-10-31,236100.0
2009-09-30,236100.0
2009-08-31,237900.0
