Date,Value
2015-02-28,165000.0
2015-01-31,150000.0
2014-12-31,165000.0
2014-11-30,149950.0
2014-10-31,149950.0
2014-09-30,165000.0
2014-08-31,159000.0
2014-07-31,159000.0
2014-06-30,165000.0
2014-05-31,185000.0
2014-04-30,199000.0
2014-03-31,185000.0
2014-02-28,177500.0
2014-01-31,185000.0
2013-12-31,185000.0
2013-11-30,229000.0
2013-10-31,249500.0
2013-09-30,229900.0
2013-08-31,229900.0
2013-07-31,229000.0
2013-06-30,175000.0
2013-05-31,204000.0
2013-04-30,175000.0
2013-03-31,159000.0
2013-02-28,154000.0
2012-12-31,177000.0
2012-11-30,199900.0
2012-10-31,177000.0
2012-09-30,177000.0
2012-08-31,184500.0
2012-07-31,224900.0
2012-06-30,184500.0
2012-05-31,159000.0
2012-04-30,122000.0
2012-03-31,122000.0
2012-02-29,199900.0
2012-01-31,199900.0
2011-12-31,210000.0
2011-11-30,252000.0
2011-10-31,252000.0
2011-09-30,252000.0
2011-08-31,287000.0
2011-07-31,249950.0
2011-06-30,210000.0
2011-05-31,210000.0
2011-04-30,159000.0
2011-03-31,145000.0
2011-02-28,114997.0
2011-01-31,145000.0
2010-12-31,150000.0
2010-11-30,159000.0
2010-10-31,159000.0
2010-09-30,171900.0
2010-08-31,188900.0
2010-07-31,181920.0
2010-06-30,204999.0
2010-05-31,165000.0
2010-04-30,145000.0
2010-03-31,181920.0
2010-02-28,195000.0
2010-01-31,195000.0
2009-12-31,149900.0
2009-11-30,149900.0
2009-10-31,145000.0
2009-09-30,199900.0
2009-08-31,247200.0
2009-07-31,247200.0
2009-06-30,249500.0
2009-05-31,249000.0
2009-04-30,229995.0
2009-03-31,220000.0
2009-02-28,225000.0
2009-01-31,225000.0
2008-12-31,225000.0
2008-11-30,229900.0
2008-10-31,249000.0
