Date,Value
2015-09-30,248996.25
2015-07-31,252209.5
2015-06-30,279869.5
2015-04-30,251735.2941
2015-03-31,234115.3846
2015-01-31,214500.0
2014-10-31,234855.0
2014-09-30,227150.0
2014-08-31,225250.0
2014-07-31,226750.0
2014-06-30,243992.5
2014-05-31,244097.0588
2014-04-30,249950.0
2014-01-31,228352.9412
2013-12-31,216000.0
2013-09-30,202532.5
2013-08-31,221925.0
2013-07-31,211050.0
2013-06-30,196000.0
2013-05-31,191300.0
2013-04-30,200250.0
2013-03-31,198750.0
2013-02-28,179705.8824
2013-01-31,165000.0
2012-06-30,179950.0
2011-07-31,181258.3529
2011-06-30,183056.0
2010-06-30,233065.3846
2010-04-30,203423.0769
2010-02-28,215000.0
2009-11-30,243607.6923
2009-09-30,231250.4706
2009-08-31,236894.0
2008-10-31,261496.3
2008-09-30,263659.0
2008-08-31,265700.0
2008-07-31,270200.0
2008-06-30,270082.5
2008-05-31,266850.0
2008-04-30,267492.5
2008-03-31,253157.5
2008-02-29,249050.0
2008-01-31,267842.35
2007-12-31,291376.15
2007-11-30,287753.0
2007-10-31,276862.5
2007-09-30,268425.0
2007-08-31,281351.75
2007-07-31,302670.75
2007-06-30,315672.5
2007-05-31,319032.5
2007-04-30,294620.55
2007-03-31,287525.75
2007-02-28,283359.2
2007-01-31,284215.1
2006-12-31,280050.4
2006-11-30,276278.1
2006-10-31,287535.75
2006-09-30,284706.65
2006-08-31,278299.5
2006-07-31,275200.0
2006-06-30,273732.5
2006-05-31,264585.05
2006-04-30,260640.95
2006-03-31,248474.5
2006-02-28,251204.0
2006-01-31,245255.45
2005-12-31,249908.45
2005-11-30,251374.6
2005-10-31,243458.0
2005-09-30,238777.5
2005-08-31,234567.5
2005-07-31,228130.0
2005-06-30,234256.3
2005-05-31,229879.7
2005-04-30,214923.5
2005-03-31,203482.5
2005-02-28,204022.35
2005-01-31,211852.15
2004-12-31,232674.5
2004-11-30,239570.0
2004-10-31,227222.5
2004-09-30,224597.5
2004-08-31,230152.5
2004-07-31,213577.5
2004-06-30,231787.85
2004-05-31,228951.65
2004-04-30,230167.45
2004-03-31,235443.55
2004-02-29,224506.5
2004-01-31,200336.4
2003-12-31,214180.95
2003-11-30,215959.3
2003-10-31,198321.4
2003-09-30,201951.45
2003-08-31,201941.9
2003-07-31,191719.6
2003-06-30,187353.0
2003-05-31,178442.5
2003-04-30,182158.9
2003-03-31,187632.75
2003-02-28,185880.15
2003-01-31,168122.4
2002-12-31,171953.8
2002-11-30,173954.0
2002-10-31,184432.5
2002-09-30,192800.0
2002-08-31,200017.5
2002-07-31,210332.5
2002-06-30,199975.25
2002-05-31,198009.75
2002-04-30,197317.5
2002-03-31,201000.0
2002-02-28,176957.5
2002-01-31,180925.0
2001-12-31,180450.0
2001-11-30,164950.0
2001-10-31,163580.0
2001-09-30,163220.0
2001-08-31,158400.0
2001-07-31,148900.0
2001-06-30,156470.5882
2001-05-31,153769.2308
2001-03-31,133000.0
2000-10-31,155332.5
2000-09-30,150875.0
2000-08-31,146485.0
2000-07-31,137311.7647
2000-06-30,153653.8462
2000-04-30,151867.5
2000-03-31,153391.1765
2000-02-29,149251.3846
1999-12-31,149120.5
1999-11-30,146981.75
1999-10-31,146383.25
1999-09-30,141437.5
1999-08-31,146300.0
1999-07-31,145294.1176
1999-06-30,130115.3846
1999-04-30,132352.9412
1999-03-31,132692.3077
1999-01-31,130526.9231
1998-11-30,140747.5
1998-10-31,132977.5
1998-09-30,136072.5
1998-08-31,133677.5
1998-07-31,137500.0
1998-06-30,134117.5
1998-05-31,133762.5
1998-04-30,130052.9412
1998-03-31,130200.0
1997-09-30,110000.0
1997-06-30,114252.9412
1997-05-31,108117.3077
1997-03-31,120421.8
1997-02-28,119849.0588
1997-01-31,126062.0
1996-08-31,113380.0
1996-07-31,113360.0
1996-06-30,116730.0
1996-05-31,117316.1765
1996-04-30,115375.0
