Date,Value
2015-09-30,225142.55
2015-08-31,233000.0
2015-07-31,224710.0
2015-06-30,218340.0
2015-05-31,214925.0
2015-04-30,205893.75
2015-03-31,182718.75
2015-02-28,185687.5
2015-01-31,175875.0
2014-12-31,177750.0
2014-11-30,180720.0
2014-10-31,188180.0
2014-09-30,195400.0
2014-08-31,201700.0
2014-07-31,202050.0
2014-06-30,185735.0
2014-05-31,185715.0
2014-04-30,195700.0
2014-03-31,206000.0
2014-02-28,178242.0
2014-01-31,168315.0
2013-12-31,164640.0
2013-11-30,173355.0
2013-10-31,193620.0
2013-09-30,201680.0
2013-08-31,199630.0
2013-07-31,186415.0
2013-06-30,183695.0
2013-05-31,186280.0
2013-04-30,181330.0
2013-03-31,179638.0
2013-02-28,175040.0
2013-01-31,169192.0
2012-12-31,160840.0
2012-11-30,173080.0
2012-10-31,180380.0
2012-09-30,182317.5
2012-08-31,182592.5
2012-07-31,174130.0
2012-06-30,181530.0
2012-05-31,193030.0
2012-04-30,201230.0
2012-03-31,190695.0
2012-02-29,186605.0
2012-01-31,199655.0
2011-12-31,168015.0
2011-11-30,165730.0
2011-10-31,175080.0
2011-09-30,184556.3
2011-08-31,195159.7
2011-07-31,190151.0
2011-06-30,180340.0
2011-05-31,181212.5
2011-04-30,187037.5
2011-03-31,199180.0
2011-02-28,181230.0
2011-01-31,185080.0
2010-12-31,174486.5
2010-11-30,174178.5
2010-10-31,192828.65
2010-09-30,198661.5
2010-08-31,194790.0
2010-07-31,190680.0
2010-06-30,190115.0
2010-05-31,185703.0
2010-04-30,176707.0
2010-03-31,178965.0
2010-02-28,190555.0
2010-01-31,197605.0
2009-12-31,206788.0
2009-11-30,181132.0
2009-10-31,195865.0
2009-09-30,208355.0
2009-08-31,201205.0
2009-07-31,202755.0
2009-06-30,196390.0
2009-05-31,198480.0
2009-04-30,200415.0
2009-03-31,203495.0
2009-02-28,211417.5
2009-01-31,218467.5
2008-12-31,209305.0
2008-11-30,201588.0
2008-10-31,202857.0
2008-09-30,204415.0
2008-08-31,219065.0
2008-07-31,229495.0
2008-06-30,230926.7
2008-05-31,219192.8
2008-04-30,213376.0
2008-03-31,211747.5
2008-02-29,213005.0
2008-01-31,215830.0
2007-12-31,232230.0
2007-11-30,225680.0
2007-10-31,224130.0
2007-09-30,212137.5
2007-08-31,230747.5
2007-07-31,229255.0
2007-06-30,220450.0
2007-05-31,225068.0
2007-04-30,214582.0
2007-03-31,212874.75
2007-02-28,205126.25
2007-01-31,204917.0
2006-12-31,213277.0
2006-11-30,221890.0
2006-10-31,216808.5
2006-09-30,214696.5
2006-08-31,219675.0
2006-07-31,209780.0
2006-06-30,197960.0
2006-05-31,185058.0
2006-04-30,177582.0
2006-03-31,186140.0
2006-02-28,187750.65
2006-01-31,186407.35
2005-12-31,197588.0
2005-11-30,200395.0
2005-10-31,191115.0
2005-09-30,194445.0
2005-08-31,187988.0
2005-07-31,183375.0
2005-06-30,175215.0
2005-05-31,168050.0
2005-04-30,161400.0
2005-03-31,159150.0
2005-02-28,152450.0
2005-01-31,150560.0
2004-12-31,160990.0
2004-11-30,163992.5
2004-10-31,153007.5
2004-09-30,152775.0
2004-08-31,152375.0
2004-07-31,154050.0
2004-06-30,149000.0
2004-05-31,140000.0
2004-04-30,136925.0
2004-03-31,130620.0
2004-02-29,126105.0
2004-01-31,133735.0
2003-12-31,140115.0
2003-11-30,133685.0
2003-10-31,143965.0
2003-09-30,143825.0
2003-08-31,147210.0
2003-07-31,144365.0
2003-06-30,141900.0
2003-05-31,132250.0
2003-04-30,126625.0
2003-03-31,132425.0
2003-02-28,137150.0
2003-01-31,137842.5
2002-12-31,134235.25
2002-11-30,131914.75
2002-10-31,131092.5
2002-09-30,135900.0
2002-08-31,137000.0
2002-07-31,135450.0
2002-06-30,135300.0
2002-05-31,134750.0
2002-04-30,132200.0
2002-03-31,131373.35
2002-02-28,125446.15
2002-01-31,119269.5
2001-12-31,124722.5
2001-11-30,127652.5
2001-10-31,131100.0
2001-09-30,128375.0
2001-08-31,130500.0
2001-07-31,136450.0
2001-06-30,130825.0
2001-05-31,125000.0
2001-04-30,119897.5
2001-03-31,116302.5
2001-02-28,115925.0
2001-01-31,119225.3
2000-12-31,115600.7
2000-11-30,114818.5
2000-10-31,123817.5
2000-09-30,138090.0
2000-08-31,137300.0
2000-07-31,132000.0
2000-06-30,123875.0
2000-05-31,124975.0
2000-04-30,120275.0
2000-03-31,121125.0
2000-02-29,128637.5
2000-01-31,129722.5
1999-12-31,127940.0
1999-11-30,125035.0
1999-10-31,122000.0
1999-09-30,125815.0
1999-08-31,127068.6
1999-07-31,123028.4
1999-06-30,120777.0
1999-05-31,122825.0
1999-04-30,126160.0
1999-03-31,125040.0
1999-02-28,119325.0
1999-01-31,112000.0
1998-12-31,113400.0
1998-11-30,117842.5
1998-10-31,121367.5
1998-09-30,122715.0
1998-08-31,125350.0
1998-07-31,124250.0
1998-06-30,123525.0
1998-05-31,121200.0
1998-04-30,119900.0
1998-03-31,115285.0
1998-02-28,113650.0
1998-01-31,116315.0
1997-12-31,118160.0
1997-11-30,121890.0
1997-10-31,119200.0
1997-09-30,130000.0
1997-08-31,132975.0
1997-07-31,130950.0
1997-06-30,126375.0
1997-05-31,128000.0
1997-04-30,117250.0
1997-03-31,121975.0
1997-02-28,119125.0
1997-01-31,125650.0
1996-12-31,123362.5
1996-11-30,124912.5
1996-10-31,122725.0
1996-09-30,122200.0
1996-08-31,120130.0
1996-07-31,116320.0
1996-06-30,113250.0
1996-05-31,114500.0
1996-04-30,120075.0
