Date,Value
2015-02-28,199950.0
2015-01-31,195000.0
2014-12-31,194000.0
2014-11-30,189900.0
2014-10-31,198500.0
2014-09-30,199500.0
2014-08-31,199500.0
2014-07-31,200000.0
2014-06-30,199950.0
2014-05-31,199900.0
2014-04-30,199900.0
2014-03-31,187500.0
2014-02-28,179900.0
2014-01-31,176000.0
2013-12-31,179900.0
2013-11-30,180000.0
2013-10-31,199990.0
2013-09-30,201000.0
2013-08-31,196950.0
2013-07-31,195000.0
2013-06-30,194900.0
2013-05-31,189900.0
2013-04-30,189000.0
2013-03-31,181900.0
2013-02-28,183950.0
2013-01-31,179000.0
2012-12-31,183500.0
2012-11-30,196500.0
2012-10-31,183500.0
2012-09-30,189000.0
2012-08-31,189950.0
2012-07-31,184900.0
2012-06-30,186500.0
2012-05-31,189000.0
2012-04-30,186500.0
2012-03-31,184900.0
2012-02-29,185000.0
2012-01-31,194500.0
2011-12-31,195000.0
2011-11-30,197640.0
2011-10-31,199000.0
2011-09-30,199900.0
2011-08-31,199900.0
2011-07-31,199900.0
2011-06-30,199500.0
2011-05-31,187000.0
2011-04-30,183900.0
2011-03-31,199900.0
2011-02-28,199900.0
2011-01-31,199900.0
2010-12-31,206000.0
2010-11-30,214950.0
2010-10-31,211000.0
2010-09-30,224900.0
2010-08-31,225000.0
2010-07-31,218500.0
2010-06-30,215000.0
2010-05-31,215000.0
2010-04-30,215000.0
2010-03-31,219950.0
2010-02-28,229000.0
2010-01-31,230000.0
2009-12-31,224900.0
2009-11-30,224950.0
2009-10-31,229000.0
2009-09-30,234950.0
2009-08-31,229950.0
2009-07-31,229950.0
2009-06-30,229950.0
2009-05-31,239900.0
2009-04-30,249000.0
2009-03-31,249000.0
2009-02-28,249000.0
2009-01-31,250000.0
2008-12-31,249000.0
2008-11-30,249000.0
2008-10-31,249000.0
