Date,Value
2015-09-30,87000.0
2015-08-31,85000.0
2015-07-31,83100.0
2015-06-30,81700.0
2015-05-31,80900.0
2015-04-30,78600.0
2015-03-31,78000.0
2015-02-28,77400.0
2015-01-31,77400.0
2014-12-31,77400.0
2014-11-30,77400.0
2014-10-31,76000.0
2014-09-30,74900.0
2014-08-31,75200.0
2014-07-31,75900.0
2014-06-30,75300.0
2014-05-31,75200.0
2014-04-30,76000.0
2014-03-31,76500.0
2014-02-28,76300.0
2014-01-31,76400.0
2013-12-31,76700.0
2013-11-30,75500.0
2013-10-31,72800.0
2013-09-30,70800.0
2013-08-31,70100.0
2013-07-31,69500.0
2013-06-30,69400.0
2013-05-31,69200.0
2013-04-30,69100.0
2013-03-31,69500.0
2013-02-28,70800.0
2013-01-31,72700.0
2012-12-31,74500.0
2012-11-30,75500.0
2012-10-31,76900.0
2012-09-30,78200.0
2012-08-31,79200.0
2012-07-31,79600.0
2012-06-30,79600.0
2012-05-31,78900.0
2012-04-30,79200.0
2012-03-31,80300.0
2012-02-29,81000.0
2012-01-31,81100.0
2011-12-31,81400.0
2011-11-30,81600.0
2011-10-31,81400.0
2011-09-30,81000.0
2011-08-31,81200.0
2011-07-31,82100.0
2011-06-30,83600.0
2011-05-31,85300.0
2011-04-30,86600.0
2011-03-31,86500.0
2011-02-28,85600.0
2011-01-31,85400.0
2010-12-31,85600.0
2010-11-30,86100.0
2010-10-31,87000.0
2010-09-30,88200.0
2010-08-31,89500.0
2010-07-31,90400.0
2010-06-30,90700.0
2010-05-31,91600.0
2010-04-30,92600.0
2010-03-31,93300.0
2010-02-28,94000.0
2010-01-31,94700.0
2009-12-31,94700.0
2009-11-30,93800.0
2009-10-31,93100.0
2009-09-30,93300.0
2009-08-31,93600.0
2009-07-31,93400.0
2009-06-30,92700.0
2009-05-31,92200.0
2009-04-30,91600.0
2009-03-31,91100.0
2009-02-28,90500.0
2009-01-31,89800.0
2008-12-31,89900.0
2008-11-30,90500.0
2008-10-31,91100.0
2008-09-30,91500.0
2008-08-31,92200.0
2008-07-31,93100.0
2008-06-30,94700.0
2008-05-31,95700.0
2008-04-30,95400.0
2008-03-31,95000.0
2008-02-29,94600.0
2008-01-31,93400.0
2007-12-31,91700.0
2007-11-30,90500.0
2007-10-31,90100.0
2007-09-30,89400.0
2007-08-31,88400.0
2007-07-31,88000.0
2007-06-30,87900.0
2007-05-31,87200.0
2007-04-30,86200.0
2007-03-31,85600.0
2007-02-28,85100.0
2007-01-31,85400.0
2006-12-31,86500.0
2006-11-30,87800.0
2006-10-31,88000.0
2006-09-30,87200.0
2006-08-31,86300.0
2006-07-31,85600.0
2006-06-30,85100.0
2006-05-31,84300.0
2006-04-30,83000.0
2006-03-31,81700.0
2006-02-28,81500.0
2006-01-31,81200.0
2005-12-31,79900.0
2005-11-30,79200.0
2005-10-31,79400.0
2005-09-30,78600.0
2005-08-31,77000.0
2005-07-31,75000.0
2005-06-30,72200.0
2005-05-31,70300.0
2005-04-30,70300.0
2005-03-31,70300.0
2005-02-28,69300.0
2005-01-31,68500.0
2004-12-31,68800.0
2004-11-30,68600.0
2004-10-31,68000.0
2004-09-30,68300.0
2004-08-31,68300.0
2004-07-31,67500.0
2004-06-30,67200.0
2004-05-31,67100.0
2004-04-30,66400.0
2004-03-31,66400.0
2004-02-29,66700.0
2004-01-31,66000.0
2003-12-31,65100.0
2003-11-30,64800.0
2003-10-31,64100.0
2003-09-30,63000.0
2003-08-31,62200.0
2003-07-31,61800.0
2003-06-30,61100.0
2003-05-31,60900.0
2003-04-30,60700.0
2003-03-31,60400.0
2003-02-28,59900.0
2003-01-31,59500.0
2002-12-31,58400.0
2002-11-30,57200.0
2002-10-31,57000.0
2002-09-30,57700.0
2002-08-31,58500.0
2002-07-31,59200.0
2002-06-30,60100.0
2002-05-31,60700.0
2002-04-30,60600.0
2002-03-31,60400.0
2002-02-28,60400.0
2002-01-31,60600.0
2001-12-31,60600.0
2001-11-30,60300.0
2001-10-31,59500.0
2001-09-30,58400.0
2001-08-31,57600.0
2001-07-31,57100.0
2001-06-30,56600.0
2001-05-31,56100.0
2001-04-30,55600.0
2001-03-31,55100.0
2001-02-28,54400.0
2001-01-31,54100.0
2000-12-31,54400.0
2000-11-30,54800.0
2000-10-31,55500.0
2000-09-30,56200.0
2000-08-31,56700.0
2000-07-31,57100.0
2000-06-30,57500.0
2000-05-31,57100.0
2000-04-30,56600.0
2000-03-31,56800.0
2000-02-29,57400.0
2000-01-31,57300.0
1999-12-31,57000.0
1999-11-30,56900.0
1999-10-31,56700.0
1999-09-30,56300.0
1999-08-31,56000.0
1999-07-31,55900.0
1999-06-30,56400.0
1999-05-31,57400.0
1999-04-30,58400.0
1999-03-31,59000.0
1999-02-28,59600.0
1999-01-31,60000.0
1998-12-31,59500.0
1998-11-30,59000.0
1998-10-31,59100.0
1998-09-30,59400.0
1998-08-31,59800.0
1998-07-31,60100.0
1998-06-30,60100.0
1998-05-31,60400.0
1998-04-30,61000.0
1998-03-31,60700.0
1998-02-28,60200.0
1998-01-31,60600.0
1997-12-31,61100.0
1997-11-30,60900.0
1997-10-31,60900.0
1997-09-30,60800.0
1997-08-31,60300.0
1997-07-31,59400.0
1997-06-30,58700.0
1997-05-31,58300.0
1997-04-30,58000.0
1997-03-31,58200.0
1997-02-28,58300.0
1997-01-31,58300.0
1996-12-31,58400.0
1996-11-30,58600.0
1996-10-31,57800.0
1996-09-30,57600.0
1996-08-31,58100.0
1996-07-31,59000.0
1996-06-30,59800.0
1996-05-31,59800.0
1996-04-30,59200.0
