Date,Value
2015-09-30,239300.0
2015-08-31,229350.0
2015-07-31,224042.5
2015-06-30,226882.5
2015-05-31,229000.0
2015-04-30,239980.0
2015-03-31,198020.0
2015-02-28,205075.0
2015-01-31,216425.0
2014-12-31,242650.0
2014-11-30,238300.0
2014-10-31,263100.0
2014-09-30,268000.0
2014-08-31,229500.0
2014-07-31,219700.0
2014-06-30,216100.0
2014-05-31,200042.0
2014-04-30,191940.0
2014-03-31,185221.1765
2014-02-28,197587.6923
2013-12-31,206582.0
2013-11-30,200940.0
2013-10-31,210780.0
2013-09-30,197730.0
2013-08-31,196330.0
2013-07-31,187080.0
2013-06-30,187780.0
2013-05-31,192730.0
2013-04-30,201738.0
2013-03-31,205982.0
2013-02-28,207853.2
2013-01-31,200790.8
2012-12-31,214194.0
2012-11-30,228142.0
2012-10-31,227360.5
2012-09-30,214637.5
2012-08-31,203482.0
2012-07-31,182683.0
2012-06-30,175857.5
2012-05-31,155132.9412
2012-04-30,153241.5385
2012-02-29,169456.9231
2011-12-31,171673.0769
2011-11-30,135833.8462
2011-09-30,177297.6471
2011-08-31,180126.9231
2011-06-30,164410.5
2011-05-31,187280.0
2011-04-30,172938.0
2011-03-31,142576.4706
2011-02-28,159230.7692
2010-12-31,163217.0
2010-11-30,143223.0
2010-10-31,169923.0769
2010-08-31,205635.0
2010-07-31,208015.0
2010-06-30,211900.0
2010-05-31,199292.0
2010-04-30,216340.5
2010-03-31,220872.5
2010-02-28,221441.1765
2010-01-31,197769.2308
2009-11-30,213348.0
2009-10-31,218590.0
2009-09-30,216917.0
2009-08-31,207571.5
2009-07-31,218377.0
2009-06-30,235385.0
2009-05-31,248809.4118
2009-04-30,264664.6154
2009-02-28,228749.2308
2008-12-31,227676.9231
2008-10-31,232548.0
2008-09-30,242432.0
2008-08-31,259398.0
2008-07-31,259542.0
2008-06-30,255938.0
2008-05-31,256340.0
2008-04-30,254100.0
2008-03-31,254400.0
2008-02-29,256248.5
2008-01-31,262346.5
2007-12-31,255487.0
2007-11-30,248748.0
2007-10-31,246238.5
2007-09-30,264696.5
2007-08-31,281245.0
2007-07-31,288600.0
2007-06-30,293092.5
2007-05-31,272767.5
2007-04-30,262432.5
2007-03-31,264182.5
2007-02-28,255210.0
2007-01-31,249007.0
2006-12-31,246548.0
2006-11-30,255132.5
2006-10-31,259982.5
2006-09-30,258475.0
2006-08-31,256125.0
2006-07-31,249325.0
2006-06-30,241850.0
2006-05-31,224085.0
2006-04-30,220807.0
2006-03-31,220848.0
2006-02-28,224515.0
2006-01-31,218475.0
2005-12-31,215432.5
2005-11-30,210727.5
2005-10-31,216732.5
2005-09-30,216725.0
2005-08-31,216907.5
2005-07-31,214225.0
2005-06-30,201000.0
2005-05-31,198500.0
2005-04-30,189550.0
2005-03-31,183950.0
2005-02-28,185142.5
2005-01-31,189627.5
2004-12-31,192690.0
2004-11-30,188415.0
2004-10-31,185275.0
2004-09-30,182535.0
2004-08-31,179165.0
2004-07-31,177030.0
2004-06-30,174012.5
2004-05-31,177532.5
2004-04-30,176175.0
2004-03-31,174835.0
2004-02-29,177465.0
2004-01-31,177175.0
2003-12-31,162775.0
2003-11-30,158625.0
2003-10-31,166025.0
2003-09-30,169285.0
2003-08-31,172507.5
2003-07-31,175982.5
2003-06-30,170275.0
2003-05-31,171125.0
2003-04-30,171025.0
2003-03-31,163142.5
2003-02-28,161325.0
2003-01-31,165007.5
2002-12-31,158250.0
2002-11-30,158275.0
2002-10-31,162392.5
2002-09-30,169482.5
2002-08-31,170650.0
2002-07-31,170450.0
2002-06-30,168725.0
2002-05-31,161093.75
2002-04-30,155817.25
2002-03-31,148859.0
2002-02-28,150895.0
2002-01-31,158114.6
2001-12-31,156559.9
2001-11-30,157663.0
2001-10-31,157096.5
2001-09-30,154870.0
2001-08-31,150350.0
2001-07-31,151850.0
2001-06-30,147375.0
2001-05-31,147017.5
2001-04-30,147797.65
2001-03-31,153035.35
2001-02-28,149375.5
2001-01-31,151742.5
2000-12-31,151031.0
2000-11-30,143773.0
2000-10-31,147398.5
2000-09-30,146855.0
2000-08-31,144282.5
2000-07-31,143792.5
2000-06-30,144567.5
2000-05-31,145782.5
2000-04-30,143975.0
2000-03-31,138500.0
2000-02-29,137001.0
2000-01-31,136619.0
1999-12-31,143460.1
1999-11-30,142476.9
1999-10-31,139367.0
1999-09-30,132775.0
1999-08-31,131750.0
1999-07-31,133817.5
1999-06-30,137975.0
1999-05-31,136182.5
1999-04-30,136025.0
1999-03-31,131540.0
1999-02-28,131335.0
1999-01-31,129500.0
1998-12-31,130230.0
1998-11-30,126362.5
1998-10-31,126082.5
1998-09-30,126675.0
1998-08-31,125565.0
1998-07-31,123835.0
1998-06-30,124400.0
1998-05-31,128042.5
1998-04-30,131362.5
1998-03-31,128645.0
1998-02-28,126400.0
1998-01-31,122800.0
1997-12-31,121150.0
1997-11-30,116292.5
1997-10-31,115932.5
1997-09-30,117000.0
1997-08-31,123475.0
1997-07-31,121792.5
1997-06-30,116722.5
1997-05-31,116277.5
1997-04-30,117082.5
1997-03-31,114503.65
1997-02-28,107509.35
1997-01-31,104328.0
1996-12-31,107362.5
1996-11-30,108737.45
1996-10-31,107666.55
1996-09-30,107804.0
1996-08-31,113010.0
1996-07-31,114265.0
1996-06-30,115480.0
1996-05-31,113707.5
1996-04-30,114400.0
