Date,Value
2015-02-28,399999.0
2015-01-31,399900.0
2014-12-31,399500.0
2014-11-30,425000.0
2014-10-31,425000.0
2014-09-30,415000.0
2014-08-31,439000.0
2014-07-31,439000.0
2014-06-30,425000.0
2014-05-31,400000.0
2014-04-30,399900.0
2014-03-31,375000.0
2014-02-28,389900.0
2014-01-31,375000.0
2013-12-31,369000.0
2013-11-30,396000.0
2013-10-31,395000.0
2013-09-30,388500.0
2013-08-31,385000.0
2013-07-31,389900.0
2013-06-30,385000.0
2013-05-31,379000.0
2013-04-30,349900.0
2013-03-31,325000.0
2013-02-28,329000.0
2013-01-31,306900.0
2012-12-31,320000.0
2012-11-30,320000.0
2012-10-31,339900.0
2012-09-30,375000.0
2012-08-31,395000.0
2012-07-31,390000.0
2012-06-30,395000.0
2012-05-31,379977.0
2012-04-30,379000.0
2012-03-31,342000.0
2012-02-29,359900.0
2012-01-31,359900.0
2011-12-31,339950.0
2011-11-30,332500.0
2011-10-31,320000.0
2011-09-30,316900.0
2011-08-31,309900.0
2011-07-31,309900.0
2011-06-30,304900.0
2011-05-31,309000.0
2011-04-30,319000.0
2011-03-31,319900.0
2011-02-28,314900.0
2011-01-31,309900.0
2010-12-31,320000.0
2010-11-30,319900.0
2010-10-31,364900.0
2010-09-30,374900.0
2010-08-31,364900.0
2010-07-31,349900.0
2010-06-30,349900.0
2010-05-31,339900.0
2010-04-30,339000.0
2010-03-31,339000.0
2010-02-28,339000.0
2010-01-31,339000.0
2009-12-31,329000.0
2009-11-30,325000.0
2009-10-31,339000.0
2009-09-30,330000.0
2009-08-31,329900.0
2009-07-31,335000.0
2009-06-30,340000.0
2009-05-31,354900.0
2009-04-30,359900.0
2009-03-31,354900.0
2009-02-28,359900.0
2009-01-31,369900.0
2008-12-31,375900.0
2008-11-30,379999.0
2008-10-31,389900.0
