Date,Value
2015-09-30,156600.0
2015-08-31,154500.0
2015-07-31,153900.0
2015-06-30,158200.0
2015-05-31,158900.0
2015-04-30,154500.0
2015-03-31,150400.0
2015-02-28,147300.0
2015-01-31,149200.0
2014-12-31,151600.0
2014-11-30,151400.0
2014-10-31,149300.0
2014-09-30,148400.0
2014-08-31,147800.0
2014-07-31,147400.0
2014-06-30,149500.0
2014-05-31,155000.0
2014-04-30,155000.0
2014-03-31,148400.0
2014-02-28,144300.0
2014-01-31,144600.0
2013-12-31,144900.0
2013-11-30,146000.0
2013-10-31,146600.0
2013-09-30,145300.0
2013-08-31,142600.0
2013-07-31,137400.0
2013-06-30,132300.0
2013-05-31,130300.0
2013-04-30,132600.0
2013-03-31,136000.0
2013-02-28,138100.0
2013-01-31,137700.0
2012-12-31,137600.0
2012-11-30,138000.0
2012-10-31,138100.0
2012-09-30,137800.0
2012-08-31,138400.0
2012-07-31,139000.0
2012-06-30,138800.0
2012-05-31,137800.0
2012-04-30,137900.0
2012-03-31,140400.0
2012-02-29,144400.0
2012-01-31,148300.0
2011-12-31,150500.0
2011-11-30,151500.0
2011-10-31,153000.0
2011-09-30,155300.0
2011-08-31,158200.0
2011-07-31,162000.0
2011-06-30,159500.0
2011-05-31,152800.0
2011-04-30,153600.0
2011-03-31,162600.0
2011-02-28,167900.0
2011-01-31,166700.0
2010-12-31,164600.0
2010-11-30,163400.0
2010-10-31,164700.0
2010-09-30,168700.0
2010-08-31,173700.0
2010-07-31,176800.0
2010-06-30,179600.0
2010-05-31,181600.0
2010-04-30,180300.0
2010-03-31,175800.0
2010-02-28,172000.0
2010-01-31,169500.0
2009-12-31,169100.0
2009-11-30,171300.0
2009-10-31,173300.0
2009-09-30,170300.0
2009-08-31,165000.0
2009-07-31,163100.0
2009-06-30,165400.0
2009-05-31,166700.0
2009-04-30,168200.0
2009-03-31,170000.0
2009-02-28,170800.0
2009-01-31,172000.0
2008-12-31,174700.0
2008-11-30,176800.0
2008-10-31,178400.0
2008-09-30,181000.0
2008-08-31,184200.0
2008-07-31,188300.0
2008-06-30,193400.0
2008-05-31,201000.0
2008-04-30,206500.0
2008-03-31,207000.0
2008-02-29,205500.0
2008-01-31,205400.0
2007-12-31,206400.0
2007-11-30,207600.0
2007-10-31,207900.0
2007-09-30,208700.0
2007-08-31,209800.0
2007-07-31,209500.0
2007-06-30,208900.0
2007-05-31,207300.0
2007-04-30,204200.0
2007-03-31,201400.0
2007-02-28,199300.0
2007-01-31,196400.0
2006-12-31,194300.0
2006-11-30,193400.0
2006-10-31,192900.0
2006-09-30,191600.0
2006-08-31,189100.0
2006-07-31,185000.0
2006-06-30,180100.0
2006-05-31,176700.0
2006-04-30,172500.0
2006-03-31,169200.0
2006-02-28,168400.0
2006-01-31,169300.0
2005-12-31,169600.0
2005-11-30,169500.0
2005-10-31,167400.0
2005-09-30,163800.0
2005-08-31,159300.0
2005-07-31,154800.0
2005-06-30,151800.0
2005-05-31,150700.0
2005-04-30,150300.0
2005-03-31,150900.0
2005-02-28,153600.0
2005-01-31,154600.0
2004-12-31,149600.0
2004-11-30,141900.0
2004-10-31,137100.0
2004-09-30,136200.0
2004-08-31,136500.0
2004-07-31,137300.0
2004-06-30,138200.0
2004-05-31,137000.0
2004-04-30,135000.0
2004-03-31,133900.0
2004-02-29,133100.0
2004-01-31,132900.0
2003-12-31,133800.0
2003-11-30,134100.0
2003-10-31,133800.0
2003-09-30,133400.0
2003-08-31,133600.0
2003-07-31,135200.0
2003-06-30,136500.0
2003-05-31,136500.0
2003-04-30,136000.0
2003-03-31,134600.0
2003-02-28,131600.0
2003-01-31,129300.0
2002-12-31,129800.0
2002-11-30,130600.0
2002-10-31,130100.0
2002-09-30,129300.0
2002-08-31,130200.0
2002-07-31,129900.0
2002-06-30,128200.0
2002-05-31,127400.0
2002-04-30,127300.0
2002-03-31,125800.0
2002-02-28,124100.0
2002-01-31,122800.0
2001-12-31,121800.0
2001-11-30,121400.0
2001-10-31,120700.0
2001-09-30,119200.0
2001-08-31,117600.0
2001-07-31,116600.0
2001-06-30,116700.0
2001-05-31,117500.0
2001-04-30,117600.0
2001-03-31,117400.0
2001-02-28,117000.0
2001-01-31,115600.0
2000-12-31,114400.0
2000-11-30,114000.0
2000-10-31,115400.0
2000-09-30,117900.0
2000-08-31,120100.0
2000-07-31,119500.0
2000-06-30,117200.0
2000-05-31,114700.0
2000-04-30,113700.0
2000-03-31,113000.0
2000-02-29,112100.0
2000-01-31,110600.0
1999-12-31,109200.0
1999-11-30,108100.0
1999-10-31,107200.0
1999-09-30,104800.0
1999-08-31,101300.0
1999-07-31,99100.0
1999-06-30,98900.0
1999-05-31,99200.0
1999-04-30,99100.0
1999-03-31,99200.0
1999-02-28,99300.0
1999-01-31,98800.0
1998-12-31,97900.0
1998-11-30,98000.0
1998-10-31,98700.0
1998-09-30,98000.0
1998-08-31,96300.0
1998-07-31,96100.0
1998-06-30,94900.0
1998-05-31,93000.0
1998-04-30,91900.0
1998-03-31,91800.0
1998-02-28,91600.0
1998-01-31,92300.0
1997-12-31,93400.0
1997-11-30,94300.0
1997-10-31,94800.0
1997-09-30,94900.0
1997-08-31,93900.0
1997-07-31,92400.0
1997-06-30,91200.0
1997-05-31,90700.0
1997-04-30,90600.0
1997-03-31,90500.0
1997-02-28,90400.0
1997-01-31,90500.0
1996-12-31,90900.0
1996-11-30,90400.0
1996-10-31,89300.0
1996-09-30,89300.0
1996-08-31,91400.0
1996-07-31,93900.0
1996-06-30,95300.0
1996-05-31,95700.0
1996-04-30,96000.0
