Date,Value
2015-09-30,264600.0
2015-08-31,263800.0
2015-07-31,260100.0
2015-06-30,256500.0
2015-05-31,253300.0
2015-04-30,250500.0
2015-03-31,250200.0
2015-02-28,249900.0
2015-01-31,250000.0
2014-12-31,250300.0
2014-11-30,250000.0
2014-10-31,248600.0
2014-09-30,247300.0
2014-08-31,246400.0
2014-07-31,245100.0
2014-06-30,243900.0
2014-05-31,243700.0
2014-04-30,244900.0
2014-03-31,245200.0
2014-02-28,243300.0
2014-01-31,240500.0
2013-12-31,239100.0
2013-11-30,238900.0
2013-10-31,238600.0
2013-09-30,237800.0
2013-08-31,237500.0
2013-07-31,236600.0
2013-06-30,234500.0
2013-05-31,232300.0
2013-04-30,229200.0
2013-03-31,226300.0
2013-02-28,226200.0
2013-01-31,228100.0
2012-12-31,229500.0
2012-11-30,230300.0
2012-10-31,231000.0
2012-09-30,231700.0
2012-08-31,232000.0
2012-07-31,232700.0
2012-06-30,233600.0
2012-05-31,234300.0
2012-04-30,234900.0
2012-03-31,236000.0
2012-02-29,236400.0
2012-01-31,236100.0
2011-12-31,235400.0
2011-11-30,235100.0
2011-10-31,235600.0
2011-09-30,235700.0
2011-08-31,234900.0
2011-07-31,234600.0
2011-06-30,235200.0
2011-05-31,236800.0
2011-04-30,239500.0
2011-03-31,241100.0
2011-02-28,241100.0
2011-01-31,242700.0
2010-12-31,246500.0
2010-11-30,249500.0
2010-10-31,251200.0
2010-09-30,252600.0
2010-08-31,254700.0
2010-07-31,256100.0
2010-06-30,255900.0
2010-05-31,255400.0
2010-04-30,255500.0
2010-03-31,257800.0
2010-02-28,260600.0
2010-01-31,261500.0
2009-12-31,259500.0
2009-11-30,258200.0
2009-10-31,258400.0
2009-09-30,259200.0
2009-08-31,259800.0
2009-07-31,261600.0
2009-06-30,265100.0
2009-05-31,267600.0
2009-04-30,268300.0
2009-03-31,267500.0
2009-02-28,266700.0
2009-01-31,265300.0
2008-12-31,264700.0
2008-11-30,265900.0
2008-10-31,268300.0
2008-09-30,270600.0
2008-08-31,273100.0
2008-07-31,277100.0
2008-06-30,281700.0
2008-05-31,284600.0
2008-04-30,285800.0
2008-03-31,287100.0
2008-02-29,288100.0
2008-01-31,287700.0
2007-12-31,287200.0
2007-11-30,286600.0
2007-10-31,286000.0
2007-09-30,285900.0
2007-08-31,285600.0
2007-07-31,283500.0
2007-06-30,281100.0
2007-05-31,280100.0
2007-04-30,279700.0
2007-03-31,278400.0
2007-02-28,276900.0
2007-01-31,276600.0
2006-12-31,276200.0
2006-11-30,275100.0
2006-10-31,273500.0
2006-09-30,271000.0
2006-08-31,268300.0
2006-07-31,265700.0
2006-06-30,262300.0
2006-05-31,258100.0
2006-04-30,254300.0
2006-03-31,251000.0
2006-02-28,247900.0
2006-01-31,245100.0
2005-12-31,242400.0
2005-11-30,238000.0
2005-10-31,232600.0
2005-09-30,228200.0
2005-08-31,224100.0
2005-07-31,219700.0
2005-06-30,215700.0
2005-05-31,211300.0
2005-04-30,206700.0
2005-03-31,203600.0
2005-02-28,201700.0
2005-01-31,200000.0
2004-12-31,198400.0
2004-11-30,196800.0
2004-10-31,194800.0
2004-09-30,192800.0
2004-08-31,190500.0
2004-07-31,187900.0
2004-06-30,184800.0
2004-05-31,182300.0
2004-04-30,181300.0
2004-03-31,180500.0
2004-02-29,179600.0
2004-01-31,178300.0
2003-12-31,177000.0
2003-11-30,176300.0
2003-10-31,175800.0
2003-09-30,175100.0
2003-08-31,174400.0
2003-07-31,173500.0
2003-06-30,172800.0
2003-05-31,172900.0
2003-04-30,173100.0
2003-03-31,172500.0
2003-02-28,171900.0
2003-01-31,171600.0
2002-12-31,170400.0
2002-11-30,169100.0
2002-10-31,168000.0
2002-09-30,166800.0
2002-08-31,166100.0
2002-07-31,165600.0
2002-06-30,165200.0
2002-05-31,164600.0
2002-04-30,163700.0
2002-03-31,162100.0
2002-02-28,160600.0
2002-01-31,159400.0
2001-12-31,158000.0
2001-11-30,156100.0
2001-10-31,155000.0
2001-09-30,154700.0
2001-08-31,154000.0
2001-07-31,153400.0
2001-06-30,153600.0
2001-05-31,153500.0
2001-04-30,152300.0
2001-03-31,151300.0
2001-02-28,150400.0
2001-01-31,150100.0
2000-12-31,151500.0
2000-11-30,154000.0
2000-10-31,155000.0
2000-09-30,154600.0
2000-08-31,153500.0
2000-07-31,152800.0
2000-06-30,152400.0
2000-05-31,152900.0
2000-04-30,154200.0
2000-03-31,155700.0
2000-02-29,156300.0
2000-01-31,155800.0
1999-12-31,154200.0
1999-11-30,152700.0
1999-10-31,152700.0
1999-09-30,153900.0
1999-08-31,155000.0
1999-07-31,155500.0
1999-06-30,155400.0
1999-05-31,154800.0
1999-04-30,153600.0
1999-03-31,152500.0
1999-02-28,151900.0
1999-01-31,151600.0
1998-12-31,151700.0
1998-11-30,151800.0
1998-10-31,151300.0
1998-09-30,150300.0
1998-08-31,149400.0
1998-07-31,149000.0
1998-06-30,149100.0
1998-05-31,149500.0
1998-04-30,150000.0
1998-03-31,150300.0
1998-02-28,150000.0
1998-01-31,149100.0
1997-12-31,148000.0
1997-11-30,147000.0
1997-10-31,146800.0
1997-09-30,147500.0
1997-08-31,148800.0
1997-07-31,149800.0
1997-06-30,149700.0
1997-05-31,148700.0
1997-04-30,148000.0
1997-03-31,147500.0
1997-02-28,147100.0
1997-01-31,146900.0
1996-12-31,147000.0
1996-11-30,147200.0
1996-10-31,147100.0
1996-09-30,146400.0
1996-08-31,146400.0
1996-07-31,147200.0
1996-06-30,147900.0
1996-05-31,148400.0
1996-04-30,148900.0
