Date,Value
2015-02-28,194000.0
2015-01-31,219000.0
2014-12-31,209900.0
2014-11-30,199900.0
2014-10-31,239500.0
2014-09-30,239500.0
2014-08-31,239500.0
2014-07-31,225000.0
2014-06-30,225000.0
2014-05-31,225000.0
2014-04-30,204900.0
2014-03-31,245000.0
2014-02-28,234999.0
2014-01-31,234999.0
2013-12-31,234999.0
2013-11-30,169900.0
2013-10-31,175000.0
2013-09-30,175000.0
2013-08-31,155000.0
2013-07-31,175000.0
2013-06-30,174900.0
2013-05-31,179000.0
2013-04-30,169900.0
2013-03-31,157655.0
2013-02-28,169900.0
2013-01-31,139900.0
2012-12-31,137000.0
2012-11-30,189900.0
2012-10-31,89500.0
2012-09-30,169900.0
2012-08-31,157655.0
2012-07-31,150000.0
2012-06-30,199900.0
2012-05-31,199900.0
2012-04-30,199900.0
2012-03-31,199900.0
2012-02-29,149900.0
2012-01-31,149900.0
2011-12-31,199900.0
2011-11-30,165000.0
2011-10-31,219900.0
2011-09-30,189500.0
2011-08-31,149950.0
2011-07-31,149950.0
2011-06-30,144500.0
2011-05-31,199000.0
2011-04-30,199500.0
2011-03-31,199500.0
2011-02-28,179900.0
2011-01-31,249000.0
2010-12-31,199500.0
2010-11-30,239000.0
2010-10-31,249000.0
2010-09-30,225000.0
2010-08-31,249000.0
2010-07-31,249000.0
2010-06-30,249000.0
2010-05-31,249000.0
2010-04-30,249000.0
2010-03-31,260000.0
2010-02-28,270000.0
2010-01-31,270000.0
2009-12-31,270000.0
2009-11-30,270000.0
2009-10-31,270000.0
2009-09-30,270000.0
2009-08-31,289000.0
2009-07-31,270000.0
2009-06-30,234000.0
2009-05-31,205000.0
2009-04-30,224950.0
2009-03-31,249000.0
2009-02-28,224950.0
2009-01-31,224950.0
2008-12-31,224950.0
2008-11-30,275000.0
2008-10-31,275000.0
