Date,Value
2015-02-28,169900.0
2015-01-31,169900.0
2014-12-31,157232.0
2014-11-30,169000.0
2014-10-31,169900.0
2014-09-30,169999.0
2014-08-31,175000.0
2014-07-31,174000.0
2014-06-30,174500.0
2014-05-31,174500.0
2014-04-30,175000.0
2014-03-31,169000.0
2014-02-28,165000.0
2014-01-31,159900.0
2013-12-31,169000.0
2013-11-30,159900.0
2013-10-31,169000.0
2013-09-30,169000.0
2013-08-31,169000.0
2013-07-31,169999.0
2013-06-30,170000.0
2013-05-31,167100.0
2013-04-30,164900.0
2013-03-31,159000.0
2013-02-28,159000.0
2013-01-31,159000.0
2012-12-31,159900.0
2012-11-30,159000.0
2012-10-31,149900.0
2012-09-30,159900.0
2012-08-31,163500.0
2012-07-31,159000.0
2012-06-30,159900.0
2012-05-31,159800.0
2012-04-30,158400.0
2012-03-31,157500.0
2012-02-29,154900.0
2012-01-31,149000.0
2011-12-31,151500.0
2011-11-30,154000.0
2011-10-31,165000.0
2011-09-30,165000.0
2011-08-31,165000.0
2011-07-31,157000.0
2011-06-30,154500.0
2011-05-31,154900.0
2011-04-30,155000.0
2011-03-31,158000.0
2011-02-28,155000.0
2011-01-31,164900.0
2010-12-31,169900.0
2010-11-30,175000.0
2010-10-31,170000.0
2010-09-30,174800.0
2010-08-31,169900.0
2010-07-31,179000.0
2010-06-30,175000.0
2010-05-31,169900.0
2010-04-30,175000.0
2010-03-31,175000.0
2010-02-28,179000.0
2010-01-31,179000.0
2009-12-31,184900.0
2009-11-30,189900.0
2009-10-31,197900.0
2009-09-30,199000.0
2009-08-31,190000.0
2009-07-31,174900.0
2009-06-30,174900.0
2009-05-31,179900.0
2009-04-30,189000.0
2009-03-31,194000.0
2009-02-28,199900.0
2009-01-31,199900.0
2008-12-31,199900.0
2008-11-30,199000.0
2008-10-31,199000.0
