Date,Value
2015-09-30,324300.0
2015-08-31,321500.0
2015-07-31,315800.0
2015-06-30,317900.0
2015-05-31,313600.0
2015-04-30,310800.0
2015-03-31,308000.0
2015-02-28,304500.0
2015-01-31,302800.0
2014-12-31,303100.0
2014-11-30,301900.0
2014-10-31,299700.0
2014-09-30,299000.0
2014-08-31,298900.0
2014-07-31,297400.0
2014-06-30,296000.0
2014-05-31,294500.0
2014-04-30,292500.0
2014-03-31,290700.0
2014-02-28,289100.0
2014-01-31,287800.0
2013-12-31,286800.0
2013-11-30,286000.0
2013-10-31,284400.0
2013-09-30,283200.0
2013-08-31,283200.0
2013-07-31,282900.0
2013-06-30,280400.0
2013-05-31,278600.0
2013-04-30,277600.0
2013-03-31,276700.0
2013-02-28,274800.0
2013-01-31,274000.0
2012-12-31,272200.0
2012-11-30,271500.0
2012-10-31,271200.0
2012-09-30,271400.0
2012-08-31,271900.0
2012-07-31,273300.0
2012-06-30,274300.0
2012-05-31,275800.0
2012-04-30,278300.0
2012-03-31,281000.0
2012-02-29,284000.0
2012-01-31,288000.0
2011-12-31,293200.0
2011-11-30,297800.0
2011-10-31,301000.0
2011-09-30,303700.0
2011-08-31,307100.0
2011-07-31,311000.0
2011-06-30,315400.0
2011-05-31,318900.0
2011-04-30,322800.0
2011-03-31,325900.0
2011-02-28,328400.0
2011-01-31,331000.0
2010-12-31,334500.0
2010-11-30,336200.0
2010-10-31,337600.0
2010-09-30,338700.0
2010-08-31,339000.0
2010-07-31,339600.0
2010-06-30,340000.0
2010-05-31,339100.0
2010-04-30,338500.0
2010-03-31,338400.0
2010-02-28,338700.0
2010-01-31,337600.0
2009-12-31,335000.0
2009-11-30,334000.0
2009-10-31,336800.0
2009-09-30,340100.0
2009-08-31,342400.0
2009-07-31,343900.0
2009-06-30,345900.0
2009-05-31,348500.0
2009-04-30,351100.0
2009-03-31,354400.0
2009-02-28,357000.0
2009-01-31,356000.0
2008-12-31,355100.0
2008-11-30,358000.0
2008-10-31,363900.0
2008-09-30,369000.0
2008-08-31,372300.0
2008-07-31,375200.0
2008-06-30,378800.0
2008-05-31,382200.0
2008-04-30,383700.0
2008-03-31,384600.0
2008-02-29,387700.0
2008-01-31,393200.0
2007-12-31,398100.0
2007-11-30,399900.0
2007-10-31,398500.0
2007-09-30,396100.0
2007-08-31,395000.0
2007-07-31,394800.0
2007-06-30,395000.0
2007-05-31,396500.0
2007-04-30,400300.0
2007-03-31,404300.0
2007-02-28,406700.0
2007-01-31,406100.0
2006-12-31,404400.0
2006-11-30,403200.0
2006-10-31,400900.0
2006-09-30,396900.0
2006-08-31,394700.0
2006-07-31,393700.0
2006-06-30,390300.0
2006-05-31,385400.0
2006-04-30,381900.0
2006-03-31,380100.0
2006-02-28,376600.0
2006-01-31,370400.0
2005-12-31,362400.0
2005-11-30,353600.0
2005-10-31,344600.0
2005-09-30,337500.0
2005-08-31,330000.0
2005-07-31,323000.0
2005-06-30,318200.0
2005-05-31,314400.0
2005-04-30,310100.0
2005-03-31,306300.0
2005-02-28,302400.0
2005-01-31,299800.0
2004-12-31,297500.0
2004-11-30,293400.0
2004-10-31,288900.0
2004-09-30,285200.0
2004-08-31,280800.0
2004-07-31,274500.0
2004-06-30,270600.0
2004-05-31,267400.0
2004-04-30,259400.0
2004-03-31,247400.0
2004-02-29,239100.0
2004-01-31,233900.0
2003-12-31,230600.0
2003-11-30,228300.0
2003-10-31,227300.0
2003-09-30,226800.0
2003-08-31,226500.0
2003-07-31,225500.0
2003-06-30,224200.0
2003-05-31,223500.0
2003-04-30,223900.0
2003-03-31,224500.0
2003-02-28,223400.0
2003-01-31,222800.0
2002-12-31,221900.0
2002-11-30,221800.0
2002-10-31,221400.0
2002-09-30,220000.0
2002-08-31,217200.0
2002-07-31,215400.0
2002-06-30,212500.0
2002-05-31,209300.0
2002-04-30,206100.0
2002-03-31,203600.0
2002-02-28,202500.0
2002-01-31,202200.0
2001-12-31,202500.0
2001-11-30,202700.0
2001-10-31,202100.0
2001-09-30,202700.0
2001-08-31,203600.0
2001-07-31,205200.0
2001-06-30,205100.0
2001-05-31,203300.0
2001-04-30,202400.0
2001-03-31,203900.0
2001-02-28,204400.0
2001-01-31,205200.0
2000-12-31,206200.0
2000-11-30,206800.0
2000-10-31,206500.0
2000-09-30,205900.0
2000-08-31,206900.0
2000-07-31,207900.0
2000-06-30,207500.0
2000-05-31,207400.0
2000-04-30,208900.0
2000-03-31,209900.0
2000-02-29,209700.0
2000-01-31,207200.0
1999-12-31,205400.0
1999-11-30,204500.0
1999-10-31,202400.0
1999-09-30,200000.0
1999-08-31,199600.0
1999-07-31,200300.0
1999-06-30,199600.0
1999-05-31,198500.0
1999-04-30,198900.0
1999-03-31,201200.0
1999-02-28,203600.0
1999-01-31,203700.0
1998-12-31,201600.0
1998-11-30,200900.0
1998-10-31,202200.0
1998-09-30,201500.0
1998-08-31,196800.0
1998-07-31,190800.0
1998-06-30,187100.0
1998-05-31,183300.0
1998-04-30,177700.0
1998-03-31,170700.0
1998-02-28,162800.0
