Date,Value
2015-02-28,454900.0
2015-01-31,450000.0
2014-12-31,484500.0
2014-11-30,499750.0
2014-10-31,480000.0
2014-09-30,515000.0
2014-08-31,489000.0
2014-07-31,520000.0
2014-06-30,525000.0
2014-05-31,499000.0
2014-04-30,475900.0
2014-03-31,449950.0
2014-02-28,450000.0
2014-01-31,470000.0
2013-12-31,497888.0
2013-11-30,499950.0
2013-10-31,489000.0
2013-09-30,495000.0
2013-08-31,525000.0
2013-07-31,528000.0
2013-06-30,525000.0
2013-05-31,499950.0
2013-04-30,487000.0
2013-03-31,499000.0
2013-02-28,469950.0
2013-01-31,475000.0
2012-12-31,475000.0
2012-11-30,470000.0
2012-10-31,450000.0
2012-09-30,475000.0
2012-08-31,470000.0
2012-07-31,475000.0
2012-06-30,499900.0
2012-05-31,475000.0
2012-04-30,450000.0
2012-03-31,399900.0
2012-02-29,393000.0
2012-01-31,369000.0
2011-12-31,365000.0
2011-11-30,385000.0
2011-10-31,409900.0
2011-09-30,399000.0
2011-08-31,395848.0
2011-07-31,419500.0
2011-06-30,389000.0
2011-05-31,377777.0
2011-04-30,350000.0
2011-03-31,389000.0
2011-02-28,400000.0
2011-01-31,415900.0
2010-12-31,420000.0
2010-11-30,419900.0
2010-10-31,415000.0
2010-09-30,425000.0
2010-08-31,425000.0
2010-07-31,415900.0
2010-06-30,425000.0
2010-05-31,449900.0
2010-04-30,424950.0
2010-03-31,449500.0
2010-02-28,450000.0
2010-01-31,490000.0
2009-12-31,497000.0
2009-11-30,499000.0
2009-10-31,499900.0
2009-09-30,499995.0
2009-08-31,525000.0
2009-07-31,522500.0
2009-06-30,499999.0
2009-05-31,549000.0
2009-04-30,499850.0
2009-03-31,507500.0
2009-02-28,549000.0
2009-01-31,574950.0
2008-12-31,575000.0
2008-11-30,599999.0
2008-10-31,599000.0
