Date,Value
2015-09-30,0.786
2015-08-31,0.772
2015-07-31,0.776
2015-06-30,0.79
2015-05-31,0.824
2015-04-30,0.84
2015-03-31,0.838
2015-02-28,0.82
2015-01-31,0.804
2014-12-31,0.804
2014-11-30,0.8
2014-10-31,0.794
2014-09-30,0.77
2014-08-31,0.738
2014-07-31,0.712
2014-06-30,0.698
2014-05-31,0.714
2014-04-30,0.734
2014-03-31,0.736
2014-02-28,0.72
2014-01-31,0.722
2013-12-31,0.746
2013-11-30,0.788
2013-10-31,0.808
2013-09-30,0.812
2013-08-31,0.816
2013-07-31,0.832
2013-06-30,0.822
2013-05-31,0.82
2013-04-30,0.808
2013-03-31,0.816
2013-02-28,0.816
2013-01-31,0.812
2012-12-31,0.826
2012-11-30,0.836
2012-10-31,0.838
2012-09-30,0.808
2012-08-31,0.798
2012-07-31,0.79
2012-06-30,0.796
2012-05-31,0.762
2012-04-30,0.728
