Date,Value
2015-09-30,277650.0
2015-07-31,304934.5
2015-06-30,316175.0
2015-05-31,322670.0
2015-04-30,322625.0
2015-03-31,295735.2941
2015-02-28,240692.3077
2014-12-31,280707.85
2014-11-30,306151.65
2014-10-31,335484.5
2014-09-30,338117.5
2014-08-31,327432.5
2014-07-31,316750.0
2014-06-30,310575.0
2014-05-31,272699.25
2014-04-30,286748.25
2014-03-31,336467.6471
2014-02-28,295807.6923
2013-12-31,240675.0
2013-11-30,240032.5
2013-10-31,247942.5
2013-09-30,269675.0
2013-08-31,249600.0
2013-07-31,256000.0
2013-06-30,238742.5
2013-05-31,255982.5
2013-04-30,267974.85
2013-03-31,266062.15
2013-02-28,272612.0
2013-01-31,278680.0
2012-12-31,301495.0
2012-11-30,293350.0
2012-10-31,261250.0
2012-09-30,276250.0
2012-08-31,314250.0
2012-07-31,292174.2
2012-06-30,237929.1765
2012-05-31,199675.3846
2012-03-31,272500.0
2011-12-31,243794.1176
2011-11-30,311538.4615
2011-09-30,289435.0
2011-08-31,273465.0
2011-07-31,265942.5
2011-06-30,279832.5
2011-05-31,294517.5
2011-04-30,285391.1765
2011-03-31,265950.0
2010-12-31,295692.5
2010-11-30,255775.0
2010-10-31,276500.0
2010-09-30,247500.0
2010-08-31,238500.0
2010-07-31,266000.0
2010-06-30,274250.0
2010-05-31,285750.0
2010-04-30,271470.5882
2010-03-31,245000.0
2009-12-31,235800.0
2009-11-30,246350.0
2009-10-31,252035.0
2009-09-30,243765.0
2009-08-31,271000.0
2009-07-31,294950.0
2009-06-30,345500.0
2009-05-31,306400.0
2009-04-30,290092.5
2009-03-31,281744.1176
2009-02-28,289950.0
2008-09-30,292325.0
2008-08-31,307100.0
2008-07-31,326532.5
2008-06-30,312342.5
2008-05-31,303325.0
2008-04-30,314150.0
2008-03-31,312050.0
2008-02-29,282500.0
2008-01-31,286925.0
2007-12-31,317000.0
2007-11-30,341625.0
2007-10-31,336095.0
2007-09-30,335797.5
2007-08-31,356382.5
2007-07-31,354612.5
2007-06-30,339230.0
2007-05-31,294107.5
2007-04-30,289575.0
2007-03-31,302200.0
2007-02-28,310692.5
2007-01-31,339732.5
2006-12-31,323825.0
2006-11-30,295650.0
2006-10-31,317050.0
2006-09-30,334200.0
2006-08-31,322650.0
2006-07-31,292800.0
2006-06-30,294550.0
2006-05-31,294500.0
2006-04-30,306400.0
2006-03-31,304550.0
2006-02-28,287800.0
2006-01-31,282800.0
2005-12-31,294075.0
2005-11-30,290425.0
2005-10-31,291500.0
2005-09-30,282700.0
2005-08-31,301750.0
2005-07-31,294050.0
2005-06-30,290900.0
2005-05-31,280042.5
2005-04-30,271982.5
2005-03-31,240643.45
2005-02-28,221918.05
2005-01-31,218786.5
2004-12-31,237000.0
2004-11-30,234417.5
2004-10-31,244057.5
2004-09-30,231100.0
2004-08-31,232625.0
2004-07-31,238575.0
2004-06-30,248050.0
2004-05-31,234492.5
2004-04-30,235657.5
2004-03-31,225675.0
2004-02-29,195000.0
2004-01-31,184025.0
2003-12-31,190725.0
2003-11-30,200200.0
2003-10-31,220900.0
2003-09-30,232425.0
2003-08-31,234417.5
2003-07-31,236532.5
2003-06-30,233617.5
2003-05-31,225168.75
2003-04-30,236801.25
2003-03-31,226587.5
2003-02-28,232300.0
2003-01-31,204585.9
2002-12-31,218142.1
2002-11-30,208103.0
2002-10-31,203300.0
2002-09-30,220825.65
2002-08-31,222809.85
2002-07-31,223610.5
2002-06-30,229150.0
2002-05-31,217090.75
2002-04-30,218686.75
2002-03-31,212151.75
2002-02-28,221401.35
2002-01-31,213801.95
2001-12-31,205510.85
2001-11-30,206030.6
2001-10-31,216572.4
2001-09-30,237873.6
2001-08-31,236411.7
2001-07-31,228157.8
2001-06-30,210773.15
2001-05-31,214680.65
2001-04-30,215519.2
2001-03-31,226751.5
2001-02-28,240215.0
2001-01-31,230577.4
2000-12-31,226546.2
2000-11-30,215810.0
2000-10-31,203071.75
2000-09-30,211042.6
2000-08-31,222031.55
2000-07-31,221946.5
2000-06-30,216658.8
2000-05-31,218487.2
2000-04-30,223602.9
2000-03-31,230851.1
2000-02-29,228683.2
2000-01-31,232703.7
1999-12-31,219237.1
1999-11-30,204490.5
1999-10-31,189507.5
1999-09-30,194200.0
1999-08-31,198667.7
1999-07-31,203633.8
1999-06-30,193541.5
1999-05-31,202074.15
1999-04-30,198525.55
1999-03-31,200050.3
1999-02-28,197676.7
1999-01-31,185772.65
1998-12-31,178494.0
1998-11-30,181111.6
1998-10-31,184346.55
1998-09-30,178256.5
1998-08-31,177415.0
1998-07-31,177902.55
1998-06-30,170108.45
1998-05-31,172266.0
1998-04-30,174787.8
1998-03-31,167680.7
1998-02-28,167086.9
1998-01-31,161499.95
1997-12-31,161740.95
1997-11-30,158126.7
1997-10-31,170696.0
1997-09-30,169452.5
1997-08-31,163465.0
1997-07-31,150273.25
1997-06-30,155704.25
1997-05-31,158760.0
1997-04-30,158413.6
1997-03-31,159463.65
1997-02-28,157914.25
1997-01-31,165910.0
1996-12-31,158037.5
1996-11-30,137762.5
1996-10-31,144732.5
1996-09-30,142975.0
1996-08-31,136142.5
1996-07-31,136182.5
1996-06-30,135525.0
1996-05-31,132825.0
1996-04-30,128625.0
