Date,Value
2015-09-30,168800.0
2015-08-31,169500.0
2015-07-31,169800.0
2015-06-30,168900.0
2015-05-31,169100.0
2015-04-30,169700.0
2015-03-31,169400.0
2015-02-28,168700.0
2015-01-31,167100.0
2014-12-31,165500.0
2014-11-30,163700.0
2014-10-31,162600.0
2014-09-30,163100.0
2014-08-31,164300.0
2014-07-31,164200.0
2014-06-30,162700.0
2014-05-31,160500.0
2014-04-30,158000.0
2014-03-31,155300.0
2014-02-28,152700.0
2014-01-31,151200.0
2013-12-31,150000.0
2013-11-30,148800.0
2013-10-31,147300.0
2013-09-30,145700.0
2013-08-31,144000.0
2013-07-31,142500.0
2013-06-30,142100.0
2013-05-31,142400.0
2013-04-30,142900.0
2013-03-31,143000.0
2013-02-28,143800.0
2013-01-31,144300.0
2012-12-31,144500.0
2012-11-30,145100.0
2012-10-31,146300.0
2012-09-30,146900.0
2012-08-31,146600.0
2012-07-31,146300.0
2012-06-30,146600.0
2012-05-31,147100.0
2012-04-30,148100.0
2012-03-31,149400.0
2012-02-29,149500.0
2012-01-31,148800.0
2011-12-31,149100.0
2011-11-30,148800.0
2011-10-31,147600.0
2011-09-30,146900.0
2011-08-31,147900.0
2011-07-31,149100.0
2011-06-30,150100.0
2011-05-31,150700.0
2011-04-30,151700.0
2011-03-31,152700.0
2011-02-28,154600.0
2011-01-31,157500.0
2010-12-31,161000.0
2010-11-30,164200.0
2010-10-31,166800.0
2010-09-30,168700.0
2010-08-31,170500.0
2010-07-31,172400.0
2010-06-30,173200.0
2010-05-31,173800.0
2010-04-30,175100.0
2010-03-31,175900.0
2010-02-28,176400.0
2010-01-31,175900.0
2009-12-31,175400.0
2009-11-30,177100.0
2009-10-31,180000.0
2009-09-30,182800.0
2009-08-31,185200.0
2009-07-31,186600.0
2009-06-30,188100.0
2009-05-31,191300.0
2009-04-30,194300.0
2009-03-31,196500.0
2009-02-28,198100.0
2009-01-31,199800.0
2008-12-31,201900.0
2008-11-30,202700.0
2008-10-31,202100.0
2008-09-30,201900.0
2008-08-31,202300.0
2008-07-31,203300.0
2008-06-30,204600.0
2008-05-31,205600.0
2008-04-30,206300.0
2008-03-31,208300.0
2008-02-29,210000.0
2008-01-31,211000.0
2007-12-31,211300.0
2007-11-30,211500.0
2007-10-31,211600.0
2007-09-30,211500.0
2007-08-31,210400.0
2007-07-31,209400.0
2007-06-30,209900.0
2007-05-31,210200.0
2007-04-30,209400.0
2007-03-31,208300.0
2007-02-28,207800.0
2007-01-31,208300.0
2006-12-31,207300.0
2006-11-30,205300.0
2006-10-31,203800.0
2006-09-30,202300.0
2006-08-31,200100.0
2006-07-31,197500.0
2006-06-30,193800.0
2006-05-31,189800.0
2006-04-30,186300.0
2006-03-31,183600.0
2006-02-28,181400.0
2006-01-31,179400.0
2005-12-31,178200.0
2005-11-30,178900.0
2005-10-31,179600.0
2005-09-30,178500.0
2005-08-31,176400.0
2005-07-31,174900.0
2005-06-30,173100.0
2005-05-31,171400.0
2005-04-30,170600.0
2005-03-31,170200.0
2005-02-28,168000.0
2005-01-31,163800.0
2004-12-31,159200.0
2004-11-30,155400.0
2004-10-31,151500.0
2004-09-30,148600.0
2004-08-31,147800.0
2004-07-31,147800.0
2004-06-30,147500.0
2004-05-31,146600.0
2004-04-30,144700.0
2004-03-31,141500.0
2004-02-29,139400.0
2004-01-31,139600.0
2003-12-31,140500.0
2003-11-30,138500.0
2003-10-31,135700.0
2003-09-30,134000.0
2003-08-31,132400.0
2003-07-31,130300.0
2003-06-30,128900.0
2003-05-31,127700.0
2003-04-30,126600.0
2003-03-31,125800.0
2003-02-28,125800.0
2003-01-31,126200.0
2002-12-31,126000.0
2002-11-30,125800.0
2002-10-31,127000.0
2002-09-30,128100.0
2002-08-31,127900.0
2002-07-31,127200.0
2002-06-30,127200.0
2002-05-31,127700.0
2002-04-30,127900.0
2002-03-31,127800.0
2002-02-28,126400.0
2002-01-31,124000.0
2001-12-31,121900.0
2001-11-30,120900.0
2001-10-31,119800.0
2001-09-30,119000.0
2001-08-31,118500.0
2001-07-31,117800.0
2001-06-30,117400.0
2001-05-31,117600.0
2001-04-30,118000.0
2001-03-31,119400.0
2001-02-28,121200.0
2001-01-31,122200.0
2000-12-31,122200.0
2000-11-30,123500.0
2000-10-31,125300.0
2000-09-30,125100.0
2000-08-31,125100.0
2000-07-31,127300.0
2000-06-30,128100.0
2000-05-31,127200.0
2000-04-30,125800.0
2000-03-31,123200.0
2000-02-29,120800.0
2000-01-31,119200.0
1999-12-31,118300.0
1999-11-30,116600.0
1999-10-31,115600.0
1999-09-30,115800.0
1999-08-31,116400.0
1999-07-31,115600.0
1999-06-30,114300.0
1999-05-31,113200.0
1999-04-30,112100.0
1999-03-31,110900.0
1999-02-28,109200.0
1999-01-31,107400.0
1998-12-31,106500.0
1998-11-30,106100.0
1998-10-31,104600.0
1998-09-30,103100.0
1998-08-31,102600.0
1998-07-31,101600.0
1998-06-30,100500.0
1998-05-31,99600.0
1998-04-30,99200.0
1998-03-31,98800.0
1998-02-28,98500.0
1998-01-31,98100.0
1997-12-31,98300.0
1997-11-30,98200.0
1997-10-31,97200.0
1997-09-30,96400.0
1997-08-31,96800.0
1997-07-31,98200.0
1997-06-30,99000.0
1997-05-31,99500.0
1997-04-30,99400.0
1997-03-31,100200.0
1997-02-28,102200.0
1997-01-31,104600.0
1996-12-31,105500.0
1996-11-30,106700.0
1996-10-31,108600.0
1996-09-30,110100.0
1996-08-31,108400.0
1996-07-31,104900.0
1996-06-30,102800.0
1996-05-31,102300.0
1996-04-30,102600.0
