Date,Value
2015-02-28,295000.0
2015-01-31,269000.0
2014-12-31,269000.0
2014-11-30,295000.0
2014-10-31,269000.0
2014-09-30,259950.0
2014-08-31,259950.0
2014-07-31,259950.0
2014-06-30,269000.0
2014-05-31,269000.0
2014-04-30,269950.0
2014-01-31,222750.0
2012-10-31,17000.0
