Date,Value
2015-09-30,163400.0
2015-08-31,161800.0
2015-07-31,158300.0
2015-06-30,153700.0
2015-05-31,149200.0
2015-04-30,147000.0
2015-03-31,145700.0
2015-02-28,143400.0
2015-01-31,141200.0
2014-12-31,140200.0
2014-11-30,139900.0
2014-10-31,138600.0
2014-09-30,137000.0
2014-08-31,136500.0
2014-07-31,137100.0
2014-06-30,138100.0
2014-05-31,137000.0
2014-04-30,133600.0
2014-03-31,130900.0
2014-02-28,130300.0
2014-01-31,130100.0
2013-12-31,131100.0
2013-11-30,130400.0
2013-10-31,129000.0
2013-09-30,129300.0
2013-08-31,130000.0
2013-07-31,129700.0
2013-06-30,130400.0
2013-05-31,132200.0
2013-04-30,134200.0
2013-03-31,135800.0
2013-02-28,135800.0
2013-01-31,135300.0
2012-12-31,135400.0
2012-11-30,135300.0
2012-10-31,134700.0
2012-09-30,134900.0
2012-08-31,135200.0
2012-07-31,134100.0
2012-06-30,132200.0
2012-05-31,131700.0
2012-04-30,131900.0
2012-03-31,132200.0
2012-02-29,132800.0
2012-01-31,133000.0
2011-12-31,132500.0
2011-11-30,132100.0
2011-10-31,132700.0
2011-09-30,134600.0
2011-08-31,137400.0
2011-07-31,138400.0
2011-06-30,137600.0
2011-05-31,137600.0
2011-04-30,138600.0
2011-03-31,138700.0
2011-02-28,138400.0
2011-01-31,138000.0
2010-12-31,137200.0
2010-11-30,138500.0
2010-10-31,141000.0
2010-09-30,142800.0
2010-08-31,143600.0
2010-07-31,144600.0
2010-06-30,144900.0
2010-05-31,145100.0
2010-04-30,146300.0
2010-03-31,148800.0
2010-02-28,150600.0
2010-01-31,152700.0
2009-12-31,153600.0
2009-11-30,152600.0
2009-10-31,151300.0
2009-09-30,150400.0
2009-08-31,149400.0
2009-07-31,149400.0
2009-06-30,150600.0
2009-05-31,151000.0
2009-04-30,150900.0
2009-03-31,151800.0
2009-02-28,153600.0
2009-01-31,154900.0
2008-12-31,156000.0
2008-11-30,158200.0
2008-10-31,159800.0
2008-09-30,160000.0
2008-08-31,159500.0
2008-07-31,159200.0
2008-06-30,159900.0
2008-05-31,160900.0
2008-04-30,160600.0
2008-03-31,159400.0
2008-02-29,159400.0
2008-01-31,158700.0
2007-12-31,157700.0
2007-11-30,158000.0
2007-10-31,159100.0
2007-09-30,159400.0
2007-08-31,159600.0
2007-07-31,161000.0
2007-06-30,162600.0
2007-05-31,163600.0
2007-04-30,164300.0
2007-03-31,163500.0
2007-02-28,162100.0
2007-01-31,163100.0
2006-12-31,164000.0
2006-11-30,162100.0
2006-10-31,159900.0
2006-09-30,159100.0
2006-08-31,157500.0
2006-07-31,153800.0
2006-06-30,149600.0
2006-05-31,146600.0
2006-04-30,143800.0
2006-03-31,141100.0
2006-02-28,138400.0
2006-01-31,136300.0
2005-12-31,135800.0
2005-11-30,135200.0
2005-10-31,132500.0
2005-09-30,128600.0
2005-08-31,126100.0
2005-07-31,125700.0
2005-06-30,125500.0
2005-05-31,123400.0
2005-04-30,121800.0
2005-03-31,121300.0
2005-02-28,120900.0
2005-01-31,119700.0
2004-12-31,118500.0
2004-11-30,118000.0
2004-10-31,118800.0
2004-09-30,120300.0
2004-08-31,122500.0
2004-07-31,123400.0
2004-06-30,123000.0
2004-05-31,122700.0
2004-04-30,122400.0
2004-03-31,121800.0
2004-02-29,121100.0
2004-01-31,120000.0
2003-12-31,118300.0
2003-11-30,116600.0
2003-10-31,113900.0
2003-09-30,110500.0
2003-08-31,107100.0
2003-07-31,105000.0
2003-06-30,104300.0
2003-05-31,103700.0
2003-04-30,102500.0
2003-03-31,100700.0
2003-02-28,99100.0
2003-01-31,97800.0
2002-12-31,96900.0
2002-11-30,95900.0
2002-10-31,95800.0
2002-09-30,97100.0
2002-08-31,98100.0
2002-07-31,97900.0
2002-06-30,97100.0
2002-05-31,96500.0
2002-04-30,96800.0
2002-03-31,97900.0
2002-02-28,98200.0
2002-01-31,97900.0
2001-12-31,97800.0
2001-11-30,98100.0
2001-10-31,98400.0
2001-09-30,97800.0
2001-08-31,97000.0
2001-07-31,96400.0
2001-06-30,95800.0
2001-05-31,95800.0
2001-04-30,95800.0
2001-03-31,95400.0
2001-02-28,95600.0
2001-01-31,95900.0
2000-12-31,96200.0
2000-11-30,97700.0
2000-10-31,98600.0
2000-09-30,98800.0
2000-08-31,98700.0
2000-07-31,99100.0
2000-06-30,99500.0
2000-05-31,99200.0
2000-04-30,98400.0
2000-03-31,98600.0
2000-02-29,99200.0
2000-01-31,99700.0
1999-12-31,98700.0
1999-11-30,96700.0
1999-10-31,96200.0
1999-09-30,97300.0
1999-08-31,96900.0
1999-07-31,96000.0
1999-06-30,96300.0
1999-05-31,97500.0
1999-04-30,98400.0
1999-03-31,99200.0
1999-02-28,99700.0
1999-01-31,100000.0
1998-12-31,100000.0
1998-11-30,99500.0
1998-10-31,98600.0
1998-09-30,97800.0
1998-08-31,98000.0
1998-07-31,98700.0
1998-06-30,99100.0
1998-05-31,99200.0
1998-04-30,99300.0
1998-03-31,99400.0
1998-02-28,99300.0
1998-01-31,98800.0
1997-12-31,98700.0
1997-11-30,99500.0
1997-10-31,100000.0
1997-09-30,99800.0
1997-08-31,99600.0
1997-07-31,99200.0
1997-06-30,98100.0
1997-05-31,97000.0
1997-04-30,96900.0
1997-03-31,96400.0
1997-02-28,95200.0
1997-01-31,94400.0
1996-12-31,93900.0
1996-11-30,92600.0
1996-10-31,91900.0
1996-09-30,91700.0
1996-08-31,91500.0
1996-07-31,90900.0
1996-06-30,90600.0
1996-05-31,90600.0
1996-04-30,90600.0
