Date,Value
2015-09-30,382307.6923
2015-07-31,367730.4
2015-06-30,292202.3529
2015-05-31,324000.0
2014-09-30,235000.0
2013-07-31,212164.7059
2013-06-30,202000.0
2006-11-30,407307.6923
2006-09-30,515000.0
2005-08-31,409000.0
2005-04-30,445000.0
2004-11-30,320000.0
2004-07-31,335769.2308
2004-05-31,325000.0
2003-11-30,214075.0
2003-10-31,184323.5294
2003-09-30,190500.0
2003-05-31,185252.9412
2003-04-30,179900.0
2001-08-31,166000.0
2000-09-30,211600.0
