Date,Value
2015-09-30,1.338
2015-08-31,1.334
2015-07-31,1.326
2015-06-30,1.32
2015-05-31,1.314
2015-04-30,1.304
2015-03-31,1.292
2015-02-28,1.278
2015-01-31,1.272
2014-12-31,1.268
2014-11-30,1.266
2014-10-31,1.264
2014-09-30,1.262
2014-08-31,1.254
2014-07-31,1.24
2014-06-30,1.226
2014-05-31,1.214
2014-04-30,1.2
2014-03-31,1.196
2014-02-28,1.196
2014-01-31,1.196
2013-12-31,1.196
2013-11-30,1.192
2013-10-31,1.184
2013-09-30,1.176
2013-08-31,1.168
2013-07-31,1.164
2013-06-30,1.164
2013-05-31,1.164
2013-04-30,1.162
2013-03-31,1.156
2013-02-28,1.148
2013-01-31,1.138
2012-12-31,1.128
2012-11-30,1.118
2012-10-31,1.108
2012-09-30,1.102
2012-08-31,1.098
2012-07-31,1.094
2012-06-30,1.088
2012-05-31,1.078
2012-04-30,1.07
2012-03-31,1.068
2012-02-29,1.07
2012-01-31,1.068
2011-12-31,1.062
2011-11-30,1.054
2011-10-31,1.042
2011-09-30,1.038
2011-08-31,1.038
2011-07-31,1.038
2011-06-30,1.036
2011-05-31,1.034
2011-04-30,1.03
2011-03-31,1.024
2011-02-28,1.016
2011-01-31,1.006
2010-12-31,0.998
2010-11-30,0.996
