Date,Value
2015-09-30,323800.0
2015-08-31,320700.0
2015-07-31,319000.0
2015-06-30,318100.0
2015-05-31,317200.0
2015-04-30,315100.0
2015-03-31,313900.0
2015-02-28,311400.0
2015-01-31,309000.0
2014-12-31,308100.0
2014-11-30,306900.0
2014-10-31,306300.0
2014-09-30,307600.0
2014-08-31,308200.0
2014-07-31,307700.0
2014-06-30,307800.0
2014-05-31,307800.0
2014-04-30,308200.0
2014-03-31,308900.0
2014-02-28,309100.0
2014-01-31,307000.0
2013-12-31,303400.0
2013-11-30,300500.0
2013-10-31,298400.0
2013-09-30,295300.0
2013-08-31,291600.0
2013-07-31,288100.0
2013-06-30,284200.0
2013-05-31,280300.0
2013-04-30,275600.0
2013-03-31,270500.0
2013-02-28,266400.0
2013-01-31,264200.0
2012-12-31,263000.0
2012-11-30,261900.0
2012-10-31,261100.0
2012-09-30,261100.0
2012-08-31,261100.0
2012-07-31,261000.0
2012-06-30,261800.0
2012-05-31,262000.0
2012-04-30,261200.0
2012-03-31,261000.0
2012-02-29,261800.0
2012-01-31,262200.0
2011-12-31,262400.0
2011-11-30,263000.0
2011-10-31,262300.0
2011-09-30,260000.0
2011-08-31,259000.0
2011-07-31,259800.0
2011-06-30,262500.0
2011-05-31,267000.0
2011-04-30,270500.0
2011-03-31,270700.0
2011-02-28,271000.0
2011-01-31,272400.0
2010-12-31,274500.0
2010-11-30,277500.0
2010-10-31,281700.0
2010-09-30,285700.0
2010-08-31,289100.0
2010-07-31,291300.0
2010-06-30,293100.0
2010-05-31,294700.0
2010-04-30,297800.0
2010-03-31,301700.0
2010-02-28,304500.0
2010-01-31,306100.0
2009-12-31,307000.0
2009-11-30,306700.0
2009-10-31,305800.0
2009-09-30,305500.0
2009-08-31,306700.0
2009-07-31,309600.0
2009-06-30,311700.0
2009-05-31,312300.0
2009-04-30,313500.0
2009-03-31,315800.0
2009-02-28,318500.0
2009-01-31,321100.0
2008-12-31,323500.0
2008-11-30,326200.0
2008-10-31,329800.0
2008-09-30,334700.0
2008-08-31,339300.0
2008-07-31,343600.0
2008-06-30,347600.0
2008-05-31,351000.0
2008-04-30,353900.0
2008-03-31,357500.0
2008-02-29,360600.0
2008-01-31,362900.0
2007-12-31,364600.0
2007-11-30,366100.0
2007-10-31,366900.0
2007-09-30,367100.0
2007-08-31,367900.0
2007-07-31,369200.0
2007-06-30,370200.0
2007-05-31,370300.0
2007-04-30,370200.0
2007-03-31,371400.0
2007-02-28,372100.0
2007-01-31,371800.0
2006-12-31,372200.0
2006-11-30,372200.0
2006-10-31,370800.0
2006-09-30,369500.0
2006-08-31,367500.0
2006-07-31,363900.0
2006-06-30,359100.0
2006-05-31,354600.0
2006-04-30,350500.0
2006-03-31,346100.0
2006-02-28,341900.0
2006-01-31,338500.0
2005-12-31,335000.0
2005-11-30,331200.0
2005-10-31,328000.0
2005-09-30,324900.0
2005-08-31,320600.0
2005-07-31,314300.0
2005-06-30,307700.0
2005-05-31,301700.0
2005-04-30,294800.0
2005-03-31,288200.0
2005-02-28,284800.0
2005-01-31,283500.0
2004-12-31,281800.0
2004-11-30,279700.0
2004-10-31,277300.0
2004-09-30,274400.0
2004-08-31,270800.0
2004-07-31,267100.0
2004-06-30,263600.0
2004-05-31,260600.0
2004-04-30,258200.0
2004-03-31,256200.0
2004-02-29,254300.0
2004-01-31,252000.0
2003-12-31,250100.0
2003-11-30,248900.0
2003-10-31,247200.0
2003-09-30,244400.0
2003-08-31,241800.0
2003-07-31,240100.0
2003-06-30,239200.0
2003-05-31,238900.0
2003-04-30,238700.0
2003-03-31,237200.0
2003-02-28,235100.0
2003-01-31,233300.0
2002-12-31,231500.0
2002-11-30,229400.0
2002-10-31,227700.0
2002-09-30,226900.0
2002-08-31,227600.0
2002-07-31,229100.0
2002-06-30,230900.0
2002-05-31,232400.0
2002-04-30,234000.0
2002-03-31,235300.0
2002-02-28,235900.0
2002-01-31,235800.0
2001-12-31,235500.0
2001-11-30,234700.0
2001-10-31,234800.0
2001-09-30,235800.0
2001-08-31,236600.0
2001-07-31,236500.0
2001-06-30,235900.0
2001-05-31,234900.0
2001-04-30,234600.0
2001-03-31,234500.0
2001-02-28,233200.0
2001-01-31,231200.0
2000-12-31,229900.0
2000-11-30,229400.0
2000-10-31,229900.0
2000-09-30,230300.0
2000-08-31,229300.0
2000-07-31,227900.0
2000-06-30,226800.0
2000-05-31,225700.0
2000-04-30,224000.0
2000-03-31,222200.0
2000-02-29,220700.0
2000-01-31,219300.0
1999-12-31,217300.0
1999-11-30,215200.0
1999-10-31,212200.0
1999-09-30,208700.0
1999-08-31,206400.0
1999-07-31,205200.0
1999-06-30,203800.0
1999-05-31,202200.0
1999-04-30,201100.0
1999-03-31,200100.0
1999-02-28,198700.0
1999-01-31,196800.0
1998-12-31,195300.0
1998-11-30,194400.0
1998-10-31,193300.0
1998-09-30,191900.0
1998-08-31,190600.0
1998-07-31,189900.0
1998-06-30,189500.0
1998-05-31,188700.0
1998-04-30,187500.0
1998-03-31,186600.0
1998-02-28,186000.0
1998-01-31,185200.0
1997-12-31,183900.0
1997-11-30,182200.0
1997-10-31,180100.0
1997-09-30,178000.0
1997-08-31,175700.0
1997-07-31,173600.0
1997-06-30,172100.0
1997-05-31,170700.0
1997-04-30,168200.0
1997-03-31,165600.0
1997-02-28,163800.0
1997-01-31,162400.0
1996-12-31,161000.0
1996-11-30,159700.0
1996-10-31,158500.0
1996-09-30,157700.0
1996-08-31,157400.0
1996-07-31,156700.0
1996-06-30,156000.0
1996-05-31,155700.0
1996-04-30,156100.0
