Date,Value
2015-09-30,1.878
2015-08-31,1.814
2015-07-31,1.732
2015-06-30,1.738
2015-05-31,1.74
2015-04-30,1.734
2015-03-31,1.716
2015-02-28,1.692
2015-01-31,1.668
2014-12-31,1.648
2014-11-30,1.634
2014-10-31,1.626
2014-09-30,1.612
2014-08-31,1.606
2014-07-31,1.588
2014-06-30,1.564
2014-05-31,1.538
2014-04-30,1.514
2014-03-31,1.514
2014-02-28,1.516
2014-01-31,1.526
2013-12-31,1.522
2013-11-30,1.514
2013-10-31,1.52
2013-09-30,1.53
2013-08-31,1.526
2013-07-31,1.514
2013-06-30,1.508
2013-05-31,1.516
2013-04-30,1.51
2013-03-31,1.498
2013-02-28,1.478
2013-01-31,1.46
2012-12-31,1.452
2012-11-30,1.45
2012-10-31,1.462
2012-09-30,1.468
2012-08-31,1.474
2012-07-31,1.468
2012-06-30,1.462
2012-05-31,1.444
2012-04-30,1.422
2012-03-31,1.402
2012-02-29,1.398
2012-01-31,1.39
2011-12-31,1.382
2011-11-30,1.366
2011-10-31,1.334
2011-09-30,1.296
2011-08-31,1.27
2011-07-31,1.27
2011-06-30,1.28
2011-05-31,1.284
2011-04-30,1.286
2011-03-31,1.29
2011-02-28,1.292
2011-01-31,1.29
2010-12-31,1.286
2010-11-30,1.282
