Date,Value
2015-07-31,331000.0
2015-06-30,345882.3529
2015-05-31,358320.0
2014-10-31,305769.2308
2014-08-31,308811.6471
2014-07-31,357114.0
2014-04-30,442434.0
2014-03-31,477984.0
2013-05-31,370998.4615
2013-03-31,407660.0
2012-10-31,367728.4615
2012-08-31,394521.7
2012-07-31,434267.3
2012-06-30,435516.4706
2012-05-31,367000.0
2011-11-30,366000.0
2011-06-30,381210.1538
2011-04-30,357114.0
2010-10-31,335000.0
2010-03-31,390000.0
2009-11-30,312058.8235
2009-10-31,408076.9231
2009-08-31,334615.3846
2008-03-31,131660.0
2007-11-30,595000.0
2007-06-30,413750.0
2007-05-31,396470.5882
2007-04-30,370000.0
2006-10-31,545512.5
2006-08-31,444615.3846
2006-06-30,526408.9
2006-05-31,471940.3
2006-04-30,434677.5294
2006-03-31,376241.5385
2006-01-31,454850.0
2005-12-31,452200.0
2005-11-30,402437.5
2005-10-31,440245.75
2005-09-30,427373.8
2005-08-31,416471.45
2005-07-31,418823.5
2005-06-30,400470.5882
2005-05-31,446054.6154
2005-03-31,357394.1176
2005-02-28,352692.3077
2004-12-31,367650.0
2004-11-30,352750.0
2004-09-30,301000.0
2004-08-31,291200.0
2004-07-31,299675.0
2004-06-30,289225.0
2004-05-31,277075.0
2004-04-30,268676.4706
2004-03-31,242500.0
