Date,Value
2015-09-30,371500.0
2015-08-31,367100.0
2015-07-31,362900.0
2015-06-30,365500.0
2015-05-31,363900.0
2015-04-30,362400.0
2015-03-31,362100.0
2015-02-28,360700.0
2015-01-31,358100.0
2014-12-31,355700.0
2014-11-30,353600.0
2014-10-31,351800.0
2014-09-30,351100.0
2014-08-31,351100.0
2014-07-31,350400.0
2014-06-30,348500.0
2014-05-31,346100.0
2014-04-30,342700.0
2014-03-31,338600.0
2014-02-28,335400.0
2014-01-31,335100.0
2013-12-31,335200.0
2013-11-30,334900.0
2013-10-31,335200.0
2013-09-30,334800.0
2013-08-31,330800.0
2013-07-31,325300.0
2013-06-30,319800.0
2013-05-31,315900.0
2013-04-30,314000.0
2013-03-31,314100.0
2013-02-28,314100.0
2013-01-31,312800.0
2012-12-31,309300.0
2012-11-30,305500.0
2012-10-31,301400.0
2012-09-30,297000.0
2012-08-31,292700.0
2012-07-31,289000.0
2012-06-30,285500.0
2012-05-31,281800.0
2012-04-30,278200.0
2012-03-31,274200.0
2012-02-29,270200.0
2012-01-31,267600.0
2011-12-31,267500.0
2011-11-30,269300.0
2011-10-31,272000.0
2011-09-30,274700.0
2011-08-31,277300.0
2011-07-31,280200.0
2011-06-30,283200.0
2011-05-31,285600.0
2011-04-30,287600.0
2011-03-31,289800.0
2011-02-28,292400.0
2011-01-31,295200.0
2010-12-31,298300.0
2010-11-30,301600.0
2010-10-31,304200.0
2010-09-30,306000.0
2010-08-31,308600.0
2010-07-31,312400.0
2010-06-30,316700.0
2010-05-31,321000.0
2010-04-30,324400.0
2010-03-31,327500.0
2010-02-28,332000.0
2010-01-31,336700.0
2009-12-31,339100.0
2009-11-30,339200.0
2009-10-31,339100.0
2009-09-30,340200.0
2009-08-31,342800.0
2009-07-31,346100.0
2009-06-30,349900.0
2009-05-31,354100.0
2009-04-30,357600.0
2009-03-31,359700.0
2009-02-28,360400.0
2009-01-31,359600.0
2008-12-31,359300.0
2008-11-30,360800.0
2008-10-31,364200.0
2008-09-30,368300.0
2008-08-31,372200.0
2008-07-31,375500.0
2008-06-30,378800.0
2008-05-31,381400.0
2008-04-30,384300.0
2008-03-31,388200.0
2008-02-29,392000.0
2008-01-31,395500.0
2007-12-31,399300.0
2007-11-30,402500.0
2007-10-31,404300.0
2007-09-30,405300.0
2007-08-31,406000.0
2007-07-31,406100.0
2007-06-30,405000.0
2007-05-31,403800.0
2007-04-30,403600.0
2007-03-31,403100.0
2007-02-28,401000.0
2007-01-31,400100.0
2006-12-31,399900.0
2006-11-30,398600.0
2006-10-31,395900.0
2006-09-30,393400.0
2006-08-31,389200.0
2006-07-31,383200.0
2006-06-30,377300.0
2006-05-31,372000.0
2006-04-30,367200.0
2006-03-31,362300.0
2006-02-28,357500.0
2006-01-31,351800.0
2005-12-31,347000.0
2005-11-30,343000.0
2005-10-31,339500.0
2005-09-30,335000.0
2005-08-31,330600.0
2005-07-31,326500.0
2005-06-30,322400.0
2005-05-31,317600.0
2005-04-30,312000.0
2005-03-31,307100.0
2005-02-28,303100.0
2005-01-31,299500.0
2004-12-31,294800.0
2004-11-30,289900.0
2004-10-31,285800.0
2004-09-30,282300.0
2004-08-31,278900.0
2004-07-31,276400.0
2004-06-30,274900.0
2004-05-31,273900.0
2004-04-30,272500.0
2004-03-31,271000.0
2004-02-29,270000.0
2004-01-31,268700.0
2003-12-31,267500.0
2003-11-30,266800.0
2003-10-31,265300.0
2003-09-30,264100.0
2003-08-31,264000.0
2003-07-31,263300.0
2003-06-30,261200.0
2003-05-31,259300.0
2003-04-30,258200.0
2003-03-31,257000.0
2003-02-28,255200.0
2003-01-31,253300.0
2002-12-31,251700.0
2002-11-30,250000.0
2002-10-31,248600.0
2002-09-30,247000.0
2002-08-31,245300.0
2002-07-31,244500.0
2002-06-30,244700.0
2002-05-31,245200.0
2002-04-30,245800.0
2002-03-31,246800.0
2002-02-28,247900.0
2002-01-31,248900.0
2001-12-31,249100.0
2001-11-30,248100.0
2001-10-31,246300.0
2001-09-30,244600.0
2001-08-31,242900.0
2001-07-31,241000.0
2001-06-30,239000.0
2001-05-31,237400.0
2001-04-30,235200.0
2001-03-31,233800.0
2001-02-28,233500.0
2001-01-31,233700.0
2000-12-31,233300.0
2000-11-30,233300.0
2000-10-31,233200.0
2000-09-30,232900.0
2000-08-31,232300.0
2000-07-31,232300.0
2000-06-30,232200.0
2000-05-31,231800.0
2000-04-30,231200.0
2000-03-31,229700.0
2000-02-29,227400.0
2000-01-31,225100.0
1999-12-31,223700.0
1999-11-30,222600.0
1999-10-31,221600.0
1999-09-30,220300.0
1999-08-31,218500.0
1999-07-31,216100.0
1999-06-30,214100.0
1999-05-31,213200.0
1999-04-30,212100.0
1999-03-31,210100.0
1999-02-28,207500.0
1999-01-31,205100.0
1998-12-31,203000.0
1998-11-30,201800.0
1998-10-31,201100.0
1998-09-30,200700.0
1998-08-31,200600.0
1998-07-31,200700.0
1998-06-30,199800.0
1998-05-31,198000.0
1998-04-30,196600.0
1998-03-31,195800.0
1998-02-28,193600.0
1998-01-31,190700.0
1997-12-31,188300.0
1997-11-30,187000.0
1997-10-31,185900.0
1997-09-30,184900.0
1997-08-31,184200.0
1997-07-31,183500.0
1997-06-30,182700.0
1997-05-31,181700.0
1997-04-30,180800.0
1997-03-31,180000.0
1997-02-28,179300.0
1997-01-31,178200.0
1996-12-31,176900.0
1996-11-30,175800.0
1996-10-31,175200.0
1996-09-30,175200.0
1996-08-31,175100.0
1996-07-31,174800.0
1996-06-30,173800.0
1996-05-31,172300.0
1996-04-30,170800.0
