Date,Value
2015-06-30,1500.0
2015-05-31,1390.0
2015-04-30,1450.0
2015-03-31,1450.0
2015-02-28,1595.0
2015-01-31,1550.0
2014-12-31,1500.0
2014-11-30,1435.0
2014-10-31,1525.0
2014-09-30,1850.0
2014-08-31,1880.0
2014-07-31,1680.0
2014-06-30,1525.0
2014-05-31,1500.0
2014-04-30,1600.0
2014-03-31,1500.0
2014-02-28,1550.0
2014-01-31,1650.0
2013-12-31,1600.0
2013-11-30,1675.0
2013-10-31,1550.0
2013-09-30,1650.0
2013-08-31,1500.0
2013-07-31,1395.0
2013-06-30,1365.0
2013-05-31,1250.0
2013-04-30,1295.0
2013-03-31,1365.0
2013-02-28,1250.0
2013-01-31,875.0
2012-12-31,1295.0
2012-11-30,1400.0
2012-10-31,1350.0
2012-09-30,1395.0
2012-08-31,1425.0
2012-07-31,1350.0
2012-06-30,1300.0
2012-05-31,1300.0
2012-04-30,1225.0
2012-03-31,1200.0
2012-02-29,1050.0
2012-01-31,1100.0
2011-12-31,1295.0
2011-11-30,1195.0
2011-10-31,1390.0
2011-09-30,1395.0
2011-08-31,1200.0
2011-07-31,1395.0
2011-06-30,1550.0
2011-05-31,1395.0
2011-04-30,1395.0
2011-03-31,1150.0
2011-02-28,1295.0
2011-01-31,1295.0
2010-12-31,1050.0
