Date,Value
2015-09-30,140400.0
2015-08-31,145800.0
2015-07-31,145200.0
2015-06-30,138900.0
2015-05-31,136800.0
2015-04-30,133700.0
2015-03-31,134700.0
2015-02-28,135900.0
2015-01-31,137000.0
2014-12-31,137800.0
2014-11-30,138300.0
2014-10-31,138800.0
2014-09-30,139300.0
2014-08-31,139800.0
2014-07-31,140500.0
2014-06-30,140600.0
2014-05-31,139600.0
2014-04-30,137800.0
2014-03-31,136200.0
2014-02-28,135600.0
2014-01-31,135200.0
2013-12-31,134800.0
2013-11-30,134500.0
2013-10-31,134500.0
2013-09-30,134300.0
2013-08-31,134100.0
2013-07-31,133900.0
2013-06-30,133700.0
2013-05-31,133600.0
2013-04-30,134400.0
2013-03-31,135700.0
2013-02-28,136700.0
2013-01-31,137200.0
2012-12-31,138000.0
2012-11-30,138800.0
2012-10-31,139300.0
2012-09-30,139700.0
2012-08-31,140400.0
2012-07-31,141100.0
2012-06-30,141800.0
2012-05-31,141900.0
2012-04-30,141700.0
2012-03-31,141600.0
2012-02-29,141600.0
2012-01-31,141400.0
2011-12-31,141100.0
2011-11-30,140600.0
2011-10-31,140600.0
2011-09-30,140900.0
2011-08-31,141400.0
2011-07-31,142000.0
2011-06-30,142800.0
2011-05-31,145700.0
2011-04-30,150000.0
2011-03-31,153200.0
2011-02-28,153700.0
2011-01-31,154300.0
2010-12-31,155700.0
2010-11-30,157700.0
2010-10-31,158400.0
2010-09-30,158700.0
2010-08-31,159000.0
2010-07-31,159500.0
2010-06-30,159800.0
2010-05-31,160500.0
2010-04-30,161000.0
2010-03-31,160800.0
2010-02-28,161000.0
2010-01-31,161800.0
2009-12-31,162300.0
2009-11-30,162700.0
2009-10-31,163200.0
2009-09-30,163500.0
2009-08-31,164300.0
2009-07-31,165100.0
2009-06-30,165600.0
2009-05-31,166300.0
2009-04-30,166600.0
2009-03-31,166200.0
2009-02-28,165400.0
2009-01-31,165700.0
2008-12-31,166800.0
2008-11-30,167800.0
2008-10-31,168900.0
2008-09-30,170900.0
2008-08-31,172800.0
2008-07-31,174900.0
2008-06-30,177600.0
2008-05-31,179900.0
2008-04-30,181800.0
2008-03-31,184800.0
2008-02-29,187800.0
2008-01-31,188800.0
2007-12-31,188300.0
2007-11-30,187700.0
2007-10-31,187600.0
2007-09-30,187500.0
2007-08-31,187100.0
2007-07-31,186500.0
2007-06-30,186100.0
2007-05-31,185600.0
2007-04-30,184900.0
2007-03-31,183800.0
2007-02-28,183000.0
2007-01-31,182200.0
2006-12-31,182500.0
2006-11-30,183400.0
2006-10-31,183900.0
2006-09-30,183600.0
2006-08-31,183500.0
2006-07-31,184100.0
2006-06-30,184200.0
2006-05-31,182400.0
2006-04-30,180100.0
2006-03-31,179400.0
2006-02-28,179800.0
2006-01-31,179900.0
2005-12-31,179400.0
2005-11-30,177800.0
2005-10-31,175200.0
2005-09-30,172000.0
2005-08-31,168300.0
2005-07-31,163300.0
2005-06-30,157000.0
2005-05-31,150200.0
2005-04-30,143800.0
2005-03-31,137600.0
2005-02-28,132600.0
2005-01-31,128400.0
2004-12-31,124300.0
2004-11-30,120600.0
2004-10-31,118200.0
2004-09-30,116100.0
2004-08-31,113900.0
2004-07-31,112100.0
2004-06-30,111100.0
2004-05-31,111900.0
2004-04-30,112800.0
2004-03-31,113300.0
2004-02-29,113800.0
2004-01-31,114500.0
2003-12-31,114100.0
2003-11-30,113100.0
2003-10-31,112800.0
2003-09-30,113500.0
2003-08-31,112800.0
2003-07-31,110500.0
2003-06-30,109400.0
2003-05-31,109100.0
2003-04-30,108900.0
2003-03-31,108800.0
2003-02-28,107400.0
2003-01-31,104800.0
2002-12-31,103900.0
2002-11-30,103500.0
2002-10-31,102500.0
2002-09-30,101300.0
2002-08-31,101100.0
2002-07-31,101800.0
2002-06-30,102400.0
2002-05-31,102900.0
2002-04-30,103900.0
2002-03-31,103700.0
2002-02-28,102700.0
2002-01-31,103200.0
2001-12-31,102800.0
2001-11-30,101600.0
2001-10-31,100500.0
2001-09-30,100300.0
2001-08-31,100800.0
2001-07-31,102100.0
2001-06-30,102700.0
2001-05-31,102200.0
2001-04-30,100900.0
2001-03-31,100300.0
2001-02-28,100100.0
2001-01-31,99400.0
2000-12-31,99000.0
2000-11-30,99400.0
2000-10-31,99300.0
2000-09-30,98900.0
2000-08-31,98300.0
2000-07-31,97500.0
2000-06-30,97300.0
2000-05-31,97000.0
2000-04-30,96100.0
2000-03-31,95600.0
2000-02-29,96200.0
2000-01-31,97100.0
1999-12-31,97800.0
1999-11-30,97600.0
1999-10-31,97700.0
1999-09-30,97700.0
1999-08-31,97600.0
1999-07-31,97100.0
1999-06-30,96800.0
1999-05-31,97400.0
1999-04-30,98900.0
1999-03-31,99800.0
1999-02-28,99700.0
1999-01-31,99500.0
1998-12-31,100300.0
1998-11-30,102600.0
1998-10-31,104600.0
1998-09-30,105400.0
1998-08-31,105600.0
1998-07-31,106400.0
1998-06-30,107000.0
1998-05-31,106300.0
1998-04-30,105500.0
1998-03-31,105600.0
1998-02-28,105700.0
1998-01-31,104100.0
1997-12-31,101800.0
1997-11-30,100200.0
1997-10-31,98800.0
1997-09-30,97400.0
1997-08-31,97000.0
1997-07-31,96300.0
1997-06-30,94400.0
1997-05-31,93000.0
1997-04-30,92800.0
1997-03-31,92500.0
1997-02-28,92400.0
1997-01-31,93600.0
1996-12-31,95200.0
1996-11-30,96100.0
1996-10-31,96400.0
1996-09-30,96600.0
1996-08-31,96800.0
1996-07-31,97400.0
1996-06-30,98000.0
1996-05-31,98400.0
1996-04-30,97800.0
