Date,Value
2015-09-30,0.736
2015-08-31,0.67
2015-07-31,0.658
2015-06-30,0.658
2015-05-31,0.668
2015-04-30,0.672
2015-03-31,0.672
2015-02-28,0.672
2015-01-31,0.678
2014-12-31,0.678
2014-11-30,0.672
2014-10-31,0.658
2014-09-30,0.65
2014-08-31,0.644
2014-07-31,0.638
2014-06-30,0.634
2014-05-31,0.626
2014-04-30,0.636
2014-03-31,0.652
2014-02-28,0.672
2014-01-31,0.684
2013-12-31,0.686
2013-11-30,0.688
2013-10-31,0.692
2013-09-30,0.702
2013-08-31,0.688
2013-07-31,0.664
2013-06-30,0.64
2013-05-31,0.644
2013-04-30,0.652
2013-03-31,0.654
2013-02-28,0.656
2013-01-31,0.658
2012-12-31,0.666
2012-11-30,0.664
2012-10-31,0.66
2012-09-30,0.656
2012-08-31,0.68
2012-07-31,0.712
2012-06-30,0.742
2012-05-31,0.754
2012-04-30,0.758
2012-03-31,0.76
2012-02-29,0.76
2012-01-31,0.762
2011-12-31,0.766
2011-11-30,0.776
2011-10-31,0.784
2011-09-30,0.794
2011-08-31,0.798
2011-07-31,0.8
2011-06-30,0.8
2011-05-31,0.798
2011-04-30,0.788
2011-03-31,0.772
2011-02-28,0.754
2011-01-31,0.74
2010-12-31,0.734
2010-11-30,0.734
