Date,Value
2015-09-30,175200.0
2015-08-31,173300.0
2015-07-31,171400.0
2015-06-30,169900.0
2015-05-31,168300.0
2015-04-30,166000.0
2015-03-31,165500.0
2015-02-28,164700.0
2015-01-31,163600.0
2014-12-31,162700.0
2014-11-30,161900.0
2014-10-31,160700.0
2014-09-30,160000.0
2014-08-31,160100.0
2014-07-31,160700.0
2014-06-30,160800.0
2014-05-31,160600.0
2014-04-30,160100.0
2014-03-31,159300.0
2014-02-28,158200.0
2014-01-31,156700.0
2013-12-31,154500.0
2013-11-30,152300.0
2013-10-31,150700.0
2013-09-30,148900.0
2013-08-31,146900.0
2013-07-31,144300.0
2013-06-30,141500.0
2013-05-31,139300.0
2013-04-30,137300.0
2013-03-31,135400.0
2013-02-28,133900.0
2013-01-31,133300.0
2012-12-31,132800.0
2012-11-30,132600.0
2012-10-31,132500.0
2012-09-30,132900.0
2012-08-31,133200.0
2012-07-31,133500.0
2012-06-30,133700.0
2012-05-31,133700.0
2012-04-30,133500.0
2012-03-31,133600.0
2012-02-29,134100.0
2012-01-31,134800.0
2011-12-31,136100.0
2011-11-30,137500.0
2011-10-31,138200.0
2011-09-30,138600.0
2011-08-31,139400.0
2011-07-31,140500.0
2011-06-30,142100.0
2011-05-31,144400.0
2011-04-30,146800.0
2011-03-31,148200.0
2011-02-28,149000.0
2011-01-31,149800.0
2010-12-31,150500.0
2010-11-30,151700.0
2010-10-31,154100.0
2010-09-30,156900.0
2010-08-31,159600.0
2010-07-31,162000.0
2010-06-30,163700.0
2010-05-31,164800.0
2010-04-30,166200.0
2010-03-31,168300.0
2010-02-28,170500.0
2010-01-31,171700.0
2009-12-31,172400.0
2009-11-30,173200.0
2009-10-31,173800.0
2009-09-30,174700.0
2009-08-31,175800.0
2009-07-31,177300.0
2009-06-30,179800.0
2009-05-31,182300.0
2009-04-30,184100.0
2009-03-31,186200.0
2009-02-28,188400.0
2009-01-31,190900.0
2008-12-31,193800.0
2008-11-30,196000.0
2008-10-31,196900.0
2008-09-30,197300.0
2008-08-31,198200.0
2008-07-31,199500.0
2008-06-30,200800.0
2008-05-31,202200.0
2008-04-30,203600.0
2008-03-31,204900.0
2008-02-29,206800.0
2008-01-31,209200.0
2007-12-31,211300.0
2007-11-30,213000.0
2007-10-31,215000.0
2007-09-30,216800.0
2007-08-31,217600.0
2007-07-31,218200.0
2007-06-30,218700.0
2007-05-31,219000.0
2007-04-30,219100.0
2007-03-31,219000.0
2007-02-28,218400.0
2007-01-31,217800.0
2006-12-31,217400.0
2006-11-30,217200.0
2006-10-31,216800.0
2006-09-30,216200.0
2006-08-31,214900.0
2006-07-31,213400.0
2006-06-30,211400.0
2006-05-31,209300.0
2006-04-30,207200.0
2006-03-31,205100.0
2006-02-28,202900.0
2006-01-31,201000.0
2005-12-31,198900.0
2005-11-30,196700.0
2005-10-31,194200.0
2005-09-30,191200.0
2005-08-31,187800.0
2005-07-31,183700.0
2005-06-30,179800.0
2005-05-31,176500.0
2005-04-30,174000.0
2005-03-31,171900.0
2005-02-28,169900.0
2005-01-31,167600.0
2004-12-31,165300.0
2004-11-30,162800.0
2004-10-31,160800.0
2004-09-30,159100.0
2004-08-31,157000.0
2004-07-31,154600.0
2004-06-30,152600.0
2004-05-31,150900.0
2004-04-30,149100.0
2004-03-31,147600.0
2004-02-29,146400.0
2004-01-31,145700.0
2003-12-31,145100.0
2003-11-30,144300.0
2003-10-31,143100.0
2003-09-30,142400.0
2003-08-31,142500.0
2003-07-31,142600.0
2003-06-30,142300.0
2003-05-31,141200.0
2003-04-30,139800.0
2003-03-31,138400.0
2003-02-28,136800.0
2003-01-31,134700.0
2002-12-31,132800.0
2002-11-30,131600.0
2002-10-31,130600.0
2002-09-30,129700.0
2002-08-31,129600.0
2002-07-31,130200.0
2002-06-30,130800.0
2002-05-31,131300.0
2002-04-30,131800.0
2002-03-31,131800.0
2002-02-28,131300.0
2002-01-31,130300.0
2001-12-31,129400.0
2001-11-30,129000.0
2001-10-31,128700.0
2001-09-30,128100.0
2001-08-31,127300.0
2001-07-31,126500.0
2001-06-30,125700.0
2001-05-31,124800.0
2001-04-30,124100.0
2001-03-31,123400.0
2001-02-28,122700.0
2001-01-31,122300.0
2000-12-31,121900.0
2000-11-30,121500.0
2000-10-31,121700.0
2000-09-30,122200.0
2000-08-31,122500.0
2000-07-31,122500.0
2000-06-30,122300.0
2000-05-31,122000.0
2000-04-30,121600.0
2000-03-31,120700.0
2000-02-29,119800.0
2000-01-31,119200.0
1999-12-31,118400.0
1999-11-30,117500.0
1999-10-31,116300.0
1999-09-30,115100.0
1999-08-31,113800.0
1999-07-31,112200.0
1999-06-30,111300.0
1999-05-31,111100.0
1999-04-30,110700.0
1999-03-31,110200.0
1999-02-28,110000.0
1999-01-31,109500.0
1998-12-31,108800.0
1998-11-30,108200.0
1998-10-31,107400.0
1998-09-30,106700.0
1998-08-31,106000.0
1998-07-31,105200.0
1998-06-30,104300.0
1998-05-31,103600.0
1998-04-30,102800.0
1998-03-31,102100.0
1998-02-28,101800.0
1998-01-31,101600.0
1997-12-31,101200.0
1997-11-30,100400.0
1997-10-31,99600.0
1997-09-30,98700.0
1997-08-31,97800.0
1997-07-31,97200.0
1997-06-30,96500.0
1997-05-31,95700.0
1997-04-30,95100.0
1997-03-31,94500.0
1997-02-28,93600.0
1997-01-31,93100.0
1996-12-31,92800.0
1996-11-30,92200.0
1996-10-31,91600.0
1996-09-30,90700.0
1996-08-31,89700.0
1996-07-31,89200.0
1996-06-30,89000.0
1996-05-31,88600.0
1996-04-30,88200.0
