Date,Value
2015-02-28,249900.0
2015-01-31,235000.0
2014-12-31,197000.0
2014-11-30,220000.0
2014-10-31,229000.0
2014-09-30,232950.0
2014-08-31,245000.0
2014-07-31,235900.0
2014-06-30,234950.0
2014-05-31,224950.0
2014-04-30,216000.0
2014-03-31,199975.0
2014-02-28,199975.0
2014-01-31,194950.0
2013-12-31,196900.0
2013-11-30,205000.0
2013-10-31,224950.0
2013-09-30,239900.0
2013-08-31,225000.0
2013-07-31,219900.0
2013-06-30,199900.0
2013-05-31,189900.0
2013-04-30,189900.0
2013-03-31,189000.0
2013-02-28,169950.0
2013-01-31,160000.0
2012-12-31,165000.0
2012-11-30,157500.0
2012-10-31,169000.0
2012-09-30,169000.0
2012-08-31,188900.0
2012-07-31,188900.0
2012-06-30,167000.0
2012-05-31,168000.0
2012-04-30,149900.0
2012-03-31,146500.0
2012-02-29,146500.0
2012-01-31,140000.0
2011-12-31,139900.0
2011-11-30,139900.0
2011-10-31,142200.0
2011-09-30,130833.0
2011-08-31,147700.0
2011-07-31,144230.0
2011-06-30,154900.0
2011-05-31,163000.0
2011-04-30,159950.0
2011-03-31,174950.0
2011-02-28,179950.0
2011-01-31,185000.0
2010-12-31,185000.0
2010-11-30,199000.0
2010-10-31,199000.0
2010-09-30,199950.0
2010-08-31,205000.0
2010-07-31,199950.0
2010-06-30,199950.0
2010-05-31,210000.0
2010-04-30,219950.0
2010-03-31,214900.0
2010-02-28,204900.0
2010-01-31,219999.0
2009-12-31,225000.0
2009-11-30,218000.0
2009-10-31,229950.0
2009-09-30,224950.0
2009-08-31,229950.0
2009-07-31,239000.0
2009-06-30,229950.0
2009-05-31,226950.0
2009-04-30,209950.0
2009-03-31,224818.0
2009-02-28,225000.0
2009-01-31,230000.0
2008-12-31,264900.0
2008-11-30,250000.0
2008-10-31,269950.0
