Date,Value
2015-09-30,233265.0
2015-08-31,228942.5
2015-07-31,222432.5
2015-06-30,222850.0
2015-05-31,218117.6471
2015-04-30,210000.0
2014-10-31,202300.0
2014-09-30,212200.0
2014-08-31,223515.0
2014-07-31,214452.9412
2014-06-30,185100.0
2013-12-31,188292.3077
2013-10-31,189725.0
2013-09-30,199420.0
2013-08-31,186855.0
2013-07-31,190380.0
2013-06-30,183515.2941
2013-05-31,166830.7692
2013-03-31,172000.0
2012-11-30,172960.7692
2012-09-30,166395.3846
2012-07-31,181844.4118
2012-06-30,196271.1765
2012-05-31,191842.3077
2012-03-31,187050.0
2011-10-31,186780.0
2010-09-30,210280.0
2010-06-30,212265.0
2010-05-31,201495.0
2010-04-30,189927.0588
2010-03-31,175280.0
2009-10-31,206433.8462
2009-08-31,222580.0
2009-07-31,231750.5882
2009-06-30,215280.0
2008-10-31,226292.5385
2008-08-31,208928.8
2008-07-31,210502.7
2008-06-30,222641.0
2008-05-31,214080.0
2008-04-30,204985.8824
2008-03-31,200280.0
2007-09-30,241040.0
2007-08-31,247280.0
2007-07-31,258030.0
2007-06-30,249103.5294
2007-05-31,237164.6154
2007-03-31,238309.4118
2007-02-28,253280.0
2006-12-31,230365.0
2006-11-30,218303.0
2006-10-31,231532.0
2006-09-30,241500.0
2006-08-31,226120.0
2006-07-31,204905.0
2006-06-30,200855.0
2006-05-31,200897.5
2006-04-30,217887.5
2006-03-31,240250.5882
2006-02-28,245295.3846
2005-12-31,190063.0
2005-11-30,198212.0
2005-10-31,190570.0
2005-09-30,186095.0
2005-08-31,183188.0
2005-07-31,181190.0
2005-06-30,190350.0
2005-05-31,185225.0
2005-04-30,168750.0
2005-03-31,154050.0
2005-02-28,144925.0
2004-12-31,179153.8462
2004-10-31,163287.5
2004-09-30,168575.0
2004-08-31,179275.0
2004-07-31,176600.0
2004-06-30,169000.0
2004-05-31,163500.0
2004-04-30,155882.3529
2004-03-31,150000.0
2003-12-31,155350.0
2003-10-31,144475.0
2003-09-30,151300.0
2003-08-31,154550.0
2003-07-31,157110.0
2003-06-30,152750.0
2003-05-31,153315.0
2003-04-30,148176.4706
2003-03-31,135384.6154
2003-01-31,125775.0
2002-12-31,138300.0
2002-11-30,150030.0
2002-10-31,156205.0
2002-09-30,147650.0
2002-08-31,156429.4118
2002-07-31,152692.3077
2002-05-31,142941.1765
2002-04-30,130000.0
2001-11-30,130650.0
2001-10-31,142035.0
2001-09-30,145057.5
2001-08-31,134617.5
2001-07-31,137590.0
2001-06-30,138500.0
2001-05-31,140647.0588
2001-04-30,133461.5385
2001-02-28,135000.0
2000-11-30,128225.0
2000-10-31,131325.0
2000-09-30,134941.1765
2000-08-31,144576.9231
2000-06-30,132588.2353
2000-05-31,128846.1538
2000-03-31,135000.0
1999-11-30,134411.7647
1999-10-31,117076.9231
1999-08-31,127050.0
1999-07-31,128850.0
1999-06-30,124450.0
1999-05-31,129650.0
1999-04-30,131647.0588
1999-03-31,144000.0
1998-12-31,122250.0
1998-11-30,130275.0
1998-10-31,137025.0
1998-09-30,134992.5
1998-08-31,132257.5
1998-07-31,130350.0
1998-06-30,129850.0
1998-05-31,134742.5
1998-04-30,138508.8235
1998-03-31,164950.0
1997-12-31,113438.4615
1997-10-31,125700.0
1997-09-30,127775.0
1997-08-31,130375.0
1997-07-31,132475.0
1997-06-30,127642.5
1997-05-31,122332.3529
1997-04-30,119950.0
1996-09-30,130750.0
1996-08-31,130985.0
1996-07-31,135640.0
1996-06-30,129242.0
1996-05-31,124973.0
1996-04-30,115694.1176
