Date,Value
2015-02-28,147692.3077
2014-12-31,140000.0
2014-09-30,167675.0
2014-08-31,168617.6471
2014-07-31,165384.6154
2014-05-31,185000.0
2013-10-31,137970.0
2013-09-30,141380.0
2013-08-31,137529.4118
2013-07-31,158730.7692
2013-05-31,154500.0
2012-08-31,162000.0
2009-08-31,150000.0
