Date,Value
2015-02-28,275000.0
2015-01-31,265900.0
2014-12-31,254900.0
2014-11-30,259000.0
2014-10-31,275000.0
2014-09-30,299990.0
2014-08-31,298900.0
2014-07-31,289900.0
2014-06-30,260000.0
2014-05-31,249900.0
2014-04-30,225000.0
2014-03-31,234900.0
2014-02-28,249900.0
2014-01-31,259900.0
2013-12-31,202000.0
2013-11-30,229000.0
2013-10-31,229000.0
2013-09-30,220000.0
2013-08-31,241000.0
2013-07-31,249000.0
2013-06-30,212450.0
2013-05-31,240000.0
2013-04-30,240000.0
2013-03-31,225000.0
2013-02-28,224900.0
2013-01-31,214900.0
2012-12-31,229900.0
2012-11-30,245000.0
2012-10-31,245000.0
2012-09-30,269000.0
2012-08-31,250000.0
2012-07-31,244500.0
2012-06-30,225000.0
2012-05-31,225000.0
2012-04-30,220000.0
2012-03-31,230000.0
2012-02-29,212450.0
2012-01-31,209900.0
2011-12-31,199900.0
2011-11-30,200000.0
2011-10-31,225000.0
2011-09-30,231132.0
2011-08-31,224900.0
2011-07-31,224900.0
2011-06-30,199900.0
2011-05-31,219900.0
2011-04-30,226000.0
2011-03-31,240000.0
2011-02-28,265000.0
2011-01-31,235000.0
2010-12-31,234900.0
2010-11-30,250000.0
2010-10-31,268900.0
2010-09-30,269900.0
2010-08-31,240000.0
2010-07-31,240000.0
2010-06-30,240900.0
2010-05-31,269900.0
2010-04-30,259900.0
2010-03-31,250000.0
2010-02-28,250000.0
2010-01-31,250000.0
2009-12-31,203200.0
2009-11-30,219900.0
2009-10-31,259900.0
2009-09-30,259900.0
2009-08-31,265000.0
2009-07-31,289000.0
2009-06-30,279900.0
2009-05-31,299999.0
2009-04-30,289000.0
2009-03-31,289900.0
2009-02-28,289900.0
2009-01-31,290000.0
2008-12-31,350000.0
2008-11-30,350000.0
2008-10-31,375000.0
