Date,Value
2015-09-30,373200.0
2015-08-31,371500.0
2015-07-31,367400.0
2015-06-30,360900.0
2015-05-31,354700.0
2015-04-30,351100.0
2015-03-31,346500.0
2015-02-28,340200.0
2015-01-31,340600.0
2014-12-31,343600.0
2014-11-30,341400.0
2014-10-31,339200.0
2014-09-30,340100.0
2014-08-31,339400.0
2014-07-31,338500.0
2014-06-30,341800.0
2014-05-31,344800.0
2014-04-30,337800.0
2014-03-31,326500.0
2014-02-28,322500.0
2014-01-31,325100.0
2013-12-31,319400.0
2013-11-30,306100.0
2013-10-31,297500.0
2013-09-30,293900.0
2013-08-31,287000.0
2013-07-31,282300.0
2013-06-30,279800.0
2013-05-31,278900.0
2013-04-30,282500.0
2013-03-31,284100.0
2013-02-28,279300.0
2013-01-31,276000.0
2012-12-31,277400.0
2012-11-30,278700.0
2012-10-31,278400.0
2012-09-30,275600.0
2012-08-31,274600.0
2012-07-31,275400.0
2012-06-30,276900.0
2012-05-31,276100.0
2012-04-30,275600.0
2012-03-31,275600.0
2012-02-29,275700.0
2012-01-31,273800.0
2011-12-31,274100.0
2011-11-30,278300.0
2011-10-31,282300.0
2011-09-30,284600.0
2011-08-31,288100.0
2011-07-31,291000.0
2011-06-30,293400.0
2011-05-31,294500.0
2011-04-30,291300.0
2011-03-31,293600.0
2011-02-28,302100.0
2011-01-31,309000.0
2010-12-31,313800.0
2010-11-30,320100.0
2010-10-31,320400.0
2010-09-30,321000.0
2010-08-31,321200.0
2010-07-31,318100.0
2010-06-30,315600.0
2010-05-31,313500.0
2010-04-30,311900.0
2010-03-31,312700.0
2010-02-28,314600.0
2010-01-31,318700.0
2009-12-31,328300.0
2009-11-30,336600.0
2009-10-31,342400.0
2009-09-30,348400.0
2009-08-31,352700.0
