Date,Value
2015-02-28,329500.0
2015-01-31,329500.0
2014-12-31,299000.0
2014-11-30,349000.0
2014-10-31,379999.0
2014-09-30,359000.0
2014-08-31,415000.0
2014-07-31,425000.0
2014-06-30,395000.0
2014-05-31,395000.0
2014-04-30,349000.0
2014-03-31,379500.0
2014-02-28,379500.0
2014-01-31,379000.0
2013-12-31,385000.0
2013-11-30,385000.0
2013-10-31,379500.0
2013-09-30,389950.0
2013-08-31,399500.0
2013-07-31,398500.0
2013-06-30,379000.0
2013-05-31,349900.0
2013-04-30,349000.0
2013-03-31,299900.0
2013-02-28,257500.0
2013-01-31,315000.0
2012-12-31,315000.0
2012-11-30,335440.0
2012-10-31,375000.0
2012-09-30,386000.0
2012-08-31,386000.0
2012-07-31,365000.0
2012-06-30,365000.0
2012-05-31,349000.0
2012-04-30,325000.0
2012-03-31,324000.0
2012-02-29,325000.0
2012-01-31,319000.0
2011-12-31,299000.0
2011-11-30,325000.0
2011-10-31,350000.0
2011-09-30,369000.0
2011-08-31,369000.0
2011-07-31,350000.0
2011-06-30,334000.0
2011-05-31,350000.0
2011-04-30,350000.0
2011-03-31,369000.0
2011-02-28,369000.0
2011-01-31,369950.0
2010-12-31,369000.0
2010-11-30,369950.0
2010-10-31,369000.0
2010-09-30,369950.0
2010-08-31,398000.0
2010-07-31,400000.0
2010-06-30,385000.0
2010-05-31,379000.0
2010-04-30,365000.0
2010-03-31,320000.0
2010-02-28,339000.0
2010-01-31,335000.0
2009-12-31,339000.0
2009-11-30,339000.0
2009-10-31,350000.0
2009-09-30,369000.0
2009-08-31,439000.0
2009-07-31,495000.0
2009-06-30,488000.0
2009-05-31,460000.0
2009-04-30,449950.0
2009-03-31,439000.0
2009-02-28,450000.0
2009-01-31,449950.0
2008-12-31,455000.0
2008-11-30,475000.0
2008-10-31,455000.0
