Date,Value
2015-09-30,195300.0
2015-08-31,193900.0
2015-07-31,190200.0
2015-06-30,189900.0
2015-05-31,190500.0
2015-04-30,191900.0
2015-03-31,190300.0
2015-02-28,188500.0
2015-01-31,187600.0
2014-12-31,188100.0
2014-11-30,187900.0
2014-10-31,186900.0
2014-09-30,186300.0
2014-08-31,186500.0
2014-07-31,186800.0
2014-06-30,186800.0
2014-05-31,186000.0
2014-04-30,184700.0
2014-03-31,184700.0
2014-02-28,185200.0
2014-01-31,185300.0
2013-12-31,184000.0
2013-11-30,181900.0
2013-10-31,179500.0
2013-09-30,176900.0
2013-08-31,174500.0
2013-07-31,172800.0
2013-06-30,171900.0
2013-05-31,171600.0
2013-04-30,171400.0
2013-03-31,171100.0
2013-02-28,171200.0
2013-01-31,171500.0
2012-12-31,172100.0
2012-11-30,173400.0
2012-10-31,175500.0
2012-09-30,177500.0
2012-08-31,178300.0
2012-07-31,178200.0
2012-06-30,178400.0
2012-05-31,179200.0
2012-04-30,179900.0
2012-03-31,180200.0
2012-02-29,180000.0
2012-01-31,179200.0
2011-12-31,178700.0
2011-11-30,178600.0
2011-10-31,178700.0
2011-09-30,178900.0
2011-08-31,179200.0
2011-07-31,179200.0
2011-06-30,179700.0
2011-05-31,180800.0
2011-04-30,181700.0
2011-03-31,182700.0
2011-02-28,184300.0
2011-01-31,186200.0
2010-12-31,187500.0
2010-11-30,188300.0
2010-10-31,188100.0
2010-09-30,187400.0
2010-08-31,187000.0
2010-07-31,188100.0
2010-06-30,189500.0
2010-05-31,189900.0
2010-04-30,189300.0
2010-03-31,189000.0
2010-02-28,188800.0
2010-01-31,188700.0
2009-12-31,189000.0
2009-11-30,189800.0
2009-10-31,191600.0
2009-09-30,194600.0
2009-08-31,197800.0
2009-07-31,199000.0
2009-06-30,199000.0
2009-05-31,199200.0
2009-04-30,199600.0
2009-03-31,199300.0
2009-02-28,198900.0
2009-01-31,197900.0
2008-12-31,197300.0
2008-11-30,197900.0
2008-10-31,199200.0
2008-09-30,199800.0
2008-08-31,200300.0
2008-07-31,202200.0
2008-06-30,205100.0
2008-05-31,208600.0
2008-04-30,212500.0
2008-03-31,215700.0
2008-02-29,217400.0
2008-01-31,218700.0
2007-12-31,219900.0
2007-11-30,220700.0
2007-10-31,221900.0
2007-09-30,223100.0
2007-08-31,223800.0
2007-07-31,223500.0
2007-06-30,221900.0
2007-05-31,219300.0
2007-04-30,216800.0
2007-03-31,215100.0
2007-02-28,213300.0
2007-01-31,211800.0
2006-12-31,211500.0
2006-11-30,211200.0
2006-10-31,209500.0
2006-09-30,206700.0
2006-08-31,204100.0
2006-07-31,202400.0
2006-06-30,201800.0
2006-05-31,200700.0
2006-04-30,198400.0
2006-03-31,196000.0
2006-02-28,194100.0
2006-01-31,191400.0
2005-12-31,188300.0
2005-11-30,185700.0
2005-10-31,183200.0
2005-09-30,180500.0
2005-08-31,177800.0
2005-07-31,175100.0
2005-06-30,172700.0
2005-05-31,170000.0
2005-04-30,166600.0
2005-03-31,162100.0
2005-02-28,158000.0
2005-01-31,154700.0
2004-12-31,152600.0
2004-11-30,152000.0
2004-10-31,151100.0
2004-09-30,148700.0
2004-08-31,146600.0
2004-07-31,145400.0
2004-06-30,143900.0
2004-05-31,143000.0
2004-04-30,143300.0
2004-03-31,145600.0
2004-02-29,148100.0
2004-01-31,149700.0
2003-12-31,149200.0
2003-11-30,147500.0
2003-10-31,145700.0
2003-09-30,145200.0
2003-08-31,144200.0
2003-07-31,143200.0
2003-06-30,142200.0
2003-05-31,141700.0
2003-04-30,141900.0
2003-03-31,141500.0
2003-02-28,141200.0
2003-01-31,143000.0
2002-12-31,142600.0
2002-11-30,139100.0
2002-10-31,136600.0
2002-09-30,136600.0
2002-08-31,137100.0
2002-07-31,137200.0
2002-06-30,135400.0
2002-05-31,134000.0
2002-04-30,134100.0
2002-03-31,134700.0
2002-02-28,133900.0
2002-01-31,133700.0
2001-12-31,134900.0
2001-11-30,135500.0
2001-10-31,134500.0
2001-09-30,134200.0
2001-08-31,133900.0
2001-07-31,132400.0
2001-06-30,131500.0
2001-05-31,130400.0
2001-04-30,128700.0
2001-03-31,128100.0
2001-02-28,128100.0
2001-01-31,126400.0
2000-12-31,124600.0
2000-11-30,124200.0
2000-10-31,125200.0
2000-09-30,126800.0
2000-08-31,127400.0
2000-07-31,126900.0
2000-06-30,127300.0
2000-05-31,127900.0
2000-04-30,126300.0
2000-03-31,124500.0
2000-02-29,124600.0
2000-01-31,124500.0
1999-12-31,125400.0
1999-11-30,127400.0
1999-10-31,128800.0
1999-09-30,127900.0
1999-08-31,127000.0
1999-07-31,126400.0
1999-06-30,126600.0
1999-05-31,126500.0
1999-04-30,126600.0
1999-03-31,126400.0
1999-02-28,126300.0
1999-01-31,126500.0
1998-12-31,126600.0
1998-11-30,126600.0
1998-10-31,126100.0
1998-09-30,124800.0
1998-08-31,125200.0
1998-07-31,128000.0
1998-06-30,129500.0
1998-05-31,129300.0
1998-04-30,128700.0
1998-03-31,127100.0
1998-02-28,125900.0
1998-01-31,125700.0
1997-12-31,126300.0
1997-11-30,127000.0
1997-10-31,128100.0
1997-09-30,128600.0
1997-08-31,128500.0
1997-07-31,128300.0
1997-06-30,128000.0
1997-05-31,128200.0
1997-04-30,128800.0
1997-03-31,128100.0
1997-02-28,125800.0
1997-01-31,123200.0
1996-12-31,121100.0
1996-11-30,119700.0
1996-10-31,119700.0
1996-09-30,120000.0
1996-08-31,119400.0
1996-07-31,118500.0
1996-06-30,118600.0
1996-05-31,119100.0
1996-04-30,119700.0
