Date,Value
2015-02-28,189000.0
2015-01-31,199900.0
2014-12-31,209900.0
2014-11-30,219900.0
2014-10-31,225000.0
2014-09-30,220000.0
2014-08-31,220000.0
2014-07-31,225000.0
2014-06-30,241500.0
2014-05-31,225000.0
2014-04-30,249000.0
2014-03-31,259900.0
2014-02-28,269000.0
2014-01-31,229000.0
2013-12-31,275000.0
2013-11-30,229000.0
2013-10-31,239000.0
2013-09-30,234900.0
2013-08-31,239000.0
2013-07-31,251900.0
2013-06-30,259950.0
2013-05-31,239000.0
2013-04-30,249000.0
2013-03-31,249900.0
2013-02-28,259950.0
2013-01-31,269000.0
2012-12-31,275000.0
2012-11-30,249950.0
2012-10-31,239000.0
2012-09-30,239000.0
2012-08-31,249000.0
2012-07-31,220000.0
2012-06-30,222000.0
2012-05-31,239000.0
2012-04-30,240000.0
2012-03-31,240000.0
2012-02-29,235000.0
2012-01-31,230000.0
2011-12-31,219900.0
2011-11-30,249900.0
2011-10-31,249900.0
2011-09-30,249900.0
2011-08-31,249900.0
2011-07-31,224900.0
2011-06-30,189900.0
2011-05-31,215000.0
2011-04-30,199500.0
2011-03-31,199000.0
2011-02-28,220000.0
2011-01-31,210000.0
2010-12-31,204000.0
2010-11-30,224900.0
2010-10-31,240000.0
2010-09-30,269000.0
2010-08-31,259000.0
2010-07-31,239900.0
2010-06-30,242000.0
2010-05-31,234900.0
2010-04-30,234900.0
2010-03-31,239500.0
2010-02-28,234900.0
2010-01-31,242000.0
2009-12-31,249900.0
2009-11-30,249950.0
2009-10-31,252500.0
2009-09-30,259000.0
2009-08-31,269900.0
2009-07-31,275000.0
2009-06-30,289900.0
2009-05-31,270500.0
2009-04-30,299950.0
2009-03-31,299950.0
2009-02-28,272000.0
2009-01-31,299000.0
2008-12-31,349900.0
2008-11-30,329950.0
2008-10-31,335000.0
