Date,Value
2015-08-31,1611.0
2015-07-31,1612.5
2015-06-30,1495.0
2015-05-31,1549.0
2015-04-30,1550.0
2015-03-31,1525.0
2015-02-28,1475.0
2015-01-31,1465.0
2014-12-31,1475.0
2014-11-30,1500.0
2014-10-31,1495.0
2014-09-30,1499.0
2014-08-31,1525.0
2014-07-31,1545.0
2014-06-30,1495.0
2014-05-31,1500.0
2014-04-30,1525.0
2014-03-31,1495.0
2014-02-28,1499.0
2014-01-31,1495.0
2013-12-31,1499.0
2013-11-30,1495.0
2013-10-31,1500.0
2013-09-30,1500.0
2013-08-31,1495.0
2013-07-31,1475.0
2013-06-30,1450.0
2013-05-31,1495.0
2013-04-30,1495.0
2013-03-31,1500.0
2013-02-28,1500.0
2013-01-31,1495.0
2012-12-31,1495.0
2012-11-30,1450.0
2012-10-31,1450.0
2012-09-30,1450.0
2012-08-31,1450.0
2012-07-31,1450.0
2012-06-30,1400.0
2012-05-31,1400.0
2012-04-30,1400.0
2012-03-31,1395.0
2012-02-29,1400.0
2012-01-31,1395.0
2011-12-31,1400.0
2011-11-30,1395.0
2011-10-31,1395.0
2011-09-30,1395.0
2011-08-31,1395.0
2011-07-31,1395.0
2011-06-30,1495.0
2011-05-31,1450.0
2011-04-30,1450.0
2011-03-31,1450.0
2011-02-28,1325.0
2011-01-31,1425.0
2010-12-31,1450.0
2010-06-30,1395.0
2010-05-31,1450.0
