Date,Value
2015-09-30,330500.0
2015-08-31,327500.0
2015-07-31,331742.5
2015-06-30,339982.5
2015-05-31,346750.0
2015-04-30,319000.0
2015-03-31,306950.0
2015-02-28,292675.0
2015-01-31,273375.0
2014-12-31,305350.0
2014-11-30,300150.0
2014-10-31,301500.0
2014-09-30,305000.0
2014-08-31,298000.0
2014-07-31,299000.0
2014-06-30,290200.0
2014-05-31,267550.0
2014-04-30,266470.5882
2014-03-31,300000.0
2013-12-31,260250.0
2013-11-30,267900.0
2013-10-31,257865.0
2013-09-30,252785.0
2013-08-31,257047.5
2013-07-31,262627.5
2013-06-30,254525.0
2013-05-31,242725.0
2013-04-30,229735.2941
2013-03-31,228538.4615
2013-01-31,224550.0
2012-12-31,233818.9
2012-11-30,202640.1176
2012-10-31,194520.0
2012-08-31,231250.0
2012-07-31,252850.0
2012-06-30,232823.5294
2012-05-31,229230.7692
2012-03-31,180000.0
2011-12-31,175384.6154
2011-11-30,189000.0
2011-10-31,179117.6471
2011-09-30,187215.3846
2011-07-31,209450.0
2011-06-30,224411.7647
2011-05-31,229613.0769
2011-03-31,240376.9231
2011-01-31,232000.0
2010-12-31,232600.0
2010-11-30,218411.7647
2010-07-31,239225.0
2010-06-30,258605.55
2010-05-31,256562.95
2010-04-30,256218.5
2010-03-31,256180.05
2010-02-28,269178.45
2010-01-31,284808.5
2009-12-31,275750.0
2009-11-30,278875.0
2009-10-31,290725.0
2009-09-30,288450.0
2009-08-31,287450.0
2009-07-31,292162.5
2009-06-30,287682.5
2009-05-31,307950.0
2009-04-30,296750.0
2009-03-31,302147.0588
2009-02-28,285417.3077
2008-12-31,290787.5
2008-11-30,295000.0
2008-10-31,297975.0
2008-09-30,290275.0
2008-08-31,291250.0
2008-07-31,303800.0
2008-06-30,312200.0
2008-05-31,311600.0
2008-04-30,311146.25
2008-03-31,310733.75
2008-02-29,312220.0
2008-01-31,336725.0
2007-12-31,320500.0
2007-11-30,321550.0
2007-10-31,324085.0
2007-09-30,316057.5
2007-08-31,321432.5
2007-07-31,325275.0
2007-06-30,320514.0
2007-05-31,323116.0
2007-04-30,323680.0
2007-03-31,323150.0
2007-02-28,309350.0
2007-01-31,309151.25
2006-12-31,308336.25
2006-11-30,307962.5
2006-10-31,306875.0
2006-09-30,302735.0
2006-08-31,298465.0
2006-07-31,298292.5
2006-06-30,292032.5
2006-05-31,293075.0
2006-04-30,297748.5
2006-03-31,286971.5
2006-02-28,265995.0
2006-01-31,263275.0
2005-12-31,265292.5
2005-11-30,277282.5
2005-10-31,269975.0
2005-09-30,262525.0
2005-08-31,258950.0
2005-07-31,264775.0
2005-06-30,254750.0
2005-05-31,246450.0
2005-04-30,240950.0
2005-03-31,232750.0
2005-02-28,229192.5
2005-01-31,222582.5
2004-12-31,220425.0
2004-11-30,234362.65
2004-10-31,234762.85
2004-09-30,233375.5
2004-08-31,227000.0
2004-07-31,229250.0
2004-06-30,218625.0
2004-05-31,217175.0
2004-04-30,215367.5
2004-03-31,205800.0
2004-02-29,202707.5
2004-01-31,208175.0
2003-12-31,210437.5
2003-11-30,200287.5
2003-10-31,194075.0
2003-09-30,202550.0
2003-08-31,199100.0
2003-07-31,216542.5
2003-06-30,219682.5
2003-05-31,216825.0
2003-04-30,201475.0
2003-03-31,200175.0
2003-02-28,196100.0
2003-01-31,186242.5
2002-12-31,186807.5
2002-11-30,189892.5
2002-10-31,192725.0
2002-09-30,198457.5
2002-08-31,194210.0
2002-07-31,186940.0
2002-06-30,182817.5
2002-05-31,179857.5
2002-04-30,178175.0
2002-03-31,177362.5
2002-02-28,177337.5
2002-01-31,177075.0
2001-12-31,178425.0
2001-11-30,179610.0
2001-10-31,173187.0
2001-09-30,178118.0
2001-08-31,177965.0
2001-07-31,180085.0
2001-06-30,182490.0
2001-05-31,178950.0
2001-04-30,182942.5
2001-03-31,182282.5
2001-02-28,176900.0
2001-01-31,166075.0
2000-12-31,165502.5
2000-11-30,153922.5
2000-10-31,156175.0
2000-09-30,165750.0
2000-08-31,159780.0
2000-07-31,166595.0
2000-06-30,170635.0
2000-05-31,164390.0
2000-04-30,157942.5
2000-03-31,154207.5
2000-02-29,150500.0
2000-01-31,155150.0
1999-12-31,150600.0
1999-11-30,144050.0
1999-10-31,140517.5
1999-09-30,145657.5
1999-08-31,146275.0
1999-07-31,138200.0
1999-06-30,143700.0
1999-05-31,144800.0
1999-04-30,145492.5
1999-03-31,135357.5
1999-02-28,139342.5
1999-01-31,137432.5
1998-12-31,132025.0
1998-11-30,133150.0
1998-10-31,131242.5
1998-09-30,136082.5
1998-08-31,132487.5
1998-07-31,123412.5
1998-06-30,122925.0
1998-05-31,125500.0
1998-04-30,128392.5
1998-03-31,126682.5
1998-02-28,125025.0
1998-01-31,126125.0
1997-12-31,126867.5
1997-11-30,121982.5
1997-10-31,115975.0
1997-09-30,116500.0
1997-08-31,112000.0
1997-07-31,112550.0
1997-06-30,108950.0
1997-05-31,117825.0
1997-04-30,120675.0
1997-03-31,122850.0
1997-02-28,125627.5
1997-01-31,112947.5
1996-12-31,105675.0
1996-11-30,103250.0
1996-10-31,106133.5
1996-09-30,104486.5
1996-08-31,99270.0
1996-07-31,99825.0
1996-06-30,107425.0
1996-05-31,111175.0
1996-04-30,113850.0
