Date,Value
2015-09-30,226400.0
2015-08-31,226700.0
2015-07-31,224400.0
2015-06-30,221300.0
2015-05-31,220600.0
2015-04-30,218400.0
2015-03-31,218400.0
2015-02-28,217700.0
2015-01-31,216600.0
2014-12-31,216300.0
2014-11-30,216200.0
2014-10-31,215800.0
2014-09-30,215500.0
2014-08-31,215100.0
2014-07-31,214100.0
2014-06-30,213200.0
2014-05-31,212800.0
2014-04-30,212100.0
2014-03-31,210800.0
2014-02-28,209500.0
2014-01-31,208800.0
2013-12-31,207900.0
2013-11-30,206600.0
2013-10-31,205000.0
2013-09-30,203200.0
2013-08-31,200800.0
2013-07-31,198000.0
2013-06-30,195100.0
2013-05-31,192700.0
2013-04-30,191000.0
2013-03-31,189800.0
2013-02-28,189300.0
2013-01-31,189500.0
2012-12-31,189900.0
2012-11-30,190200.0
2012-10-31,190300.0
2012-09-30,190300.0
2012-08-31,191200.0
2012-07-31,192300.0
2012-06-30,193200.0
2012-05-31,194100.0
2012-04-30,195000.0
2012-03-31,195900.0
2012-02-29,197300.0
2012-01-31,198500.0
2011-12-31,199300.0
2011-11-30,200300.0
2011-10-31,201400.0
2011-09-30,202500.0
2011-08-31,203500.0
2011-07-31,204500.0
2011-06-30,205300.0
2011-05-31,206300.0
2011-04-30,207900.0
2011-03-31,209500.0
2011-02-28,210900.0
2011-01-31,212400.0
2010-12-31,213900.0
2010-11-30,215200.0
2010-10-31,216400.0
2010-09-30,217800.0
2010-08-31,219900.0
2010-07-31,222200.0
2010-06-30,224200.0
2010-05-31,225500.0
2010-04-30,226900.0
2010-03-31,228300.0
2010-02-28,229400.0
2010-01-31,230100.0
2009-12-31,230400.0
2009-11-30,230000.0
2009-10-31,229600.0
2009-09-30,230000.0
2009-08-31,230300.0
2009-07-31,230500.0
2009-06-30,230900.0
2009-05-31,231700.0
2009-04-30,232500.0
2009-03-31,233500.0
2009-02-28,233900.0
2009-01-31,233800.0
2008-12-31,234000.0
2008-11-30,235200.0
2008-10-31,237400.0
2008-09-30,239700.0
2008-08-31,241300.0
2008-07-31,242900.0
2008-06-30,245000.0
2008-05-31,247700.0
2008-04-30,250200.0
2008-03-31,252000.0
2008-02-29,253200.0
2008-01-31,254500.0
2007-12-31,255900.0
2007-11-30,257400.0
2007-10-31,258800.0
2007-09-30,259900.0
2007-08-31,261200.0
2007-07-31,262500.0
2007-06-30,263600.0
2007-05-31,263900.0
2007-04-30,263900.0
2007-03-31,264100.0
2007-02-28,264400.0
2007-01-31,264900.0
2006-12-31,265400.0
2006-11-30,265900.0
2006-10-31,265800.0
2006-09-30,264900.0
2006-08-31,263800.0
2006-07-31,262400.0
2006-06-30,260400.0
2006-05-31,257600.0
2006-04-30,254400.0
2006-03-31,250700.0
2006-02-28,247200.0
2006-01-31,243700.0
2005-12-31,240400.0
2005-11-30,236600.0
2005-10-31,232500.0
2005-09-30,228200.0
2005-08-31,223800.0
2005-07-31,219400.0
2005-06-30,215900.0
2005-05-31,213100.0
2005-04-30,210200.0
2005-03-31,207300.0
2005-02-28,204400.0
2005-01-31,201100.0
2004-12-31,197400.0
2004-11-30,194100.0
2004-10-31,191300.0
2004-09-30,189300.0
2004-08-31,187700.0
2004-07-31,185800.0
2004-06-30,183600.0
2004-05-31,181000.0
2004-04-30,178500.0
2004-03-31,176300.0
2004-02-29,174200.0
2004-01-31,172700.0
2003-12-31,171900.0
2003-11-30,171100.0
2003-10-31,170100.0
2003-09-30,168800.0
2003-08-31,167300.0
2003-07-31,165900.0
2003-06-30,164800.0
2003-05-31,163400.0
2003-04-30,161900.0
2003-03-31,160900.0
2003-02-28,160000.0
2003-01-31,158900.0
2002-12-31,157200.0
2002-11-30,155500.0
2002-10-31,153800.0
2002-09-30,152000.0
2002-08-31,149600.0
2002-07-31,147300.0
2002-06-30,145200.0
2002-05-31,143800.0
2002-04-30,143000.0
2002-03-31,142100.0
2002-02-28,141300.0
2002-01-31,140800.0
2001-12-31,140300.0
2001-11-30,139700.0
2001-10-31,138800.0
2001-09-30,138100.0
2001-08-31,137700.0
2001-07-31,137200.0
2001-06-30,136600.0
2001-05-31,135900.0
2001-04-30,135200.0
2001-03-31,134600.0
2001-02-28,133800.0
2001-01-31,133000.0
2000-12-31,132000.0
2000-11-30,131200.0
2000-10-31,130600.0
2000-09-30,130300.0
2000-08-31,130100.0
2000-07-31,130100.0
2000-06-30,130000.0
2000-05-31,129600.0
2000-04-30,128900.0
2000-03-31,128300.0
2000-02-29,127800.0
2000-01-31,127500.0
1999-12-31,127300.0
1999-11-30,127400.0
1999-10-31,127300.0
1999-09-30,127100.0
1999-08-31,127000.0
1999-07-31,126900.0
1999-06-30,126400.0
1999-05-31,125900.0
1999-04-30,125400.0
1999-03-31,124500.0
1999-02-28,123400.0
1999-01-31,122400.0
1998-12-31,121300.0
1998-11-30,120200.0
1998-10-31,119100.0
1998-09-30,117700.0
1998-08-31,116400.0
1998-07-31,115300.0
1998-06-30,114400.0
1998-05-31,113800.0
1998-04-30,113700.0
1998-03-31,113800.0
1998-02-28,113600.0
1998-01-31,112900.0
1997-12-31,112400.0
1997-11-30,112300.0
1997-10-31,112700.0
1997-09-30,113200.0
1997-08-31,113700.0
1997-07-31,114200.0
1997-06-30,114700.0
1997-05-31,115300.0
1997-04-30,116100.0
1997-03-31,116500.0
1997-02-28,116400.0
1997-01-31,116400.0
1996-12-31,116500.0
1996-11-30,116300.0
1996-10-31,115900.0
1996-09-30,115900.0
1996-08-31,116200.0
1996-07-31,116400.0
1996-06-30,116700.0
1996-05-31,116700.0
1996-04-30,116300.0
