Date,Value
2015-09-30,289200.0
2015-08-31,287000.0
2015-07-31,282000.0
2015-06-30,278300.0
2015-05-31,273800.0
2015-04-30,270300.0
2015-03-31,265500.0
2015-02-28,262600.0
2015-01-31,262400.0
2014-12-31,260900.0
2014-11-30,258200.0
2014-10-31,256500.0
2014-09-30,255900.0
2014-08-31,255400.0
2014-07-31,253500.0
2014-06-30,251000.0
2014-05-31,247300.0
2014-04-30,245100.0
2014-03-31,243800.0
2014-02-28,241000.0
2014-01-31,236200.0
2013-12-31,233800.0
2013-11-30,230800.0
2013-10-31,225100.0
2013-09-30,218600.0
2013-08-31,214300.0
2013-07-31,210100.0
2013-06-30,207100.0
2013-05-31,205300.0
2013-04-30,201400.0
2013-03-31,195100.0
2013-02-28,191000.0
2013-01-31,189500.0
2012-12-31,188100.0
2012-11-30,186600.0
2012-10-31,185800.0
2012-09-30,185700.0
2012-08-31,185600.0
2012-07-31,185100.0
2012-06-30,183900.0
2012-05-31,182200.0
2012-04-30,180800.0
2012-03-31,181100.0
2012-02-29,182000.0
2012-01-31,182000.0
2011-12-31,181500.0
2011-11-30,182100.0
2011-10-31,183800.0
2011-09-30,185100.0
2011-08-31,186100.0
2011-07-31,188700.0
2011-06-30,192400.0
2011-05-31,195900.0
2011-04-30,199200.0
2011-03-31,202500.0
2011-02-28,205100.0
2011-01-31,209200.0
2010-12-31,214700.0
2010-11-30,219100.0
2010-10-31,222000.0
2010-09-30,224800.0
2010-08-31,227700.0
2010-07-31,231200.0
2010-06-30,234700.0
2010-05-31,237300.0
2010-04-30,239400.0
2010-03-31,242100.0
2010-02-28,244600.0
2010-01-31,245900.0
2009-12-31,245500.0
2009-11-30,245300.0
2009-10-31,244800.0
2009-09-30,244900.0
2009-08-31,245800.0
2009-07-31,246800.0
2009-06-30,246900.0
2009-05-31,247600.0
2009-04-30,250900.0
2009-03-31,256500.0
2009-02-28,261200.0
2009-01-31,262500.0
2008-12-31,262500.0
2008-11-30,263300.0
2008-10-31,266300.0
2008-09-30,270700.0
2008-08-31,274500.0
2008-07-31,277100.0
2008-06-30,279800.0
2008-05-31,283000.0
2008-04-30,285100.0
2008-03-31,286000.0
2008-02-29,286600.0
2008-01-31,287700.0
2007-12-31,288600.0
2007-11-30,289500.0
2007-10-31,292200.0
2007-09-30,295500.0
2007-08-31,296700.0
2007-07-31,296000.0
2007-06-30,294000.0
2007-05-31,291800.0
2007-04-30,289400.0
2007-03-31,286600.0
2007-02-28,284200.0
2007-01-31,283900.0
2006-12-31,284200.0
2006-11-30,284000.0
2006-10-31,282400.0
2006-09-30,279800.0
2006-08-31,277200.0
2006-07-31,274500.0
2006-06-30,271600.0
2006-05-31,267900.0
2006-04-30,264300.0
2006-03-31,260000.0
2006-02-28,255700.0
2006-01-31,252300.0
2005-12-31,250700.0
2005-11-30,249100.0
2005-10-31,245200.0
2005-09-30,240100.0
2005-08-31,236300.0
2005-07-31,233600.0
2005-06-30,230700.0
2005-05-31,228300.0
2005-04-30,226400.0
2005-03-31,224900.0
2005-02-28,223500.0
2005-01-31,222800.0
2004-12-31,222400.0
2004-11-30,222100.0
2004-10-31,221200.0
2004-09-30,219800.0
2004-08-31,217600.0
2004-07-31,216300.0
2004-06-30,216900.0
2004-05-31,217000.0
2004-04-30,216000.0
2004-03-31,215100.0
2004-02-29,214300.0
2004-01-31,211800.0
2003-12-31,208200.0
2003-11-30,204600.0
2003-10-31,202200.0
2003-09-30,200400.0
2003-08-31,198800.0
2003-07-31,197700.0
2003-06-30,197600.0
2003-05-31,198500.0
2003-04-30,198400.0
2003-03-31,197100.0
2003-02-28,195700.0
2003-01-31,194700.0
2002-12-31,193400.0
2002-11-30,192200.0
2002-10-31,191100.0
2002-09-30,190300.0
2002-08-31,189600.0
2002-07-31,188100.0
2002-06-30,185800.0
2002-05-31,183500.0
2002-04-30,182200.0
2002-03-31,182500.0
2002-02-28,183700.0
2002-01-31,184800.0
2001-12-31,185700.0
2001-11-30,186600.0
2001-10-31,186600.0
2001-09-30,186500.0
2001-08-31,186500.0
2001-07-31,186300.0
2001-06-30,184900.0
2001-05-31,183500.0
2001-04-30,182600.0
2001-03-31,181700.0
2001-02-28,180200.0
2001-01-31,178100.0
2000-12-31,176300.0
2000-11-30,174300.0
2000-10-31,172700.0
2000-09-30,170800.0
2000-08-31,168800.0
2000-07-31,167100.0
2000-06-30,165900.0
2000-05-31,164700.0
2000-04-30,163800.0
2000-03-31,162600.0
2000-02-29,160400.0
2000-01-31,158600.0
1999-12-31,157400.0
1999-11-30,156200.0
1999-10-31,154100.0
1999-09-30,152600.0
1999-08-31,152000.0
1999-07-31,151800.0
1999-06-30,151100.0
1999-05-31,149500.0
1999-04-30,147300.0
1999-03-31,144300.0
1999-02-28,142000.0
1999-01-31,140300.0
1998-12-31,138200.0
1998-11-30,136200.0
1998-10-31,135900.0
1998-09-30,135800.0
1998-08-31,134700.0
1998-07-31,132600.0
1998-06-30,130800.0
1998-05-31,129300.0
1998-04-30,128300.0
1998-03-31,127600.0
1998-02-28,126500.0
1998-01-31,125000.0
1997-12-31,123300.0
1997-11-30,121600.0
1997-10-31,120400.0
1997-09-30,119800.0
1997-08-31,119300.0
1997-07-31,118700.0
1997-06-30,117600.0
1997-05-31,116300.0
1997-04-30,115200.0
1997-03-31,113400.0
1997-02-28,111600.0
1997-01-31,110500.0
1996-12-31,109700.0
1996-11-30,108900.0
1996-10-31,108700.0
1996-09-30,108800.0
1996-08-31,108700.0
1996-07-31,108100.0
1996-06-30,107700.0
1996-05-31,107500.0
1996-04-30,107000.0
