Date,Value
2015-09-30,396800.0
2015-08-31,385500.0
2015-07-31,381300.0
2015-06-30,384400.0
2015-05-31,383600.0
2015-04-30,376000.0
2015-03-31,368200.0
2015-02-28,362800.0
2015-01-31,361200.0
2014-12-31,359300.0
2014-11-30,358000.0
2014-10-31,356700.0
2014-09-30,355500.0
2014-08-31,354200.0
2014-07-31,351400.0
2014-06-30,347500.0
2014-05-31,342700.0
2014-04-30,337100.0
2014-03-31,330900.0
2014-02-28,326200.0
2014-01-31,323800.0
2013-12-31,322300.0
2013-11-30,321400.0
2013-10-31,320800.0
2013-09-30,319800.0
2013-08-31,317800.0
2013-07-31,315200.0
2013-06-30,311600.0
2013-05-31,307600.0
2013-04-30,303900.0
2013-03-31,300300.0
2013-02-28,295900.0
2013-01-31,291000.0
2012-12-31,287200.0
2012-11-30,283600.0
2012-10-31,279300.0
2012-09-30,275300.0
2012-08-31,272600.0
2012-07-31,269400.0
2012-06-30,266700.0
2012-05-31,264700.0
2012-04-30,263400.0
2012-03-31,262600.0
2012-02-29,263200.0
2012-01-31,263600.0
2011-12-31,264500.0
2011-11-30,265500.0
2011-10-31,266400.0
2011-09-30,267300.0
2011-08-31,268300.0
2011-07-31,269700.0
2011-06-30,271400.0
2011-05-31,272100.0
2011-04-30,274600.0
2011-03-31,277200.0
2011-02-28,279000.0
2011-01-31,281300.0
2010-12-31,284200.0
2010-11-30,284900.0
2010-10-31,285200.0
2010-09-30,286400.0
2010-08-31,289100.0
2010-07-31,294300.0
2010-06-30,299100.0
2010-05-31,301600.0
2010-04-30,301700.0
2010-03-31,301500.0
2010-02-28,301300.0
2010-01-31,301200.0
2009-12-31,301300.0
2009-11-30,302500.0
2009-10-31,304500.0
2009-09-30,306300.0
2009-08-31,307600.0
2009-07-31,310000.0
2009-06-30,314100.0
2009-05-31,318600.0
2009-04-30,322100.0
2009-03-31,326700.0
2009-02-28,332500.0
2009-01-31,337000.0
2008-12-31,339800.0
2008-11-30,342600.0
2008-10-31,346100.0
2008-09-30,348700.0
2008-08-31,349600.0
2008-07-31,350600.0
2008-06-30,353600.0
2008-05-31,358200.0
2008-04-30,363000.0
2008-03-31,366400.0
2008-02-29,368800.0
2008-01-31,371400.0
2007-12-31,375400.0
2007-11-30,378900.0
2007-10-31,380600.0
2007-09-30,382200.0
2007-08-31,383700.0
2007-07-31,383000.0
2007-06-30,381000.0
2007-05-31,379500.0
2007-04-30,377300.0
2007-03-31,374400.0
2007-02-28,371000.0
2007-01-31,368800.0
2006-12-31,366500.0
2006-11-30,363900.0
2006-10-31,361200.0
2006-09-30,357700.0
2006-08-31,352700.0
2006-07-31,346900.0
2006-06-30,342200.0
2006-05-31,338300.0
2006-04-30,336400.0
2006-03-31,335500.0
2006-02-28,333400.0
2006-01-31,329000.0
2005-12-31,324400.0
2005-11-30,319900.0
2005-10-31,315300.0
2005-09-30,311700.0
2005-08-31,308400.0
2005-07-31,304600.0
2005-06-30,300200.0
2005-05-31,295900.0
2005-04-30,291300.0
2005-03-31,286700.0
2005-02-28,282400.0
2005-01-31,278200.0
2004-12-31,273600.0
2004-11-30,270000.0
2004-10-31,267600.0
2004-09-30,265700.0
2004-08-31,265100.0
2004-07-31,264100.0
2004-06-30,260300.0
2004-05-31,255200.0
2004-04-30,251300.0
2004-03-31,248800.0
2004-02-29,246900.0
2004-01-31,244500.0
2003-12-31,241700.0
2003-11-30,239800.0
2003-10-31,238500.0
2003-09-30,237100.0
2003-08-31,235800.0
2003-07-31,236200.0
2003-06-30,237300.0
2003-05-31,238700.0
2003-04-30,240200.0
2003-03-31,241100.0
2003-02-28,241100.0
2003-01-31,241200.0
2002-12-31,241700.0
2002-11-30,241100.0
2002-10-31,239700.0
2002-09-30,238500.0
2002-08-31,237100.0
2002-07-31,235400.0
2002-06-30,233900.0
2002-05-31,232600.0
2002-04-30,231100.0
2002-03-31,230000.0
2002-02-28,229600.0
2002-01-31,228900.0
2001-12-31,229400.0
2001-11-30,230500.0
2001-10-31,230000.0
2001-09-30,228500.0
2001-08-31,228100.0
2001-07-31,228900.0
2001-06-30,230200.0
2001-05-31,231000.0
2001-04-30,229800.0
2001-03-31,227600.0
2001-02-28,226100.0
2001-01-31,225100.0
2000-12-31,224000.0
2000-11-30,222600.0
2000-10-31,221800.0
2000-09-30,221400.0
2000-08-31,220700.0
2000-07-31,218600.0
2000-06-30,216400.0
2000-05-31,214000.0
2000-04-30,210700.0
2000-03-31,208400.0
2000-02-29,207500.0
2000-01-31,205800.0
1999-12-31,203300.0
1999-11-30,200500.0
1999-10-31,197100.0
1999-09-30,194400.0
1999-08-31,193200.0
1999-07-31,191600.0
1999-06-30,189900.0
1999-05-31,187800.0
1999-04-30,185700.0
1999-03-31,183900.0
1999-02-28,183000.0
1999-01-31,181600.0
1998-12-31,179400.0
1998-11-30,177900.0
1998-10-31,177700.0
1998-09-30,176700.0
1998-08-31,173600.0
1998-07-31,169800.0
1998-06-30,166500.0
1998-05-31,164900.0
1998-04-30,164300.0
1998-03-31,162400.0
1998-02-28,159700.0
1998-01-31,158400.0
1997-12-31,157800.0
1997-11-30,156500.0
1997-10-31,155100.0
1997-09-30,154300.0
1997-08-31,153200.0
1997-07-31,151900.0
1997-06-30,150500.0
1997-05-31,149900.0
1997-04-30,149700.0
1997-03-31,149300.0
1997-02-28,147600.0
1997-01-31,146300.0
1996-12-31,145500.0
1996-11-30,144500.0
1996-10-31,144600.0
1996-09-30,144600.0
1996-08-31,143400.0
1996-07-31,143300.0
1996-06-30,143900.0
1996-05-31,143100.0
1996-04-30,143600.0
