Date,Value
2015-09-30,191500.0
2015-08-31,176700.0
2015-07-31,175900.0
2015-06-30,175900.0
2015-05-31,176700.0
2015-04-30,174900.0
2015-03-31,171900.0
2015-02-28,168600.0
2015-01-31,165800.0
2014-12-31,166200.0
2014-11-30,166900.0
2014-10-31,165200.0
2014-09-30,163700.0
2014-08-31,162000.0
2014-07-31,156800.0
2014-06-30,152200.0
2014-05-31,151100.0
2014-04-30,148300.0
2014-03-31,143500.0
2014-02-28,140800.0
2014-01-31,140400.0
2013-12-31,139400.0
2013-11-30,139100.0
2013-10-31,140300.0
2013-09-30,140600.0
2013-08-31,139600.0
2013-07-31,138700.0
2013-06-30,137400.0
2013-05-31,135800.0
2013-04-30,135000.0
2013-03-31,134700.0
2013-02-28,133200.0
2013-01-31,131100.0
2012-12-31,129000.0
2012-11-30,127400.0
2012-10-31,126900.0
2012-09-30,127200.0
2012-08-31,127800.0
2012-07-31,129600.0
2012-06-30,132700.0
2012-05-31,135200.0
2012-04-30,137300.0
2012-03-31,139300.0
2012-02-29,140200.0
2012-01-31,140500.0
2011-12-31,141300.0
2011-11-30,142800.0
2011-10-31,143900.0
2011-09-30,144500.0
2011-08-31,144100.0
2011-07-31,145000.0
2011-06-30,147100.0
2011-05-31,149500.0
2011-04-30,151800.0
2011-03-31,154500.0
2011-02-28,157600.0
2011-01-31,160400.0
2010-12-31,160700.0
2010-11-30,159300.0
2010-10-31,159100.0
2010-09-30,160100.0
2010-08-31,162700.0
2010-07-31,165200.0
2010-06-30,167200.0
2010-05-31,169700.0
2010-04-30,172700.0
2010-03-31,175400.0
2010-02-28,178400.0
2010-01-31,180500.0
2009-12-31,182800.0
2009-11-30,186200.0
2009-10-31,188200.0
2009-09-30,187300.0
2009-08-31,185800.0
2009-07-31,185700.0
2009-06-30,186000.0
2009-05-31,184700.0
2009-04-30,184200.0
2009-03-31,185500.0
2009-02-28,187700.0
2009-01-31,190900.0
2008-12-31,195700.0
2008-11-30,199800.0
2008-10-31,202500.0
2008-09-30,204900.0
2008-08-31,206900.0
2008-07-31,209300.0
2008-06-30,212200.0
2008-05-31,214100.0
2008-04-30,214600.0
2008-03-31,214700.0
2008-02-29,215400.0
2008-01-31,216300.0
2007-12-31,217800.0
2007-11-30,218700.0
2007-10-31,219400.0
2007-09-30,221200.0
2007-08-31,223800.0
2007-07-31,225500.0
2007-06-30,226700.0
2007-05-31,228500.0
2007-04-30,230300.0
2007-03-31,231400.0
2007-02-28,231300.0
2007-01-31,229900.0
2006-12-31,228000.0
2006-11-30,227600.0
2006-10-31,227900.0
2006-09-30,226800.0
2006-08-31,224100.0
2006-07-31,219600.0
2006-06-30,214100.0
2006-05-31,209500.0
2006-04-30,206600.0
2006-03-31,204400.0
2006-02-28,202100.0
2006-01-31,199400.0
2005-12-31,196700.0
2005-11-30,193500.0
2005-10-31,190700.0
2005-09-30,189500.0
2005-08-31,189700.0
2005-07-31,190000.0
2005-06-30,188700.0
2005-05-31,187000.0
2005-04-30,184400.0
2005-03-31,181800.0
2005-02-28,180600.0
2005-01-31,180000.0
2004-12-31,177700.0
2004-11-30,174700.0
2004-10-31,172200.0
2004-09-30,170700.0
2004-08-31,169500.0
2004-07-31,167500.0
2004-06-30,165100.0
2004-05-31,163100.0
2004-04-30,161800.0
2004-03-31,160200.0
2004-02-29,157500.0
2004-01-31,155800.0
2003-12-31,155000.0
2003-11-30,154500.0
2003-10-31,153900.0
2003-09-30,153700.0
2003-08-31,153400.0
2003-07-31,152900.0
2003-06-30,152400.0
2003-05-31,152400.0
2003-04-30,152100.0
2003-03-31,150900.0
2003-02-28,149700.0
2003-01-31,148800.0
2002-12-31,146800.0
2002-11-30,145100.0
2002-10-31,144500.0
2002-09-30,143800.0
2002-08-31,141700.0
2002-07-31,140300.0
2002-06-30,139900.0
2002-05-31,139400.0
2002-04-30,138300.0
2002-03-31,137300.0
2002-02-28,136500.0
2002-01-31,134900.0
2001-12-31,133900.0
2001-11-30,133600.0
2001-10-31,133500.0
2001-09-30,132700.0
2001-08-31,132200.0
2001-07-31,132300.0
2001-06-30,133200.0
2001-05-31,133900.0
2001-04-30,135100.0
2001-03-31,136300.0
2001-02-28,135900.0
2001-01-31,134700.0
2000-12-31,134300.0
2000-11-30,134000.0
2000-10-31,133500.0
2000-09-30,133000.0
2000-08-31,132900.0
2000-07-31,132300.0
2000-06-30,131300.0
2000-05-31,129900.0
2000-04-30,128000.0
2000-03-31,126400.0
2000-02-29,125700.0
2000-01-31,125500.0
1999-12-31,125500.0
1999-11-30,126400.0
1999-10-31,126200.0
1999-09-30,124000.0
1999-08-31,121900.0
1999-07-31,121200.0
1999-06-30,121300.0
1999-05-31,121700.0
1999-04-30,121900.0
1999-03-31,121300.0
1999-02-28,120700.0
1999-01-31,120000.0
1998-12-31,119900.0
1998-11-30,119600.0
1998-10-31,118200.0
1998-09-30,116100.0
1998-08-31,115100.0
1998-07-31,114400.0
1998-06-30,113300.0
1998-05-31,111400.0
1998-04-30,109800.0
1998-03-31,109300.0
1998-02-28,109300.0
1998-01-31,109800.0
1997-12-31,110000.0
1997-11-30,109000.0
1997-10-31,107600.0
1997-09-30,108300.0
1997-08-31,108400.0
1997-07-31,107300.0
1997-06-30,105900.0
1997-05-31,104400.0
1997-04-30,103600.0
1997-03-31,104200.0
1997-02-28,104900.0
1997-01-31,104800.0
1996-12-31,104100.0
1996-11-30,102600.0
1996-10-31,101300.0
1996-09-30,100400.0
1996-08-31,100000.0
1996-07-31,100200.0
1996-06-30,100500.0
1996-05-31,101000.0
1996-04-30,101300.0
