Date,Value
2015-09-30,0.902
2015-08-31,0.898
2015-07-31,0.89
2015-06-30,0.886
2015-05-31,0.886
2015-04-30,0.886
2015-03-31,0.886
2015-02-28,0.882
2015-01-31,0.882
2014-12-31,0.882
2014-11-30,0.88
2014-10-31,0.878
2014-09-30,0.876
2014-08-31,0.874
2014-07-31,0.872
2014-06-30,0.874
2014-05-31,0.876
2014-04-30,0.878
2014-03-31,0.88
2014-02-28,0.876
2014-01-31,0.872
2013-12-31,0.87
2013-11-30,0.872
2013-10-31,0.868
2013-09-30,0.864
2013-08-31,0.856
2013-07-31,0.848
2013-06-30,0.842
2013-05-31,0.842
2013-04-30,0.842
2013-03-31,0.842
2013-02-28,0.84
2013-01-31,0.838
2012-12-31,0.836
2012-11-30,0.834
2012-10-31,0.834
2012-09-30,0.834
2012-08-31,0.834
2012-07-31,0.834
2012-06-30,0.834
2012-05-31,0.83
2012-04-30,0.826
2012-03-31,0.822
2012-02-29,0.82
2012-01-31,0.82
2011-12-31,0.824
2011-11-30,0.828
2011-10-31,0.826
2011-09-30,0.826
2011-08-31,0.832
2011-07-31,0.84
2011-06-30,0.844
2011-05-31,0.84
2011-04-30,0.836
2011-03-31,0.836
2011-02-28,0.842
2011-01-31,0.846
2010-12-31,0.844
2010-11-30,0.838
