Date,Value
2015-09-30,266800.0
2015-08-31,265900.0
2015-07-31,261100.0
2015-06-30,259500.0
2015-05-31,256400.0
2015-04-30,250400.0
2015-03-31,244800.0
2015-02-28,240900.0
2015-01-31,239800.0
2014-12-31,237900.0
2014-11-30,235400.0
2014-10-31,233300.0
2014-09-30,232100.0
2014-08-31,231400.0
2014-07-31,230200.0
2014-06-30,228800.0
2014-05-31,227200.0
2014-04-30,225800.0
2014-03-31,224400.0
2014-02-28,222900.0
2014-01-31,221700.0
2013-12-31,220400.0
2013-11-30,219000.0
2013-10-31,217200.0
2013-09-30,215300.0
2013-08-31,213500.0
2013-07-31,211500.0
2013-06-30,208600.0
2013-05-31,204600.0
2013-04-30,200500.0
2013-03-31,196300.0
2013-02-28,192600.0
2013-01-31,189800.0
2012-12-31,188200.0
2012-11-30,186400.0
2012-10-31,183900.0
2012-09-30,181300.0
2012-08-31,178200.0
2012-07-31,175000.0
2012-06-30,172500.0
2012-05-31,170800.0
2012-04-30,170000.0
2012-03-31,170000.0
2012-02-29,170300.0
2012-01-31,170500.0
2011-12-31,170900.0
2011-11-30,172000.0
2011-10-31,174000.0
2011-09-30,175800.0
2011-08-31,177200.0
2011-07-31,179500.0
2011-06-30,182400.0
2011-05-31,184600.0
2011-04-30,187100.0
2011-03-31,191100.0
2011-02-28,195300.0
2011-01-31,198600.0
2010-12-31,201600.0
2010-11-30,204200.0
2010-10-31,206300.0
2010-09-30,209200.0
2010-08-31,213700.0
2010-07-31,218100.0
2010-06-30,221700.0
2010-05-31,224000.0
2010-04-30,225400.0
2010-03-31,226200.0
2010-02-28,227200.0
2010-01-31,228900.0
2009-12-31,231300.0
2009-11-30,232900.0
2009-10-31,234100.0
2009-09-30,236000.0
2009-08-31,238100.0
2009-07-31,240100.0
2009-06-30,242100.0
2009-05-31,244700.0
2009-04-30,248200.0
2009-03-31,252900.0
2009-02-28,257200.0
2009-01-31,259900.0
2008-12-31,262100.0
2008-11-30,265200.0
2008-10-31,268900.0
2008-09-30,272500.0
2008-08-31,275200.0
2008-07-31,278000.0
2008-06-30,281700.0
2008-05-31,286400.0
2008-04-30,288900.0
2008-03-31,289500.0
2008-02-29,291100.0
2008-01-31,294500.0
2007-12-31,297500.0
2007-11-30,300100.0
2007-10-31,302200.0
2007-09-30,303200.0
2007-08-31,303600.0
2007-07-31,303400.0
2007-06-30,302700.0
2007-05-31,301900.0
2007-04-30,301600.0
2007-03-31,301800.0
2007-02-28,301200.0
2007-01-31,299300.0
2006-12-31,296800.0
2006-11-30,294500.0
2006-10-31,291900.0
2006-09-30,288800.0
2006-08-31,285500.0
2006-07-31,282700.0
2006-06-30,280100.0
2006-05-31,276500.0
2006-04-30,272400.0
2006-03-31,268600.0
2006-02-28,264400.0
2006-01-31,259900.0
2005-12-31,256500.0
2005-11-30,254100.0
2005-10-31,251600.0
2005-09-30,248600.0
2005-08-31,245100.0
2005-07-31,241300.0
2005-06-30,237400.0
2005-05-31,234100.0
2005-04-30,231600.0
2005-03-31,229600.0
2005-02-28,227600.0
2005-01-31,225400.0
2004-12-31,222700.0
2004-11-30,219400.0
2004-10-31,216600.0
2004-09-30,214500.0
2004-08-31,212500.0
2004-07-31,210200.0
2004-06-30,207900.0
2004-05-31,205800.0
2004-04-30,203700.0
2004-03-31,201500.0
2004-02-29,199500.0
2004-01-31,197800.0
2003-12-31,196300.0
2003-11-30,194600.0
2003-10-31,193300.0
2003-09-30,192000.0
2003-08-31,191000.0
2003-07-31,190100.0
2003-06-30,189700.0
2003-05-31,189500.0
2003-04-30,189100.0
2003-03-31,188000.0
2003-02-28,187200.0
2003-01-31,186400.0
2002-12-31,185100.0
2002-11-30,183400.0
2002-10-31,181900.0
2002-09-30,180900.0
2002-08-31,180400.0
2002-07-31,180300.0
2002-06-30,180000.0
2002-05-31,179700.0
2002-04-30,179500.0
2002-03-31,179100.0
2002-02-28,177800.0
2002-01-31,176500.0
2001-12-31,175900.0
2001-11-30,175500.0
2001-10-31,174900.0
2001-09-30,174300.0
2001-08-31,173400.0
2001-07-31,172000.0
2001-06-30,170500.0
2001-05-31,169300.0
2001-04-30,168800.0
2001-03-31,168600.0
2001-02-28,168300.0
2001-01-31,167600.0
2000-12-31,166900.0
2000-11-30,166500.0
2000-10-31,165800.0
2000-09-30,164700.0
2000-08-31,163700.0
2000-07-31,163100.0
2000-06-30,162000.0
2000-05-31,159900.0
2000-04-30,157300.0
2000-03-31,155300.0
2000-02-29,153800.0
2000-01-31,152500.0
1999-12-31,151600.0
1999-11-30,150500.0
1999-10-31,149200.0
1999-09-30,147900.0
1999-08-31,146800.0
1999-07-31,145300.0
1999-06-30,144100.0
1999-05-31,142800.0
1999-04-30,141300.0
1999-03-31,140100.0
1999-02-28,139300.0
1999-01-31,138000.0
1998-12-31,136800.0
1998-11-30,136200.0
1998-10-31,135700.0
1998-09-30,134300.0
1998-08-31,132800.0
1998-07-31,131300.0
1998-06-30,130100.0
1998-05-31,129200.0
1998-04-30,128400.0
1998-03-31,127300.0
1998-02-28,126200.0
1998-01-31,125200.0
1997-12-31,124000.0
1997-11-30,122700.0
1997-10-31,121600.0
1997-09-30,120600.0
1997-08-31,119800.0
1997-07-31,119100.0
1997-06-30,118500.0
1997-05-31,117800.0
1997-04-30,117000.0
1997-03-31,116000.0
1997-02-28,115100.0
1997-01-31,114500.0
1996-12-31,113700.0
1996-11-30,112800.0
1996-10-31,112300.0
1996-09-30,112400.0
1996-08-31,112500.0
1996-07-31,112900.0
1996-06-30,113300.0
1996-05-31,113500.0
1996-04-30,113800.0
