Date,Value
2015-02-28,189000.0
2015-01-31,169900.0
2014-12-31,175000.0
2014-11-30,174900.0
2014-10-31,174900.0
2014-09-30,175000.0
2014-08-31,175000.0
2014-07-31,170000.0
2014-06-30,174900.0
2014-05-31,175900.0
2014-04-30,177400.0
2014-03-31,199900.0
2014-02-28,200000.0
2014-01-31,215000.0
2013-12-31,199900.0
2013-11-30,199900.0
2013-10-31,189000.0
2013-09-30,182599.0
2013-08-31,182599.0
2013-07-31,189000.0
2013-06-30,179000.0
2013-05-31,182599.0
2013-04-30,173000.0
2013-03-31,164950.0
2013-02-28,164950.0
2013-01-31,160000.0
2012-12-31,164950.0
2012-11-30,164950.0
2012-10-31,150000.0
2012-09-30,175000.0
2012-08-31,179000.0
2012-07-31,169950.0
2012-06-30,160000.0
2012-05-31,179900.0
2012-04-30,165000.0
2012-03-31,175000.0
2012-02-29,175000.0
2012-01-31,160000.0
2011-12-31,159000.0
2011-11-30,174999.0
2011-10-31,175000.0
2011-09-30,174950.0
2011-08-31,159950.0
2011-07-31,156750.0
2011-06-30,165000.0
2011-05-31,175000.0
2011-04-30,159900.0
2011-03-31,152000.0
2011-02-28,159900.0
2011-01-31,175000.0
2010-12-31,199000.0
2010-11-30,205000.0
2010-10-31,205000.0
2010-09-30,199999.0
2010-08-31,199999.0
2010-07-31,205000.0
2010-06-30,219000.0
2010-05-31,200000.0
2010-04-30,199950.0
2010-03-31,199950.0
2010-02-28,205000.0
2010-01-31,239000.0
2009-12-31,200000.0
2009-11-30,200000.0
2009-10-31,225000.0
2009-09-30,219000.0
2009-08-31,259500.0
2009-07-31,239950.0
2009-06-30,269000.0
2009-05-31,279950.0
2009-04-30,259950.0
2009-03-31,259950.0
2009-02-28,263000.0
2009-01-31,259950.0
2008-12-31,259950.0
2008-11-30,239950.0
2008-10-31,254000.0
