Date,Value
2015-09-30,401950.0
2015-07-31,380935.0
2015-06-30,373350.0
2015-05-31,369615.0
2015-04-30,398050.0
2015-03-31,364250.0
2015-02-28,331850.0
2015-01-31,332408.1
2014-12-31,346368.9
2014-11-30,346677.0
2014-10-31,364494.35
2014-09-30,374620.15
2014-08-31,390014.5
2014-07-31,364250.0
2014-06-30,348825.0
2014-05-31,365875.0
2014-04-30,339650.0
2014-03-31,316647.0588
2014-02-28,285923.0769
2013-12-31,334900.0
2013-11-30,366775.0
2013-10-31,366075.0
2013-09-30,375000.0
2013-08-31,352925.0
2013-07-31,387450.0
2013-06-30,370625.0
2013-05-31,346250.0
2013-04-30,291750.0
2013-03-31,264250.0
2013-02-28,307225.0
2013-01-31,354767.5
2012-12-31,369982.5
2012-11-30,362725.0
2012-10-31,325617.5
2012-09-30,335357.5
2012-08-31,391975.0
2012-07-31,385500.0
2012-06-30,332200.0
2012-05-31,335585.0
2012-04-30,377040.0
2012-03-31,327475.0
2012-02-29,311153.8462
2011-12-31,341375.0
2011-11-30,353500.0
2011-10-31,358250.0
2011-09-30,342347.5
2011-08-31,357727.5
2011-07-31,357325.0
2011-06-30,371000.0
2011-05-31,363500.0
2011-04-30,330000.0
2011-03-31,330400.0
2011-02-28,337600.0
2011-01-31,357250.0
2010-12-31,353000.0
2010-11-30,367000.0
2010-10-31,327140.0
2010-09-30,374900.0
2010-08-31,373500.0
2010-07-31,372750.0
2010-06-30,351800.0
2010-05-31,394050.0
2010-04-30,385250.0
2010-03-31,387050.0
2010-02-28,333100.0
2010-01-31,352100.0
2009-12-31,356650.0
2009-11-30,365250.0
2009-10-31,389235.0
2009-09-30,404645.0
2009-08-31,412120.0
2009-07-31,382200.0
2009-06-30,356000.0
2009-05-31,347400.0
2009-04-30,340882.3529
2009-03-31,315000.0
2008-12-31,415438.4615
2008-10-31,364700.0
2008-09-30,394000.0
2008-08-31,424625.0
2008-07-31,384000.0
2008-06-30,395375.0
2008-05-31,407750.0
2008-04-30,392750.0
2008-03-31,364500.0
2008-02-29,359000.0
2008-01-31,366250.0
2007-12-31,384500.0
2007-11-30,368750.0
2007-10-31,370500.0
2007-09-30,385500.0
2007-08-31,388000.0
2007-07-31,381499.25
2007-06-30,393048.25
2007-05-31,399797.5
2007-04-30,406650.0
2007-03-31,414300.0
2007-02-28,385700.0
2007-01-31,359400.0
2006-12-31,368550.0
2006-11-30,386800.0
2006-10-31,383175.0
2006-09-30,426675.0
2006-08-31,426150.0
2006-07-31,425975.0
2006-06-30,396775.0
2006-05-31,386700.0
2006-04-30,362800.0
2006-03-31,380142.5
2006-02-28,379132.5
2006-01-31,355175.0
2005-12-31,364700.0
2005-11-30,382000.0
2005-10-31,366500.0
2005-09-30,373225.0
2005-08-31,362825.0
2005-07-31,348100.0
2005-06-30,325700.0
2005-05-31,321950.0
2005-04-30,330475.0
2005-03-31,335375.0
2005-02-28,332600.0
2005-01-31,294500.0
2004-12-31,281800.0
2004-11-30,293431.25
2004-10-31,285456.25
2004-09-30,289688.6
2004-08-31,323921.3
2004-07-31,329169.6
2004-06-30,323493.0
2004-05-31,306105.0
2004-04-30,283620.0
2004-03-31,275150.0
2004-02-29,281450.0
2004-01-31,271125.0
2003-12-31,257500.0
2003-11-30,275384.3
2003-10-31,283663.9
2003-09-30,276605.3
2003-08-31,266617.3
2003-07-31,272718.9
2003-06-30,255471.3
2003-05-31,235904.0
2003-04-30,223900.0
2003-03-31,237600.0
2003-02-28,238187.5
2003-01-31,246982.5
2002-12-31,252268.25
2002-11-30,257464.25
2002-10-31,256552.5
2002-09-30,250100.0
2002-08-31,255241.25
2002-07-31,252571.25
2002-06-30,239537.5
2002-05-31,227160.0
2002-04-30,239235.75
2002-03-31,238831.75
2002-02-28,228552.5
2002-01-31,229840.0
2001-12-31,231631.55
2001-11-30,229146.45
2001-10-31,223474.0
2001-09-30,204865.0
2001-08-31,207217.5
2001-07-31,203582.5
2001-06-30,193462.75
2001-05-31,208779.75
2001-04-30,213742.5
2001-03-31,201181.25
2001-02-28,185548.75
2001-01-31,184620.0
2000-12-31,201034.9
2000-11-30,196465.6
2000-10-31,198515.5
2000-09-30,225725.0
2000-08-31,220750.0
2000-07-31,213604.85
2000-06-30,203294.65
2000-05-31,222149.5
2000-04-30,215950.0
2000-03-31,218135.0
2000-02-29,210515.0
2000-01-31,225075.0
1999-12-31,202202.45
1999-11-30,178814.05
1999-10-31,176416.5
1999-09-30,187175.0
1999-08-31,199400.0
1999-07-31,212850.0
1999-06-30,194742.5
1999-05-31,182075.0
1999-04-30,186950.0
1999-03-31,187120.0
1999-02-28,197787.5
1999-01-31,195772.95
1998-12-31,187046.05
1998-11-30,185269.0
1998-10-31,188415.0
1998-09-30,187039.6
1998-08-31,182709.9
1998-07-31,177557.0
1998-06-30,182307.5
1998-05-31,183854.25
1998-04-30,178868.25
1998-03-31,179647.5
1998-02-28,174100.0
1998-01-31,178200.0
1997-12-31,172730.0
1997-11-30,176745.0
1997-10-31,178175.0
1997-09-30,179992.5
1997-08-31,178525.0
1997-07-31,174828.95
1997-06-30,179275.05
1997-05-31,179096.5
1997-04-30,172210.0
1997-03-31,173615.0
1997-02-28,169705.0
1997-01-31,160795.0
1996-12-31,143050.0
1996-11-30,144850.0
1996-10-31,159035.0
1996-09-30,173465.0
1996-08-31,166100.0
1996-07-31,174150.0
1996-06-30,171525.0
1996-05-31,177075.0
1996-04-30,162250.0
