Date,Value
2015-09-30,286000.0
2015-08-31,280200.0
2015-07-31,278200.0
2015-06-30,276900.0
2015-05-31,274900.0
2015-04-30,271900.0
2015-03-31,271200.0
2015-02-28,269400.0
2015-01-31,267400.0
2014-12-31,266200.0
2014-11-30,265300.0
2014-10-31,264300.0
2014-09-30,264100.0
2014-08-31,264100.0
2014-07-31,263700.0
2014-06-30,263400.0
2014-05-31,263300.0
2014-04-30,263800.0
2014-03-31,264000.0
2014-02-28,263900.0
2014-01-31,262300.0
2013-12-31,259600.0
2013-11-30,257700.0
2013-10-31,257000.0
2013-09-30,255600.0
2013-08-31,253400.0
2013-07-31,250600.0
2013-06-30,247000.0
2013-05-31,243300.0
2013-04-30,240000.0
2013-03-31,236800.0
2013-02-28,234200.0
2013-01-31,232000.0
2012-12-31,229800.0
2012-11-30,227400.0
2012-10-31,225600.0
2012-09-30,224500.0
2012-08-31,223500.0
2012-07-31,221800.0
2012-06-30,220800.0
2012-05-31,220500.0
2012-04-30,221000.0
2012-03-31,222000.0
2012-02-29,223400.0
2012-01-31,224700.0
2011-12-31,226200.0
2011-11-30,227400.0
2011-10-31,227900.0
2011-09-30,228100.0
2011-08-31,229200.0
2011-07-31,231500.0
2011-06-30,234300.0
2011-05-31,237700.0
2011-04-30,240300.0
2011-03-31,241000.0
2011-02-28,242200.0
2011-01-31,244400.0
2010-12-31,246400.0
2010-11-30,248200.0
2010-10-31,250700.0
2010-09-30,253700.0
2010-08-31,257000.0
2010-07-31,259200.0
2010-06-30,261000.0
2010-05-31,261700.0
2010-04-30,262000.0
2010-03-31,262700.0
2010-02-28,263900.0
2010-01-31,265800.0
2009-12-31,268300.0
2009-11-30,269900.0
2009-10-31,270300.0
2009-09-30,270300.0
2009-08-31,270800.0
2009-07-31,273200.0
2009-06-30,276400.0
2009-05-31,278700.0
2009-04-30,280300.0
2009-03-31,282500.0
2009-02-28,284700.0
2009-01-31,286100.0
2008-12-31,287900.0
2008-11-30,291700.0
2008-10-31,296000.0
2008-09-30,299200.0
2008-08-31,301800.0
2008-07-31,304300.0
2008-06-30,305400.0
2008-05-31,305700.0
2008-04-30,306400.0
2008-03-31,308300.0
2008-02-29,310700.0
2008-01-31,313200.0
2007-12-31,315400.0
2007-11-30,317300.0
2007-10-31,319400.0
2007-09-30,322200.0
2007-08-31,324500.0
2007-07-31,325900.0
2007-06-30,327400.0
2007-05-31,329200.0
2007-04-30,330100.0
2007-03-31,330500.0
2007-02-28,330400.0
2007-01-31,330200.0
2006-12-31,329400.0
2006-11-30,328000.0
2006-10-31,326400.0
2006-09-30,324100.0
2006-08-31,320500.0
2006-07-31,316000.0
2006-06-30,312200.0
2006-05-31,309700.0
2006-04-30,307600.0
2006-03-31,304800.0
2006-02-28,301300.0
2006-01-31,297700.0
2005-12-31,294200.0
2005-11-30,290300.0
2005-10-31,286000.0
2005-09-30,281700.0
2005-08-31,277500.0
2005-07-31,273400.0
2005-06-30,269700.0
2005-05-31,265800.0
2005-04-30,262200.0
2005-03-31,258500.0
2005-02-28,254900.0
2005-01-31,251200.0
2004-12-31,247800.0
2004-11-30,243700.0
2004-10-31,239100.0
2004-09-30,235500.0
2004-08-31,233200.0
2004-07-31,230400.0
2004-06-30,226400.0
2004-05-31,222500.0
2004-04-30,218900.0
2004-03-31,215800.0
2004-02-29,213500.0
2004-01-31,211700.0
2003-12-31,210100.0
2003-11-30,208900.0
2003-10-31,208200.0
2003-09-30,207200.0
2003-08-31,205800.0
2003-07-31,204800.0
2003-06-30,204100.0
2003-05-31,202800.0
2003-04-30,201300.0
2003-03-31,199900.0
2003-02-28,198800.0
2003-01-31,197300.0
2002-12-31,195600.0
2002-11-30,194600.0
2002-10-31,194100.0
2002-09-30,193000.0
2002-08-31,192500.0
2002-07-31,192800.0
2002-06-30,193400.0
2002-05-31,193800.0
2002-04-30,194300.0
2002-03-31,194800.0
2002-02-28,194700.0
2002-01-31,193600.0
2001-12-31,192500.0
2001-11-30,191900.0
2001-10-31,191400.0
2001-09-30,191000.0
2001-08-31,190500.0
2001-07-31,189600.0
2001-06-30,188700.0
2001-05-31,188000.0
2001-04-30,187400.0
2001-03-31,186700.0
2001-02-28,186100.0
2001-01-31,185700.0
2000-12-31,184900.0
2000-11-30,183700.0
2000-10-31,183500.0
2000-09-30,184000.0
2000-08-31,183700.0
2000-07-31,182500.0
2000-06-30,181200.0
2000-05-31,180900.0
2000-04-30,180900.0
2000-03-31,180400.0
2000-02-29,179500.0
2000-01-31,178900.0
1999-12-31,178300.0
1999-11-30,177800.0
1999-10-31,176200.0
1999-09-30,174200.0
1999-08-31,172800.0
1999-07-31,171900.0
1999-06-30,170600.0
1999-05-31,168800.0
1999-04-30,167100.0
1999-03-31,165700.0
1999-02-28,164400.0
1999-01-31,163300.0
1998-12-31,162500.0
1998-11-30,161400.0
1998-10-31,160200.0
1998-09-30,159000.0
1998-08-31,157900.0
1998-07-31,157100.0
1998-06-30,156700.0
1998-05-31,156600.0
1998-04-30,156400.0
1998-03-31,156100.0
1998-02-28,155700.0
1998-01-31,155400.0
1997-12-31,155200.0
1997-11-30,154600.0
1997-10-31,153800.0
1997-09-30,152900.0
1997-08-31,151800.0
1997-07-31,150900.0
1997-06-30,150200.0
1997-05-31,149100.0
1997-04-30,147700.0
1997-03-31,146200.0
1997-02-28,144500.0
1997-01-31,143200.0
1996-12-31,142100.0
1996-11-30,141200.0
1996-10-31,140100.0
1996-09-30,139100.0
1996-08-31,138100.0
1996-07-31,137500.0
1996-06-30,137400.0
1996-05-31,137500.0
1996-04-30,137300.0
