Date,Value
2015-09-30,162000.0
2015-08-31,158300.0
2015-07-31,159300.0
2015-06-30,159800.0
2015-05-31,160200.0
2015-04-30,160400.0
2015-03-31,159100.0
2015-02-28,157000.0
2015-01-31,154500.0
2014-12-31,154500.0
2014-11-30,156500.0
2014-10-31,157100.0
2014-09-30,155000.0
2014-08-31,151200.0
2014-07-31,147200.0
2014-06-30,145800.0
2014-05-31,147200.0
2014-04-30,148700.0
2014-03-31,150100.0
2014-02-28,151800.0
2014-01-31,152900.0
2013-12-31,151500.0
2013-11-30,149200.0
2013-10-31,146700.0
2013-09-30,143500.0
2013-08-31,139100.0
2013-07-31,135200.0
2013-06-30,132500.0
2013-05-31,130400.0
2013-04-30,128500.0
2013-03-31,126600.0
2013-02-28,125400.0
2013-01-31,125000.0
2012-12-31,124900.0
2012-11-30,125000.0
2012-10-31,126500.0
2012-09-30,129400.0
2012-08-31,132200.0
2012-07-31,134000.0
2012-06-30,134200.0
2012-05-31,133000.0
2012-04-30,132100.0
2012-03-31,133100.0
2012-02-29,134400.0
2012-01-31,135600.0
2011-12-31,136700.0
2011-11-30,137500.0
2011-10-31,137400.0
2011-09-30,137000.0
2011-08-31,136800.0
2011-07-31,138100.0
2011-06-30,140900.0
2011-05-31,144400.0
2011-04-30,147600.0
2011-03-31,148900.0
2011-02-28,148900.0
2011-01-31,149300.0
2010-12-31,150500.0
2010-11-30,151500.0
2010-10-31,152800.0
2010-09-30,154400.0
2010-08-31,156800.0
2010-07-31,158900.0
2010-06-30,159600.0
2010-05-31,160100.0
2010-04-30,161400.0
2010-03-31,161900.0
2010-02-28,162500.0
2010-01-31,164200.0
2009-12-31,167700.0
2009-11-30,170800.0
2009-10-31,173100.0
2009-09-30,175400.0
2009-08-31,178700.0
2009-07-31,182500.0
2009-06-30,186700.0
2009-05-31,189900.0
2009-04-30,191600.0
2009-03-31,193900.0
2009-02-28,197200.0
2009-01-31,199700.0
2008-12-31,200600.0
2008-11-30,202100.0
2008-10-31,204700.0
2008-09-30,206600.0
2008-08-31,208100.0
2008-07-31,210200.0
2008-06-30,210900.0
2008-05-31,210600.0
2008-04-30,211100.0
2008-03-31,212400.0
2008-02-29,213200.0
2008-01-31,213800.0
2007-12-31,213900.0
2007-11-30,214100.0
2007-10-31,214400.0
2007-09-30,214600.0
2007-08-31,214100.0
2007-07-31,213200.0
2007-06-30,211800.0
2007-05-31,211100.0
2007-04-30,211300.0
2007-03-31,211500.0
2007-02-28,210600.0
2007-01-31,209800.0
2006-12-31,209900.0
2006-11-30,208600.0
2006-10-31,205900.0
2006-09-30,204400.0
2006-08-31,204300.0
2006-07-31,202800.0
2006-06-30,200500.0
2006-05-31,199000.0
2006-04-30,197500.0
2006-03-31,196200.0
2006-02-28,194700.0
2006-01-31,193100.0
2005-12-31,190500.0
2005-11-30,187000.0
2005-10-31,183800.0
2005-09-30,181300.0
2005-08-31,177700.0
2005-07-31,173700.0
2005-06-30,172000.0
2005-05-31,170900.0
2005-04-30,168500.0
2005-03-31,165600.0
2005-02-28,163900.0
2005-01-31,162000.0
2004-12-31,159700.0
2004-11-30,158200.0
2004-10-31,157400.0
2004-09-30,156800.0
2004-08-31,156100.0
2004-07-31,155400.0
2004-06-30,154600.0
2004-05-31,153200.0
2004-04-30,151100.0
2004-03-31,149000.0
2004-02-29,147600.0
2004-01-31,146200.0
2003-12-31,145000.0
2003-11-30,145300.0
2003-10-31,146100.0
2003-09-30,145300.0
2003-08-31,144300.0
2003-07-31,143900.0
2003-06-30,142900.0
2003-05-31,140900.0
2003-04-30,139100.0
2003-03-31,138100.0
2003-02-28,137500.0
2003-01-31,136700.0
2002-12-31,135100.0
2002-11-30,133700.0
2002-10-31,132800.0
2002-09-30,132700.0
2002-08-31,132500.0
2002-07-31,132000.0
2002-06-30,131700.0
2002-05-31,132400.0
2002-04-30,134100.0
2002-03-31,135100.0
2002-02-28,134100.0
2002-01-31,132300.0
2001-12-31,131400.0
2001-11-30,130400.0
2001-10-31,129100.0
2001-09-30,127700.0
2001-08-31,126800.0
2001-07-31,126800.0
2001-06-30,126500.0
2001-05-31,125300.0
2001-04-30,124800.0
2001-03-31,124600.0
2001-02-28,124400.0
2001-01-31,125300.0
2000-12-31,126700.0
2000-11-30,127000.0
2000-10-31,127200.0
2000-09-30,126700.0
2000-08-31,126200.0
2000-07-31,124700.0
2000-06-30,123100.0
2000-05-31,122200.0
2000-04-30,120600.0
2000-03-31,118500.0
2000-02-29,117800.0
2000-01-31,117700.0
1999-12-31,117600.0
1999-11-30,118500.0
1999-10-31,117300.0
1999-09-30,114700.0
1999-08-31,113900.0
1999-07-31,114200.0
1999-06-30,114400.0
1999-05-31,114100.0
1999-04-30,113700.0
1999-03-31,113400.0
1999-02-28,112700.0
1999-01-31,111500.0
1998-12-31,110300.0
1998-11-30,108500.0
1998-10-31,107000.0
1998-09-30,107000.0
1998-08-31,106300.0
1998-07-31,104900.0
1998-06-30,103700.0
1998-05-31,103200.0
1998-04-30,102400.0
1998-03-31,102000.0
1998-02-28,101100.0
1998-01-31,100600.0
1997-12-31,99800.0
1997-11-30,98700.0
1997-10-31,98400.0
1997-09-30,99500.0
1997-08-31,99800.0
1997-07-31,99200.0
1997-06-30,98900.0
1997-05-31,98700.0
1997-04-30,98300.0
1997-03-31,97900.0
1997-02-28,98000.0
1997-01-31,98000.0
1996-12-31,97600.0
1996-11-30,97100.0
1996-10-31,97000.0
1996-09-30,96600.0
1996-08-31,96000.0
1996-07-31,96000.0
1996-06-30,96300.0
1996-05-31,96700.0
1996-04-30,97500.0
