Date,Value
2015-05-31,1195.0
2015-04-30,1200.0
2015-02-28,1400.0
2015-01-31,1500.0
2014-12-31,1600.0
2014-11-30,1300.0
2014-10-31,1450.0
2013-04-30,900.0
2013-03-31,950.0
2013-02-28,900.0
2013-01-31,875.0
2012-12-31,1200.0
2012-11-30,1095.0
2012-01-31,1095.0
2011-12-31,1095.0
2011-11-30,1095.0
2011-10-31,1095.0
2011-09-30,1095.0
