Date,Value
2015-06-30,1395.0
2015-05-31,1375.0
2015-04-30,1250.0
2015-03-31,1275.0
2015-02-28,1150.0
2015-01-31,1100.0
2014-12-31,1100.0
2014-11-30,1455.0
2014-10-31,1250.0
2014-09-30,1330.0
2014-08-31,1150.0
2014-07-31,1265.0
2014-06-30,1495.0
2014-05-31,1295.0
2014-04-30,1295.0
2014-03-31,1300.0
2014-02-28,1000.0
2014-01-31,1150.0
2013-12-31,1250.0
2013-11-30,1350.0
2013-10-31,1025.0
2013-09-30,1025.0
2013-08-31,995.0
2013-07-31,995.0
2013-06-30,1025.0
2013-05-31,1025.0
2013-04-30,975.0
2013-03-31,1025.0
2013-02-28,969.0
2013-01-31,999.0
2012-12-31,999.0
2012-11-30,969.0
2012-10-31,989.0
2012-09-30,969.0
2012-08-31,975.0
2012-07-31,999.0
2012-06-30,969.0
2012-05-31,969.0
2012-04-30,900.0
2012-03-31,950.0
2012-02-29,950.0
2012-01-31,899.0
2011-12-31,895.0
2011-11-30,940.0
2011-10-31,999.0
2011-09-30,1125.0
2011-08-31,1150.0
2011-07-31,1185.0
2011-06-30,1150.0
2011-05-31,1125.0
2011-04-30,975.0
2011-03-31,1045.0
2011-02-28,1025.0
2011-01-31,960.0
2010-12-31,999.0
2010-11-30,999.0
2010-10-31,999.0
2010-09-30,999.0
2010-08-31,999.0
