Date,Value
2015-09-30,1.588
2015-08-31,1.588
2015-07-31,1.558
2015-06-30,1.544
2015-05-31,1.534
2015-04-30,1.52
2015-03-31,1.506
2015-02-28,1.492
2015-01-31,1.482
2014-12-31,1.474
2014-11-30,1.47
2014-10-31,1.47
2014-09-30,1.462
2014-08-31,1.45
2014-07-31,1.428
2014-06-30,1.404
2014-05-31,1.388
2014-04-30,1.376
2014-03-31,1.376
2014-02-28,1.378
2014-01-31,1.37
2013-12-31,1.362
2013-11-30,1.344
2013-10-31,1.33
2013-09-30,1.32
2013-08-31,1.31
2013-07-31,1.308
2013-06-30,1.308
2013-05-31,1.314
2013-04-30,1.308
2013-03-31,1.298
2013-02-28,1.284
2013-01-31,1.274
2012-12-31,1.266
2012-11-30,1.262
2012-10-31,1.268
2012-09-30,1.272
2012-08-31,1.27
2012-07-31,1.264
2012-06-30,1.258
2012-05-31,1.248
2012-04-30,1.232
2012-03-31,1.222
2012-02-29,1.222
2012-01-31,1.216
2011-12-31,1.206
2011-11-30,1.19
2011-10-31,1.178
2011-09-30,1.162
2011-08-31,1.156
2011-07-31,1.158
2011-06-30,1.158
2011-05-31,1.152
2011-04-30,1.146
2011-03-31,1.142
2011-02-28,1.134
2011-01-31,1.13
2010-12-31,1.13
2010-11-30,1.136
