Date,Value
2015-02-28,239000.0
2015-01-31,235000.0
2014-12-31,229000.0
2014-11-30,219950.0
2014-10-31,224950.0
2014-09-30,226950.0
2014-08-31,226950.0
2014-07-31,216000.0
2014-06-30,229950.0
2014-05-31,215000.0
2014-04-30,219900.0
2014-03-31,214950.0
2014-02-28,209700.0
2014-01-31,208000.0
2013-12-31,208000.0
2013-11-30,199950.0
2013-10-31,199996.0
2013-09-30,199900.0
2013-08-31,200000.0
2013-07-31,210000.0
2013-06-30,210000.0
2013-05-31,199950.0
2013-04-30,185000.0
2013-03-31,174950.0
2013-02-28,169000.0
2013-01-31,164950.0
2012-12-31,165000.0
2012-11-30,167000.0
2012-10-31,178000.0
2012-09-30,175000.0
2012-08-31,175000.0
2012-07-31,175900.0
2012-06-30,170000.0
2012-05-31,165000.0
2012-04-30,150000.0
2012-03-31,150000.0
2012-02-29,150000.0
2012-01-31,150000.0
2011-12-31,149500.0
2011-11-30,149950.0
2011-10-31,150000.0
2011-09-30,153200.0
2011-08-31,165000.0
2011-07-31,154950.0
2011-06-30,156000.0
2011-05-31,152500.0
2011-04-30,163000.0
2011-03-31,170000.0
2011-02-28,170000.0
2011-01-31,175000.0
2010-12-31,185000.0
2010-11-30,188000.0
2010-10-31,189900.0
2010-09-30,199950.0
2010-08-31,199999.0
2010-07-31,199950.0
2010-06-30,200000.0
2010-05-31,202900.0
2010-04-30,209000.0
2010-03-31,200000.0
2010-02-28,200000.0
2010-01-31,210000.0
2009-12-31,210000.0
2009-11-30,220000.0
2009-10-31,234999.0
2009-09-30,239000.0
2009-08-31,239950.0
2009-07-31,235000.0
2009-06-30,233000.0
2009-05-31,229000.0
2009-04-30,229000.0
2009-03-31,229950.0
2009-02-28,238900.0
2009-01-31,247000.0
2008-12-31,260000.0
2008-11-30,279000.0
2008-10-31,285000.0
