Date,Value
2014-12-31,150000.0
2014-11-30,162250.0
2014-10-31,365000.0
2014-09-30,339000.0
2014-08-31,339000.0
2014-07-31,325000.0
2014-06-30,529000.0
2014-05-31,229000.0
2013-10-31,239000.0
2013-09-30,239000.0
2013-08-31,239000.0
2013-07-31,239500.0
2013-06-30,249900.0
2013-05-31,249900.0
2013-04-30,295000.0
2013-03-31,187500.0
2012-12-31,250000.0
2012-11-30,280000.0
2012-10-31,280000.0
2012-09-30,335000.0
2012-08-31,300000.0
2012-07-31,349900.0
2012-06-30,363000.0
2012-05-31,385000.0
2012-04-30,425000.0
2012-03-31,399950.0
2012-02-29,365000.0
2012-01-31,214000.0
2011-12-31,249900.0
2011-11-30,125000.0
2011-10-31,235000.0
2011-09-30,249900.0
2011-08-31,238207.0
2011-07-31,184950.0
2011-06-30,140000.0
2011-05-31,239000.0
2011-04-30,239000.0
2011-03-31,239000.0
2011-02-28,239000.0
2011-01-31,325000.0
2010-12-31,329000.0
2010-11-30,329000.0
2010-10-31,269950.0
2010-09-30,274900.0
2010-08-31,329000.0
2010-07-31,329000.0
2010-06-30,344000.0
2010-05-31,472500.0
2010-04-30,395000.0
2010-03-31,474950.0
2010-02-28,474950.0
2009-11-30,439000.0
2009-10-31,395000.0
2009-09-30,439000.0
2009-08-31,439000.0
2009-07-31,439000.0
2009-06-30,599900.0
2009-02-28,295000.0
2009-01-31,295000.0
2008-12-31,369500.0
2008-11-30,380000.0
2008-10-31,519000.0
