Date,Value
2015-09-30,248200.0
2015-08-31,247500.0
2015-07-31,245900.0
2015-06-30,240800.0
2015-05-31,238000.0
2015-04-30,236700.0
2015-03-31,236900.0
2015-02-28,237300.0
2015-01-31,236000.0
2014-12-31,233400.0
2014-11-30,233600.0
2014-10-31,236000.0
2014-09-30,237500.0
2014-08-31,238400.0
2014-07-31,239400.0
2014-06-30,239500.0
2014-05-31,238100.0
2014-04-30,237200.0
2014-03-31,237000.0
2014-02-28,235900.0
2014-01-31,234400.0
2013-12-31,234800.0
2013-11-30,233800.0
2013-10-31,231100.0
2013-09-30,230000.0
2013-08-31,231000.0
2013-07-31,230700.0
2013-06-30,229800.0
2013-05-31,229100.0
2013-04-30,228500.0
2013-03-31,227500.0
2013-02-28,227900.0
2013-01-31,229100.0
2012-12-31,229400.0
2012-11-30,230300.0
2012-10-31,232600.0
2012-09-30,234100.0
2012-08-31,233100.0
2012-07-31,231400.0
2012-06-30,230600.0
2012-05-31,230000.0
2012-04-30,229900.0
2012-03-31,230400.0
2012-02-29,229900.0
2012-01-31,228200.0
2011-12-31,227800.0
2011-11-30,228400.0
2011-10-31,228200.0
2011-09-30,227900.0
2011-08-31,230100.0
2011-07-31,234000.0
2011-06-30,236900.0
2011-05-31,239000.0
2011-04-30,240600.0
2011-03-31,241300.0
2011-02-28,241500.0
2011-01-31,243700.0
2010-12-31,247500.0
2010-11-30,251700.0
2010-10-31,256700.0
2010-09-30,261500.0
2010-08-31,264300.0
2010-07-31,264700.0
2010-06-30,264500.0
2010-05-31,265600.0
2010-04-30,266800.0
2010-03-31,267600.0
2010-02-28,268500.0
2010-01-31,267300.0
2009-12-31,264800.0
2009-11-30,263900.0
2009-10-31,264300.0
2009-09-30,265700.0
2009-08-31,268100.0
2009-07-31,269400.0
2009-06-30,270600.0
2009-05-31,272200.0
2009-04-30,273300.0
2009-03-31,275500.0
2009-02-28,281000.0
2009-01-31,289900.0
2008-12-31,296700.0
2008-11-30,298000.0
2008-10-31,295500.0
2008-09-30,294800.0
2008-08-31,294900.0
2008-07-31,295400.0
2008-06-30,298000.0
2008-05-31,301700.0
2008-04-30,305600.0
2008-03-31,308700.0
2008-02-29,309400.0
2008-01-31,307800.0
2007-12-31,308100.0
2007-11-30,311500.0
2007-10-31,317200.0
2007-09-30,319700.0
2007-08-31,319200.0
2007-07-31,318900.0
2007-06-30,318100.0
2007-05-31,316500.0
2007-04-30,315400.0
2007-03-31,314000.0
2007-02-28,312100.0
2007-01-31,311100.0
2006-12-31,309400.0
2006-11-30,307600.0
2006-10-31,306000.0
2006-09-30,305800.0
2006-08-31,306400.0
2006-07-31,307700.0
2006-06-30,308800.0
2006-05-31,310600.0
2006-04-30,311700.0
2006-03-31,312300.0
2006-02-28,311300.0
2006-01-31,308700.0
2005-12-31,304900.0
2005-11-30,301200.0
2005-10-31,296900.0
2005-09-30,292100.0
2005-08-31,287700.0
2005-07-31,283500.0
2005-06-30,278900.0
2005-05-31,274000.0
2005-04-30,269600.0
2005-03-31,264600.0
2005-02-28,259700.0
2005-01-31,255300.0
2004-12-31,251700.0
2004-11-30,246800.0
2004-10-31,240800.0
2004-09-30,235300.0
2004-08-31,230500.0
2004-07-31,225200.0
2004-06-30,218900.0
2004-05-31,212300.0
2004-04-30,206900.0
2004-03-31,203700.0
2004-02-29,201700.0
2004-01-31,202600.0
2003-12-31,205000.0
2003-11-30,205300.0
2003-10-31,204000.0
2003-09-30,202200.0
2003-08-31,199500.0
2003-07-31,198000.0
2003-06-30,199100.0
2003-05-31,201000.0
2003-04-30,200700.0
2003-03-31,198000.0
2003-02-28,192800.0
2003-01-31,187000.0
2002-12-31,180300.0
2002-11-30,175300.0
2002-10-31,173300.0
2002-09-30,173000.0
2002-08-31,173400.0
2002-07-31,174100.0
2002-06-30,173800.0
2002-05-31,171500.0
2002-04-30,169700.0
2002-03-31,169400.0
2002-02-28,171200.0
2002-01-31,171300.0
2001-12-31,172500.0
2001-11-30,176000.0
2001-10-31,176700.0
2001-09-30,174400.0
2001-08-31,173500.0
2001-07-31,171700.0
2001-06-30,169500.0
2001-05-31,169300.0
2001-04-30,169500.0
2001-03-31,169800.0
2001-02-28,170400.0
2001-01-31,170200.0
2000-12-31,168100.0
2000-11-30,166700.0
2000-10-31,167800.0
2000-09-30,168100.0
2000-08-31,166300.0
2000-07-31,165300.0
2000-06-30,164800.0
2000-05-31,163100.0
2000-04-30,163100.0
2000-03-31,163000.0
2000-02-29,161200.0
2000-01-31,158300.0
1999-12-31,157500.0
1999-11-30,157100.0
1999-10-31,157900.0
1999-09-30,159800.0
1999-08-31,162700.0
1999-07-31,164200.0
1999-06-30,163600.0
1999-05-31,161900.0
1999-04-30,160400.0
1999-03-31,161000.0
1999-02-28,162000.0
1999-01-31,162600.0
1998-12-31,161700.0
1998-11-30,161200.0
1998-10-31,160000.0
1998-09-30,158900.0
1998-08-31,157900.0
1998-07-31,158500.0
1998-06-30,160900.0
1998-05-31,163000.0
1998-04-30,162800.0
1998-03-31,162300.0
1998-02-28,163400.0
1998-01-31,166200.0
1997-12-31,168200.0
1997-11-30,166900.0
1997-10-31,164600.0
1997-09-30,164700.0
1997-08-31,164500.0
1997-07-31,161900.0
1997-06-30,159800.0
1997-05-31,160100.0
1997-04-30,161500.0
1997-03-31,162400.0
1997-02-28,161000.0
1997-01-31,158200.0
1996-12-31,156000.0
1996-11-30,155300.0
1996-10-31,153900.0
1996-09-30,151700.0
1996-08-31,150000.0
1996-07-31,149300.0
1996-06-30,148700.0
1996-05-31,147800.0
1996-04-30,145200.0
