Date,Value
2015-09-30,220700.0
2015-08-31,217800.0
2015-07-31,214800.0
2015-06-30,215900.0
2015-05-31,214700.0
2015-04-30,212300.0
2015-03-31,210900.0
2015-02-28,209000.0
2015-01-31,207400.0
2014-12-31,206300.0
2014-11-30,204100.0
2014-10-31,201400.0
2014-09-30,199800.0
2014-08-31,199300.0
2014-07-31,198800.0
2014-06-30,197700.0
2014-05-31,196300.0
2014-04-30,195600.0
2014-03-31,194800.0
2014-02-28,193800.0
2014-01-31,193100.0
2013-12-31,191600.0
2013-11-30,189800.0
2013-10-31,189100.0
2013-09-30,188600.0
2013-08-31,187700.0
2013-07-31,186000.0
2013-06-30,183200.0
2013-05-31,178700.0
2013-04-30,174900.0
2013-03-31,172900.0
2013-02-28,172100.0
2013-01-31,170900.0
2012-12-31,170000.0
2012-11-30,169300.0
2012-10-31,168200.0
2012-09-30,166900.0
2012-08-31,166500.0
2012-07-31,166700.0
2012-06-30,166300.0
2012-05-31,165100.0
2012-04-30,163100.0
2012-03-31,161900.0
2012-02-29,161700.0
2012-01-31,161200.0
2011-12-31,160100.0
2011-11-30,159500.0
2011-10-31,159400.0
2011-09-30,159600.0
2011-08-31,159900.0
2011-07-31,160500.0
2011-06-30,161300.0
2011-05-31,162400.0
2011-04-30,163800.0
2011-03-31,165400.0
2011-02-28,167300.0
2011-01-31,169000.0
2010-12-31,170500.0
2010-11-30,172500.0
2010-10-31,174700.0
2010-09-30,177600.0
2010-08-31,180100.0
2010-07-31,182000.0
2010-06-30,184000.0
2010-05-31,187100.0
2010-04-30,189800.0
2010-03-31,191300.0
2010-02-28,191300.0
2010-01-31,191600.0
2009-12-31,192900.0
2009-11-30,194000.0
2009-10-31,193900.0
2009-09-30,193200.0
2009-08-31,192700.0
2009-07-31,192500.0
2009-06-30,192100.0
2009-05-31,192800.0
2009-04-30,194300.0
2009-03-31,195400.0
2009-02-28,195400.0
2009-01-31,194700.0
2008-12-31,194500.0
2008-11-30,196100.0
2008-10-31,198900.0
2008-09-30,200700.0
2008-08-31,201900.0
2008-07-31,203500.0
2008-06-30,205900.0
2008-05-31,207500.0
2008-04-30,208700.0
2008-03-31,209800.0
2008-02-29,211500.0
2008-01-31,214200.0
2007-12-31,216900.0
2007-11-30,218400.0
2007-10-31,219400.0
2007-09-30,220000.0
2007-08-31,219800.0
2007-07-31,219600.0
2007-06-30,219600.0
2007-05-31,219300.0
2007-04-30,219200.0
2007-03-31,219800.0
2007-02-28,220500.0
2007-01-31,220900.0
2006-12-31,220800.0
2006-11-30,219900.0
2006-10-31,218700.0
2006-09-30,217900.0
2006-08-31,217100.0
2006-07-31,216100.0
2006-06-30,214900.0
2006-05-31,213400.0
2006-04-30,211300.0
2006-03-31,208700.0
2006-02-28,206100.0
2006-01-31,203500.0
2005-12-31,200900.0
2005-11-30,198300.0
2005-10-31,195400.0
2005-09-30,192500.0
2005-08-31,189700.0
2005-07-31,186600.0
2005-06-30,183500.0
2005-05-31,180600.0
2005-04-30,177500.0
2005-03-31,174500.0
2005-02-28,172000.0
2005-01-31,169600.0
2004-12-31,166800.0
2004-11-30,164000.0
2004-10-31,161500.0
2004-09-30,159500.0
2004-08-31,157600.0
2004-07-31,155900.0
2004-06-30,154100.0
2004-05-31,152300.0
2004-04-30,150500.0
2004-03-31,149000.0
2004-02-29,147700.0
2004-01-31,146500.0
2003-12-31,145100.0
2003-11-30,143700.0
2003-10-31,142400.0
2003-09-30,141200.0
2003-08-31,140200.0
2003-07-31,139300.0
2003-06-30,138000.0
2003-05-31,136500.0
2003-04-30,135400.0
2003-03-31,134700.0
2003-02-28,134300.0
2003-01-31,133800.0
2002-12-31,132900.0
2002-11-30,132000.0
2002-10-31,131200.0
2002-09-30,130300.0
2002-08-31,129400.0
2002-07-31,128900.0
2002-06-30,128400.0
2002-05-31,128100.0
2002-04-30,128200.0
2002-03-31,128000.0
2002-02-28,127000.0
2002-01-31,126000.0
2001-12-31,125700.0
2001-11-30,125400.0
2001-10-31,124500.0
2001-09-30,124100.0
2001-08-31,124200.0
2001-07-31,124100.0
2001-06-30,123900.0
2001-05-31,123900.0
2001-04-30,123700.0
2001-03-31,123400.0
2001-02-28,122700.0
2001-01-31,121900.0
2000-12-31,121600.0
2000-11-30,121600.0
2000-10-31,122200.0
2000-09-30,122300.0
2000-08-31,121700.0
2000-07-31,120900.0
2000-06-30,120600.0
2000-05-31,120100.0
2000-04-30,119300.0
2000-03-31,119100.0
2000-02-29,119400.0
2000-01-31,119600.0
1999-12-31,119300.0
1999-11-30,119200.0
1999-10-31,119100.0
1999-09-30,119100.0
1999-08-31,119400.0
1999-07-31,119800.0
1999-06-30,120000.0
1999-05-31,120100.0
1999-04-30,119900.0
1999-03-31,119300.0
1999-02-28,118800.0
1999-01-31,118400.0
1998-12-31,118200.0
1998-11-30,117900.0
1998-10-31,117600.0
1998-09-30,117100.0
1998-08-31,116500.0
1998-07-31,115700.0
1998-06-30,114900.0
1998-05-31,114700.0
1998-04-30,115300.0
1998-03-31,115900.0
1998-02-28,115600.0
1998-01-31,115300.0
1997-12-31,115100.0
1997-11-30,115000.0
1997-10-31,114800.0
1997-09-30,114700.0
1997-08-31,114300.0
1997-07-31,114300.0
1997-06-30,115100.0
1997-05-31,115800.0
1997-04-30,115400.0
1997-03-31,115000.0
1997-02-28,114700.0
1997-01-31,113800.0
1996-12-31,112400.0
1996-11-30,111700.0
1996-10-31,111300.0
1996-09-30,110700.0
1996-08-31,110100.0
1996-07-31,109500.0
1996-06-30,108700.0
1996-05-31,107600.0
1996-04-30,106500.0
