Date,Value
2015-09-30,293900.0
2015-08-31,292400.0
2015-07-31,290000.0
2015-06-30,292300.0
2015-05-31,290500.0
2015-04-30,288100.0
2015-03-31,285900.0
2015-02-28,283000.0
2015-01-31,280000.0
2014-12-31,277900.0
2014-11-30,276000.0
2014-10-31,274400.0
2014-09-30,273100.0
2014-08-31,272200.0
2014-07-31,270800.0
2014-06-30,269800.0
2014-05-31,269600.0
2014-04-30,269200.0
2014-03-31,267700.0
2014-02-28,266100.0
2014-01-31,266500.0
2013-12-31,267000.0
2013-11-30,266900.0
2013-10-31,266400.0
2013-09-30,266400.0
2013-08-31,264600.0
2013-07-31,261200.0
2013-06-30,256900.0
2013-05-31,253700.0
2013-04-30,251800.0
2013-03-31,251400.0
2013-02-28,251300.0
2013-01-31,250000.0
2012-12-31,247200.0
2012-11-30,244300.0
2012-10-31,241600.0
2012-09-30,238200.0
2012-08-31,234500.0
2012-07-31,231400.0
2012-06-30,229700.0
2012-05-31,227800.0
2012-04-30,224500.0
2012-03-31,220700.0
2012-02-29,218600.0
2012-01-31,217900.0
2011-12-31,218500.0
2011-11-30,220100.0
2011-10-31,222000.0
2011-09-30,224100.0
2011-08-31,226500.0
2011-07-31,228600.0
2011-06-30,230700.0
2011-05-31,232500.0
2011-04-30,234300.0
2011-03-31,236600.0
2011-02-28,239400.0
2011-01-31,241600.0
2010-12-31,243400.0
2010-11-30,244800.0
2010-10-31,245500.0
2010-09-30,246400.0
2010-08-31,248600.0
2010-07-31,251300.0
2010-06-30,253000.0
2010-05-31,254200.0
2010-04-30,255700.0
2010-03-31,257100.0
2010-02-28,258500.0
2010-01-31,260400.0
2009-12-31,262000.0
2009-11-30,262600.0
2009-10-31,263200.0
2009-09-30,264200.0
2009-08-31,265800.0
2009-07-31,268100.0
2009-06-30,271200.0
2009-05-31,273800.0
2009-04-30,276900.0
2009-03-31,280900.0
2009-02-28,284400.0
2009-01-31,285700.0
2008-12-31,286600.0
2008-11-30,288200.0
2008-10-31,290500.0
2008-09-30,292800.0
2008-08-31,295100.0
2008-07-31,297800.0
2008-06-30,301100.0
2008-05-31,304600.0
2008-04-30,308100.0
2008-03-31,311800.0
2008-02-29,314600.0
2008-01-31,317500.0
2007-12-31,320000.0
2007-11-30,322300.0
2007-10-31,324200.0
2007-09-30,325600.0
2007-08-31,326600.0
2007-07-31,327600.0
2007-06-30,328400.0
2007-05-31,328900.0
2007-04-30,328600.0
2007-03-31,326900.0
2007-02-28,324700.0
2007-01-31,323000.0
2006-12-31,321700.0
2006-11-30,320400.0
2006-10-31,319300.0
2006-09-30,318000.0
2006-08-31,315600.0
2006-07-31,311800.0
2006-06-30,307600.0
2006-05-31,303400.0
2006-04-30,298800.0
2006-03-31,294200.0
2006-02-28,290100.0
2006-01-31,286200.0
2005-12-31,282500.0
2005-11-30,279000.0
2005-10-31,274800.0
2005-09-30,270500.0
2005-08-31,266400.0
2005-07-31,262100.0
2005-06-30,257000.0
2005-05-31,252100.0
2005-04-30,247900.0
2005-03-31,244600.0
2005-02-28,242000.0
2005-01-31,239500.0
2004-12-31,236900.0
2004-11-30,234500.0
2004-10-31,232800.0
2004-09-30,231200.0
2004-08-31,229200.0
2004-07-31,226900.0
2004-06-30,225000.0
2004-05-31,223600.0
2004-04-30,222200.0
2004-03-31,220900.0
2004-02-29,219500.0
2004-01-31,218300.0
2003-12-31,217100.0
2003-11-30,216200.0
2003-10-31,215200.0
2003-09-30,214200.0
2003-08-31,213300.0
2003-07-31,212500.0
2003-06-30,211500.0
2003-05-31,210900.0
2003-04-30,210400.0
2003-03-31,210100.0
2003-02-28,209700.0
2003-01-31,208800.0
2002-12-31,207900.0
2002-11-30,207100.0
2002-10-31,205900.0
2002-09-30,204800.0
2002-08-31,204000.0
2002-07-31,203600.0
2002-06-30,203600.0
2002-05-31,203800.0
2002-04-30,203900.0
2002-03-31,203900.0
2002-02-28,203500.0
2002-01-31,203200.0
2001-12-31,203000.0
2001-11-30,202200.0
2001-10-31,200500.0
2001-09-30,198700.0
2001-08-31,197600.0
2001-07-31,197200.0
2001-06-30,196800.0
2001-05-31,196000.0
2001-04-30,195300.0
2001-03-31,194300.0
2001-02-28,193200.0
2001-01-31,192500.0
2000-12-31,192100.0
2000-11-30,192000.0
2000-10-31,192300.0
2000-09-30,193000.0
2000-08-31,193100.0
2000-07-31,192400.0
2000-06-30,191300.0
2000-05-31,190200.0
2000-04-30,188800.0
2000-03-31,187200.0
2000-02-29,186000.0
2000-01-31,185200.0
1999-12-31,184500.0
1999-11-30,184300.0
1999-10-31,184300.0
1999-09-30,183900.0
1999-08-31,183400.0
1999-07-31,183200.0
1999-06-30,183300.0
1999-05-31,183000.0
1999-04-30,181800.0
1999-03-31,180100.0
1999-02-28,178400.0
1999-01-31,176500.0
1998-12-31,174600.0
1998-11-30,173000.0
1998-10-31,172100.0
1998-09-30,171700.0
1998-08-31,171200.0
1998-07-31,170800.0
1998-06-30,170300.0
1998-05-31,169600.0
1998-04-30,169000.0
1998-03-31,168400.0
1998-02-28,167800.0
1998-01-31,167300.0
1997-12-31,166400.0
1997-11-30,164600.0
1997-10-31,162600.0
1997-09-30,160700.0
1997-08-31,159300.0
1997-07-31,157900.0
1997-06-30,156800.0
1997-05-31,156000.0
1997-04-30,155400.0
1997-03-31,154900.0
1997-02-28,154500.0
1997-01-31,153900.0
1996-12-31,153000.0
1996-11-30,152600.0
1996-10-31,152300.0
1996-09-30,152000.0
1996-08-31,152100.0
1996-07-31,152300.0
1996-06-30,152300.0
1996-05-31,152500.0
1996-04-30,153300.0
