Date,Value
2015-09-30,0.938
2015-08-31,0.914
2015-07-31,0.898
2015-06-30,0.892
2015-05-31,0.88
2015-04-30,0.866
2015-03-31,0.854
2015-02-28,0.842
2015-01-31,0.832
2014-12-31,0.828
2014-11-30,0.82
2014-10-31,0.816
2014-09-30,0.81
2014-08-31,0.816
2014-07-31,0.82
2014-06-30,0.824
2014-05-31,0.826
2014-04-30,0.82
2014-03-31,0.816
2014-02-28,0.806
2014-01-31,0.796
2013-12-31,0.794
2013-11-30,0.8
2013-10-31,0.808
2013-09-30,0.794
2013-08-31,0.782
2013-07-31,0.774
2013-06-30,0.774
2013-05-31,0.768
2013-04-30,0.756
2013-03-31,0.752
2013-02-28,0.748
2013-01-31,0.748
2012-12-31,0.746
2012-11-30,0.746
2012-10-31,0.746
2012-09-30,0.742
2012-08-31,0.744
2012-07-31,0.744
2012-06-30,0.744
2012-05-31,0.748
2012-04-30,0.748
2012-03-31,0.752
2012-02-29,0.744
2012-01-31,0.732
2011-12-31,0.72
2011-11-30,0.72
2011-10-31,0.734
2011-09-30,0.75
2011-08-31,0.752
2011-07-31,0.752
2011-06-30,0.744
2011-05-31,0.744
2011-04-30,0.738
2011-03-31,0.75
2011-02-28,0.782
2011-01-31,0.814
2010-12-31,0.83
2010-11-30,0.828
