Date,Value
2015-09-30,1.186
2015-08-31,1.192
2015-07-31,1.194
2015-06-30,1.188
2015-05-31,1.18
2015-04-30,1.176
2015-03-31,1.176
2015-02-28,1.168
2015-01-31,1.158
2014-12-31,1.154
2014-11-30,1.158
2014-10-31,1.156
2014-09-30,1.146
2014-08-31,1.132
2014-07-31,1.122
2014-06-30,1.114
2014-05-31,1.108
2014-04-30,1.1
2014-03-31,1.088
2014-02-28,1.08
2014-01-31,1.076
2013-12-31,1.078
2013-11-30,1.076
2013-10-31,1.068
2013-09-30,1.056
2013-08-31,1.042
2013-07-31,1.036
2013-06-30,1.034
2013-05-31,1.034
2013-04-30,1.032
2013-03-31,1.026
2013-02-28,1.018
2013-01-31,1.014
2012-12-31,1.014
2012-11-30,1.014
2012-10-31,1.008
2012-09-30,1.0
2012-08-31,0.99
2012-07-31,0.988
2012-06-30,0.988
2012-05-31,0.986
2012-04-30,0.986
2012-03-31,0.98
2012-02-29,0.978
2012-01-31,0.972
2011-12-31,0.952
2011-11-30,0.928
2011-10-31,0.926
2011-09-30,0.94
2011-08-31,0.96
2011-07-31,0.962
2011-06-30,0.954
2011-05-31,0.944
2011-04-30,0.936
2011-03-31,0.938
2011-02-28,0.938
2011-01-31,0.942
2010-12-31,0.944
2010-11-30,0.946
