Date,Value
2015-09-30,438800.0
2015-08-31,432400.0
2015-07-31,427000.0
2015-06-30,430500.0
2015-05-31,429500.0
2015-04-30,421000.0
2015-03-31,415900.0
2015-02-28,413100.0
2015-01-31,413800.0
2014-12-31,413000.0
2014-11-30,411600.0
2014-10-31,410600.0
2014-09-30,411000.0
2014-08-31,411600.0
2014-07-31,410900.0
2014-06-30,409900.0
2014-05-31,407700.0
2014-04-30,403300.0
2014-03-31,399500.0
2014-02-28,396600.0
2014-01-31,391900.0
2013-12-31,386400.0
2013-11-30,383100.0
2013-10-31,381000.0
2013-09-30,379400.0
2013-08-31,377600.0
2013-07-31,374600.0
2013-06-30,370900.0
2013-05-31,366300.0
2013-04-30,361100.0
2013-03-31,355100.0
2013-02-28,349200.0
2013-01-31,342400.0
2012-12-31,336300.0
2012-11-30,331300.0
2012-10-31,330000.0
2012-09-30,330500.0
2012-08-31,330300.0
2012-07-31,328400.0
2012-06-30,325300.0
2012-05-31,322400.0
2012-04-30,322900.0
2012-03-31,324700.0
2012-02-29,325600.0
2012-01-31,326700.0
2011-12-31,328900.0
2011-11-30,330500.0
2011-10-31,331200.0
2011-09-30,331300.0
2011-08-31,331600.0
2011-07-31,332700.0
2011-06-30,334800.0
2011-05-31,337300.0
2011-04-30,339600.0
2011-03-31,340600.0
2011-02-28,341300.0
2011-01-31,342800.0
2010-12-31,345600.0
2010-11-30,348100.0
2010-10-31,351000.0
2010-09-30,354300.0
2010-08-31,356200.0
2010-07-31,357500.0
2010-06-30,359400.0
2010-05-31,360800.0
2010-04-30,360500.0
2010-03-31,359100.0
2010-02-28,357700.0
2010-01-31,357800.0
2009-12-31,358500.0
2009-11-30,358300.0
2009-10-31,357400.0
2009-09-30,356800.0
2009-08-31,358000.0
2009-07-31,360300.0
2009-06-30,362400.0
2009-05-31,364400.0
2009-04-30,367400.0
2009-03-31,370600.0
2009-02-28,373000.0
2009-01-31,376300.0
2008-12-31,381600.0
2008-11-30,387600.0
2008-10-31,392100.0
2008-09-30,394800.0
2008-08-31,397400.0
2008-07-31,401100.0
2008-06-30,404200.0
2008-05-31,407800.0
2008-04-30,411300.0
2008-03-31,415000.0
2008-02-29,418700.0
2008-01-31,422000.0
2007-12-31,424500.0
2007-11-30,427000.0
2007-10-31,428400.0
2007-09-30,429200.0
2007-08-31,429700.0
2007-07-31,428200.0
2007-06-30,425900.0
2007-05-31,423400.0
2007-04-30,422400.0
2007-03-31,426000.0
2007-02-28,431700.0
2007-01-31,432900.0
2006-12-31,429900.0
2006-11-30,426800.0
2006-10-31,423300.0
2006-09-30,419900.0
2006-08-31,416900.0
2006-07-31,414200.0
2006-06-30,412700.0
2006-05-31,411400.0
2006-04-30,408200.0
2006-03-31,403700.0
2006-02-28,399400.0
2006-01-31,395500.0
2005-12-31,391600.0
2005-11-30,387100.0
2005-10-31,381800.0
2005-09-30,375300.0
2005-08-31,368700.0
2005-07-31,364300.0
2005-06-30,361100.0
2005-05-31,359100.0
2005-04-30,357600.0
2005-03-31,354000.0
2005-02-28,348800.0
2005-01-31,344800.0
2004-12-31,340500.0
2004-11-30,334600.0
2004-10-31,330500.0
2004-09-30,328200.0
2004-08-31,326600.0
2004-07-31,324600.0
2004-06-30,321800.0
2004-05-31,316900.0
2004-04-30,311800.0
2004-03-31,307000.0
2004-02-29,302700.0
2004-01-31,298400.0
2003-12-31,295600.0
2003-11-30,294700.0
2003-10-31,295000.0
2003-09-30,294600.0
2003-08-31,294100.0
2003-07-31,293800.0
2003-06-30,292700.0
2003-05-31,290600.0
2003-04-30,289900.0
2003-03-31,290700.0
2003-02-28,290600.0
2003-01-31,288600.0
2002-12-31,286400.0
2002-11-30,285000.0
2002-10-31,283500.0
2002-09-30,282100.0
2002-08-31,279700.0
2002-07-31,276900.0
2002-06-30,276000.0
2002-05-31,276700.0
2002-04-30,275600.0
2002-03-31,273600.0
2002-02-28,272700.0
2002-01-31,273100.0
2001-12-31,274200.0
2001-11-30,274100.0
2001-10-31,273800.0
2001-09-30,274800.0
2001-08-31,276500.0
2001-07-31,277300.0
2001-06-30,276700.0
2001-05-31,275200.0
2001-04-30,272500.0
2001-03-31,270100.0
2001-02-28,268100.0
2001-01-31,266800.0
2000-12-31,266000.0
2000-11-30,266400.0
2000-10-31,266100.0
2000-09-30,265600.0
2000-08-31,264000.0
2000-07-31,262400.0
2000-06-30,261300.0
2000-05-31,260900.0
2000-04-30,259600.0
2000-03-31,257700.0
2000-02-29,254900.0
2000-01-31,252900.0
1999-12-31,252400.0
1999-11-30,251800.0
1999-10-31,248200.0
1999-09-30,242500.0
1999-08-31,237600.0
1999-07-31,233100.0
1999-06-30,228500.0
1999-05-31,225600.0
1999-04-30,225900.0
1999-03-31,226500.0
1999-02-28,225400.0
1999-01-31,222200.0
1998-12-31,218600.0
1998-11-30,216100.0
1998-10-31,213400.0
1998-09-30,210200.0
1998-08-31,207100.0
1998-07-31,205000.0
1998-06-30,202400.0
1998-05-31,199200.0
1998-04-30,196700.0
1998-03-31,194500.0
1998-02-28,192800.0
1998-01-31,191500.0
1997-12-31,188300.0
1997-11-30,184200.0
1997-10-31,182700.0
1997-09-30,182700.0
1997-08-31,182400.0
1997-07-31,181200.0
1997-06-30,180000.0
1997-05-31,178100.0
1997-04-30,176000.0
1997-03-31,175000.0
1997-02-28,174400.0
1997-01-31,172900.0
1996-12-31,171400.0
1996-11-30,170400.0
1996-10-31,170900.0
1996-09-30,172000.0
1996-08-31,172800.0
1996-07-31,172900.0
1996-06-30,172900.0
1996-05-31,172600.0
1996-04-30,171700.0
