Date,Value
2015-02-28,259950.0
2015-01-31,249950.0
2014-12-31,239950.0
2014-11-30,249950.0
2014-10-31,249950.0
2014-09-30,247950.0
2014-08-31,245000.0
2014-07-31,240000.0
2014-06-30,245000.0
2014-05-31,249000.0
2014-04-30,249900.0
2014-03-31,247000.0
2014-02-28,239950.0
2014-01-31,244950.0
2013-12-31,242500.0
2013-11-30,239950.0
2013-10-31,250000.0
2013-09-30,254900.0
2013-08-31,249950.0
2013-07-31,259900.0
2013-06-30,238000.0
2013-05-31,239000.0
2013-04-30,229900.0
2013-03-31,219950.0
2013-02-28,223660.0
2013-01-31,223660.0
2012-12-31,219950.0
2012-11-30,218500.0
2012-10-31,215000.0
2012-09-30,220000.0
2012-08-31,222381.0
2012-07-31,219000.0
2012-06-30,215000.0
2012-05-31,214950.0
2012-04-30,189950.0
2012-03-31,179950.0
2012-02-29,189900.0
2012-01-31,189722.0
2011-12-31,195000.0
2011-11-30,189900.0
2011-10-31,195000.0
2011-09-30,199950.0
2011-08-31,209900.0
2011-07-31,209000.0
2011-06-30,205000.0
2011-05-31,200000.0
2011-04-30,219950.0
2011-03-31,225000.0
2011-02-28,227500.0
2011-01-31,219000.0
2010-12-31,224500.0
2010-11-30,229900.0
2010-10-31,234950.0
2010-09-30,235000.0
2010-08-31,239950.0
2010-07-31,243900.0
2010-06-30,249000.0
2010-05-31,249900.0
2010-04-30,240000.0
2010-03-31,244950.0
2010-02-28,249900.0
2010-01-31,249700.0
2009-12-31,245000.0
2009-11-30,245950.0
2009-10-31,249500.0
2009-09-30,249900.0
2009-08-31,250000.0
2009-07-31,259950.0
2009-06-30,259900.0
2009-05-31,259950.0
2009-04-30,264500.0
2009-03-31,265000.0
2009-02-28,267500.0
2009-01-31,269995.0
2008-12-31,275000.0
2008-11-30,275000.0
2008-10-31,285000.0
