Date,Value
2015-09-30,328598.5
2015-08-31,326996.5
2015-07-31,321300.0
2015-06-30,304949.85
2015-05-31,296999.65
2015-04-30,291525.0
2015-03-31,289474.85
2015-02-28,293999.65
2015-01-31,285799.5
2014-12-31,277800.0
2014-11-30,291206.0
2014-10-31,290764.0
2014-09-30,281470.0
2014-08-31,279249.25
2014-07-31,287498.25
2014-06-30,287597.5
2014-05-31,281693.25
2014-04-30,271484.25
2014-03-31,266227.5
2014-02-28,264450.0
2014-01-31,272748.5
2013-12-31,281871.5
2013-11-30,268120.0
2013-10-31,250675.0
2013-09-30,252075.0
2013-08-31,246500.0
2013-07-31,253250.0
2013-06-30,251000.0
2013-05-31,249100.0
2013-04-30,244400.0
2013-03-31,245875.0
2013-02-28,249217.5
2013-01-31,246132.5
2012-12-31,245225.0
2012-11-30,246750.0
2012-10-31,225485.0
2012-09-30,234015.0
2012-08-31,248800.0
2012-07-31,247187.5
2012-06-30,219937.5
2012-05-31,211975.0
2012-04-30,217742.5
2012-03-31,226982.5
2012-02-29,210725.0
2012-01-31,245035.0
2011-12-31,250765.0
2011-11-30,269312.5
2011-10-31,252469.25
2011-09-30,253540.75
2011-08-31,261872.5
2011-07-31,251600.0
2011-06-30,248498.5
2011-05-31,241840.8
2011-04-30,249281.7
2011-03-31,252723.5
2011-02-28,246732.5
2011-01-31,255975.0
2010-12-31,250750.0
2010-11-30,245998.5
2010-10-31,246266.25
2010-09-30,242957.75
2010-08-31,246304.15
2010-07-31,250135.75
2010-06-30,262726.6
2010-05-31,269506.75
2010-04-30,277578.75
2010-03-31,288142.75
2010-02-28,293529.75
2010-01-31,243700.0
2009-12-31,271225.0
2009-11-30,257750.0
2009-10-31,264450.0
2009-09-30,282675.0
2009-08-31,286617.5
2009-07-31,285732.5
2009-06-30,299975.0
2009-05-31,288349.25
2009-04-30,283748.25
2009-03-31,284219.95
2009-02-28,295169.05
2009-01-31,310991.5
2008-12-31,295999.85
2008-11-30,294249.65
2008-10-31,288999.5
2008-09-30,294500.0
2008-08-31,308537.5
2008-07-31,319637.5
2008-06-30,316877.0
2008-05-31,320780.5
2008-04-30,329822.5
2008-03-31,331700.0
2008-02-29,345435.0
2008-01-31,348965.0
2007-12-31,345275.0
2007-11-30,346656.85
2007-10-31,354982.65
2007-09-30,360564.5
2007-08-31,347067.5
2007-07-31,351082.5
2007-06-30,350522.25
2007-05-31,358610.25
2007-04-30,353282.5
2007-03-31,348625.0
2007-02-28,348327.5
2007-01-31,355840.0
2006-12-31,344657.5
2006-11-30,355475.0
2006-10-31,352742.5
2006-09-30,357871.0
2006-08-31,350881.5
2006-07-31,352052.65
2006-06-30,350267.85
2006-05-31,348010.15
2006-04-30,341906.65
2006-03-31,343410.7
2006-02-28,341426.0
2006-01-31,336275.0
2005-12-31,330890.0
2005-11-30,325945.0
2005-10-31,317615.0
2005-09-30,312200.0
2005-08-31,306642.5
2005-07-31,298132.5
2005-06-30,294725.0
2005-05-31,287450.0
2005-04-30,281142.5
2005-03-31,276582.5
2005-02-28,277125.0
2005-01-31,282421.0
2004-12-31,277899.0
2004-11-30,270270.0
2004-10-31,270350.0
2004-09-30,270937.3
2004-08-31,270571.2
2004-07-31,262823.5
2004-06-30,259700.0
2004-05-31,258625.0
2004-04-30,251825.0
2004-03-31,238992.5
2004-02-29,230975.0
2004-01-31,227672.95
2003-12-31,226311.05
2003-11-30,229494.0
2003-10-31,221767.5
2003-09-30,224716.7
2003-08-31,227810.8
2003-07-31,230035.5
2003-06-30,230437.5
2003-05-31,230701.0
2003-04-30,234201.5
2003-03-31,227843.5
2003-02-28,221495.0
2003-01-31,218291.5
2002-12-31,218995.0
2002-11-30,222248.5
2002-10-31,227496.5
2002-09-30,233087.0
2002-08-31,230848.0
2002-07-31,223790.0
2002-06-30,220650.0
2002-05-31,211642.5
2002-04-30,224832.5
2002-03-31,225375.0
2002-02-28,215598.5
2002-01-31,223081.5
2001-12-31,226030.8
2001-11-30,212363.7
2001-10-31,214031.0
2001-09-30,217191.5
2001-08-31,224604.3
2001-07-31,223156.7
2001-06-30,230538.5
2001-05-31,234932.5
2001-04-30,223325.0
2001-03-31,214192.5
2001-02-28,209932.5
2001-01-31,211975.0
2000-12-31,213492.5
2000-11-30,208116.0
2000-10-31,210586.5
2000-09-30,221880.0
2000-08-31,220165.0
2000-07-31,215750.0
2000-06-30,208242.5
2000-05-31,213092.25
2000-04-30,212997.95
2000-03-31,214783.8
2000-02-29,211541.5
2000-01-31,200667.5
1999-12-31,196475.0
1999-11-30,194007.5
1999-10-31,195725.0
1999-09-30,198242.5
1999-08-31,200175.0
1999-07-31,205350.0
1999-06-30,206332.5
1999-05-31,194360.85
1999-04-30,198450.7
1999-03-31,201680.15
1999-02-28,206992.25
1999-01-31,194669.05
1998-12-31,199679.0
1998-11-30,200175.0
1998-10-31,192302.0
1998-09-30,197388.0
1998-08-31,190242.5
1998-07-31,183772.5
1998-06-30,176775.0
1998-05-31,175242.5
1998-04-30,184825.0
1998-03-31,176657.5
1998-02-28,179860.05
1998-01-31,172398.45
1997-12-31,153383.5
1997-11-30,152087.5
1997-10-31,163712.5
1997-09-30,182275.0
1997-08-31,175167.5
1997-07-31,171732.5
1997-06-30,169217.5
1997-05-31,162675.0
1997-04-30,167007.5
1997-03-31,163917.5
1997-02-28,164425.0
1997-01-31,160132.5
1996-12-31,152975.0
1996-11-30,160348.75
1996-10-31,154138.75
1996-09-30,159622.5
1996-08-31,165790.0
1996-07-31,171192.5
1996-06-30,164975.0
1996-05-31,166207.5
1996-04-30,159725.0
