Date,Value
2015-09-30,313370.55
2015-08-31,334422.95
2015-07-31,296518.5
2015-06-30,298200.0
2015-05-31,292800.0
2015-04-30,276200.0
2015-03-31,274750.0
2015-02-28,267950.0
2015-01-31,279542.5
2014-12-31,278432.5
2014-11-30,270775.0
2014-10-31,267675.0
2014-09-30,261075.0
2014-08-31,283300.0
2014-07-31,290700.0
2014-06-30,279750.0
2014-05-31,259500.0
2014-04-30,266764.7059
2014-03-31,257307.6923
2014-01-31,265000.0
2013-10-31,274300.0
2013-09-30,268150.0
2013-08-31,287850.0
2013-07-31,304100.0
2013-06-30,284150.0
2013-05-31,279750.0
2013-04-30,254382.15
2013-03-31,233892.1765
2013-02-28,246358.4615
2012-12-31,209088.2353
2012-11-30,236538.4615
2012-09-30,257242.5
2012-08-31,242450.0
2012-07-31,241232.5
2012-06-30,253725.0
2012-05-31,211750.0
2012-04-30,194750.0
2012-03-31,197352.9412
2011-12-31,270000.0
2011-09-30,250250.0
2011-08-31,241048.5
2011-07-31,263996.5
2011-06-30,245195.0
2011-05-31,255450.0
2011-04-30,289764.7059
2011-03-31,268000.0
2010-12-31,272982.5
2010-11-30,253050.0
2010-10-31,282170.0
2010-09-30,261751.65
2010-08-31,249183.85
2010-07-31,267355.5
2010-06-30,255352.9412
2010-05-31,257761.5385
2010-03-31,240155.8824
2010-02-28,251038.4615
2009-12-31,257192.5
2009-11-30,228625.0
2009-10-31,238400.0
2009-09-30,248375.0
2009-08-31,267610.0
2009-07-31,271340.0
2009-06-30,247147.0588
2009-05-31,252307.6923
2009-03-31,235000.0
2008-11-30,294750.0
2008-10-31,280050.0
2008-09-30,252000.0
2008-08-31,268450.0
2008-06-30,344544.0
2008-05-31,378470.0
2008-04-30,323112.5
2008-03-31,326592.5
2008-02-29,305395.0
2008-01-31,290886.35
2007-12-31,301118.15
2007-11-30,324604.5
2007-10-31,362100.0
2007-09-30,390750.0
2007-08-31,356321.45
2007-07-31,338250.05
2007-06-30,327314.0
2007-05-31,318032.5
2007-04-30,333173.5
2007-03-31,303239.0
2007-02-28,300720.0
2007-01-31,294812.5
2006-12-31,277855.0
2006-11-30,296007.5
2006-10-31,314832.5
2006-09-30,331725.0
2006-08-31,308875.0
2006-07-31,298600.0
2006-06-30,300275.0
2006-05-31,271230.0
2006-04-30,268362.5
2006-03-31,270482.5
2006-02-28,274574.25
2006-01-31,271923.25
2005-12-31,279822.5
2005-11-30,258250.0
2005-10-31,259762.5
2005-09-30,268237.5
2005-08-31,285200.0
2005-07-31,282300.0
2005-06-30,262742.5
2005-05-31,252902.5
2005-04-30,242005.0
2005-03-31,245342.5
2005-02-28,249975.0
2005-01-31,249707.5
2004-12-31,240975.0
2004-11-30,220750.0
2004-10-31,218925.0
2004-09-30,225575.0
2004-08-31,228200.0
2004-07-31,225980.5
2004-06-30,220179.5
2004-05-31,231010.0
2004-04-30,223717.5
2004-03-31,218500.0
2004-02-29,199457.5
2004-01-31,191575.0
2003-12-31,202450.0
2003-11-30,203950.0
2003-10-31,209742.5
2003-09-30,216982.5
2003-08-31,216467.5
2003-07-31,231232.5
2003-06-30,224025.0
2003-05-31,203693.5
2003-04-30,189151.5
2003-03-31,187195.0
2003-02-28,183400.0
2003-01-31,194650.0
2002-12-31,186700.0
2002-11-30,199185.0
2002-10-31,201590.0
2002-09-30,212092.5
2002-08-31,213682.5
2002-07-31,188750.0
2002-06-30,184850.0
2002-05-31,189910.0
2002-04-30,189815.0
2002-03-31,193225.0
2002-02-28,185940.0
2002-01-31,190210.0
2001-12-31,180900.0
2001-11-30,172750.0
2001-10-31,177092.5
2001-09-30,184432.5
2001-08-31,191250.0
2001-07-31,196375.0
2001-06-30,189300.0
2001-05-31,193250.0
2001-04-30,195850.0
2001-03-31,191900.0
2001-02-28,190400.0
2001-01-31,170210.0
2000-12-31,173060.0
2000-11-30,180705.0
2000-10-31,179975.0
2000-09-30,191342.5
2000-08-31,188825.0
2000-07-31,177257.5
2000-06-30,164267.5
2000-05-31,162932.5
2000-04-30,163075.0
2000-03-31,160000.0
2000-02-29,146075.0
2000-01-31,153750.0
1999-12-31,154567.5
1999-11-30,171532.5
1999-10-31,173350.0
1999-09-30,174825.0
1999-08-31,169750.0
1999-07-31,173200.0
1999-06-30,169300.0
1999-05-31,162470.0
1999-04-30,165630.0
1999-03-31,170825.0
1999-02-28,181175.0
1999-01-31,171225.0
1998-12-31,171950.0
1998-11-30,176375.0
1998-10-31,163725.0
1998-09-30,161425.0
1998-08-31,162750.0
1998-07-31,156550.0
1998-06-30,152700.0
1998-05-31,149425.0
1998-04-30,156375.0
1998-03-31,144435.0
1998-02-28,138815.0
1998-01-31,146300.0
1997-12-31,148800.0
1997-11-30,142750.0
1997-10-31,149687.5
1997-09-30,154837.5
1997-08-31,142950.0
1997-07-31,139125.0
1997-06-30,136025.0
1997-05-31,138717.5
1997-04-30,140617.5
1997-03-31,146715.0
1997-02-28,129710.0
1997-01-31,134407.5
1996-12-31,140082.5
1996-11-30,138750.0
1996-10-31,118700.0
1996-09-30,123175.0
1996-08-31,137200.0
1996-07-31,141425.0
1996-06-30,136075.0
1996-05-31,138360.0
1996-04-30,130740.0
