Date,Value
2015-09-30,231400.0
2015-08-31,227500.0
2015-07-31,222200.0
2015-06-30,220000.0
2015-05-31,219400.0
2015-04-30,217400.0
2015-03-31,217300.0
2015-02-28,216700.0
2015-01-31,217900.0
2014-12-31,220100.0
2014-11-30,220000.0
2014-10-31,217000.0
2014-09-30,214600.0
2014-08-31,212600.0
2014-07-31,210300.0
2014-06-30,208500.0
2014-05-31,206200.0
2014-04-30,203400.0
2014-03-31,202900.0
2014-02-28,204100.0
2014-01-31,206200.0
2013-12-31,208600.0
2013-11-30,208600.0
2013-10-31,206500.0
2013-09-30,205900.0
2013-08-31,205600.0
2013-07-31,204800.0
2013-06-30,205200.0
2013-05-31,205900.0
2013-04-30,206500.0
2013-03-31,207500.0
2013-02-28,208800.0
2013-01-31,210600.0
2012-12-31,210700.0
2012-11-30,209700.0
2012-10-31,208100.0
2012-09-30,205600.0
2012-08-31,201900.0
2012-07-31,199200.0
2012-06-30,195600.0
2012-05-31,190500.0
2012-04-30,186800.0
2012-03-31,186300.0
2012-02-29,187300.0
2012-01-31,190000.0
2011-12-31,194900.0
2011-11-30,199200.0
2011-10-31,200300.0
2011-09-30,200100.0
2011-08-31,202200.0
2011-07-31,206600.0
2011-06-30,210200.0
2011-05-31,210500.0
2011-04-30,209700.0
2011-03-31,211300.0
2011-02-28,214200.0
2011-01-31,216300.0
2010-12-31,217700.0
2010-11-30,218900.0
2010-10-31,219500.0
2010-09-30,220300.0
2010-08-31,220200.0
2010-07-31,218900.0
2010-06-30,216100.0
2010-05-31,213400.0
2010-04-30,211700.0
2010-03-31,211900.0
2010-02-28,212200.0
2010-01-31,214000.0
2009-12-31,217500.0
2009-11-30,222000.0
2009-10-31,225100.0
2009-09-30,227000.0
2009-08-31,228800.0
