Date,Value
2015-06-30,1750.0
2015-05-31,1995.0
2015-03-31,2495.0
2015-02-28,1595.0
2015-01-31,1750.0
2014-12-31,1600.0
2014-11-30,1800.0
2014-10-31,2100.0
2014-09-30,1850.0
2014-08-31,2500.0
2014-07-31,1895.0
2014-06-30,1895.0
2014-05-31,1200.0
2014-04-30,2300.0
2014-01-31,2295.0
2013-11-30,1750.0
2013-10-31,1500.0
2013-09-30,1750.0
2013-08-31,1825.0
2013-07-31,1750.0
2013-06-30,1895.0
2013-05-31,1895.0
2013-04-30,1350.0
2013-03-31,2395.0
2013-02-28,2000.0
2013-01-31,1700.0
2012-12-31,2350.0
2012-11-30,2350.0
2012-10-31,1750.0
2012-09-30,1750.0
2012-08-31,1600.0
2012-07-31,1695.0
2012-06-30,1695.0
2012-03-31,1350.0
2012-02-29,1295.0
2012-01-31,1600.0
2011-12-31,1595.0
2011-11-30,1699.0
2011-10-31,1610.0
2011-09-30,1995.0
2011-08-31,1995.0
2011-07-31,1995.0
2011-06-30,1995.0
2011-05-31,1400.0
2011-03-31,1299.0
2011-02-28,1595.0
