Date,Value
2015-09-30,361500.0
2015-08-31,355500.0
2015-07-31,353400.0
2015-06-30,357500.0
2015-05-31,358500.0
2015-04-30,354000.0
2015-03-31,348900.0
2015-02-28,344400.0
2015-01-31,342100.0
2014-12-31,339800.0
2014-11-30,337700.0
2014-10-31,335900.0
2014-09-30,334400.0
2014-08-31,331800.0
2014-07-31,328800.0
2014-06-30,326700.0
2014-05-31,325300.0
2014-04-30,323300.0
2014-03-31,320200.0
2014-02-28,317300.0
2014-01-31,315200.0
2013-12-31,313200.0
2013-11-30,311100.0
2013-10-31,308900.0
2013-09-30,306100.0
2013-08-31,303100.0
2013-07-31,299600.0
2013-06-30,294400.0
2013-05-31,289000.0
2013-04-30,285300.0
2013-03-31,282500.0
2013-02-28,279400.0
2013-01-31,277100.0
2012-12-31,275300.0
2012-11-30,273400.0
2012-10-31,271600.0
2012-09-30,270700.0
2012-08-31,270300.0
2012-07-31,269700.0
2012-06-30,268800.0
2012-05-31,267100.0
2012-04-30,265700.0
2012-03-31,264600.0
2012-02-29,263500.0
2012-01-31,262900.0
2011-12-31,263300.0
2011-11-30,263400.0
2011-10-31,263100.0
2011-09-30,262800.0
2011-08-31,263000.0
2011-07-31,263800.0
2011-06-30,265000.0
2011-05-31,266200.0
2011-04-30,267200.0
2011-03-31,269800.0
2011-02-28,274200.0
2011-01-31,279000.0
2010-12-31,282900.0
2010-11-30,285600.0
2010-10-31,286900.0
2010-09-30,288500.0
2010-08-31,291100.0
2010-07-31,294600.0
2010-06-30,297900.0
2010-05-31,300100.0
2010-04-30,301600.0
2010-03-31,303300.0
2010-02-28,304400.0
2010-01-31,304000.0
2009-12-31,303100.0
2009-11-30,303100.0
2009-10-31,304000.0
2009-09-30,305400.0
2009-08-31,307800.0
2009-07-31,310500.0
2009-06-30,312900.0
2009-05-31,316200.0
2009-04-30,320700.0
2009-03-31,326100.0
2009-02-28,331000.0
2009-01-31,334100.0
2008-12-31,336800.0
2008-11-30,340700.0
2008-10-31,345900.0
2008-09-30,351000.0
2008-08-31,354400.0
2008-07-31,356400.0
2008-06-30,359400.0
2008-05-31,363100.0
2008-04-30,366600.0
2008-03-31,369500.0
2008-02-29,372100.0
2008-01-31,375200.0
2007-12-31,378500.0
2007-11-30,381700.0
2007-10-31,384800.0
2007-09-30,386300.0
2007-08-31,386700.0
2007-07-31,387300.0
2007-06-30,388000.0
2007-05-31,388000.0
2007-04-30,387500.0
2007-03-31,386400.0
2007-02-28,385100.0
2007-01-31,384300.0
2006-12-31,383800.0
2006-11-30,383100.0
2006-10-31,382400.0
2006-09-30,380800.0
2006-08-31,378100.0
2006-07-31,375100.0
2006-06-30,372500.0
2006-05-31,369200.0
2006-04-30,365000.0
2006-03-31,359900.0
2006-02-28,354700.0
2006-01-31,349800.0
2005-12-31,344700.0
2005-11-30,339000.0
2005-10-31,332500.0
2005-09-30,325400.0
2005-08-31,319100.0
2005-07-31,313000.0
2005-06-30,307300.0
2005-05-31,302400.0
2005-04-30,298000.0
2005-03-31,294500.0
2005-02-28,291400.0
2005-01-31,288000.0
2004-12-31,284700.0
2004-11-30,281600.0
2004-10-31,278200.0
2004-09-30,275400.0
2004-08-31,274200.0
2004-07-31,273400.0
2004-06-30,272100.0
2004-05-31,270200.0
2004-04-30,267700.0
2004-03-31,264400.0
2004-02-29,261900.0
2004-01-31,260200.0
2003-12-31,258100.0
2003-11-30,256000.0
2003-10-31,255000.0
2003-09-30,255100.0
2003-08-31,255200.0
2003-07-31,254800.0
2003-06-30,253900.0
2003-05-31,252900.0
2003-04-30,251900.0
2003-03-31,250500.0
2003-02-28,249000.0
2003-01-31,247600.0
2002-12-31,247000.0
2002-11-30,246500.0
2002-10-31,246000.0
2002-09-30,245700.0
2002-08-31,245000.0
2002-07-31,243800.0
2002-06-30,242200.0
2002-05-31,241100.0
2002-04-30,240500.0
2002-03-31,240800.0
2002-02-28,240500.0
2002-01-31,239900.0
2001-12-31,239200.0
2001-11-30,238400.0
2001-10-31,237700.0
2001-09-30,236900.0
2001-08-31,235400.0
2001-07-31,234000.0
2001-06-30,233500.0
2001-05-31,233500.0
2001-04-30,233000.0
2001-03-31,232200.0
2001-02-28,231200.0
2001-01-31,230100.0
2000-12-31,228800.0
2000-11-30,227200.0
2000-10-31,225700.0
2000-09-30,224100.0
2000-08-31,222200.0
2000-07-31,220100.0
2000-06-30,218900.0
2000-05-31,218200.0
2000-04-30,217900.0
2000-03-31,217300.0
2000-02-29,216800.0
2000-01-31,216300.0
1999-12-31,215500.0
1999-11-30,214200.0
1999-10-31,212500.0
1999-09-30,210700.0
1999-08-31,209900.0
1999-07-31,209600.0
1999-06-30,209100.0
1999-05-31,207900.0
1999-04-30,206600.0
1999-03-31,205400.0
1999-02-28,203900.0
1999-01-31,202600.0
1998-12-31,201700.0
1998-11-30,201500.0
1998-10-31,200700.0
1998-09-30,199500.0
1998-08-31,198400.0
1998-07-31,197400.0
1998-06-30,195200.0
1998-05-31,192700.0
1998-04-30,190400.0
1998-03-31,188600.0
1998-02-28,187300.0
1998-01-31,186200.0
1997-12-31,185200.0
1997-11-30,185100.0
1997-10-31,185600.0
1997-09-30,185500.0
1997-08-31,184400.0
1997-07-31,183200.0
1997-06-30,181800.0
1997-05-31,180000.0
1997-04-30,177900.0
1997-03-31,175800.0
1997-02-28,174200.0
1997-01-31,173100.0
1996-12-31,171600.0
1996-11-30,169500.0
1996-10-31,167600.0
1996-09-30,166100.0
1996-08-31,165400.0
1996-07-31,165000.0
1996-06-30,164700.0
1996-05-31,164800.0
1996-04-30,165300.0
