Date,Value
2015-04-30,99500.0
2015-03-31,94400.0
2015-02-28,89900.0
2015-01-31,89300.0
2014-12-31,91100.0
2014-11-30,94900.0
2014-10-31,99500.0
2014-09-30,104900.0
2014-08-31,108100.0
2014-07-31,107600.0
2014-06-30,107600.0
2014-05-31,111200.0
2014-04-30,118800.0
2014-03-31,126900.0
2014-02-28,131400.0
2014-01-31,130700.0
2013-12-31,129600.0
2013-11-30,127000.0
2013-10-31,123400.0
2013-09-30,119800.0
2013-08-31,120700.0
2013-07-31,124600.0
2013-06-30,126500.0
2013-05-31,123000.0
2013-04-30,118200.0
2013-03-31,115500.0
2013-02-28,115500.0
2013-01-31,114800.0
2012-12-31,113000.0
2012-11-30,110200.0
2012-10-31,107600.0
2012-09-30,105500.0
2012-08-31,103300.0
2012-07-31,101700.0
2012-06-30,101300.0
2012-05-31,100200.0
2012-04-30,97700.0
2012-03-31,96400.0
2012-02-29,97200.0
2012-01-31,99100.0
2011-12-31,101000.0
2011-11-30,103000.0
2011-10-31,104100.0
2011-09-30,103200.0
2011-08-31,100900.0
2011-07-31,99800.0
2011-06-30,99800.0
2011-05-31,99500.0
2011-04-30,99200.0
2011-03-31,100000.0
2011-02-28,101300.0
2011-01-31,102300.0
2010-12-31,103800.0
2010-11-30,105100.0
2010-10-31,107100.0
2010-09-30,109900.0
2010-08-31,112300.0
2010-07-31,114000.0
2010-06-30,115300.0
2010-05-31,114900.0
2010-04-30,113600.0
2010-03-31,114700.0
