Date,Value
2015-09-30,278800.0
2015-08-31,279400.0
2015-07-31,282400.0
2015-06-30,281000.0
2015-05-31,279200.0
2015-04-30,274200.0
2015-03-31,267200.0
2015-02-28,263100.0
2015-01-31,262600.0
2014-12-31,261200.0
2014-11-30,263300.0
2014-10-31,264000.0
2014-09-30,260500.0
2014-08-31,253500.0
2014-07-31,247000.0
2014-06-30,244100.0
2014-05-31,241900.0
2014-04-30,239300.0
2014-03-31,237900.0
2014-02-28,237400.0
2014-01-31,235700.0
2013-12-31,236100.0
2013-11-30,235400.0
2013-10-31,234400.0
2013-09-30,233500.0
2013-08-31,232800.0
2013-07-31,229200.0
2013-06-30,221600.0
2013-05-31,213000.0
2013-04-30,207800.0
2013-03-31,205800.0
2013-02-28,204500.0
2013-01-31,202100.0
2012-12-31,198400.0
2012-11-30,194700.0
2012-10-31,191800.0
2012-09-30,189700.0
2012-08-31,187800.0
2012-07-31,186300.0
2012-06-30,185800.0
2012-05-31,185300.0
2012-04-30,184400.0
2012-03-31,185000.0
2012-02-29,187600.0
2012-01-31,189600.0
2011-12-31,190800.0
2011-11-30,191100.0
2011-10-31,190400.0
2011-09-30,190300.0
2011-08-31,193500.0
2011-07-31,198800.0
2011-06-30,203100.0
2011-05-31,204900.0
2011-04-30,207000.0
2011-03-31,208800.0
2011-02-28,208700.0
2011-01-31,208800.0
2010-12-31,210400.0
2010-11-30,213300.0
2010-10-31,217100.0
2010-09-30,220500.0
2010-08-31,222000.0
2010-07-31,225200.0
2010-06-30,230600.0
2010-05-31,237400.0
2010-04-30,241800.0
2010-03-31,242500.0
2010-02-28,242600.0
2010-01-31,244000.0
2009-12-31,242900.0
2009-11-30,240200.0
2009-10-31,237900.0
2009-09-30,237800.0
2009-08-31,238600.0
2009-07-31,239500.0
2009-06-30,240000.0
2009-05-31,242500.0
2009-04-30,246700.0
2009-03-31,252900.0
2009-02-28,258700.0
2009-01-31,262800.0
2008-12-31,266200.0
2008-11-30,271800.0
2008-10-31,278700.0
2008-09-30,282100.0
2008-08-31,282500.0
2008-07-31,283100.0
2008-06-30,284600.0
2008-05-31,285400.0
2008-04-30,286800.0
2008-03-31,288800.0
2008-02-29,290300.0
2008-01-31,291200.0
2007-12-31,293600.0
2007-11-30,297000.0
2007-10-31,301200.0
2007-09-30,303800.0
2007-08-31,305300.0
2007-07-31,306500.0
2007-06-30,309000.0
2007-05-31,309500.0
2007-04-30,307500.0
2007-03-31,305000.0
2007-02-28,302000.0
2007-01-31,297800.0
2006-12-31,294100.0
2006-11-30,288900.0
2006-10-31,283100.0
2006-09-30,282100.0
2006-08-31,281100.0
2006-07-31,275700.0
2006-06-30,270700.0
2006-05-31,267700.0
2006-04-30,263400.0
2006-03-31,258300.0
2006-02-28,255000.0
2006-01-31,255000.0
2005-12-31,255200.0
2005-11-30,253600.0
2005-10-31,250100.0
2005-09-30,245100.0
2005-08-31,239100.0
2005-07-31,233300.0
2005-06-30,227200.0
2005-05-31,223300.0
2005-04-30,222200.0
2005-03-31,221500.0
2005-02-28,219500.0
2005-01-31,216600.0
2004-12-31,213900.0
2004-11-30,212300.0
2004-10-31,210200.0
2004-09-30,208100.0
2004-08-31,209000.0
2004-07-31,211200.0
2004-06-30,210800.0
2004-05-31,208100.0
2004-04-30,206200.0
2004-03-31,204100.0
2004-02-29,202200.0
2004-01-31,201300.0
2003-12-31,201100.0
2003-11-30,200000.0
2003-10-31,199100.0
2003-09-30,197200.0
2003-08-31,195600.0
2003-07-31,196800.0
2003-06-30,198800.0
2003-05-31,198900.0
2003-04-30,197600.0
2003-03-31,197100.0
2003-02-28,196600.0
2003-01-31,195200.0
2002-12-31,193200.0
2002-11-30,191200.0
2002-10-31,189100.0
2002-09-30,188000.0
2002-08-31,187400.0
2002-07-31,185900.0
2002-06-30,183900.0
2002-05-31,182100.0
2002-04-30,180800.0
2002-03-31,180700.0
2002-02-28,180700.0
2002-01-31,180000.0
2001-12-31,179000.0
2001-11-30,178500.0
2001-10-31,178300.0
2001-09-30,177700.0
2001-08-31,176400.0
2001-07-31,176200.0
2001-06-30,178100.0
2001-05-31,181200.0
2001-04-30,182000.0
2001-03-31,180100.0
2001-02-28,178100.0
2001-01-31,176600.0
2000-12-31,175500.0
2000-11-30,174600.0
2000-10-31,174900.0
2000-09-30,177400.0
2000-08-31,179700.0
2000-07-31,178300.0
2000-06-30,175300.0
2000-05-31,172700.0
2000-04-30,170300.0
2000-03-31,168200.0
2000-02-29,167100.0
2000-01-31,166300.0
1999-12-31,165800.0
1999-11-30,165000.0
1999-10-31,164700.0
1999-09-30,165400.0
1999-08-31,166700.0
1999-07-31,167600.0
1999-06-30,166900.0
1999-05-31,165800.0
1999-04-30,165100.0
1999-03-31,163700.0
1999-02-28,161700.0
1999-01-31,160000.0
1998-12-31,158800.0
1998-11-30,157800.0
1998-10-31,155700.0
1998-09-30,152700.0
1998-08-31,149700.0
1998-07-31,145900.0
1998-06-30,142400.0
1998-05-31,140700.0
1998-04-30,139400.0
1998-03-31,137600.0
1998-02-28,136500.0
1998-01-31,135600.0
1997-12-31,133700.0
1997-11-30,132800.0
1997-10-31,133700.0
1997-09-30,133200.0
1997-08-31,130300.0
1997-07-31,128200.0
1997-06-30,127200.0
1997-05-31,126000.0
1997-04-30,126000.0
1997-03-31,126600.0
1997-02-28,126900.0
1997-01-31,127100.0
1996-12-31,127600.0
1996-11-30,127000.0
1996-10-31,126300.0
1996-09-30,124500.0
1996-08-31,123500.0
1996-07-31,124000.0
1996-06-30,125300.0
1996-05-31,125700.0
1996-04-30,126400.0
