Date,Value
2015-09-30,143900.0
2015-08-31,142600.0
2015-07-31,134100.0
2015-06-30,142500.0
2015-05-31,145200.0
2015-04-30,146700.0
2015-03-31,143300.0
2015-02-28,138800.0
2015-01-31,135000.0
2014-12-31,132900.0
2014-11-30,131800.0
2014-10-31,130300.0
2014-09-30,129000.0
2014-08-31,128100.0
2014-07-31,128200.0
2014-06-30,127800.0
2014-05-31,127100.0
2014-04-30,128100.0
2014-03-31,130600.0
2014-02-28,131300.0
2014-01-31,129700.0
2013-12-31,128100.0
2013-11-30,127100.0
2013-10-31,127100.0
2013-09-30,127200.0
2013-08-31,126800.0
2013-07-31,126200.0
2013-06-30,127300.0
2013-05-31,128700.0
2013-04-30,127900.0
2013-03-31,127300.0
2013-02-28,128700.0
2013-01-31,129700.0
2012-12-31,129200.0
2012-11-30,128300.0
2012-10-31,127800.0
2012-09-30,127200.0
2012-08-31,126600.0
2012-07-31,126800.0
2012-06-30,127700.0
2012-05-31,127700.0
2012-04-30,127300.0
2012-03-31,127100.0
2012-02-29,127400.0
2012-01-31,127500.0
2011-12-31,127800.0
2011-11-30,128400.0
2011-10-31,129400.0
2011-09-30,130100.0
2011-08-31,131000.0
2011-07-31,131600.0
2011-06-30,131700.0
2011-05-31,131000.0
2011-04-30,129600.0
2011-03-31,128200.0
2011-02-28,127400.0
2011-01-31,127200.0
2010-12-31,126900.0
2010-11-30,126300.0
2010-10-31,125500.0
2010-09-30,125300.0
2010-08-31,125600.0
2010-07-31,126000.0
2010-06-30,125800.0
2010-05-31,125300.0
2010-04-30,124600.0
2010-03-31,123900.0
2010-02-28,122300.0
2010-01-31,121100.0
2009-12-31,121800.0
2009-11-30,123900.0
2009-10-31,125600.0
2009-09-30,126400.0
2009-08-31,126000.0
2009-07-31,124800.0
2009-06-30,123700.0
2009-05-31,123000.0
2009-04-30,123100.0
2009-03-31,123800.0
2009-02-28,125300.0
2009-01-31,126500.0
2008-12-31,125900.0
2008-11-30,124100.0
2008-10-31,122200.0
2008-09-30,120000.0
2008-08-31,117800.0
2008-07-31,116200.0
2008-06-30,115800.0
2008-05-31,115400.0
2008-04-30,115000.0
2008-03-31,114500.0
2008-02-29,114400.0
2008-01-31,113700.0
2007-12-31,112900.0
2007-11-30,112400.0
2007-10-31,113000.0
2007-09-30,113600.0
2007-08-31,114800.0
2007-07-31,115500.0
2007-06-30,115200.0
2007-05-31,114500.0
2007-04-30,114700.0
2007-03-31,115200.0
2007-02-28,115700.0
2007-01-31,116600.0
2006-12-31,117900.0
2006-11-30,118900.0
2006-10-31,119300.0
2006-09-30,119500.0
2006-08-31,120500.0
2006-07-31,121400.0
2006-06-30,121600.0
2006-05-31,121900.0
2006-04-30,121100.0
2006-03-31,120000.0
2006-02-28,119700.0
2006-01-31,120000.0
2005-12-31,119800.0
2005-11-30,119100.0
2005-10-31,117500.0
2005-09-30,115700.0
2005-08-31,114000.0
2005-07-31,112000.0
2005-06-30,109600.0
2005-05-31,107300.0
2005-04-30,106800.0
2005-03-31,107100.0
2005-02-28,106400.0
2005-01-31,105400.0
2004-12-31,104600.0
2004-11-30,104000.0
2004-10-31,104100.0
2004-09-30,105000.0
2004-08-31,105500.0
2004-07-31,106600.0
2004-06-30,109300.0
2004-05-31,112600.0
2004-04-30,114400.0
2004-03-31,114800.0
2004-02-29,114500.0
2004-01-31,114000.0
2003-12-31,113600.0
2003-11-30,113200.0
2003-10-31,112200.0
2003-09-30,111400.0
2003-08-31,111400.0
2003-07-31,111600.0
2003-06-30,111800.0
2003-05-31,111900.0
2003-04-30,111700.0
2003-03-31,111400.0
2003-02-28,111600.0
2003-01-31,112100.0
2002-12-31,112600.0
2002-11-30,113200.0
2002-10-31,113700.0
2002-09-30,113500.0
2002-08-31,113400.0
2002-07-31,113100.0
2002-06-30,112200.0
2002-05-31,110400.0
2002-04-30,108300.0
2002-03-31,106600.0
2002-02-28,105400.0
2002-01-31,104200.0
2001-12-31,102800.0
2001-11-30,101800.0
2001-10-31,100800.0
2001-09-30,99800.0
2001-08-31,98100.0
2001-07-31,96300.0
2001-06-30,95000.0
2001-05-31,94300.0
2001-04-30,93800.0
2001-03-31,93200.0
2001-02-28,92600.0
2001-01-31,92000.0
2000-12-31,91500.0
2000-11-30,90800.0
2000-10-31,90400.0
2000-09-30,89800.0
2000-08-31,89600.0
2000-07-31,89500.0
2000-06-30,88900.0
2000-05-31,87800.0
2000-04-30,87200.0
2000-03-31,87200.0
2000-02-29,87200.0
2000-01-31,87100.0
1999-12-31,87200.0
1999-11-30,87300.0
1999-10-31,87400.0
1999-09-30,87500.0
1999-08-31,87300.0
1999-07-31,87000.0
1999-06-30,86600.0
1999-05-31,86400.0
1999-04-30,86500.0
1999-03-31,86900.0
1999-02-28,87100.0
1999-01-31,87500.0
1998-12-31,88200.0
1998-11-30,89300.0
1998-10-31,91200.0
1998-09-30,93500.0
1998-08-31,95400.0
1998-07-31,96200.0
1998-06-30,96400.0
1998-05-31,96800.0
1998-04-30,97300.0
1998-03-31,96900.0
1998-02-28,95900.0
1998-01-31,95100.0
1997-12-31,94200.0
1997-11-30,93100.0
1997-10-31,91700.0
1997-09-30,90300.0
1997-08-31,88400.0
1997-07-31,86400.0
1997-06-30,85400.0
1997-05-31,85200.0
1997-04-30,84900.0
1997-03-31,84900.0
1997-02-28,85000.0
1997-01-31,84400.0
1996-12-31,83400.0
1996-11-30,82800.0
1996-10-31,82400.0
1996-09-30,82000.0
1996-08-31,82400.0
1996-07-31,82800.0
1996-06-30,83600.0
1996-05-31,84200.0
1996-04-30,83900.0
