Date,Value
2015-02-28,349000.0
2015-01-31,330000.0
2014-12-31,299950.0
2014-11-30,309900.0
2014-10-31,329900.0
2014-09-30,329900.0
2014-08-31,319950.0
2014-07-31,319950.0
2014-06-30,319950.0
2014-05-31,319950.0
2014-04-30,319950.0
2014-03-31,305000.0
2014-02-28,305000.0
2014-01-31,299999.0
2013-12-31,309950.0
2013-11-30,305000.0
2013-10-31,300000.0
2013-09-30,299950.0
2013-08-31,285000.0
2013-07-31,275000.0
2013-06-30,275000.0
2013-05-31,259950.0
2013-04-30,250000.0
2013-03-31,239950.0
2013-02-28,235000.0
2013-01-31,239000.0
2012-12-31,235000.0
2012-11-30,245000.0
2012-10-31,240000.0
2012-09-30,239950.0
2012-08-31,245900.0
2012-07-31,235000.0
2012-06-30,239000.0
2012-05-31,229900.0
2012-04-30,211900.0
2012-03-31,224950.0
2012-02-29,225000.0
2012-01-31,227776.0
2011-12-31,225000.0
2011-11-30,230000.0
2011-10-31,239000.0
2011-09-30,240000.0
2011-08-31,239900.0
2011-07-31,225000.0
2011-06-30,229950.0
2011-05-31,239000.0
2011-04-30,230000.0
2011-03-31,234900.0
2011-02-28,245000.0
2011-01-31,249000.0
2010-12-31,249950.0
2010-11-30,250000.0
2010-10-31,255000.0
2010-09-30,259950.0
2010-08-31,259950.0
2010-07-31,259950.0
2010-06-30,269950.0
2010-05-31,275000.0
2010-04-30,274950.0
2010-03-31,269950.0
2010-02-28,265000.0
2010-01-31,269000.0
2009-12-31,275000.0
2009-11-30,280000.0
2009-10-31,289950.0
2009-09-30,294500.0
2009-08-31,299000.0
2009-07-31,299990.0
2009-06-30,310000.0
2009-05-31,310000.0
2009-04-30,315000.0
2009-03-31,315000.0
2009-02-28,329950.0
2009-01-31,334950.0
2008-12-31,336900.0
2008-11-30,340000.0
2008-10-31,344950.0
