Date,Value
2015-02-28,329000.0
2015-01-31,329000.0
2014-12-31,320000.0
2014-11-30,339500.0
2014-10-31,339500.0
2014-09-30,335000.0
2014-08-31,335000.0
2014-07-31,329000.0
2014-06-30,317500.0
2014-05-31,329000.0
2014-04-30,329000.0
2014-03-31,335000.0
2014-02-28,320000.0
2014-01-31,329000.0
2013-12-31,339000.0
2013-11-30,339000.0
2013-10-31,359500.0
2013-09-30,339000.0
2013-08-31,329000.0
2013-07-31,329000.0
2013-06-30,329000.0
2013-05-31,339000.0
2013-04-30,339000.0
2013-03-31,339000.0
2013-02-28,325000.0
2013-01-31,319000.0
2012-12-31,292000.0
2012-11-30,292000.0
2012-10-31,249000.0
2012-09-30,299000.0
2012-08-31,309000.0
2012-07-31,300000.0
2012-06-30,298500.0
2012-05-31,298500.0
2012-04-30,269000.0
2012-03-31,279000.0
2012-02-29,289000.0
2012-01-31,299800.0
2011-12-31,308000.0
2011-11-30,309000.0
2011-10-31,299800.0
2011-09-30,309000.0
2011-08-31,309000.0
2011-07-31,325000.0
2011-06-30,325000.0
2011-05-31,299000.0
2011-04-30,325000.0
2011-03-31,319950.0
2011-02-28,325000.0
2011-01-31,307500.0
2010-12-31,319950.0
2010-11-30,339000.0
2010-10-31,329000.0
2010-09-30,339000.0
2010-08-31,324000.0
2010-07-31,339000.0
2010-06-30,339000.0
2010-05-31,329000.0
2010-04-30,298000.0
2010-03-31,289000.0
2010-02-28,289000.0
2010-01-31,309900.0
2009-12-31,329000.0
2009-11-30,309900.0
2009-10-31,299950.0
2009-09-30,349500.0
2009-08-31,339900.0
2009-07-31,349500.0
2009-06-30,334900.0
2009-05-31,334900.0
2009-04-30,299900.0
2009-03-31,318800.0
2009-02-28,319000.0
2009-01-31,319000.0
2008-12-31,299900.0
2008-11-30,299900.0
2008-10-31,317500.0
