Date,Value
2015-09-30,213800.0
2015-08-31,212000.0
2015-07-31,200600.0
2015-06-30,213400.0
2015-05-31,217100.0
2015-04-30,219600.0
2015-03-31,215300.0
2015-02-28,209400.0
2015-01-31,202600.0
2014-12-31,195500.0
2014-11-30,189000.0
2014-10-31,184900.0
2014-09-30,183000.0
2014-08-31,181700.0
2014-07-31,180300.0
2014-06-30,179200.0
2014-05-31,177900.0
2014-04-30,177100.0
2014-03-31,177200.0
2014-02-28,176400.0
2014-01-31,173300.0
2013-12-31,169900.0
2013-11-30,168200.0
2013-10-31,166900.0
2013-09-30,165400.0
2013-08-31,164000.0
2013-07-31,162700.0
2013-06-30,161400.0
2013-05-31,160200.0
2013-04-30,159600.0
2013-03-31,159700.0
2013-02-28,160700.0
2013-01-31,162500.0
2012-12-31,164500.0
2012-11-30,165700.0
2012-10-31,166300.0
2012-09-30,166200.0
2012-08-31,165700.0
2012-07-31,165900.0
2012-06-30,167300.0
2012-05-31,168700.0
2012-04-30,169100.0
2012-03-31,168800.0
2012-02-29,168700.0
2012-01-31,168800.0
2011-12-31,168900.0
2011-11-30,168800.0
2011-10-31,168600.0
2011-09-30,168500.0
2011-08-31,168700.0
2011-07-31,169100.0
2011-06-30,169400.0
2011-05-31,169200.0
2011-04-30,168700.0
2011-03-31,168700.0
2011-02-28,168900.0
2011-01-31,168900.0
2010-12-31,169300.0
2010-11-30,170000.0
2010-10-31,170400.0
2010-09-30,170500.0
2010-08-31,170800.0
2010-07-31,170900.0
2010-06-30,170400.0
2010-05-31,169300.0
2010-04-30,168200.0
2010-03-31,167600.0
2010-02-28,167400.0
2010-01-31,167500.0
2009-12-31,167100.0
2009-11-30,166500.0
2009-10-31,166000.0
2009-09-30,165500.0
2009-08-31,164800.0
2009-07-31,164200.0
2009-06-30,163700.0
2009-05-31,163100.0
2009-04-30,162400.0
2009-03-31,161700.0
2009-02-28,160900.0
2009-01-31,160900.0
2008-12-31,161300.0
2008-11-30,161500.0
2008-10-31,161400.0
2008-09-30,161500.0
2008-08-31,161900.0
2008-07-31,162100.0
2008-06-30,161900.0
2008-05-31,161500.0
2008-04-30,161600.0
2008-03-31,162200.0
2008-02-29,162800.0
2008-01-31,163100.0
2007-12-31,163300.0
2007-11-30,163500.0
2007-10-31,163400.0
2007-09-30,163100.0
2007-08-31,162400.0
2007-07-31,161700.0
2007-06-30,161400.0
2007-05-31,161300.0
2007-04-30,160600.0
2007-03-31,159500.0
2007-02-28,158400.0
2007-01-31,157400.0
2006-12-31,156300.0
2006-11-30,155600.0
2006-10-31,155500.0
2006-09-30,155700.0
2006-08-31,155900.0
2006-07-31,156200.0
2006-06-30,156600.0
2006-05-31,156900.0
2006-04-30,157300.0
2006-03-31,157800.0
2006-02-28,158100.0
2006-01-31,158000.0
2005-12-31,157700.0
2005-11-30,157500.0
2005-10-31,156700.0
2005-09-30,155300.0
2005-08-31,154000.0
2005-07-31,153000.0
2005-06-30,151900.0
2005-05-31,150600.0
2005-04-30,149100.0
2005-03-31,147800.0
2005-02-28,147300.0
2005-01-31,147500.0
2004-12-31,147600.0
2004-11-30,147500.0
2004-10-31,147500.0
2004-09-30,148000.0
2004-08-31,148400.0
2004-07-31,148400.0
2004-06-30,147900.0
2004-05-31,147500.0
2004-04-30,147400.0
2004-03-31,147300.0
2004-02-29,147000.0
2004-01-31,146400.0
2003-12-31,145900.0
2003-11-30,145200.0
2003-10-31,144300.0
2003-09-30,143500.0
2003-08-31,143000.0
2003-07-31,142800.0
2003-06-30,142900.0
2003-05-31,143300.0
2003-04-30,143200.0
2003-03-31,142700.0
2003-02-28,142400.0
2003-01-31,142200.0
2002-12-31,142200.0
2002-11-30,142200.0
2002-10-31,141800.0
2002-09-30,141300.0
2002-08-31,141000.0
2002-07-31,140800.0
2002-06-30,140600.0
2002-05-31,140500.0
2002-04-30,140400.0
2002-03-31,140000.0
2002-02-28,139100.0
2002-01-31,138200.0
2001-12-31,137300.0
2001-11-30,135900.0
2001-10-31,134400.0
2001-09-30,133000.0
2001-08-31,131400.0
2001-07-31,129300.0
2001-06-30,127200.0
2001-05-31,125500.0
2001-04-30,124700.0
2001-03-31,124600.0
2001-02-28,124000.0
2001-01-31,122800.0
2000-12-31,121600.0
2000-11-30,121400.0
2000-10-31,122200.0
2000-09-30,122800.0
2000-08-31,122700.0
2000-07-31,122300.0
2000-06-30,121700.0
2000-05-31,120900.0
2000-04-30,120300.0
2000-03-31,119700.0
2000-02-29,119000.0
2000-01-31,118200.0
1999-12-31,117500.0
1999-11-30,117000.0
1999-10-31,116400.0
1999-09-30,115800.0
1999-08-31,115500.0
1999-07-31,115600.0
1999-06-30,115900.0
1999-05-31,115800.0
1999-04-30,115800.0
1999-03-31,116000.0
1999-02-28,115700.0
1999-01-31,115300.0
1998-12-31,115100.0
1998-11-30,114800.0
1998-10-31,114400.0
1998-09-30,114300.0
1998-08-31,114400.0
1998-07-31,114500.0
1998-06-30,115100.0
1998-05-31,115500.0
1998-04-30,115500.0
1998-03-31,115200.0
1998-02-28,114500.0
1998-01-31,113700.0
1997-12-31,113200.0
1997-11-30,113100.0
1997-10-31,112600.0
1997-09-30,111900.0
1997-08-31,111200.0
1997-07-31,110700.0
1997-06-30,109900.0
1997-05-31,109200.0
1997-04-30,109400.0
1997-03-31,110100.0
1997-02-28,110400.0
1997-01-31,110300.0
1996-12-31,110500.0
1996-11-30,110800.0
1996-10-31,111300.0
1996-09-30,111500.0
1996-08-31,111500.0
1996-07-31,111400.0
1996-06-30,111700.0
1996-05-31,111700.0
1996-04-30,109300.0
