Date,Value
2015-09-30,99200.0
2015-08-31,98900.0
2015-07-31,97300.0
2015-06-30,96600.0
2015-05-31,96600.0
2015-04-30,95500.0
2015-03-31,94800.0
2015-02-28,94000.0
2015-01-31,93900.0
2014-12-31,94200.0
2014-11-30,94200.0
2014-10-31,93700.0
2014-09-30,93400.0
2014-08-31,93700.0
2014-07-31,94400.0
2014-06-30,95000.0
2014-05-31,95400.0
2014-04-30,96600.0
2014-03-31,98100.0
2014-02-28,98100.0
2014-01-31,96700.0
2013-12-31,95600.0
2013-11-30,95000.0
2013-10-31,94400.0
2013-09-30,93600.0
2013-08-31,92900.0
2013-07-31,92400.0
2013-06-30,92000.0
2013-05-31,91500.0
2013-04-30,90700.0
2013-03-31,90300.0
2013-02-28,90300.0
2013-01-31,90500.0
2012-12-31,90700.0
2012-11-30,90800.0
2012-10-31,91000.0
2012-09-30,91200.0
2012-08-31,91500.0
2012-07-31,91200.0
2012-06-30,90900.0
2012-05-31,91000.0
2012-04-30,91000.0
2012-03-31,91000.0
2012-02-29,91400.0
2012-01-31,91900.0
2011-12-31,92200.0
2011-11-30,92600.0
2011-10-31,92900.0
2011-09-30,93200.0
2011-08-31,93400.0
2011-07-31,94000.0
2011-06-30,94500.0
2011-05-31,95000.0
2011-04-30,95600.0
2011-03-31,96200.0
2011-02-28,97000.0
2011-01-31,98100.0
2010-12-31,99400.0
2010-11-30,100500.0
2010-10-31,101900.0
2010-09-30,103700.0
2010-08-31,105000.0
2010-07-31,106000.0
2010-06-30,106700.0
2010-05-31,107000.0
2010-04-30,107000.0
2010-03-31,107100.0
2010-02-28,107700.0
2010-01-31,108500.0
2009-12-31,108600.0
2009-11-30,108600.0
2009-10-31,108500.0
2009-09-30,108400.0
2009-08-31,108300.0
2009-07-31,108300.0
2009-06-30,108600.0
2009-05-31,108900.0
2009-04-30,109200.0
2009-03-31,109700.0
2009-02-28,110300.0
2009-01-31,110400.0
2008-12-31,110500.0
2008-11-30,111000.0
2008-10-31,112100.0
2008-09-30,113100.0
2008-08-31,113700.0
2008-07-31,114300.0
2008-06-30,115200.0
2008-05-31,116200.0
2008-04-30,117000.0
2008-03-31,117500.0
2008-02-29,117300.0
2008-01-31,116900.0
2007-12-31,116900.0
2007-11-30,116900.0
2007-10-31,116400.0
2007-09-30,116000.0
2007-08-31,116200.0
2007-07-31,116300.0
2007-06-30,116000.0
2007-05-31,115600.0
2007-04-30,115000.0
2007-03-31,114300.0
2007-02-28,113600.0
2007-01-31,113000.0
2006-12-31,112100.0
2006-11-30,111300.0
2006-10-31,110400.0
2006-09-30,109300.0
2006-08-31,107900.0
2006-07-31,106600.0
2006-06-30,105200.0
2006-05-31,103800.0
2006-04-30,102300.0
2006-03-31,101200.0
2006-02-28,100300.0
2006-01-31,99700.0
2005-12-31,98900.0
2005-11-30,97800.0
2005-10-31,96400.0
2005-09-30,94800.0
2005-08-31,93200.0
2005-07-31,91800.0
2005-06-30,90500.0
2005-05-31,89300.0
2005-04-30,88200.0
2005-03-31,87000.0
2005-02-28,86000.0
2005-01-31,85300.0
2004-12-31,84500.0
2004-11-30,83700.0
2004-10-31,83100.0
2004-09-30,82600.0
2004-08-31,81900.0
2004-07-31,81000.0
2004-06-30,80100.0
2004-05-31,79400.0
2004-04-30,78900.0
2004-03-31,78400.0
2004-02-29,77700.0
2004-01-31,77000.0
2003-12-31,76400.0
2003-11-30,75900.0
2003-10-31,75400.0
2003-09-30,75200.0
2003-08-31,75000.0
2003-07-31,74500.0
2003-06-30,74000.0
2003-05-31,73600.0
2003-04-30,73600.0
2003-03-31,73400.0
2003-02-28,73400.0
2003-01-31,73300.0
2002-12-31,73300.0
2002-11-30,72800.0
2002-10-31,72200.0
2002-09-30,71600.0
2002-08-31,71500.0
2002-07-31,71500.0
2002-06-30,71300.0
2002-05-31,71100.0
2002-04-30,70800.0
2002-03-31,70700.0
2002-02-28,70800.0
2002-01-31,70700.0
2001-12-31,70200.0
2001-11-30,70200.0
2001-10-31,70500.0
2001-09-30,70400.0
2001-08-31,70100.0
2001-07-31,70300.0
2001-06-30,70500.0
2001-05-31,70600.0
2001-04-30,70600.0
2001-03-31,70400.0
2001-02-28,69600.0
2001-01-31,69000.0
2000-12-31,68900.0
2000-11-30,69400.0
2000-10-31,69500.0
2000-09-30,69300.0
2000-08-31,69200.0
2000-07-31,69200.0
2000-06-30,69100.0
2000-05-31,69100.0
2000-04-30,69100.0
2000-03-31,69200.0
2000-02-29,69300.0
2000-01-31,69100.0
1999-12-31,68700.0
1999-11-30,68500.0
1999-10-31,68600.0
1999-09-30,68800.0
1999-08-31,68900.0
1999-07-31,69100.0
1999-06-30,69500.0
1999-05-31,69700.0
1999-04-30,69700.0
1999-03-31,69700.0
1999-02-28,69500.0
1999-01-31,69300.0
1998-12-31,69300.0
1998-11-30,69000.0
1998-10-31,68700.0
1998-09-30,68500.0
1998-08-31,68300.0
1998-07-31,67900.0
1998-06-30,67600.0
1998-05-31,67400.0
1998-04-30,67200.0
1998-03-31,66800.0
1998-02-28,66500.0
1998-01-31,66300.0
1997-12-31,66300.0
1997-11-30,66000.0
1997-10-31,65700.0
1997-09-30,65500.0
1997-08-31,65600.0
1997-07-31,65600.0
1997-06-30,65800.0
1997-05-31,65900.0
1997-04-30,65900.0
1997-03-31,65800.0
1997-02-28,65900.0
1997-01-31,66100.0
1996-12-31,66000.0
1996-11-30,65700.0
1996-10-31,65800.0
1996-09-30,66200.0
1996-08-31,66400.0
1996-07-31,66400.0
1996-06-30,66400.0
1996-05-31,66200.0
1996-04-30,66000.0
