Date,Value
2015-09-30,250275.0
2015-08-31,245875.0
2015-07-31,241750.0
2015-06-30,237742.5
2015-05-31,219732.5
2015-04-30,219875.0
2015-03-31,231588.2353
2015-02-28,239615.3846
2014-12-31,212650.0
2014-11-30,196150.0
2014-10-31,209375.0
2014-09-30,214684.5
2014-08-31,216355.5
2014-07-31,227900.0
2014-06-30,223715.0
2014-05-31,208125.0
2014-04-30,178575.0
2014-03-31,197500.0
2014-02-28,216250.0
2014-01-31,196250.0
2013-12-31,216000.0
2013-11-30,209595.0
2013-08-31,168500.0
2013-07-31,174000.0
2013-06-30,183529.4118
2013-05-31,153076.9231
2013-03-31,159647.0588
2013-02-28,186561.5385
2012-12-31,159212.5
2012-11-30,172212.5
2012-10-31,147625.0
2012-09-30,167500.0
2012-08-31,172350.0
2012-07-31,157648.5
2012-06-30,140621.5
2012-05-31,155987.5
2012-04-30,163655.8824
2012-03-31,172450.0
2011-12-31,172294.1176
2011-11-30,194965.0
2011-10-31,194950.0
2011-09-30,198950.0
2011-08-31,197550.0
2011-07-31,200250.0
2011-06-30,210294.1176
2011-05-31,219911.5385
2011-03-31,202950.0
2010-12-31,213400.0
2010-11-30,230750.0
2010-10-31,243750.0
2010-09-30,249705.8824
2010-08-31,241180.9231
2010-06-30,261263.5
2010-05-31,258620.0
2010-04-30,255294.1176
2010-03-31,245000.0
2009-12-31,232600.0
2009-11-30,232650.0
2009-10-31,235000.0
2009-09-30,267500.0
2009-08-31,263550.0
2009-07-31,275477.45
2009-06-30,263964.05
2009-05-31,277091.5
2009-03-31,261000.0
2008-12-31,289850.0
2008-11-30,296650.0
2008-10-31,289200.0
2008-09-30,277170.0
2008-08-31,277330.0
2008-07-31,278725.0
2008-06-30,283625.0
2008-05-31,269750.0
2008-04-30,273985.0
2008-03-31,286361.0
2008-02-29,281961.5
2008-01-31,303130.0
2007-12-31,299977.5
2007-11-30,291450.0
2007-10-31,287725.0
2007-09-30,292700.0
2007-08-31,300100.0
2007-07-31,312050.0
2007-06-30,300050.0
2007-05-31,289700.0
2007-04-30,270235.0
2007-03-31,276965.0
2007-02-28,287049.85
2007-01-31,302649.65
2006-12-31,301899.5
2006-11-30,291200.0
2006-10-31,294250.0
2006-09-30,288900.0
2006-08-31,286000.0
2006-07-31,281500.0
2006-06-30,263500.0
2006-05-31,259735.0
2006-04-30,243635.0
2006-03-31,234280.0
2006-02-28,249392.5
2006-01-31,259625.0
2005-12-31,245807.5
2005-11-30,231700.0
2005-10-31,231925.0
2005-09-30,229542.5
2005-08-31,236175.0
2005-07-31,231707.5
2005-06-30,215975.0
2005-05-31,216500.0
2005-04-30,212150.0
2005-03-31,211850.0
2005-02-28,203175.0
2005-01-31,204875.0
2004-12-31,200515.5
2004-11-30,203219.5
2004-10-31,194867.0
2004-09-30,195433.0
2004-08-31,192765.0
2004-07-31,191050.0
2004-06-30,189950.0
2004-05-31,193630.0
2004-04-30,188070.0
2004-03-31,199250.0
2004-02-29,199042.5
2004-01-31,186582.5
2003-12-31,184875.0
2003-11-30,197000.0
2003-10-31,188492.5
2003-09-30,182957.5
2003-08-31,177179.0
2003-07-31,180076.0
2003-06-30,190205.0
2003-05-31,183450.0
2003-04-30,176442.5
2003-03-31,181582.5
2003-02-28,183537.5
2003-01-31,170205.0
2002-12-31,178782.5
2002-11-30,163550.0
2002-10-31,171798.5
2002-09-30,185896.5
2002-08-31,186545.0
2002-07-31,185997.5
2002-06-30,171802.5
2002-05-31,170400.0
2002-04-30,169825.0
2002-03-31,174072.5
2002-02-28,164526.0
2002-01-31,173121.5
2001-12-31,175915.0
2001-11-30,176530.0
2001-10-31,177150.0
2001-09-30,182753.5
2001-08-31,179316.5
2001-07-31,177645.0
2001-06-30,174475.0
2001-05-31,177875.0
2001-04-30,177617.5
2001-03-31,178431.0
2001-02-28,176670.0
2001-01-31,179216.5
2000-12-31,182120.0
2000-11-30,172098.5
2000-10-31,170171.5
2000-09-30,163470.0
2000-08-31,160448.5
2000-07-31,154296.5
2000-06-30,157003.75
2000-05-31,153733.75
2000-04-30,145381.0
2000-03-31,142389.0
2000-02-29,136176.0
2000-01-31,138421.5
1999-12-31,134392.0
1999-11-30,136941.5
1999-10-31,137485.0
1999-09-30,134666.5
1999-08-31,137220.0
1999-07-31,141592.5
1999-06-30,141631.0
1999-05-31,135214.0
1999-04-30,125075.7
1999-03-31,123920.8
1999-02-28,124693.85
1999-01-31,136792.15
1998-12-31,142407.0
1998-11-30,133750.0
1998-10-31,141450.0
1998-09-30,145050.0
1998-08-31,141425.0
1998-07-31,143023.5
1998-06-30,138224.8
1998-05-31,131320.2
1998-04-30,128746.0
1998-03-31,126822.5
1998-02-28,123475.0
1998-01-31,122623.5
1997-12-31,122945.0
1997-11-30,126191.5
1997-10-31,130843.5
1997-09-30,123745.0
1997-08-31,122376.5
1997-07-31,121210.0
1997-06-30,123335.0
1997-05-31,120563.5
1997-04-30,118695.0
1997-03-31,113841.5
1997-02-28,119493.5
1997-01-31,122481.5
1996-12-31,120595.0
1996-11-30,118363.5
1996-10-31,121071.5
1996-09-30,116505.0
1996-08-31,115615.0
1996-07-31,118442.5
1996-06-30,122717.5
1996-05-31,124075.0
1996-04-30,118900.0
