Date,Value
2015-06-30,1295.0
2015-05-31,1252.0
2015-04-30,1185.0
2015-03-31,1250.0
2015-02-28,1315.0
2015-01-31,1328.0
2014-12-31,1300.0
2014-11-30,1393.0
2014-10-31,1383.0
2014-09-30,1307.0
2014-08-31,1329.0
2014-07-31,1299.0
2014-06-30,1195.0
2014-05-31,1210.0
2014-04-30,1195.0
2014-03-31,1195.0
2014-02-28,1235.0
2014-01-31,1295.0
2013-12-31,1265.0
2013-11-30,1200.0
2013-10-31,1450.0
2013-09-30,1300.0
2013-08-31,1475.0
2013-07-31,1250.0
2013-06-30,1150.0
2013-05-31,1150.0
2013-04-30,1180.0
2013-03-31,1240.0
2013-02-28,1166.0
2013-01-31,1100.0
2012-12-31,1195.0
2012-11-30,1195.0
2012-10-31,1130.0
2012-09-30,1112.0
2012-08-31,1143.0
2012-07-31,1191.0
2012-06-30,1174.0
2012-05-31,1150.0
2012-04-30,1160.0
2012-03-31,1198.0
2012-02-29,1135.0
2012-01-31,1095.0
2011-12-31,1095.0
2011-11-30,995.0
2011-10-31,950.0
2011-09-30,1059.0
2011-08-31,1200.0
2011-07-31,1200.0
2011-06-30,1400.0
2011-05-31,1150.0
2011-04-30,1250.0
2011-03-31,999.0
2011-02-28,975.0
2011-01-31,999.0
2010-12-31,1100.0
2010-11-30,1200.0
2010-10-31,1200.0
2010-09-30,1200.0
2010-08-31,1200.0
2010-06-30,1095.0
