Date,Value
2015-09-30,207000.0
2015-08-31,209100.0
2015-07-31,215800.0
2015-06-30,222700.0
2015-05-31,223100.0
2015-04-30,223000.0
2015-03-31,218900.0
2015-02-28,214200.0
2015-01-31,210500.0
2014-12-31,208500.0
2014-11-30,206400.0
2014-10-31,203200.0
2014-09-30,199200.0
2014-08-31,195600.0
2014-07-31,192200.0
2014-06-30,189700.0
2014-05-31,187900.0
2014-04-30,185300.0
2014-03-31,183100.0
2014-02-28,182100.0
2014-01-31,182300.0
2013-12-31,182000.0
2013-11-30,181300.0
2013-10-31,179800.0
2013-09-30,177300.0
2013-08-31,173900.0
2013-07-31,170300.0
2013-06-30,168300.0
2013-05-31,168000.0
2013-04-30,169000.0
2013-03-31,171200.0
2013-02-28,174000.0
2013-01-31,173700.0
2012-12-31,171900.0
2012-11-30,171000.0
2012-10-31,170500.0
2012-09-30,168900.0
2012-08-31,166600.0
2012-07-31,165000.0
2012-06-30,164500.0
2012-05-31,164200.0
2012-04-30,162900.0
2012-03-31,161200.0
2012-02-29,158900.0
2012-01-31,156000.0
2011-12-31,153700.0
2011-11-30,153900.0
2011-10-31,155900.0
2011-09-30,158800.0
2011-08-31,162100.0
2011-07-31,166600.0
2011-06-30,169600.0
2011-05-31,169100.0
2011-04-30,167800.0
2011-03-31,167300.0
2011-02-28,167400.0
2011-01-31,168000.0
2010-12-31,169600.0
2010-11-30,172100.0
2010-10-31,175100.0
2010-09-30,177700.0
2010-08-31,180000.0
2010-07-31,182500.0
2010-06-30,185600.0
2010-05-31,188900.0
2010-04-30,190800.0
2010-03-31,192200.0
2010-02-28,193800.0
2010-01-31,195600.0
2009-12-31,196200.0
2009-11-30,196500.0
2009-10-31,197400.0
2009-09-30,200500.0
2009-08-31,204600.0
2009-07-31,207600.0
2009-06-30,209800.0
2009-05-31,212100.0
2009-04-30,214500.0
2009-03-31,217700.0
2009-02-28,220900.0
2009-01-31,225100.0
2008-12-31,230300.0
2008-11-30,234100.0
2008-10-31,235100.0
2008-09-30,236400.0
2008-08-31,237200.0
2008-07-31,236400.0
2008-06-30,237000.0
2008-05-31,238400.0
2008-04-30,239600.0
2008-03-31,241400.0
2008-02-29,243500.0
2008-01-31,243800.0
2007-12-31,245300.0
2007-11-30,248400.0
2007-10-31,250400.0
2007-09-30,251100.0
2007-08-31,252800.0
2007-07-31,253700.0
2007-06-30,252700.0
2007-05-31,251900.0
2007-04-30,252100.0
2007-03-31,250600.0
2007-02-28,246500.0
2007-01-31,242200.0
2006-12-31,238200.0
2006-11-30,234500.0
2006-10-31,233200.0
2006-09-30,232100.0
2006-08-31,228300.0
2006-07-31,224200.0
2006-06-30,219300.0
2006-05-31,214000.0
2006-04-30,210600.0
2006-03-31,207400.0
2006-02-28,208100.0
2006-01-31,213700.0
2005-12-31,216100.0
2005-11-30,212800.0
2005-10-31,208500.0
2005-09-30,205200.0
2005-08-31,203000.0
2005-07-31,201600.0
2005-06-30,199700.0
2005-05-31,198000.0
2005-04-30,196700.0
2005-03-31,195400.0
2005-02-28,191900.0
2005-01-31,187700.0
2004-12-31,184400.0
2004-11-30,181600.0
2004-10-31,178900.0
2004-09-30,176700.0
2004-08-31,175300.0
2004-07-31,174800.0
2004-06-30,173500.0
2004-05-31,171100.0
2004-04-30,169300.0
2004-03-31,168800.0
2004-02-29,168300.0
2004-01-31,166900.0
2003-12-31,165200.0
2003-11-30,165500.0
2003-10-31,166200.0
2003-09-30,164100.0
2003-08-31,160900.0
2003-07-31,159800.0
2003-06-30,161900.0
2003-05-31,164900.0
2003-04-30,166200.0
2003-03-31,166200.0
2003-02-28,166200.0
2003-01-31,165500.0
2002-12-31,164800.0
2002-11-30,164700.0
2002-10-31,163500.0
2002-09-30,163100.0
2002-08-31,163700.0
2002-07-31,162700.0
2002-06-30,161100.0
2002-05-31,160800.0
2002-04-30,160300.0
2002-03-31,160300.0
2002-02-28,160400.0
2002-01-31,159700.0
2001-12-31,158800.0
2001-11-30,158000.0
2001-10-31,157000.0
2001-09-30,157000.0
2001-08-31,157500.0
2001-07-31,157100.0
2001-06-30,156400.0
2001-05-31,155400.0
2001-04-30,154400.0
2001-03-31,153300.0
2001-02-28,152500.0
2001-01-31,151900.0
2000-12-31,151800.0
2000-11-30,151800.0
2000-10-31,151800.0
2000-09-30,151900.0
2000-08-31,151700.0
2000-07-31,151800.0
2000-06-30,151800.0
2000-05-31,151200.0
2000-04-30,149500.0
2000-03-31,147700.0
2000-02-29,146600.0
2000-01-31,145800.0
1999-12-31,143500.0
1999-11-30,140800.0
1999-10-31,139900.0
1999-09-30,139900.0
1999-08-31,139400.0
1999-07-31,138600.0
1999-06-30,137900.0
1999-05-31,136700.0
1999-04-30,136900.0
1999-03-31,137800.0
1999-02-28,137400.0
1999-01-31,135100.0
1998-12-31,133900.0
1998-11-30,133800.0
1998-10-31,133600.0
1998-09-30,133100.0
1998-08-31,134000.0
1998-07-31,134800.0
1998-06-30,133700.0
1998-05-31,132300.0
1998-04-30,131200.0
1998-03-31,129400.0
1998-02-28,127100.0
1998-01-31,126600.0
1997-12-31,127300.0
1997-11-30,128300.0
1997-10-31,128600.0
1997-09-30,127300.0
1997-08-31,124900.0
1997-07-31,123300.0
1997-06-30,122000.0
1997-05-31,120900.0
1997-04-30,120700.0
1997-03-31,120500.0
1997-02-28,119800.0
1997-01-31,119000.0
1996-12-31,118900.0
1996-11-30,118800.0
1996-10-31,119100.0
1996-09-30,119900.0
1996-08-31,119800.0
1996-07-31,119000.0
1996-06-30,119400.0
1996-05-31,120700.0
1996-04-30,120900.0
