Date,Value
2015-09-30,275800.0
2015-08-31,297100.0
2015-07-31,291400.0
2015-06-30,274100.0
2015-05-31,284250.0
2015-04-30,275450.0
2015-03-31,261450.0
2015-02-28,269350.0
2015-01-31,265135.0
2014-12-31,280015.0
2014-11-30,273500.0
2014-10-31,283650.0
2014-09-30,272052.0
2014-08-31,279705.0
2014-07-31,277855.0
2014-06-30,286830.0
2014-05-31,281480.0
2014-04-30,270530.0
2014-03-31,249030.0
2014-02-28,242205.0
2014-01-31,240855.0
2013-12-31,255130.0
2013-11-30,256930.0
2013-10-31,259772.5
2013-09-30,277950.2
2013-08-31,277776.3
2013-07-31,270224.0
2013-06-30,250495.0
2013-05-31,249780.0
2013-04-30,258480.0
2013-03-31,247180.0
2013-02-28,270763.0
2013-01-31,268757.0
2012-12-31,262599.25
2012-11-30,263518.25
2012-10-31,260735.0
2012-09-30,261547.5
2012-08-31,272105.0
2012-07-31,272105.0
2012-06-30,267390.0
2012-05-31,283245.0
2012-04-30,296985.8824
2012-03-31,245664.6154
2012-02-29,242440.0
2012-01-31,251980.0
2011-12-31,227080.0
2011-11-30,245755.0
2011-10-31,237780.0
2011-09-30,255070.0
2011-08-31,264998.0
2011-07-31,269082.0
2011-06-30,243640.0
2011-05-31,250241.4
2011-04-30,248119.75
2011-03-31,239215.35
2011-02-28,250690.5
2011-01-31,256780.0
2010-12-31,263780.0
2010-11-30,249588.0
2010-10-31,253150.0
2010-09-30,260042.0
2010-08-31,249448.0
2010-07-31,247040.0
2010-06-30,266250.0
2010-05-31,275500.0
2010-04-30,266500.0
2010-03-31,260042.0
2010-02-28,243496.8
2010-01-31,277615.0
2009-12-31,262275.0
2009-11-30,263600.0
2009-10-31,258650.0
2009-09-30,261630.0
2009-08-31,283238.0
2009-07-31,268432.0
2009-06-30,266390.0
2009-05-31,252330.0
2009-04-30,264830.0
2009-03-31,259180.0
2009-02-28,253280.0
2009-01-31,246780.0
2008-12-31,266605.0
2008-11-30,259355.0
2008-10-31,239865.0
2008-09-30,233478.0
2008-08-31,248657.0
2008-07-31,263048.0
2008-06-30,269182.0
2008-05-31,263890.0
2008-04-30,277530.0
2008-03-31,275830.0
2008-02-29,260530.0
2008-01-31,265430.0
2007-12-31,280330.0
2007-11-30,273280.0
2007-10-31,285115.0
2007-09-30,284420.0
2007-08-31,276463.0
2007-07-31,268332.0
2007-06-30,279765.0
2007-05-31,267863.0
2007-04-30,257382.0
2007-03-31,251183.0
2007-02-28,265897.0
2007-01-31,280640.0
2006-12-31,268813.0
2006-11-30,266107.0
2006-10-31,274590.0
2006-09-30,282372.5
2006-08-31,278262.5
2006-07-31,280905.0
2006-06-30,302530.0
2006-05-31,302405.0
2006-04-30,280140.0
2006-03-31,252138.0
2006-02-28,218647.0
2006-01-31,248698.0
2005-12-31,268782.0
2005-11-30,288883.0
2005-10-31,255667.0
2005-09-30,240670.0
2005-08-31,242338.0
2005-07-31,244940.0
2005-06-30,246250.0
2005-05-31,233600.0
2005-04-30,231685.0
2005-03-31,215415.0
2005-02-28,210400.0
2005-01-31,209785.0
2004-12-31,221265.0
2004-11-30,223962.5
2004-10-31,211912.5
2004-09-30,205050.0
2004-08-31,203710.0
2004-07-31,195740.0
2004-06-30,200425.0
2004-05-31,191692.5
2004-04-30,181032.5
2004-03-31,171175.0
2004-02-29,171250.0
2004-01-31,173550.0
2003-12-31,175735.0
2003-11-30,168542.45
2003-10-31,169405.35
2003-09-30,173946.2
2003-08-31,173134.85
2003-07-31,167590.65
2003-06-30,162929.5
2003-05-31,160500.0
2003-04-30,153500.0
2003-03-31,154985.0
2003-02-28,149590.0
2003-01-31,149975.0
2002-12-31,150100.0
2002-11-30,148556.9
2002-10-31,141966.1
2002-09-30,143523.0
2002-08-31,153122.6
2002-07-31,149119.4
2002-06-30,144117.0
2002-05-31,145393.65
2002-04-30,145633.4
2002-03-31,145871.5
2002-02-28,148807.95
2002-01-31,146448.5
2001-12-31,139615.0
2001-11-30,141800.0
2001-10-31,144000.0
2001-09-30,143745.1
2001-08-31,137059.6
2001-07-31,136602.05
2001-06-30,140657.75
2001-05-31,137647.5
2001-04-30,131963.15
2001-03-31,133562.35
2001-02-28,140582.25
2001-01-31,135199.95
2000-12-31,138937.3
2000-11-30,132014.0
2000-10-31,128292.15
2000-09-30,134640.5
2000-08-31,137455.45
2000-07-31,136292.0
2000-06-30,138007.95
2000-05-31,142250.45
2000-04-30,153248.75
2000-03-31,143908.6
2000-02-29,138182.8
2000-01-31,135594.05
1999-12-31,137571.95
1999-11-30,135826.95
1999-10-31,132278.55
1999-09-30,132285.35
1999-08-31,134415.5
1999-07-31,129655.0
1999-06-30,123170.0
1999-05-31,122100.0
1999-04-30,119304.3
1999-03-31,122161.7
1999-02-28,117821.0
1999-01-31,114875.0
1998-12-31,114935.0
1998-11-30,119290.0
1998-10-31,120800.0
1998-09-30,117775.0
1998-08-31,118200.0
1998-07-31,122150.0
1998-06-30,121100.0
1998-05-31,117250.0
1998-04-30,118550.0
1998-03-31,117105.0
1998-02-28,118445.0
1998-01-31,115045.0
1997-12-31,116340.0
1997-11-30,113840.0
1997-10-31,116850.0
1997-09-30,118975.0
1997-08-31,118900.0
1997-07-31,116685.0
1997-06-30,111188.4
1997-05-31,117329.6
1997-04-30,117653.0
1997-03-31,110775.0
1997-02-28,105110.0
1997-01-31,110115.0
1996-12-31,114700.0
1996-11-30,117650.0
1996-10-31,112000.0
1996-09-30,112835.0
1996-08-31,110465.0
1996-07-31,101075.0
1996-06-30,107275.0
1996-05-31,116400.0
1996-04-30,122625.0
