Date,Value
2015-09-30,1.114
2015-08-31,1.084
2015-07-31,1.064
2015-06-30,1.072
2015-05-31,1.074
2015-04-30,1.068
2015-03-31,1.054
2015-02-28,1.046
2015-01-31,1.044
2014-12-31,1.046
2014-11-30,1.05
2014-10-31,1.058
2014-09-30,1.06
2014-08-31,1.056
2014-07-31,1.048
2014-06-30,1.044
2014-05-31,1.032
2014-04-30,1.018
2014-03-31,1.012
2014-02-28,1.012
2014-01-31,1.002
2013-12-31,0.992
2013-11-30,0.98
2013-10-31,0.982
2013-09-30,0.97
2013-08-31,0.962
2013-07-31,0.962
2013-06-30,0.966
2013-05-31,0.96
2013-04-30,0.946
2013-03-31,0.932
2013-02-28,0.926
2013-01-31,0.926
2012-12-31,0.928
2012-11-30,0.928
2012-10-31,0.934
2012-09-30,0.932
2012-08-31,0.928
2012-07-31,0.92
2012-06-30,0.916
2012-05-31,0.924
2012-04-30,0.932
2012-03-31,0.942
2012-02-29,0.936
2012-01-31,0.92
2011-12-31,0.902
2011-11-30,0.882
2011-10-31,0.878
2011-09-30,0.876
2011-08-31,0.88
2011-07-31,0.884
2011-06-30,0.878
2011-05-31,0.876
2011-04-30,0.874
2011-03-31,0.882
2011-02-28,0.888
2011-01-31,0.9
2010-12-31,0.912
2010-11-30,0.924
