Date,Value
2015-09-30,573250.0
2015-08-31,637750.0
2015-07-31,584675.0
2015-06-30,575825.0
2015-05-31,556250.0
2015-04-30,601150.0
2015-03-31,523529.4118
2015-02-28,566692.3077
2014-12-31,600865.0
2014-11-30,538035.0
2014-10-31,572150.0
2014-09-30,547942.0
2014-08-31,500390.0
2014-07-31,557030.0
2014-06-30,548005.0
2014-05-31,503380.0
2014-04-30,502455.0
2014-03-31,490305.0
2014-02-28,439013.0
2014-01-31,462882.0
2013-12-31,462390.0
2013-11-30,493530.0
2013-10-31,483030.0
2013-09-30,515030.0
2013-08-31,478480.0
2013-07-31,466638.0
2013-06-30,448082.0
2013-05-31,472740.0
2013-04-30,486138.0
2013-03-31,466715.0
2013-02-28,435942.0
2013-01-31,420415.0
2012-12-31,403780.0
2012-11-30,439430.0
2012-10-31,448880.0
2012-09-30,432530.0
2012-08-31,477030.0
2012-07-31,487780.0
2012-06-30,448780.0
2012-05-31,491188.0
2012-04-30,533017.0
2012-03-31,519427.0588
2012-02-29,392203.0769
2011-12-31,393830.0
2011-11-30,474930.0
2011-10-31,436930.0
2011-09-30,433055.0
2011-08-31,468355.0
2011-07-31,470080.0
2011-06-30,468880.0
2011-05-31,498564.85
2011-04-30,539594.65
2011-03-31,507937.5
2011-02-28,501682.0
2011-01-31,484490.0
2010-12-31,506930.0
2010-11-30,521030.0
2010-10-31,538488.0
2010-09-30,615082.0
2010-08-31,518990.0
2010-07-31,478588.0
2010-06-30,485882.0
2010-05-31,477590.0
2010-04-30,522830.0
2010-03-31,515703.0
2010-02-28,528467.0
2010-01-31,509490.0
2009-12-31,469188.0
2009-11-30,446682.0
2009-10-31,483848.0
2009-09-30,503432.0
2009-08-31,535640.0
2009-07-31,561705.5
2009-06-30,577439.5
2009-05-31,546173.0
2009-04-30,590582.0
2009-03-31,631090.0
2009-02-28,532397.6471
2009-01-31,514872.3077
2008-11-30,513882.0
2008-10-31,554390.0
2008-09-30,544030.0
2008-08-31,513030.0
2008-07-31,497030.0
2008-06-30,502380.0
2008-05-31,509680.0
2008-04-30,584230.0
2008-03-31,569456.4706
2008-02-29,538356.9231
2007-12-31,597030.0
2007-11-30,589030.0
2007-10-31,570230.0
2007-09-30,584288.0
2007-08-31,555432.0
2007-07-31,592398.0
2007-06-30,564232.0
2007-05-31,578340.0
2007-04-30,583230.0
2007-03-31,590280.0
2007-02-28,594030.0
2007-01-31,566905.0
2006-12-31,582905.0
2006-11-30,526030.0
2006-10-31,564380.0
2006-09-30,557680.0
2006-08-31,547030.0
2006-07-31,519280.0
2006-06-30,470280.0
2006-05-31,508030.0
2006-04-30,555030.0
2006-03-31,548467.5
2006-02-28,554675.5
2006-01-31,545807.0
2005-12-31,547640.0
2005-11-30,508800.0
2005-10-31,520618.0
2005-09-30,499872.2
2005-08-31,499791.8
2005-07-31,489274.0
2005-06-30,495687.6
2005-05-31,491101.9
2005-04-30,493194.5
2005-03-31,465850.0
2005-02-28,476404.4
2005-01-31,460693.6
2004-12-31,433498.0
2004-11-30,381400.0
2004-10-31,394600.0
2004-09-30,412500.0
2004-08-31,441000.0
2004-07-31,414650.0
2004-06-30,395475.0
2004-05-31,384525.0
2004-04-30,393450.0
2004-03-31,390050.0
2004-02-29,373100.0
2004-01-31,346425.0
2003-12-31,372075.0
2003-11-30,378900.0
2003-10-31,377875.0
2003-09-30,405752.5
2003-08-31,401047.5
2003-07-31,379550.0
2003-06-30,377625.0
2003-05-31,385000.0
2003-04-30,368750.0
2003-03-31,347500.0
2003-02-28,336875.0
2003-01-31,340110.0
2002-12-31,348200.0
2002-11-30,358665.0
2002-10-31,372135.4
2002-09-30,357867.6
2002-08-31,321048.7
2002-07-31,320428.3
2002-06-30,332044.0
2002-05-31,335450.0
2002-04-30,343300.0
2002-03-31,342850.0
2002-02-28,329900.0
2002-01-31,342000.0
2001-12-31,378150.0
2001-11-30,337450.0
2001-10-31,352650.0
2001-09-30,357850.0
2001-08-31,354650.0
2001-07-31,347985.0
2001-06-30,337653.1
2001-05-31,324381.4
2001-04-30,318674.5
2001-03-31,338710.0
2001-02-28,324500.0
2001-01-31,307500.0
2000-12-31,316000.0
2000-11-30,323800.0
2000-10-31,373722.5
2000-09-30,355377.5
2000-08-31,340800.0
2000-07-31,322000.0
2000-06-30,319150.0
2000-05-31,333600.0
2000-04-30,323450.0
2000-03-31,298800.0
2000-02-29,304500.0
2000-01-31,310235.0
1999-12-31,328349.8
1999-11-30,304431.2
1999-10-31,315491.0
1999-09-30,302875.0
1999-08-31,306100.0
1999-07-31,287885.0
1999-06-30,277965.0
1999-05-31,268450.0
1999-04-30,275385.0
1999-03-31,253815.0
1999-02-28,243550.0
1999-01-31,275250.0
1998-12-31,285525.0
1998-11-30,257975.0
1998-10-31,252150.0
1998-09-30,250500.0
1998-08-31,251600.0
1998-07-31,233825.0
1998-06-30,221000.0
1998-05-31,247550.0
1998-04-30,255375.0
1998-03-31,271650.0
1998-02-28,263750.0
1998-01-31,262000.0
1997-12-31,232250.0
1997-11-30,222750.0
1997-10-31,200600.0
1997-09-30,229050.0
1997-08-31,240350.0
1997-07-31,221100.0
1997-06-30,230200.0
1997-05-31,222525.0
1997-04-30,208550.0
1997-03-31,197225.0
1997-02-28,207225.0
1997-01-31,202175.0
1996-12-31,216000.0
1996-11-30,215550.0
1996-10-31,217550.0
1996-09-30,214200.0
1996-08-31,217485.0
1996-07-31,206665.0
1996-06-30,218700.0
1996-05-31,216550.0
1996-04-30,211825.0
