Date,Value
2015-09-30,541000.0
2015-08-31,510600.0
2015-07-31,505100.0
2015-06-30,510200.0
2015-05-31,509800.0
2015-04-30,501800.0
2015-03-31,498900.0
2015-02-28,489900.0
2015-01-31,475000.0
2014-12-31,471900.0
2014-11-30,467000.0
2014-10-31,463300.0
2014-09-30,463000.0
2014-08-31,465900.0
2014-07-31,466700.0
2014-06-30,466600.0
2014-05-31,468500.0
2014-04-30,469400.0
2014-03-31,467200.0
2014-02-28,467700.0
2014-01-31,466200.0
2013-12-31,460900.0
2013-11-30,457800.0
2013-10-31,454300.0
2013-09-30,448200.0
2013-08-31,442600.0
2013-07-31,439900.0
2013-06-30,435900.0
2013-05-31,430300.0
2013-04-30,423100.0
2013-03-31,417000.0
2013-02-28,409900.0
2013-01-31,403700.0
2012-12-31,399100.0
2012-11-30,396700.0
2012-10-31,395300.0
2012-09-30,393900.0
2012-08-31,390700.0
2012-07-31,382700.0
2012-06-30,372000.0
2012-05-31,363500.0
2012-04-30,360000.0
2012-03-31,357800.0
2012-02-29,356800.0
2012-01-31,356900.0
2011-12-31,357600.0
2011-11-30,356600.0
2011-10-31,355900.0
2011-09-30,356700.0
2011-08-31,359000.0
2011-07-31,361000.0
2011-06-30,362300.0
2011-05-31,363200.0
2011-04-30,364800.0
2011-03-31,365500.0
2011-02-28,365400.0
2011-01-31,367900.0
2010-12-31,374000.0
2010-11-30,381000.0
2010-10-31,385400.0
2010-09-30,386400.0
2010-08-31,386300.0
2010-07-31,390100.0
2010-06-30,393200.0
2010-05-31,392400.0
2010-04-30,390100.0
2010-03-31,388200.0
2010-02-28,384600.0
2010-01-31,381900.0
2009-12-31,380300.0
2009-11-30,376800.0
2009-10-31,372200.0
2009-09-30,370400.0
2009-08-31,370600.0
2009-07-31,370800.0
2009-06-30,372500.0
2009-05-31,377100.0
2009-04-30,381200.0
2009-03-31,385100.0
2009-02-28,391300.0
2009-01-31,397400.0
2008-12-31,401500.0
2008-11-30,405900.0
2008-10-31,411300.0
2008-09-30,415400.0
2008-08-31,416500.0
2008-07-31,416500.0
2008-06-30,417200.0
2008-05-31,420200.0
2008-04-30,426600.0
2008-03-31,434400.0
2008-02-29,438900.0
2008-01-31,441100.0
2007-12-31,444200.0
2007-11-30,448200.0
2007-10-31,452100.0
2007-09-30,457100.0
2007-08-31,461600.0
2007-07-31,463900.0
2007-06-30,465100.0
2007-05-31,465800.0
2007-04-30,462200.0
2007-03-31,456800.0
2007-02-28,453300.0
2007-01-31,449000.0
2006-12-31,445000.0
2006-11-30,443600.0
2006-10-31,441500.0
2006-09-30,437100.0
2006-08-31,432600.0
2006-07-31,428800.0
2006-06-30,427700.0
2006-05-31,426800.0
2006-04-30,422700.0
2006-03-31,417800.0
2006-02-28,413800.0
2006-01-31,410700.0
2005-12-31,406000.0
2005-11-30,399600.0
2005-10-31,394600.0
2005-09-30,389100.0
2005-08-31,383100.0
2005-07-31,378800.0
2005-06-30,375800.0
2005-05-31,370500.0
2005-04-30,366200.0
2005-03-31,363500.0
2005-02-28,362200.0
2005-01-31,359900.0
2004-12-31,355800.0
2004-11-30,351700.0
2004-10-31,348900.0
2004-09-30,344400.0
2004-08-31,339600.0
2004-07-31,335000.0
2004-06-30,329600.0
2004-05-31,325600.0
2004-04-30,326500.0
2004-03-31,326900.0
2004-02-29,323400.0
2004-01-31,318300.0
2003-12-31,314600.0
2003-11-30,311100.0
2003-10-31,308200.0
2003-09-30,307800.0
2003-08-31,308300.0
2003-07-31,308700.0
2003-06-30,308200.0
2003-05-31,306500.0
2003-04-30,304400.0
2003-03-31,302000.0
2003-02-28,298700.0
2003-01-31,296200.0
2002-12-31,294700.0
2002-11-30,293600.0
2002-10-31,292200.0
2002-09-30,292100.0
2002-08-31,293000.0
2002-07-31,293800.0
2002-06-30,293900.0
2002-05-31,294000.0
2002-04-30,292200.0
2002-03-31,290400.0
2002-02-28,290800.0
2002-01-31,293100.0
2001-12-31,296100.0
2001-11-30,298300.0
2001-10-31,298400.0
2001-09-30,299200.0
2001-08-31,299700.0
2001-07-31,298800.0
2001-06-30,298800.0
2001-05-31,297700.0
2001-04-30,292600.0
2001-03-31,287500.0
2001-02-28,286600.0
2001-01-31,287500.0
2000-12-31,285600.0
2000-11-30,281400.0
2000-10-31,278600.0
2000-09-30,277100.0
2000-08-31,275000.0
2000-07-31,274200.0
2000-06-30,272800.0
2000-05-31,271000.0
2000-04-30,269600.0
2000-03-31,269100.0
2000-02-29,265700.0
2000-01-31,259400.0
1999-12-31,253700.0
1999-11-30,251800.0
1999-10-31,249100.0
1999-09-30,244500.0
1999-08-31,241700.0
1999-07-31,239100.0
1999-06-30,235300.0
1999-05-31,232000.0
1999-04-30,230700.0
1999-03-31,230500.0
1999-02-28,229800.0
1999-01-31,228400.0
1998-12-31,227500.0
1998-11-30,226700.0
1998-10-31,224300.0
1998-09-30,221000.0
1998-08-31,217000.0
1998-07-31,213000.0
1998-06-30,208800.0
1998-05-31,206200.0
1998-04-30,204500.0
1998-03-31,202200.0
1998-02-28,199000.0
1998-01-31,196900.0
1997-12-31,195300.0
1997-11-30,192700.0
1997-10-31,190000.0
1997-09-30,187100.0
1997-08-31,184500.0
1997-07-31,181700.0
1997-06-30,179300.0
1997-05-31,176600.0
1997-04-30,173800.0
1997-03-31,171500.0
1997-02-28,170200.0
1997-01-31,168700.0
1996-12-31,166900.0
1996-11-30,165100.0
1996-10-31,164800.0
1996-09-30,165300.0
1996-08-31,164700.0
1996-07-31,162900.0
1996-06-30,162900.0
1996-05-31,163400.0
1996-04-30,164300.0
