Date,Value
2015-09-30,389800.0
2015-08-31,379700.0
2015-07-31,373600.0
2015-06-30,375000.0
2015-05-31,376300.0
2015-04-30,371800.0
2015-03-31,362000.0
2015-02-28,359200.0
2015-01-31,354000.0
2014-12-31,352700.0
2014-11-30,350500.0
2014-10-31,349800.0
2014-09-30,348400.0
2014-08-31,344900.0
2014-07-31,341700.0
2014-06-30,341900.0
2014-05-31,341800.0
2014-04-30,340600.0
2014-03-31,339100.0
2014-02-28,338300.0
2014-01-31,337400.0
2013-12-31,335500.0
2013-11-30,332000.0
2013-10-31,327900.0
2013-09-30,324500.0
2013-08-31,322200.0
2013-07-31,318200.0
2013-06-30,311900.0
2013-05-31,305400.0
2013-04-30,299000.0
2013-03-31,292300.0
2013-02-28,286800.0
2013-01-31,282400.0
2012-12-31,278700.0
2012-11-30,275800.0
2012-10-31,273000.0
2012-09-30,270400.0
2012-08-31,269000.0
2012-07-31,266900.0
2012-06-30,262900.0
2012-05-31,258200.0
2012-04-30,254000.0
2012-03-31,250800.0
2012-02-29,248800.0
2012-01-31,247900.0
2011-12-31,247600.0
2011-11-30,247700.0
2011-10-31,247600.0
2011-09-30,248000.0
2011-08-31,248800.0
2011-07-31,250500.0
2011-06-30,253400.0
2011-05-31,257000.0
2011-04-30,260400.0
2011-03-31,263200.0
2011-02-28,265500.0
2011-01-31,267900.0
2010-12-31,271000.0
2010-11-30,273700.0
2010-10-31,276200.0
2010-09-30,279300.0
2010-08-31,282900.0
2010-07-31,286600.0
2010-06-30,289400.0
2010-05-31,291800.0
2010-04-30,293500.0
2010-03-31,295200.0
2010-02-28,296000.0
2010-01-31,296500.0
2009-12-31,297000.0
2009-11-30,298400.0
2009-10-31,298700.0
2009-09-30,298200.0
2009-08-31,298000.0
2009-07-31,298700.0
2009-06-30,299300.0
2009-05-31,301400.0
2009-04-30,305100.0
2009-03-31,309200.0
2009-02-28,312800.0
2009-01-31,315400.0
2008-12-31,317700.0
2008-11-30,320600.0
2008-10-31,324400.0
2008-09-30,327900.0
2008-08-31,330000.0
2008-07-31,332300.0
2008-06-30,336300.0
2008-05-31,340600.0
2008-04-30,344400.0
2008-03-31,347100.0
2008-02-29,348700.0
2008-01-31,349100.0
2007-12-31,349100.0
2007-11-30,349500.0
2007-10-31,349800.0
2007-09-30,349000.0
2007-08-31,348400.0
2007-07-31,348600.0
2007-06-30,348300.0
2007-05-31,347100.0
2007-04-30,345200.0
2007-03-31,343700.0
2007-02-28,342700.0
2007-01-31,340500.0
2006-12-31,337700.0
2006-11-30,335100.0
2006-10-31,332500.0
2006-09-30,330300.0
2006-08-31,328000.0
2006-07-31,324100.0
2006-06-30,318800.0
2006-05-31,313600.0
2006-04-30,310900.0
2006-03-31,309200.0
2006-02-28,306700.0
2006-01-31,304100.0
2005-12-31,301600.0
2005-11-30,297700.0
2005-10-31,293400.0
2005-09-30,289100.0
2005-08-31,284400.0
2005-07-31,279000.0
2005-06-30,274100.0
2005-05-31,270100.0
2005-04-30,265100.0
2005-03-31,259900.0
2005-02-28,256400.0
2005-01-31,255000.0
2004-12-31,254100.0
2004-11-30,252600.0
2004-10-31,250100.0
2004-09-30,247800.0
2004-08-31,245600.0
2004-07-31,244300.0
2004-06-30,243100.0
2004-05-31,241200.0
2004-04-30,238700.0
2004-03-31,235900.0
2004-02-29,233000.0
2004-01-31,231000.0
2003-12-31,229500.0
2003-11-30,228000.0
2003-10-31,227200.0
2003-09-30,226800.0
2003-08-31,226800.0
2003-07-31,227600.0
2003-06-30,229000.0
2003-05-31,230000.0
2003-04-30,231000.0
2003-03-31,231400.0
2003-02-28,230400.0
2003-01-31,228200.0
2002-12-31,226500.0
2002-11-30,225400.0
2002-10-31,225000.0
2002-09-30,224600.0
2002-08-31,223500.0
2002-07-31,221600.0
2002-06-30,220100.0
2002-05-31,218900.0
2002-04-30,217400.0
2002-03-31,216500.0
2002-02-28,218000.0
2002-01-31,219800.0
2001-12-31,220700.0
2001-11-30,222300.0
2001-10-31,224700.0
2001-09-30,226000.0
2001-08-31,226500.0
2001-07-31,226200.0
2001-06-30,225000.0
2001-05-31,223500.0
2001-04-30,221700.0
2001-03-31,220200.0
2001-02-28,219600.0
2001-01-31,217900.0
2000-12-31,215400.0
2000-11-30,213100.0
2000-10-31,210800.0
2000-09-30,208300.0
2000-08-31,205800.0
2000-07-31,203100.0
2000-06-30,200900.0
2000-05-31,199700.0
2000-04-30,198400.0
2000-03-31,196600.0
2000-02-29,193600.0
2000-01-31,190200.0
1999-12-31,187600.0
1999-11-30,184000.0
1999-10-31,179000.0
1999-09-30,175800.0
1999-08-31,175100.0
1999-07-31,174800.0
1999-06-30,174100.0
1999-05-31,172700.0
1999-04-30,171700.0
1999-03-31,170900.0
1999-02-28,169200.0
1999-01-31,166700.0
1998-12-31,164400.0
1998-11-30,163000.0
1998-10-31,161800.0
1998-09-30,160800.0
1998-08-31,159400.0
1998-07-31,158200.0
1998-06-30,156500.0
1998-05-31,155000.0
1998-04-30,153300.0
1998-03-31,152000.0
1998-02-28,150500.0
1998-01-31,148700.0
1997-12-31,146500.0
1997-11-30,144700.0
1997-10-31,143400.0
1997-09-30,141900.0
1997-08-31,139700.0
1997-07-31,137700.0
1997-06-30,136400.0
1997-05-31,135000.0
1997-04-30,133400.0
1997-03-31,131900.0
1997-02-28,130200.0
1997-01-31,129000.0
1996-12-31,128300.0
1996-11-30,127400.0
1996-10-31,126700.0
1996-09-30,126100.0
1996-08-31,125600.0
1996-07-31,125100.0
1996-06-30,123900.0
1996-05-31,122700.0
1996-04-30,122500.0
