Date,Value
2015-09-30,1.78
2015-08-31,1.782
2015-07-31,1.768
2015-06-30,1.754
2015-05-31,1.74
2015-04-30,1.724
2015-03-31,1.714
2015-02-28,1.706
2015-01-31,1.696
2014-12-31,1.686
2014-11-30,1.676
2014-10-31,1.67
2014-09-30,1.664
2014-08-31,1.646
2014-07-31,1.628
2014-06-30,1.608
2014-05-31,1.604
2014-04-30,1.6
2014-03-31,1.59
2014-02-28,1.576
2014-01-31,1.554
2013-12-31,1.544
2013-11-30,1.534
2013-10-31,1.516
2013-09-30,1.496
2013-08-31,1.478
2013-07-31,1.474
2013-06-30,1.474
2013-05-31,1.474
2013-04-30,1.47
2013-03-31,1.46
2013-02-28,1.448
2013-01-31,1.436
2012-12-31,1.426
2012-11-30,1.42
2012-10-31,1.42
2012-09-30,1.426
2012-08-31,1.432
2012-07-31,1.428
2012-06-30,1.42
2012-05-31,1.396
2012-04-30,1.376
2012-03-31,1.358
2012-02-29,1.358
2012-01-31,1.35
2011-12-31,1.344
2011-11-30,1.33
2011-10-31,1.312
2011-09-30,1.296
2011-08-31,1.284
2011-07-31,1.276
2011-06-30,1.268
2011-05-31,1.26
2011-04-30,1.256
2011-03-31,1.256
2011-02-28,1.25
2011-01-31,1.246
2010-12-31,1.236
2010-11-30,1.23
