Date,Value
2015-09-30,519000.0
2015-08-31,513900.0
2015-07-31,509100.0
2015-06-30,508700.0
2015-05-31,503100.0
2015-04-30,492700.0
2015-03-31,482000.0
2015-02-28,481400.0
2015-01-31,477100.0
2014-12-31,475100.0
2014-11-30,472000.0
2014-10-31,468400.0
2014-09-30,465400.0
2014-08-31,464000.0
2014-07-31,463000.0
2014-06-30,463000.0
2014-05-31,461300.0
2014-04-30,457300.0
2014-03-31,452500.0
2014-02-28,449500.0
2014-01-31,447000.0
2013-12-31,444600.0
2013-11-30,442100.0
2013-10-31,438600.0
2013-09-30,434400.0
2013-08-31,431100.0
2013-07-31,428300.0
2013-06-30,424600.0
2013-05-31,421300.0
2013-04-30,419000.0
2013-03-31,417400.0
2013-02-28,415300.0
2013-01-31,412400.0
2012-12-31,409100.0
2012-11-30,406100.0
2012-10-31,403000.0
2012-09-30,401500.0
2012-08-31,400600.0
2012-07-31,398100.0
2012-06-30,392700.0
2012-05-31,385900.0
2012-04-30,379300.0
2012-03-31,372500.0
2012-02-29,366100.0
2012-01-31,362500.0
2011-12-31,361500.0
2011-11-30,361000.0
2011-10-31,360200.0
2011-09-30,359000.0
2011-08-31,358200.0
2011-07-31,358500.0
2011-06-30,359300.0
2011-05-31,361100.0
2011-04-30,363400.0
2011-03-31,366400.0
2011-02-28,368800.0
2011-01-31,370400.0
2010-12-31,370800.0
2010-11-30,371300.0
2010-10-31,372600.0
2010-09-30,375200.0
2010-08-31,378100.0
2010-07-31,381000.0
2010-06-30,384000.0
2010-05-31,387300.0
2010-04-30,389800.0
2010-03-31,391200.0
2010-02-28,392100.0
2010-01-31,392300.0
2009-12-31,391100.0
2009-11-30,389400.0
2009-10-31,387300.0
2009-09-30,384800.0
2009-08-31,382300.0
2009-07-31,380900.0
2009-06-30,381800.0
2009-05-31,385800.0
2009-04-30,390900.0
2009-03-31,396200.0
2009-02-28,400900.0
2009-01-31,405100.0
2008-12-31,409000.0
2008-11-30,413000.0
2008-10-31,416800.0
2008-09-30,419700.0
2008-08-31,422200.0
2008-07-31,425600.0
2008-06-30,429500.0
2008-05-31,433400.0
2008-04-30,437600.0
2008-03-31,441500.0
2008-02-29,445400.0
2008-01-31,448600.0
2007-12-31,451200.0
2007-11-30,453000.0
2007-10-31,454100.0
2007-09-30,454800.0
2007-08-31,456000.0
2007-07-31,457000.0
2007-06-30,457200.0
2007-05-31,454900.0
2007-04-30,450900.0
2007-03-31,447200.0
2007-02-28,444200.0
2007-01-31,441100.0
2006-12-31,439600.0
2006-11-30,439400.0
2006-10-31,440000.0
2006-09-30,439500.0
2006-08-31,436500.0
2006-07-31,431400.0
2006-06-30,426500.0
2006-05-31,421900.0
2006-04-30,418100.0
2006-03-31,414000.0
2006-02-28,410000.0
2006-01-31,406400.0
2005-12-31,402900.0
2005-11-30,399100.0
2005-10-31,396200.0
2005-09-30,393300.0
2005-08-31,389500.0
2005-07-31,384600.0
2005-06-30,378600.0
2005-05-31,372600.0
2005-04-30,367800.0
2005-03-31,363400.0
2005-02-28,359000.0
2005-01-31,354800.0
2004-12-31,350800.0
2004-11-30,346200.0
2004-10-31,341800.0
2004-09-30,338500.0
2004-08-31,335800.0
2004-07-31,332200.0
2004-06-30,327900.0
2004-05-31,323500.0
2004-04-30,319000.0
2004-03-31,315600.0
2004-02-29,313000.0
2004-01-31,310400.0
2003-12-31,308100.0
2003-11-30,306400.0
2003-10-31,304200.0
2003-09-30,301200.0
2003-08-31,298500.0
2003-07-31,297400.0
2003-06-30,297100.0
2003-05-31,297200.0
2003-04-30,296800.0
2003-03-31,294700.0
2003-02-28,291700.0
2003-01-31,289200.0
2002-12-31,287200.0
2002-11-30,285400.0
2002-10-31,283800.0
2002-09-30,282900.0
2002-08-31,282100.0
2002-07-31,281700.0
2002-06-30,281300.0
2002-05-31,279900.0
2002-04-30,277400.0
2002-03-31,275700.0
2002-02-28,275000.0
2002-01-31,274700.0
2001-12-31,273700.0
2001-11-30,272100.0
2001-10-31,270000.0
2001-09-30,268100.0
2001-08-31,267000.0
2001-07-31,266500.0
2001-06-30,265700.0
2001-05-31,265600.0
2001-04-30,266200.0
2001-03-31,266200.0
2001-02-28,265100.0
2001-01-31,263500.0
2000-12-31,261600.0
2000-11-30,259500.0
2000-10-31,258100.0
2000-09-30,257000.0
2000-08-31,256100.0
2000-07-31,255000.0
2000-06-30,253800.0
2000-05-31,252000.0
2000-04-30,250100.0
2000-03-31,248500.0
2000-02-29,246900.0
2000-01-31,244700.0
1999-12-31,242800.0
1999-11-30,240800.0
1999-10-31,238200.0
1999-09-30,235900.0
1999-08-31,234000.0
1999-07-31,231600.0
1999-06-30,229600.0
1999-05-31,227600.0
1999-04-30,225500.0
1999-03-31,224100.0
1999-02-28,222700.0
1999-01-31,220300.0
1998-12-31,217700.0
1998-11-30,216100.0
1998-10-31,214300.0
1998-09-30,211600.0
1998-08-31,208000.0
1998-07-31,204800.0
1998-06-30,201000.0
1998-05-31,197900.0
1998-04-30,195200.0
1998-03-31,192200.0
1998-02-28,189500.0
1998-01-31,187600.0
1997-12-31,185600.0
1997-11-30,183600.0
1997-10-31,182100.0
1997-09-30,180500.0
1997-08-31,178500.0
1997-07-31,176400.0
1997-06-30,175000.0
1997-05-31,173900.0
1997-04-30,172500.0
1997-03-31,171100.0
1997-02-28,169900.0
1997-01-31,168800.0
1996-12-31,167600.0
1996-11-30,166600.0
1996-10-31,165900.0
1996-09-30,165300.0
1996-08-31,165200.0
1996-07-31,165400.0
1996-06-30,165300.0
1996-05-31,165200.0
1996-04-30,165700.0
