Date,Value
2015-07-31,326500.0
2010-06-30,264400.0
2010-04-30,277400.0
2007-10-31,326093.8462
2007-08-31,309370.0
2007-07-31,335750.0
2007-06-30,323750.0
2007-05-31,324242.5
2007-04-30,323508.8235
2007-03-31,349950.0
2006-09-30,296825.0
2006-08-31,284470.5882
2006-07-31,273000.0
2006-01-31,268269.2308
2005-11-30,288235.2941
2005-10-31,305153.8462
2005-08-31,255857.5
2005-07-31,263225.0
2005-06-30,243300.0
2005-05-31,238150.0
2005-04-30,244900.0
2005-03-31,239588.2353
2005-02-28,249000.0
2004-11-30,227950.0
2004-07-31,226742.5
2004-06-30,213795.0
2004-05-31,210030.0
2004-04-30,206891.1765
2004-03-31,189950.0
2003-12-31,210000.0
2003-09-30,192850.0
2003-08-31,188650.0
2003-07-31,193529.4118
2003-06-30,200000.0
2002-08-31,208346.1538
2002-06-30,194153.8462
2002-04-30,180911.7647
2002-03-31,156500.0
2001-12-31,172000.0
2001-09-30,178000.0
2001-05-31,175294.1176
2001-04-30,163615.3846
2001-02-28,159000.0
2000-10-31,138846.1538
2000-08-31,178892.3077
2000-06-30,169050.0
2000-05-31,160441.1765
2000-04-30,147500.0
1999-08-31,146500.0
1999-07-31,137950.0
1999-06-30,141126.4706
1999-05-31,145230.7692
1999-03-31,129500.0
1998-11-30,132000.0
1998-08-31,141000.0
1998-05-31,121475.0
1998-04-30,118617.6471
1998-03-31,119500.0
1997-11-30,132950.0
1997-07-31,110000.0
1997-04-30,134705.8824
1997-03-31,135000.0
1996-08-31,106000.0
