Date,Value
2015-09-30,2.236
2015-08-31,2.218
2015-07-31,2.194
2015-06-30,2.168
2015-05-31,2.148
2015-04-30,2.124
2015-03-31,2.112
2015-02-28,2.096
2015-01-31,2.084
2014-12-31,2.072
2014-11-30,2.062
2014-10-31,2.054
2014-09-30,2.056
2014-08-31,2.056
2014-07-31,2.038
2014-06-30,2.008
2014-05-31,1.992
2014-04-30,1.98
2014-03-31,1.976
2014-02-28,1.96
2014-01-31,1.946
2013-12-31,1.936
2013-11-30,1.92
2013-10-31,1.904
2013-09-30,1.892
2013-08-31,1.88
2013-07-31,1.862
2013-06-30,1.838
2013-05-31,1.814
2013-04-30,1.79
2013-03-31,1.774
2013-02-28,1.762
2013-01-31,1.752
2012-12-31,1.75
2012-11-30,1.75
2012-10-31,1.746
2012-09-30,1.742
2012-08-31,1.732
2012-07-31,1.728
2012-06-30,1.736
2012-05-31,1.734
2012-04-30,1.73
2012-03-31,1.714
2012-02-29,1.708
2012-01-31,1.692
2011-12-31,1.676
2011-11-30,1.662
2011-10-31,1.634
2011-09-30,1.608
2011-08-31,1.588
2011-07-31,1.588
2011-06-30,1.596
2011-05-31,1.598
2011-04-30,1.596
2011-03-31,1.592
2011-02-28,1.584
2011-01-31,1.574
2010-12-31,1.562
2010-11-30,1.554
