Date,Value
2015-02-28,429900.0
2015-01-31,455000.0
2014-12-31,455000.0
2014-11-30,499950.0
2014-10-31,550000.0
2014-09-30,455000.0
2014-08-31,399000.0
2014-07-31,399000.0
2014-06-30,389950.0
2014-05-31,389950.0
2014-04-30,399950.0
2014-03-31,399950.0
2014-02-28,379000.0
2014-01-31,379000.0
2013-12-31,425000.0
2013-11-30,540000.0
2013-10-31,399950.0
2013-09-30,449999.0
2013-08-31,459000.0
2013-07-31,499500.0
2013-06-30,560000.0
2013-05-31,560000.0
2013-04-30,395000.0
2013-03-31,522000.0
2013-02-28,745000.0
2013-01-31,427500.0
2012-12-31,427500.0
2012-11-30,459000.0
2012-10-31,489000.0
2012-09-30,479000.0
2012-08-31,415000.0
2012-07-31,546750.0
2012-06-30,525000.0
2012-05-31,399999.0
2012-04-30,399000.0
2012-03-31,398500.0
2012-02-29,355000.0
2012-01-31,319000.0
2011-12-31,295000.0
2011-11-30,321500.0
2011-10-31,305000.0
2011-09-30,325000.0
2011-08-31,345000.0
2011-07-31,355000.0
2011-06-30,339950.0
2011-05-31,309999.0
2011-04-30,289967.0
2011-03-31,309967.0
2011-02-28,380000.0
2011-01-31,369900.0
2010-12-31,380000.0
2010-11-30,369900.0
2010-10-31,388800.0
2010-09-30,380000.0
2010-08-31,375000.0
2010-07-31,389000.0
2010-06-30,376500.0
2010-05-31,359950.0
2010-04-30,359950.0
2010-03-31,359950.0
2010-02-28,389000.0
2010-01-31,448888.0
2009-12-31,530000.0
2009-11-30,624499.0
2009-10-31,469000.0
2009-09-30,509000.0
2009-08-31,435000.0
2009-07-31,448888.0
2009-06-30,530000.0
2009-05-31,600000.0
2009-04-30,527500.0
2009-03-31,429950.0
2009-02-28,415000.0
2009-01-31,429950.0
2008-12-31,539950.0
2008-11-30,499950.0
2008-10-31,447500.0
