Date,Value
2015-08-31,661153.8462
2015-06-30,665000.0
2014-10-31,520000.0
2014-05-31,549000.0
2013-07-31,574000.0
2009-07-31,525000.0
2008-08-31,529950.0
2007-08-31,556201.8235
2007-07-31,583633.0
2007-02-28,599000.0
2006-05-31,457500.0
2006-04-30,444000.0
2006-03-31,433529.4118
2006-02-28,395807.6923
2005-11-30,595088.2353
2005-10-31,493846.1538
2005-08-31,477875.0
2005-07-31,474700.0
2005-06-30,448000.0
2005-05-31,451176.4706
2005-04-30,410000.0
2004-11-30,450000.0
2004-06-30,362750.0
2004-05-31,383823.5294
2004-04-30,363461.5385
2004-02-29,325000.0
2003-10-31,353117.6471
2003-09-30,349000.0
2003-06-30,300000.0
2001-08-31,322846.1538
2001-06-30,321300.0
2001-05-31,338235.2941
2001-04-30,310000.0
2000-08-31,311115.3846
2000-06-30,321500.0
1999-09-30,301500.0
1999-06-30,300000.0
1998-11-30,335000.0
1998-05-31,244538.4615
1998-03-31,260000.0
1997-04-30,210000.0
