Date,Value
2015-07-31,481353.0
2015-06-30,463529.4118
2015-05-31,390000.0
2014-09-30,471769.2308
2014-07-31,442455.8
2014-06-30,475741.4118
2014-05-31,485372.0
2013-10-31,356384.6154
2013-08-31,361000.0
2013-04-30,255000.0
2012-07-31,450000.0
2009-06-30,329705.8824
2009-05-31,375000.0
2008-06-30,380307.6923
2008-04-30,333400.0
2008-03-31,333941.1765
2008-02-29,361000.0
2007-11-30,325750.0
2007-10-31,308823.5294
2007-09-30,317307.6923
2007-07-31,402225.0
2007-06-30,422725.0
2007-05-31,398375.0
2007-04-30,377882.3529
2007-03-31,347000.0
2006-07-31,364250.0
2006-06-30,357941.1765
2006-05-31,355000.0
2006-02-28,393357.5
2006-01-31,369575.0
2005-12-31,332941.1765
2005-11-30,300000.0
2005-08-31,330230.7692
2005-06-30,299600.0
2005-05-31,273117.6471
2005-04-30,299692.3077
2005-02-28,326461.5385
2004-12-31,378000.0
2004-10-31,260895.0
2004-09-30,250405.0
2004-08-31,270200.0
2004-07-31,294817.5
2004-06-30,307126.4706
2004-05-31,290730.7692
2004-03-31,245000.0
2003-06-30,244175.0
2003-04-30,295000.0
2002-12-31,255769.2308
2002-10-31,275000.0
2002-05-31,285769.2308
2002-03-31,252941.1765
2002-02-28,250000.0
2001-11-30,226911.5385
2001-09-30,249950.0
2000-10-31,246950.0
1999-08-31,215000.0
1999-05-31,194461.5385
1999-03-31,176000.0
1998-10-31,189825.0
1997-10-31,106000.0
