Date,Value
2015-09-30,564500.0
2015-08-31,567500.0
2015-07-31,604540.0
2015-06-30,606010.0
2015-05-31,591850.0
2015-04-30,524941.1765
2014-11-30,469925.0
2014-10-31,496416.5
2014-09-30,518638.5
2014-08-31,504270.5882
2014-07-31,474615.3846
2014-05-31,533647.0588
2014-04-30,546000.0
2013-08-31,446351.5385
2013-06-30,460882.3529
2013-05-31,505000.0
2012-11-30,485000.0
2012-05-31,434950.0
2011-08-31,404230.7692
2011-06-30,404384.6154
2011-04-30,469000.0
2010-07-31,425000.0
2010-03-31,475000.0
2009-10-31,409235.2941
2009-09-30,399615.3846
2009-07-31,395000.0
2009-04-30,505000.0
2008-09-30,514000.0
2008-07-31,423834.6154
2008-05-31,439950.0
2008-02-29,425000.0
2007-08-31,530250.0
2007-07-31,526750.0
2007-06-30,532800.0
2007-05-31,483700.0
2007-04-30,489411.7647
2007-03-31,500000.0
2006-12-31,446450.0
2006-11-30,417411.7647
2006-10-31,430769.2308
2006-08-31,443875.0
2006-07-31,440175.0
2006-06-30,432450.0
2006-05-31,424540.0
2006-04-30,438541.1765
2006-03-31,393600.0
2005-12-31,384750.0
2005-11-30,376500.0
2005-10-31,400985.0
2005-09-30,397515.0
2005-08-31,412650.0
2005-07-31,404992.5
2005-06-30,389532.5
2005-05-31,419675.0
2005-04-30,420294.1176
2005-03-31,425000.0
2004-12-31,362200.0
2004-11-30,350500.0
2004-10-31,364375.0
2004-09-30,367225.0
2004-08-31,350900.0
2004-07-31,353000.0
2004-06-30,353000.0
2004-05-31,345250.0
2004-04-30,337750.0
2004-03-31,314411.7647
2004-02-29,330269.2308
2003-12-31,328300.0
2003-11-30,334300.0
2003-10-31,320192.5
2003-09-30,305382.5
2003-08-31,317825.0
2003-07-31,312642.5
2003-06-30,305032.5
2003-05-31,292375.0
2003-04-30,289150.0
2003-03-31,294150.0
2003-02-28,308075.0
2003-01-31,309025.0
2002-12-31,291350.0
2002-11-30,298392.5
2002-10-31,295732.5
2002-09-30,294725.0
2002-08-31,311327.0
2002-07-31,314263.0
2002-06-30,303840.0
2002-05-31,294000.0
2002-04-30,289117.6471
2002-03-31,295000.0
2001-12-31,268750.0
2001-11-30,277550.0
2001-10-31,271200.0
2001-09-30,264000.0
2001-08-31,280000.0
2001-07-31,288650.0
2001-06-30,283100.0
2001-05-31,275400.0
2001-04-30,271588.2353
2001-03-31,281000.0
2000-12-31,267350.0
2000-11-30,269588.2353
2000-10-31,272230.7692
2000-08-31,266275.0
2000-07-31,253750.0
2000-06-30,263492.5
2000-05-31,244982.5
2000-04-30,236225.0
2000-03-31,229705.8824
2000-02-29,218461.5385
1999-12-31,230000.0
1999-09-30,233742.5
1999-08-31,238732.5
1999-07-31,248217.5
1999-06-30,234332.5
1999-05-31,232025.0
1999-04-30,226000.0
1999-03-31,236000.0
1998-12-31,213992.5
1998-11-30,207832.5
1998-10-31,199075.0
1998-09-30,197600.0
1998-08-31,210542.5
1998-07-31,209082.5
1998-06-30,204825.0
1998-05-31,200042.5
1998-04-30,203508.8235
1998-03-31,189950.0
1997-12-31,190217.5
1997-11-30,188307.5
1997-10-31,175825.0
1997-09-30,185150.0
1997-08-31,177647.0588
1997-07-31,194500.0
1997-05-31,190130.0
1997-04-30,166720.0
1997-03-31,154800.0
1997-02-28,153992.5
1997-01-31,153214.7059
1996-12-31,161269.2308
1996-10-31,153665.0
1996-09-30,156777.5
1996-08-31,156686.75
1996-07-31,169293.25
1996-06-30,172215.0
1996-05-31,157357.5
1996-04-30,159100.0
