Date,Value
2015-02-28,459950.0
2015-01-31,445000.0
2014-12-31,350000.0
2014-11-30,350000.0
2014-10-31,409950.0
2014-09-30,409950.0
2014-08-31,379000.0
2014-07-31,399000.0
2014-06-30,414900.0
2014-05-31,379800.0
2014-04-30,384500.0
2014-03-31,375800.0
2014-02-28,374950.0
2014-01-31,379800.0
2013-12-31,399950.0
2013-11-30,375800.0
2013-10-31,375800.0
2013-09-30,379950.0
2013-08-31,435000.0
2013-07-31,399000.0
2013-06-30,389800.0
2013-05-31,389800.0
2013-04-30,384800.0
2013-03-31,368000.0
2013-02-28,368000.0
2013-01-31,384800.0
2012-12-31,379900.0
2012-11-30,349800.0
2012-10-31,349800.0
2012-09-30,349800.0
2012-08-31,349800.0
2012-07-31,349800.0
2012-06-30,349800.0
2012-05-31,350000.0
2012-04-30,355000.0
2012-03-31,362800.0
2012-02-29,329950.0
2012-01-31,309800.0
2011-12-31,299950.0
2011-11-30,339000.0
2011-10-31,330000.0
2011-09-30,339950.0
2011-08-31,313500.0
2011-07-31,249000.0
2011-06-30,299000.0
2011-05-31,250000.0
2011-04-30,249000.0
2011-03-31,275950.0
2011-02-28,284950.0
2011-01-31,275950.0
2010-12-31,287000.0
2010-11-30,289500.0
2010-10-31,299500.0
2010-09-30,289500.0
2010-08-31,299900.0
2010-07-31,299900.0
2010-06-30,299950.0
2010-05-31,309950.0
2010-04-30,310000.0
2010-03-31,299950.0
2010-02-28,299250.0
2010-01-31,279000.0
2009-12-31,279000.0
2009-11-30,328000.0
2009-10-31,349000.0
2009-09-30,343800.0
2009-08-31,344800.0
2009-07-31,349800.0
2009-06-30,347800.0
2009-05-31,365800.0
2009-04-30,365800.0
2009-03-31,368800.0
2009-02-28,365800.0
2009-01-31,368800.0
2008-12-31,375000.0
2008-11-30,375000.0
2008-10-31,374950.0
