Date,Value
2015-02-28,349990.0
2015-01-31,325000.0
2014-12-31,315000.0
2014-11-30,375000.0
2014-10-31,375000.0
2014-09-30,385000.0
2014-08-31,412500.0
2014-07-31,420000.0
2014-06-30,485000.0
2014-05-31,399000.0
2014-04-30,385000.0
2014-03-31,327000.0
2014-02-28,379950.0
2014-01-31,335000.0
2013-12-31,397000.0
2013-11-30,335000.0
2013-10-31,335000.0
2013-09-30,359950.0
2013-08-31,300000.0
2013-07-31,325000.0
2013-06-30,323120.0
2013-05-31,340000.0
2013-04-30,340000.0
2013-03-31,340000.0
2013-02-28,285000.0
2013-01-31,279180.0
2012-12-31,285000.0
2012-11-30,299000.0
2012-10-31,285000.0
2012-09-30,285000.0
2012-08-31,305000.0
2012-07-31,299950.0
2012-06-30,279950.0
2012-05-31,299950.0
2012-04-30,285000.0
2012-03-31,299990.0
2012-02-29,289900.0
2012-01-31,299000.0
2011-12-31,299990.0
2011-11-30,314000.0
2011-10-31,314000.0
2011-09-30,325000.0
2011-08-31,329900.0
2011-07-31,325000.0
2011-06-30,337000.0
2011-05-31,334900.0
2011-04-30,325000.0
2011-03-31,299950.0
2011-02-28,292500.0
2011-01-31,325000.0
2010-12-31,349000.0
2010-11-30,300000.0
2010-10-31,320000.0
2010-09-30,304950.0
2010-08-31,334000.0
2010-07-31,334950.0
2010-06-30,342000.0
2010-05-31,351750.0
2010-04-30,369950.0
2010-03-31,369950.0
2010-02-28,375000.0
2010-01-31,375000.0
2009-12-31,349900.0
2009-11-30,349900.0
2009-10-31,359000.0
2009-09-30,425000.0
2009-08-31,484900.0
2009-07-31,332900.0
2009-06-30,329000.0
2009-05-31,385000.0
2009-04-30,415000.0
2009-03-31,344000.0
2009-02-28,342500.0
2009-01-31,399950.0
2008-12-31,480000.0
2008-11-30,419000.0
2008-10-31,430000.0
