Date,Value
2015-02-28,849900.0
2015-01-31,849900.0
2014-12-31,1199000.0
2014-11-30,1195000.0
2014-10-31,998500.0
2014-09-30,750000.0
2014-08-31,775000.0
2014-07-31,825000.0
2014-06-30,719900.0
2014-05-31,709950.0
2014-04-30,749000.0
2014-03-31,765000.0
2014-02-28,654950.0
2014-01-31,749000.0
2013-12-31,850000.0
2013-11-30,899000.0
2013-10-31,930000.0
2013-09-30,675000.0
2013-08-31,599950.0
2013-07-31,615000.0
2013-06-30,679000.0
2013-05-31,679000.0
2013-04-30,679000.0
2013-03-31,645000.0
2013-02-28,645000.0
2013-01-31,589500.0
2012-12-31,599999.0
2012-11-30,649000.0
2012-10-31,675000.0
2012-09-30,639000.0
2012-08-31,634995.0
2012-07-31,634995.0
2012-06-30,675000.0
2012-05-31,675000.0
2012-04-30,748000.0
2012-03-31,719000.0
2012-02-29,719000.0
2012-01-31,719000.0
2011-12-31,719000.0
2011-11-30,670000.0
2011-10-31,670000.0
2011-09-30,660000.0
2011-08-31,575000.0
2011-07-31,639000.0
2011-06-30,649000.0
2011-05-31,565000.0
2011-04-30,598000.0
2011-03-31,599000.0
2011-02-28,654900.0
2011-01-31,550000.0
2010-12-31,565000.0
2010-11-30,609000.0
2010-10-31,589500.0
2010-09-30,530000.0
2010-08-31,649000.0
2010-07-31,719000.0
2010-06-30,719000.0
2010-05-31,709000.0
2010-04-30,738000.0
2010-03-31,675000.0
2010-02-28,769000.0
2010-01-31,724950.0
2009-12-31,649000.0
2009-11-30,649000.0
2009-10-31,699900.0
2009-09-30,724950.0
2009-08-31,724950.0
2009-07-31,724950.0
2009-06-30,759000.0
2009-05-31,745000.0
2009-04-30,724950.0
2009-03-31,715000.0
2009-02-28,549950.0
2009-01-31,549950.0
2008-12-31,669000.0
2008-11-30,599000.0
2008-10-31,669000.0
