Date,Value
2012-09-30,249000.0
2012-08-31,300000.0
2011-12-31,274800.0
2011-10-31,300000.0
2011-09-30,319900.0
2011-08-31,279000.0
2011-07-31,239500.0
2011-06-30,239500.0
2011-05-31,239500.0
2011-04-30,325000.0
2011-03-31,325000.0
2011-02-28,325000.0
2011-01-31,368800.0
2010-12-31,368800.0
2010-11-30,368800.0
2010-10-31,368800.0
2010-09-30,349950.0
2010-08-31,364000.0
2010-07-31,386000.0
2010-06-30,329000.0
2010-05-31,297500.0
2010-04-30,329000.0
2010-03-31,249900.0
2010-02-28,239000.0
2010-01-31,239000.0
2009-12-31,230000.0
2009-11-30,239000.0
2009-10-31,419950.0
2009-09-30,275000.0
2009-08-31,315250.0
2009-07-31,275000.0
2009-06-30,275000.0
2009-05-31,230000.0
2009-03-31,199800.0
