Date,Value
2015-04-30,700000.0
2014-06-30,700000.0
2007-08-31,369500.0
2006-12-31,584000.0
2006-06-30,610000.0
2005-12-31,421000.0
2005-04-30,563823.5294
2005-03-31,595000.0
2004-12-31,500000.0
2004-07-31,488250.0
2004-05-31,390000.0
2003-12-31,460000.0
2003-08-31,418000.0
2003-05-31,360000.0
2002-08-31,320000.0
2000-07-31,279500.0
2000-03-31,325000.0
1998-07-31,268382.3529
1998-06-30,282500.0
1997-08-31,231941.1765
1997-07-31,249000.0
