Date,Value
2015-09-30,1.468
2015-08-31,1.474
2015-07-31,1.458
2015-06-30,1.442
2015-05-31,1.434
2015-04-30,1.42
2015-03-31,1.404
2015-02-28,1.386
2015-01-31,1.374
2014-12-31,1.368
2014-11-30,1.364
2014-10-31,1.362
2014-09-30,1.358
2014-08-31,1.348
2014-07-31,1.33
2014-06-30,1.314
2014-05-31,1.302
2014-04-30,1.294
2014-03-31,1.288
2014-02-28,1.284
2014-01-31,1.268
2013-12-31,1.244
2013-11-30,1.222
2013-10-31,1.202
2013-09-30,1.196
2013-08-31,1.188
2013-07-31,1.19
2013-06-30,1.188
2013-05-31,1.188
2013-04-30,1.184
2013-03-31,1.176
2013-02-28,1.17
2013-01-31,1.166
2012-12-31,1.164
2012-11-30,1.156
2012-10-31,1.148
2012-09-30,1.138
2012-08-31,1.124
2012-07-31,1.112
2012-06-30,1.106
2012-05-31,1.1
2012-04-30,1.094
2012-03-31,1.096
2012-02-29,1.102
2012-01-31,1.102
2011-12-31,1.102
2011-11-30,1.098
2011-10-31,1.096
2011-09-30,1.088
2011-08-31,1.09
2011-07-31,1.092
2011-06-30,1.09
2011-05-31,1.082
2011-04-30,1.074
2011-03-31,1.062
2011-02-28,1.042
2011-01-31,1.036
2010-12-31,1.032
2010-11-30,1.04
