Date,Value
2015-09-30,718500.0
2015-08-31,711800.0
2015-07-31,699500.0
2015-06-30,702000.0
2015-05-31,701700.0
2015-04-30,695000.0
2015-03-31,682900.0
2015-02-28,680800.0
2015-01-31,675100.0
2014-12-31,672200.0
2014-11-30,666600.0
2014-10-31,661500.0
2014-09-30,659400.0
2014-08-31,656400.0
2014-07-31,651400.0
2014-06-30,647000.0
2014-05-31,642600.0
2014-04-30,635100.0
2014-03-31,628700.0
2014-02-28,626100.0
2014-01-31,625000.0
2013-12-31,622400.0
2013-11-30,620300.0
2013-10-31,616200.0
2013-09-30,611800.0
2013-08-31,608900.0
2013-07-31,603800.0
2013-06-30,595200.0
2013-05-31,585600.0
2013-04-30,576000.0
2013-03-31,567500.0
2013-02-28,561000.0
2013-01-31,554500.0
2012-12-31,549600.0
2012-11-30,545300.0
2012-10-31,539400.0
2012-09-30,531500.0
2012-08-31,523800.0
2012-07-31,515100.0
2012-06-30,506200.0
2012-05-31,496400.0
2012-04-30,488200.0
2012-03-31,481400.0
2012-02-29,477000.0
2012-01-31,475100.0
2011-12-31,475500.0
2011-11-30,475100.0
2011-10-31,474300.0
2011-09-30,472800.0
2011-08-31,472300.0
2011-07-31,473700.0
2011-06-30,478200.0
2011-05-31,484300.0
2011-04-30,490100.0
2011-03-31,492400.0
2011-02-28,492300.0
2011-01-31,494100.0
2010-12-31,498300.0
2010-11-30,502700.0
2010-10-31,506800.0
2010-09-30,510500.0
2010-08-31,514000.0
2010-07-31,519600.0
2010-06-30,523900.0
2010-05-31,524600.0
2010-04-30,523300.0
2010-03-31,525700.0
2010-02-28,527700.0
2010-01-31,524900.0
2009-12-31,519500.0
2009-11-30,516000.0
2009-10-31,513400.0
2009-09-30,513800.0
2009-08-31,516000.0
2009-07-31,517400.0
2009-06-30,518400.0
2009-05-31,522400.0
2009-04-30,530000.0
2009-03-31,539400.0
2009-02-28,548600.0
2009-01-31,558100.0
2008-12-31,566700.0
2008-11-30,573400.0
2008-10-31,579700.0
2008-09-30,585700.0
2008-08-31,590600.0
2008-07-31,595000.0
2008-06-30,599700.0
2008-05-31,605900.0
2008-04-30,611700.0
2008-03-31,615100.0
2008-02-29,619400.0
2008-01-31,624200.0
2007-12-31,626100.0
2007-11-30,626500.0
2007-10-31,627400.0
2007-09-30,628500.0
2007-08-31,630800.0
2007-07-31,633500.0
2007-06-30,635600.0
2007-05-31,635500.0
2007-04-30,630900.0
2007-03-31,623800.0
2007-02-28,618500.0
2007-01-31,614800.0
2006-12-31,610900.0
2006-11-30,608200.0
2006-10-31,606500.0
2006-09-30,603600.0
2006-08-31,598500.0
2006-07-31,593900.0
2006-06-30,590000.0
2006-05-31,585000.0
2006-04-30,579100.0
2006-03-31,576100.0
2006-02-28,574200.0
2006-01-31,569800.0
2005-12-31,562700.0
2005-11-30,555100.0
2005-10-31,547700.0
2005-09-30,539800.0
2005-08-31,530800.0
2005-07-31,522800.0
2005-06-30,517700.0
2005-05-31,513700.0
2005-04-30,508900.0
2005-03-31,500500.0
2005-02-28,489300.0
2005-01-31,479200.0
2004-12-31,473400.0
2004-11-30,469300.0
2004-10-31,466100.0
2004-09-30,462300.0
2004-08-31,457000.0
2004-07-31,449600.0
2004-06-30,441800.0
2004-05-31,435600.0
2004-04-30,432800.0
2004-03-31,431100.0
2004-02-29,428000.0
2004-01-31,423500.0
2003-12-31,418900.0
2003-11-30,415100.0
2003-10-31,412500.0
2003-09-30,411400.0
2003-08-31,411800.0
2003-07-31,412400.0
2003-06-30,411500.0
2003-05-31,410200.0
2003-04-30,410000.0
2003-03-31,409000.0
2003-02-28,406300.0
2003-01-31,403400.0
2002-12-31,401400.0
2002-11-30,398600.0
2002-10-31,394500.0
2002-09-30,391000.0
2002-08-31,389500.0
2002-07-31,388500.0
2002-06-30,386200.0
2002-05-31,384100.0
2002-04-30,381700.0
2002-03-31,380100.0
2002-02-28,379700.0
2002-01-31,381600.0
2001-12-31,384300.0
2001-11-30,386300.0
2001-10-31,385600.0
2001-09-30,383100.0
2001-08-31,380200.0
2001-07-31,377700.0
2001-06-30,374700.0
2001-05-31,371400.0
2001-04-30,368500.0
2001-03-31,366800.0
2001-02-28,365800.0
2001-01-31,363700.0
2000-12-31,361600.0
2000-11-30,360400.0
2000-10-31,359100.0
2000-09-30,357800.0
2000-08-31,357300.0
2000-07-31,356300.0
2000-06-30,355600.0
2000-05-31,353500.0
2000-04-30,348800.0
2000-03-31,343200.0
2000-02-29,338300.0
2000-01-31,334400.0
1999-12-31,330100.0
1999-11-30,324300.0
1999-10-31,318900.0
1999-09-30,315200.0
1999-08-31,312400.0
1999-07-31,309300.0
1999-06-30,306100.0
1999-05-31,302300.0
1999-04-30,298600.0
1999-03-31,295100.0
1999-02-28,293200.0
1999-01-31,291100.0
1998-12-31,288000.0
1998-11-30,286100.0
1998-10-31,286400.0
1998-09-30,285600.0
1998-08-31,282100.0
1998-07-31,277800.0
1998-06-30,274400.0
1998-05-31,272100.0
1998-04-30,269600.0
1998-03-31,267400.0
1998-02-28,266100.0
1998-01-31,265300.0
1997-12-31,263700.0
1997-11-30,261100.0
1997-10-31,258500.0
1997-09-30,255400.0
1997-08-31,251700.0
1997-07-31,247800.0
1997-06-30,243700.0
1997-05-31,239500.0
1997-04-30,236400.0
1997-03-31,233800.0
1997-02-28,231200.0
1997-01-31,228800.0
1996-12-31,227200.0
1996-11-30,225700.0
1996-10-31,224300.0
1996-09-30,223400.0
1996-08-31,222700.0
1996-07-31,222800.0
1996-06-30,223600.0
1996-05-31,225000.0
1996-04-30,227100.0
