Date,Value
2015-09-30,302900.0
2015-08-31,297000.0
2015-07-31,289600.0
2015-06-30,286600.0
2015-05-31,283400.0
2015-04-30,278600.0
2015-03-31,272400.0
2015-02-28,271200.0
2015-01-31,269500.0
2014-12-31,268900.0
2014-11-30,267900.0
2014-10-31,266900.0
2014-09-30,265500.0
2014-08-31,263100.0
2014-07-31,262100.0
2014-06-30,261400.0
2014-05-31,260800.0
2014-04-30,259800.0
2014-03-31,257600.0
2014-02-28,253900.0
2014-01-31,250900.0
2013-12-31,248300.0
2013-11-30,246500.0
2013-10-31,245700.0
2013-09-30,244100.0
2013-08-31,241300.0
2013-07-31,238500.0
2013-06-30,235200.0
2013-05-31,231200.0
2013-04-30,227500.0
2013-03-31,223700.0
2013-02-28,220700.0
2013-01-31,218900.0
2012-12-31,216700.0
2012-11-30,213200.0
2012-10-31,209600.0
2012-09-30,206000.0
2012-08-31,202100.0
2012-07-31,197600.0
2012-06-30,194700.0
2012-05-31,193300.0
2012-04-30,192100.0
2012-03-31,191300.0
2012-02-29,191500.0
2012-01-31,190600.0
2011-12-31,190100.0
2011-11-30,191000.0
2011-10-31,192900.0
2011-09-30,194900.0
2011-08-31,197600.0
2011-07-31,200500.0
2011-06-30,203800.0
2011-05-31,207600.0
2011-04-30,211900.0
2011-03-31,216500.0
2011-02-28,221600.0
2011-01-31,226400.0
2010-12-31,230400.0
2010-11-30,233400.0
2010-10-31,235600.0
2010-09-30,238100.0
2010-08-31,241600.0
2010-07-31,245500.0
2010-06-30,248900.0
2010-05-31,251300.0
2010-04-30,251900.0
2010-03-31,252100.0
2010-02-28,252600.0
2010-01-31,253600.0
2009-12-31,254300.0
2009-11-30,254200.0
2009-10-31,252800.0
2009-09-30,253400.0
2009-08-31,255900.0
2009-07-31,257500.0
2009-06-30,257800.0
2009-05-31,258900.0
2009-04-30,260600.0
2009-03-31,262800.0
2009-02-28,265600.0
2009-01-31,268200.0
2008-12-31,270100.0
2008-11-30,272900.0
2008-10-31,277500.0
2008-09-30,281400.0
2008-08-31,283400.0
2008-07-31,286000.0
2008-06-30,289600.0
2008-05-31,292800.0
2008-04-30,295600.0
2008-03-31,297900.0
2008-02-29,298700.0
2008-01-31,299700.0
2007-12-31,301500.0
2007-11-30,303400.0
2007-10-31,304600.0
2007-09-30,305100.0
2007-08-31,305500.0
2007-07-31,307000.0
2007-06-30,309000.0
2007-05-31,309900.0
2007-04-30,309400.0
2007-03-31,308200.0
2007-02-28,306400.0
2007-01-31,304600.0
2006-12-31,302700.0
2006-11-30,301300.0
2006-10-31,299600.0
2006-09-30,297600.0
2006-08-31,295300.0
2006-07-31,291400.0
2006-06-30,285000.0
2006-05-31,278400.0
2006-04-30,273700.0
2006-03-31,270200.0
2006-02-28,266900.0
2006-01-31,263500.0
2005-12-31,260300.0
2005-11-30,256900.0
2005-10-31,253400.0
2005-09-30,250100.0
2005-08-31,247000.0
2005-07-31,243100.0
2005-06-30,238600.0
2005-05-31,233800.0
2005-04-30,229500.0
2005-03-31,226100.0
2005-02-28,224200.0
2005-01-31,223200.0
2004-12-31,223000.0
2004-11-30,222100.0
2004-10-31,220300.0
2004-09-30,218300.0
2004-08-31,216500.0
2004-07-31,214400.0
2004-06-30,213700.0
2004-05-31,214200.0
2004-04-30,214200.0
2004-03-31,213200.0
2004-02-29,211600.0
2004-01-31,209000.0
2003-12-31,205200.0
2003-11-30,201200.0
2003-10-31,198600.0
2003-09-30,196700.0
2003-08-31,195200.0
2003-07-31,194700.0
2003-06-30,195300.0
2003-05-31,195800.0
2003-04-30,195100.0
2003-03-31,193300.0
2003-02-28,191200.0
2003-01-31,189800.0
2002-12-31,189100.0
2002-11-30,188900.0
2002-10-31,188100.0
2002-09-30,187000.0
2002-08-31,186000.0
2002-07-31,185000.0
2002-06-30,183500.0
2002-05-31,181700.0
2002-04-30,180900.0
2002-03-31,181400.0
2002-02-28,182000.0
2002-01-31,182100.0
2001-12-31,182100.0
2001-11-30,181800.0
2001-10-31,180900.0
2001-09-30,180000.0
2001-08-31,178900.0
2001-07-31,177400.0
2001-06-30,175900.0
2001-05-31,174800.0
2001-04-30,174100.0
2001-03-31,173400.0
2001-02-28,171900.0
2001-01-31,169700.0
2000-12-31,167800.0
2000-11-30,166900.0
2000-10-31,166100.0
2000-09-30,164400.0
2000-08-31,162400.0
2000-07-31,161200.0
2000-06-30,160100.0
2000-05-31,158900.0
2000-04-30,157700.0
2000-03-31,156600.0
2000-02-29,155000.0
2000-01-31,153500.0
1999-12-31,151900.0
1999-11-30,150400.0
1999-10-31,148300.0
1999-09-30,146500.0
1999-08-31,145100.0
1999-07-31,143400.0
1999-06-30,141700.0
1999-05-31,139800.0
1999-04-30,138200.0
1999-03-31,136900.0
1999-02-28,136200.0
1999-01-31,135000.0
1998-12-31,133100.0
1998-11-30,131300.0
1998-10-31,130400.0
1998-09-30,129700.0
1998-08-31,128500.0
1998-07-31,127700.0
1998-06-30,127600.0
1998-05-31,127300.0
1998-04-30,126100.0
1998-03-31,124600.0
1998-02-28,123200.0
1998-01-31,121800.0
1997-12-31,120300.0
1997-11-30,119200.0
1997-10-31,118300.0
1997-09-30,117700.0
1997-08-31,116900.0
1997-07-31,115800.0
1997-06-30,114300.0
1997-05-31,112600.0
1997-04-30,111200.0
1997-03-31,109500.0
1997-02-28,107900.0
1997-01-31,106800.0
1996-12-31,106300.0
1996-11-30,105800.0
1996-10-31,105600.0
1996-09-30,105800.0
1996-08-31,105700.0
1996-07-31,105000.0
1996-06-30,104300.0
1996-05-31,103700.0
1996-04-30,103000.0
