Date,Value
2015-09-30,889800.0
2015-08-31,882000.0
2015-07-31,880300.0
2015-06-30,890800.0
2015-05-31,890000.0
2015-04-30,876000.0
2015-03-31,857200.0
2015-02-28,854500.0
2015-01-31,846200.0
2014-12-31,841300.0
2014-11-30,835600.0
2014-10-31,828800.0
2014-09-30,821500.0
2014-08-31,812700.0
2014-07-31,804000.0
2014-06-30,796000.0
2014-05-31,788900.0
2014-04-30,780000.0
2014-03-31,772100.0
2014-02-28,767600.0
2014-01-31,764200.0
2013-12-31,758500.0
2013-11-30,753400.0
2013-10-31,750300.0
2013-09-30,748100.0
2013-08-31,744900.0
2013-07-31,738900.0
2013-06-30,731100.0
2013-05-31,723300.0
2013-04-30,715300.0
2013-03-31,710000.0
2013-02-28,704700.0
2013-01-31,697700.0
2012-12-31,690200.0
2012-11-30,682600.0
2012-10-31,674600.0
2012-09-30,669400.0
2012-08-31,666900.0
2012-07-31,665000.0
2012-06-30,662500.0
2012-05-31,657800.0
2012-04-30,652000.0
2012-03-31,645500.0
2012-02-29,638600.0
2012-01-31,634000.0
2011-12-31,634800.0
2011-11-30,637600.0
2011-10-31,639200.0
2011-09-30,638700.0
2011-08-31,636400.0
2011-07-31,633200.0
2011-06-30,631200.0
2011-05-31,632200.0
2011-04-30,636300.0
2011-03-31,643000.0
2011-02-28,649100.0
2011-01-31,653100.0
2010-12-31,653300.0
2010-11-30,651900.0
2010-10-31,650200.0
2010-09-30,647000.0
2010-08-31,643500.0
2010-07-31,643100.0
2010-06-30,644100.0
2010-05-31,643400.0
2010-04-30,641100.0
2010-03-31,635700.0
2010-02-28,630500.0
2010-01-31,628500.0
2009-12-31,627900.0
2009-11-30,625900.0
2009-10-31,626600.0
2009-09-30,630300.0
2009-08-31,635900.0
2009-07-31,642800.0
2009-06-30,650100.0
2009-05-31,657400.0
2009-04-30,665400.0
2009-03-31,672200.0
2009-02-28,675800.0
2009-01-31,679400.0
2008-12-31,685200.0
2008-11-30,692400.0
2008-10-31,698800.0
2008-09-30,703300.0
2008-08-31,707800.0
2008-07-31,713100.0
2008-06-30,717500.0
2008-05-31,721100.0
2008-04-30,726900.0
2008-03-31,733600.0
2008-02-29,738400.0
2008-01-31,741300.0
2007-12-31,746200.0
2007-11-30,750600.0
2007-10-31,754000.0
2007-09-30,759000.0
2007-08-31,764700.0
2007-07-31,764400.0
2007-06-30,761500.0
2007-05-31,758700.0
2007-04-30,755600.0
2007-03-31,755900.0
2007-02-28,758700.0
2007-01-31,757300.0
2006-12-31,752800.0
2006-11-30,751500.0
2006-10-31,749400.0
2006-09-30,741400.0
2006-08-31,728600.0
2006-07-31,715400.0
2006-06-30,706200.0
2006-05-31,703900.0
2006-04-30,706200.0
2006-03-31,709500.0
2006-02-28,711400.0
2006-01-31,709000.0
2005-12-31,699900.0
2005-11-30,688900.0
2005-10-31,678200.0
2005-09-30,669600.0
2005-08-31,661200.0
2005-07-31,654700.0
2005-06-30,646200.0
2005-05-31,637200.0
2005-04-30,625200.0
2005-03-31,609900.0
2005-02-28,595200.0
2005-01-31,588300.0
2004-12-31,584600.0
2004-11-30,578000.0
2004-10-31,571900.0
2004-09-30,568900.0
2004-08-31,567900.0
2004-07-31,566200.0
2004-06-30,562200.0
2004-05-31,554000.0
2004-04-30,546100.0
2004-03-31,541300.0
2004-02-29,538200.0
2004-01-31,532700.0
2003-12-31,528100.0
2003-11-30,525000.0
2003-10-31,522400.0
2003-09-30,519200.0
2003-08-31,518800.0
2003-07-31,521500.0
2003-06-30,526000.0
2003-05-31,527800.0
2003-04-30,523800.0
2003-03-31,516400.0
2003-02-28,509000.0
2003-01-31,502500.0
2002-12-31,497300.0
2002-11-30,494300.0
2002-10-31,492100.0
2002-09-30,490200.0
2002-08-31,487100.0
2002-07-31,482000.0
2002-06-30,478500.0
2002-05-31,478400.0
2002-04-30,479000.0
2002-03-31,478600.0
2002-02-28,478200.0
2002-01-31,478800.0
2001-12-31,481100.0
2001-11-30,483300.0
2001-10-31,483700.0
2001-09-30,482200.0
2001-08-31,480500.0
2001-07-31,479500.0
2001-06-30,478400.0
2001-05-31,477900.0
2001-04-30,477300.0
2001-03-31,475000.0
2001-02-28,472100.0
2001-01-31,469900.0
2000-12-31,467800.0
2000-11-30,464600.0
2000-10-31,460900.0
2000-09-30,457100.0
2000-08-31,454800.0
2000-07-31,454100.0
2000-06-30,452800.0
2000-05-31,447300.0
2000-04-30,443000.0
2000-03-31,442300.0
2000-02-29,441200.0
2000-01-31,436300.0
1999-12-31,429500.0
1999-11-30,422900.0
1999-10-31,418000.0
1999-09-30,413700.0
1999-08-31,408600.0
1999-07-31,402400.0
1999-06-30,395800.0
1999-05-31,390600.0
1999-04-30,385700.0
1999-03-31,381400.0
1999-02-28,377300.0
1999-01-31,373500.0
1998-12-31,368900.0
1998-11-30,365100.0
1998-10-31,361500.0
1998-09-30,357800.0
1998-08-31,352700.0
1998-07-31,346600.0
1998-06-30,339500.0
1998-05-31,333100.0
1998-04-30,327700.0
1998-03-31,323800.0
1998-02-28,320000.0
1998-01-31,316400.0
1997-12-31,313600.0
1997-11-30,312000.0
1997-10-31,309900.0
1997-09-30,307000.0
1997-08-31,303100.0
1997-07-31,298900.0
1997-06-30,294900.0
1997-05-31,291600.0
1997-04-30,288200.0
1997-03-31,285100.0
1997-02-28,282300.0
1997-01-31,279900.0
1996-12-31,277100.0
1996-11-30,273500.0
1996-10-31,270300.0
1996-09-30,268700.0
1996-08-31,266700.0
1996-07-31,262900.0
1996-06-30,259800.0
1996-05-31,258600.0
1996-04-30,258100.0
