Date,Value
2015-09-30,440700.0
2015-08-31,432000.0
2015-07-31,422600.0
2015-06-30,423900.0
2015-05-31,419600.0
2015-04-30,409400.0
2015-03-31,404300.0
2015-02-28,399400.0
2015-01-31,402500.0
2014-12-31,404400.0
2014-11-30,405700.0
2014-10-31,404600.0
2014-09-30,403900.0
2014-08-31,403600.0
2014-07-31,403000.0
2014-06-30,403400.0
2014-05-31,404600.0
2014-04-30,398600.0
2014-03-31,387800.0
2014-02-28,382500.0
2014-01-31,381500.0
2013-12-31,379400.0
2013-11-30,376000.0
2013-10-31,371000.0
2013-09-30,364200.0
2013-08-31,357800.0
2013-07-31,352000.0
2013-06-30,347400.0
2013-05-31,345000.0
2013-04-30,343900.0
2013-03-31,341500.0
2013-02-28,339400.0
2013-01-31,336800.0
2012-12-31,333500.0
2012-11-30,329800.0
2012-10-31,329100.0
2012-09-30,329600.0
2012-08-31,333500.0
2012-07-31,336200.0
2012-06-30,333200.0
2012-05-31,325300.0
2012-04-30,317700.0
2012-03-31,311600.0
2012-02-29,307700.0
2012-01-31,306600.0
2011-12-31,307700.0
2011-11-30,308700.0
2011-10-31,308300.0
2011-09-30,307900.0
2011-08-31,308600.0
2011-07-31,310700.0
2011-06-30,314200.0
2011-05-31,318700.0
2011-04-30,321500.0
2011-03-31,319900.0
2011-02-28,315100.0
2011-01-31,311500.0
2010-12-31,310500.0
2010-11-30,311300.0
2010-10-31,311500.0
2010-09-30,311400.0
2010-08-31,311900.0
2010-07-31,314600.0
2010-06-30,318900.0
2010-05-31,321700.0
2010-04-30,323800.0
2010-03-31,327600.0
2010-02-28,331400.0
2010-01-31,331600.0
2009-12-31,329100.0
2009-11-30,325900.0
2009-10-31,324300.0
2009-09-30,324900.0
2009-08-31,324700.0
2009-07-31,322000.0
2009-06-30,319700.0
2009-05-31,320200.0
2009-04-30,321900.0
2009-03-31,324400.0
2009-02-28,326800.0
2009-01-31,331200.0
2008-12-31,336900.0
2008-11-30,342600.0
2008-10-31,348800.0
2008-09-30,356700.0
2008-08-31,363500.0
2008-07-31,368900.0
2008-06-30,373100.0
2008-05-31,376500.0
2008-04-30,380400.0
2008-03-31,382900.0
2008-02-29,385700.0
2008-01-31,387100.0
2007-12-31,386400.0
2007-11-30,386000.0
2007-10-31,389500.0
2007-09-30,392100.0
2007-08-31,392700.0
2007-07-31,390700.0
2007-06-30,387600.0
2007-05-31,385300.0
2007-04-30,384800.0
2007-03-31,386600.0
2007-02-28,388800.0
2007-01-31,390900.0
2006-12-31,391100.0
2006-11-30,389300.0
2006-10-31,385200.0
2006-09-30,379900.0
2006-08-31,374400.0
2006-07-31,371000.0
2006-06-30,368000.0
2006-05-31,364500.0
2006-04-30,360900.0
2006-03-31,357400.0
2006-02-28,355000.0
2006-01-31,352100.0
2005-12-31,349400.0
2005-11-30,346700.0
2005-10-31,342600.0
2005-09-30,337400.0
2005-08-31,333100.0
2005-07-31,330000.0
2005-06-30,328300.0
2005-05-31,326200.0
2005-04-30,323000.0
2005-03-31,320300.0
2005-02-28,316100.0
2005-01-31,311700.0
2004-12-31,308300.0
2004-11-30,304400.0
2004-10-31,299000.0
2004-09-30,293700.0
2004-08-31,290000.0
2004-07-31,287800.0
2004-06-30,283700.0
2004-05-31,278600.0
2004-04-30,275100.0
2004-03-31,273200.0
2004-02-29,270700.0
2004-01-31,268000.0
2003-12-31,265200.0
2003-11-30,263500.0
2003-10-31,263500.0
2003-09-30,263200.0
2003-08-31,261800.0
2003-07-31,260800.0
2003-06-30,261200.0
2003-05-31,262300.0
2003-04-30,263500.0
2003-03-31,264000.0
2003-02-28,264100.0
2003-01-31,262500.0
2002-12-31,261100.0
2002-11-30,261300.0
2002-10-31,261900.0
2002-09-30,261800.0
2002-08-31,259800.0
2002-07-31,254900.0
2002-06-30,251000.0
2002-05-31,249100.0
2002-04-30,246700.0
2002-03-31,242900.0
2002-02-28,240900.0
2002-01-31,243200.0
2001-12-31,247200.0
2001-11-30,248200.0
2001-10-31,246600.0
2001-09-30,246400.0
2001-08-31,247100.0
2001-07-31,247900.0
2001-06-30,247900.0
2001-05-31,247400.0
2001-04-30,245900.0
2001-03-31,243600.0
2001-02-28,241300.0
2001-01-31,239100.0
2000-12-31,235400.0
2000-11-30,230400.0
2000-10-31,226600.0
2000-09-30,223300.0
2000-08-31,219600.0
2000-07-31,217400.0
2000-06-30,217800.0
2000-05-31,217000.0
2000-04-30,214800.0
2000-03-31,214300.0
2000-02-29,215600.0
2000-01-31,214800.0
1999-12-31,213400.0
1999-11-30,212900.0
1999-10-31,213300.0
1999-09-30,212300.0
1999-08-31,212800.0
1999-07-31,214500.0
1999-06-30,213100.0
1999-05-31,208600.0
1999-04-30,205700.0
1999-03-31,205000.0
1999-02-28,203500.0
1999-01-31,200000.0
1998-12-31,195000.0
1998-11-30,192500.0
1998-10-31,191600.0
1998-09-30,191200.0
1998-08-31,190900.0
1998-07-31,190900.0
1998-06-30,190400.0
1998-05-31,190100.0
1998-04-30,187900.0
1998-03-31,184900.0
1998-02-28,181400.0
1998-01-31,177300.0
1997-12-31,173600.0
1997-11-30,170900.0
1997-10-31,168000.0
1997-09-30,165800.0
1997-08-31,164400.0
1997-07-31,161900.0
1997-06-30,159000.0
1997-05-31,157800.0
1997-04-30,158600.0
1997-03-31,158400.0
1997-02-28,156500.0
1997-01-31,155200.0
1996-12-31,156300.0
1996-11-30,157600.0
1996-10-31,158000.0
1996-09-30,158300.0
1996-08-31,158200.0
1996-07-31,156300.0
1996-06-30,154700.0
1996-05-31,156100.0
1996-04-30,158200.0
