Date,Value
2015-09-30,439700.0
2015-08-31,423800.0
2015-07-31,418600.0
2015-06-30,422000.0
2015-05-31,422000.0
2015-04-30,413200.0
2015-03-31,399100.0
2015-02-28,392700.0
2015-01-31,386100.0
2014-12-31,386400.0
2014-11-30,385000.0
2014-10-31,381900.0
2014-09-30,380000.0
2014-08-31,379900.0
2014-07-31,379000.0
2014-06-30,378300.0
2014-05-31,381800.0
2014-04-30,390600.0
2014-03-31,396400.0
2014-02-28,396500.0
2014-01-31,393300.0
2013-12-31,388500.0
2013-11-30,383100.0
2013-10-31,380900.0
2013-09-30,380100.0
2013-08-31,378100.0
2013-07-31,376500.0
2013-06-30,377400.0
2013-05-31,377100.0
2013-04-30,372700.0
2013-03-31,366500.0
2013-02-28,361000.0
2013-01-31,357200.0
2012-12-31,355900.0
2012-11-30,353400.0
2012-10-31,349100.0
2012-09-30,345800.0
2012-08-31,343300.0
2012-07-31,340500.0
2012-06-30,337200.0
2012-05-31,333300.0
2012-04-30,329400.0
2012-03-31,325700.0
2012-02-29,323500.0
2012-01-31,323800.0
2011-12-31,325900.0
2011-11-30,327100.0
2011-10-31,325500.0
2011-09-30,323200.0
2011-08-31,323500.0
2011-07-31,325300.0
2011-06-30,327600.0
2011-05-31,329300.0
2011-04-30,329600.0
2011-03-31,330100.0
2011-02-28,332600.0
2011-01-31,335300.0
2010-12-31,337200.0
2010-11-30,338600.0
2010-10-31,341000.0
2010-09-30,344900.0
2010-08-31,348100.0
2010-07-31,348900.0
2010-06-30,347900.0
2010-05-31,347900.0
2010-04-30,347900.0
2010-03-31,348000.0
2010-02-28,347800.0
2010-01-31,347300.0
2009-12-31,345600.0
2009-11-30,345500.0
2009-10-31,346000.0
2009-09-30,345100.0
2009-08-31,344700.0
2009-07-31,347500.0
2009-06-30,351500.0
2009-05-31,354900.0
2009-04-30,359400.0
2009-03-31,364600.0
2009-02-28,369100.0
2009-01-31,372900.0
2008-12-31,375500.0
2008-11-30,378000.0
2008-10-31,381800.0
2008-09-30,386400.0
2008-08-31,390300.0
2008-07-31,394100.0
2008-06-30,397900.0
2008-05-31,403100.0
2008-04-30,409200.0
2008-03-31,414500.0
2008-02-29,418400.0
2008-01-31,421300.0
2007-12-31,423600.0
2007-11-30,426600.0
2007-10-31,430600.0
2007-09-30,435100.0
2007-08-31,436700.0
2007-07-31,435800.0
2007-06-30,435100.0
2007-05-31,434300.0
2007-04-30,432000.0
2007-03-31,431100.0
2007-02-28,430500.0
2007-01-31,428300.0
2006-12-31,426100.0
2006-11-30,423100.0
2006-10-31,416700.0
2006-09-30,408000.0
2006-08-31,402300.0
2006-07-31,398600.0
2006-06-30,394400.0
2006-05-31,386700.0
2006-04-30,378000.0
2006-03-31,371800.0
2006-02-28,369900.0
2006-01-31,366300.0
2005-12-31,362400.0
2005-11-30,361500.0
2005-10-31,362400.0
2005-09-30,361000.0
2005-08-31,357700.0
2005-07-31,353100.0
2005-06-30,347800.0
2005-05-31,342400.0
2005-04-30,340100.0
2005-03-31,337200.0
2005-02-28,331100.0
2005-01-31,326300.0
2004-12-31,324500.0
2004-11-30,321200.0
2004-10-31,316700.0
2004-09-30,314500.0
2004-08-31,313500.0
2004-07-31,310500.0
2004-06-30,306300.0
2004-05-31,303500.0
2004-04-30,300900.0
2004-03-31,296700.0
2004-02-29,292100.0
2004-01-31,290200.0
2003-12-31,289500.0
2003-11-30,288700.0
2003-10-31,286900.0
2003-09-30,285200.0
2003-08-31,283300.0
2003-07-31,282500.0
2003-06-30,281900.0
2003-05-31,282000.0
2003-04-30,281300.0
2003-03-31,279900.0
2003-02-28,279300.0
2003-01-31,278800.0
2002-12-31,277700.0
2002-11-30,277700.0
2002-10-31,280100.0
2002-09-30,282900.0
2002-08-31,283000.0
2002-07-31,281900.0
2002-06-30,281900.0
2002-05-31,282300.0
2002-04-30,280400.0
2002-03-31,278000.0
2002-02-28,277300.0
2002-01-31,278000.0
2001-12-31,279200.0
2001-11-30,279700.0
2001-10-31,278400.0
2001-09-30,274200.0
2001-08-31,271700.0
2001-07-31,271800.0
2001-06-30,272400.0
2001-05-31,272200.0
2001-04-30,272500.0
2001-03-31,272700.0
2001-02-28,271600.0
2001-01-31,268800.0
2000-12-31,265100.0
2000-11-30,262700.0
2000-10-31,261200.0
2000-09-30,259600.0
2000-08-31,257000.0
2000-07-31,255300.0
2000-06-30,253700.0
2000-05-31,251800.0
2000-04-30,248700.0
2000-03-31,247600.0
2000-02-29,246900.0
2000-01-31,243200.0
1999-12-31,238600.0
1999-11-30,234800.0
1999-10-31,230100.0
1999-09-30,225900.0
1999-08-31,224800.0
1999-07-31,222600.0
1999-06-30,219600.0
1999-05-31,217100.0
1999-04-30,214800.0
1999-03-31,213700.0
1999-02-28,213800.0
1999-01-31,213000.0
1998-12-31,210600.0
1998-11-30,208700.0
1998-10-31,207800.0
1998-09-30,208100.0
1998-08-31,207200.0
1998-07-31,205200.0
1998-06-30,202100.0
1998-05-31,201100.0
1998-04-30,204100.0
1998-03-31,205500.0
1998-02-28,203900.0
