Date,Value
2015-08-31,495100.0
2007-08-31,340000.0
2007-04-30,298000.0
2006-11-30,365000.0
2006-05-31,299950.0
2005-09-30,253512.5
2005-08-31,241367.5
2005-07-31,240975.0
2005-06-30,239207.5
2005-05-31,203882.5
2005-04-30,195138.2353
2005-03-31,181050.0
2004-10-31,318000.0
2004-03-31,242500.0
2002-05-31,265000.0
1999-06-30,193846.1538
1999-04-30,200000.0
1997-04-30,173500.0
