Date,Value
2015-09-30,287900.0
2015-08-31,286300.0
2015-07-31,282000.0
2015-06-30,283300.0
2015-05-31,281600.0
2015-04-30,274600.0
2015-03-31,264900.0
2015-02-28,262900.0
2015-01-31,259300.0
2014-12-31,257100.0
2014-11-30,254900.0
2014-10-31,252800.0
2014-09-30,250300.0
2014-08-31,246700.0
2014-07-31,243700.0
2014-06-30,242200.0
2014-05-31,241900.0
2014-04-30,240900.0
2014-03-31,239200.0
2014-02-28,236700.0
2014-01-31,233900.0
2013-12-31,231600.0
2013-11-30,230100.0
2013-10-31,228500.0
2013-09-30,224300.0
2013-08-31,219000.0
2013-07-31,213800.0
2013-06-30,209700.0
2013-05-31,205800.0
2013-04-30,202000.0
2013-03-31,197400.0
2013-02-28,194400.0
2013-01-31,193200.0
2012-12-31,192400.0
2012-11-30,191200.0
2012-10-31,189900.0
2012-09-30,189100.0
2012-08-31,188600.0
2012-07-31,188600.0
2012-06-30,187800.0
2012-05-31,186300.0
2012-04-30,185000.0
2012-03-31,184900.0
2012-02-29,185000.0
2012-01-31,184600.0
2011-12-31,184500.0
2011-11-30,185700.0
2011-10-31,187700.0
2011-09-30,189900.0
2011-08-31,191700.0
2011-07-31,193300.0
2011-06-30,195600.0
2011-05-31,200100.0
2011-04-30,205600.0
2011-03-31,209900.0
2011-02-28,212800.0
2011-01-31,215800.0
2010-12-31,218600.0
2010-11-30,220400.0
2010-10-31,221700.0
2010-09-30,224200.0
2010-08-31,227900.0
2010-07-31,231500.0
2010-06-30,235900.0
2010-05-31,240300.0
2010-04-30,243700.0
2010-03-31,244900.0
2010-02-28,245400.0
2010-01-31,246700.0
2009-12-31,249100.0
2009-11-30,250200.0
2009-10-31,250800.0
2009-09-30,252600.0
2009-08-31,255200.0
2009-07-31,256700.0
2009-06-30,256600.0
2009-05-31,255900.0
2009-04-30,255100.0
2009-03-31,257000.0
2009-02-28,260800.0
2009-01-31,263000.0
2008-12-31,263500.0
2008-11-30,265000.0
2008-10-31,268200.0
2008-09-30,271300.0
2008-08-31,273400.0
2008-07-31,275300.0
2008-06-30,277600.0
2008-05-31,280000.0
2008-04-30,280800.0
2008-03-31,281700.0
2008-02-29,283500.0
2008-01-31,285700.0
2007-12-31,286700.0
2007-11-30,288500.0
2007-10-31,290800.0
2007-09-30,293100.0
2007-08-31,296500.0
2007-07-31,300000.0
2007-06-30,300900.0
2007-05-31,299700.0
2007-04-30,298900.0
2007-03-31,298100.0
2007-02-28,296700.0
2007-01-31,294700.0
2006-12-31,293100.0
2006-11-30,291000.0
2006-10-31,289100.0
2006-09-30,286100.0
2006-08-31,282500.0
2006-07-31,278300.0
2006-06-30,274000.0
2006-05-31,269300.0
2006-04-30,265700.0
2006-03-31,262400.0
2006-02-28,258700.0
2006-01-31,256100.0
2005-12-31,254600.0
2005-11-30,252200.0
2005-10-31,247700.0
2005-09-30,242300.0
2005-08-31,237000.0
2005-07-31,232800.0
2005-06-30,229800.0
2005-05-31,227700.0
2005-04-30,226100.0
2005-03-31,225000.0
2005-02-28,222800.0
2005-01-31,219900.0
2004-12-31,217200.0
2004-11-30,214700.0
2004-10-31,211900.0
2004-09-30,209600.0
2004-08-31,206800.0
2004-07-31,203800.0
2004-06-30,200800.0
2004-05-31,198500.0
2004-04-30,196800.0
2004-03-31,195900.0
2004-02-29,195300.0
2004-01-31,195000.0
2003-12-31,193900.0
2003-11-30,192700.0
2003-10-31,191700.0
2003-09-30,191100.0
2003-08-31,190500.0
2003-07-31,190100.0
2003-06-30,190800.0
2003-05-31,192000.0
2003-04-30,191700.0
2003-03-31,189800.0
2003-02-28,187600.0
2003-01-31,185600.0
2002-12-31,184300.0
2002-11-30,182800.0
2002-10-31,181400.0
2002-09-30,180200.0
2002-08-31,179100.0
2002-07-31,178200.0
2002-06-30,177300.0
2002-05-31,175900.0
2002-04-30,174600.0
2002-03-31,173200.0
2002-02-28,171900.0
2002-01-31,171200.0
2001-12-31,171000.0
2001-11-30,170600.0
2001-10-31,169800.0
2001-09-30,168700.0
2001-08-31,167200.0
2001-07-31,165600.0
2001-06-30,163800.0
2001-05-31,161400.0
2001-04-30,159200.0
2001-03-31,157500.0
2001-02-28,155700.0
2001-01-31,153500.0
2000-12-31,151600.0
2000-11-30,150800.0
2000-10-31,150300.0
2000-09-30,149400.0
2000-08-31,148800.0
2000-07-31,148100.0
2000-06-30,146800.0
2000-05-31,145400.0
2000-04-30,144300.0
2000-03-31,143700.0
2000-02-29,143600.0
2000-01-31,143400.0
1999-12-31,142600.0
1999-11-30,140800.0
1999-10-31,138800.0
1999-09-30,137600.0
1999-08-31,137200.0
1999-07-31,136500.0
1999-06-30,135700.0
1999-05-31,134800.0
1999-04-30,133500.0
1999-03-31,131500.0
1999-02-28,129800.0
1999-01-31,127400.0
1998-12-31,124100.0
1998-11-30,121900.0
1998-10-31,121100.0
1998-09-30,120200.0
1998-08-31,119100.0
1998-07-31,118800.0
1998-06-30,118700.0
1998-05-31,117900.0
1998-04-30,116300.0
1998-03-31,115200.0
1998-02-28,114400.0
1998-01-31,113500.0
1997-12-31,112800.0
1997-11-30,112300.0
1997-10-31,111600.0
1997-09-30,110800.0
1997-08-31,110000.0
1997-07-31,108700.0
1997-06-30,106800.0
1997-05-31,105200.0
1997-04-30,104200.0
1997-03-31,103400.0
1997-02-28,102600.0
1997-01-31,102200.0
1996-12-31,101800.0
1996-11-30,101200.0
1996-10-31,100900.0
1996-09-30,100800.0
1996-08-31,100600.0
1996-07-31,100400.0
1996-06-30,100800.0
1996-05-31,101700.0
1996-04-30,102800.0
