Date,Value
2015-09-30,1050900.0
2015-08-31,1064400.0
2015-07-31,1041000.0
2015-06-30,1042800.0
2015-05-31,1046600.0
2015-04-30,1031100.0
2015-03-31,1008200.0
2015-02-28,1005000.0
2015-01-31,998200.0
2014-12-31,995600.0
2014-11-30,991600.0
2014-10-31,986200.0
2014-09-30,983000.0
2014-08-31,977700.0
2014-07-31,970100.0
2014-06-30,962800.0
2014-05-31,962100.0
2014-04-30,963200.0
2014-03-31,960500.0
2014-02-28,953500.0
2014-01-31,946700.0
2013-12-31,943200.0
2013-11-30,938800.0
2013-10-31,925800.0
2013-09-30,912200.0
2013-08-31,907400.0
2013-07-31,905600.0
2013-06-30,897700.0
2013-05-31,886600.0
2013-04-30,878900.0
2013-03-31,876100.0
2013-02-28,870100.0
2013-01-31,862500.0
2012-12-31,854000.0
2012-11-30,842500.0
2012-10-31,833000.0
2012-09-30,826900.0
2012-08-31,819200.0
2012-07-31,812300.0
2012-06-30,810400.0
2012-05-31,807600.0
2012-04-30,801900.0
2012-03-31,796900.0
2012-02-29,794900.0
2012-01-31,791100.0
2011-12-31,788000.0
2011-11-30,786400.0
2011-10-31,787900.0
2011-09-30,790300.0
2011-08-31,790100.0
2011-07-31,786800.0
2011-06-30,787900.0
2011-05-31,792400.0
2011-04-30,795400.0
2011-03-31,794000.0
2011-02-28,793200.0
2011-01-31,798900.0
2010-12-31,803800.0
2010-11-30,806900.0
2010-10-31,808200.0
2010-09-30,808100.0
2010-08-31,804900.0
2010-07-31,804000.0
2010-06-30,803000.0
2010-05-31,803300.0
2010-04-30,803900.0
2010-03-31,806600.0
2010-02-28,806800.0
2010-01-31,803800.0
2009-12-31,806500.0
2009-11-30,814700.0
2009-10-31,823100.0
2009-09-30,831800.0
2009-08-31,838700.0
2009-07-31,836700.0
2009-06-30,831200.0
2009-05-31,830200.0
2009-04-30,835200.0
2009-03-31,841300.0
2009-02-28,847900.0
2009-01-31,852900.0
2008-12-31,856600.0
2008-11-30,863700.0
2008-10-31,872300.0
2008-09-30,875900.0
2008-08-31,880400.0
2008-07-31,896100.0
2008-06-30,919600.0
2008-05-31,937800.0
2008-04-30,945500.0
2008-03-31,953000.0
2008-02-29,963500.0
2008-01-31,973100.0
2007-12-31,981900.0
2007-11-30,985700.0
2007-10-31,983600.0
2007-09-30,980600.0
2007-08-31,985900.0
2007-07-31,995100.0
2007-06-30,996400.0
2007-05-31,987700.0
2007-04-30,979300.0
2007-03-31,968800.0
2007-02-28,958900.0
2007-01-31,952200.0
2006-12-31,945700.0
2006-11-30,938900.0
2006-10-31,935400.0
2006-09-30,928800.0
2006-08-31,916700.0
2006-07-31,900600.0
2006-06-30,888000.0
2006-05-31,881400.0
2006-04-30,877600.0
2006-03-31,867900.0
2006-02-28,854700.0
2006-01-31,840000.0
2005-12-31,825700.0
2005-11-30,814900.0
2005-10-31,808000.0
2005-09-30,803300.0
2005-08-31,797200.0
2005-07-31,786500.0
2005-06-30,770000.0
2005-05-31,755800.0
2005-04-30,746700.0
2005-03-31,743000.0
2005-02-28,739400.0
2005-01-31,733800.0
2004-12-31,723100.0
2004-11-30,710200.0
2004-10-31,699700.0
2004-09-30,692700.0
2004-08-31,687600.0
2004-07-31,684700.0
2004-06-30,682100.0
2004-05-31,674500.0
2004-04-30,664200.0
2004-03-31,655800.0
2004-02-29,651900.0
2004-01-31,648900.0
2003-12-31,644900.0
2003-11-30,638800.0
2003-10-31,632200.0
2003-09-30,627700.0
2003-08-31,625100.0
2003-07-31,622600.0
2003-06-30,621600.0
2003-05-31,622400.0
2003-04-30,621800.0
2003-03-31,619200.0
2003-02-28,615000.0
2003-01-31,610500.0
2002-12-31,607000.0
2002-11-30,604900.0
2002-10-31,601900.0
2002-09-30,598900.0
2002-08-31,594200.0
2002-07-31,586600.0
2002-06-30,579800.0
2002-05-31,576400.0
2002-04-30,575200.0
2002-03-31,577600.0
2002-02-28,578900.0
2002-01-31,579100.0
2001-12-31,582100.0
2001-11-30,585600.0
2001-10-31,583100.0
2001-09-30,579000.0
2001-08-31,577700.0
2001-07-31,578600.0
2001-06-30,580300.0
2001-05-31,583400.0
2001-04-30,585300.0
2001-03-31,581800.0
2001-02-28,577400.0
2001-01-31,578100.0
2000-12-31,580200.0
2000-11-30,577700.0
2000-10-31,573900.0
2000-09-30,571100.0
2000-08-31,566400.0
2000-07-31,560100.0
2000-06-30,553400.0
2000-05-31,544900.0
2000-04-30,535500.0
2000-03-31,528400.0
2000-02-29,520900.0
2000-01-31,510300.0
1999-12-31,498900.0
1999-11-30,490600.0
1999-10-31,486500.0
1999-09-30,483000.0
1999-08-31,480200.0
1999-07-31,480800.0
1999-06-30,480600.0
1999-05-31,474500.0
1999-04-30,466900.0
1999-03-31,458100.0
1999-02-28,448800.0
1999-01-31,441500.0
1998-12-31,436300.0
1998-11-30,432500.0
1998-10-31,431800.0
1998-09-30,431300.0
1998-08-31,429100.0
1998-07-31,424700.0
1998-06-30,419600.0
1998-05-31,415700.0
1998-04-30,411900.0
1998-03-31,408300.0
1998-02-28,405600.0
1998-01-31,403100.0
1997-12-31,399500.0
1997-11-30,395700.0
1997-10-31,389100.0
1997-09-30,380000.0
1997-08-31,368900.0
1997-07-31,358100.0
1997-06-30,350100.0
1997-05-31,345500.0
1997-04-30,341900.0
1997-03-31,339400.0
1997-02-28,337600.0
1997-01-31,335300.0
1996-12-31,333400.0
1996-11-30,332300.0
1996-10-31,330700.0
1996-09-30,327800.0
1996-08-31,325400.0
1996-07-31,324100.0
1996-06-30,323400.0
1996-05-31,323600.0
1996-04-30,323300.0
