Date,Value
2015-02-28,550000.0
2015-01-31,550000.0
2014-12-31,545000.0
2014-11-30,545000.0
2014-10-31,524950.0
2014-09-30,524950.0
2014-08-31,499000.0
2014-07-31,473500.0
2014-06-30,499000.0
2014-05-31,485000.0
2014-04-30,499950.0
2014-03-31,535000.0
2014-02-28,510000.0
2014-01-31,499950.0
2013-12-31,480000.0
2013-11-30,444900.0
2013-10-31,412500.0
2013-09-30,445000.0
2013-08-31,399950.0
2013-07-31,424900.0
2013-06-30,424900.0
2013-05-31,440000.0
2013-04-30,465000.0
2013-03-31,475000.0
2013-02-28,475000.0
2013-01-31,415000.0
2012-12-31,425000.0
2012-11-30,399950.0
2012-10-31,425000.0
2012-09-30,390000.0
2012-08-31,409000.0
2012-07-31,410000.0
2012-06-30,412500.0
2012-05-31,379900.0
2012-04-30,425000.0
2012-03-31,435000.0
2012-02-29,435000.0
2012-01-31,439000.0
2011-12-31,419000.0
2011-11-30,399950.0
2011-10-31,399500.0
2011-09-30,365000.0
2011-08-31,360000.0
2011-07-31,399000.0
2011-06-30,399900.0
2011-05-31,399900.0
2011-04-30,419000.0
2011-03-31,415000.0
2011-02-28,409000.0
2011-01-31,405000.0
2010-12-31,399950.0
2010-11-30,409000.0
2010-10-31,425000.0
2010-09-30,425000.0
2010-08-31,400000.0
2010-07-31,430000.0
2010-06-30,440000.0
2010-05-31,430000.0
2010-04-30,425000.0
2010-03-31,414950.0
2010-02-28,419000.0
2010-01-31,414950.0
2009-12-31,404900.0
2009-11-30,409000.0
2009-10-31,434000.0
2009-09-30,419950.0
2009-08-31,419000.0
2009-07-31,429000.0
2009-06-30,437000.0
2009-05-31,429950.0
2009-04-30,429950.0
2009-03-31,437000.0
2009-02-28,459950.0
2009-01-31,489000.0
2008-12-31,489000.0
2008-11-30,519000.0
2008-10-31,519000.0
