Date,Value
2015-06-30,1350.0
2015-05-31,1495.0
2015-04-30,1495.0
2015-03-31,1495.0
2015-02-28,1570.0
2015-01-31,1340.0
2014-12-31,1390.0
2014-11-30,1275.0
2014-10-31,1750.0
2014-09-30,1625.0
2014-08-31,1770.0
2014-07-31,1395.0
2014-06-30,1675.0
2014-05-31,1580.0
2014-04-30,1350.0
2014-03-31,1395.0
2014-02-28,1350.0
2014-01-31,1135.0
2013-12-31,1135.0
2013-11-30,1150.0
2013-10-31,1355.0
2013-09-30,1425.0
2013-08-31,1475.0
2013-07-31,1395.0
2013-06-30,1595.0
2013-05-31,1380.0
2013-04-30,1495.0
2013-03-31,1450.0
2013-02-28,1435.0
2013-01-31,1070.0
2012-12-31,1140.0
2012-11-30,1255.0
2012-10-31,1305.0
2012-09-30,1195.0
2012-08-31,1120.0
2012-07-31,995.0
2012-06-30,995.0
2012-05-31,1145.0
2012-04-30,1120.0
2012-03-31,1100.0
2012-02-29,900.0
2012-01-31,1900.0
2011-12-31,1950.0
2011-11-30,1500.0
2011-10-31,995.0
2011-09-30,1600.0
2011-08-31,1500.0
2011-07-31,900.0
2011-06-30,900.0
2011-03-31,1080.0
2011-02-28,1080.0
2011-01-31,1195.0
2010-12-31,1195.0
2010-11-30,1080.0
2010-10-31,1080.0
2010-09-30,1080.0
2010-08-31,1080.0
