Date,Value
2015-09-30,1.354
2015-08-31,1.34
2015-07-31,1.318
2015-06-30,1.304
2015-05-31,1.29
2015-04-30,1.282
2015-03-31,1.276
2015-02-28,1.272
2015-01-31,1.27
2014-12-31,1.264
2014-11-30,1.262
2014-10-31,1.264
2014-09-30,1.264
2014-08-31,1.256
2014-07-31,1.238
2014-06-30,1.218
2014-05-31,1.204
2014-04-30,1.194
2014-03-31,1.198
2014-02-28,1.198
2014-01-31,1.196
2013-12-31,1.19
2013-11-30,1.182
2013-10-31,1.176
2013-09-30,1.166
2013-08-31,1.158
2013-07-31,1.152
2013-06-30,1.152
2013-05-31,1.158
2013-04-30,1.16
2013-03-31,1.156
2013-02-28,1.146
2013-01-31,1.136
2012-12-31,1.128
2012-11-30,1.118
2012-10-31,1.11
2012-09-30,1.106
2012-08-31,1.104
2012-07-31,1.104
2012-06-30,1.106
2012-05-31,1.096
2012-04-30,1.082
2012-03-31,1.066
2012-02-29,1.064
2012-01-31,1.064
2011-12-31,1.06
2011-11-30,1.056
2011-10-31,1.044
2011-09-30,1.036
2011-08-31,1.032
2011-07-31,1.036
2011-06-30,1.032
2011-05-31,1.03
2011-04-30,1.032
2011-03-31,1.028
2011-02-28,1.018
2011-01-31,1.012
2010-12-31,1.01
2010-11-30,1.008
