Date,Value
2015-02-28,575000.0
2015-01-31,539900.0
2014-12-31,485000.0
2014-11-30,519000.0
2014-10-31,499950.0
2014-09-30,522450.0
2014-08-31,499500.0
2014-07-31,525000.0
2014-06-30,529950.0
2014-05-31,475000.0
2014-04-30,430000.0
2014-03-31,387500.0
2014-02-28,439000.0
2014-01-31,450000.0
2013-12-31,450000.0
2013-11-30,424900.0
2013-10-31,415000.0
2013-09-30,434000.0
2013-08-31,429800.0
2013-07-31,454000.0
2013-06-30,399999.0
2013-05-31,407000.0
2013-04-30,415000.0
2013-03-31,399950.0
2013-02-28,384950.0
2013-01-31,389950.0
2012-12-31,420000.0
2012-11-30,425000.0
2012-10-31,425000.0
2012-09-30,420000.0
2012-08-31,435000.0
2012-07-31,405000.0
2012-06-30,405000.0
2012-05-31,400000.0
2012-04-30,389950.0
2012-03-31,349950.0
2012-02-29,364900.0
2012-01-31,365000.0
2011-12-31,364950.0
2011-11-30,365000.0
2011-10-31,380000.0
2011-09-30,369000.0
2011-08-31,364950.0
2011-07-31,364950.0
2011-06-30,364950.0
2011-05-31,375000.0
2011-04-30,375000.0
2011-03-31,375000.0
2011-02-28,369950.0
2011-01-31,369950.0
2010-12-31,389900.0
2010-11-30,399900.0
2010-10-31,399000.0
2010-09-30,399000.0
2010-08-31,385000.0
2010-07-31,389900.0
2010-06-30,385000.0
2010-05-31,385000.0
2010-04-30,395999.0
2010-03-31,374950.0
2010-02-28,410000.0
2010-01-31,399950.0
2009-12-31,415500.0
2009-11-30,415500.0
2009-10-31,399950.0
2009-09-30,399950.0
2009-08-31,415000.0
2009-07-31,415000.0
2009-06-30,415000.0
2009-05-31,374250.0
2009-04-30,389900.0
2009-03-31,413900.0
2009-02-28,397870.0
2009-01-31,415000.0
2008-12-31,419900.0
2008-11-30,455000.0
2008-10-31,459950.0
