Date,Value
2015-06-30,2550.0
2015-04-30,2850.0
2015-03-31,3295.0
2015-02-28,2495.0
2015-01-31,2495.0
2014-12-31,1400.0
2014-09-30,3250.0
2014-08-31,3250.0
2014-01-31,1295.0
2013-12-31,1475.0
2013-11-30,1475.0
2013-10-31,2100.0
2013-07-31,1600.0
2012-11-30,2600.0
2012-10-31,2195.0
2012-08-31,1445.0
2012-07-31,2150.0
2012-06-30,3250.0
2012-01-31,1050.0
2011-11-30,1675.0
2011-10-31,2000.0
2011-09-30,2695.0
2011-08-31,3750.0
