Date,Value
2015-06-30,1800.0
2015-05-31,1800.0
2015-04-30,1800.0
2015-03-31,1950.0
2015-02-28,2050.0
2015-01-31,1895.0
2014-12-31,1995.0
2014-10-31,2000.0
2014-09-30,1995.0
2014-08-31,2350.0
2014-07-31,2350.0
2014-05-31,1400.0
2014-04-30,1550.0
2014-03-31,1495.0
2014-02-28,1175.0
2014-01-31,1795.0
2013-11-30,1000.0
2013-10-31,900.0
2013-09-30,1120.0
2013-08-31,1795.0
2013-07-31,1795.0
2013-06-30,1450.0
2013-04-30,1495.0
2013-03-31,1699.0
2013-02-28,1300.0
2013-01-31,1285.0
2012-12-31,1595.0
2012-10-31,1395.0
2012-09-30,995.0
2012-08-31,1650.0
2012-07-31,1450.0
2012-06-30,1950.0
2012-04-30,1699.0
2012-03-31,1450.0
2012-02-29,1195.0
2012-01-31,895.0
2011-12-31,925.0
2011-11-30,1250.0
2011-10-31,1495.0
2011-09-30,1595.0
