Date,Value
2015-06-30,1880.0
2015-05-31,1806.0
2015-04-30,1806.0
2015-03-31,1854.0
2015-02-28,1804.0
2015-01-31,1729.0
2014-12-31,1631.0
2014-11-30,1653.0
2014-10-31,1656.0
2014-09-30,1670.0
2014-08-31,1795.0
2014-07-31,1800.0
2014-06-30,1760.0
2014-05-31,1805.0
2014-04-30,1765.0
2014-03-31,1785.0
2014-02-28,1755.0
2014-01-31,1670.0
2013-12-31,1695.0
2013-11-30,1685.0
2013-10-31,1685.0
2013-09-30,1654.0
2013-08-31,1670.0
2013-07-31,1696.0
2013-06-30,1690.0
2013-05-31,1780.0
2013-04-30,1678.0
2013-03-31,1620.0
2013-02-28,1700.0
2013-01-31,1685.0
2012-12-31,1610.0
2012-11-30,1576.0
2012-10-31,1600.0
2012-09-30,1895.0
2012-08-31,1820.0
2012-07-31,1655.0
2012-06-30,1600.0
2012-05-31,1405.0
2012-04-30,1495.0
2012-03-31,1660.0
2012-02-29,1645.0
2012-01-31,1550.0
2011-12-31,1550.0
2011-11-30,1550.0
2011-10-31,1600.0
2011-09-30,1995.0
2011-08-31,1495.0
2011-04-30,1600.0
2011-03-31,1340.0
2011-02-28,1295.0
2011-01-31,1245.0
2010-12-31,1340.0
2010-11-30,1245.0
2010-10-31,1245.0
2010-09-30,1245.0
2010-08-31,1245.0
