Date,Value
2015-09-30,246800.0
2015-08-31,243300.0
2015-07-31,241600.0
2015-06-30,242800.0
2015-05-31,242600.0
2015-04-30,239300.0
2015-03-31,233200.0
2015-02-28,228200.0
2015-01-31,225200.0
2014-12-31,223900.0
2014-11-30,222800.0
2014-10-31,221200.0
2014-09-30,218200.0
2014-08-31,214500.0
2014-07-31,212000.0
2014-06-30,212300.0
2014-05-31,210300.0
2014-04-30,205100.0
2014-03-31,200900.0
2014-02-28,199400.0
2014-01-31,196100.0
2013-12-31,192200.0
2013-11-30,188200.0
2013-10-31,183500.0
2013-09-30,178700.0
2013-08-31,175500.0
2013-07-31,172800.0
2013-06-30,168500.0
2013-05-31,163200.0
2013-04-30,157400.0
2013-03-31,154700.0
2013-02-28,155400.0
2013-01-31,155800.0
2012-12-31,154500.0
2012-11-30,155100.0
2012-10-31,157000.0
2012-09-30,157400.0
2012-08-31,157300.0
2012-07-31,156800.0
2012-06-30,155600.0
2012-05-31,154400.0
2012-04-30,155000.0
2012-03-31,156800.0
2012-02-29,159500.0
2012-01-31,164000.0
2011-12-31,169000.0
2011-11-30,171000.0
2011-10-31,171400.0
2011-09-30,172600.0
2011-08-31,173000.0
2011-07-31,175000.0
2011-06-30,180700.0
2011-05-31,190500.0
2011-04-30,200100.0
2011-03-31,205500.0
2011-02-28,204700.0
2011-01-31,204400.0
2010-12-31,205700.0
2010-11-30,208000.0
2010-10-31,210400.0
2010-09-30,213700.0
2010-08-31,217000.0
2010-07-31,219900.0
2010-06-30,220400.0
2010-05-31,218100.0
2010-04-30,218000.0
2010-03-31,222600.0
2010-02-28,227300.0
2010-01-31,227800.0
2009-12-31,225000.0
2009-11-30,221200.0
2009-10-31,218600.0
2009-09-30,217500.0
2009-08-31,217000.0
2009-07-31,216000.0
2009-06-30,215900.0
2009-05-31,217800.0
2009-04-30,221400.0
2009-03-31,224400.0
2009-02-28,227300.0
2009-01-31,229500.0
2008-12-31,230600.0
2008-11-30,232100.0
2008-10-31,233800.0
2008-09-30,234600.0
2008-08-31,236400.0
2008-07-31,239500.0
2008-06-30,243200.0
2008-05-31,246500.0
2008-04-30,247700.0
2008-03-31,245900.0
2008-02-29,244800.0
2008-01-31,245400.0
2007-12-31,249300.0
2007-11-30,254000.0
2007-10-31,256500.0
2007-09-30,255400.0
2007-08-31,253400.0
2007-07-31,253200.0
2007-06-30,254400.0
2007-05-31,255800.0
2007-04-30,255000.0
2007-03-31,251200.0
2007-02-28,246000.0
2007-01-31,243400.0
2006-12-31,242000.0
2006-11-30,239800.0
2006-10-31,237900.0
2006-09-30,238500.0
2006-08-31,237400.0
2006-07-31,231400.0
2006-06-30,225700.0
2006-05-31,223800.0
2006-04-30,221100.0
2006-03-31,217200.0
2006-02-28,214700.0
2006-01-31,212900.0
2005-12-31,210400.0
2005-11-30,210800.0
2005-10-31,212100.0
2005-09-30,213600.0
2005-08-31,214700.0
2005-07-31,215200.0
2005-06-30,210400.0
2005-05-31,202300.0
2005-04-30,195600.0
2005-03-31,193000.0
2005-02-28,191900.0
2005-01-31,190500.0
2004-12-31,189600.0
2004-11-30,186200.0
2004-10-31,182200.0
2004-09-30,177300.0
2004-08-31,173700.0
2004-07-31,171900.0
2004-06-30,172300.0
2004-05-31,172200.0
2004-04-30,173200.0
2004-03-31,175200.0
2004-02-29,176100.0
2004-01-31,175300.0
2003-12-31,173900.0
2003-11-30,172400.0
2003-10-31,170900.0
2003-09-30,170900.0
2003-08-31,171600.0
2003-07-31,172300.0
2003-06-30,173600.0
2003-05-31,174000.0
2003-04-30,172100.0
2003-03-31,170100.0
2003-02-28,169400.0
2003-01-31,169200.0
2002-12-31,169000.0
2002-11-30,168600.0
2002-10-31,168200.0
2002-09-30,167300.0
2002-08-31,165200.0
2002-07-31,162100.0
2002-06-30,157800.0
2002-05-31,152700.0
2002-04-30,150400.0
2002-03-31,151300.0
2002-02-28,152600.0
2002-01-31,152400.0
2001-12-31,151400.0
2001-11-30,150400.0
2001-10-31,150400.0
2001-09-30,149900.0
2001-08-31,149800.0
2001-07-31,150700.0
2001-06-30,152800.0
2001-05-31,156000.0
2001-04-30,158800.0
2001-03-31,157700.0
2001-02-28,154800.0
2001-01-31,153400.0
2000-12-31,153000.0
2000-11-30,153400.0
2000-10-31,153000.0
2000-09-30,151900.0
2000-08-31,151000.0
2000-07-31,150500.0
2000-06-30,149000.0
2000-05-31,147900.0
2000-04-30,147200.0
2000-03-31,145900.0
2000-02-29,143100.0
2000-01-31,139300.0
1999-12-31,135000.0
1999-11-30,131800.0
1999-10-31,130800.0
1999-09-30,130400.0
1999-08-31,129000.0
1999-07-31,127900.0
1999-06-30,127400.0
1999-05-31,127000.0
1999-04-30,126900.0
1999-03-31,126400.0
1999-02-28,125500.0
1999-01-31,124400.0
1998-12-31,123000.0
1998-11-30,120500.0
1998-10-31,117300.0
1998-09-30,115200.0
1998-08-31,114600.0
1998-07-31,114100.0
1998-06-30,114100.0
1998-05-31,116000.0
1998-04-30,114700.0
1998-03-31,109900.0
1998-02-28,106300.0
1998-01-31,105700.0
1997-12-31,105400.0
1997-11-30,105500.0
1997-10-31,105900.0
1997-09-30,107000.0
1997-08-31,108200.0
1997-07-31,107900.0
1997-06-30,106100.0
1997-05-31,103300.0
1997-04-30,100700.0
1997-03-31,99800.0
1997-02-28,100700.0
1997-01-31,101800.0
1996-12-31,102300.0
1996-11-30,102200.0
1996-10-31,101200.0
1996-09-30,99200.0
1996-08-31,96900.0
1996-07-31,95600.0
1996-06-30,95300.0
1996-05-31,95200.0
1996-04-30,96300.0
