Date,Value
2015-09-30,596200.0
2015-08-31,591600.0
2015-07-31,585700.0
2015-06-30,588700.0
2015-05-31,583000.0
2015-04-30,576700.0
2015-03-31,570100.0
2015-02-28,567200.0
2015-01-31,564600.0
2014-12-31,562500.0
2014-11-30,558900.0
2014-10-31,555800.0
2014-09-30,552900.0
2014-08-31,549300.0
2014-07-31,544700.0
2014-06-30,541200.0
2014-05-31,536900.0
2014-04-30,532000.0
2014-03-31,527800.0
2014-02-28,525300.0
2014-01-31,521700.0
2013-12-31,517600.0
2013-11-30,514300.0
2013-10-31,510300.0
2013-09-30,504700.0
2013-08-31,500500.0
2013-07-31,497400.0
2013-06-30,495500.0
2013-05-31,492500.0
2013-04-30,487100.0
2013-03-31,482000.0
2013-02-28,478700.0
2013-01-31,474700.0
2012-12-31,470800.0
2012-11-30,467400.0
2012-10-31,462700.0
2012-09-30,458000.0
2012-08-31,454200.0
2012-07-31,450700.0
2012-06-30,445900.0
2012-05-31,439600.0
2012-04-30,432700.0
2012-03-31,425000.0
2012-02-29,418400.0
2012-01-31,415400.0
2011-12-31,415700.0
2011-11-30,416000.0
2011-10-31,414600.0
2011-09-30,412700.0
2011-08-31,410700.0
2011-07-31,408200.0
2011-06-30,406500.0
2011-05-31,407800.0
2011-04-30,411000.0
2011-03-31,413800.0
2011-02-28,414800.0
2011-01-31,415400.0
2010-12-31,416000.0
2010-11-30,417300.0
2010-10-31,422000.0
2010-09-30,430400.0
2010-08-31,437800.0
2010-07-31,443200.0
2010-06-30,447200.0
2010-05-31,451200.0
2010-04-30,453600.0
2010-03-31,455100.0
2010-02-28,455800.0
2010-01-31,456400.0
2009-12-31,454400.0
2009-11-30,450900.0
2009-10-31,447500.0
2009-09-30,446000.0
2009-08-31,446700.0
2009-07-31,448300.0
2009-06-30,450500.0
2009-05-31,454500.0
2009-04-30,460600.0
2009-03-31,467000.0
2009-02-28,472500.0
2009-01-31,477900.0
2008-12-31,483800.0
2008-11-30,488900.0
2008-10-31,492700.0
2008-09-30,494800.0
2008-08-31,496500.0
2008-07-31,500500.0
2008-06-30,504300.0
2008-05-31,505500.0
2008-04-30,507100.0
2008-03-31,510700.0
2008-02-29,514200.0
2008-01-31,515700.0
2007-12-31,516700.0
2007-11-30,519500.0
2007-10-31,523000.0
2007-09-30,526500.0
2007-08-31,530500.0
2007-07-31,533500.0
2007-06-30,535100.0
2007-05-31,534000.0
2007-04-30,529800.0
2007-03-31,525300.0
2007-02-28,521600.0
2007-01-31,517200.0
2006-12-31,513100.0
2006-11-30,509500.0
2006-10-31,506200.0
2006-09-30,503400.0
2006-08-31,500200.0
2006-07-31,495600.0
2006-06-30,490000.0
2006-05-31,486400.0
2006-04-30,484200.0
2006-03-31,481200.0
2006-02-28,478100.0
2006-01-31,475000.0
2005-12-31,469700.0
2005-11-30,463200.0
2005-10-31,457300.0
2005-09-30,449900.0
2005-08-31,440700.0
2005-07-31,431700.0
2005-06-30,423900.0
2005-05-31,416600.0
2005-04-30,409700.0
2005-03-31,404000.0
2005-02-28,400400.0
2005-01-31,398400.0
2004-12-31,395800.0
2004-11-30,391500.0
2004-10-31,386600.0
2004-09-30,382400.0
2004-08-31,379900.0
2004-07-31,377900.0
2004-06-30,375600.0
2004-05-31,372100.0
2004-04-30,367800.0
2004-03-31,363500.0
2004-02-29,359700.0
2004-01-31,356100.0
2003-12-31,353900.0
2003-11-30,353700.0
2003-10-31,353900.0
2003-09-30,351500.0
2003-08-31,347300.0
2003-07-31,343300.0
2003-06-30,341000.0
2003-05-31,340300.0
2003-04-30,340400.0
2003-03-31,339500.0
2003-02-28,336200.0
2003-01-31,331600.0
2002-12-31,328900.0
2002-11-30,327600.0
2002-10-31,325700.0
2002-09-30,324400.0
2002-08-31,324400.0
2002-07-31,323600.0
2002-06-30,321800.0
2002-05-31,320500.0
2002-04-30,320100.0
2002-03-31,319900.0
2002-02-28,319200.0
2002-01-31,318900.0
2001-12-31,320100.0
2001-11-30,320200.0
2001-10-31,318700.0
2001-09-30,316800.0
2001-08-31,315300.0
2001-07-31,314600.0
2001-06-30,313900.0
2001-05-31,312300.0
2001-04-30,310300.0
2001-03-31,308000.0
2001-02-28,305800.0
2001-01-31,303400.0
2000-12-31,301000.0
2000-11-30,300000.0
2000-10-31,300200.0
2000-09-30,300400.0
2000-08-31,300200.0
2000-07-31,300200.0
2000-06-30,299500.0
2000-05-31,297100.0
2000-04-30,294800.0
2000-03-31,294500.0
2000-02-29,294900.0
2000-01-31,294900.0
1999-12-31,293100.0
1999-11-30,289300.0
1999-10-31,284700.0
1999-09-30,280100.0
1999-08-31,274900.0
1999-07-31,270100.0
1999-06-30,267500.0
1999-05-31,265900.0
1999-04-30,263900.0
1999-03-31,261600.0
1999-02-28,258900.0
1999-01-31,256200.0
1998-12-31,253000.0
1998-11-30,250000.0
1998-10-31,248100.0
1998-09-30,247500.0
1998-08-31,246000.0
1998-07-31,243600.0
1998-06-30,241300.0
1998-05-31,240000.0
1998-04-30,238000.0
1998-03-31,234500.0
1998-02-28,230500.0
1998-01-31,227100.0
1997-12-31,223900.0
1997-11-30,219900.0
1997-10-31,216400.0
1997-09-30,214500.0
1997-08-31,213100.0
1997-07-31,211700.0
1997-06-30,210200.0
1997-05-31,208900.0
1997-04-30,207500.0
1997-03-31,206100.0
1997-02-28,204200.0
1997-01-31,201900.0
1996-12-31,199500.0
1996-11-30,198600.0
1996-10-31,197800.0
1996-09-30,196900.0
1996-08-31,196900.0
1996-07-31,197200.0
1996-06-30,196400.0
1996-05-31,194800.0
1996-04-30,192900.0
