Date,Value
2015-06-30,2307.0
2015-05-31,2119.0
2015-04-30,2063.0
2015-03-31,1961.0
2015-02-28,1850.0
2015-01-31,1874.0
2014-12-31,1895.0
2014-11-30,2017.0
2014-10-31,2032.0
2014-09-30,2050.0
2014-08-31,2050.0
2014-06-30,2495.0
2014-05-31,2466.0
2014-04-30,2395.0
2014-03-31,2325.0
2014-02-28,2395.0
2013-12-31,2039.0
2013-11-30,1893.0
