Date,Value
2015-09-30,703000.0
2015-08-31,697000.0
2015-07-31,692400.0
2015-06-30,700600.0
2015-05-31,702800.0
2015-04-30,699100.0
2015-03-31,689500.0
2015-02-28,683000.0
2015-01-31,674600.0
2014-12-31,671900.0
2014-11-30,667400.0
2014-10-31,664200.0
2014-09-30,664100.0
2014-08-31,663900.0
2014-07-31,661000.0
2014-06-30,654900.0
2014-05-31,647200.0
2014-04-30,641100.0
2014-03-31,636200.0
2014-02-28,632300.0
2014-01-31,631300.0
2013-12-31,632300.0
2013-11-30,634200.0
2013-10-31,636300.0
2013-09-30,637400.0
2013-08-31,636500.0
2013-07-31,635300.0
2013-06-30,634400.0
2013-05-31,635100.0
2013-04-30,633700.0
2013-03-31,628600.0
2013-02-28,620900.0
2013-01-31,612600.0
2012-12-31,605100.0
2012-11-30,594900.0
2012-10-31,580600.0
2012-09-30,569500.0
2012-08-31,562800.0
2012-07-31,554100.0
2012-06-30,546200.0
2012-05-31,541400.0
2012-04-30,536300.0
2012-03-31,528600.0
2012-02-29,520500.0
2012-01-31,514400.0
2011-12-31,513300.0
2011-11-30,514400.0
2011-10-31,516200.0
2011-09-30,520500.0
2011-08-31,527700.0
2011-07-31,532300.0
2011-06-30,533000.0
2011-05-31,533000.0
2011-04-30,533800.0
2011-03-31,535400.0
2011-02-28,536800.0
2011-01-31,536700.0
2010-12-31,534600.0
2010-11-30,534200.0
2010-10-31,535500.0
2010-09-30,538800.0
2010-08-31,543000.0
2010-07-31,546700.0
2010-06-30,549400.0
2010-05-31,551600.0
2010-04-30,552100.0
2010-03-31,554400.0
2010-02-28,559400.0
2010-01-31,561900.0
2009-12-31,560000.0
2009-11-30,555900.0
2009-10-31,550000.0
2009-09-30,541800.0
2009-08-31,534900.0
2009-07-31,533200.0
2009-06-30,535800.0
2009-05-31,539200.0
2009-04-30,543500.0
2009-03-31,548900.0
2009-02-28,555700.0
2009-01-31,563100.0
2008-12-31,570300.0
2008-11-30,576900.0
2008-10-31,583900.0
2008-09-30,590300.0
2008-08-31,594500.0
2008-07-31,598700.0
2008-06-30,604800.0
2008-05-31,615900.0
2008-04-30,627800.0
2008-03-31,633900.0
2008-02-29,634700.0
2008-01-31,636800.0
2007-12-31,639800.0
2007-11-30,641500.0
2007-10-31,641000.0
2007-09-30,638000.0
2007-08-31,634200.0
2007-07-31,631800.0
2007-06-30,632500.0
2007-05-31,634100.0
2007-04-30,637800.0
2007-03-31,643300.0
2007-02-28,646000.0
2007-01-31,644200.0
2006-12-31,643300.0
2006-11-30,646200.0
2006-10-31,650800.0
2006-09-30,653400.0
2006-08-31,653600.0
2006-07-31,649600.0
2006-06-30,637700.0
2006-05-31,617700.0
2006-04-30,599700.0
2006-03-31,592000.0
2006-02-28,592300.0
2006-01-31,592400.0
2005-12-31,587900.0
2005-11-30,581500.0
2005-10-31,575800.0
2005-09-30,567800.0
2005-08-31,557400.0
2005-07-31,553200.0
2005-06-30,555100.0
2005-05-31,552000.0
2005-04-30,540300.0
2005-03-31,526500.0
2005-02-28,513200.0
2005-01-31,502800.0
2004-12-31,495100.0
2004-11-30,488500.0
2004-10-31,482500.0
2004-09-30,480400.0
2004-08-31,480100.0
2004-07-31,477400.0
2004-06-30,472300.0
2004-05-31,469300.0
2004-04-30,468000.0
2004-03-31,464700.0
2004-02-29,459800.0
2004-01-31,455100.0
2003-12-31,452000.0
2003-11-30,449300.0
2003-10-31,447600.0
2003-09-30,445500.0
2003-08-31,440800.0
2003-07-31,433600.0
2003-06-30,428300.0
2003-05-31,426600.0
2003-04-30,428500.0
2003-03-31,428500.0
2003-02-28,425400.0
2003-01-31,421800.0
2002-12-31,419000.0
2002-11-30,415800.0
2002-10-31,412900.0
2002-09-30,409200.0
2002-08-31,407500.0
2002-07-31,408300.0
2002-06-30,409400.0
2002-05-31,409900.0
2002-04-30,408800.0
2002-03-31,404900.0
2002-02-28,402200.0
2002-01-31,402100.0
2001-12-31,402100.0
2001-11-30,401200.0
2001-10-31,398200.0
2001-09-30,394500.0
2001-08-31,391700.0
2001-07-31,389200.0
2001-06-30,385000.0
2001-05-31,382500.0
2001-04-30,381700.0
2001-03-31,381600.0
2001-02-28,381000.0
2001-01-31,379500.0
2000-12-31,378100.0
2000-11-30,377200.0
2000-10-31,376000.0
2000-09-30,379400.0
2000-08-31,384800.0
2000-07-31,385200.0
2000-06-30,382500.0
2000-05-31,380100.0
2000-04-30,375400.0
2000-03-31,371700.0
2000-02-29,369000.0
2000-01-31,365800.0
1999-12-31,361400.0
1999-11-30,357000.0
1999-10-31,351600.0
1999-09-30,345600.0
1999-08-31,340900.0
1999-07-31,336600.0
1999-06-30,331300.0
1999-05-31,324800.0
1999-04-30,319800.0
1999-03-31,316600.0
1999-02-28,313400.0
1999-01-31,308100.0
1998-12-31,302300.0
1998-11-30,299200.0
1998-10-31,297900.0
1998-09-30,295200.0
1998-08-31,291100.0
1998-07-31,287400.0
1998-06-30,282500.0
1998-05-31,277300.0
1998-04-30,273600.0
1998-03-31,270900.0
1998-02-28,268100.0
1998-01-31,265700.0
1997-12-31,263300.0
1997-11-30,260100.0
1997-10-31,256300.0
1997-09-30,252300.0
1997-08-31,246700.0
1997-07-31,241300.0
1997-06-30,237800.0
1997-05-31,234300.0
1997-04-30,230200.0
1997-03-31,227400.0
1997-02-28,225400.0
1997-01-31,223300.0
1996-12-31,220800.0
1996-11-30,217800.0
1996-10-31,215400.0
1996-09-30,213500.0
1996-08-31,211900.0
1996-07-31,211300.0
1996-06-30,213000.0
1996-05-31,215400.0
1996-04-30,216700.0
