Date,Value
2015-02-28,525000.0
2015-01-31,499000.0
2014-12-31,580000.0
2014-11-30,549950.0
2014-10-31,549950.0
2014-09-30,579000.0
2014-08-31,549950.0
2014-07-31,549950.0
2014-06-30,547000.0
2014-05-31,500000.0
2014-04-30,520000.0
2014-03-31,515000.0
2014-02-28,499950.0
2014-01-31,499950.0
2013-12-31,529950.0
2013-11-30,499000.0
2013-10-31,499000.0
2013-09-30,499000.0
2013-08-31,485000.0
2013-07-31,475200.0
2013-06-30,475000.0
2013-05-31,500000.0
2013-04-30,489400.0
2013-03-31,499950.0
2013-02-28,475000.0
2013-01-31,425000.0
2012-12-31,475000.0
2012-11-30,470000.0
2012-10-31,488000.0
2012-09-30,485000.0
2012-08-31,469000.0
2012-07-31,468000.0
2012-06-30,465000.0
2012-05-31,498000.0
2012-04-30,475000.0
2012-03-31,475000.0
2012-02-29,475000.0
2012-01-31,484900.0
2011-12-31,499900.0
2011-11-30,499950.0
2011-10-31,485000.0
2011-09-30,490000.0
2011-08-31,459950.0
2011-07-31,475000.0
2011-06-30,475000.0
2011-05-31,459950.0
2011-04-30,414950.0
2011-03-31,414000.0
2011-02-28,414000.0
2011-01-31,399950.0
2010-12-31,409900.0
2010-11-30,428000.0
2010-10-31,469000.0
2010-09-30,470000.0
2010-08-31,489900.0
2010-07-31,485000.0
2010-06-30,463000.0
2010-05-31,470000.0
2010-04-30,450000.0
2010-03-31,489900.0
2010-02-28,495000.0
2010-01-31,498800.0
2009-12-31,499000.0
2009-11-30,520000.0
2009-10-31,509950.0
2009-09-30,529900.0
2009-08-31,509950.0
2009-07-31,549950.0
2009-06-30,499900.0
2009-05-31,529900.0
2009-04-30,538000.0
2009-03-31,538000.0
2009-02-28,580000.0
2009-01-31,595000.0
2008-12-31,595000.0
2008-11-30,574950.0
2008-10-31,574950.0
