Date,Value
2015-09-30,1.632
2015-08-31,1.634
2015-07-31,1.616
2015-06-30,1.606
2015-05-31,1.6
2015-04-30,1.586
2015-03-31,1.57
2015-02-28,1.544
2015-01-31,1.532
2014-12-31,1.52
2014-11-30,1.514
2014-10-31,1.502
2014-09-30,1.49
2014-08-31,1.472
2014-07-31,1.45
2014-06-30,1.424
2014-05-31,1.406
2014-04-30,1.396
2014-03-31,1.388
2014-02-28,1.388
2014-01-31,1.38
2013-12-31,1.378
2013-11-30,1.37
2013-10-31,1.364
2013-09-30,1.362
2013-08-31,1.354
2013-07-31,1.35
2013-06-30,1.348
2013-05-31,1.354
2013-04-30,1.358
2013-03-31,1.354
2013-02-28,1.342
2013-01-31,1.328
2012-12-31,1.316
2012-11-30,1.308
2012-10-31,1.314
2012-09-30,1.316
2012-08-31,1.314
2012-07-31,1.312
2012-06-30,1.312
2012-05-31,1.304
2012-04-30,1.284
2012-03-31,1.268
2012-02-29,1.264
2012-01-31,1.252
2011-12-31,1.236
2011-11-30,1.218
2011-10-31,1.204
2011-09-30,1.186
2011-08-31,1.182
2011-07-31,1.184
2011-06-30,1.18
2011-05-31,1.174
2011-04-30,1.168
2011-03-31,1.166
2011-02-28,1.154
2011-01-31,1.15
2010-12-31,1.152
2010-11-30,1.156
