Date,Value
2015-02-28,629950.0
2015-01-31,649950.0
2014-12-31,658000.0
2014-11-30,649950.0
2014-10-31,659000.0
2014-09-30,689950.0
2014-08-31,799950.0
2014-07-31,699950.0
2014-06-30,595000.0
2014-05-31,629000.0
2014-04-30,549000.0
2014-03-31,520000.0
2014-02-28,587500.0
2014-01-31,648800.0
2013-12-31,650000.0
2013-11-30,635000.0
2013-10-31,649000.0
2013-09-30,649000.0
2013-08-31,549950.0
2013-07-31,519950.0
2013-06-30,485000.0
2013-05-31,450000.0
2013-04-30,499950.0
2013-03-31,555000.0
2013-02-28,555000.0
2013-01-31,575000.0
2012-12-31,475000.0
2012-11-30,456000.0
2012-10-31,479950.0
2012-09-30,480000.0
2012-08-31,507000.0
2012-07-31,534950.0
2012-06-30,525000.0
2012-05-31,525000.0
2012-04-30,474900.0
2012-03-31,535000.0
2012-02-29,499000.0
2012-01-31,468950.0
2011-12-31,435000.0
2011-11-30,474900.0
2011-10-31,485000.0
2011-09-30,485000.0
2011-08-31,535000.0
2011-07-31,499999.0
2011-06-30,489500.0
2011-05-31,479950.0
2011-04-30,495000.0
2011-03-31,478000.0
2011-02-28,478000.0
2011-01-31,478000.0
2010-12-31,485000.0
2010-11-30,479950.0
2010-10-31,478000.0
2010-09-30,485000.0
2010-08-31,499000.0
2010-07-31,499000.0
2010-06-30,479950.0
2010-05-31,499950.0
2010-04-30,499950.0
2010-03-31,479950.0
2010-02-28,550000.0
2010-01-31,555000.0
2009-12-31,475000.0
2009-11-30,475000.0
2009-10-31,485000.0
2009-09-30,475000.0
2009-08-31,519929.0
2009-07-31,479950.0
2009-06-30,499000.0
2009-05-31,479950.0
2009-04-30,475000.0
2009-03-31,479950.0
2009-02-28,449000.0
2009-01-31,449000.0
2008-12-31,459000.0
2008-11-30,549000.0
2008-10-31,575000.0
