Date,Value
2015-09-30,400100.0
2015-08-31,394600.0
2015-07-31,392800.0
2015-06-30,394900.0
2015-05-31,390400.0
2015-04-30,376800.0
2015-03-31,362200.0
2015-02-28,355100.0
2015-01-31,346900.0
2014-12-31,345000.0
2014-11-30,341700.0
2014-10-31,338900.0
2014-09-30,336700.0
2014-08-31,334400.0
2014-07-31,332900.0
2014-06-30,331300.0
2014-05-31,329700.0
2014-04-30,330800.0
2014-03-31,339100.0
2014-02-28,346300.0
2014-01-31,348400.0
2013-12-31,345800.0
2013-11-30,345000.0
2013-10-31,342300.0
2013-09-30,338600.0
2013-08-31,334200.0
2013-07-31,331700.0
2013-06-30,329100.0
2013-05-31,325700.0
2013-04-30,321400.0
2013-03-31,316800.0
2013-02-28,312900.0
2013-01-31,310600.0
2012-12-31,309100.0
2012-11-30,306600.0
2012-10-31,303500.0
2012-09-30,300700.0
2012-08-31,297800.0
2012-07-31,294000.0
2012-06-30,291500.0
2012-05-31,289900.0
2012-04-30,288100.0
2012-03-31,285000.0
2012-02-29,280600.0
2012-01-31,278600.0
2011-12-31,281200.0
2011-11-30,285000.0
2011-10-31,288100.0
2011-09-30,292700.0
2011-08-31,297100.0
2011-07-31,300200.0
2011-06-30,302800.0
2011-05-31,304100.0
2011-04-30,301000.0
2011-03-31,297400.0
2011-02-28,298200.0
2011-01-31,301400.0
2010-12-31,302700.0
2010-11-30,303400.0
2010-10-31,304100.0
2010-09-30,304200.0
2010-08-31,304000.0
2010-07-31,303100.0
2010-06-30,301600.0
2010-05-31,303700.0
2010-04-30,310200.0
2010-03-31,315000.0
2010-02-28,316100.0
2010-01-31,316400.0
2009-12-31,315100.0
2009-11-30,313300.0
2009-10-31,313500.0
2009-09-30,314600.0
2009-08-31,314000.0
2009-07-31,313600.0
2009-06-30,314900.0
2009-05-31,319200.0
2009-04-30,325000.0
2009-03-31,329300.0
2009-02-28,331900.0
2009-01-31,333400.0
2008-12-31,334700.0
2008-11-30,336600.0
2008-10-31,341400.0
2008-09-30,346800.0
2008-08-31,350100.0
2008-07-31,350300.0
2008-06-30,350600.0
2008-05-31,351100.0
2008-04-30,352300.0
2008-03-31,355100.0
2008-02-29,358700.0
2008-01-31,361100.0
2007-12-31,361200.0
2007-11-30,360100.0
2007-10-31,359300.0
2007-09-30,360200.0
2007-08-31,363700.0
2007-07-31,366900.0
2007-06-30,364600.0
2007-05-31,361000.0
2007-04-30,360800.0
2007-03-31,361200.0
2007-02-28,359600.0
2007-01-31,358100.0
2006-12-31,359000.0
2006-11-30,358600.0
2006-10-31,354800.0
2006-09-30,351400.0
2006-08-31,350100.0
2006-07-31,350000.0
2006-06-30,351100.0
2006-05-31,347400.0
2006-04-30,336800.0
2006-03-31,326500.0
2006-02-28,318900.0
2006-01-31,311200.0
2005-12-31,306800.0
2005-11-30,308100.0
2005-10-31,309100.0
2005-09-30,305100.0
2005-08-31,299700.0
2005-07-31,296300.0
2005-06-30,294300.0
2005-05-31,290900.0
2005-04-30,285500.0
2005-03-31,279800.0
2005-02-28,275800.0
2005-01-31,273400.0
2004-12-31,272100.0
2004-11-30,269900.0
2004-10-31,267300.0
2004-09-30,265100.0
2004-08-31,262200.0
2004-07-31,257300.0
2004-06-30,251500.0
2004-05-31,247400.0
2004-04-30,245600.0
2004-03-31,243700.0
2004-02-29,241400.0
2004-01-31,237800.0
2003-12-31,232300.0
2003-11-30,226900.0
2003-10-31,223200.0
2003-09-30,220500.0
2003-08-31,219500.0
2003-07-31,220600.0
2003-06-30,223300.0
2003-05-31,227700.0
2003-04-30,231500.0
2003-03-31,235300.0
2003-02-28,241000.0
2003-01-31,246200.0
2002-12-31,247500.0
2002-11-30,246700.0
2002-10-31,245400.0
2002-09-30,243400.0
2002-08-31,241000.0
2002-07-31,238100.0
2002-06-30,235000.0
2002-05-31,230200.0
2002-04-30,226100.0
2002-03-31,223900.0
2002-02-28,222300.0
2002-01-31,221200.0
2001-12-31,222300.0
2001-11-30,222600.0
2001-10-31,222100.0
2001-09-30,222800.0
2001-08-31,224300.0
2001-07-31,225800.0
2001-06-30,227300.0
2001-05-31,228300.0
2001-04-30,228400.0
2001-03-31,227500.0
2001-02-28,224500.0
2001-01-31,223300.0
2000-12-31,223400.0
2000-11-30,221700.0
2000-10-31,219100.0
2000-09-30,216800.0
2000-08-31,213700.0
2000-07-31,211200.0
2000-06-30,209100.0
2000-05-31,208900.0
2000-04-30,211000.0
2000-03-31,212700.0
2000-02-29,212900.0
2000-01-31,211300.0
1999-12-31,207700.0
1999-11-30,204300.0
1999-10-31,202000.0
1999-09-30,200300.0
1999-08-31,198600.0
1999-07-31,197000.0
1999-06-30,195600.0
1999-05-31,195300.0
1999-04-30,196100.0
1999-03-31,195100.0
1999-02-28,190300.0
1999-01-31,184200.0
1998-12-31,181300.0
1998-11-30,181900.0
1998-10-31,182300.0
1998-09-30,181200.0
1998-08-31,180500.0
1998-07-31,181200.0
1998-06-30,183100.0
1998-05-31,186300.0
1998-04-30,187100.0
1998-03-31,186300.0
1998-02-28,183800.0
