Date,Value
2015-09-30,332900.0
2015-08-31,335000.0
2015-07-31,332900.0
2015-06-30,332600.0
2015-05-31,322700.0
2015-04-30,317800.0
2015-03-31,317100.0
2015-02-28,314400.0
2015-01-31,310300.0
2014-12-31,307200.0
2014-11-30,303700.0
2014-10-31,300700.0
2014-09-30,299000.0
2014-08-31,297800.0
2014-07-31,296800.0
2014-06-30,295700.0
2014-05-31,295000.0
2014-04-30,292200.0
2014-03-31,287900.0
2014-02-28,284700.0
2014-01-31,283100.0
2013-12-31,280700.0
2013-11-30,277900.0
2013-10-31,275200.0
2013-09-30,273200.0
2013-08-31,272000.0
2013-07-31,268400.0
2013-06-30,260900.0
2013-05-31,254600.0
2013-04-30,250600.0
2013-03-31,245300.0
2013-02-28,240300.0
2013-01-31,236500.0
2012-12-31,233100.0
2012-11-30,230100.0
2012-10-31,228200.0
2012-09-30,226900.0
2012-08-31,226600.0
2012-07-31,225300.0
2012-06-30,222900.0
2012-05-31,220500.0
2012-04-30,219800.0
2012-03-31,219900.0
2012-02-29,219600.0
2012-01-31,219200.0
2011-12-31,219000.0
2011-11-30,217900.0
2011-10-31,216500.0
2011-09-30,216200.0
2011-08-31,217500.0
2011-07-31,220300.0
2011-06-30,223800.0
2011-05-31,226700.0
2011-04-30,228600.0
2011-03-31,231100.0
2011-02-28,234800.0
2011-01-31,238500.0
2010-12-31,242500.0
2010-11-30,247200.0
2010-10-31,252200.0
2010-09-30,256800.0
2010-08-31,261100.0
2010-07-31,265600.0
2010-06-30,271000.0
2010-05-31,275900.0
2010-04-30,278800.0
2010-03-31,281200.0
2010-02-28,282900.0
2010-01-31,283400.0
2009-12-31,283300.0
2009-11-30,283000.0
2009-10-31,282000.0
2009-09-30,282200.0
2009-08-31,282900.0
2009-07-31,282800.0
2009-06-30,282700.0
2009-05-31,284300.0
2009-04-30,287800.0
2009-03-31,292700.0
2009-02-28,296400.0
2009-01-31,297400.0
2008-12-31,297400.0
2008-11-30,299500.0
2008-10-31,303800.0
2008-09-30,307200.0
2008-08-31,308100.0
2008-07-31,309700.0
2008-06-30,313900.0
2008-05-31,317600.0
2008-04-30,319400.0
2008-03-31,322000.0
2008-02-29,326300.0
2008-01-31,332500.0
2007-12-31,338100.0
2007-11-30,342300.0
2007-10-31,346500.0
2007-09-30,348800.0
2007-08-31,347100.0
2007-07-31,343800.0
2007-06-30,340500.0
2007-05-31,336200.0
2007-04-30,332400.0
2007-03-31,329300.0
2007-02-28,326400.0
2007-01-31,324400.0
2006-12-31,324800.0
2006-11-30,327300.0
2006-10-31,328700.0
2006-09-30,328300.0
2006-08-31,325900.0
2006-07-31,321800.0
2006-06-30,316000.0
2006-05-31,312000.0
2006-04-30,310200.0
2006-03-31,306900.0
2006-02-28,301200.0
2006-01-31,296200.0
2005-12-31,291500.0
2005-11-30,285700.0
2005-10-31,278500.0
2005-09-30,272200.0
2005-08-31,268400.0
2005-07-31,267300.0
2005-06-30,267300.0
2005-05-31,266300.0
2005-04-30,263300.0
2005-03-31,261000.0
2005-02-28,260300.0
2005-01-31,258600.0
2004-12-31,255800.0
2004-11-30,251900.0
2004-10-31,247400.0
2004-09-30,243800.0
2004-08-31,242600.0
2004-07-31,242800.0
2004-06-30,242300.0
2004-05-31,241000.0
2004-04-30,239100.0
2004-03-31,236500.0
2004-02-29,233900.0
2004-01-31,230900.0
2003-12-31,228100.0
2003-11-30,225100.0
2003-10-31,223300.0
2003-09-30,222500.0
2003-08-31,221500.0
2003-07-31,219400.0
2003-06-30,218100.0
2003-05-31,218500.0
2003-04-30,218800.0
2003-03-31,217300.0
2003-02-28,215300.0
2003-01-31,215900.0
2002-12-31,216900.0
2002-11-30,216700.0
2002-10-31,215100.0
2002-09-30,213600.0
2002-08-31,213000.0
2002-07-31,212200.0
2002-06-30,209600.0
2002-05-31,206500.0
2002-04-30,205000.0
2002-03-31,204500.0
2002-02-28,203900.0
2002-01-31,202800.0
2001-12-31,203700.0
2001-11-30,206200.0
2001-10-31,208300.0
2001-09-30,207800.0
2001-08-31,206300.0
2001-07-31,206100.0
2001-06-30,206500.0
2001-05-31,205400.0
2001-04-30,204000.0
2001-03-31,203500.0
2001-02-28,203500.0
2001-01-31,201300.0
2000-12-31,197100.0
2000-11-30,193200.0
2000-10-31,190900.0
2000-09-30,188400.0
2000-08-31,185600.0
2000-07-31,182400.0
2000-06-30,180100.0
2000-05-31,178300.0
2000-04-30,176600.0
2000-03-31,175500.0
2000-02-29,175300.0
2000-01-31,174500.0
1999-12-31,173000.0
1999-11-30,171400.0
1999-10-31,169800.0
1999-09-30,170000.0
1999-08-31,170400.0
1999-07-31,169700.0
1999-06-30,169000.0
1999-05-31,168700.0
1999-04-30,167000.0
1999-03-31,163800.0
1999-02-28,159700.0
1999-01-31,155700.0
1998-12-31,153100.0
1998-11-30,151900.0
1998-10-31,151700.0
1998-09-30,151400.0
1998-08-31,150300.0
1998-07-31,148200.0
1998-06-30,145500.0
1998-05-31,142900.0
1998-04-30,141600.0
1998-03-31,142100.0
1998-02-28,142300.0
1998-01-31,141400.0
1997-12-31,139700.0
1997-11-30,138200.0
1997-10-31,136700.0
1997-09-30,134700.0
1997-08-31,133000.0
1997-07-31,131800.0
1997-06-30,130200.0
1997-05-31,128200.0
1997-04-30,126700.0
1997-03-31,125300.0
1997-02-28,123700.0
1997-01-31,123100.0
1996-12-31,122800.0
1996-11-30,121700.0
1996-10-31,121100.0
1996-09-30,121700.0
1996-08-31,122100.0
1996-07-31,122200.0
1996-06-30,122300.0
1996-05-31,123000.0
1996-04-30,123300.0
