Date,Value
2011-12-31,345000.0
2011-11-30,339950.0
2011-10-31,329500.0
2011-09-30,339950.0
2011-08-31,349000.0
2011-04-30,375000.0
2011-03-31,375000.0
2011-02-28,375000.0
2010-10-31,375000.0
2010-09-30,374500.0
2010-08-31,374500.0
2010-07-31,399000.0
2010-06-30,409000.0
2010-05-31,409000.0
2010-04-30,485000.0
2010-03-31,429950.0
2010-02-28,499900.0
2009-11-30,499900.0
2009-10-31,499900.0
2009-09-30,499900.0
2009-08-31,514900.0
2009-06-30,974950.0
