Date,Value
2015-02-28,401900.0
2015-01-31,401900.0
2014-12-31,429900.0
2014-11-30,429900.0
2014-10-31,445950.0
2014-09-30,432900.0
2014-08-31,432900.0
2014-07-31,429900.0
2014-06-30,439950.0
2014-05-31,345000.0
2014-04-30,349950.0
2014-03-31,380000.0
2014-02-28,415000.0
2014-01-31,429000.0
2013-12-31,439999.0
2013-11-30,419750.0
2013-10-31,389950.0
2013-09-30,399000.0
2013-08-31,399950.0
2013-07-31,350000.0
2013-06-30,340000.0
2013-05-31,335000.0
2013-04-30,365000.0
2013-03-31,405000.0
2013-02-28,339950.0
2013-01-31,329000.0
2012-12-31,359950.0
2012-11-30,329000.0
2012-10-31,319000.0
2012-09-30,289950.0
2012-08-31,294950.0
2012-07-31,294950.0
2012-06-30,332950.0
2012-05-31,329950.0
2012-04-30,329950.0
2012-03-31,325000.0
2012-02-29,327500.0
2012-01-31,329950.0
2011-12-31,309000.0
2011-11-30,299950.0
2011-10-31,319900.0
2011-09-30,320000.0
2011-08-31,295000.0
2011-07-31,294950.0
2011-06-30,299950.0
2011-05-31,299950.0
2011-04-30,299950.0
2011-03-31,309950.0
2011-02-28,319950.0
2011-01-31,319950.0
2010-12-31,319000.0
2010-11-30,329950.0
2010-10-31,319000.0
2010-09-30,327723.0
2010-08-31,300000.0
2010-07-31,294950.0
2010-06-30,289000.0
2010-05-31,299999.0
2010-04-30,302400.0
2010-03-31,299999.0
2010-02-28,314950.0
2010-01-31,302400.0
2009-12-31,302400.0
2009-11-30,319950.0
2009-10-31,334950.0
2009-09-30,299950.0
2009-08-31,299950.0
2009-07-31,299950.0
2009-06-30,300000.0
2009-05-31,309000.0
2009-04-30,319950.0
2009-03-31,314000.0
2009-02-28,329950.0
2009-01-31,349900.0
2008-12-31,350000.0
2008-11-30,349900.0
2008-10-31,349900.0
