Date,Value
2015-09-30,448800.0
2015-08-31,437900.0
2015-07-31,421800.0
2015-06-30,427100.0
2015-05-31,421700.0
2015-04-30,411500.0
2015-03-31,405900.0
2015-02-28,407700.0
2015-01-31,414400.0
2014-12-31,415100.0
2014-11-30,410600.0
2014-10-31,405500.0
2014-09-30,406000.0
2014-08-31,405100.0
2014-07-31,399500.0
2014-06-30,395100.0
2014-05-31,394600.0
2014-04-30,397200.0
2014-03-31,399300.0
2014-02-28,397800.0
2014-01-31,391600.0
2013-12-31,382500.0
2013-11-30,376900.0
2013-10-31,373000.0
2013-09-30,368500.0
2013-08-31,363600.0
2013-07-31,359300.0
2013-06-30,354900.0
2013-05-31,353800.0
2013-04-30,355100.0
2013-03-31,355100.0
2013-02-28,353300.0
2013-01-31,350300.0
2012-12-31,348800.0
2012-11-30,348100.0
2012-10-31,345100.0
2012-09-30,340300.0
2012-08-31,340000.0
2012-07-31,342000.0
2012-06-30,340800.0
2012-05-31,337700.0
2012-04-30,337000.0
2012-03-31,337500.0
2012-02-29,336900.0
2012-01-31,334500.0
2011-12-31,332200.0
2011-11-30,330300.0
2011-10-31,330700.0
2011-09-30,334500.0
2011-08-31,339400.0
2011-07-31,340900.0
2011-06-30,341100.0
2011-05-31,341100.0
2011-04-30,339500.0
2011-03-31,338500.0
2011-02-28,340600.0
2011-01-31,343000.0
2010-12-31,344400.0
2010-11-30,346900.0
2010-10-31,349900.0
2010-09-30,353500.0
2010-08-31,356700.0
2010-07-31,357200.0
2010-06-30,355400.0
2010-05-31,355200.0
2010-04-30,354900.0
2010-03-31,351400.0
2010-02-28,347800.0
2010-01-31,348000.0
2009-12-31,350600.0
2009-11-30,352800.0
2009-10-31,354100.0
2009-09-30,354200.0
2009-08-31,354700.0
2009-07-31,357500.0
2009-06-30,361800.0
2009-05-31,365000.0
2009-04-30,367700.0
2009-03-31,371300.0
2009-02-28,375600.0
2009-01-31,380900.0
2008-12-31,386800.0
2008-11-30,392800.0
2008-10-31,398800.0
2008-09-30,403100.0
2008-08-31,403600.0
2008-07-31,403900.0
2008-06-30,405900.0
2008-05-31,408700.0
2008-04-30,411600.0
2008-03-31,416900.0
2008-02-29,421900.0
2008-01-31,424600.0
2007-12-31,427700.0
2007-11-30,434200.0
2007-10-31,440300.0
2007-09-30,443700.0
2007-08-31,445700.0
2007-07-31,448600.0
2007-06-30,449900.0
2007-05-31,449400.0
2007-04-30,447300.0
2007-03-31,446400.0
2007-02-28,445800.0
2007-01-31,441900.0
2006-12-31,432900.0
2006-11-30,421600.0
2006-10-31,413000.0
2006-09-30,409600.0
2006-08-31,407700.0
2006-07-31,405500.0
2006-06-30,405600.0
2006-05-31,405400.0
2006-04-30,401800.0
2006-03-31,394300.0
2006-02-28,387400.0
2006-01-31,384300.0
2005-12-31,383700.0
2005-11-30,382100.0
2005-10-31,379500.0
2005-09-30,375500.0
2005-08-31,372300.0
2005-07-31,369200.0
2005-06-30,364200.0
2005-05-31,358800.0
2005-04-30,356100.0
2005-03-31,354700.0
2005-02-28,351800.0
2005-01-31,349300.0
2004-12-31,347600.0
2004-11-30,343300.0
2004-10-31,333600.0
2004-09-30,320700.0
2004-08-31,312000.0
2004-07-31,309700.0
2004-06-30,311000.0
2004-05-31,312000.0
2004-04-30,312100.0
2004-03-31,309700.0
2004-02-29,305700.0
2004-01-31,300300.0
2003-12-31,295300.0
2003-11-30,290800.0
2003-10-31,289100.0
2003-09-30,289800.0
2003-08-31,289300.0
2003-07-31,288200.0
2003-06-30,284300.0
2003-05-31,280000.0
2003-04-30,279000.0
2003-03-31,281300.0
2003-02-28,283300.0
2003-01-31,285600.0
2002-12-31,289000.0
2002-11-30,293400.0
2002-10-31,297200.0
2002-09-30,296700.0
2002-08-31,292400.0
2002-07-31,287500.0
2002-06-30,285200.0
2002-05-31,283800.0
2002-04-30,280700.0
2002-03-31,279300.0
2002-02-28,281300.0
2002-01-31,284300.0
2001-12-31,285700.0
2001-11-30,286700.0
2001-10-31,288700.0
2001-09-30,292300.0
2001-08-31,294800.0
2001-07-31,291500.0
2001-06-30,288000.0
2001-05-31,284700.0
2001-04-30,280100.0
2001-03-31,273400.0
2001-02-28,268200.0
2001-01-31,263200.0
2000-12-31,260200.0
2000-11-30,260700.0
2000-10-31,261800.0
2000-09-30,264000.0
2000-08-31,266000.0
2000-07-31,266000.0
2000-06-30,264200.0
2000-05-31,262600.0
2000-04-30,260100.0
2000-03-31,256700.0
2000-02-29,253500.0
2000-01-31,249400.0
1999-12-31,245400.0
1999-11-30,238700.0
1999-10-31,230500.0
1999-09-30,224800.0
1999-08-31,225200.0
1999-07-31,226100.0
1999-06-30,223000.0
1999-05-31,219800.0
1999-04-30,221900.0
1999-03-31,224600.0
1999-02-28,224500.0
1999-01-31,223400.0
1998-12-31,218800.0
1998-11-30,211900.0
1998-10-31,209700.0
1998-09-30,211000.0
1998-08-31,209500.0
1998-07-31,207000.0
1998-06-30,205600.0
1998-05-31,204700.0
1998-04-30,200600.0
1998-03-31,196200.0
1998-02-28,193500.0
1998-01-31,191500.0
1997-12-31,188300.0
1997-11-30,187800.0
1997-10-31,187400.0
1997-09-30,185400.0
1997-08-31,181800.0
1997-07-31,179800.0
1997-06-30,177600.0
1997-05-31,175600.0
1997-04-30,173500.0
1997-03-31,172900.0
1997-02-28,171000.0
1997-01-31,169700.0
1996-12-31,168500.0
1996-11-30,168200.0
1996-10-31,167300.0
1996-09-30,165400.0
1996-08-31,163000.0
1996-07-31,162500.0
1996-06-30,165100.0
1996-05-31,167700.0
1996-04-30,168800.0
