Date,Value
2015-09-30,485300.0
2015-08-31,483200.0
2015-07-31,476300.0
2015-06-30,479300.0
2015-05-31,478800.0
2015-04-30,475000.0
2015-03-31,466300.0
2015-02-28,464400.0
2015-01-31,460300.0
2014-12-31,459100.0
2014-11-30,456300.0
2014-10-31,450100.0
2014-09-30,444600.0
2014-08-31,442500.0
2014-07-31,440400.0
2014-06-30,437100.0
2014-05-31,433100.0
2014-04-30,422800.0
2014-03-31,408300.0
2014-02-28,399100.0
2014-01-31,398500.0
2013-12-31,399200.0
2013-11-30,399600.0
2013-10-31,400800.0
2013-09-30,401100.0
2013-08-31,400200.0
2013-07-31,399500.0
2013-06-30,397700.0
2013-05-31,392200.0
2013-04-30,388400.0
2013-03-31,387600.0
2013-02-28,384500.0
2013-01-31,376600.0
2012-12-31,369900.0
2012-11-30,364400.0
2012-10-31,361200.0
2012-09-30,360900.0
2012-08-31,360000.0
2012-07-31,355200.0
2012-06-30,350200.0
2012-05-31,348100.0
2012-04-30,346700.0
2012-03-31,343700.0
2012-02-29,341600.0
2012-01-31,341000.0
2011-12-31,341400.0
2011-11-30,342000.0
2011-10-31,343500.0
2011-09-30,345400.0
2011-08-31,347000.0
2011-07-31,349200.0
2011-06-30,352900.0
2011-05-31,356500.0
2011-04-30,358600.0
2011-03-31,360200.0
2011-02-28,362100.0
2011-01-31,364900.0
2010-12-31,367300.0
2010-11-30,368200.0
2010-10-31,368600.0
2010-09-30,366700.0
2010-08-31,364100.0
2010-07-31,363900.0
2010-06-30,364400.0
2010-05-31,364400.0
2010-04-30,367500.0
2010-03-31,372200.0
2010-02-28,374600.0
2010-01-31,375300.0
2009-12-31,374000.0
2009-11-30,372600.0
2009-10-31,372700.0
2009-09-30,375800.0
2009-08-31,380100.0
2009-07-31,383500.0
2009-06-30,385200.0
2009-05-31,387800.0
2009-04-30,390000.0
2009-03-31,391600.0
2009-02-28,393500.0
2009-01-31,397100.0
2008-12-31,401200.0
2008-11-30,406000.0
2008-10-31,410900.0
2008-09-30,415400.0
2008-08-31,418800.0
2008-07-31,422800.0
2008-06-30,429500.0
2008-05-31,437500.0
2008-04-30,443300.0
2008-03-31,446000.0
2008-02-29,449100.0
2008-01-31,451500.0
2007-12-31,454400.0
2007-11-30,457800.0
2007-10-31,459800.0
2007-09-30,461300.0
2007-08-31,462900.0
2007-07-31,463100.0
2007-06-30,462100.0
2007-05-31,459400.0
2007-04-30,455800.0
2007-03-31,455400.0
2007-02-28,458500.0
2007-01-31,460300.0
2006-12-31,459400.0
2006-11-30,456700.0
2006-10-31,450900.0
2006-09-30,441100.0
2006-08-31,433300.0
2006-07-31,429900.0
2006-06-30,427100.0
2006-05-31,422700.0
2006-04-30,417900.0
2006-03-31,413900.0
2006-02-28,409500.0
2006-01-31,404300.0
2005-12-31,399200.0
2005-11-30,394300.0
2005-10-31,389500.0
2005-09-30,387400.0
2005-08-31,386000.0
2005-07-31,383400.0
2005-06-30,378800.0
2005-05-31,372100.0
2005-04-30,366400.0
2005-03-31,361400.0
2005-02-28,355600.0
2005-01-31,350900.0
2004-12-31,347700.0
2004-11-30,344900.0
2004-10-31,341300.0
2004-09-30,337300.0
2004-08-31,332600.0
2004-07-31,326700.0
2004-06-30,321600.0
2004-05-31,320200.0
2004-04-30,320200.0
2004-03-31,319300.0
2004-02-29,316600.0
2004-01-31,311700.0
2003-12-31,307100.0
2003-11-30,303300.0
2003-10-31,299500.0
2003-09-30,294900.0
2003-08-31,291300.0
2003-07-31,288700.0
2003-06-30,286700.0
2003-05-31,285600.0
2003-04-30,286400.0
2003-03-31,287400.0
2003-02-28,288900.0
2003-01-31,291200.0
2002-12-31,292900.0
2002-11-30,294400.0
2002-10-31,296500.0
2002-09-30,298400.0
2002-08-31,299000.0
2002-07-31,299100.0
2002-06-30,299100.0
2002-05-31,298400.0
2002-04-30,296100.0
2002-03-31,293700.0
2002-02-28,292300.0
2002-01-31,291500.0
2001-12-31,290700.0
2001-11-30,291200.0
2001-10-31,293700.0
2001-09-30,297100.0
2001-08-31,298300.0
2001-07-31,296500.0
2001-06-30,294500.0
2001-05-31,292500.0
2001-04-30,289100.0
2001-03-31,284600.0
2001-02-28,280100.0
2001-01-31,277200.0
2000-12-31,274700.0
2000-11-30,271000.0
2000-10-31,268600.0
2000-09-30,267700.0
2000-08-31,266100.0
2000-07-31,264900.0
2000-06-30,263700.0
2000-05-31,262400.0
2000-04-30,261400.0
2000-03-31,261100.0
2000-02-29,260900.0
2000-01-31,259600.0
1999-12-31,256300.0
1999-11-30,252500.0
1999-10-31,248200.0
1999-09-30,243700.0
1999-08-31,241700.0
1999-07-31,242200.0
1999-06-30,242800.0
1999-05-31,242200.0
1999-04-30,241200.0
1999-03-31,239700.0
1999-02-28,236300.0
1999-01-31,231900.0
1998-12-31,228300.0
1998-11-30,226100.0
1998-10-31,223800.0
1998-09-30,221100.0
1998-08-31,218200.0
1998-07-31,215100.0
1998-06-30,211900.0
1998-05-31,209000.0
1998-04-30,205800.0
1998-03-31,202700.0
1998-02-28,200800.0
1998-01-31,200000.0
1997-12-31,198800.0
1997-11-30,196600.0
1997-10-31,194500.0
1997-09-30,192500.0
1997-08-31,189300.0
1997-07-31,185700.0
1997-06-30,182800.0
1997-05-31,179900.0
1997-04-30,177300.0
1997-03-31,175000.0
1997-02-28,172400.0
1997-01-31,169800.0
1996-12-31,169200.0
1996-11-30,169300.0
1996-10-31,169200.0
1996-09-30,169100.0
1996-08-31,170000.0
1996-07-31,170600.0
1996-06-30,170200.0
1996-05-31,169600.0
1996-04-30,169500.0
