Date,Value
2015-09-30,1.978
2015-08-31,2.032
2015-07-31,2.024
2015-06-30,2.012
2015-05-31,2.0
2015-04-30,1.982
2015-03-31,1.966
2015-02-28,1.948
2015-01-31,1.928
2014-12-31,1.906
2014-11-30,1.892
2014-10-31,1.888
2014-09-30,1.89
2014-08-31,1.884
2014-07-31,1.874
2014-06-30,1.852
2014-05-31,1.836
2014-04-30,1.82
2014-03-31,1.81
2014-02-28,1.802
2014-01-31,1.784
2013-12-31,1.774
2013-11-30,1.756
2013-10-31,1.74
2013-09-30,1.72
2013-08-31,1.7
2013-07-31,1.684
2013-06-30,1.67
2013-05-31,1.664
2013-04-30,1.656
2013-03-31,1.642
2013-02-28,1.626
2013-01-31,1.608
2012-12-31,1.602
2012-11-30,1.598
2012-10-31,1.602
2012-09-30,1.6
2012-08-31,1.6
2012-07-31,1.6
2012-06-30,1.606
2012-05-31,1.6
2012-04-30,1.588
2012-03-31,1.572
2012-02-29,1.564
2012-01-31,1.55
2011-12-31,1.536
2011-11-30,1.514
2011-10-31,1.492
2011-09-30,1.468
2011-08-31,1.448
2011-07-31,1.436
2011-06-30,1.418
2011-05-31,1.408
2011-04-30,1.398
2011-03-31,1.394
2011-02-28,1.384
2011-01-31,1.374
2010-12-31,1.368
2010-11-30,1.368
