year,month,influence
2009,09,5.174716895119007
2009,04,17.475900533804666
2009,12,7.014445676589143
2009,03,8.608978773973819
2009,11,7.082104166598875
2009,07,12.931327806295378
2009,02,6.474751666338434
2009,01,5.540391988849835
2009,08,5.068999013713897
2009,10,2.797795047925543
2009,05,3.028991018447516
2009,06,13.209320990036595
2012,09,12.298922734888034
2012,04,6.551728867574557
2012,12,2.6498337961361838
2012,03,5.498106366539301
2012,11,4.041722295103939
2012,07,9.788793436775094
2012,02,2.7364803353823794
2012,01,7.496459436437159
2012,08,29.618467211786008
2012,10,8.063826454899212
2012,05,2.7756439299256472
2012,06,8.213964206160306
2006,09,7.026113807916934
2006,04,4.602755130143326
2006,12,3.2837663466088887
2006,03,3.8484597536728242
2006,11,4.260435875625105
2006,07,7.8610544608434925
2006,02,2.0751312857202198
2006,01,3.7835033481446274
2006,08,5.131795605113725
2006,10,9.810331231594276
2006,05,25.418732801652073
2006,06,5.765802630743254
2015,09,34.58530621741118
2015,04,6.055038054516716
2015,12,3.7572455720242166
2015,03,22.638983459471657
2015,11,5.943877943945722
2015,07,7.835904036213375
2015,02,18.498228957794886
2015,01,15.07941741986733
2015,08,19.669690799316577
2015,10,19.92029438473775
2015,05,9.415826284031606
2015,06,8.381067445439689
2005,09,4.85056616015051
2005,04,2.759928405010242
2005,12,0.7764379837734408
2005,03,3.9872484790465714
2005,11,0.9396572565347912
2005,07,2.0463799091012236
2005,02,0.0619003602678412
2005,01,0.23556648738481387
2005,08,2.5386305564137244
2005,10,2.4829911030448732
2005,05,2.941407668297638
2005,06,0.008406201593218641
2013,09,55.148107705729146
2013,04,10.617424063344997
2013,12,14.448205906071962
2013,03,2.771781880171069
2013,11,27.664210902312615
2013,07,4.290826854944482
2013,02,6.696865807011619
2013,01,8.570998827558842
2013,08,12.872960099563471
2013,10,30.95720934145839
2013,05,7.206214571244627
2013,06,12.728006852722785
2014,09,9.750194661455257
2014,04,9.323312870897327
2014,12,11.989809322921392
2014,03,9.555510374658967
2014,11,29.801183468864508
2014,07,30.7463271319148
2014,02,11.522301551904976
2014,01,14.92441677815986
2014,08,10.212966650051188
2014,10,17.420734489388664
2014,05,11.133634109964817
2014,06,5.761093158138109
2011,09,9.216373329336461
2011,04,14.787742382734756
2011,12,1.5383572245024117
2011,03,10.542658998310161
2011,11,6.077645644038738
2011,07,4.108301271682575
2011,02,2.922472972550897
2011,01,14.218171202144124
2011,08,7.036367874800224
2011,10,6.724842957711673
2011,05,13.154977761204888
2011,06,5.049222153412821
2001,08,2.221373840721957
2008,09,12.16443280483559
2008,04,6.03432375243268
2008,12,4.373459709717371
2008,03,5.975320097882409
2008,11,9.911614092975592
2008,07,4.388485810712877
2008,02,15.896400753575078
2008,01,18.875806213209785
2008,08,28.131431380778654
2008,10,7.220920253318273
2008,05,9.528343903298648
2008,06,10.00663744596361
2003,11,21.746395765213773
2003,07,0.00010418936756213378
2003,12,0.066866793173334
2003,10,0.014357880100012464
2010,09,12.878234397141965
2010,04,3.7579277104497226
2010,12,6.333421783764512
2010,03,17.884703306403424
2010,11,11.660098892558104
2010,07,21.728375193201863
2010,02,1.7274777432879083
2010,01,13.198209494480233
2010,08,3.651467181004402
2010,10,8.955989110278901
2010,05,7.815809877759966
2010,06,5.313926208243718
2002,09,0.04847328931378576
2002,10,0.035600987681556694
2007,09,10.25887608099477
2007,04,4.425125956878057
2007,12,14.381657178901591
2007,03,8.17811344107314
2007,11,8.376074889323728
2007,07,11.248964027331763
2007,02,10.994795977563697
2007,01,4.330487230906383
2007,08,25.47341811253498
2007,10,36.302595057129885
2007,05,8.01431446258338
2007,06,8.238883361758447
2004,09,1.3808790817932572
2004,04,0.9684857952954886
2004,12,17.162140562455523
2004,03,0.4104489834708039
2004,11,0.21699975545226535
2004,07,1.4668397783253426
2004,02,0.7273467239517245
2004,01,0.0031634962245263515
2004,08,0.4801085207969987
2004,10,1.1529826622020103
2004,05,0.3380977184445583
2004,06,0.039631604881042296
