year,month,influence
2009,09,1.9275376548779997
2009,04,6.26840467726461
2009,12,2.447926927386237
2009,03,2.8290762809199315
2009,11,2.6351924649571608
2009,07,3.578138039224263
2009,02,2.679764985100453
2009,01,2.6961928386707616
2009,08,2.5773719042568195
2009,10,2.163898972541688
2009,05,4.731561907803034
2009,06,27.710348365540277
2012,09,4.6714443369866485
2012,04,2.336862933591975
2012,12,1.0321675045457537
2012,03,1.8927226350390998
2012,11,1.5091979231697865
2012,07,3.54613231887199
2012,02,1.1950131556204153
2012,01,2.3698667990181814
2012,08,10.28189412559609
2012,10,3.5119517556325097
2012,05,1.069209717030397
2012,06,15.637716655632815
2006,09,3.1745715334724522
2006,04,1.8541176267422088
2006,12,1.4495925062220725
2006,03,2.325445453364905
2006,11,1.5473184101665398
2006,07,2.4945053287477736
2006,02,0.7664895034038894
2006,01,2.323479876780549
2006,08,2.0277552881850234
2006,10,3.726502876518484
2006,05,3.3269792939465925
2006,06,2.1400230640964923
2015,09,12.750215168338533
2015,04,2.246666348459631
2015,12,1.498828655228998
2015,03,7.880734056948822
2015,11,2.299208454863847
2015,07,2.825953403942336
2015,02,6.1994145922353345
2015,01,3.4346301825436805
2015,08,6.589881443468385
2015,10,2.4827398278128547
2015,05,2.130475108555448
2015,06,3.253848848024366
2005,09,1.1091940247005097
2005,04,1.0901281651874262
2005,12,0.29791698821971185
2005,03,2.21207666000184
2005,11,0.431499649805004
2005,07,0.573741244435214
2005,02,0.03010410578152459
2005,01,0.07004991964482117
2005,08,0.7998153184429776
2005,10,1.0022886673963085
2005,05,1.014867556869768
2005,06,0.002796431982003618
2013,09,13.141261021577131
2013,04,3.8539699559252845
2013,12,3.1881358098601766
2013,03,1.381973134855525
2013,11,11.101532845590441
2013,07,2.054256785980885
2013,02,3.2698093876791505
2013,01,2.543637346717485
2013,08,4.2328484594949805
2013,10,11.556698195574928
2013,05,5.4663804620070735
2013,06,4.356085633547595
2014,09,3.055241361274279
2014,04,3.511124405304293
2014,12,4.161126396211224
2014,03,3.2303432233339233
2014,11,10.75448894184235
2014,07,10.686895805847572
2014,02,6.655897075381857
2014,01,5.704468193576062
2014,08,3.470832025791513
2014,10,4.731699805372632
2014,05,3.701943707800216
2014,06,2.3349240695324016
2011,09,3.503473444338497
2011,04,5.785120143552445
2011,12,0.645065282695466
2011,03,3.619469881422726
2011,11,2.1303199342808465
2011,07,1.467214181357071
2011,02,2.643901590383661
2011,01,6.464327360399227
2011,08,3.1279265176199185
2011,10,2.555831928236954
2011,05,4.291326276419233
2011,06,2.2249264618757003
2001,08,0.8426167558151463
2008,09,3.8437407682411826
2008,04,3.0714768479797177
2008,12,1.8747191858007328
2008,03,2.322128019843264
2008,11,2.7211542194574228
2008,07,2.814625240143508
2008,02,13.467559033762514
2008,01,6.451052984819106
2008,08,3.359149203828357
2008,10,6.5033955414388105
2008,05,3.7824301292657916
2008,06,3.085697778590502
2003,11,1.0416455394772255
2003,07,0.00022713773747992297
2003,12,0.1440637414246751
2003,10,0.023821405425360404
2010,09,2.145991330854663
2010,04,9.576622970402324
2010,12,2.621985324975943
2010,03,4.701172767888377
2010,11,2.5499441543351535
2010,07,2.4476419806220533
2010,02,0.6850219278854911
2010,01,6.060038447195161
2010,08,1.2048311777920213
2010,10,3.180677511711548
2010,05,2.9052302437001893
2010,06,1.3345734949482668
2002,09,0.021958788698253948
2002,10,0.015803259050142585
2007,09,3.781231485164829
2007,04,1.7515331934195126
2007,12,3.8473585586770405
2007,03,3.045290694074552
2007,11,2.459027061360999
2007,07,4.052028234302849
2007,02,4.042898922119362
2007,01,2.4004429386235664
2007,08,5.079193670433787
2007,10,9.246617554896766
2007,05,3.1975102152975743
2007,06,2.9765361968803457
2004,09,0.24753464904521622
2004,04,0.4599700824628293
2004,12,5.718891225215489
2004,03,0.1330108806981414
2004,11,0.07665504045020835
2004,07,0.7088284808629505
2004,02,0.24014739246721212
2004,01,0.0015417074710773783
2004,08,0.19652448766561617
2004,10,0.5172946429855273
2004,05,0.13705874609613813
2004,06,0.31449018561945
