year,month,influence
2009,09,6.326929139513739
2009,04,27.15394130232269
2009,12,9.026486406450838
2009,03,10.874405670571763
2009,11,9.260084887747206
2009,07,29.492100251250047
2009,02,10.176848697435208
2009,01,7.979445800920379
2009,08,39.59437502166673
2009,10,9.463278298881942
2009,05,3.375208191460072
2009,06,71.00811794854742
2012,09,14.24489571587542
2012,04,8.455309447465359
2012,12,4.277589425029488
2012,03,6.1559278394958765
2012,11,12.88210196426929
2012,07,46.49640003979641
2012,02,14.197701947242377
2012,01,74.70420325269932
2012,08,17.280761004212962
2012,10,11.1631764750031
2012,05,8.644265011818339
2012,06,16.106718507456552
2006,09,6.202474738616079
2006,04,8.276722181923477
2006,12,11.58854854452591
2006,03,12.42981652063347
2006,11,3.4044728117357415
2006,07,11.324193007857426
2006,02,10.51621367894228
2006,01,11.632383943008197
2006,08,12.807036394422122
2006,10,11.844221067805599
2006,05,22.45038277013088
2006,06,7.992329677553932
2015,09,37.13504346100472
2015,04,15.035084923120216
2015,12,2.8071506527984016
2015,03,20.33628866082385
2015,11,12.625897543414201
2015,07,13.220851832859788
2015,02,29.211155173487086
2015,01,11.933053652397266
2015,08,25.543341103725794
2015,10,18.112835782043337
2015,05,12.320598447037455
2015,06,57.089982205643196
2005,09,1.240762804987043
2005,04,1.7376386155941905
2005,12,2.351138579383625
2005,03,46.47102238773569
2005,11,1.984464955800427
2005,07,1.4733614662378507
2005,02,0.5606035002165621
2005,01,0.13847205522232164
2005,08,14.215684167941232
2005,10,2.2473415831581276
2005,05,3.139783088337256
2005,06,0.010378824803159895
2013,09,16.431142663191856
2013,04,25.56084722321288
2013,12,11.868278346146122
2013,03,7.338117720067581
2013,11,23.790839089644944
2013,07,47.43047404131481
2013,02,16.919267666782673
2013,01,9.683072571006424
2013,08,34.221980811513454
2013,10,31.777042548017125
2013,05,13.357451353606333
2013,06,22.14661897905698
2014,09,12.722258425322533
2014,04,31.09803825903314
2014,12,20.08498162461457
2014,03,11.130428430478858
2014,11,36.33933026150869
2014,07,30.79134770364846
2014,02,15.416891038468798
2014,01,33.32177844083275
2014,08,21.27784372106429
2014,10,21.39717200686639
2014,05,15.359259001974053
2014,06,9.954490827857763
2011,09,19.661255561603618
2011,04,367.93225839172584
2011,12,3.684146671399481
2011,03,28.588241803091574
2011,11,10.076102066832233
2011,07,11.610264446644734
2011,02,24.480810525784864
2011,01,74.32592261691107
2011,08,9.084179423662205
2011,10,12.084120526581486
2011,05,17.135100775959597
2011,06,6.787534766988225
2001,08,1.9560645039422986
2008,09,7.33175287137847
2008,04,6.138461365893813
2008,12,5.617995321114477
2008,03,9.806762924756132
2008,11,3.442030238736911
2008,07,16.709235975402002
2008,02,8.01364433593349
2008,01,40.352600069966094
2008,08,6.248001618198928
2008,10,27.139916426801943
2008,05,19.539042475199683
2008,06,11.853593784106245
2003,11,0.29503688435642905
2003,07,6.152087367554633e-05
2003,12,0.02050731208162039
2003,10,0.007488312763060808
2010,09,7.146282857157157
2010,04,8.645945859536589
2010,12,8.493597737861615
2010,03,12.075922193676941
2010,11,4.243159298690993
2010,07,8.438471964265258
2010,02,3.074885251107516
2010,01,5.954775792587694
2010,08,6.106106960925663
2010,10,8.66033390742866
2010,05,14.738969503234038
2010,06,6.2028423658116285
2002,09,0.2780007155808943
2002,10,0.010771847795051644
2007,09,11.77515774411979
2007,04,7.568770128818184
2007,12,11.453588440928934
2007,03,12.960135172343469
2007,11,16.281839051351685
2007,07,18.03857487001664
2007,02,25.724386760120304
2007,01,9.030306158248475
2007,08,121.6427073283321
2007,10,23.289443964365816
2007,05,16.26929695385739
2007,06,14.238866647905315
2004,09,0.10067191604575397
2004,04,11.015030978269666
2004,12,12.863386325245378
2004,03,0.3413447339387836
2004,11,0.3886990742093422
2004,07,48.01281521310715
2004,02,1.740727541062281
2004,01,0.0060071172040623766
2004,08,0.5927425699140386
2004,10,1.554816467141427
2004,05,1.3790883720630327
2004,06,0.31666819952427055
