year,month,influence
2009,09,3.8583861615703894
2009,04,22.638065968714837
2009,12,5.267396011924646
2009,03,7.0019101651576285
2009,11,8.718760059043257
2009,07,13.636325878282767
2009,02,6.376441727554061
2009,01,15.525951102893206
2009,08,7.181014464232111
2009,10,6.529010000528414
2009,05,2.078791155575486
2009,06,27.42174783769973
2012,09,9.560060457355709
2012,04,6.156822687119267
2012,12,4.631365973146473
2012,03,10.895653587925146
2012,11,20.912071531543827
2012,07,14.212279517634247
2012,02,9.26276610367487
2012,01,6.807197093692559
2012,08,11.253294686136563
2012,10,11.524224714870588
2012,05,12.232332754867615
2012,06,34.042785969147374
2006,09,3.992209424198223
2006,04,12.433017438831413
2006,12,3.0795970485362147
2006,03,10.661698580096301
2006,11,3.1217498810215814
2006,07,6.2383549924332895
2006,02,2.567618052194142
2006,01,4.936386078300176
2006,08,5.529663280118109
2006,10,8.363002650492225
2006,05,95.62269688423565
2006,06,7.993568814822226
2015,09,22.14806276564173
2015,04,28.7077477252472
2015,12,1.882506020552756
2015,03,30.186972760932917
2015,11,20.882641764474585
2015,07,6.4704313738384265
2015,02,20.344673085127095
2015,01,7.14663131900316
2015,08,14.739887770247687
2015,10,5.5107255687596775
2015,05,9.11232830682135
2015,06,23.609031137879622
2005,09,2.7525565368916483
2005,04,4.682554415927221
2005,12,1.4645319329309845
2005,03,3.0113537488754263
2005,11,1.9572294544105644
2005,07,1.241111498767291
2005,02,2.4117069602700987
2005,01,0.09826463216927564
2005,08,1.4544499831362177
2005,10,2.0827067489041124
2005,05,1.949639284192781
2005,06,0.00626730651180024
2013,09,14.92047572118815
2013,04,9.607001114325502
2013,12,7.103368940254573
2013,03,5.133296216552665
2013,11,23.09067873691972
2013,07,6.290390337929243
2013,02,7.916700538961396
2013,01,6.214020816880815
2013,08,10.881232996037859
2013,10,22.29040783845854
2013,05,19.127568486258543
2013,06,14.045061962685716
2014,09,8.347178723765055
2014,04,13.946989575328503
2014,12,8.74744242538745
2014,03,14.170525313204985
2014,11,67.15598521392062
2014,07,20.71699628530384
2014,02,7.820944938273511
2014,01,15.484660797113365
2014,08,18.91668260666874
2014,10,13.895468902518145
2014,05,8.227528247976657
2014,06,4.519530561463415
2011,09,8.303783281978399
2011,04,16.160553696578894
2011,12,9.31961111381367
2011,03,22.562566030693684
2011,11,105.03568456952137
2011,07,406.06570224331347
2011,02,4.191310678071087
2011,01,10.776939521731592
2011,08,5.641591937514109
2011,10,18.712642669587122
2011,05,12.301894468559828
2011,06,4.44595745455581
2001,08,1.0857817241816898
2008,09,11.055834012763484
2008,04,4.243809072300354
2008,12,3.0112868110269475
2008,03,4.366216470737165
2008,11,3.779613912702569
2008,07,4.950030326782799
2008,02,5.840559519677492
2008,01,20.335122339898454
2008,08,6.697012368539855
2008,10,107.65778949623986
2008,05,11.972512871764916
2008,06,89.0929262174869
2003,11,0.27691812661514514
2003,07,4.0359152933254417e-05
2003,12,0.03155825777889206
2003,10,0.004568423533506312
2010,09,9.916509847922889
2010,04,4.279836512201541
2010,12,4.360193635222004
2010,03,15.899309048573091
2010,11,6.4279390898271
2010,07,6.33717884153535
2010,02,3.856025413093801
2010,01,7.155375361280425
2010,08,5.685713709790879
2010,10,49.70334230700523
2010,05,5.183748692399617
2010,06,3.2467704355121887
2002,09,6.5292024349132305
2002,10,0.006985293477380141
2007,09,11.676986539801163
2007,04,7.443637868712006
2007,12,5.880197815300607
2007,03,7.596753362834288
2007,11,6.761266812125415
2007,07,11.505615219739623
2007,02,19.117751938853058
2007,01,12.573570530500877
2007,08,28.96299779115017
2007,10,20.970618081174344
2007,05,8.130545336735347
2007,06,13.708171255140602
2004,09,0.0693205825307838
2004,04,5.571442920432882
2004,12,19.62062323433773
2004,03,1.0173407055587769
2004,11,2.062370334321539
2004,07,8.677661240098352
2004,02,1.0138663658165845
2004,01,0.002315856305279464
2004,08,1.6880393821800197
2004,10,3.2452241153624666
2004,05,2.723427719877492
2004,06,0.033080919864828834
