year,month,influence
2009,09,26.36506993921077
2009,04,92.20834251304849
2009,12,57.15014100949648
2009,03,41.31879495832039
2009,11,142.84329068945416
2009,07,45.624279986875024
2009,02,39.777518437195
2009,01,108.81757561107503
2009,08,88.7705388905806
2009,10,13.820875079650358
2009,05,14.44814070774495
2009,06,175.88967374651233
2012,09,147.32929027683423
2012,04,459.0073063640435
2012,12,21.866204862249297
2012,03,32.933783812492926
2012,11,20.33191595823404
2012,07,58.255952679890655
2012,02,67.87511970570877
2012,01,36.65184560653606
2012,08,143.85179231399235
2012,10,95.38862883722015
2012,05,60.883754490403156
2012,06,42.44971839558873
2006,09,58.580924539543744
2006,04,80.27511988500812
2006,12,33.521820790277886
2006,03,34.62345999330345
2006,11,14.595054319839685
2006,07,38.167122458181574
2006,02,16.0020985709955
2006,01,29.631268770907578
2006,08,74.07411946365171
2006,10,110.55759765351429
2006,05,118.76616228761483
2006,06,38.86204218070658
2015,09,352.77552540846773
2015,04,76.76112804049383
2015,12,328.51320887720755
2015,03,191.85541585881097
2015,11,32.74448270135222
2015,07,55.07719098562093
2015,02,132.21565845319174
2015,01,85.91869736375455
2015,08,141.0731915195863
2015,10,54.57165942180441
2015,05,53.3705884283773
2015,06,123.59931964077576
2005,09,10.267633182039358
2005,04,24.307316809104165
2005,12,11.948973452059413
2005,03,21.443446903549013
2005,11,9.224605471888179
2005,07,6.186815988513443
2005,02,0.10176378188851057
2005,01,0.8736945965510304
2005,08,18.981023892779717
2005,10,16.626454147151836
2005,05,24.228606159441224
2005,06,0.04101435794454592
2013,09,126.09401554696954
2013,04,74.89064330077609
2013,12,113.57619088011919
2013,03,24.250914825821162
2013,11,298.3559818249343
2013,07,174.87084846398687
2013,02,23.814495659101713
2013,01,51.059522931872884
2013,08,27.358505830417904
2013,10,252.63487629373412
2013,05,34.2249486620831
2013,06,63.35250251718448
2014,09,50.47609358507366
2014,04,110.90097524270848
2014,12,135.88611351420826
2014,03,86.71958872458308
2014,11,356.18639464577774
2014,07,204.82222405498865
2014,02,243.68768299761595
2014,01,96.3789238123698
2014,08,35.89414284214116
2014,10,136.92356737847362
2014,05,90.12616394227707
2014,06,43.7223358001289
2011,09,301.36442659818664
2011,04,226.95734227123006
2011,12,968.0763428727145
2011,03,54.06517455354897
2011,11,59.93002645484249
2011,07,30.195080628025092
2011,02,36.07885774751137
2011,01,154.89205226351103
2011,08,145.24973850217265
2011,10,66.0432069913887
2011,05,123.03409664759415
2011,06,79.47533729442819
2001,08,41.50117850144583
2008,09,164.82500298050283
2008,04,90.27159873516268
2008,12,131.589786737293
2008,03,55.35060082269264
2008,11,16.00636248805002
2008,07,147.13274182960652
2008,02,444.529399902916
2008,01,213.92699004260322
2008,08,54.302035610667275
2008,10,71.00250067908591
2008,05,8698.832778884935
2008,06,37.83857137957238
2003,11,1.1841047551067576
2003,07,0.00016078152654647553
2003,12,0.09248594770349199
2003,10,0.032369489975369696
2010,09,63.67426342109616
2010,04,35.292153677438485
2010,12,79.30200369122245
2010,03,95.33794032929156
2010,11,20.297915745607664
2010,07,35.3861152595218
2010,02,260.5705288521113
2010,01,30.738917845281893
2010,08,23.90785235947109
2010,10,59.082525844214345
2010,05,81.51621208508094
2010,06,76.83460924241048
2002,09,0.07428383670041618
2002,10,0.17158491251213942
2007,09,63.15645490986839
2007,04,27.410080076211706
2007,12,119.1798296788732
2007,03,105.30233573510851
2007,11,1557.4678593804056
2007,07,43.56367987605875
2007,02,86.07424229344572
2007,01,98.79875521564287
2007,08,7122.738861795814
2007,10,639.2761224746093
2007,05,84.36704919624479
2007,06,64.06003982452988
2004,09,2.8966495999787227
2004,04,43.99284398657363
2004,12,156.5521084885348
2004,03,2.6648007305831407
2004,11,0.25672030304054805
2004,07,10.040010139544922
2004,02,2.5397834280838802
2004,01,0.09396279229173084
2004,08,7.981364979189673
2004,10,4.641293491484066
2004,05,0.968882166949521
2004,06,0.6224047099994335
