year,month,influence
2009,09,15.051535640171828
2009,04,54.70094965894877
2009,12,30.25229546311036
2009,03,28.09427275496362
2009,11,53.991197335723065
2009,07,27.272014942220903
2009,02,22.610022600207696
2009,01,16.79230000741518
2009,08,35.18777799867811
2009,10,8.571563165644482
2009,05,9.559404994339
2009,06,67.99049645171853
2012,09,70.10221039618635
2012,04,58.41128357065103
2012,12,10.953476214094117
2012,03,18.658987935944428
2012,11,10.947902239070137
2012,07,46.363980004996456
2012,02,14.634149235665042
2012,01,21.189001307751404
2012,08,82.03827975545414
2012,10,41.98400372449252
2012,05,19.13714888056174
2012,06,21.910374701157895
2006,09,29.28034963394676
2006,04,26.844087229318742
2006,12,16.934612121041287
2006,03,16.58118076802135
2006,11,8.574200146858026
2006,07,19.969219594842116
2006,02,8.440698222822514
2006,01,14.249038368174345
2006,08,164.95140628723445
2006,10,53.79435219039016
2006,05,48.22812711248003
2006,06,20.33655620656784
2015,09,168.7782147304396
2015,04,29.71992218456727
2015,12,70.66372321477725
2015,03,114.9985728139218
2015,11,20.675515016013456
2015,07,38.70654464857584
2015,02,70.07228301325313
2015,01,39.67199705594923
2015,08,67.71996312597618
2015,10,30.165383741992077
2015,05,17.610436475273637
2015,06,41.17748473744574
2005,09,4.575648044317016
2005,04,15.108614113818922
2005,12,3.989602828647779
2005,03,20.516337823849316
2005,11,4.971744323089767
2005,07,3.807535541328188
2005,02,0.08961022953209145
2005,01,0.5189230351338203
2005,08,9.006742808570856
2005,10,8.4791252741775
2005,05,12.202169100960356
2005,06,0.024883052905503338
2013,09,64.44532270110808
2013,04,42.382279654881934
2013,12,30.10728082066205
2013,03,20.087576456608378
2013,11,140.0806023461874
2013,07,34.18637357721021
2013,02,13.18070153081834
2013,01,24.04258389747053
2013,08,15.734003884078863
2013,10,157.01232813206758
2013,05,18.622337818754115
2013,06,43.94342095735023
2014,09,31.13904787647063
2014,04,52.040482238441356
2014,12,63.96119703407589
2014,03,41.05079945830791
2014,11,154.01570233684956
2014,07,112.33974957416633
2014,02,58.14692745277904
2014,01,48.95138627713923
2014,08,21.190354549172877
2014,10,53.61244369407527
2014,05,42.505202584077985
2014,06,21.595699597200035
2011,09,88.78585550514572
2011,04,75.28170018077621
2011,12,10.829703328983804
2011,03,31.095990302047998
2011,11,21.904460081857753
2011,07,15.613014177198117
2011,02,17.00251515949661
2011,01,34.72062223800302
2011,08,24.110670016081507
2011,10,28.79107636734238
2011,05,61.88585993664509
2011,06,25.955949378871797
2001,08,16.592841333825294
2008,09,64.44276315309757
2008,04,42.046538286781946
2008,12,36.399451379303954
2008,03,28.446802281729642
2008,11,13.677724537965194
2008,07,48.603707459787756
2008,02,156.35681140211994
2008,01,176.09920969302811
2008,08,31.317972021770917
2008,10,32.09842544830391
2008,05,202.9910328950596
2008,06,21.7314955171808
2003,11,1.0397683968803468
2003,07,0.00018677422149403127
2003,12,0.1077602126536274
2003,10,0.04126117462511892
2010,09,12.931937065330809
2010,04,14.093745098859705
2010,12,34.735880278539774
2010,03,50.69264052059744
2010,11,15.70000335179203
2010,07,16.50420288593353
2010,02,7.772612491862041
2010,01,16.599283459029074
2010,08,11.487955083662623
2010,10,31.88338010481312
2010,05,41.40141283529281
2010,06,18.17291589395942
2002,09,0.06449636956267853
2002,10,0.1495614883019794
2007,09,31.591908864705893
2007,04,14.250036736002556
2007,12,44.83252231084388
2007,03,44.13973026888534
2007,11,53.87298083143447
2007,07,29.86477828692442
2007,02,45.35497805965928
2007,01,44.815912551406775
2007,08,82.78470789539908
2007,10,79.04430926592183
2007,05,37.590843498616344
2007,06,31.05140874651156
2004,09,1.787878469803367
2004,04,6.3757906952600285
2004,12,79.85828534690788
2004,03,1.4093477261635114
2004,11,0.21580735096591902
2004,07,6.002616692767578
2004,02,1.7570338192832287
2004,01,0.05092222148110389
2004,08,3.246945732886869
2004,10,3.0649951527797525
2004,05,0.6330348908095647
2004,06,0.2596347003177107
