year,month,influence
2009,09,7.869781012877807
2009,04,38.469761145246544
2009,12,6.792695366864518
2009,03,8.589380678625487
2009,11,7.071389439157383
2009,07,13.347038498661677
2009,02,7.507945999380605
2009,01,5.786367467225419
2009,08,7.873997259710154
2009,10,5.998099909066685
2009,05,2.900385065825156
2009,06,14.032095854220804
2012,09,13.426675862516339
2012,04,7.50528048547618
2012,12,4.869932707425524
2012,03,8.382679096317789
2012,11,82.88318305550837
2012,07,14.765106027502569
2012,02,16.866461862398538
2012,01,8.590191681694206
2012,08,12.65592756174968
2012,10,6.52372643427571
2012,05,4.028698661191868
2012,06,12.682255153379142
2006,09,5.715191919844483
2006,04,39.23898095363597
2006,12,4.494989299398805
2006,03,6.064934658549287
2006,11,5.0316576040757015
2006,07,9.319654183721179
2006,02,2.6772593601111088
2006,01,5.574658674082391
2006,08,8.678954189309433
2006,10,16.234068285208828
2006,05,10.447712532170078
2006,06,11.232276204458941
2015,09,27.794139696261922
2015,04,13.0732928230028
2015,12,2.1983172478192183
2015,03,24.043658408435192
2015,11,70.15356789237217
2015,07,9.57682667418036
2015,02,50.01883972467176
2015,01,7.596698960350027
2015,08,20.107387235330005
2015,10,7.282855916422682
2015,05,10.402419809500667
2015,06,47.356220166419895
2005,09,0.7435521473421504
2005,04,20.96137407599744
2005,12,1.3497498734969353
2005,03,3.1558282101429036
2005,11,1.1291563638141229
2005,07,1.701860191793607
2005,02,0.8257163513108274
2005,01,0.12990348442368688
2005,08,1.8459094761528831
2005,10,2.25360426355505
2005,05,2.470054905436751
2005,06,0.008156424747992483
2013,09,39.25063970582917
2013,04,12.848912055194802
2013,12,9.048279742179506
2013,03,6.705359774489789
2013,11,39.708258885722785
2013,07,5.925035107931228
2013,02,9.130437096863592
2013,01,7.271538826710469
2013,08,21.123530958727855
2013,10,26.027717556724852
2013,05,10.711167783550412
2013,06,12.353876493192349
2014,09,8.26219312065925
2014,04,20.205965307834184
2014,12,10.540926222643295
2014,03,91.22605190043299
2014,11,36.23258273048
2014,07,25.286345213449767
2014,02,10.320351674129741
2014,01,27.40084709515051
2014,08,30.117243698430475
2014,10,19.758580748859657
2014,05,16.13695631662434
2014,06,5.219409364373328
2011,09,8.191483927752131
2011,04,16.246365086208364
2011,12,56.96633258775409
2011,03,48.914979971896095
2011,11,16.73071765056106
2011,07,17.57097234507592
2011,02,5.8701503109428375
2011,01,11.60992269676039
2011,08,8.78406519289917
2011,10,54.74738811064768
2011,05,11.273646784858101
2011,06,6.8894131833473935
2001,08,1.3367849453928922
2008,09,7.014274547800247
2008,04,4.419835063351162
2008,12,4.062750997032595
2008,03,4.956937155822827
2008,11,12.377941359958482
2008,07,4.814027471770175
2008,02,8.98024292709222
2008,01,19.331121905225213
2008,08,9.711766365067184
2008,10,10.245057543471303
2008,05,20.177598644490708
2008,06,12.541407338500978
2003,11,0.35462330352341304
2003,07,4.391777485473522e-05
2003,12,0.030895841058144233
2003,10,0.0050975795095318625
2010,09,32.865575763634304
2010,04,3.946517389471049
2010,12,5.574470341522201
2010,03,14.765804975873625
2010,11,4.361720520733075
2010,07,5.994148786667443
2010,02,11.44653982075017
2010,01,2.876650796001054
2010,08,14.827204356239367
2010,10,7.384016129407399
2010,05,5.4587879578478855
2010,06,4.535888401987302
2002,09,1.3306036641708923
2002,10,0.008477524464304073
2007,09,13.009643984798894
2007,04,7.084217904985394
2007,12,6.029778237271612
2007,03,8.796053848416685
2007,11,7.228128978716824
2007,07,10.066787506927223
2007,02,31.587220440323325
2007,01,20.974049013798254
2007,08,21.678756590231355
2007,10,19.491655262010212
2007,05,12.966444578315778
2007,06,23.111848954976068
2004,09,0.08502353575087018
2004,04,3.338947079835507
2004,12,54.674048713306156
2004,03,1.151172535011622
2004,11,10.323461045471854
2004,07,7.087984730080592
2004,02,1.3120812219763716
2004,01,0.0026776347263556084
2004,08,0.9279534832125902
2004,10,7.572165275694976
2004,05,8.543894155405138
2004,06,0.03247795693937008
