year,month,influence
2009,09,10.779686156383027
2009,04,48.3854748217561
2009,12,103.37692002061408
2009,03,51.56419106643923
2009,11,22.477894332370706
2009,07,19.72289916919842
2009,02,13.653625983833221
2009,01,103.30116466684329
2009,08,9.337243085956882
2009,10,7.539642821266966
2009,05,4.585035919062695
2009,06,13.072406151520624
2012,09,51.61132189015945
2012,04,30.950401541383034
2012,12,67.69089065038371
2012,03,86.4382661575998
2012,11,20.542081771287993
2012,07,21.190415996460683
2012,02,6.3817863795508805
2012,01,11.448871935015458
2012,08,25.253038062584892
2012,10,9.89903204756684
2012,05,6.825196074104654
2012,06,12.348965233428098
2006,09,10.877836157687577
2006,04,20.601023745433615
2006,12,4.904255186763994
2006,03,5.780747840318384
2006,11,24.049341584149474
2006,07,21.17185273735554
2006,02,4.857375432247701
2006,01,5.973632016553125
2006,08,9.577827116134216
2006,10,17.253955119886296
2006,05,11.586374991205847
2006,06,14.178358164206816
2015,09,58.17991520111126
2015,04,64.90160486807375
2015,12,5.222597854062902
2015,03,33.492553860201376
2015,11,21.728804077698136
2015,07,13.601248856580732
2015,02,110.82563217119468
2015,01,18.865933971776094
2015,08,40.4750246028214
2015,10,14.87470572983302
2015,05,100.9500835845107
2015,06,22.24203967765687
2005,09,1.2086670690501888
2005,04,5.141068649846134
2005,12,1.5167524990570165
2005,03,4.257172282814953
2005,11,1.5054428644239994
2005,07,4.688315068262266
2005,02,0.20047202451539337
2005,01,0.3764021948986596
2005,08,4.881425892555178
2005,10,56.836509192907386
2005,05,5.419235884476079
2005,06,0.019060879288388597
2013,09,31.133057461988706
2013,04,20.611186495727797
2013,12,85.30148866703787
2013,03,7.454635846207866
2013,11,43.441606471313314
2013,07,7.028071877865852
2013,02,11.898485047127208
2013,01,19.35137690290579
2013,08,11.817596799610094
2013,10,51.56651964424507
2013,05,8.503249507992171
2013,06,52.261329771155765
2014,09,17.13459420992904
2014,04,19.8529044992237
2014,12,20.219655079337223
2014,03,17.760034152337585
2014,11,46.33893264789257
2014,07,54.1352886525901
2014,02,20.685302167301742
2014,01,33.867919931322916
2014,08,28.200648578613382
2014,10,27.78361715387645
2014,05,23.70616733728591
2014,06,10.172725921819953
2011,09,12.268299810855979
2011,04,21.608840002656365
2011,12,335.24481527342203
2011,03,40.724527521639935
2011,11,50.1512292044763
2011,07,11.876919725480308
2011,02,15.505105443606858
2011,01,13.419632347325985
2011,08,50.51821678020654
2011,10,23.268554833307107
2011,05,58.59087070179419
2011,06,10.712643573501488
2001,08,2.7499135651873745
2008,09,15.012023068836369
2008,04,7.679447833810205
2008,12,6.511655622685807
2008,03,9.402033165792938
2008,11,4.367625867285129
2008,07,7.529194816148844
2008,02,23.28260017362172
2008,01,1470.8253538837605
2008,08,10.166965601036148
2008,10,15.224210705343616
2008,05,13.731134583723112
2008,06,41.85433268657943
2003,11,0.9456454370977457
2003,07,6.140206471642604e-05
2003,12,0.027899134856734713
2003,10,0.007828254537923705
2010,09,15.891491337038417
2010,04,104.23727503020227
2010,12,11.091121832783768
2010,03,43.303395634474136
2010,11,12.210829880190984
2010,07,15.34014735106146
2010,02,5.2545908646588355
2010,01,313.359530445208
2010,08,671.2779313558448
2010,10,15.611653826359227
2010,05,6.668678681332042
2010,06,18.463142298985797
2002,09,0.19048366133754074
2002,10,0.017930304338347577
2007,09,502.9320930830129
2007,04,10.09155211407201
2007,12,11.752220310134177
2007,03,17.396541290712154
2007,11,10.399567155997719
2007,07,141.82690041515522
2007,02,31.941396017376256
2007,01,10.327548718498617
2007,08,24.748571873555523
2007,10,76.3773142100687
2007,05,180.09732623200608
2007,06,14.105985886038699
2004,09,0.1863553249144857
2004,04,2.3444914432618376
2004,12,25.789618686249472
2004,03,0.8311586703778511
2004,11,3.0156683121316568
2004,07,3.871941881584166
2004,02,2.1394897892774543
2004,01,0.004300549944733669
2004,08,0.5689826892222496
2004,10,16.019127437655218
2004,05,2.2919337497999854
2004,06,0.048726681732034836
