year,month,influence
2009,09,12.076443704639352
2009,04,38.029293147045635
2009,12,22.70097826526098
2009,03,19.730664394419342
2009,11,35.601202592405514
2009,07,23.36989258121202
2009,02,15.460141446934372
2009,01,15.797233969832316
2009,08,19.789045965067324
2009,10,8.397797144609138
2009,05,9.879073570116494
2009,06,60.492295181001566
2012,09,52.61124332008155
2012,04,25.38502967861729
2012,12,9.05917717023155
2012,03,17.457270425088826
2012,11,8.403527927738775
2012,07,33.77723150040741
2012,02,13.195877912514208
2012,01,16.178875922886288
2012,08,100.18804904689087
2012,10,31.83713509340721
2012,05,13.061592479850823
2012,06,14.447400467548526
2006,09,226.4451503356761
2006,04,17.359643289435677
2006,12,13.201451307341767
2006,03,12.596054492121969
2006,11,9.868982860573983
2006,07,16.32311076599264
2006,02,6.073377461372928
2006,01,10.020017205919048
2006,08,39.895478554003176
2006,10,50.754133166258704
2006,05,33.04292683633572
2006,06,15.559265842778181
2015,09,122.2310826668999
2015,04,16.912995625424593
2015,12,31.918199933372364
2015,03,46012.97832642026
2015,11,13.658929536504262
2015,07,46.92455234991474
2015,02,49.78775607127324
2015,01,35.27615808520154
2015,08,48.0692250471587
2015,10,20.710009034455638
2015,05,13.846125174807623
2015,06,25.78599730627205
2005,09,3.6909575880786316
2005,04,36.01194741417519
2005,12,2.601148987464287
2005,03,104.81726544655523
2005,11,5.350027304067315
2005,07,3.1000106751616268
2005,02,0.07303712688563509
2005,01,0.4483348340720243
2005,08,6.583635771710828
2005,10,6.770440198573678
2005,05,8.76933874992406
2005,06,0.017396325170821625
2013,09,44.92530843423705
2013,04,38.92897571855943
2013,12,20.215996956991685
2013,03,38.54758796048893
2013,11,115.15969341173786
2013,07,18.105859133545575
2013,02,10.090240899176752
2013,01,18.34610749548096
2013,08,12.893380314001652
2013,10,215.83759081617873
2013,05,16.288030599584225
2013,06,4363.835477154307
2014,09,21.86986585242364
2014,04,29.866380184250175
2014,12,36.480800107839784
2014,03,25.858306773371964
2014,11,119.89752786793808
2014,07,160.36879336232272
2014,02,33.4275074418954
2014,01,41.741537913349944
2014,08,16.470161219117152
2014,10,77.31112909427058
2014,05,28.1540618517709
2014,06,56.48893025526368
2011,09,47.37164403539182
2011,04,62.34922581482398
2011,12,5.346649815319644
2011,03,24.802797583101228
2011,11,34.80269624299759
2011,07,10.215172098358776
2011,02,10.987986699981013
2011,01,22.02389036130151
2011,08,14.933737054685741
2011,10,22.887413741591484
2011,05,36.13779389400206
2011,06,18.675954088115045
2001,08,9.9478335732361
2008,09,43.525476498505114
2008,04,40.00882198533228
2008,12,20.626898133005255
2008,03,34.175191808694926
2008,11,92.99861615580295
2008,07,40.757035196721915
2008,02,74.26345210842966
2008,01,63.71857084310013
2008,08,37.40865052681879
2008,10,21.862481308303835
2008,05,49.06850788267627
2008,06,23.620982930240586
2003,11,1.4716131140693747
2003,07,0.0002291442353936556
2003,12,0.1923501661406617
2003,10,0.06201288916221112
2010,09,13.200583046885633
2010,04,10.09440572689451
2010,12,21.032195662690224
2010,03,45.48092339603659
2010,11,9.84945746609349
2010,07,15.143190500149915
2010,02,5.734950252841342
2010,01,15.646809114993477
2010,08,8.421107788668417
2010,10,22.80837892991199
2010,05,45.90218249291342
2010,06,19.03773127971909
2002,09,0.053226298574834796
2002,10,0.4213255897174294
2007,09,62.21729057320279
2007,04,10.558427721691013
2007,12,32.11741400239343
2007,03,33.53246615760835
2007,11,21.59331098250421
2007,07,38.44246753095332
2007,02,28.100547154641745
2007,01,21.659307240915652
2007,08,39.10817338926969
2007,10,253.0260557491802
2007,05,26.433798481852197
2007,06,23.988767928240822
2004,09,2.4648040043473314
2004,04,3.0675651904665044
2004,12,52.61906451647053
2004,03,1.0673755866457673
2004,11,0.19332381230927995
2004,07,3.8773535463637305
2004,02,1.7836513153975155
2004,01,0.017867692596946504
2004,08,3.237200424531556
2004,10,3.705466757178709
2004,05,0.5130092404724234
2004,06,0.18844441517153898
