year,month,influence
2009,09,23.465876318245662
2009,04,108.72491757132981
2009,12,36.4964568411888
2009,03,48.81025185881862
2009,11,17.481578271644253
2009,07,41.01060443293953
2009,02,31.42377753416944
2009,01,29.774482015081514
2009,08,164.80735271015877
2009,10,22.99836509516029
2009,05,14.217169758551913
2009,06,49.168362062906496
2012,09,47.03892302718663
2012,04,33.82887752147335
2012,12,22.724510350919587
2012,03,20.989571515467723
2012,11,36.79270992044483
2012,07,96.62763918900977
2012,02,18.43115160275083
2012,01,51.28712256143035
2012,08,47.31177670876289
2012,10,23.764362607144598
2012,05,19.81021848066959
2012,06,24.570472030212386
2006,09,22.215767166271096
2006,04,16.55561747080344
2006,12,8.062042188976314
2006,03,17.048442415538606
2006,11,13.97858184570233
2006,07,30.38309659342824
2006,02,16.152676255820943
2006,01,31.80700342528539
2006,08,22.73193507240829
2006,10,42.868535579922444
2006,05,312.86015279268383
2006,06,28.56860502777364
2015,09,143.27552791084767
2015,04,64.39609587373282
2015,12,7.6812822110758185
2015,03,53.319989526633194
2015,11,27.476553131026296
2015,07,138.6128713772321
2015,02,82.50892500934418
2015,01,38.62900717337328
2015,08,72.76036177169564
2015,10,36.4568666875986
2015,05,47.755368717925236
2015,06,93.34442359184543
2005,09,2.477935278555318
2005,04,3.5693605063235045
2005,12,3.215159218710243
2005,03,19.040916832416904
2005,11,2.864944440511597
2005,07,6.269246613097812
2005,02,0.38377427080106363
2005,01,0.43493991121895537
2005,08,6.253776012117649
2005,10,9.425776261764362
2005,05,12.063118437191468
2005,06,0.04569603273871087
2013,09,52.132760027665526
2013,04,62.3540973891175
2013,12,59.02585300254015
2013,03,24.62856751155997
2013,11,71.52426545816456
2013,07,22.48504976474122
2013,02,56.88378336459841
2013,01,26.11267490715833
2013,08,50.88520762174856
2013,10,106.24147044982757
2013,05,19.863143049241625
2013,06,74.68208432820533
2014,09,45.395258170386285
2014,04,79.41963436337574
2014,12,62.1141097582649
2014,03,35.52417038853399
2014,11,121.91567066707292
2014,07,115.08964140587437
2014,02,49.26210067872877
2014,01,110.96323103635287
2014,08,93.87208476780103
2014,10,132.88845932372982
2014,05,53.94800677910998
2014,06,41.669188479758674
2011,09,32.145806935906975
2011,04,92.71876451316146
2011,12,5.883026148523627
2011,03,58.93332634193309
2011,11,33.18639862205805
2011,07,61.63561982533154
2011,02,27.84655986247449
2011,01,316.55719268400105
2011,08,35.444099015895276
2011,10,30.476363537912384
2011,05,44.56899756757046
2011,06,29.67165640169367
2001,08,5.832589892329571
2008,09,18.243301692798056
2008,04,20.089812906198357
2008,12,39.151003502146196
2008,03,31.140750393647096
2008,11,4.9944466777606875
2008,07,45.54774863466045
2008,02,22.66840641700561
2008,01,67.53004538519865
2008,08,22.106090627975266
2008,10,98.51376667298675
2008,05,35.17680695289821
2008,06,33.21160769108113
2003,11,0.5439577309787005
2003,07,7.705538388907587e-05
2003,12,0.030616855942078053
2003,10,0.010526536794980923
2010,09,19.87550618121007
2010,04,17.288184865901425
2010,12,33.234102801104505
2010,03,46.900917934476254
2010,11,15.140033243250441
2010,07,20.245410959173753
2010,02,16.958471956761702
2010,01,11.427226055230767
2010,08,19.512936250042408
2010,10,29.7845743170071
2010,05,14.184147105226533
2010,06,26.294318378691482
2002,09,0.2555519635650737
2002,10,0.021835077019450474
2007,09,39.392104491599646
2007,04,23.736872906084283
2007,12,19.552530511076274
2007,03,27.949605209186178
2007,11,48.854408587684865
2007,07,65.44172340379811
2007,02,63.66341281453386
2007,01,24.33675145910629
2007,08,74.5012740692992
2007,10,46.80923680371819
2007,05,45.20210321797003
2007,06,36.27013987511458
2004,09,0.20782003799741053
2004,04,130.15780210855334
2004,12,34.87886326796645
2004,03,1.0315703270205034
2004,11,0.7005250193145096
2004,07,19.33462588403557
2004,02,18.736271830629196
2004,01,0.016754661961821068
2004,08,0.8034250087129897
2004,10,4.082671518009163
2004,05,11.723205221879155
2004,06,0.14022303714689627
