year,month,influence
2009,09,314.95793003272064
2009,04,9742.690537107157
2009,12,813.9482112406544
2009,03,4751.42599209494
2009,11,102.47282415042687
2009,07,630.360017822833
2009,02,538.7494262175029
2009,01,1264.1060218287798
2009,08,79.13126083235284
2009,10,139.24446352156014
2009,05,1235.3630145096706
2009,06,103.76829086579092
2012,09,1879.6001582767096
2012,04,1202.6581788687854
2012,12,56.45701436660294
2012,03,217.64090504435006
2012,11,46.719603920547
2012,07,420.7343994244109
2012,02,47.602650702156446
2012,01,329.91596971308036
2012,08,361.0755117490301
2012,10,115.89947004616239
2012,05,294.9914429916679
2012,06,196.30246431652424
2006,09,291.9877109866557
2006,04,41.05164542208441
2006,12,27.733615392549215
2006,03,145.28903818376276
2006,11,47.824364839287966
2006,07,372.5953547478029
2006,02,65.70752438609148
2006,01,1339.2770729152726
2006,08,84.36616186143247
2006,10,805.2695596512011
2006,05,222.50748955461657
2006,06,545.4581199814495
2015,09,1640.9819262762278
2015,04,328.2231806234437
2015,12,31.30222173251888
2015,03,288.7077255471494
2015,11,567.464890766995
2015,07,125.5889487668893
2015,02,2027.3014719988748
2015,01,732.2064309426361
2015,08,1106.3417748813954
2015,10,1162.0993305918125
2015,05,128.08697982887008
2015,06,247.76494707028394
2005,09,12.891793876796312
2005,04,7.353597361019132
2005,12,13.721385259467413
2005,03,149.10778132344143
2005,11,14.271984059507936
2005,07,31.941483105515267
2005,02,0.19243208677765242
2005,01,2.4489361326275434
2005,08,37.58272814953815
2005,10,56.32033950123467
2005,05,193.14046800358224
2005,06,1.495798608649305
2013,09,407.3800587179291
2013,04,2066.8892853238217
2013,12,3168.1328104385666
2013,03,29411.61253421972
2013,11,499.34608882025884
2013,07,198.39706221984196
2013,02,305.4288624021582
2013,01,123.78283336279237
2013,08,87.24120040342869
2013,10,1237.084266477585
2013,05,173.01850025015978
2013,06,700.0750727159294
2014,09,791.8241317498326
2014,04,999.8034019179752
2014,12,4591.322168619146
2014,03,289.44058738084175
2014,11,3939.2275990706266
2014,07,3229.8046170866282
2014,02,1253.755597788245
2014,01,2935.4246394068336
2014,08,520.5908770306585
2014,10,541.9062118330937
2014,05,469.3225298233387
2014,06,339.3969709331233
2011,09,221.2924161020111
2011,04,934.0832823166692
2011,12,26.46119549965114
2011,03,943.8031286140731
2011,11,207.60080566859244
2011,07,107.85848274603295
2011,02,161.26522384081258
2011,01,201.2135843263056
2011,08,510.23254555538495
2011,10,165.7648179282738
2011,05,269.23684925264365
2011,06,130.4958169677896
2001,08,27.150719348302292
2008,09,106.4766408556485
2008,04,169.31257843525975
2008,12,689.8972918007454
2008,03,390.4522071331914
2008,11,145.14601255518923
2008,07,154.92754985762335
2008,02,63.27601251482846
2008,01,556.1656242967322
2008,08,107.58419001811737
2008,10,148.38270743252855
2008,05,131.98054070268134
2008,06,115.67115868255402
2003,11,1.012295520633771
2003,07,9.624854476638061e-05
2003,12,0.04555292675700673
2003,10,0.014683699563732102
2010,09,214.67744713880057
2010,04,235.22900929283722
2010,12,1080.8982546548466
2010,03,289.4812281281695
2010,11,124.77643749003064
2010,07,279.24718637386013
2010,02,81.36173501031762
2010,01,19.910304334467696
2010,08,73.83004789325294
2010,10,254.16295748870274
2010,05,37.830399377182346
2010,06,73.04601334011888
2002,09,0.1494997590904738
2002,10,0.04889299607929407
2007,09,457.6700983192969
2007,04,252.5189792776138
2007,12,78.60901697109014
2007,03,217.760889386337
2007,11,199.06499150509558
2007,07,246.81533449561772
2007,02,2816.2789397233187
2007,01,82.77737029534238
2007,08,4392.537331801981
2007,10,403.4584498088036
2007,05,139.44204531552452
2007,06,367.8618190602298
2004,09,0.4843747188965738
2004,04,8.89474503627479
2004,12,168.1599168754195
2004,03,7.224518060742776
2004,11,0.6282733337240693
2004,07,12.059902707348336
2004,02,9.730396931629622
2004,01,0.037052066320395254
2004,08,1.8717298311615893
2004,10,4.669909707940003
2004,05,1.9180990378101133
2004,06,0.4142401395216124
