year,month,influence
2009,09,57.86032554516637
2009,04,163.6169291266776
2009,12,100.36035390720795
2009,03,75.43093390436752
2009,11,744.9081502126371
2009,07,88.37776948235182
2009,02,80.78624789926192
2009,01,63.8013372731646
2009,08,250.89667154238197
2009,10,25.352688349614
2009,05,21.730992912347606
2009,06,786.1876886548696
2012,09,305.9252528443113
2012,04,136.93211497042265
2012,12,49.504889545810364
2012,03,71.76899710709267
2012,11,47.36436030044673
2012,07,113.30674783805941
2012,02,61.895731568963505
2012,01,71.09460503607802
2012,08,298.5622390425089
2012,10,324.1507083784683
2012,05,98.1131465113857
2012,06,96.77558530705154
2006,09,112.18046331249003
2006,04,209.2618211691829
2006,12,83.84019206608512
2006,03,98.84469266841477
2006,11,28.959994751245514
2006,07,87.7472542997149
2006,02,48.59815897574807
2006,01,72.27450084296687
2006,08,99.94831388818558
2006,10,252.8713969182924
2006,05,474.4474847752719
2006,06,87.16777079811436
2015,09,1035.3785588602927
2015,04,503.9003601486009
2015,12,169.87288143873906
2015,03,427.8658686030213
2015,11,59.63574027896832
2015,07,123.45912566559622
2015,02,267.557917692984
2015,01,179.32780650702702
2015,08,227.91318903329253
2015,10,135.77065921548973
2015,05,63.080270233568044
2015,06,895.6456791850876
2005,09,36.417708559193734
2005,04,34.992460275983326
2005,12,18.307276276149885
2005,03,24.86289983303342
2005,11,21.544489888313777
2005,07,11.109197335653262
2005,02,0.11208047870622843
2005,01,1.6829267632089475
2005,08,51.922514577297534
2005,10,37.991399349816575
2005,05,52.566991512357816
2005,06,0.0697127559886204
2013,09,278.3446480022067
2013,04,148.2926273606639
2013,12,105.92610276217444
2013,03,32.34260575300337
2013,11,865.6511101787121
2013,07,2587.728052286327
2013,02,46.99196728459719
2013,01,492.06778158455637
2013,08,57.13464001650665
2013,10,413.0011578362454
2013,05,88.63305417093984
2013,06,100.34580642306386
2014,09,108.45364735845394
2014,04,328.2314251064699
2014,12,386.5091121958803
2014,03,190.17660930572234
2014,11,722.7634868337776
2014,07,403.835543975254
2014,02,1213.364458253649
2014,01,165.93720491725648
2014,08,67.35182668924696
2014,10,170.7714005738509
2014,05,182.19469204770553
2014,06,91.70759952632494
2011,09,715.773161738037
2011,04,254.8617989939994
2011,12,40.643119676414955
2011,03,103.78082009876472
2011,11,91.58113184812943
2011,07,67.6961180802402
2011,02,89.64196303101473
2011,01,144.37317180608204
2011,08,99.71004391208747
2011,10,204.53588939566052
2011,05,358.57558346177314
2011,06,148.6768289608723
2001,08,166.45480199482466
2008,09,776.7747284452995
2008,04,141.66319862294063
2008,12,80.18410709335068
2008,03,131.79915063912577
2008,11,28.68868181416984
2008,07,87.2854549958174
2008,02,275.6344516163749
2008,01,261.10821648538615
2008,08,108.29544429019943
2008,10,165.16478170297273
2008,05,282.13417091415977
2008,06,73.74535949938185
2003,11,1.3423692999338481
2003,07,0.00014347043901460088
2003,12,0.08231133813580956
2003,10,0.02704493989459186
2010,09,40.97286084126115
2010,04,61.353375271158264
2010,12,248.77978198512994
2010,03,194.5516604864903
2010,11,32.9701498849696
2010,07,54.8241944835262
2010,02,28.207022829254637
2010,01,19.28048292708667
2010,08,46.35331705279753
2010,10,125.69214260799096
2010,05,179.0736096413207
2010,06,76.03955917395301
2002,09,0.08318528341311912
2002,10,0.17213259189735464
2007,09,134.55187915157128
2007,04,66.0942947201075
2007,12,457.2165782799475
2007,03,426.6138098913808
2007,11,130.03038411390713
2007,07,61.374915870375915
2007,02,153.1407411780115
2007,01,190.3647012347005
2007,08,264.60034520770705
2007,10,412.0911965709361
2007,05,171.97501053196444
2007,06,123.5497020292529
2004,09,3.0159159511997515
2004,04,41.26004629611102
2004,12,330.9263427647447
2004,03,5.963317514470253
2004,11,0.30299129867451435
2004,07,23.749899917581175
2004,02,3.3859045312187064
2004,01,0.0983591447054198
2004,08,14.912996694128656
2004,10,5.001375302970547
2004,05,1.899706740840323
2004,06,2.4484163665991425
