Date,Value
2011-04-30,845000.0
2010-05-31,750000.0
2009-06-30,1100000.0
2008-08-31,298384.6154
2008-05-31,920000.0
2008-01-31,351153.8462
2007-10-31,960000.0
2007-04-30,995000.0
2006-08-31,872475.0
2006-07-31,954351.25
2006-06-30,978219.1176
2006-05-31,935134.6154
2006-03-31,800000.0
2005-08-31,782675.0
2005-07-31,816735.2941
2005-06-30,713500.0
2004-06-30,665400.0
2004-04-30,686000.0
2003-10-31,561250.0
2003-09-30,587650.0
2003-08-31,524235.2941
2003-07-31,466000.0
2003-03-31,430000.0
2002-10-31,475000.0
2002-06-30,549767.6471
2002-05-31,535150.0
2001-06-30,458508.8235
2001-05-31,434950.0
2000-04-30,820000.0
1999-07-31,462352.9412
1999-06-30,430000.0
1998-06-30,432076.9231
1998-03-31,265000.0
1997-08-31,348076.9231
1997-06-30,350000.0
1996-08-31,423955.7692
1996-06-30,420475.0
