Date,Value
2015-09-30,738500.0
2015-08-31,730300.0
2015-07-31,720500.0
2015-06-30,718200.0
2015-05-31,710900.0
2015-04-30,696200.0
2015-03-31,678800.0
2015-02-28,673800.0
2015-01-31,666500.0
2014-12-31,662600.0
2014-11-30,658200.0
2014-10-31,654900.0
2014-09-30,654500.0
2014-08-31,654700.0
2014-07-31,653900.0
2014-06-30,651500.0
2014-05-31,649800.0
2014-04-30,649900.0
2014-03-31,652200.0
2014-02-28,653700.0
2014-01-31,651300.0
2013-12-31,644900.0
2013-11-30,639900.0
2013-10-31,637200.0
2013-09-30,633400.0
2013-08-31,629300.0
2013-07-31,625100.0
2013-06-30,622000.0
2013-05-31,620200.0
2013-04-30,616600.0
2013-03-31,608400.0
2013-02-28,598200.0
2013-01-31,588600.0
2012-12-31,583500.0
2012-11-30,579600.0
2012-10-31,572900.0
2012-09-30,565000.0
2012-08-31,557900.0
2012-07-31,549200.0
2012-06-30,542300.0
2012-05-31,540100.0
2012-04-30,539700.0
2012-03-31,535300.0
2012-02-29,527500.0
2012-01-31,522800.0
2011-12-31,523500.0
2011-11-30,525200.0
2011-10-31,525000.0
2011-09-30,526100.0
2011-08-31,526700.0
2011-07-31,523800.0
2011-06-30,519800.0
2011-05-31,518700.0
2011-04-30,521100.0
2011-03-31,525800.0
2011-02-28,529900.0
2011-01-31,531900.0
2010-12-31,531400.0
2010-11-30,531100.0
2010-10-31,532800.0
2010-09-30,534800.0
2010-08-31,536000.0
2010-07-31,539000.0
2010-06-30,542700.0
2010-05-31,545100.0
2010-04-30,545700.0
2010-03-31,544900.0
2010-02-28,542600.0
2010-01-31,540800.0
2009-12-31,541300.0
2009-11-30,544500.0
2009-10-31,545100.0
2009-09-30,543000.0
2009-08-31,542500.0
2009-07-31,545900.0
2009-06-30,549400.0
2009-05-31,552000.0
2009-04-30,557500.0
2009-03-31,565900.0
2009-02-28,574900.0
2009-01-31,584600.0
2008-12-31,595300.0
2008-11-30,603800.0
2008-10-31,610100.0
2008-09-30,613300.0
2008-08-31,613900.0
2008-07-31,618900.0
2008-06-30,627400.0
2008-05-31,637300.0
2008-04-30,642600.0
2008-03-31,643600.0
2008-02-29,643900.0
2008-01-31,645600.0
2007-12-31,643800.0
2007-11-30,639100.0
2007-10-31,636700.0
2007-09-30,638100.0
2007-08-31,640800.0
2007-07-31,641400.0
2007-06-30,641200.0
2007-05-31,641000.0
2007-04-30,639000.0
2007-03-31,635100.0
2007-02-28,629800.0
2007-01-31,622400.0
2006-12-31,615400.0
2006-11-30,611900.0
2006-10-31,611700.0
2006-09-30,611500.0
2006-08-31,609600.0
2006-07-31,604700.0
2006-06-30,595300.0
2006-05-31,579800.0
2006-04-30,565600.0
2006-03-31,560900.0
2006-02-28,563000.0
2006-01-31,563000.0
2005-12-31,557500.0
2005-11-30,548600.0
2005-10-31,539000.0
2005-09-30,530800.0
2005-08-31,524400.0
2005-07-31,518300.0
2005-06-30,515300.0
2005-05-31,513500.0
2005-04-30,508800.0
2005-03-31,498400.0
2005-02-28,488200.0
2005-01-31,480100.0
2004-12-31,473900.0
2004-11-30,467100.0
2004-10-31,461700.0
2004-09-30,458000.0
2004-08-31,455000.0
2004-07-31,451000.0
2004-06-30,447200.0
2004-05-31,442400.0
2004-04-30,438800.0
2004-03-31,436800.0
2004-02-29,434100.0
2004-01-31,430000.0
2003-12-31,427400.0
2003-11-30,426000.0
2003-10-31,423400.0
2003-09-30,419200.0
2003-08-31,414900.0
2003-07-31,410300.0
2003-06-30,405100.0
2003-05-31,400300.0
2003-04-30,396700.0
2003-03-31,394000.0
2003-02-28,391400.0
2003-01-31,388500.0
2002-12-31,387200.0
2002-11-30,387000.0
2002-10-31,385900.0
2002-09-30,383000.0
2002-08-31,380100.0
2002-07-31,378100.0
2002-06-30,375800.0
2002-05-31,374600.0
2002-04-30,375100.0
2002-03-31,375300.0
2002-02-28,373800.0
2002-01-31,373800.0
2001-12-31,374600.0
2001-11-30,375200.0
2001-10-31,375100.0
2001-09-30,376000.0
2001-08-31,376400.0
2001-07-31,376400.0
2001-06-30,376300.0
2001-05-31,375400.0
2001-04-30,370500.0
2001-03-31,364700.0
2001-02-28,360200.0
2001-01-31,357400.0
2000-12-31,354700.0
2000-11-30,353200.0
2000-10-31,352600.0
2000-09-30,353300.0
2000-08-31,353800.0
2000-07-31,353500.0
2000-06-30,351100.0
2000-05-31,348200.0
2000-04-30,347700.0
2000-03-31,349100.0
2000-02-29,349300.0
2000-01-31,347600.0
1999-12-31,344700.0
1999-11-30,340500.0
1999-10-31,335100.0
1999-09-30,330100.0
1999-08-31,325600.0
1999-07-31,320900.0
1999-06-30,316500.0
1999-05-31,313500.0
1999-04-30,311600.0
1999-03-31,308800.0
1999-02-28,305300.0
1999-01-31,301600.0
1998-12-31,297200.0
1998-11-30,294100.0
1998-10-31,292300.0
1998-09-30,289600.0
1998-08-31,286000.0
1998-07-31,281800.0
1998-06-30,277700.0
1998-05-31,274900.0
1998-04-30,272000.0
1998-03-31,267100.0
1998-02-28,261900.0
1998-01-31,258100.0
1997-12-31,255600.0
1997-11-30,252800.0
1997-10-31,250300.0
1997-09-30,248600.0
1997-08-31,245600.0
1997-07-31,241900.0
1997-06-30,240700.0
1997-05-31,241200.0
1997-04-30,241700.0
1997-03-31,242600.0
1997-02-28,242700.0
1997-01-31,240700.0
1996-12-31,238100.0
1996-11-30,236000.0
1996-10-31,233400.0
1996-09-30,229500.0
1996-08-31,226700.0
1996-07-31,226300.0
1996-06-30,225900.0
1996-05-31,224200.0
1996-04-30,222500.0
