Date,Value
2015-02-28,349950.0
2015-01-31,339000.0
2014-12-31,349950.0
2014-11-30,365000.0
2014-10-31,349950.0
2014-09-30,369000.0
2014-08-31,375000.0
2014-07-31,339950.0
2014-06-30,364500.0
2014-05-31,345000.0
2014-04-30,329000.0
2014-03-31,335000.0
2014-02-28,265000.0
2014-01-31,258500.0
2013-12-31,258500.0
2013-11-30,269722.0
2013-10-31,325000.0
2013-09-30,284000.0
2013-08-31,335000.0
2013-07-31,275900.0
2013-06-30,332500.0
2013-05-31,329000.0
2013-04-30,332500.0
2013-03-31,325000.0
2013-02-28,332500.0
2013-01-31,299950.0
2012-12-31,290000.0
2012-11-30,267900.0
2012-10-31,279950.0
2012-09-30,279950.0
2012-08-31,275000.0
2012-07-31,249950.0
2012-06-30,235000.0
2012-05-31,229500.0
2012-04-30,235000.0
2012-03-31,199500.0
2012-02-29,199500.0
2012-01-31,199900.0
2011-12-31,214900.0
2011-11-30,237500.0
2011-10-31,237500.0
2011-09-30,249000.0
2011-08-31,254995.0
2011-07-31,260000.0
2011-06-30,255000.0
2011-05-31,255000.0
2011-04-30,250000.0
2011-03-31,258500.0
2011-02-28,249900.0
2011-01-31,255000.0
2010-12-31,275000.0
2010-11-30,279000.0
2010-10-31,284950.0
2010-09-30,288000.0
2010-08-31,285000.0
2010-07-31,295000.0
2010-06-30,299950.0
2010-05-31,299950.0
2010-04-30,315000.0
2010-03-31,314500.0
2010-02-28,269950.0
2010-01-31,265000.0
2009-12-31,265000.0
2009-11-30,280000.0
2009-10-31,305000.0
2009-09-30,298880.0
2009-08-31,305000.0
2009-07-31,325000.0
2009-06-30,314950.0
2009-05-31,314950.0
2009-04-30,300000.0
2009-03-31,298500.0
2009-02-28,298500.0
2009-01-31,309888.0
2008-12-31,319900.0
2008-11-30,324888.0
2008-10-31,319900.0
