Date,Value
2015-06-30,1617.0
2015-05-31,1599.0
2015-04-30,1875.0
2015-03-31,1595.0
2015-02-28,1795.0
2015-01-31,1595.0
2014-12-31,1600.0
2014-11-30,1595.0
2014-10-31,1750.0
2014-09-30,1495.0
2014-08-31,1650.0
2014-07-31,1450.0
2014-06-30,1395.0
2014-05-31,1300.0
2014-04-30,1495.0
2014-02-28,1250.0
2014-01-31,1235.0
2013-11-30,1350.0
2013-08-31,1202.0
2013-07-31,1175.0
2013-06-30,1269.0
2013-05-31,1095.0
2013-04-30,1195.0
2013-03-31,1195.0
2013-02-28,1220.0
2013-01-31,1324.0
2012-12-31,1295.0
2012-11-30,1195.0
2012-10-31,1260.0
2012-09-30,1275.0
2012-08-31,1100.0
2012-07-31,1100.0
2012-06-30,1195.0
2012-05-31,1100.0
2012-04-30,1095.0
2012-03-31,1100.0
2012-02-29,1095.0
2012-01-31,1245.0
2011-12-31,1250.0
2011-11-30,1365.0
2011-10-31,1343.0
2011-09-30,1150.0
2011-08-31,975.0
2011-05-31,1250.0
2011-04-30,750.0
