Date,Value
2015-06-30,1995.0
2015-05-31,1995.0
2015-04-30,2100.0
2015-03-31,2095.0
2015-02-28,1795.0
2014-11-30,2550.0
2014-09-30,1795.0
2014-08-31,1795.0
2014-06-30,1795.0
2014-05-31,1800.0
2014-03-31,1395.0
2014-02-28,2250.0
2014-01-31,2400.0
2013-06-30,1425.0
2013-05-31,1400.0
2013-02-28,1200.0
2013-01-31,1400.0
2012-12-31,1200.0
2012-08-31,1400.0
2012-06-30,1150.0
2012-05-31,1375.0
2012-02-29,865.0
2011-12-31,1875.0
2011-11-30,1995.0
2011-10-31,1875.0
2011-09-30,1875.0
2011-03-31,850.0
2011-02-28,850.0
2011-01-31,850.0
