Date,Value
2015-09-30,1.602
2015-08-31,1.608
2015-07-31,1.596
2015-06-30,1.574
2015-05-31,1.554
2015-04-30,1.536
2015-03-31,1.526
2015-02-28,1.518
2015-01-31,1.516
2014-12-31,1.512
2014-11-30,1.504
2014-10-31,1.496
2014-09-30,1.482
2014-08-31,1.464
2014-07-31,1.446
2014-06-30,1.426
2014-05-31,1.42
2014-04-30,1.418
2014-03-31,1.42
2014-02-28,1.414
2014-01-31,1.396
2013-12-31,1.386
2013-11-30,1.374
2013-10-31,1.366
2013-09-30,1.358
2013-08-31,1.346
2013-07-31,1.336
2013-06-30,1.324
2013-05-31,1.32
2013-04-30,1.314
2013-03-31,1.31
2013-02-28,1.302
2013-01-31,1.294
2012-12-31,1.284
2012-11-30,1.278
2012-10-31,1.28
2012-09-30,1.286
2012-08-31,1.29
2012-07-31,1.286
2012-06-30,1.288
2012-05-31,1.274
2012-04-30,1.256
2012-03-31,1.236
2012-02-29,1.236
2012-01-31,1.234
2011-12-31,1.226
2011-11-30,1.21
2011-10-31,1.192
2011-09-30,1.176
2011-08-31,1.17
2011-07-31,1.172
2011-06-30,1.17
2011-05-31,1.168
2011-04-30,1.164
2011-03-31,1.158
2011-02-28,1.14
2011-01-31,1.128
2010-12-31,1.124
2010-11-30,1.128
