Date,Value
2015-09-30,381941.1765
2015-08-31,449000.0
2015-05-31,365882.3529
2015-04-30,375000.0
2014-11-30,369000.0
2014-10-31,349250.0
2014-09-30,378850.0
2014-08-31,373875.0
2014-07-31,368558.8235
2014-06-30,338076.9231
2014-04-30,310000.0
2013-07-31,312176.4706
2013-06-30,251000.0
2012-10-31,278846.1538
2012-08-31,323076.9231
2012-06-30,283970.5882
2012-05-31,332500.0
2011-10-31,270000.0
2011-06-30,267500.0
2010-06-30,305661.7647
2010-05-31,313750.0
2009-11-30,323000.0
2009-07-31,279423.0769
2009-05-31,277500.0
2008-08-31,375000.0
2008-05-31,342588.2353
2008-04-30,349076.9231
2008-02-29,406000.0
2007-09-30,366050.0
2007-08-31,407200.0
2007-07-31,376250.0
2007-06-30,365550.0
2007-05-31,382700.0
2007-04-30,387050.0
2007-03-31,399442.5
2007-02-28,393475.0
2007-01-31,372457.5
2006-12-31,360825.0
2006-11-30,344400.0
2006-10-31,352975.0
2006-09-30,336675.0
2006-08-31,337450.0
2006-07-31,333650.0
2006-06-30,333892.5
2006-05-31,327075.0
2006-04-30,323479.4118
2006-03-31,317192.3077
2006-01-31,320750.0
2005-12-31,334000.0
2005-11-30,333500.0
2005-10-31,338000.0
2005-09-30,337054.0
2005-08-31,340126.0
2005-07-31,324930.0
2005-06-30,305750.0
2005-05-31,273400.0
2005-04-30,256600.0
2005-03-31,264550.0
2005-02-28,275550.0
2005-01-31,275400.0
2004-12-31,291500.0
2004-11-30,279750.0
2004-10-31,281750.0
2004-09-30,261525.0
2004-08-31,257425.0
2004-07-31,254550.0
2004-06-30,255275.0
2004-05-31,252367.5
2004-04-30,249382.5
2004-03-31,238147.0588
2004-02-29,227692.3077
2003-12-31,238292.5
2003-11-30,243282.5
2003-10-31,235717.5
2003-09-30,236382.5
2003-08-31,234425.0
2003-07-31,228500.0
2003-06-30,228500.0
2003-05-31,223192.5
2003-04-30,215038.2353
2003-03-31,213615.3846
2003-01-31,228025.0
2002-12-31,223975.0
2002-11-30,221470.5882
2002-10-31,237692.3077
2002-08-31,213715.0
2002-07-31,209725.0
2002-06-30,233733.5
2002-05-31,235611.5
2002-04-30,218732.5
2002-03-31,216737.5
2002-02-28,206475.0
2002-01-31,197125.0
2001-12-31,209110.0
2001-11-30,198715.0
2001-10-31,198600.0
2001-09-30,196100.0
2001-08-31,196750.0
2001-07-31,206292.5
2001-06-30,219432.5
2001-05-31,215975.0
2001-04-30,214411.7647
2001-03-31,186846.1538
2001-01-31,199775.0
2000-12-31,203700.0
2000-11-30,198675.0
2000-10-31,209375.0
2000-09-30,216950.0
2000-08-31,212300.0
2000-07-31,188100.0
2000-06-30,194900.0
2000-05-31,188235.2941
2000-04-30,180000.0
2000-01-31,181032.5
1999-12-31,178425.0
1999-11-30,172925.0
1999-10-31,177075.0
1999-09-30,194625.0
1999-08-31,192125.0
1999-07-31,173000.0
1999-06-30,157941.1765
1999-05-31,155000.0
1999-01-31,158600.0
1998-12-31,174875.0
1998-11-30,165308.5
1998-10-31,166660.5882
1998-09-30,165300.0
1998-07-31,163300.0
1998-06-30,165242.5
1998-05-31,160757.5
1998-04-30,146400.0
1998-03-31,144470.5882
1998-02-28,153000.0
1997-11-30,133005.0
1997-10-31,144050.0
1997-09-30,139750.0
1997-08-31,139100.0
1997-07-31,128200.0
1997-06-30,137058.8235
1997-05-31,136000.0
1997-03-31,150132.5
1997-02-28,141817.5
1997-01-31,134685.2941
1996-12-31,135115.3846
1996-10-31,123335.0
1996-09-30,128664.7059
1996-08-31,133000.0
1996-06-30,125375.0
1996-05-31,122300.75
1996-04-30,125384.4118
