Date,Value
2015-06-30,1995.0
2015-05-31,1750.0
2015-02-28,1700.0
2014-10-31,1350.0
2014-09-30,1450.0
2014-08-31,1600.0
2014-07-31,2500.0
2014-06-30,2500.0
2014-01-31,1350.0
2013-12-31,1975.0
2013-11-30,1600.0
2013-10-31,1450.0
2013-06-30,2350.0
2013-05-31,1600.0
2012-05-31,1200.0
