Date,Value
2015-06-30,2799.0
2015-05-31,2837.0
2015-04-30,2776.0
2015-03-31,2750.0
2015-02-28,2695.0
2015-01-31,2507.0
2014-12-31,2419.0
2014-11-30,2539.0
2014-10-31,2500.0
2014-09-30,2272.0
2014-08-31,2100.0
2014-07-31,2100.0
2014-06-30,2250.0
2014-05-31,2590.0
2014-04-30,2200.0
2014-03-31,2450.0
2014-02-28,2291.0
2014-01-31,2100.0
2013-12-31,2100.0
2013-11-30,2100.0
2013-10-31,2100.0
2013-09-30,2200.0
2013-08-31,1703.0
2013-07-31,1695.0
2013-06-30,1850.0
2013-05-31,1708.0
2013-04-30,2295.0
2013-03-31,2125.0
2013-02-28,2285.0
2013-01-31,2245.0
2012-12-31,2330.0
2012-11-30,2263.0
2012-10-31,1895.0
2012-09-30,1675.0
2012-08-31,1700.0
2012-07-31,1850.0
2012-06-30,1959.0
2012-05-31,1975.0
2012-04-30,2178.0
2012-03-31,2170.0
2012-02-29,2250.0
2012-01-31,2499.0
2011-12-31,2483.0
2011-11-30,2452.0
2011-10-31,2100.0
2011-09-30,2356.0
2011-08-31,2250.0
2011-07-31,2195.0
2011-06-30,1922.0
2011-05-31,2092.0
2011-04-30,1700.0
2011-03-31,1875.0
2011-02-28,1700.0
2011-01-31,1599.0
2010-12-31,1550.0
2010-11-30,2100.0
2010-10-31,2100.0
2010-09-30,2133.0
2010-08-31,2133.0
