Date,Value
2015-02-28,375000.0
2015-01-31,289000.0
2014-12-31,337500.0
2014-11-30,290000.0
2014-10-31,290000.0
2014-09-30,275000.0
2014-08-31,289500.0
2014-07-31,290000.0
2014-06-30,359000.0
2014-05-31,369000.0
2014-04-30,339950.0
2014-03-31,339950.0
2014-02-28,375000.0
2014-01-31,479000.0
2013-12-31,599000.0
2013-11-30,440000.0
2013-10-31,415000.0
2013-09-30,359000.0
2013-08-31,347000.0
2013-07-31,319500.0
2013-06-30,299950.0
2013-05-31,289500.0
2013-04-30,325000.0
2013-03-31,329000.0
2013-02-28,319950.0
2013-01-31,325000.0
2012-12-31,325000.0
2012-11-30,339000.0
2012-10-31,299950.0
2012-09-30,314950.0
2012-08-31,325000.0
2012-07-31,314950.0
2012-06-30,339000.0
2012-05-31,325000.0
2012-04-30,299990.0
2012-03-31,275000.0
2012-02-29,330000.0
2012-01-31,235000.0
2011-12-31,215950.0
2011-11-30,234950.0
2011-10-31,215950.0
2011-09-30,260000.0
2011-08-31,225000.0
2011-07-31,215000.0
2011-06-30,212950.0
2011-05-31,212950.0
2011-04-30,225000.0
2011-03-31,210950.0
2011-02-28,212950.0
2011-01-31,225000.0
2010-12-31,244950.0
2010-11-30,279900.0
2010-10-31,283000.0
2010-09-30,284950.0
2010-08-31,299990.0
2010-07-31,295000.0
2010-06-30,296500.0
2010-05-31,309000.0
2010-04-30,325000.0
2010-03-31,309000.0
2010-02-28,319000.0
2010-01-31,295000.0
2009-12-31,299950.0
2009-11-30,299000.0
2009-10-31,310000.0
2009-09-30,330000.0
2009-08-31,317000.0
2009-07-31,279950.0
2009-06-30,299000.0
2009-05-31,311000.0
2009-04-30,279950.0
2009-03-31,299000.0
2009-02-28,335500.0
2009-01-31,309000.0
2008-12-31,311000.0
2008-11-30,339000.0
2008-10-31,321000.0
