Date,Value
2015-09-30,344800.0
2015-08-31,349100.0
2015-07-31,346400.0
2015-06-30,343300.0
2015-05-31,331100.0
2015-04-30,319100.0
2015-03-31,309600.0
2015-02-28,306500.0
2015-01-31,300900.0
2014-12-31,298200.0
2014-11-30,295300.0
2014-10-31,293700.0
2014-09-30,293000.0
2014-08-31,292800.0
2014-07-31,293800.0
2014-06-30,294400.0
2014-05-31,294700.0
2014-04-30,294900.0
2014-03-31,294500.0
2014-02-28,293300.0
2014-01-31,289500.0
2013-12-31,284800.0
2013-11-30,283000.0
2013-10-31,282100.0
2013-09-30,278800.0
2013-08-31,274600.0
2013-07-31,269100.0
2013-06-30,263700.0
2013-05-31,260500.0
2013-04-30,258500.0
2013-03-31,254700.0
2013-02-28,250000.0
2013-01-31,246200.0
2012-12-31,243700.0
2012-11-30,239500.0
2012-10-31,234500.0
2012-09-30,232200.0
2012-08-31,233400.0
2012-07-31,235300.0
2012-06-30,235800.0
2012-05-31,234200.0
2012-04-30,232300.0
2012-03-31,231700.0
2012-02-29,232700.0
2012-01-31,235100.0
2011-12-31,238300.0
2011-11-30,240700.0
2011-10-31,243000.0
2011-09-30,245200.0
2011-08-31,247600.0
2011-07-31,250000.0
2011-06-30,251700.0
2011-05-31,251800.0
2011-04-30,255000.0
2011-03-31,262200.0
2011-02-28,269300.0
2011-01-31,273600.0
2010-12-31,277100.0
2010-11-30,281700.0
2010-10-31,286600.0
2010-09-30,290200.0
2010-08-31,292200.0
2010-07-31,294100.0
2010-06-30,296800.0
2010-05-31,301600.0
2010-04-30,302100.0
2010-03-31,298000.0
2010-02-28,294700.0
2010-01-31,294300.0
2009-12-31,293500.0
2009-11-30,293100.0
2009-10-31,292500.0
2009-09-30,292400.0
2009-08-31,293200.0
2009-07-31,295400.0
2009-06-30,297800.0
2009-05-31,299000.0
2009-04-30,300800.0
2009-03-31,304900.0
2009-02-28,310100.0
2009-01-31,314400.0
2008-12-31,318400.0
2008-11-30,322900.0
2008-10-31,327900.0
2008-09-30,331100.0
2008-08-31,331700.0
2008-07-31,331900.0
2008-06-30,334400.0
2008-05-31,338500.0
2008-04-30,342100.0
2008-03-31,345000.0
2008-02-29,346600.0
2008-01-31,348000.0
2007-12-31,349600.0
2007-11-30,351700.0
2007-10-31,354400.0
2007-09-30,357500.0
2007-08-31,359300.0
2007-07-31,359400.0
2007-06-30,358100.0
2007-05-31,356700.0
2007-04-30,356700.0
2007-03-31,356400.0
2007-02-28,355300.0
2007-01-31,353900.0
2006-12-31,353100.0
2006-11-30,351100.0
2006-10-31,348400.0
2006-09-30,345000.0
2006-08-31,341800.0
2006-07-31,339400.0
2006-06-30,336300.0
2006-05-31,331300.0
2006-04-30,326000.0
2006-03-31,321200.0
2006-02-28,315900.0
2006-01-31,311200.0
2005-12-31,306900.0
2005-11-30,302200.0
2005-10-31,295700.0
2005-09-30,289200.0
2005-08-31,284100.0
2005-07-31,280800.0
2005-06-30,277700.0
2005-05-31,275500.0
2005-04-30,273000.0
2005-03-31,269900.0
2005-02-28,268500.0
2005-01-31,266900.0
2004-12-31,263500.0
2004-11-30,258900.0
2004-10-31,255400.0
2004-09-30,254300.0
2004-08-31,254200.0
2004-07-31,253600.0
2004-06-30,251700.0
2004-05-31,248400.0
2004-04-30,244800.0
2004-03-31,242300.0
2004-02-29,239900.0
2004-01-31,238200.0
2003-12-31,237500.0
2003-11-30,237000.0
2003-10-31,237000.0
2003-09-30,236900.0
2003-08-31,236000.0
2003-07-31,233000.0
2003-06-30,231000.0
2003-05-31,231500.0
2003-04-30,232800.0
2003-03-31,231600.0
2003-02-28,229100.0
2003-01-31,227400.0
2002-12-31,227600.0
2002-11-30,226900.0
2002-10-31,224300.0
2002-09-30,222400.0
2002-08-31,222100.0
2002-07-31,221700.0
2002-06-30,222500.0
2002-05-31,223200.0
2002-04-30,223000.0
2002-03-31,222500.0
2002-02-28,220900.0
2002-01-31,218500.0
2001-12-31,217300.0
2001-11-30,218700.0
2001-10-31,220600.0
2001-09-30,221000.0
2001-08-31,219500.0
2001-07-31,218100.0
2001-06-30,215500.0
2001-05-31,212700.0
2001-04-30,210200.0
2001-03-31,208800.0
2001-02-28,208300.0
2001-01-31,207900.0
2000-12-31,206000.0
2000-11-30,204300.0
2000-10-31,203900.0
2000-09-30,202100.0
2000-08-31,198200.0
2000-07-31,194000.0
2000-06-30,190700.0
2000-05-31,187200.0
2000-04-30,183700.0
2000-03-31,182200.0
2000-02-29,182500.0
2000-01-31,181400.0
1999-12-31,179100.0
1999-11-30,177100.0
1999-10-31,175700.0
1999-09-30,175200.0
1999-08-31,175300.0
1999-07-31,176000.0
1999-06-30,176600.0
1999-05-31,175200.0
1999-04-30,174000.0
1999-03-31,172500.0
1999-02-28,169400.0
1999-01-31,167100.0
1998-12-31,165200.0
1998-11-30,162800.0
1998-10-31,160700.0
1998-09-30,158700.0
1998-08-31,156700.0
1998-07-31,155200.0
1998-06-30,153700.0
1998-05-31,153100.0
1998-04-30,153000.0
1998-03-31,152600.0
1998-02-28,152600.0
1998-01-31,152200.0
1997-12-31,150800.0
1997-11-30,147900.0
1997-10-31,144800.0
1997-09-30,142100.0
1997-08-31,140700.0
1997-07-31,139500.0
1997-06-30,138100.0
1997-05-31,136900.0
1997-04-30,135400.0
1997-03-31,133400.0
1997-02-28,132200.0
1997-01-31,131600.0
1996-12-31,131100.0
1996-11-30,130800.0
1996-10-31,130900.0
1996-09-30,131400.0
1996-08-31,132200.0
1996-07-31,133200.0
1996-06-30,134100.0
1996-05-31,135600.0
1996-04-30,137900.0
