Date,Value
2015-09-30,1.734
2015-08-31,1.756
2015-07-31,1.744
2015-06-30,1.736
2015-05-31,1.728
2015-04-30,1.714
2015-03-31,1.69
2015-02-28,1.668
2015-01-31,1.65
2014-12-31,1.636
2014-11-30,1.624
2014-10-31,1.62
2014-09-30,1.616
2014-08-31,1.61
2014-07-31,1.598
2014-06-30,1.58
2014-05-31,1.568
2014-04-30,1.552
2014-03-31,1.542
2014-02-28,1.534
2014-01-31,1.524
2013-12-31,1.516
2013-11-30,1.504
2013-10-31,1.494
2013-09-30,1.482
2013-08-31,1.466
2013-07-31,1.456
2013-06-30,1.454
2013-05-31,1.46
2013-04-30,1.462
2013-03-31,1.45
2013-02-28,1.434
2013-01-31,1.418
2012-12-31,1.41
2012-11-30,1.41
2012-10-31,1.418
2012-09-30,1.418
2012-08-31,1.422
2012-07-31,1.416
2012-06-30,1.416
2012-05-31,1.396
2012-04-30,1.382
2012-03-31,1.368
2012-02-29,1.366
2012-01-31,1.358
2011-12-31,1.344
2011-11-30,1.326
2011-10-31,1.308
2011-09-30,1.286
2011-08-31,1.272
2011-07-31,1.268
2011-06-30,1.256
2011-05-31,1.254
2011-04-30,1.248
2011-03-31,1.25
2011-02-28,1.244
2011-01-31,1.238
2010-12-31,1.236
2010-11-30,1.238
