Date,Value
2015-09-30,1.69
2015-08-31,1.688
2015-07-31,1.676
2015-06-30,1.662
2015-05-31,1.656
2015-04-30,1.642
2015-03-31,1.626
2015-02-28,1.604
2015-01-31,1.584
2014-12-31,1.57
2014-11-30,1.562
2014-10-31,1.556
2014-09-30,1.546
2014-08-31,1.53
2014-07-31,1.506
2014-06-30,1.48
2014-05-31,1.458
2014-04-30,1.442
2014-03-31,1.428
2014-02-28,1.418
2014-01-31,1.41
2013-12-31,1.406
2013-11-30,1.39
2013-10-31,1.372
2013-09-30,1.362
2013-08-31,1.36
2013-07-31,1.36
2013-06-30,1.364
2013-05-31,1.37
2013-04-30,1.374
2013-03-31,1.37
2013-02-28,1.36
2013-01-31,1.344
2012-12-31,1.33
2012-11-30,1.32
2012-10-31,1.32
2012-09-30,1.32
2012-08-31,1.312
2012-07-31,1.306
2012-06-30,1.302
2012-05-31,1.298
2012-04-30,1.286
2012-03-31,1.278
2012-02-29,1.278
2012-01-31,1.266
2011-12-31,1.256
2011-11-30,1.244
2011-10-31,1.234
2011-09-30,1.218
2011-08-31,1.21
2011-07-31,1.208
2011-06-30,1.196
2011-05-31,1.184
2011-04-30,1.172
2011-03-31,1.164
2011-02-28,1.15
2011-01-31,1.15
2010-12-31,1.144
2010-11-30,1.148
