Date,Value
2015-09-30,875000.0
2013-05-31,705000.0
2011-06-30,699000.0
2010-06-30,725000.0
2007-08-31,573261.5385
2007-06-30,678115.3846
2007-04-30,657500.0
2006-07-31,627307.6923
2006-05-31,666538.4615
2006-03-31,574379.5294
2006-02-28,558181.5385
2005-12-31,649552.5
2005-11-30,673676.4706
2005-10-31,803000.0
2005-07-31,616032.5
2005-06-30,649617.6471
2005-05-31,542000.0
2004-11-30,466622.0
2004-08-31,560225.0
2004-07-31,559445.0
2004-06-30,517955.0
2004-05-31,464588.2353
2004-04-30,405000.0
2003-12-31,552500.0
2003-10-31,499750.0
2003-09-30,472058.8235
2003-08-31,515769.2308
2003-06-30,460226.9231
2003-04-30,377650.0
2002-10-31,423500.0
2002-07-31,485000.0
2002-04-30,472823.5294
2002-03-31,484000.0
2001-08-31,405000.0
2000-11-30,373650.0
2000-09-30,432000.0
2000-05-31,419000.0
1999-07-31,520000.0
1999-03-31,375000.0
1998-12-31,365000.0
1998-09-30,345932.6923
1998-07-31,340455.8824
1998-06-30,352000.0
1997-10-31,283725.0
1997-09-30,279176.4706
1997-08-31,288000.0
1997-05-31,285000.0
1996-11-30,335000.0
1996-08-31,262500.0
1996-05-31,295000.0
1996-04-30,245000.0
