Date,Value
2015-09-30,1.252
2015-08-31,1.226
2015-07-31,1.208
2015-06-30,1.198
2015-05-31,1.192
2015-04-30,1.18
2015-03-31,1.158
2015-02-28,1.134
2015-01-31,1.12
2014-12-31,1.118
2014-11-30,1.118
2014-10-31,1.122
2014-09-30,1.118
2014-08-31,1.114
2014-07-31,1.114
2014-06-30,1.114
2014-05-31,1.112
2014-04-30,1.108
2014-03-31,1.104
2014-02-28,1.104
2014-01-31,1.096
2013-12-31,1.086
2013-11-30,1.062
2013-10-31,1.04
2013-09-30,1.02
2013-08-31,1.01
2013-07-31,1.006
2013-06-30,1.004
2013-05-31,1.0
2013-04-30,0.994
2013-03-31,0.982
2013-02-28,0.972
2013-01-31,0.966
2012-12-31,0.964
2012-11-30,0.964
2012-10-31,0.974
2012-09-30,0.984
2012-08-31,0.978
2012-07-31,0.97
2012-06-30,0.96
2012-05-31,0.962
2012-04-30,0.97
2012-03-31,0.98
2012-02-29,0.986
2012-01-31,0.986
2011-12-31,0.98
2011-11-30,0.974
2011-10-31,0.978
2011-09-30,0.976
2011-08-31,0.98
2011-07-31,0.982
2011-06-30,0.98
2011-05-31,0.97
2011-04-30,0.96
2011-03-31,0.956
2011-02-28,0.946
2011-01-31,0.95
2010-12-31,0.956
2010-11-30,0.968
