Date,Value
2015-02-28,557000.0
2015-01-31,511950.0
2014-12-31,609850.0
2014-11-30,599950.0
2014-10-31,569950.0
2014-09-30,519000.0
2014-08-31,395000.0
2014-07-31,599950.0
2014-06-30,605000.0
2014-05-31,598000.0
2014-04-30,505000.0
2014-03-31,497000.0
2014-02-28,399000.0
2014-01-31,399000.0
2013-12-31,569000.0
2013-11-30,510000.0
2013-10-31,579000.0
2013-09-30,519950.0
2013-08-31,534950.0
2013-07-31,539000.0
2013-06-30,520000.0
2013-05-31,499000.0
2013-04-30,499000.0
2013-03-31,499000.0
2013-02-28,475000.0
2013-01-31,629000.0
2012-12-31,545000.0
2012-11-30,499997.0
2012-10-31,499950.0
2012-09-30,525000.0
2012-08-31,474950.0
2012-07-31,498950.0
2012-06-30,510000.0
2012-05-31,499000.0
2012-04-30,519000.0
2012-03-31,462800.0
2012-02-29,495000.0
2012-01-31,495000.0
2011-12-31,485000.0
2011-11-30,489900.0
2011-10-31,492500.0
2011-09-30,485000.0
2011-08-31,499950.0
2011-07-31,485000.0
2011-06-30,499950.0
2011-05-31,485000.0
2011-04-30,420000.0
2011-03-31,420000.0
2011-02-28,420000.0
2011-01-31,420000.0
2010-12-31,455000.0
2010-11-30,449950.0
2010-10-31,459950.0
2010-09-30,469000.0
2010-08-31,485000.0
2010-07-31,489000.0
2010-06-30,499000.0
2010-05-31,499000.0
2010-04-30,550000.0
2010-03-31,579000.0
2010-02-28,550000.0
2010-01-31,579900.0
2009-12-31,567000.0
2009-11-30,549999.0
2009-10-31,550000.0
2009-09-30,550000.0
2009-08-31,564900.0
2009-07-31,550000.0
2009-06-30,550000.0
2009-05-31,589950.0
2009-04-30,549000.0
2009-03-31,549950.0
2009-02-28,549000.0
2009-01-31,535000.0
2008-12-31,499950.0
2008-11-30,529950.0
2008-10-31,525000.0
