Date,Value
2015-02-28,399000.0
2015-01-31,379900.0
2014-12-31,317000.0
2014-11-30,379900.0
2014-10-31,379900.0
2014-09-30,395000.0
2014-08-31,355000.0
2014-07-31,500000.0
2014-06-30,399000.0
2014-05-31,399950.0
2014-04-30,360000.0
2014-03-31,395950.0
2014-02-28,395000.0
2014-01-31,307950.0
2013-12-31,369000.0
2013-11-30,395950.0
2013-10-31,395950.0
2013-09-30,395950.0
2013-08-31,349950.0
2013-07-31,324999.0
2013-06-30,324999.0
2013-05-31,299950.0
2013-04-30,285000.0
2013-03-31,282880.0
2013-02-28,279900.0
2013-01-31,279900.0
2012-12-31,309500.0
2012-11-30,525000.0
2012-10-31,295000.0
2012-09-30,309500.0
2012-08-31,225000.0
2012-07-31,335000.0
2012-06-30,295000.0
2012-05-31,299950.0
2012-04-30,285000.0
2012-03-31,220000.0
2012-02-29,250000.0
2012-01-31,250000.0
2011-12-31,253800.0
2011-11-30,250000.0
2011-10-31,259950.0
2011-09-30,259950.0
2011-08-31,299000.0
2011-07-31,269950.0
2011-06-30,249950.0
2011-05-31,299900.0
2011-04-30,299950.0
2011-03-31,269000.0
2011-02-28,269000.0
2011-01-31,250000.0
2010-12-31,269000.0
2010-11-30,264950.0
2010-10-31,319900.0
2010-09-30,290900.0
2010-08-31,299950.0
2010-07-31,269950.0
2010-06-30,274950.0
2010-05-31,349888.0
2010-04-30,350000.0
2010-03-31,319900.0
2010-02-28,339900.0
2010-01-31,339900.0
2009-12-31,384000.0
2009-11-30,359000.0
2009-10-31,339900.0
2009-09-30,369500.0
2009-08-31,449500.0
2009-07-31,589950.0
2009-06-30,574500.0
2009-05-31,574500.0
2009-04-30,599950.0
2009-03-31,499950.0
2009-02-28,579000.0
2009-01-31,649950.0
2008-12-31,599950.0
2008-11-30,649950.0
2008-10-31,595000.0
