Date,Value
2015-09-30,328100.0
2015-08-31,319800.0
2015-07-31,313700.0
2015-06-30,314400.0
2015-05-31,314300.0
2015-04-30,309400.0
2015-03-31,301900.0
2015-02-28,300000.0
2015-01-31,298900.0
2014-12-31,298400.0
2014-11-30,296600.0
2014-10-31,295800.0
2014-09-30,296900.0
2014-08-31,296000.0
2014-07-31,293500.0
2014-06-30,292100.0
2014-05-31,290500.0
2014-04-30,288600.0
2014-03-31,287900.0
2014-02-28,287200.0
2014-01-31,287400.0
2013-12-31,288200.0
2013-11-30,287900.0
2013-10-31,283400.0
2013-09-30,275900.0
2013-08-31,268400.0
2013-07-31,262900.0
2013-06-30,258600.0
2013-05-31,256800.0
2013-04-30,256500.0
2013-03-31,255200.0
2013-02-28,253600.0
2013-01-31,251200.0
2012-12-31,248500.0
2012-11-30,247200.0
2012-10-31,246900.0
2012-09-30,246700.0
2012-08-31,248200.0
2012-07-31,249800.0
2012-06-30,251000.0
2012-05-31,251200.0
2012-04-30,249100.0
2012-03-31,245800.0
2012-02-29,245200.0
2012-01-31,246100.0
2011-12-31,246500.0
2011-11-30,246100.0
2011-10-31,245900.0
2011-09-30,245900.0
2011-08-31,245700.0
2011-07-31,244800.0
2011-06-30,243500.0
2011-05-31,243600.0
2011-04-30,247200.0
2011-03-31,256000.0
2011-02-28,265000.0
2011-01-31,267200.0
2010-12-31,265100.0
2010-11-30,265000.0
2010-10-31,268800.0
2010-09-30,276900.0
2010-08-31,283700.0
2010-07-31,287800.0
2010-06-30,291500.0
2010-05-31,294000.0
2010-04-30,293800.0
2010-03-31,292400.0
2010-02-28,291000.0
2010-01-31,292300.0
2009-12-31,294900.0
2009-11-30,295500.0
2009-10-31,293600.0
2009-09-30,291800.0
2009-08-31,291900.0
2009-07-31,291900.0
2009-06-30,290700.0
2009-05-31,291800.0
2009-04-30,295500.0
2009-03-31,297600.0
2009-02-28,299000.0
2009-01-31,300800.0
2008-12-31,303500.0
2008-11-30,310100.0
2008-10-31,317600.0
2008-09-30,319800.0
2008-08-31,320600.0
2008-07-31,326000.0
2008-06-30,332600.0
2008-05-31,338500.0
2008-04-30,342500.0
2008-03-31,343900.0
2008-02-29,343400.0
2008-01-31,344000.0
2007-12-31,345700.0
2007-11-30,346300.0
2007-10-31,347700.0
2007-09-30,349100.0
2007-08-31,348400.0
2007-07-31,347200.0
2007-06-30,347900.0
2007-05-31,347200.0
2007-04-30,345000.0
2007-03-31,344200.0
2007-02-28,343700.0
2007-01-31,343000.0
2006-12-31,343600.0
2006-11-30,343500.0
2006-10-31,340400.0
2006-09-30,337800.0
2006-08-31,338300.0
2006-07-31,337600.0
2006-06-30,333400.0
2006-05-31,326300.0
2006-04-30,319500.0
2006-03-31,314600.0
2006-02-28,311200.0
2006-01-31,307700.0
2005-12-31,303700.0
2005-11-30,298200.0
2005-10-31,294000.0
2005-09-30,292500.0
2005-08-31,290800.0
2005-07-31,286400.0
2005-06-30,281700.0
2005-05-31,277800.0
2005-04-30,274400.0
2005-03-31,270400.0
2005-02-28,267800.0
2005-01-31,266400.0
2004-12-31,265400.0
2004-11-30,264000.0
2004-10-31,261400.0
2004-09-30,257200.0
2004-08-31,252700.0
2004-07-31,249900.0
2004-06-30,249400.0
2004-05-31,249900.0
2004-04-30,249700.0
2004-03-31,248600.0
2004-02-29,246000.0
2004-01-31,243000.0
2003-12-31,240100.0
2003-11-30,238400.0
2003-10-31,237800.0
2003-09-30,237200.0
2003-08-31,236400.0
2003-07-31,236200.0
2003-06-30,234300.0
2003-05-31,232200.0
2003-04-30,231200.0
2003-03-31,230000.0
2003-02-28,227900.0
2003-01-31,225700.0
2002-12-31,224100.0
2002-11-30,223600.0
2002-10-31,223800.0
2002-09-30,224000.0
2002-08-31,223900.0
2002-07-31,225000.0
2002-06-30,227300.0
2002-05-31,227800.0
2002-04-30,226200.0
2002-03-31,226200.0
2002-02-28,226700.0
2002-01-31,226000.0
2001-12-31,225100.0
2001-11-30,224100.0
2001-10-31,222600.0
2001-09-30,221500.0
2001-08-31,221700.0
2001-07-31,220700.0
2001-06-30,218700.0
2001-05-31,218300.0
2001-04-30,219900.0
2001-03-31,221400.0
2001-02-28,223400.0
2001-01-31,224200.0
2000-12-31,222900.0
2000-11-30,220800.0
2000-10-31,217600.0
2000-09-30,213200.0
2000-08-31,208400.0
2000-07-31,204600.0
2000-06-30,203400.0
2000-05-31,204300.0
2000-04-30,203600.0
2000-03-31,201400.0
2000-02-29,199400.0
2000-01-31,197900.0
1999-12-31,196100.0
1999-11-30,193600.0
1999-10-31,189000.0
1999-09-30,185500.0
1999-08-31,185200.0
1999-07-31,184700.0
1999-06-30,182000.0
1999-05-31,180000.0
1999-04-30,179900.0
1999-03-31,181100.0
1999-02-28,181700.0
1999-01-31,180300.0
1998-12-31,178400.0
1998-11-30,178600.0
1998-10-31,179400.0
1998-09-30,179200.0
1998-08-31,178000.0
1998-07-31,174700.0
1998-06-30,170400.0
1998-05-31,166800.0
1998-04-30,163900.0
1998-03-31,160300.0
1998-02-28,157700.0
1998-01-31,157600.0
1997-12-31,156700.0
1997-11-30,154500.0
1997-10-31,154900.0
1997-09-30,157900.0
1997-08-31,157800.0
1997-07-31,157000.0
1997-06-30,156100.0
1997-05-31,153400.0
1997-04-30,149900.0
1997-03-31,148000.0
1997-02-28,145900.0
1997-01-31,144300.0
1996-12-31,144300.0
1996-11-30,145200.0
1996-10-31,145500.0
1996-09-30,144800.0
1996-08-31,143200.0
1996-07-31,143100.0
1996-06-30,144800.0
1996-05-31,145600.0
1996-04-30,146100.0
