Date,Value
2015-09-30,2.556
2015-08-31,2.53
2015-07-31,2.506
2015-06-30,2.478
2015-05-31,2.462
2015-04-30,2.45
2015-03-31,2.442
2015-02-28,2.43
2015-01-31,2.424
2014-12-31,2.418
2014-11-30,2.416
2014-10-31,2.416
2014-09-30,2.428
2014-08-31,2.43
2014-07-31,2.412
2014-06-30,2.39
2014-05-31,2.37
2014-04-30,2.36
2014-03-31,2.346
2014-02-28,2.338
2014-01-31,2.324
2013-12-31,2.306
2013-11-30,2.276
2013-10-31,2.242
2013-09-30,2.218
2013-08-31,2.204
2013-07-31,2.188
2013-06-30,2.184
2013-05-31,2.188
2013-04-30,2.19
2013-03-31,2.184
2013-02-28,2.17
2013-01-31,2.158
2012-12-31,2.146
2012-11-30,2.142
2012-10-31,2.134
2012-09-30,2.126
2012-08-31,2.116
2012-07-31,2.104
2012-06-30,2.092
2012-05-31,2.072
2012-04-30,2.05
2012-03-31,2.044
2012-02-29,2.048
2012-01-31,2.062
2011-12-31,2.06
2011-11-30,2.054
2011-10-31,2.018
2011-09-30,1.99
2011-08-31,1.968
2011-07-31,1.966
2011-06-30,1.96
2011-05-31,1.95
2011-04-30,1.934
2011-03-31,1.912
2011-02-28,1.88
2011-01-31,1.852
2010-12-31,1.83
2010-11-30,1.812
