Date,Value
2015-09-30,387900.0
2015-08-31,380900.0
2015-07-31,371600.0
2015-06-30,372300.0
2015-05-31,372100.0
2015-04-30,365100.0
2015-03-31,353300.0
2015-02-28,350700.0
2015-01-31,347800.0
2014-12-31,347100.0
2014-11-30,345300.0
2014-10-31,343700.0
2014-09-30,344000.0
2014-08-31,344600.0
2014-07-31,344400.0
2014-06-30,345300.0
2014-05-31,345800.0
2014-04-30,346000.0
2014-03-31,347400.0
2014-02-28,347900.0
2014-01-31,344400.0
2013-12-31,337900.0
2013-11-30,330600.0
2013-10-31,323900.0
2013-09-30,318400.0
2013-08-31,314900.0
2013-07-31,310400.0
2013-06-30,304000.0
2013-05-31,296300.0
2013-04-30,289900.0
2013-03-31,283800.0
2013-02-28,278200.0
2013-01-31,273400.0
2012-12-31,271000.0
2012-11-30,269700.0
2012-10-31,268500.0
2012-09-30,267800.0
2012-08-31,266900.0
2012-07-31,264600.0
2012-06-30,258500.0
2012-05-31,251000.0
2012-04-30,246100.0
2012-03-31,243700.0
2012-02-29,242100.0
2012-01-31,241900.0
2011-12-31,242300.0
2011-11-30,242900.0
2011-10-31,244100.0
2011-09-30,245500.0
2011-08-31,247100.0
2011-07-31,250100.0
2011-06-30,254600.0
2011-05-31,259500.0
2011-04-30,264000.0
2011-03-31,267700.0
2011-02-28,271200.0
2011-01-31,274600.0
2010-12-31,278600.0
2010-11-30,283200.0
2010-10-31,288200.0
2010-09-30,292300.0
2010-08-31,296000.0
2010-07-31,300100.0
2010-06-30,304100.0
2010-05-31,306600.0
2010-04-30,306800.0
2010-03-31,307400.0
2010-02-28,309200.0
2010-01-31,310100.0
2009-12-31,308800.0
2009-11-30,306400.0
2009-10-31,303200.0
2009-09-30,299700.0
2009-08-31,297000.0
2009-07-31,295400.0
2009-06-30,295900.0
2009-05-31,297600.0
2009-04-30,300000.0
2009-03-31,303500.0
2009-02-28,307200.0
2009-01-31,309700.0
2008-12-31,311700.0
2008-11-30,315200.0
2008-10-31,320100.0
2008-09-30,324800.0
2008-08-31,328200.0
2008-07-31,331400.0
2008-06-30,335200.0
2008-05-31,339600.0
2008-04-30,343000.0
2008-03-31,345800.0
2008-02-29,348200.0
2008-01-31,350700.0
2007-12-31,353200.0
2007-11-30,355700.0
2007-10-31,356400.0
2007-09-30,355600.0
2007-08-31,354700.0
2007-07-31,353900.0
2007-06-30,353700.0
2007-05-31,355200.0
2007-04-30,357500.0
2007-03-31,356900.0
2007-02-28,353800.0
2007-01-31,351400.0
2006-12-31,350300.0
2006-11-30,348300.0
2006-10-31,344900.0
2006-09-30,341100.0
2006-08-31,336600.0
2006-07-31,331800.0
2006-06-30,326900.0
2006-05-31,322800.0
2006-04-30,320100.0
2006-03-31,317700.0
2006-02-28,314600.0
2006-01-31,311900.0
2005-12-31,308400.0
2005-11-30,303600.0
2005-10-31,299800.0
2005-09-30,296900.0
2005-08-31,293000.0
2005-07-31,288300.0
2005-06-30,283700.0
2005-05-31,279200.0
2005-04-30,273700.0
2005-03-31,266800.0
2005-02-28,260700.0
2005-01-31,256500.0
2004-12-31,253700.0
2004-11-30,252100.0
2004-10-31,250900.0
2004-09-30,250100.0
2004-08-31,250000.0
2004-07-31,249100.0
2004-06-30,246200.0
2004-05-31,241300.0
2004-04-30,236500.0
2004-03-31,234100.0
2004-02-29,233400.0
2004-01-31,232100.0
2003-12-31,230700.0
2003-11-30,229300.0
2003-10-31,227700.0
2003-09-30,226200.0
2003-08-31,225500.0
2003-07-31,225600.0
2003-06-30,226500.0
2003-05-31,227200.0
2003-04-30,227500.0
2003-03-31,227300.0
2003-02-28,226800.0
2003-01-31,225300.0
2002-12-31,223100.0
2002-11-30,220700.0
2002-10-31,218300.0
2002-09-30,216000.0
2002-08-31,214300.0
2002-07-31,213300.0
2002-06-30,212700.0
2002-05-31,212000.0
2002-04-30,210700.0
2002-03-31,209200.0
2002-02-28,207900.0
2002-01-31,207000.0
2001-12-31,206300.0
2001-11-30,206000.0
2001-10-31,206000.0
2001-09-30,205900.0
2001-08-31,205200.0
2001-07-31,203900.0
2001-06-30,202500.0
2001-05-31,201000.0
2001-04-30,200400.0
2001-03-31,200000.0
2001-02-28,199100.0
2001-01-31,197700.0
2000-12-31,195900.0
2000-11-30,192700.0
2000-10-31,189400.0
2000-09-30,187900.0
2000-08-31,186500.0
2000-07-31,183400.0
2000-06-30,180600.0
2000-05-31,179500.0
2000-04-30,179000.0
2000-03-31,177800.0
2000-02-29,175800.0
2000-01-31,173700.0
1999-12-31,171400.0
1999-11-30,169100.0
1999-10-31,166400.0
1999-09-30,163500.0
1999-08-31,160900.0
1999-07-31,159400.0
1999-06-30,158100.0
1999-05-31,156900.0
1999-04-30,155800.0
1999-03-31,154500.0
1999-02-28,152900.0
1999-01-31,151800.0
1998-12-31,150900.0
1998-11-30,150600.0
1998-10-31,150300.0
1998-09-30,149400.0
1998-08-31,147700.0
1998-07-31,145300.0
1998-06-30,142000.0
1998-05-31,138800.0
1998-04-30,135900.0
1998-03-31,134100.0
1998-02-28,133100.0
1998-01-31,131800.0
1997-12-31,131400.0
1997-11-30,131500.0
1997-10-31,130900.0
1997-09-30,129300.0
1997-08-31,127300.0
1997-07-31,126000.0
1997-06-30,125200.0
1997-05-31,123700.0
1997-04-30,121100.0
1997-03-31,118700.0
1997-02-28,117200.0
1997-01-31,116100.0
1996-12-31,114400.0
1996-11-30,113000.0
1996-10-31,112600.0
1996-09-30,112700.0
1996-08-31,113100.0
1996-07-31,114300.0
1996-06-30,115700.0
1996-05-31,117000.0
1996-04-30,118600.0
