Date,Value
2015-06-30,1750.0
2015-05-31,1795.0
2015-04-30,1575.0
2015-03-31,1575.0
2015-02-28,1550.0
2015-01-31,1550.0
2014-12-31,1525.0
2014-11-30,1600.0
2014-10-31,1900.0
2014-09-30,1695.0
2014-08-31,1450.0
2014-07-31,1750.0
2014-06-30,1995.0
2014-05-31,1895.0
2014-03-31,1495.0
2014-02-28,1295.0
2014-01-31,1495.0
2013-12-31,1695.0
2013-11-30,1550.0
2013-10-31,1800.0
2013-09-30,1350.0
2013-08-31,1300.0
2013-07-31,1395.0
2013-06-30,1449.0
2013-05-31,1560.0
2013-04-30,1340.0
2013-03-31,1750.0
2013-02-28,1355.0
2013-01-31,1355.0
2012-12-31,1200.0
2012-11-30,1175.0
2012-10-31,1350.0
2012-09-30,1195.0
2012-08-31,1095.0
2012-07-31,1500.0
2012-06-30,1100.0
2012-05-31,1095.0
2012-04-30,1450.0
2012-03-31,1395.0
2012-02-29,1195.0
2012-01-31,1095.0
2011-12-31,1195.0
2011-11-30,1150.0
2011-10-31,1495.0
2011-09-30,1475.0
2011-08-31,1495.0
2011-07-31,1595.0
2011-06-30,995.0
2011-05-31,1350.0
2011-03-31,950.0
2011-02-28,825.0
2011-01-31,915.0
2010-12-31,1395.0
