Date,Value
2015-02-28,459000.0
2015-01-31,459000.0
2014-12-31,399000.0
2014-11-30,440000.0
2014-10-31,425000.0
2014-09-30,430000.0
2014-08-31,440000.0
2014-07-31,490000.0
2014-06-30,474900.0
2014-05-31,435000.0
2014-04-30,435000.0
2014-03-31,435000.0
2014-02-28,415000.0
2014-01-31,415000.0
2013-12-31,425000.0
2013-11-30,425000.0
2013-10-31,435000.0
2013-09-30,435000.0
2013-08-31,435000.0
2013-07-31,449500.0
2013-06-30,440000.0
2013-05-31,419000.0
2013-04-30,379950.0
2013-03-31,369999.0
2013-02-28,369000.0
2013-01-31,368000.0
2012-12-31,349950.0
2012-11-30,399000.0
2012-10-31,399950.0
2012-09-30,399000.0
2012-08-31,409950.0
2012-07-31,410000.0
2012-06-30,359950.0
2012-05-31,349950.0
2012-04-30,349950.0
2012-03-31,299950.0
2012-02-29,299500.0
2012-01-31,299950.0
2011-12-31,319950.0
2011-11-30,319950.0
2011-10-31,325000.0
2011-09-30,325000.0
2011-08-31,314500.0
2011-07-31,325000.0
2011-06-30,349000.0
2011-05-31,349950.0
2011-04-30,354950.0
2011-03-31,320000.0
2011-02-28,319000.0
2011-01-31,329900.0
2010-12-31,340000.0
2010-11-30,344950.0
2010-10-31,354950.0
2010-09-30,355000.0
2010-08-31,364950.0
2010-07-31,369000.0
2010-06-30,369900.0
2010-05-31,359000.0
2010-04-30,359950.0
2010-03-31,359000.0
2010-02-28,354950.0
2010-01-31,364950.0
2009-12-31,365000.0
2009-11-30,364950.0
2009-10-31,397500.0
2009-09-30,365000.0
2009-08-31,384950.0
2009-07-31,399950.0
2009-06-30,399950.0
2009-05-31,399950.0
2009-04-30,434000.0
2009-03-31,435000.0
2009-02-28,439500.0
2009-01-31,399900.0
2008-12-31,435000.0
2008-11-30,399900.0
2008-10-31,449900.0
