Date,Value
2015-09-30,606300.0
2015-08-31,603700.0
2015-07-31,600700.0
2015-06-30,604800.0
2015-05-31,602200.0
2015-04-30,591900.0
2015-03-31,583500.0
2015-02-28,579100.0
2015-01-31,573400.0
2014-12-31,574000.0
2014-11-30,571600.0
2014-10-31,563900.0
2014-09-30,558900.0
2014-08-31,556800.0
2014-07-31,554100.0
2014-06-30,549600.0
2014-05-31,545500.0
2014-04-30,538400.0
2014-03-31,530400.0
2014-02-28,524400.0
2014-01-31,521700.0
2013-12-31,519500.0
2013-11-30,517100.0
2013-10-31,516600.0
2013-09-30,517800.0
2013-08-31,519100.0
2013-07-31,520200.0
2013-06-30,518800.0
2013-05-31,513500.0
2013-04-30,505900.0
2013-03-31,500000.0
2013-02-28,496900.0
2013-01-31,494600.0
2012-12-31,490400.0
2012-11-30,484600.0
2012-10-31,479000.0
2012-09-30,476200.0
2012-08-31,475800.0
2012-07-31,472800.0
2012-06-30,467400.0
2012-05-31,463100.0
2012-04-30,462300.0
2012-03-31,460900.0
2012-02-29,459700.0
2012-01-31,459000.0
2011-12-31,459400.0
2011-11-30,457600.0
2011-10-31,454500.0
2011-09-30,449600.0
2011-08-31,447200.0
2011-07-31,449000.0
2011-06-30,455100.0
2011-05-31,460700.0
2011-04-30,465000.0
2011-03-31,465500.0
2011-02-28,463700.0
2011-01-31,463600.0
2010-12-31,466800.0
2010-11-30,470400.0
2010-10-31,472700.0
2010-09-30,472100.0
2010-08-31,468800.0
2010-07-31,467000.0
2010-06-30,469800.0
2010-05-31,474000.0
2010-04-30,478500.0
2010-03-31,487800.0
2010-02-28,499600.0
2010-01-31,506000.0
2009-12-31,507700.0
2009-11-30,509700.0
2009-10-31,513700.0
2009-09-30,519700.0
2009-08-31,523400.0
2009-07-31,522500.0
2009-06-30,520000.0
2009-05-31,518500.0
2009-04-30,517400.0
2009-03-31,519500.0
2009-02-28,524200.0
2009-01-31,527700.0
2008-12-31,529700.0
2008-11-30,532200.0
2008-10-31,534100.0
2008-09-30,535100.0
2008-08-31,536300.0
2008-07-31,537900.0
2008-06-30,538600.0
2008-05-31,538100.0
2008-04-30,536600.0
2008-03-31,536800.0
2008-02-29,537500.0
2008-01-31,538900.0
2007-12-31,542600.0
2007-11-30,547900.0
2007-10-31,549100.0
2007-09-30,546300.0
2007-08-31,544000.0
2007-07-31,546900.0
2007-06-30,552200.0
2007-05-31,556300.0
2007-04-30,557500.0
2007-03-31,553400.0
2007-02-28,546600.0
2007-01-31,539500.0
2006-12-31,531700.0
2006-11-30,523100.0
2006-10-31,514700.0
2006-09-30,507800.0
2006-08-31,502000.0
2006-07-31,496300.0
2006-06-30,491500.0
2006-05-31,491300.0
2006-04-30,491200.0
2006-03-31,485100.0
2006-02-28,473500.0
2006-01-31,464100.0
2005-12-31,454400.0
2005-11-30,449100.0
2005-10-31,450200.0
2005-09-30,450200.0
2005-08-31,443900.0
2005-07-31,434600.0
2005-06-30,423700.0
2005-05-31,413900.0
2005-04-30,406500.0
2005-03-31,400800.0
2005-02-28,397400.0
2005-01-31,392400.0
2004-12-31,386600.0
2004-11-30,379400.0
2004-10-31,372500.0
2004-09-30,368200.0
2004-08-31,368400.0
2004-07-31,368000.0
2004-06-30,365100.0
2004-05-31,359300.0
2004-04-30,354900.0
2004-03-31,351500.0
2004-02-29,348400.0
2004-01-31,346800.0
2003-12-31,347300.0
2003-11-30,347600.0
2003-10-31,346800.0
2003-09-30,346100.0
2003-08-31,345500.0
2003-07-31,346900.0
2003-06-30,348300.0
2003-05-31,348300.0
2003-04-30,347800.0
2003-03-31,350100.0
2003-02-28,353300.0
2003-01-31,355600.0
2002-12-31,357500.0
2002-11-30,359000.0
2002-10-31,358400.0
2002-09-30,357600.0
2002-08-31,356600.0
2002-07-31,352300.0
2002-06-30,347800.0
2002-05-31,347400.0
2002-04-30,348300.0
2002-03-31,347000.0
2002-02-28,346100.0
2002-01-31,347300.0
2001-12-31,349100.0
2001-11-30,348800.0
2001-10-31,349000.0
2001-09-30,349400.0
2001-08-31,349300.0
2001-07-31,349700.0
2001-06-30,350500.0
2001-05-31,345800.0
2001-04-30,338000.0
2001-03-31,333800.0
2001-02-28,332300.0
2001-01-31,330300.0
2000-12-31,328300.0
2000-11-30,326800.0
2000-10-31,323200.0
2000-09-30,319900.0
2000-08-31,318000.0
2000-07-31,317100.0
2000-06-30,316700.0
2000-05-31,316000.0
2000-04-30,313300.0
2000-03-31,309400.0
2000-02-29,302000.0
2000-01-31,291800.0
1999-12-31,282200.0
1999-11-30,274100.0
1999-10-31,268900.0
1999-09-30,267300.0
1999-08-31,266300.0
1999-07-31,263900.0
1999-06-30,261700.0
1999-05-31,259800.0
1999-04-30,260600.0
1999-03-31,263100.0
1999-02-28,264700.0
1999-01-31,264900.0
1998-12-31,263700.0
1998-11-30,262400.0
1998-10-31,259900.0
1998-09-30,256600.0
1998-08-31,252200.0
1998-07-31,248400.0
1998-06-30,244700.0
1998-05-31,242500.0
1998-04-30,240300.0
1998-03-31,238400.0
1998-02-28,236400.0
1998-01-31,233500.0
1997-12-31,231900.0
1997-11-30,232400.0
1997-10-31,231600.0
1997-09-30,227400.0
1997-08-31,222100.0
1997-07-31,217700.0
1997-06-30,214900.0
1997-05-31,212900.0
1997-04-30,211700.0
1997-03-31,209300.0
1997-02-28,206800.0
1997-01-31,205300.0
1996-12-31,204000.0
1996-11-30,202100.0
1996-10-31,200600.0
1996-09-30,198900.0
1996-08-31,197100.0
1996-07-31,196200.0
1996-06-30,195500.0
1996-05-31,195500.0
1996-04-30,194100.0
