Date,Value
2015-09-30,1.488
2015-08-31,1.434
2015-07-31,1.388
2015-06-30,1.376
2015-05-31,1.362
2015-04-30,1.346
2015-03-31,1.33
2015-02-28,1.322
2015-01-31,1.32
2014-12-31,1.314
2014-11-30,1.308
2014-10-31,1.31
2014-09-30,1.302
2014-08-31,1.294
2014-07-31,1.28
2014-06-30,1.266
2014-05-31,1.254
2014-04-30,1.236
2014-03-31,1.228
2014-02-28,1.222
2014-01-31,1.22
2013-12-31,1.22
2013-11-30,1.22
2013-10-31,1.22
2013-09-30,1.218
2013-08-31,1.214
2013-07-31,1.208
2013-06-30,1.2
2013-05-31,1.198
2013-04-30,1.198
2013-03-31,1.196
2013-02-28,1.188
2013-01-31,1.176
2012-12-31,1.166
2012-11-30,1.156
2012-10-31,1.156
2012-09-30,1.158
2012-08-31,1.158
2012-07-31,1.16
2012-06-30,1.164
2012-05-31,1.16
2012-04-30,1.15
2012-03-31,1.138
2012-02-29,1.134
2012-01-31,1.128
2011-12-31,1.116
2011-11-30,1.1
2011-10-31,1.082
2011-09-30,1.066
2011-08-31,1.058
2011-07-31,1.056
2011-06-30,1.052
2011-05-31,1.05
2011-04-30,1.056
2011-03-31,1.058
2011-02-28,1.052
2011-01-31,1.05
2010-12-31,1.05
2010-11-30,1.052
