Date,Value
2015-09-30,1201200.0
2015-08-31,1198300.0
2015-07-31,1199300.0
2015-06-30,1201600.0
2015-05-31,1199100.0
2015-04-30,1180100.0
2015-03-31,1138800.0
2015-02-28,1114600.0
2015-01-31,1091900.0
2014-12-31,1089300.0
2014-11-30,1081300.0
2014-10-31,1070300.0
2014-09-30,1061600.0
2014-08-31,1054500.0
2014-07-31,1050000.0
2014-06-30,1050000.0
2014-05-31,1051700.0
2014-04-30,1053000.0
2014-03-31,1051000.0
2014-02-28,1046000.0
2014-01-31,1041600.0
2013-12-31,1038200.0
2013-11-30,1033300.0
2013-10-31,1023000.0
2013-09-30,1009400.0
2013-08-31,995500.0
2013-07-31,980800.0
2013-06-30,963800.0
2013-05-31,943700.0
2013-04-30,921500.0
2013-03-31,905000.0
2013-02-28,895100.0
2013-01-31,885600.0
2012-12-31,877700.0
2012-11-30,873000.0
2012-10-31,870500.0
2012-09-30,869800.0
2012-08-31,871700.0
2012-07-31,870700.0
2012-06-30,865000.0
2012-05-31,856500.0
2012-04-30,850400.0
2012-03-31,845400.0
2012-02-29,839100.0
2012-01-31,834100.0
2011-12-31,831600.0
2011-11-30,828600.0
2011-10-31,822700.0
2011-09-30,815100.0
2011-08-31,807000.0
2011-07-31,803600.0
2011-06-30,802600.0
2011-05-31,803000.0
2011-04-30,804700.0
2011-03-31,807700.0
2011-02-28,810600.0
2011-01-31,815800.0
2010-12-31,822200.0
2010-11-30,829300.0
2010-10-31,834100.0
2010-09-30,835800.0
2010-08-31,837900.0
2010-07-31,842400.0
2010-06-30,845800.0
2010-05-31,850000.0
2010-04-30,855400.0
2010-03-31,859200.0
2010-02-28,860000.0
2010-01-31,860300.0
2009-12-31,860100.0
2009-11-30,858500.0
2009-10-31,860500.0
2009-09-30,869100.0
2009-08-31,876700.0
2009-07-31,880500.0
2009-06-30,886300.0
2009-05-31,892900.0
2009-04-30,898400.0
2009-03-31,907100.0
2009-02-28,917100.0
2009-01-31,923700.0
2008-12-31,929100.0
2008-11-30,937100.0
2008-10-31,946700.0
2008-09-30,954800.0
2008-08-31,962600.0
2008-07-31,972400.0
2008-06-30,982800.0
2008-05-31,992500.0
2008-04-30,1002800.0
2008-03-31,1012900.0
2008-02-29,1021600.0
2008-01-31,1031900.0
2007-12-31,1041600.0
2007-11-30,1045400.0
2007-10-31,1047600.0
2007-09-30,1053700.0
2007-08-31,1061400.0
2007-07-31,1068200.0
2007-06-30,1073800.0
2007-05-31,1072600.0
2007-04-30,1065800.0
2007-03-31,1057800.0
2007-02-28,1051100.0
2007-01-31,1041400.0
2006-12-31,1031200.0
2006-11-30,1023800.0
2006-10-31,1019900.0
2006-09-30,1010700.0
2006-08-31,998100.0
2006-07-31,985300.0
2006-06-30,973700.0
2006-05-31,962600.0
2006-04-30,952100.0
2006-03-31,942000.0
2006-02-28,932400.0
2006-01-31,924100.0
2005-12-31,915600.0
2005-11-30,906600.0
2005-10-31,895900.0
2005-09-30,886300.0
2005-08-31,879900.0
2005-07-31,867200.0
2005-06-30,850300.0
2005-05-31,839500.0
2005-04-30,834100.0
2005-03-31,824200.0
2005-02-28,814800.0
2005-01-31,805600.0
2004-12-31,795700.0
2004-11-30,787700.0
2004-10-31,780700.0
2004-09-30,772900.0
2004-08-31,765500.0
2004-07-31,760400.0
2004-06-30,756500.0
2004-05-31,751200.0
2004-04-30,744200.0
2004-03-31,738400.0
2004-02-29,732000.0
2004-01-31,723000.0
2003-12-31,715600.0
2003-11-30,709300.0
2003-10-31,702200.0
2003-09-30,695100.0
2003-08-31,690400.0
2003-07-31,690800.0
2003-06-30,697900.0
2003-05-31,708100.0
2003-04-30,711400.0
2003-03-31,706500.0
2003-02-28,698400.0
2003-01-31,689200.0
2002-12-31,681100.0
2002-11-30,680400.0
2002-10-31,685600.0
2002-09-30,688200.0
2002-08-31,684500.0
2002-07-31,678900.0
2002-06-30,671200.0
2002-05-31,657100.0
2002-04-30,644600.0
2002-03-31,642600.0
2002-02-28,646300.0
2002-01-31,652700.0
2001-12-31,659200.0
2001-11-30,658100.0
2001-10-31,649700.0
2001-09-30,642100.0
2001-08-31,636500.0
2001-07-31,630400.0
2001-06-30,624300.0
2001-05-31,622700.0
2001-04-30,625600.0
2001-03-31,628800.0
2001-02-28,630700.0
2001-01-31,634800.0
2000-12-31,637400.0
2000-11-30,636200.0
2000-10-31,634600.0
2000-09-30,634800.0
2000-08-31,632400.0
2000-07-31,630400.0
2000-06-30,623500.0
2000-05-31,611900.0
2000-04-30,600300.0
2000-03-31,592000.0
2000-02-29,580400.0
2000-01-31,566600.0
1999-12-31,553400.0
1999-11-30,544000.0
1999-10-31,535200.0
1999-09-30,528400.0
1999-08-31,525700.0
1999-07-31,524900.0
1999-06-30,524200.0
1999-05-31,523600.0
1999-04-30,519900.0
1999-03-31,511500.0
1999-02-28,505400.0
1999-01-31,500400.0
1998-12-31,493800.0
1998-11-30,487100.0
1998-10-31,482400.0
1998-09-30,477700.0
1998-08-31,472400.0
1998-07-31,461600.0
1998-06-30,448700.0
1998-05-31,442100.0
1998-04-30,441700.0
1998-03-31,441000.0
1998-02-28,438300.0
1998-01-31,437000.0
1997-12-31,437200.0
1997-11-30,435100.0
1997-10-31,430800.0
1997-09-30,426600.0
1997-08-31,421700.0
1997-07-31,415500.0
1997-06-30,409000.0
1997-05-31,402200.0
1997-04-30,396600.0
1997-03-31,391800.0
1997-02-28,386800.0
1997-01-31,381400.0
1996-12-31,377200.0
1996-11-30,373700.0
1996-10-31,370600.0
1996-09-30,367400.0
1996-08-31,364000.0
1996-07-31,362600.0
1996-06-30,365300.0
1996-05-31,366800.0
1996-04-30,364400.0
