Date,Value
2015-07-31,452675.0
2015-06-30,423647.0588
2015-05-31,441000.0
2014-12-31,374250.0
2014-10-31,358653.8462
2014-08-31,370000.0
2012-08-31,343500.0
2010-04-30,374888.0
2009-10-31,365500.0
2007-08-31,428423.0769
2007-06-30,394400.0
2007-05-31,394242.5
2007-04-30,380907.5
2007-03-31,385647.0588
2007-02-28,379500.0
2006-07-31,373323.5294
2006-06-30,315746.1538
2006-04-30,351461.5385
2006-02-28,290000.0
2005-09-30,338500.0
2005-08-31,292350.0
2005-07-31,297337.5
2005-06-30,309437.5
2005-05-31,289475.0
2005-04-30,294142.5
2005-03-31,285975.0
2005-02-28,284257.5
2005-01-31,253147.0588
2004-12-31,209615.3846
2004-10-31,335000.0
2004-07-31,293157.5
2004-06-30,293400.0
2004-05-31,294705.8824
2004-04-30,297576.9231
2004-02-29,242846.1538
2003-12-31,287147.0588
2003-11-30,334500.0
2003-08-31,245250.0
2003-07-31,253750.0
2003-06-30,267750.0
2003-05-31,259992.5
2003-04-30,264391.1765
2003-03-31,234950.0
2002-06-30,241962.5
2002-05-31,254852.9412
2002-04-30,265000.0
2001-09-30,207058.8235
2001-08-31,189615.3846
2001-06-30,205000.0
2001-03-31,185500.0
2000-08-31,255000.0
2000-04-30,226000.0
1999-07-31,196220.5882
1999-06-30,207230.7692
1999-04-30,188235.2941
1999-03-31,185000.0
1998-09-30,182500.0
1997-08-31,160000.0
1997-05-31,160000.0
