Date,Value
2015-02-28,599000.0
2015-01-31,739900.0
2014-12-31,599000.0
2014-11-30,599000.0
2014-10-31,555000.0
2014-09-30,564000.0
2014-08-31,550000.0
2014-07-31,599900.0
2014-06-30,565000.0
2014-05-31,599000.0
2014-04-30,725000.0
2014-03-31,599000.0
2014-02-28,520000.0
2014-01-31,520000.0
2013-12-31,415000.0
2013-11-30,450000.0
2013-10-31,405000.0
2013-09-30,450000.0
2013-08-31,468000.0
2013-07-31,475000.0
2013-06-30,499000.0
2013-05-31,499000.0
2013-04-30,499950.0
2013-03-31,575000.0
2013-02-28,565000.0
2013-01-31,565000.0
2012-12-31,399000.0
2012-11-30,450000.0
2012-10-31,499950.0
2012-09-30,525000.0
2012-08-31,499500.0
2012-07-31,450000.0
2012-06-30,499500.0
2012-05-31,405000.0
2012-04-30,450000.0
2012-03-31,575000.0
2012-02-29,539950.0
2012-01-31,510000.0
2011-12-31,565000.0
2011-11-30,465000.0
2011-10-31,449950.0
2011-09-30,460000.0
2011-08-31,449950.0
2011-07-31,389900.0
2011-06-30,364950.0
2011-05-31,324000.0
2011-04-30,369000.0
2011-03-31,460000.0
2011-02-28,449000.0
2011-01-31,499000.0
2010-12-31,479000.0
2010-11-30,494000.0
2010-10-31,494000.0
2010-09-30,460000.0
2010-08-31,425000.0
2010-07-31,439000.0
2010-06-30,439000.0
2010-05-31,439000.0
2010-04-30,459000.0
2010-03-31,389000.0
2010-02-28,374400.0
2010-01-31,439950.0
2009-12-31,469500.0
2009-11-30,439950.0
2009-10-31,449750.0
2009-09-30,359990.0
2009-08-31,379000.0
2009-07-31,359990.0
2009-06-30,359990.0
2009-05-31,359990.0
2009-04-30,359990.0
2009-03-31,529990.0
2009-02-28,529990.0
2009-01-31,549000.0
2008-12-31,529990.0
2008-11-30,529990.0
2008-10-31,529990.0
