Date,Value
2015-09-30,383800.0
2015-08-31,374900.0
2015-07-31,376600.0
2015-06-30,390700.0
2015-05-31,401900.0
2015-04-30,403100.0
2015-03-31,401100.0
2015-02-28,396800.0
2015-01-31,395100.0
2014-12-31,398600.0
2014-11-30,401700.0
2014-10-31,406500.0
2014-09-30,411500.0
2014-08-31,409200.0
2014-07-31,399800.0
2014-06-30,395200.0
2014-05-31,396000.0
2014-04-30,395700.0
2014-03-31,392000.0
2014-02-28,388200.0
2014-01-31,383600.0
2013-12-31,377000.0
2013-11-30,371900.0
2013-10-31,366900.0
2013-09-30,359500.0
2013-08-31,349500.0
2013-07-31,339600.0
2013-06-30,330100.0
2013-05-31,326900.0
2013-04-30,326100.0
2013-03-31,324100.0
2013-02-28,320700.0
2013-01-31,316500.0
2012-12-31,308200.0
2012-11-30,300900.0
2012-10-31,297000.0
2012-09-30,302700.0
2012-08-31,313100.0
2012-07-31,313900.0
2012-06-30,304100.0
2012-05-31,299400.0
2012-04-30,301300.0
2012-03-31,307100.0
2012-02-29,311200.0
2012-01-31,311800.0
2011-12-31,309500.0
2011-11-30,302200.0
2011-10-31,288500.0
2011-09-30,281600.0
2011-08-31,289800.0
2011-07-31,305100.0
2011-06-30,316400.0
2011-05-31,319100.0
2011-04-30,316300.0
2011-03-31,315000.0
2011-02-28,318600.0
2011-01-31,321600.0
2010-12-31,323600.0
2010-11-30,326600.0
2010-10-31,330300.0
2010-09-30,334600.0
2010-08-31,339100.0
2010-07-31,342000.0
2010-06-30,341300.0
2010-05-31,339500.0
2010-04-30,339000.0
2010-03-31,336400.0
2010-02-28,333600.0
2010-01-31,337500.0
2009-12-31,346100.0
2009-11-30,351400.0
2009-10-31,354100.0
2009-09-30,345600.0
2009-08-31,335600.0
2009-07-31,336300.0
2009-06-30,343700.0
2009-05-31,345100.0
2009-04-30,346600.0
2009-03-31,349100.0
2009-02-28,353000.0
2009-01-31,356900.0
2008-12-31,361000.0
2008-11-30,367200.0
2008-10-31,376900.0
2008-09-30,385900.0
2008-08-31,390200.0
2008-07-31,390400.0
2008-06-30,391800.0
2008-05-31,396300.0
2008-04-30,397300.0
2008-03-31,392600.0
2008-02-29,387400.0
2008-01-31,385100.0
2007-12-31,384600.0
2007-11-30,385000.0
2007-10-31,388400.0
2007-09-30,392600.0
2007-08-31,390100.0
2007-07-31,383600.0
2007-06-30,381300.0
2007-05-31,384400.0
2007-04-30,394500.0
2007-03-31,410500.0
2007-02-28,421400.0
2007-01-31,422400.0
2006-12-31,419900.0
2006-11-30,417400.0
2006-10-31,410700.0
2006-09-30,399700.0
2006-08-31,391300.0
2006-07-31,391500.0
2006-06-30,394000.0
2006-05-31,390100.0
2006-04-30,382200.0
2006-03-31,374500.0
2006-02-28,369400.0
2006-01-31,368300.0
2005-12-31,367800.0
2005-11-30,362100.0
2005-10-31,355700.0
2005-09-30,350800.0
2005-08-31,343200.0
2005-07-31,336100.0
2005-06-30,333300.0
2005-05-31,331900.0
2005-04-30,324400.0
2005-03-31,314100.0
2005-02-28,304900.0
2005-01-31,297100.0
2004-12-31,289300.0
2004-11-30,287600.0
2004-10-31,290800.0
2004-09-30,295800.0
2004-08-31,298800.0
2004-07-31,296500.0
2004-06-30,290600.0
2004-05-31,285300.0
2004-04-30,279800.0
2004-03-31,273600.0
2004-02-29,270000.0
2004-01-31,267500.0
2003-12-31,265100.0
2003-11-30,262500.0
2003-10-31,257900.0
2003-09-30,254300.0
2003-08-31,255700.0
2003-07-31,257200.0
2003-06-30,254200.0
2003-05-31,249600.0
2003-04-30,248000.0
2003-03-31,250400.0
2003-02-28,251400.0
2003-01-31,247500.0
2002-12-31,244400.0
2002-11-30,244200.0
2002-10-31,245200.0
2002-09-30,245100.0
2002-08-31,243200.0
2002-07-31,240900.0
2002-06-30,241200.0
2002-05-31,240200.0
2002-04-30,237800.0
2002-03-31,237600.0
2002-02-28,240500.0
2002-01-31,246700.0
2001-12-31,253400.0
2001-11-30,255100.0
2001-10-31,253000.0
2001-09-30,253200.0
2001-08-31,256800.0
2001-07-31,258300.0
2001-06-30,255800.0
2001-05-31,256300.0
2001-04-30,259700.0
2001-03-31,259900.0
2001-02-28,255900.0
2001-01-31,251500.0
2000-12-31,247400.0
2000-11-30,242400.0
2000-10-31,236000.0
2000-09-30,232600.0
2000-08-31,229400.0
2000-07-31,226000.0
2000-06-30,223600.0
2000-05-31,223800.0
2000-04-30,228100.0
2000-03-31,231100.0
2000-02-29,227200.0
2000-01-31,220500.0
1999-12-31,215300.0
1999-11-30,210900.0
1999-10-31,207000.0
1999-09-30,200100.0
1999-08-31,194700.0
1999-07-31,193300.0
1999-06-30,193100.0
1999-05-31,193700.0
1999-04-30,196300.0
1999-03-31,199100.0
1999-02-28,201500.0
1999-01-31,201900.0
1998-12-31,198500.0
1998-11-30,194400.0
1998-10-31,190400.0
1998-09-30,186700.0
1998-08-31,182600.0
1998-07-31,178800.0
1998-06-30,176200.0
1998-05-31,174300.0
1998-04-30,169600.0
1998-03-31,164000.0
1998-02-28,160300.0
1998-01-31,159000.0
1997-12-31,159200.0
1997-11-30,160300.0
1997-10-31,163000.0
1997-09-30,166500.0
1997-08-31,167100.0
1997-07-31,165000.0
1997-06-30,163200.0
1997-05-31,161500.0
1997-04-30,158700.0
1997-03-31,155500.0
1997-02-28,153200.0
