Date,Value
2015-09-30,622725.0
2015-08-31,556750.0
2015-07-31,525750.0
2015-06-30,547647.0588
2015-05-31,536153.8462
2014-12-31,548307.6923
2014-10-31,517900.0
2014-09-30,531550.0
2014-08-31,558600.0
2014-07-31,563647.0588
2014-06-30,503846.1538
2014-04-30,630000.0
2013-10-31,512529.4118
2013-09-30,579769.2308
2013-07-31,499000.0
2013-03-31,427500.0
2012-10-31,388000.0
2012-07-31,485325.0
2012-06-30,528975.0
2012-05-31,515470.5882
2012-04-30,434000.0
2011-10-31,404000.0
2011-09-30,419117.6471
2011-08-31,575000.0
2011-03-31,499000.0
2010-06-30,515800.0
2010-05-31,536800.0
2010-04-30,564294.1176
2010-03-31,489000.0
2009-12-31,318315.0
2009-11-30,327250.0
2009-10-31,272150.0
2009-09-30,378235.2941
2009-08-31,417692.3077
2009-06-30,421941.1765
2009-05-31,439000.0
2008-10-31,352176.4706
2008-09-30,391000.0
2008-06-30,635000.0
2008-03-31,420000.0
2007-09-30,467794.1176
2007-08-31,521307.6923
2007-06-30,548575.0
2007-05-31,551100.0
2007-04-30,536941.1765
2007-03-31,493000.0
2007-01-31,600384.6154
2006-11-30,554900.0
2006-10-31,571600.0
2006-09-30,542500.0
2006-08-31,558850.0
2006-07-31,563117.6471
2006-06-30,524230.7692
2006-04-30,475750.0
2006-03-31,493250.0
2006-02-28,523235.2941
2006-01-31,585000.0
2005-10-31,548250.0
2005-09-30,526150.0
2005-08-31,538677.5
2005-07-31,538847.5
2005-06-30,520350.0
2005-05-31,436200.0
2005-04-30,442205.8824
2005-03-31,467500.0
2004-12-31,382200.0
2004-11-30,410500.0
2004-10-31,395200.0
2004-09-30,400292.5
2004-08-31,402807.5
2004-07-31,440600.0
2004-06-30,451042.5
2004-05-31,455232.5
2004-04-30,432775.0
2004-03-31,494647.0588
2004-02-29,428230.7692
2003-12-31,380500.0
2003-11-30,357750.0
2003-10-31,347200.0
2003-09-30,339176.4706
2003-08-31,352307.6923
2003-06-30,389150.0
2003-05-31,370588.2353
2003-04-30,330000.0
2002-11-30,350000.0
2002-10-31,394411.7647
2002-09-30,365000.0
2002-06-30,396550.0
2002-05-31,419950.0
2002-03-31,350000.0
2001-11-30,302250.0
2001-10-31,324300.0
2001-09-30,336550.0
2001-08-31,317000.0
2001-07-31,306492.5
2001-06-30,313282.5
2001-05-31,350205.8824
2001-04-30,408153.8462
2001-02-28,362000.0
2000-11-30,360152.5
2000-10-31,323450.0
2000-09-30,338529.4118
2000-08-31,384615.3846
2000-06-30,430000.0
2000-05-31,405250.0
2000-04-30,389411.7647
2000-03-31,410000.0
1999-12-31,435000.0
1999-09-30,346226.5
1999-08-31,322453.5
1999-07-31,280655.0
1999-06-30,304400.0
1999-05-31,300500.0
1999-04-30,261250.0
1999-03-31,275882.3529
1999-02-28,298076.9231
1998-12-31,277732.5
1998-11-30,318975.0
1998-10-31,287000.0
1998-09-30,279750.0
1998-08-31,260492.5
1998-07-31,261232.5
1998-06-30,290852.9412
1998-05-31,315384.6154
1998-03-31,250000.0
1997-12-31,248115.3846
1997-10-31,256225.0
1997-09-30,293652.5
1997-08-31,268272.5
1997-07-31,222925.0
1997-06-30,200415.0
1997-05-31,198835.0
1997-03-31,338000.0
1996-11-30,199970.5882
1996-10-31,228500.0
1996-07-31,217517.5
1996-06-30,214482.5
1996-05-31,209676.4706
1996-04-30,195000.0
