Date,Value
2015-09-30,220600.0
2015-08-31,217700.0
2015-07-31,214700.0
2015-06-30,214500.0
2015-05-31,212100.0
2015-04-30,206800.0
2015-03-31,201500.0
2015-02-28,199500.0
2015-01-31,194800.0
2014-12-31,192600.0
2014-11-30,190100.0
2014-10-31,189200.0
2014-09-30,189200.0
2014-08-31,188300.0
2014-07-31,187600.0
2014-06-30,187500.0
2014-05-31,185300.0
2014-04-30,181400.0
2014-03-31,177500.0
2014-02-28,176300.0
2014-01-31,177100.0
2013-12-31,178700.0
2013-11-30,178600.0
2013-10-31,177100.0
2013-09-30,175600.0
2013-08-31,174900.0
2013-07-31,172500.0
2013-06-30,168000.0
2013-05-31,163900.0
2013-04-30,161300.0
2013-03-31,159400.0
2013-02-28,157600.0
2013-01-31,156000.0
2012-12-31,153500.0
2012-11-30,150700.0
2012-10-31,148100.0
2012-09-30,145300.0
2012-08-31,142900.0
2012-07-31,143300.0
2012-06-30,145900.0
2012-05-31,148400.0
2012-04-30,150400.0
2012-03-31,151500.0
2012-02-29,152300.0
2012-01-31,153400.0
2011-12-31,154700.0
2011-11-30,156600.0
2011-10-31,158400.0
2011-09-30,159500.0
2011-08-31,161200.0
2011-07-31,163700.0
2011-06-30,166800.0
2011-05-31,170800.0
2011-04-30,173900.0
2011-03-31,177600.0
2011-02-28,182900.0
2011-01-31,186700.0
2010-12-31,189100.0
2010-11-30,192100.0
2010-10-31,195000.0
2010-09-30,197800.0
2010-08-31,201700.0
2010-07-31,204700.0
2010-06-30,206000.0
2010-05-31,205400.0
2010-04-30,204900.0
2010-03-31,206100.0
2010-02-28,207500.0
2010-01-31,206900.0
2009-12-31,206300.0
2009-11-30,207900.0
2009-10-31,210200.0
2009-09-30,212100.0
2009-08-31,212700.0
2009-07-31,212800.0
2009-06-30,213800.0
2009-05-31,216100.0
2009-04-30,218800.0
2009-03-31,221400.0
2009-02-28,223600.0
2009-01-31,224900.0
2008-12-31,226500.0
2008-11-30,229600.0
2008-10-31,233400.0
2008-09-30,236500.0
2008-08-31,238500.0
2008-07-31,239600.0
2008-06-30,241700.0
2008-05-31,244800.0
2008-04-30,247400.0
2008-03-31,248100.0
2008-02-29,247200.0
2008-01-31,246400.0
2007-12-31,246600.0
2007-11-30,246700.0
2007-10-31,246400.0
2007-09-30,246300.0
2007-08-31,246700.0
2007-07-31,246300.0
2007-06-30,245300.0
2007-05-31,246200.0
2007-04-30,248300.0
2007-03-31,248200.0
2007-02-28,246900.0
2007-01-31,246100.0
2006-12-31,244600.0
2006-11-30,242100.0
2006-10-31,239800.0
2006-09-30,238200.0
2006-08-31,235200.0
2006-07-31,232000.0
2006-06-30,229100.0
2006-05-31,225800.0
2006-04-30,222700.0
2006-03-31,220800.0
2006-02-28,218800.0
2006-01-31,218400.0
2005-12-31,218200.0
2005-11-30,215700.0
2005-10-31,211800.0
2005-09-30,209300.0
2005-08-31,207400.0
2005-07-31,206000.0
2005-06-30,202800.0
2005-05-31,196600.0
2005-04-30,189900.0
2005-03-31,186000.0
2005-02-28,183900.0
2005-01-31,181900.0
2004-12-31,180800.0
2004-11-30,180500.0
2004-10-31,180000.0
2004-09-30,178400.0
2004-08-31,177000.0
2004-07-31,176700.0
2004-06-30,176300.0
2004-05-31,175700.0
2004-04-30,175100.0
2004-03-31,173900.0
2004-02-29,172900.0
2004-01-31,172200.0
2003-12-31,170700.0
2003-11-30,169100.0
2003-10-31,167700.0
2003-09-30,167300.0
2003-08-31,167400.0
2003-07-31,167300.0
2003-06-30,167800.0
2003-05-31,170500.0
2003-04-30,173200.0
2003-03-31,175000.0
2003-02-28,175300.0
2003-01-31,174400.0
2002-12-31,172500.0
2002-11-30,170600.0
2002-10-31,168900.0
2002-09-30,166900.0
2002-08-31,164900.0
2002-07-31,162600.0
2002-06-30,160100.0
2002-05-31,157600.0
2002-04-30,155000.0
2002-03-31,152100.0
2002-02-28,150000.0
2002-01-31,149300.0
2001-12-31,150100.0
2001-11-30,150700.0
2001-10-31,151000.0
2001-09-30,152000.0
2001-08-31,153400.0
2001-07-31,154000.0
2001-06-30,154600.0
2001-05-31,155100.0
2001-04-30,155200.0
2001-03-31,154600.0
2001-02-28,153100.0
2001-01-31,151200.0
2000-12-31,150400.0
2000-11-30,150600.0
2000-10-31,150900.0
2000-09-30,150300.0
2000-08-31,148700.0
2000-07-31,146800.0
2000-06-30,145300.0
2000-05-31,144300.0
2000-04-30,143600.0
2000-03-31,143700.0
2000-02-29,144600.0
2000-01-31,144500.0
1999-12-31,143300.0
1999-11-30,141800.0
1999-10-31,140600.0
1999-09-30,139100.0
1999-08-31,137400.0
1999-07-31,136100.0
1999-06-30,135600.0
1999-05-31,135200.0
1999-04-30,134800.0
1999-03-31,134800.0
1999-02-28,134800.0
1999-01-31,133700.0
1998-12-31,131900.0
1998-11-30,130900.0
1998-10-31,129900.0
1998-09-30,128300.0
1998-08-31,126800.0
1998-07-31,126200.0
1998-06-30,125200.0
1998-05-31,123700.0
1998-04-30,122600.0
1998-03-31,122000.0
1998-02-28,120800.0
1998-01-31,119400.0
1997-12-31,118500.0
1997-11-30,117700.0
1997-10-31,117100.0
1997-09-30,116700.0
1997-08-31,116600.0
1997-07-31,116500.0
1997-06-30,116000.0
1997-05-31,115700.0
1997-04-30,115500.0
1997-03-31,115100.0
1997-02-28,114400.0
1997-01-31,114100.0
1996-12-31,113400.0
1996-11-30,112400.0
1996-10-31,111500.0
1996-09-30,111400.0
1996-08-31,111600.0
1996-07-31,111900.0
1996-06-30,111800.0
1996-05-31,111100.0
1996-04-30,110300.0
