Date,Value
2015-02-28,750000.0
2015-01-31,765000.0
2014-12-31,765000.0
2014-11-30,729000.0
2014-10-31,698000.0
2014-09-30,638000.0
2014-08-31,649999.0
2014-07-31,949950.0
2014-06-30,699000.0
2014-05-31,950000.0
2014-04-30,950000.0
2014-03-31,950000.0
2014-02-28,1150000.0
2014-01-31,1150000.0
2013-12-31,1149000.0
2013-11-30,1095000.0
2013-10-31,1095000.0
2013-09-30,1175000.0
2013-08-31,1175000.0
2013-07-31,1175000.0
2013-06-30,949900.0
2013-05-31,1099000.0
2013-04-30,1175000.0
2013-03-31,1050000.0
2013-02-28,1050000.0
2013-01-31,1050000.0
2012-12-31,1045000.0
2012-11-30,735000.0
2012-10-31,598000.0
2012-09-30,535000.0
2012-08-31,736000.0
2012-07-31,699000.0
2012-06-30,699000.0
2012-05-31,639000.0
2012-04-30,639000.0
2012-03-31,825000.0
2012-02-29,1090000.0
2012-01-31,1275000.0
2011-12-31,1045000.0
2011-11-30,945000.0
2011-10-31,945000.0
2011-09-30,1095000.0
2011-08-31,1095000.0
2011-07-31,1095000.0
2011-06-30,718000.0
2011-05-31,699000.0
2011-04-30,699000.0
2011-03-31,699000.0
2011-02-28,864900.0
2011-01-31,1075000.0
2010-12-31,895000.0
2010-11-30,899000.0
2010-10-31,750000.0
2010-09-30,749000.0
2010-08-31,615000.0
2010-07-31,599000.0
2010-06-30,615000.0
2010-05-31,590000.0
2010-04-30,599500.0
2010-03-31,599500.0
2010-02-28,615000.0
2010-01-31,599500.0
2009-12-31,675000.0
2009-11-30,629000.0
2009-10-31,675000.0
2009-09-30,409900.0
2009-08-31,675000.0
2009-07-31,649999.0
2009-06-30,620000.0
2009-05-31,729950.0
2009-04-30,695000.0
2009-03-31,649950.0
2009-02-28,700000.0
2009-01-31,695000.0
2008-12-31,749999.0
2008-11-30,640000.0
2008-10-31,640000.0
