Date,Value
2015-09-30,299075.0
2015-07-31,255100.0
2015-06-30,269000.0
2015-05-31,289000.0
2015-02-28,280769.2308
2014-12-31,182500.0
2014-11-30,157500.0
2014-08-31,190950.8824
2014-07-31,178095.0
2009-09-30,195690.0
2009-06-30,311008.8235
2009-05-31,303950.0
2008-09-30,269900.0
2008-06-30,280000.0
2007-11-30,246150.0
2007-10-31,278332.5
2007-09-30,273710.0
2007-08-31,299282.5
2007-07-31,283032.5
2007-06-30,298882.3529
2007-05-31,331538.4615
2007-03-31,305000.0
2006-11-30,327100.0
2006-10-31,350400.0
2006-09-30,359992.5
2006-08-31,339975.0
2006-07-31,351205.0
2006-06-30,385944.1176
2006-05-31,345488.4615
2006-03-31,324950.0
2005-10-31,280692.3077
2005-08-31,278000.0
2005-03-31,254950.0
2004-12-31,212807.6923
2004-10-31,214117.6471
2004-09-30,172307.6923
2004-07-31,241245.0
2004-06-30,252155.0
2004-05-31,249400.0
2004-04-30,238823.5294
2004-03-31,230000.0
2003-10-31,247794.1176
2003-09-30,267500.0
2003-03-31,219950.0
2002-07-31,189882.3529
2002-06-30,154000.0
2001-04-30,184950.0
2000-12-31,205000.0
2000-06-30,199950.0
2000-03-31,175000.0
1999-10-31,173500.0
1999-05-31,174142.3077
1999-03-31,187950.0
1998-11-30,158960.0
1998-10-31,150100.0
1998-09-30,158176.4706
1998-08-31,173133.4615
1998-06-30,166917.6471
1998-05-31,168015.3846
1998-03-31,139900.0
1997-10-31,149346.1538
1997-08-31,114000.0
1997-04-30,139000.0
1996-07-31,130500.0
1996-04-30,122000.0
