Date,Value
2013-09-30,2075000.0
2013-08-31,1695000.0
2013-07-31,1695000.0
2013-06-30,2880000.0
2013-05-31,3895000.0
2013-02-28,1650000.0
2013-01-31,1650000.0
2012-11-30,1995000.0
2012-10-31,1895000.0
2012-09-30,1895000.0
2012-08-31,1795000.0
2012-07-31,1795000.0
2012-06-30,1895000.0
2012-05-31,1995000.0
2012-04-30,2095000.0
2012-03-31,2200000.0
2012-01-31,2200000.0
2011-12-31,2295000.0
2011-11-30,2195000.0
2011-10-31,2195000.0
2011-09-30,2195000.0
2011-08-31,2599000.0
2011-07-31,1995000.0
2011-06-30,2599000.0
2011-05-31,1995000.0
2011-04-30,1600000.0
2011-03-31,1595000.0
2011-02-28,1600000.0
2011-01-31,1600000.0
2010-12-31,1950000.0
2010-11-30,1950000.0
2010-10-31,1770000.0
2010-09-30,1600000.0
2010-08-31,2195000.0
2010-07-31,1950000.0
2010-06-30,2040000.0
2010-05-31,1785000.0
2010-04-30,1650000.0
2010-03-31,1650000.0
2010-02-28,1750000.0
2010-01-31,1785000.0
2009-12-31,1785000.0
2009-11-30,1895000.0
2009-10-31,1799000.0
2009-09-30,1950000.0
2009-08-31,1950000.0
2009-07-31,1990000.0
2009-06-30,1895000.0
2009-05-31,1990000.0
2009-03-31,2285000.0
