Date,Value
2015-09-30,500751.2
2015-08-31,496502.8
2015-07-31,554404.0
2015-06-30,560500.0
2015-05-31,568350.0
2015-04-30,503823.5294
2015-03-31,415000.0
2014-12-31,434950.0
2014-11-30,444175.0
2014-10-31,503525.0
2014-09-30,516550.0
2014-08-31,526250.0
2014-07-31,506000.0
2014-06-30,437750.0
2014-05-31,405000.0
2014-04-30,462730.7692
2014-02-28,493853.8462
2013-12-31,442600.0
2013-11-30,378529.4118
2013-10-31,409846.1538
2013-08-31,390500.0
2013-07-31,383650.0
2013-06-30,453100.0
2013-05-31,422600.0
2013-03-31,299000.0
2012-11-30,423000.0
2012-08-31,273486.1538
2012-06-30,404625.0
2012-05-31,357375.0
2012-04-30,344705.8824
2012-03-31,355000.0
2011-10-31,390000.0
2011-07-31,325000.0
2010-11-30,378153.8462
2010-09-30,412000.0
2010-06-30,372670.0
2010-05-31,388287.5
2010-04-30,401176.4706
2010-03-31,372500.0
2009-10-31,405235.2941
2009-09-30,427000.0
2009-06-30,390000.0
2008-09-30,413775.0
2008-08-31,426850.0
2008-07-31,425300.0
2008-06-30,431900.0
2008-05-31,444250.0
2008-04-30,443750.0
2008-03-31,418529.4118
2008-02-29,380538.4615
2007-12-31,462750.0
2007-11-30,439200.0
2007-10-31,453550.0
2007-08-31,349382.5
2007-07-31,316475.0
2007-05-31,461475.0
2007-04-30,464350.0
2007-03-31,416357.5
2007-02-28,389675.0
2007-01-31,407600.0
2006-12-31,402862.5
2006-11-30,384882.5
2006-10-31,457180.0
2006-09-30,413775.0
2006-08-31,405242.5
2006-07-31,411682.5
2006-06-30,416672.5
2006-05-31,454352.5
2006-04-30,444075.0
2006-03-31,436325.0
2006-02-28,402200.0
2006-01-31,386950.0
2005-12-31,341145.0
2005-10-31,414750.0
2005-09-30,401900.0
2005-08-31,376800.0
2005-07-31,370250.0
2005-06-30,380450.0
2005-05-31,369992.5
2005-04-30,344232.5
2005-03-31,321735.2941
2005-02-28,281761.5385
2004-12-31,360950.0
2004-11-30,359950.0
2004-10-31,348642.5
2004-09-30,331725.0
2004-08-31,358200.0
2004-07-31,363040.0
2004-06-30,354792.5
2004-05-31,326650.0
2004-04-30,303529.4118
2004-03-31,255000.0
2003-11-30,336250.0
2003-10-31,324350.0
2003-09-30,327750.0
2003-08-31,325900.0
2003-07-31,300600.0
2003-06-30,318117.5
2003-05-31,301357.5
2003-04-30,300075.0
2003-03-31,314650.0
2003-02-28,318050.0
2003-01-31,283470.5882
2002-12-31,317000.0
2002-09-30,320757.6923
2002-07-31,328765.0
2002-06-30,334375.0
2002-05-31,317242.5
2002-04-30,277882.5
2002-03-31,265382.3529
2002-02-28,316000.0
2001-10-31,286892.5
2001-09-30,299732.5
2001-08-31,292475.0
2001-07-31,281000.0
2001-06-30,239000.0
2001-05-31,250242.5
2001-04-30,239391.1765
2001-03-31,259950.0
2000-12-31,250200.0
2000-11-30,279941.1765
2000-10-31,301538.4615
2000-08-31,243225.0
2000-07-31,234207.5
2000-06-30,231525.0
2000-05-31,260650.0
2000-04-30,272300.0
2000-03-31,277742.5
2000-02-29,296325.0
2000-01-31,298067.6471
1999-12-31,273950.0
1999-10-31,254717.5
1999-09-30,233232.5
1999-08-31,230467.5
1999-07-31,241482.5
1999-06-30,254088.2353
1999-05-31,248346.1538
1999-03-31,209500.0
1998-11-30,155000.0
1998-08-31,235529.4118
1998-07-31,202000.0
1998-04-30,225000.0
1997-10-31,178823.5294
1997-09-30,180000.0
1997-05-31,152647.0588
1997-04-30,166615.3846
1997-02-28,166923.0769
1996-12-31,151153.8462
1996-10-31,158500.0
1996-09-30,159230.7692
1996-07-31,145000.0
1996-04-30,146000.0
