Date,Value
2015-10-31,619500.0
2015-02-28,650000.0
2015-01-31,695000.0
2014-12-31,695000.0
2014-11-30,649000.0
2014-10-31,635000.0
2014-09-30,599000.0
2014-08-31,598000.0
2014-07-31,585000.0
2014-06-30,585000.0
2014-05-31,579000.0
2014-04-30,550000.0
2014-03-31,550000.0
2014-02-28,570000.0
2014-01-31,555000.0
2013-12-31,539500.0
2013-11-30,540000.0
2013-10-31,535000.0
2013-09-30,539500.0
2013-08-31,570000.0
2013-07-31,555000.0
2013-06-30,586000.0
2013-05-31,598500.0
2013-04-30,595000.0
2013-03-31,595000.0
2013-02-28,595000.0
2013-01-31,595000.0
2012-12-31,579000.0
2012-11-30,585000.0
2012-10-31,435000.0
2012-09-30,595000.0
2012-08-31,579000.0
2012-07-31,559900.0
2012-06-30,549000.0
2012-05-31,550000.0
2012-04-30,545000.0
2012-03-31,579000.0
2012-02-29,525000.0
2012-01-31,525000.0
2011-12-31,525000.0
2011-11-30,545950.0
2011-10-31,574660.0
2011-09-30,585000.0
2011-08-31,585000.0
2011-07-31,595000.0
2011-06-30,622000.0
2011-05-31,599000.0
2011-04-30,622000.0
2011-03-31,595000.0
2011-02-28,599995.0
2011-01-31,637000.0
2010-12-31,649000.0
2010-11-30,695000.0
2010-10-31,675000.0
2010-09-30,680000.0
2010-08-31,675000.0
2010-07-31,649950.0
2010-06-30,649000.0
2010-05-31,639500.0
2010-04-30,650000.0
2010-03-31,650000.0
2010-02-28,695000.0
2010-01-31,699000.0
2009-12-31,697500.0
2009-11-30,695000.0
2009-10-31,695000.0
2009-09-30,694500.0
2009-08-31,675000.0
2009-07-31,698000.0
2009-06-30,694900.0
2009-05-31,697000.0
2009-04-30,715000.0
2009-03-31,715000.0
2009-02-28,749000.0
2009-01-31,775000.0
2008-12-31,790000.0
2008-11-30,775000.0
2008-10-31,759900.0
