Date,Value
2015-09-30,239100.0
2015-08-31,237200.0
2015-07-31,235400.0
2015-06-30,235700.0
2015-05-31,233100.0
2015-04-30,233200.0
2015-03-31,233400.0
2015-02-28,233100.0
2015-01-31,232000.0
2014-12-31,230700.0
2014-11-30,229100.0
2014-10-31,227900.0
2014-09-30,227300.0
2014-08-31,227200.0
2014-07-31,226600.0
2014-06-30,225400.0
2014-05-31,223900.0
2014-04-30,222500.0
2014-03-31,221000.0
2014-02-28,219700.0
2014-01-31,218500.0
2013-12-31,217300.0
2013-11-30,217200.0
2013-10-31,217900.0
2013-09-30,217900.0
2013-08-31,217300.0
2013-07-31,216400.0
2013-06-30,215000.0
2013-05-31,213800.0
2013-04-30,212700.0
2013-03-31,211900.0
2013-02-28,211000.0
2013-01-31,210400.0
2012-12-31,210300.0
2012-11-30,210400.0
2012-10-31,210300.0
2012-09-30,210000.0
2012-08-31,209400.0
2012-07-31,208900.0
2012-06-30,209100.0
2012-05-31,209400.0
2012-04-30,209700.0
2012-03-31,209900.0
2012-02-29,210600.0
2012-01-31,211500.0
2011-12-31,212000.0
2011-11-30,211900.0
2011-10-31,212100.0
2011-09-30,213100.0
2011-08-31,214500.0
2011-07-31,216000.0
2011-06-30,217900.0
2011-05-31,220100.0
2011-04-30,222300.0
2011-03-31,224100.0
2011-02-28,225200.0
2011-01-31,225900.0
2010-12-31,226900.0
2010-11-30,228100.0
2010-10-31,228900.0
2010-09-30,229700.0
2010-08-31,231000.0
2010-07-31,232700.0
2010-06-30,234400.0
2010-05-31,235800.0
2010-04-30,237000.0
2010-03-31,238300.0
2010-02-28,239800.0
2010-01-31,241200.0
2009-12-31,242300.0
2009-11-30,243100.0
2009-10-31,243700.0
2009-09-30,244600.0
2009-08-31,245500.0
2009-07-31,246100.0
2009-06-30,246700.0
2009-05-31,247100.0
2009-04-30,247500.0
2009-03-31,248500.0
2009-02-28,250100.0
2009-01-31,251400.0
2008-12-31,252600.0
2008-11-30,254100.0
2008-10-31,255300.0
2008-09-30,255400.0
2008-08-31,255400.0
2008-07-31,256200.0
2008-06-30,257200.0
2008-05-31,258100.0
2008-04-30,258400.0
2008-03-31,258500.0
2008-02-29,258300.0
2008-01-31,258800.0
2007-12-31,259700.0
2007-11-30,260700.0
2007-10-31,261800.0
2007-09-30,263300.0
2007-08-31,264500.0
2007-07-31,265100.0
2007-06-30,265400.0
2007-05-31,265900.0
2007-04-30,266000.0
2007-03-31,265500.0
2007-02-28,264800.0
2007-01-31,264300.0
2006-12-31,264100.0
2006-11-30,263600.0
2006-10-31,263000.0
2006-09-30,262100.0
2006-08-31,261100.0
2006-07-31,260100.0
2006-06-30,259000.0
2006-05-31,257800.0
2006-04-30,256900.0
2006-03-31,255700.0
2006-02-28,253800.0
2006-01-31,251400.0
2005-12-31,248500.0
2005-11-30,245000.0
2005-10-31,241000.0
2005-09-30,236800.0
2005-08-31,232500.0
2005-07-31,227800.0
2005-06-30,223000.0
2005-05-31,218000.0
2005-04-30,213600.0
2005-03-31,210100.0
2005-02-28,207500.0
2005-01-31,204800.0
2004-12-31,202200.0
2004-11-30,200100.0
2004-10-31,198000.0
2004-09-30,195800.0
2004-08-31,193900.0
2004-07-31,192100.0
2004-06-30,189900.0
2004-05-31,188000.0
2004-04-30,186400.0
2004-03-31,184800.0
2004-02-29,183200.0
2004-01-31,181900.0
2003-12-31,180600.0
2003-11-30,179000.0
2003-10-31,177500.0
2003-09-30,176300.0
2003-08-31,175100.0
2003-07-31,173900.0
2003-06-30,173200.0
2003-05-31,172400.0
2003-04-30,171400.0
2003-03-31,170200.0
2003-02-28,169000.0
2003-01-31,167300.0
2002-12-31,165200.0
2002-11-30,163600.0
2002-10-31,162500.0
2002-09-30,161900.0
2002-08-31,161200.0
2002-07-31,160500.0
2002-06-30,159700.0
2002-05-31,159200.0
2002-04-30,158600.0
2002-03-31,158300.0
2002-02-28,157800.0
2002-01-31,157500.0
2001-12-31,157100.0
2001-11-30,156500.0
2001-10-31,155300.0
2001-09-30,154200.0
2001-08-31,153100.0
2001-07-31,152100.0
2001-06-30,151300.0
2001-05-31,150600.0
2001-04-30,149900.0
2001-03-31,149000.0
2001-02-28,147500.0
2001-01-31,146200.0
2000-12-31,145500.0
2000-11-30,145300.0
2000-10-31,145300.0
2000-09-30,145700.0
2000-08-31,146000.0
2000-07-31,145800.0
2000-06-30,145600.0
2000-05-31,145400.0
2000-04-30,144900.0
2000-03-31,144300.0
2000-02-29,144100.0
2000-01-31,144100.0
1999-12-31,143900.0
1999-11-30,143800.0
1999-10-31,143700.0
1999-09-30,143200.0
1999-08-31,142900.0
1999-07-31,143300.0
1999-06-30,143300.0
1999-05-31,142800.0
1999-04-30,142500.0
1999-03-31,142200.0
1999-02-28,141700.0
1999-01-31,141200.0
1998-12-31,141000.0
1998-11-30,140600.0
1998-10-31,140000.0
1998-09-30,139600.0
1998-08-31,139300.0
1998-07-31,139100.0
1998-06-30,138900.0
1998-05-31,138800.0
1998-04-30,138400.0
1998-03-31,137900.0
1998-02-28,137400.0
1998-01-31,137000.0
1997-12-31,136500.0
1997-11-30,136100.0
1997-10-31,135700.0
1997-09-30,135200.0
1997-08-31,134700.0
1997-07-31,134100.0
1997-06-30,133600.0
1997-05-31,133300.0
1997-04-30,132900.0
1997-03-31,132300.0
1997-02-28,132100.0
1997-01-31,132400.0
1996-12-31,132500.0
1996-11-30,132500.0
1996-10-31,132500.0
1996-09-30,132500.0
1996-08-31,132400.0
1996-07-31,132500.0
1996-06-30,132800.0
1996-05-31,133300.0
1996-04-30,134100.0
