Date,Value
2015-10-31,259500.0
2015-02-28,249950.0
2015-01-31,240000.0
2014-12-31,233600.0
2014-11-30,239521.0
2014-10-31,249900.0
2014-09-30,249950.0
2014-08-31,249950.0
2014-07-31,249900.0
2014-06-30,249900.0
2014-05-31,240000.0
2014-04-30,239950.0
2014-03-31,235000.0
2014-02-28,235000.0
2014-01-31,229950.0
2013-12-31,239000.0
2013-11-30,233097.0
2013-10-31,240000.0
2013-09-30,249500.0
2013-08-31,245000.0
2013-07-31,246900.0
2013-06-30,239950.0
2013-05-31,239000.0
2013-04-30,225900.0
2013-03-31,219950.0
2013-02-28,219000.0
2013-01-31,217500.0
2012-12-31,215000.0
2012-11-30,219900.0
2012-10-31,215000.0
2012-09-30,219900.0
2012-08-31,219900.0
2012-07-31,219950.0
2012-06-30,214950.0
2012-05-31,209000.0
2012-04-30,199950.0
2012-03-31,195000.0
2012-02-29,192000.0
2012-01-31,189995.0
2011-12-31,189900.0
2011-11-30,195000.0
2011-10-31,199950.0
2011-09-30,200000.0
2011-08-31,208000.0
2011-07-31,200000.0
2011-06-30,204950.0
2011-05-31,204900.0
2011-04-30,207900.0
2011-03-31,213950.0
2011-02-28,215000.0
2011-01-31,215000.0
2010-12-31,219950.0
2010-11-30,225000.0
2010-10-31,229900.0
2010-09-30,230950.0
2010-08-31,234950.0
2010-07-31,235000.0
2010-06-30,235000.0
2010-05-31,239900.0
2010-04-30,237995.0
2010-03-31,239000.0
2010-02-28,239000.0
2010-01-31,239500.0
2009-12-31,240000.0
2009-11-30,244950.0
2009-10-31,249950.0
2009-09-30,250000.0
2009-08-31,254900.0
2009-07-31,259750.0
2009-06-30,259950.0
2009-05-31,264900.0
2009-04-30,263000.0
2009-03-31,269000.0
2009-02-28,269000.0
2009-01-31,274950.0
2008-12-31,277950.0
2008-11-30,279950.0
2008-10-31,289950.0
