Date,Value
2015-09-30,191600.0
2015-08-31,193000.0
2015-07-31,187900.0
2015-06-30,190600.0
2015-05-31,189900.0
2015-04-30,191300.0
2015-03-31,191700.0
2015-02-28,190000.0
2015-01-31,188500.0
2014-12-31,188800.0
2014-11-30,189000.0
2014-10-31,188800.0
2014-09-30,188500.0
2014-08-31,188000.0
2014-07-31,187500.0
2014-06-30,187400.0
2014-05-31,187700.0
2014-04-30,185200.0
2014-03-31,181200.0
2014-02-28,179600.0
2014-01-31,180400.0
2013-12-31,180600.0
2013-11-30,181400.0
2013-10-31,182600.0
2013-09-30,183000.0
2013-08-31,182700.0
2013-07-31,182300.0
2013-06-30,181700.0
2013-05-31,181900.0
2013-04-30,183800.0
2013-03-31,186200.0
2013-02-28,187400.0
2013-01-31,188400.0
2012-12-31,189100.0
2012-11-30,190000.0
2012-10-31,189100.0
2012-09-30,186700.0
2012-08-31,185400.0
2012-07-31,185300.0
2012-06-30,183300.0
2012-05-31,179100.0
2012-04-30,176100.0
2012-03-31,175300.0
2012-02-29,174900.0
2012-01-31,172000.0
2011-12-31,169900.0
2011-11-30,169400.0
2011-10-31,170700.0
2011-09-30,171900.0
2011-08-31,172200.0
2011-07-31,172000.0
2011-06-30,172500.0
2011-05-31,173200.0
2011-04-30,175700.0
2011-03-31,176600.0
2011-02-28,173900.0
2011-01-31,171100.0
2010-12-31,170100.0
2010-11-30,169300.0
2010-10-31,170400.0
2010-09-30,172000.0
2010-08-31,172900.0
2010-07-31,174600.0
2010-06-30,178500.0
2010-05-31,183000.0
2010-04-30,185400.0
2010-03-31,185800.0
2010-02-28,186500.0
2010-01-31,187000.0
2009-12-31,187600.0
2009-11-30,188200.0
2009-10-31,187900.0
2009-09-30,187000.0
2009-08-31,186900.0
2009-07-31,186200.0
2009-06-30,184500.0
2009-05-31,182800.0
2009-04-30,181900.0
2009-03-31,183100.0
2009-02-28,185400.0
2009-01-31,191900.0
2008-12-31,198200.0
2008-11-30,200000.0
2008-10-31,201200.0
2008-09-30,205700.0
2008-08-31,208500.0
2008-07-31,207600.0
2008-06-30,206800.0
2008-05-31,211300.0
2008-04-30,213800.0
2008-03-31,210600.0
2008-02-29,209000.0
2008-01-31,208200.0
2007-12-31,203200.0
2007-11-30,201000.0
2007-10-31,201300.0
2007-09-30,199900.0
2007-08-31,197700.0
2007-07-31,198100.0
2007-06-30,198700.0
2007-05-31,195700.0
2007-04-30,192500.0
2007-03-31,191600.0
2007-02-28,190900.0
2007-01-31,190200.0
2006-12-31,191400.0
2006-11-30,190000.0
2006-10-31,186800.0
2006-09-30,185500.0
2006-08-31,184800.0
2006-07-31,183300.0
2006-06-30,183600.0
2006-05-31,184100.0
2006-04-30,182700.0
2006-03-31,182600.0
2006-02-28,183100.0
2006-01-31,181300.0
2005-12-31,179900.0
2005-11-30,180600.0
2005-10-31,180300.0
2005-09-30,178900.0
2005-08-31,178700.0
2005-07-31,176200.0
2005-06-30,171000.0
2005-05-31,167300.0
2005-04-30,166200.0
2005-03-31,165600.0
2005-02-28,164800.0
2005-01-31,163200.0
2004-12-31,160700.0
2004-11-30,156800.0
2004-10-31,151100.0
2004-09-30,144000.0
2004-08-31,138900.0
2004-07-31,137400.0
2004-06-30,137600.0
2004-05-31,137300.0
2004-04-30,137500.0
2004-03-31,137500.0
2004-02-29,135500.0
2004-01-31,132200.0
2003-12-31,129400.0
2003-11-30,127100.0
2003-10-31,125400.0
2003-09-30,124700.0
2003-08-31,123900.0
2003-07-31,123600.0
2003-06-30,122300.0
2003-05-31,119000.0
2003-04-30,115800.0
2003-03-31,114300.0
2003-02-28,113300.0
2003-01-31,112400.0
2002-12-31,111800.0
2002-11-30,111400.0
2002-10-31,110900.0
2002-09-30,110600.0
2002-08-31,110900.0
2002-07-31,110500.0
2002-06-30,109200.0
2002-05-31,108200.0
2002-04-30,107100.0
2002-03-31,106000.0
2002-02-28,106000.0
2002-01-31,107500.0
2001-12-31,108900.0
2001-11-30,110800.0
2001-10-31,114600.0
2001-09-30,118100.0
2001-08-31,120600.0
2001-07-31,122200.0
2001-06-30,123000.0
2001-05-31,123200.0
2001-04-30,123700.0
2001-03-31,123500.0
2001-02-28,121600.0
2001-01-31,118600.0
2000-12-31,115900.0
2000-11-30,113300.0
2000-10-31,109900.0
2000-09-30,107700.0
2000-08-31,106900.0
2000-07-31,106600.0
2000-06-30,106600.0
2000-05-31,107800.0
2000-04-30,107700.0
2000-03-31,105800.0
2000-02-29,104800.0
2000-01-31,106100.0
1999-12-31,108700.0
1999-11-30,113700.0
1999-10-31,122400.0
1999-09-30,129900.0
1999-08-31,131500.0
1999-07-31,130100.0
1999-06-30,129200.0
1999-05-31,127700.0
1999-04-30,124800.0
1999-03-31,122300.0
1999-02-28,120800.0
1999-01-31,119900.0
1998-12-31,118900.0
1998-11-30,116400.0
1998-10-31,111700.0
1998-09-30,105700.0
1998-08-31,101500.0
1998-07-31,100300.0
1998-06-30,100600.0
1998-05-31,99500.0
1998-04-30,98100.0
1998-03-31,98000.0
1998-02-28,100200.0
1998-01-31,102200.0
1997-12-31,102000.0
1997-11-30,101200.0
1997-10-31,101500.0
1997-09-30,102200.0
1997-08-31,102500.0
1997-07-31,102800.0
1997-06-30,104100.0
1997-05-31,108300.0
1997-04-30,116700.0
1997-03-31,123500.0
1997-02-28,123000.0
1997-01-31,119400.0
1996-12-31,117900.0
1996-11-30,116000.0
1996-10-31,113000.0
1996-09-30,111600.0
1996-08-31,111200.0
1996-07-31,109500.0
1996-06-30,107600.0
1996-05-31,106400.0
1996-04-30,104600.0
