Date,Value
2015-09-30,131600.0
2015-08-31,150900.0
2015-07-31,143700.0
2015-06-30,140700.0
2015-05-31,133800.0
2015-04-30,138600.0
2015-03-31,133900.0
2015-02-28,134900.0
2015-01-31,134800.0
2014-12-31,135400.0
2014-11-30,136000.0
2014-10-31,135200.0
2014-09-30,133300.0
2014-08-31,131900.0
2014-07-31,131500.0
2014-06-30,132000.0
2014-05-31,132600.0
2014-04-30,132600.0
2014-03-31,133000.0
2014-02-28,134400.0
2014-01-31,135700.0
2013-12-31,136000.0
2013-11-30,136900.0
2013-10-31,138700.0
2013-09-30,140100.0
2013-08-31,139300.0
2013-07-31,138200.0
2013-06-30,137100.0
2013-05-31,136000.0
2013-04-30,135000.0
2013-03-31,133800.0
2013-02-28,132100.0
2013-01-31,131300.0
2012-12-31,131700.0
2012-11-30,132000.0
2012-10-31,131300.0
2012-09-30,130000.0
2012-08-31,130000.0
2012-07-31,130800.0
2012-06-30,130600.0
2012-05-31,127600.0
2012-04-30,124600.0
2012-03-31,123700.0
2012-02-29,125500.0
2012-01-31,128400.0
2011-12-31,131000.0
2011-11-30,130200.0
2011-10-31,128700.0
2011-09-30,129000.0
2011-08-31,129500.0
2011-07-31,128600.0
2011-06-30,127800.0
2011-05-31,128900.0
2011-04-30,130600.0
2011-03-31,131500.0
2011-02-28,131500.0
2011-01-31,131700.0
2010-12-31,133400.0
2010-11-30,136200.0
2010-10-31,137200.0
2010-09-30,137200.0
2010-08-31,137900.0
2010-07-31,137100.0
2010-06-30,134500.0
2010-05-31,132500.0
2010-04-30,131200.0
2010-03-31,131000.0
2010-02-28,131700.0
2010-01-31,133100.0
2009-12-31,131900.0
2009-11-30,128500.0
2009-10-31,127000.0
2009-09-30,129200.0
2009-08-31,132200.0
2009-07-31,138200.0
2009-06-30,148100.0
2009-05-31,159300.0
2009-04-30,166300.0
2009-03-31,168500.0
2009-02-28,167100.0
2009-01-31,160500.0
2008-12-31,154800.0
2008-11-30,156100.0
2008-10-31,161900.0
2008-09-30,165900.0
2008-08-31,171200.0
2008-07-31,175600.0
2008-06-30,177000.0
2008-05-31,174300.0
2008-04-30,171900.0
2008-03-31,170100.0
2008-02-29,169500.0
2008-01-31,171400.0
2007-12-31,173400.0
2007-11-30,173600.0
2007-10-31,171700.0
2007-09-30,167900.0
2007-08-31,162600.0
2007-07-31,158600.0
2007-06-30,155600.0
2007-05-31,154000.0
2007-04-30,152600.0
2007-03-31,151400.0
2007-02-28,150400.0
2007-01-31,149800.0
2006-12-31,149100.0
2006-11-30,148600.0
2006-10-31,148400.0
2006-09-30,147200.0
2006-08-31,145400.0
2006-07-31,144000.0
2006-06-30,141800.0
2006-05-31,139000.0
2006-04-30,137800.0
2006-03-31,136700.0
2006-02-28,136000.0
2006-01-31,136900.0
2005-12-31,137200.0
2005-11-30,134600.0
2005-10-31,131100.0
2005-09-30,128900.0
2005-08-31,126000.0
2005-07-31,121600.0
2005-06-30,117600.0
2005-05-31,116000.0
2005-04-30,115400.0
2005-03-31,115200.0
2005-02-28,114800.0
2005-01-31,114400.0
2004-12-31,113700.0
2004-11-30,112500.0
2004-10-31,111800.0
2004-09-30,110600.0
2004-08-31,109100.0
2004-07-31,108800.0
2004-06-30,109600.0
2004-05-31,108700.0
2004-04-30,106900.0
2004-03-31,105700.0
2004-02-29,103600.0
2004-01-31,100800.0
2003-12-31,99800.0
2003-11-30,99600.0
2003-10-31,97900.0
2003-09-30,97600.0
2003-08-31,98800.0
2003-07-31,98900.0
2003-06-30,98700.0
2003-05-31,98800.0
2003-04-30,98800.0
2003-03-31,99200.0
2003-02-28,100400.0
2003-01-31,99800.0
2002-12-31,99200.0
2002-11-30,100500.0
2002-10-31,102900.0
2002-09-30,104200.0
2002-08-31,103500.0
2002-07-31,101300.0
2002-06-30,99400.0
2002-05-31,98900.0
2002-04-30,98500.0
2002-03-31,97700.0
2002-02-28,97300.0
2002-01-31,97600.0
2001-12-31,96500.0
2001-11-30,94400.0
2001-10-31,93600.0
2001-09-30,94500.0
2001-08-31,95400.0
2001-07-31,95700.0
2001-06-30,95200.0
2001-05-31,93900.0
2001-04-30,92400.0
2001-03-31,91300.0
2001-02-28,90300.0
2001-01-31,89400.0
2000-12-31,89300.0
2000-11-30,90000.0
2000-10-31,88300.0
2000-09-30,84900.0
2000-08-31,84100.0
2000-07-31,85900.0
2000-06-30,87200.0
2000-05-31,87800.0
2000-04-30,88900.0
2000-03-31,89200.0
2000-02-29,88700.0
2000-01-31,88100.0
1999-12-31,87400.0
1999-11-30,85900.0
1999-10-31,84700.0
1999-09-30,83100.0
1999-08-31,80900.0
1999-07-31,79400.0
1999-06-30,79400.0
1999-05-31,79800.0
1999-04-30,79500.0
1999-03-31,79300.0
1999-02-28,78900.0
1999-01-31,78200.0
1998-12-31,77100.0
1998-11-30,76300.0
1998-10-31,76000.0
1998-09-30,76500.0
1998-08-31,75300.0
1998-07-31,73200.0
1998-06-30,71700.0
1998-05-31,71000.0
1998-04-30,70500.0
1998-03-31,71200.0
1998-02-28,71900.0
1998-01-31,72900.0
1997-12-31,74800.0
1997-11-30,77000.0
1997-10-31,78000.0
1997-09-30,77300.0
1997-08-31,76400.0
1997-07-31,76000.0
1997-06-30,75700.0
1997-05-31,76000.0
1997-04-30,76600.0
1997-03-31,76200.0
1997-02-28,75100.0
1997-01-31,74300.0
1996-12-31,73900.0
1996-11-30,73400.0
1996-10-31,74400.0
1996-09-30,76700.0
1996-08-31,80400.0
1996-07-31,83700.0
1996-06-30,84400.0
1996-05-31,83100.0
1996-04-30,82200.0
