Date,Value
2015-09-30,282775.0
2015-08-31,280350.0
2015-07-31,287750.0
2015-06-30,285025.0
2015-05-31,278275.0
2015-04-30,257695.0
2015-03-31,257330.0
2015-02-28,258150.0
2015-01-31,246265.0
2014-12-31,256285.0
2014-11-30,256700.0
2014-10-31,261350.0
2014-09-30,254042.0
2014-08-31,270875.0
2014-07-31,263953.0
2014-06-30,259357.0
2014-05-31,248223.0
2014-04-30,247857.0
2014-03-31,239748.0
2014-02-28,242507.0
2014-01-31,245848.0
2013-12-31,250375.0
2013-11-30,252965.0
2013-10-31,258717.0
2013-09-30,242798.0
2013-08-31,246107.0
2013-07-31,256840.0
2013-06-30,260438.0
2013-05-31,256240.0
2013-04-30,261192.0
2013-03-31,263098.0
2013-02-28,251432.0
2013-01-31,265848.0
2012-12-31,286140.0
2012-11-30,258800.0
2012-10-31,252492.0
2012-09-30,249348.0
2012-08-31,249182.0
2012-07-31,249198.0
2012-06-30,256082.0
2012-05-31,245050.0
2012-04-30,227950.0
2012-03-31,217000.0
2012-02-29,242750.0
2012-01-31,234042.0
2011-12-31,242390.0
2011-11-30,265438.0
2011-10-31,290409.0
2011-09-30,271761.0
2011-08-31,263230.0
2011-07-31,249650.0
2011-06-30,260242.0
2011-05-31,275248.0
2011-04-30,269315.0
2011-03-31,259242.0
2011-02-28,247598.0
2011-01-31,256557.0
2010-12-31,260348.0
2010-11-30,257890.0
2010-10-31,259150.0
2010-09-30,265700.0
2010-08-31,285175.0
2010-07-31,291825.0
2010-06-30,250750.0
2010-05-31,243000.0
2010-04-30,252750.0
2010-03-31,260200.0
2010-02-28,257800.0
2010-01-31,260625.0
2009-12-31,258125.0
2009-11-30,262750.0
2009-10-31,281125.0
2009-09-30,260825.0
2009-08-31,260370.0
2009-07-31,255280.0
2009-06-30,261150.0
2009-05-31,259800.0
2009-04-30,256150.0
2009-03-31,247725.0
2009-02-28,252575.0
2009-01-31,260900.0
2008-12-31,270350.0
2008-11-30,266235.0
2008-10-31,271065.0
2008-09-30,277600.0
2008-08-31,280625.0
2008-07-31,271360.0
2008-06-30,280765.0
2008-05-31,284550.0
2008-04-30,276850.0
2008-03-31,270350.0
2008-02-29,279235.25
2008-01-31,277032.25
2007-12-31,276617.5
2007-11-30,278125.0
2007-10-31,294617.5
2007-09-30,306982.5
2007-08-31,327175.0
2007-07-31,301150.0
2007-06-30,294400.0
2007-05-31,290750.0
2007-04-30,295225.0
2007-03-31,294725.0
2007-02-28,277050.0
2007-01-31,288800.0
2006-12-31,294450.0
2006-11-30,315237.5
2006-10-31,314887.5
2006-09-30,295925.0
2006-08-31,286450.0
2006-07-31,291250.0
2006-06-30,285898.0
2006-05-31,279262.0
2006-04-30,280910.0
2006-03-31,284500.0
2006-02-28,266800.0
2006-01-31,260760.0
2005-12-31,263890.0
2005-11-30,259200.0
2005-10-31,252750.0
2005-09-30,253250.0
2005-08-31,244785.0
2005-07-31,240350.0
2005-06-30,232465.0
2005-05-31,233450.0
2005-04-30,231235.0
2005-03-31,214550.0
2005-02-28,206897.15
2005-01-31,215558.35
2004-12-31,218247.25
2004-11-30,222215.75
2004-10-31,221772.5
2004-09-30,225625.0
2004-08-31,223000.0
2004-07-31,212000.0
2004-06-30,203910.0
2004-05-31,198415.0
2004-04-30,203700.0
2004-03-31,202350.0
2004-02-29,193450.0
2004-01-31,192172.8
2003-12-31,189845.7
2003-11-30,191301.0
2003-10-31,185192.5
2003-09-30,191940.0
2003-08-31,190975.0
2003-07-31,196150.0
2003-06-30,180300.0
2003-05-31,177750.0
2003-04-30,176375.0
2003-03-31,179850.0
2003-02-28,171785.0
2003-01-31,172715.0
2002-12-31,169700.0
2002-11-30,183585.0
2002-10-31,188115.0
2002-09-30,185505.0
2002-08-31,193520.0
2002-07-31,173850.25
2002-06-30,165392.25
2002-05-31,167417.5
2002-04-30,165175.0
2002-03-31,163375.0
2002-02-28,165050.0
2002-01-31,157192.5
2001-12-31,157932.5
2001-11-30,163512.5
2001-10-31,165337.5
2001-09-30,160175.0
2001-08-31,166350.0
2001-07-31,166294.0
2001-06-30,168261.0
2001-05-31,170305.0
2001-04-30,164435.0
2001-03-31,162865.8
2001-02-28,161585.2
2001-01-31,159736.0
2000-12-31,160200.0
2000-11-30,152500.0
2000-10-31,159100.0
2000-09-30,164625.0
2000-08-31,167975.0
2000-07-31,174625.0
2000-06-30,167600.0
2000-05-31,159650.0
2000-04-30,160875.0
2000-03-31,167770.0
2000-02-29,156540.7
2000-01-31,159558.3
1999-12-31,157639.25
1999-11-30,156997.25
1999-10-31,160767.5
1999-09-30,168960.0
1999-08-31,162890.0
1999-07-31,161442.5
1999-06-30,155167.5
1999-05-31,154532.5
1999-04-30,147032.5
1999-03-31,140125.0
1999-02-28,147350.0
1999-01-31,163900.0
1998-12-31,168250.0
1998-11-30,160315.5
1998-10-31,151944.5
1998-09-30,155995.0
1998-08-31,146840.0
1998-07-31,144075.0
1998-06-30,137625.0
1998-05-31,141125.0
1998-04-30,146200.0
1998-03-31,157001.0
1998-02-28,146296.5
1998-01-31,142142.5
1997-12-31,135675.0
1997-11-30,140625.0
1997-10-31,137750.0
1997-09-30,135000.0
1997-08-31,138500.0
1997-07-31,133500.0
1997-06-30,128742.5
1997-05-31,137357.5
1997-04-30,153650.0
1997-03-31,157275.0
1997-02-28,140450.0
1997-01-31,145975.0
1996-12-31,130800.0
1996-11-30,127285.0
1996-10-31,139412.5
1996-09-30,137027.5
1996-08-31,140000.0
1996-07-31,136775.0
1996-06-30,135550.0
1996-05-31,121450.0
1996-04-30,113485.0
