Date,Value
2015-09-30,215500.0
2015-08-31,212800.0
2015-07-31,209400.0
2015-06-30,211200.0
2015-05-31,207800.0
2015-04-30,207700.0
2015-03-31,207900.0
2015-02-28,203700.0
2015-01-31,201600.0
2014-12-31,203500.0
2014-11-30,205500.0
2014-10-31,202300.0
2014-09-30,196000.0
2014-08-31,192200.0
2014-07-31,192100.0
2014-06-30,192400.0
2014-05-31,192300.0
2014-04-30,190600.0
2014-03-31,189900.0
2014-02-28,191900.0
2014-01-31,194800.0
2013-12-31,195800.0
2013-11-30,194300.0
2013-10-31,191800.0
2013-09-30,189600.0
2013-08-31,187900.0
2013-07-31,186400.0
2013-06-30,184900.0
2013-05-31,183900.0
2013-04-30,183600.0
2013-03-31,184500.0
2013-02-28,185800.0
2013-01-31,186200.0
2012-12-31,183600.0
2012-11-30,181500.0
2012-10-31,181600.0
2012-09-30,182300.0
2012-08-31,182200.0
2012-07-31,181400.0
2012-06-30,180600.0
2012-05-31,179700.0
2012-04-30,178200.0
2012-03-31,176600.0
2012-02-29,176600.0
2012-01-31,178200.0
2011-12-31,179900.0
2011-11-30,181100.0
2011-10-31,183200.0
2011-09-30,186800.0
2011-08-31,190500.0
2011-07-31,193000.0
2011-06-30,194300.0
2011-05-31,195700.0
2011-04-30,198300.0
2011-03-31,200100.0
2011-02-28,201900.0
2011-01-31,204800.0
2010-12-31,209200.0
2010-11-30,213100.0
2010-10-31,216700.0
2010-09-30,219800.0
2010-08-31,220500.0
2010-07-31,221300.0
2010-06-30,224500.0
2010-05-31,227700.0
2010-04-30,227900.0
2010-03-31,226600.0
2010-02-28,226000.0
2010-01-31,226500.0
2009-12-31,228700.0
2009-11-30,231200.0
2009-10-31,232200.0
2009-09-30,231800.0
2009-08-31,232600.0
2009-07-31,233300.0
2009-06-30,232500.0
2009-05-31,231300.0
2009-04-30,229400.0
2009-03-31,226900.0
2009-02-28,223700.0
2009-01-31,220800.0
2008-12-31,218100.0
2008-11-30,214100.0
2008-10-31,213700.0
2008-09-30,220400.0
2008-08-31,229300.0
2008-07-31,236000.0
2008-06-30,241000.0
2008-05-31,243900.0
2008-04-30,247900.0
2008-03-31,254100.0
2008-02-29,258800.0
2008-01-31,260100.0
2007-12-31,260400.0
2007-11-30,262900.0
2007-10-31,266500.0
2007-09-30,266600.0
2007-08-31,264400.0
2007-07-31,263600.0
2007-06-30,264300.0
2007-05-31,264800.0
2007-04-30,266400.0
2007-03-31,270900.0
2007-02-28,275200.0
2007-01-31,276000.0
2006-12-31,274400.0
2006-11-30,273300.0
2006-10-31,270700.0
2006-09-30,266600.0
2006-08-31,262900.0
2006-07-31,261900.0
2006-06-30,261700.0
2006-05-31,261200.0
2006-04-30,258800.0
2006-03-31,257000.0
2006-02-28,256500.0
2006-01-31,254900.0
2005-12-31,251400.0
2005-11-30,248000.0
2005-10-31,243500.0
2005-09-30,237500.0
2005-08-31,231700.0
2005-07-31,225900.0
2005-06-30,219600.0
2005-05-31,213200.0
2005-04-30,207500.0
2005-03-31,201600.0
2005-02-28,195300.0
2005-01-31,190200.0
2004-12-31,188200.0
2004-11-30,186100.0
2004-10-31,183000.0
2004-09-30,180300.0
2004-08-31,178000.0
2004-07-31,174900.0
2004-06-30,171800.0
2004-05-31,169900.0
2004-04-30,168300.0
2004-03-31,166100.0
2004-02-29,164300.0
2004-01-31,163200.0
2003-12-31,161700.0
2003-11-30,159200.0
2003-10-31,157300.0
2003-09-30,157200.0
2003-08-31,158700.0
2003-07-31,157700.0
2003-06-30,154700.0
2003-05-31,154200.0
2003-04-30,156900.0
2003-03-31,156300.0
2003-02-28,154200.0
2003-01-31,154000.0
2002-12-31,153800.0
2002-11-30,153100.0
2002-10-31,153900.0
2002-09-30,154300.0
2002-08-31,153000.0
2002-07-31,151600.0
2002-06-30,151400.0
2002-05-31,151700.0
2002-04-30,150300.0
2002-03-31,148000.0
2002-02-28,145800.0
2002-01-31,144200.0
2001-12-31,144200.0
2001-11-30,144800.0
2001-10-31,144900.0
2001-09-30,143700.0
2001-08-31,141500.0
2001-07-31,141500.0
2001-06-30,143500.0
2001-05-31,143900.0
2001-04-30,143700.0
2001-03-31,145700.0
2001-02-28,148600.0
2001-01-31,149500.0
2000-12-31,148300.0
2000-11-30,148000.0
2000-10-31,148400.0
2000-09-30,148900.0
2000-08-31,150100.0
2000-07-31,151900.0
2000-06-30,151900.0
2000-05-31,151100.0
2000-04-30,149400.0
2000-03-31,148100.0
2000-02-29,147700.0
2000-01-31,148200.0
1999-12-31,148700.0
1999-11-30,148900.0
1999-10-31,147800.0
1999-09-30,146100.0
1999-08-31,144600.0
1999-07-31,143900.0
1999-06-30,144100.0
1999-05-31,145100.0
1999-04-30,147300.0
1999-03-31,150600.0
1999-02-28,150100.0
1999-01-31,146700.0
1998-12-31,146500.0
1998-11-30,148700.0
1998-10-31,148000.0
1998-09-30,145900.0
1998-08-31,144000.0
1998-07-31,141900.0
1998-06-30,138900.0
1998-05-31,133600.0
1998-04-30,128300.0
1998-03-31,125000.0
1998-02-28,122300.0
1998-01-31,118700.0
1997-12-31,115100.0
1997-11-30,110900.0
1997-10-31,107100.0
1997-09-30,104100.0
1997-08-31,102200.0
1997-07-31,100600.0
1997-06-30,99100.0
1997-05-31,98100.0
1997-04-30,98400.0
1997-03-31,99200.0
1997-02-28,100400.0
1997-01-31,101500.0
1996-12-31,102200.0
1996-11-30,103900.0
1996-10-31,107300.0
1996-09-30,111000.0
1996-08-31,112400.0
1996-07-31,112700.0
1996-06-30,114900.0
1996-05-31,117700.0
1996-04-30,117300.0
