Date,Value
2015-01-31,114900.0
2014-12-31,112300.0
2014-11-30,109200.0
2014-10-31,106100.0
2014-09-30,103000.0
2014-08-31,100400.0
2014-07-31,98200.0
2014-06-30,96100.0
2014-05-31,94900.0
2014-04-30,93500.0
2014-03-31,91700.0
2014-02-28,89400.0
2014-01-31,87600.0
2013-12-31,85900.0
2013-11-30,84600.0
2013-10-31,83300.0
2013-09-30,82800.0
2013-08-31,82600.0
2013-07-31,81900.0
2013-06-30,80800.0
2013-05-31,80600.0
2013-04-30,80800.0
2013-03-31,80800.0
2013-02-28,80600.0
2013-01-31,80700.0
2012-12-31,80600.0
2012-11-30,79700.0
2012-10-31,79300.0
2012-09-30,79200.0
2012-08-31,78800.0
2012-07-31,78700.0
2012-06-30,78700.0
2012-05-31,78600.0
2012-04-30,79100.0
2012-03-31,79500.0
2012-02-29,79100.0
2012-01-31,78900.0
2011-12-31,79700.0
2011-11-30,79900.0
2011-10-31,79000.0
2011-09-30,78300.0
2011-08-31,78200.0
2011-07-31,77300.0
2011-06-30,76100.0
2011-05-31,75500.0
2011-04-30,75200.0
2011-03-31,75100.0
2011-02-28,75700.0
2011-01-31,77500.0
2010-12-31,79500.0
2010-11-30,81100.0
2010-10-31,82000.0
2010-09-30,82200.0
2010-08-31,81300.0
2010-07-31,80600.0
2010-06-30,80800.0
2010-05-31,80800.0
2010-04-30,80100.0
2010-03-31,79700.0
2010-02-28,79000.0
2010-01-31,77800.0
2009-12-31,76700.0
2009-11-30,76500.0
2009-10-31,76400.0
2009-09-30,76000.0
2009-08-31,75800.0
2009-07-31,76600.0
2009-06-30,77700.0
2009-05-31,78200.0
2009-04-30,78600.0
2009-03-31,78900.0
2009-02-28,79400.0
2009-01-31,77300.0
2008-12-31,74400.0
2008-11-30,74000.0
2008-10-31,75500.0
2008-09-30,76500.0
2008-08-31,78200.0
2008-07-31,79800.0
2008-06-30,81200.0
2008-05-31,82600.0
2008-04-30,84200.0
2008-03-31,85900.0
2008-02-29,87700.0
2008-01-31,90300.0
2007-12-31,93400.0
2007-11-30,95500.0
2007-10-31,96800.0
2007-09-30,97900.0
2007-08-31,98700.0
2007-07-31,99000.0
2007-06-30,98900.0
2007-05-31,98600.0
2007-04-30,98300.0
2007-03-31,97400.0
2007-02-28,96100.0
2007-01-31,95400.0
2006-12-31,94700.0
2006-11-30,93500.0
2006-10-31,92900.0
2006-09-30,93000.0
2006-08-31,92500.0
2006-07-31,91900.0
2006-06-30,91300.0
2006-05-31,90600.0
2006-04-30,90100.0
2006-03-31,90900.0
2006-02-28,92000.0
2006-01-31,92900.0
2005-12-31,93800.0
2005-11-30,94600.0
2005-10-31,94600.0
2005-09-30,94600.0
2005-08-31,95200.0
2005-07-31,95900.0
2005-06-30,96100.0
2005-05-31,96200.0
2005-04-30,95800.0
2005-03-31,94600.0
2005-02-28,93500.0
2005-01-31,93200.0
2004-12-31,92700.0
2004-11-30,91600.0
2004-10-31,90500.0
2004-09-30,89800.0
2004-08-31,89200.0
2004-07-31,88700.0
2004-06-30,88900.0
2004-05-31,89400.0
2004-04-30,90100.0
2004-03-31,90600.0
2004-02-29,90700.0
2004-01-31,90300.0
2003-12-31,90300.0
2003-11-30,90300.0
2003-10-31,90600.0
2003-09-30,90600.0
2003-08-31,90200.0
2003-07-31,89500.0
2003-06-30,88900.0
2003-05-31,88600.0
2003-04-30,88500.0
2003-03-31,88200.0
2003-02-28,87400.0
2003-01-31,86800.0
2002-12-31,86500.0
2002-11-30,86100.0
2002-10-31,85200.0
2002-09-30,84400.0
2002-08-31,83900.0
2002-07-31,83200.0
2002-06-30,82600.0
2002-05-31,82500.0
2002-04-30,82000.0
2002-03-31,81300.0
2002-02-28,81200.0
2002-01-31,81200.0
2001-12-31,81100.0
2001-11-30,81100.0
2001-10-31,81300.0
2001-09-30,81200.0
2001-08-31,80900.0
2001-07-31,80700.0
2001-06-30,80600.0
2001-05-31,80400.0
2001-04-30,80000.0
2001-03-31,79500.0
2001-02-28,79300.0
2001-01-31,79600.0
2000-12-31,79800.0
2000-11-30,79800.0
2000-10-31,79800.0
2000-09-30,79600.0
2000-08-31,79400.0
2000-07-31,79800.0
2000-06-30,79800.0
2000-05-31,79200.0
2000-04-30,79100.0
2000-03-31,79700.0
2000-02-29,79800.0
2000-01-31,79300.0
1999-12-31,78400.0
1999-11-30,77700.0
1999-10-31,77400.0
1999-09-30,76900.0
1999-08-31,76200.0
1999-07-31,75600.0
1999-06-30,74700.0
1999-05-31,73100.0
1999-04-30,71700.0
1999-03-31,71000.0
1999-02-28,70700.0
1999-01-31,70400.0
1998-12-31,69700.0
1998-11-30,69000.0
1998-10-31,68600.0
1998-09-30,68500.0
1998-08-31,68500.0
1998-07-31,68500.0
1998-06-30,68400.0
1998-05-31,68400.0
1998-04-30,68500.0
1998-03-31,68400.0
1998-02-28,67900.0
1998-01-31,67500.0
1997-12-31,67800.0
1997-11-30,68000.0
1997-10-31,67400.0
1997-09-30,66700.0
1997-08-31,66400.0
1997-07-31,66300.0
1997-06-30,66400.0
1997-05-31,66600.0
1997-04-30,66600.0
1997-03-31,66600.0
1997-02-28,66200.0
1997-01-31,65000.0
1996-12-31,64400.0
1996-11-30,64200.0
1996-10-31,64700.0
1996-09-30,65300.0
1996-08-31,65800.0
1996-07-31,65000.0
1996-06-30,64200.0
1996-05-31,63600.0
1996-04-30,63000.0
