Date,Value
2015-09-30,370500.0
2015-08-31,371800.0
2015-07-31,341000.0
2015-06-30,325294.1176
2015-05-31,345746.6154
2014-12-31,333910.0
2014-11-30,357525.0
2014-10-31,324475.0
2014-09-30,303325.95
2014-08-31,286188.8824
2014-07-31,318655.2308
2014-05-31,382029.55
2014-04-30,384062.55
2014-03-31,371980.5882
2014-02-28,319861.5385
2013-11-30,343977.6471
2013-10-31,397101.0769
2013-08-31,343270.45
2013-07-31,281870.05
2013-06-30,336171.5
2013-05-31,377350.0
2013-04-30,390450.0
2013-02-28,291686.5
2013-01-31,327983.5
2012-12-31,373025.0
2012-11-30,401625.0
2012-10-31,375918.9
2012-09-30,366644.1
2012-08-31,385167.65
2012-07-31,419660.85
2012-06-30,395565.5
2012-05-31,346705.8824
2012-04-30,292000.0
2011-12-31,338548.3
2011-11-30,373152.75
2011-10-31,392262.5
2011-09-30,360750.0
2011-08-31,381750.0
2011-07-31,442637.7
2011-06-30,424411.0
2011-05-31,414694.0
2011-04-30,357114.0
2010-12-31,494177.3846
2010-10-31,396301.0
2010-09-30,422250.0
2010-08-31,394775.0
2010-07-31,324475.0
2010-06-30,274000.0
2010-05-31,293106.7
2010-04-30,344801.1765
2010-03-31,409615.3846
2010-01-31,408735.0
2009-12-31,331950.0
2009-11-30,306500.0
2009-10-31,387000.0
2009-09-30,393500.0
2009-08-31,376250.0
2009-07-31,364705.8824
2009-06-30,406500.0
2008-10-31,436269.2308
2008-07-31,412920.95
2008-06-30,393608.5
2008-05-31,408850.0
2008-04-30,105000.0
2008-03-31,237307.6923
2008-01-31,461538.4615
2007-10-31,627692.3077
2007-08-31,488975.0
2007-07-31,487525.0
2007-06-30,423750.0
2007-05-31,418250.0
2007-04-30,392647.0588
2007-03-31,420384.6154
2007-01-31,406600.15
2006-12-31,421150.35
2006-11-30,454355.15
2006-10-31,433910.85
2006-09-30,431265.5
2006-08-31,431235.0
2006-07-31,437465.0
2006-06-30,448408.45
2006-05-31,436661.3
2006-04-30,418380.75
2006-03-31,401202.5
2006-02-28,425825.0
2006-01-31,430500.0
2005-12-31,450750.0
2005-11-30,413500.0
2005-10-31,434700.0
2005-09-30,425500.0
2005-08-31,445100.0
2005-07-31,399494.25
2005-06-30,385353.25
2005-05-31,351585.15
2005-04-30,332187.85
2005-03-31,354375.5
2005-02-28,374500.0
2005-01-31,395625.0
2004-12-31,380925.0
2004-11-30,368825.0
2004-10-31,382125.0
2004-09-30,326750.0
2004-08-31,341825.0
2004-07-31,334175.0
2004-06-30,314000.0
2004-05-31,322250.0
2004-04-30,321525.0
2004-03-31,324475.0
2004-01-31,450000.0
2003-10-31,88500.0
2002-04-30,70000.0
2000-02-29,50000.0
1999-11-30,89000.0
