Date,Value
2015-10-31,185000.0
2015-02-28,185000.0
2015-01-31,184500.0
2014-12-31,179900.0
2014-11-30,189000.0
2014-10-31,189000.0
2014-09-30,189900.0
2014-08-31,191000.0
2014-07-31,189900.0
2014-06-30,185000.0
2014-05-31,178000.0
2014-04-30,174950.0
2014-03-31,172000.0
2014-02-28,174900.0
2014-01-31,174500.0
2013-12-31,175000.0
2013-11-30,174900.0
2013-10-31,182000.0
2013-09-30,180000.0
2013-08-31,189000.0
2013-07-31,195000.0
2013-06-30,197500.0
2013-05-31,195900.0
2013-04-30,189000.0
2013-03-31,179900.0
2013-02-28,179500.0
2013-01-31,179500.0
2012-12-31,179000.0
2012-11-30,179000.0
2012-10-31,179000.0
2012-09-30,184500.0
2012-08-31,189000.0
2012-07-31,185000.0
2012-06-30,185000.0
2012-05-31,182500.0
2012-04-30,182900.0
2012-03-31,184000.0
2012-02-29,179900.0
2012-01-31,179200.0
2011-12-31,180000.0
2011-11-30,179900.0
2011-10-31,184900.0
2011-09-30,182000.0
2011-08-31,181900.0
2011-07-31,184900.0
2011-06-30,182500.0
2011-05-31,180000.0
2011-04-30,179900.0
2011-03-31,179900.0
2011-02-28,179500.0
2011-01-31,175000.0
2010-12-31,179000.0
2010-11-30,179900.0
2010-10-31,179950.0
2010-09-30,187000.0
2010-08-31,185000.0
2010-07-31,184500.0
2010-06-30,179950.0
2010-05-31,174900.0
2010-04-30,174900.0
2010-03-31,179900.0
2010-02-28,183900.0
2010-01-31,186900.0
2009-12-31,187000.0
2009-11-30,184950.0
2009-10-31,184000.0
2009-09-30,185000.0
2009-08-31,185000.0
2009-07-31,182000.0
2009-06-30,179500.0
2009-05-31,179950.0
2009-04-30,179000.0
2009-03-31,183000.0
2009-02-28,185000.0
2009-01-31,189500.0
2008-12-31,190000.0
2008-11-30,189900.0
2008-10-31,194500.0
