Date,Value
2015-09-30,199700.0
2015-08-31,201400.0
2015-07-31,200100.0
2015-06-30,196900.0
2015-05-31,192900.0
2015-04-30,191600.0
2015-03-31,193900.0
2015-02-28,195900.0
2015-01-31,200000.0
2014-12-31,199600.0
2014-11-30,199200.0
2014-10-31,200100.0
2014-09-30,201200.0
2014-08-31,200600.0
2014-07-31,198100.0
2014-06-30,195600.0
2014-05-31,193600.0
2014-04-30,191500.0
2014-03-31,189700.0
2014-02-28,189300.0
2014-01-31,189800.0
2013-12-31,189300.0
2013-11-30,187600.0
2013-10-31,186100.0
2013-09-30,185200.0
2013-08-31,184300.0
2013-07-31,183500.0
2013-06-30,183200.0
2013-05-31,183300.0
2013-04-30,183400.0
2013-03-31,183400.0
2013-02-28,183800.0
2013-01-31,184600.0
2012-12-31,185000.0
2012-11-30,185100.0
2012-10-31,185200.0
2012-09-30,185500.0
2012-08-31,186100.0
2012-07-31,187100.0
2012-06-30,187600.0
2012-05-31,187800.0
2012-04-30,188100.0
2012-03-31,188500.0
2012-02-29,188600.0
2012-01-31,188400.0
2011-12-31,188300.0
2011-11-30,188400.0
2011-10-31,188700.0
2011-09-30,189300.0
2011-08-31,190700.0
2011-07-31,192100.0
2011-06-30,193500.0
2011-05-31,195100.0
2011-04-30,197200.0
2011-03-31,199500.0
2011-02-28,201300.0
2011-01-31,202800.0
2010-12-31,205000.0
2010-11-30,207600.0
2010-10-31,210200.0
2010-09-30,212600.0
2010-08-31,214700.0
2010-07-31,216600.0
2010-06-30,218500.0
2010-05-31,220100.0
2010-04-30,221500.0
2010-03-31,222500.0
2010-02-28,223100.0
2010-01-31,222700.0
2009-12-31,222000.0
2009-11-30,221100.0
2009-10-31,220000.0
2009-09-30,218900.0
2009-08-31,218700.0
2009-07-31,219000.0
2009-06-30,219000.0
2009-05-31,219000.0
2009-04-30,219100.0
2009-03-31,219200.0
2009-02-28,219200.0
2009-01-31,219800.0
2008-12-31,221300.0
2008-11-30,223200.0
2008-10-31,225100.0
2008-09-30,228300.0
2008-08-31,231900.0
2008-07-31,235300.0
2008-06-30,237700.0
2008-05-31,239800.0
2008-04-30,241400.0
2008-03-31,243200.0
2008-02-29,244300.0
2008-01-31,245600.0
2007-12-31,246600.0
2007-11-30,248100.0
2007-10-31,249700.0
2007-09-30,249800.0
2007-08-31,249000.0
2007-07-31,249100.0
2007-06-30,249100.0
2007-05-31,248800.0
2007-04-30,249100.0
2007-03-31,249900.0
2007-02-28,250700.0
2007-01-31,250400.0
2006-12-31,248900.0
2006-11-30,246900.0
2006-10-31,245200.0
2006-09-30,243800.0
2006-08-31,242800.0
2006-07-31,241400.0
2006-06-30,239300.0
2006-05-31,237400.0
2006-04-30,236400.0
2006-03-31,235500.0
2006-02-28,233400.0
2006-01-31,230100.0
2005-12-31,226300.0
2005-11-30,222800.0
2005-10-31,217700.0
2005-09-30,211200.0
2005-08-31,205700.0
2005-07-31,201900.0
2005-06-30,197900.0
2005-05-31,193900.0
2005-04-30,189800.0
2005-03-31,185800.0
2005-02-28,182400.0
2005-01-31,180500.0
2004-12-31,178300.0
2004-11-30,175100.0
2004-10-31,171000.0
2004-09-30,167600.0
2004-08-31,165100.0
2004-07-31,163200.0
2004-06-30,162100.0
2004-05-31,161900.0
2004-04-30,160400.0
2004-03-31,157600.0
2004-02-29,155700.0
2004-01-31,155400.0
2003-12-31,155000.0
2003-11-30,154300.0
2003-10-31,154900.0
2003-09-30,156300.0
2003-08-31,154600.0
2003-07-31,150600.0
2003-06-30,148400.0
2003-05-31,146200.0
2003-04-30,143700.0
2003-03-31,141600.0
2003-02-28,139000.0
2003-01-31,135800.0
2002-12-31,134400.0
2002-11-30,134200.0
2002-10-31,134800.0
2002-09-30,136000.0
2002-08-31,136600.0
2002-07-31,136500.0
2002-06-30,136000.0
2002-05-31,135100.0
2002-04-30,134100.0
2002-03-31,133700.0
2002-02-28,134000.0
2002-01-31,133700.0
2001-12-31,133700.0
2001-11-30,133800.0
2001-10-31,133000.0
2001-09-30,130800.0
2001-08-31,130400.0
2001-07-31,130300.0
2001-06-30,129600.0
2001-05-31,128900.0
2001-04-30,128500.0
2001-03-31,128400.0
2001-02-28,129100.0
2001-01-31,129900.0
2000-12-31,130000.0
2000-11-30,130300.0
2000-10-31,130700.0
2000-09-30,130700.0
2000-08-31,130400.0
2000-07-31,130200.0
2000-06-30,129800.0
2000-05-31,129700.0
2000-04-30,130500.0
2000-03-31,131500.0
2000-02-29,131500.0
2000-01-31,130800.0
1999-12-31,129800.0
1999-11-30,128700.0
1999-10-31,127600.0
1999-09-30,127200.0
1999-08-31,126900.0
1999-07-31,126300.0
1999-06-30,125100.0
1999-05-31,124200.0
1999-04-30,124000.0
1999-03-31,124100.0
1999-02-28,123900.0
1999-01-31,123200.0
1998-12-31,122000.0
1998-11-30,120900.0
1998-10-31,120200.0
1998-09-30,119900.0
1998-08-31,120000.0
1998-07-31,120400.0
1998-06-30,120900.0
1998-05-31,121600.0
1998-04-30,122300.0
1998-03-31,122300.0
1998-02-28,121400.0
1998-01-31,121000.0
1997-12-31,120700.0
1997-11-30,120500.0
1997-10-31,119900.0
1997-09-30,119400.0
1997-08-31,118200.0
1997-07-31,116600.0
1997-06-30,115800.0
1997-05-31,116700.0
1997-04-30,117800.0
1997-03-31,117700.0
1997-02-28,116800.0
1997-01-31,116000.0
1996-12-31,115400.0
1996-11-30,115200.0
1996-10-31,115000.0
1996-09-30,114900.0
1996-08-31,115900.0
1996-07-31,119500.0
1996-06-30,122600.0
1996-05-31,122100.0
1996-04-30,119600.0
