Date,Value
2015-10-31,198700.0
2015-02-28,179900.0
2015-01-31,174900.0
2014-12-31,170000.0
2014-11-30,179900.0
2014-10-31,179900.0
2014-09-30,182000.0
2014-08-31,175900.0
2014-07-31,180000.0
2014-06-30,190000.0
2014-05-31,199500.0
2014-04-30,194000.0
2014-03-31,189950.0
2014-02-28,179900.0
2014-01-31,189900.0
2013-12-31,198000.0
2013-11-30,195000.0
2013-10-31,194950.0
2013-09-30,194900.0
2013-08-31,185000.0
2013-07-31,185000.0
2013-06-30,190000.0
2013-05-31,199500.0
2013-04-30,190000.0
2013-03-31,175000.0
2013-02-28,180000.0
2013-01-31,179900.0
2012-12-31,174900.0
2012-11-30,170000.0
2012-10-31,119000.0
2012-09-30,187900.0
2012-08-31,175000.0
2012-07-31,138000.0
2012-06-30,169000.0
2012-05-31,179000.0
2012-04-30,179900.0
2012-03-31,169000.0
2012-02-29,149900.0
2012-01-31,145000.0
2011-12-31,169900.0
2011-11-30,169900.0
2011-10-31,149950.0
2011-09-30,109500.0
2011-08-31,124900.0
2011-07-31,124500.0
2011-06-30,105000.0
2011-05-31,119000.0
2011-04-30,119000.0
2011-03-31,105000.0
2011-02-28,95000.0
2011-01-31,140000.0
2010-12-31,140000.0
2010-11-30,185000.0
2010-10-31,189000.0
2010-09-30,215000.0
2010-08-31,228000.0
2010-07-31,215000.0
2010-06-30,225000.0
2010-05-31,239000.0
2010-04-30,239000.0
2010-03-31,235000.0
2010-02-28,249500.0
2010-01-31,249900.0
2009-12-31,249800.0
2009-11-30,245000.0
2009-10-31,219000.0
2009-09-30,219000.0
2009-08-31,223000.0
2009-07-31,200000.0
2009-06-30,199000.0
2009-05-31,230000.0
2009-04-30,229900.0
2009-03-31,249000.0
2009-02-28,249000.0
2009-01-31,245000.0
2008-12-31,219000.0
2008-11-30,205000.0
2008-10-31,225000.0
