Date,Value
2015-09-30,1.078
2015-08-31,1.072
2015-07-31,1.064
2015-06-30,1.06
2015-05-31,1.054
2015-04-30,1.048
2015-03-31,1.042
2015-02-28,1.034
2015-01-31,1.032
2014-12-31,1.03
2014-11-30,1.028
2014-10-31,1.022
2014-09-30,1.018
2014-08-31,1.014
2014-07-31,1.01
2014-06-30,1.004
2014-05-31,1.0
2014-04-30,0.994
2014-03-31,0.996
2014-02-28,0.996
2014-01-31,0.998
2013-12-31,0.996
2013-11-30,0.992
2013-10-31,0.986
2013-09-30,0.978
2013-08-31,0.97
2013-07-31,0.96
2013-06-30,0.952
2013-05-31,0.948
2013-04-30,0.946
2013-03-31,0.94
2013-02-28,0.928
2013-01-31,0.92
2012-12-31,0.912
2012-11-30,0.91
2012-10-31,0.91
2012-09-30,0.914
2012-08-31,0.916
2012-07-31,0.916
2012-06-30,0.914
2012-05-31,0.906
2012-04-30,0.902
2012-03-31,0.898
2012-02-29,0.896
2012-01-31,0.89
2011-12-31,0.884
2011-11-30,0.88
2011-10-31,0.874
2011-09-30,0.866
2011-08-31,0.862
2011-07-31,0.862
2011-06-30,0.866
2011-05-31,0.866
2011-04-30,0.864
2011-03-31,0.86
2011-02-28,0.858
2011-01-31,0.852
2010-12-31,0.85
2010-11-30,0.846
