Date,Value
2015-09-30,200300.0
2015-08-31,196700.0
2015-07-31,191300.0
2015-06-30,194700.0
2015-05-31,193600.0
2015-04-30,194300.0
2015-03-31,196000.0
2015-02-28,197900.0
2015-01-31,195000.0
2014-12-31,194400.0
2014-11-30,194500.0
2014-10-31,194600.0
2014-09-30,193100.0
2014-08-31,191100.0
2014-07-31,190100.0
2014-06-30,189400.0
2014-05-31,188400.0
2014-04-30,187300.0
2014-03-31,186800.0
2014-02-28,187500.0
2014-01-31,189100.0
2013-12-31,191200.0
2013-11-30,192800.0
2013-10-31,193700.0
2013-09-30,194200.0
2013-08-31,194400.0
2013-07-31,193900.0
2013-06-30,192800.0
2013-05-31,192300.0
2013-04-30,193100.0
2013-03-31,193400.0
2013-02-28,191900.0
2013-01-31,190200.0
2012-12-31,189000.0
2012-11-30,188400.0
2012-10-31,188000.0
2012-09-30,187900.0
2012-08-31,187300.0
2012-07-31,185800.0
2012-06-30,184400.0
2012-05-31,184200.0
2012-04-30,184500.0
2012-03-31,184800.0
2012-02-29,184800.0
2012-01-31,184200.0
2011-12-31,182700.0
2011-11-30,181400.0
2011-10-31,181600.0
2011-09-30,182700.0
2011-08-31,184100.0
2011-07-31,186500.0
2011-06-30,189300.0
2011-05-31,190700.0
2011-04-30,191300.0
2011-03-31,190900.0
2011-02-28,190200.0
2011-01-31,191000.0
2010-12-31,193000.0
2010-11-30,194000.0
2010-10-31,194800.0
2010-09-30,195600.0
2010-08-31,195800.0
2010-07-31,195900.0
2010-06-30,196400.0
2010-05-31,197300.0
2010-04-30,198400.0
2010-03-31,199800.0
2010-02-28,201300.0
2010-01-31,202000.0
2009-12-31,201500.0
2009-11-30,202000.0
2009-10-31,202600.0
2009-09-30,202400.0
2009-08-31,203100.0
2009-07-31,205000.0
2009-06-30,206800.0
2009-05-31,208600.0
2009-04-30,210300.0
2009-03-31,211900.0
2009-02-28,213300.0
2009-01-31,214300.0
2008-12-31,215300.0
2008-11-30,215900.0
2008-10-31,215700.0
2008-09-30,216900.0
2008-08-31,220900.0
2008-07-31,224300.0
2008-06-30,225900.0
2008-05-31,226800.0
2008-04-30,226800.0
2008-03-31,225600.0
2008-02-29,225300.0
2008-01-31,225900.0
2007-12-31,226300.0
2007-11-30,227100.0
2007-10-31,228400.0
2007-09-30,229800.0
2007-08-31,231500.0
2007-07-31,232200.0
2007-06-30,230900.0
2007-05-31,228800.0
2007-04-30,226200.0
2007-03-31,223300.0
2007-02-28,220700.0
2007-01-31,219200.0
2006-12-31,218500.0
2006-11-30,216600.0
2006-10-31,213000.0
2006-09-30,209900.0
2006-08-31,207000.0
2006-07-31,203000.0
2006-06-30,198300.0
2006-05-31,194700.0
2006-04-30,193200.0
2006-03-31,193300.0
2006-02-28,192500.0
2006-01-31,190700.0
2005-12-31,189000.0
2005-11-30,187300.0
2005-10-31,185000.0
2005-09-30,181600.0
2005-08-31,176400.0
2005-07-31,171400.0
2005-06-30,168800.0
2005-05-31,167200.0
2005-04-30,165200.0
2005-03-31,163200.0
2005-02-28,161300.0
2005-01-31,159400.0
2004-12-31,157300.0
2004-11-30,155800.0
2004-10-31,155900.0
2004-09-30,156100.0
2004-08-31,155400.0
2004-07-31,155100.0
2004-06-30,156100.0
2004-05-31,156500.0
2004-04-30,155700.0
2004-03-31,154700.0
2004-02-29,153700.0
2004-01-31,152400.0
2003-12-31,150000.0
2003-11-30,147300.0
2003-10-31,145100.0
2003-09-30,143100.0
2003-08-31,141300.0
2003-07-31,140400.0
2003-06-30,139700.0
2003-05-31,138400.0
2003-04-30,137000.0
2003-03-31,135500.0
2003-02-28,134200.0
2003-01-31,133400.0
2002-12-31,134000.0
2002-11-30,135300.0
2002-10-31,136400.0
2002-09-30,136900.0
2002-08-31,137100.0
2002-07-31,137200.0
2002-06-30,136800.0
2002-05-31,135600.0
2002-04-30,134500.0
2002-03-31,134300.0
2002-02-28,134300.0
2002-01-31,133400.0
2001-12-31,132200.0
2001-11-30,131000.0
2001-10-31,129500.0
2001-09-30,128200.0
2001-08-31,127200.0
2001-07-31,126100.0
2001-06-30,126100.0
2001-05-31,127000.0
2001-04-30,127300.0
2001-03-31,127000.0
2001-02-28,127000.0
2001-01-31,126700.0
2000-12-31,126200.0
2000-11-30,126100.0
2000-10-31,125800.0
2000-09-30,124900.0
2000-08-31,124400.0
2000-07-31,123900.0
2000-06-30,122900.0
2000-05-31,122400.0
2000-04-30,122300.0
2000-03-31,121500.0
2000-02-29,119900.0
2000-01-31,118900.0
1999-12-31,118200.0
1999-11-30,117600.0
1999-10-31,117000.0
1999-09-30,117000.0
1999-08-31,117900.0
1999-07-31,118800.0
1999-06-30,118200.0
1999-05-31,116700.0
1999-04-30,115600.0
1999-03-31,116300.0
1999-02-28,118400.0
1999-01-31,120100.0
1998-12-31,120000.0
1998-11-30,118800.0
1998-10-31,117200.0
1998-09-30,115800.0
1998-08-31,114800.0
1998-07-31,113600.0
1998-06-30,113000.0
1998-05-31,112600.0
1998-04-30,112000.0
1998-03-31,110800.0
1998-02-28,109800.0
1998-01-31,109100.0
1997-12-31,109600.0
1997-11-30,110200.0
1997-10-31,110900.0
1997-09-30,111200.0
1997-08-31,111500.0
1997-07-31,111700.0
1997-06-30,111000.0
1997-05-31,110000.0
1997-04-30,109800.0
1997-03-31,109600.0
1997-02-28,107900.0
1997-01-31,105600.0
1996-12-31,103400.0
1996-11-30,102100.0
1996-10-31,101400.0
1996-09-30,101200.0
1996-08-31,100200.0
1996-07-31,98400.0
1996-06-30,96100.0
1996-05-31,95000.0
1996-04-30,94500.0
