Date,Value
2015-09-30,117600.0
2015-07-31,121000.0
2015-06-30,118700.0
2015-05-31,112900.0
2015-04-30,110200.0
2015-03-31,114400.0
2015-02-28,114200.0
2015-01-31,117500.0
2014-12-31,117400.0
2014-11-30,116900.0
2014-10-31,116500.0
2014-09-30,116600.0
2014-08-31,116400.0
2014-07-31,115700.0
2014-06-30,114900.0
2014-05-31,114200.0
2014-04-30,113600.0
2014-03-31,113200.0
2014-02-28,113200.0
2014-01-31,113000.0
2013-12-31,112500.0
2013-11-30,112000.0
2013-10-31,111500.0
2013-09-30,111300.0
2013-08-31,111500.0
2013-07-31,111600.0
2013-06-30,111400.0
2013-05-31,111300.0
2013-04-30,111400.0
2013-03-31,111800.0
2013-02-28,112300.0
2013-01-31,113100.0
2012-12-31,113800.0
2012-11-30,114300.0
2012-10-31,115100.0
2012-09-30,115800.0
2012-08-31,116400.0
2012-07-31,116900.0
2012-06-30,117200.0
2012-05-31,116800.0
2012-04-30,116900.0
2012-03-31,117300.0
2012-02-29,117600.0
2012-01-31,117500.0
2011-12-31,117700.0
2011-11-30,118000.0
2011-10-31,118300.0
2011-09-30,118700.0
2011-08-31,119100.0
2011-07-31,119800.0
2011-06-30,120900.0
2011-05-31,122200.0
2011-04-30,123200.0
2011-03-31,123900.0
2011-02-28,124800.0
2011-01-31,125800.0
2010-12-31,126600.0
2010-11-30,127100.0
2010-10-31,127700.0
2010-09-30,128500.0
2010-08-31,129000.0
2010-07-31,129100.0
2010-06-30,128900.0
2010-05-31,128700.0
2010-04-30,128900.0
2010-03-31,129800.0
2010-02-28,130500.0
2010-01-31,130800.0
2009-12-31,131500.0
2009-11-30,132700.0
2009-10-31,133300.0
2009-09-30,133600.0
2009-08-31,134100.0
2009-07-31,134700.0
2009-06-30,135500.0
2009-05-31,136600.0
2009-04-30,137600.0
2009-03-31,137400.0
2009-02-28,136200.0
2009-01-31,135300.0
2008-12-31,134700.0
2008-11-30,134300.0
2008-10-31,134000.0
2008-09-30,133900.0
2008-08-31,134200.0
2008-07-31,135100.0
2008-06-30,136000.0
2008-05-31,136600.0
2008-04-30,137200.0
2008-03-31,138100.0
2008-02-29,139000.0
2008-01-31,139400.0
2007-12-31,139200.0
2007-11-30,139500.0
2007-10-31,140600.0
2007-09-30,141500.0
2007-08-31,141400.0
2007-07-31,140900.0
2007-06-30,139900.0
2007-05-31,138800.0
2007-04-30,138200.0
2007-03-31,137400.0
2007-02-28,136500.0
2007-01-31,135700.0
2006-12-31,135300.0
2006-11-30,134900.0
2006-10-31,133900.0
2006-09-30,132600.0
2006-08-31,131200.0
2006-07-31,130200.0
2006-06-30,129500.0
2006-05-31,128300.0
2006-04-30,126800.0
2006-03-31,126100.0
2006-02-28,126300.0
2006-01-31,126600.0
2005-12-31,126200.0
2005-11-30,125300.0
2005-10-31,123800.0
2005-09-30,121800.0
2005-08-31,119400.0
2005-07-31,116600.0
2005-06-30,113200.0
2005-05-31,109400.0
2005-04-30,105900.0
2005-03-31,102600.0
2005-02-28,99500.0
2005-01-31,96500.0
2004-12-31,93700.0
2004-11-30,91600.0
2004-10-31,90000.0
2004-09-30,88700.0
2004-08-31,87800.0
2004-07-31,87600.0
2004-06-30,87700.0
2004-05-31,87900.0
2004-04-30,88100.0
2004-03-31,88400.0
2004-02-29,89000.0
2004-01-31,89800.0
2003-12-31,90200.0
2003-11-30,90000.0
2003-10-31,89800.0
2003-09-30,90100.0
2003-08-31,90300.0
2003-07-31,89400.0
2003-06-30,88900.0
2003-05-31,89200.0
2003-04-30,89600.0
2003-03-31,89100.0
2003-02-28,87600.0
2003-01-31,86300.0
2002-12-31,85800.0
2002-11-30,85200.0
2002-10-31,84800.0
2002-09-30,84500.0
2002-08-31,83500.0
2002-07-31,82800.0
2002-06-30,83100.0
2002-05-31,83700.0
2002-04-30,83600.0
2002-03-31,83400.0
2002-02-28,84000.0
2002-01-31,85000.0
2001-12-31,84900.0
2001-11-30,84300.0
2001-10-31,83600.0
2001-09-30,83000.0
2001-08-31,83000.0
2001-07-31,83600.0
2001-06-30,84000.0
2001-05-31,84500.0
2001-04-30,84800.0
2001-03-31,84400.0
2001-02-28,83700.0
2001-01-31,82900.0
2000-12-31,82800.0
2000-11-30,83300.0
2000-10-31,83600.0
2000-09-30,83600.0
2000-08-31,83600.0
2000-07-31,83200.0
2000-06-30,82600.0
2000-05-31,81800.0
2000-04-30,81200.0
2000-03-31,81300.0
2000-02-29,81600.0
2000-01-31,81100.0
1999-12-31,80800.0
1999-11-30,80800.0
1999-10-31,80700.0
1999-09-30,80300.0
1999-08-31,80600.0
1999-07-31,81300.0
1999-06-30,81900.0
1999-05-31,82400.0
1999-04-30,82700.0
1999-03-31,82900.0
1999-02-28,83000.0
1999-01-31,83300.0
1998-12-31,83400.0
1998-11-30,84000.0
1998-10-31,84800.0
1998-09-30,85300.0
1998-08-31,85500.0
1998-07-31,86100.0
1998-06-30,86600.0
1998-05-31,86300.0
1998-04-30,85900.0
1998-03-31,85400.0
1998-02-28,84900.0
1998-01-31,83900.0
1997-12-31,82800.0
1997-11-30,82200.0
1997-10-31,82100.0
1997-09-30,81900.0
1997-08-31,82000.0
1997-07-31,81800.0
1997-06-30,80700.0
1997-05-31,79600.0
1997-04-30,79900.0
1997-03-31,80600.0
1997-02-28,81200.0
1997-01-31,83000.0
1996-12-31,84700.0
1996-11-30,84900.0
1996-10-31,84500.0
1996-09-30,85300.0
1996-08-31,86200.0
1996-07-31,86500.0
1996-06-30,86200.0
1996-05-31,86100.0
1996-04-30,86300.0
