Date,Value
2015-09-30,117800.0
2015-07-31,118300.0
2015-06-30,121600.0
2015-05-31,110400.0
2015-04-30,115000.0
2015-03-31,111400.0
2015-02-28,114500.0
2015-01-31,115100.0
2014-12-31,114700.0
2014-11-30,114300.0
2014-10-31,114000.0
2014-09-30,113200.0
2014-08-31,112400.0
2014-07-31,111500.0
2014-06-30,110600.0
2014-05-31,109800.0
2014-04-30,109600.0
2014-03-31,109700.0
2014-02-28,110200.0
2014-01-31,110700.0
2013-12-31,111000.0
2013-11-30,111000.0
2013-10-31,110600.0
2013-09-30,110500.0
2013-08-31,110700.0
2013-07-31,111100.0
2013-06-30,111400.0
2013-05-31,111300.0
2013-04-30,110700.0
2013-03-31,110200.0
2013-02-28,110100.0
2013-01-31,109900.0
2012-12-31,109500.0
2012-11-30,109000.0
2012-10-31,108700.0
2012-09-30,108400.0
2012-08-31,108000.0
2012-07-31,107700.0
2012-06-30,107600.0
2012-05-31,107200.0
2012-04-30,106300.0
2012-03-31,105800.0
2012-02-29,105800.0
2012-01-31,105700.0
2011-12-31,105800.0
2011-11-30,106000.0
2011-10-31,105900.0
2011-09-30,105900.0
2011-08-31,106500.0
2011-07-31,106500.0
2011-06-30,106500.0
2011-05-31,107500.0
2011-04-30,109500.0
2011-03-31,110700.0
2011-02-28,110600.0
2011-01-31,110000.0
2010-12-31,109900.0
2010-11-30,110000.0
2010-10-31,110100.0
2010-09-30,110200.0
2010-08-31,110100.0
2010-07-31,110000.0
2010-06-30,110200.0
2010-05-31,110400.0
2010-04-30,110400.0
2010-03-31,110200.0
2010-02-28,110000.0
2010-01-31,109600.0
2009-12-31,109300.0
2009-11-30,108800.0
2009-10-31,108100.0
2009-09-30,107700.0
2009-08-31,108000.0
2009-07-31,109600.0
2009-06-30,111500.0
2009-05-31,112700.0
2009-04-30,113300.0
2009-03-31,113200.0
2009-02-28,112300.0
2009-01-31,111200.0
2008-12-31,110900.0
2008-11-30,111000.0
2008-10-31,111000.0
2008-09-30,111200.0
2008-08-31,111100.0
2008-07-31,110400.0
2008-06-30,109100.0
2008-05-31,107900.0
2008-04-30,106700.0
2008-03-31,105900.0
2008-02-29,106100.0
2008-01-31,107100.0
2007-12-31,107600.0
2007-11-30,107700.0
2007-10-31,107600.0
2007-09-30,107300.0
2007-08-31,106800.0
2007-07-31,106200.0
2007-06-30,105000.0
2007-05-31,103500.0
2007-04-30,102000.0
2007-03-31,100900.0
2007-02-28,100300.0
2007-01-31,99400.0
2006-12-31,98100.0
2006-11-30,96800.0
2006-10-31,96000.0
2006-09-30,95200.0
2006-08-31,93900.0
2006-07-31,92500.0
2006-06-30,91500.0
2006-05-31,90600.0
2006-04-30,89600.0
2006-03-31,88700.0
2006-02-28,87900.0
2006-01-31,87300.0
2005-12-31,86500.0
2005-11-30,85800.0
2005-10-31,85100.0
2005-09-30,84200.0
2005-08-31,83200.0
2005-07-31,82500.0
2005-06-30,82100.0
2005-05-31,81800.0
2005-04-30,81600.0
2005-03-31,81300.0
2005-02-28,80700.0
2005-01-31,79800.0
2004-12-31,79300.0
2004-11-30,78700.0
2004-10-31,78000.0
2004-09-30,77200.0
2004-08-31,76400.0
2004-07-31,75800.0
2004-06-30,75200.0
2004-05-31,74400.0
2004-04-30,73600.0
2004-03-31,73400.0
2004-02-29,73500.0
2004-01-31,73600.0
2003-12-31,73100.0
2003-11-30,72400.0
2003-10-31,71500.0
2003-09-30,70400.0
2003-08-31,69600.0
2003-07-31,69200.0
2003-06-30,69000.0
2003-05-31,69500.0
2003-04-30,69900.0
2003-03-31,69500.0
2003-02-28,69200.0
2003-01-31,69200.0
2002-12-31,69700.0
2002-11-30,70100.0
2002-10-31,71000.0
2002-09-30,72400.0
2002-08-31,73800.0
2002-07-31,74200.0
2002-06-30,74000.0
2002-05-31,73800.0
2002-04-30,73800.0
2002-03-31,73700.0
2002-02-28,73400.0
2002-01-31,72700.0
2001-12-31,71700.0
2001-11-30,70700.0
2001-10-31,70200.0
2001-09-30,70200.0
2001-08-31,70100.0
2001-07-31,70000.0
2001-06-30,69800.0
2001-05-31,69300.0
2001-04-30,68400.0
2001-03-31,67800.0
2001-02-28,67300.0
2001-01-31,66700.0
2000-12-31,66600.0
2000-11-30,67500.0
2000-10-31,68300.0
2000-09-30,68000.0
2000-08-31,67400.0
2000-07-31,67100.0
2000-06-30,66500.0
2000-05-31,66300.0
2000-04-30,67100.0
2000-03-31,68300.0
2000-02-29,68600.0
2000-01-31,68800.0
1999-12-31,68800.0
1999-11-30,68900.0
1999-10-31,68700.0
1999-09-30,68600.0
1999-08-31,68500.0
1999-07-31,69100.0
1999-06-30,70200.0
1999-05-31,70900.0
1999-04-30,71100.0
1999-03-31,71000.0
1999-02-28,70600.0
1999-01-31,70200.0
1998-12-31,70000.0
1998-11-30,69300.0
1998-10-31,68200.0
1998-09-30,67300.0
1998-08-31,66600.0
1998-07-31,65900.0
1998-06-30,65500.0
1998-05-31,65200.0
1998-04-30,64900.0
1998-03-31,65200.0
1998-02-28,65800.0
1998-01-31,66300.0
1997-12-31,66600.0
1997-11-30,66900.0
1997-10-31,67100.0
1997-09-30,67500.0
1997-08-31,67600.0
1997-07-31,67400.0
1997-06-30,67600.0
1997-05-31,67800.0
1997-04-30,67600.0
1997-03-31,67200.0
1997-02-28,67100.0
1997-01-31,67000.0
1996-12-31,67100.0
1996-11-30,67500.0
1996-10-31,67900.0
1996-09-30,68300.0
1996-08-31,69600.0
1996-07-31,70800.0
1996-06-30,70700.0
1996-05-31,69900.0
1996-04-30,69600.0
