Date,Value
2015-10-31,210900.0
2015-02-28,190000.0
2015-01-31,189000.0
2014-12-31,179900.0
2014-11-30,184500.0
2014-10-31,179900.0
2014-09-30,189000.0
2014-08-31,195000.0
2014-07-31,197000.0
2014-06-30,195000.0
2014-05-31,189000.0
2014-04-30,185900.0
2014-03-31,179900.0
2014-02-28,176000.0
2014-01-31,164900.0
2013-12-31,167500.0
2013-11-30,174995.0
2013-10-31,175000.0
2013-09-30,174995.0
2013-08-31,182900.0
2013-07-31,180000.0
2013-06-30,189900.0
2013-05-31,189900.0
2013-04-30,189900.0
2013-03-31,189000.0
2013-02-28,184000.0
2013-01-31,165900.0
2012-12-31,165900.0
2012-11-30,152000.0
2012-10-31,150000.0
2012-09-30,169000.0
2012-08-31,172500.0
2012-07-31,142500.0
2012-06-30,164900.0
2012-05-31,172000.0
2012-04-30,174900.0
2012-03-31,169900.0
2012-02-29,167500.0
2012-01-31,169900.0
2011-12-31,170500.0
2011-11-30,159900.0
2011-10-31,172000.0
2011-09-30,179500.0
2011-08-31,179000.0
2011-07-31,179500.0
2011-06-30,177500.0
2011-05-31,184900.0
2011-04-30,179000.0
2011-03-31,174400.0
2011-02-28,159400.0
2011-01-31,159000.0
2010-12-31,159900.0
2010-11-30,169900.0
2010-10-31,176000.0
2010-09-30,174900.0
2010-08-31,179500.0
2010-07-31,179900.0
2010-06-30,184900.0
2010-05-31,188000.0
2010-04-30,194000.0
2010-03-31,184900.0
2010-02-28,189000.0
2010-01-31,198000.0
2009-12-31,209000.0
2009-11-30,209000.0
2009-10-31,199900.0
2009-09-30,209900.0
2009-08-31,210000.0
2009-07-31,219000.0
2009-06-30,199000.0
2009-05-31,209000.0
2009-04-30,224000.0
2009-03-31,229500.0
2009-02-28,234900.0
2009-01-31,230000.0
2008-12-31,245000.0
2008-11-30,247500.0
2008-10-31,235500.0
