Date,Value
2015-09-30,0.776
2015-08-31,0.7
2015-07-31,0.682
2015-06-30,0.686
2015-05-31,0.696
2015-04-30,0.702
2015-03-31,0.702
2015-02-28,0.704
2015-01-31,0.706
2014-12-31,0.704
2014-11-30,0.696
2014-10-31,0.678
2014-09-30,0.666
2014-08-31,0.662
2014-07-31,0.656
2014-06-30,0.652
2014-05-31,0.642
2014-04-30,0.648
2014-03-31,0.656
2014-02-28,0.672
2014-01-31,0.682
2013-12-31,0.7
2013-11-30,0.716
2013-10-31,0.728
2013-09-30,0.738
2013-08-31,0.718
2013-07-31,0.686
2013-06-30,0.654
2013-05-31,0.656
2013-04-30,0.666
2013-03-31,0.676
2013-02-28,0.682
2013-01-31,0.676
2012-12-31,0.674
2012-11-30,0.67
2012-10-31,0.67
2012-09-30,0.674
2012-08-31,0.698
2012-07-31,0.736
2012-06-30,0.774
2012-05-31,0.79
2012-04-30,0.79
2012-03-31,0.788
2012-02-29,0.784
2012-01-31,0.78
2011-12-31,0.776
2011-11-30,0.778
2011-10-31,0.78
2011-09-30,0.786
2011-08-31,0.794
2011-07-31,0.798
2011-06-30,0.8
2011-05-31,0.796
2011-04-30,0.784
2011-03-31,0.77
2011-02-28,0.758
2011-01-31,0.744
2010-12-31,0.742
2010-11-30,0.74
