Date,Value
2015-09-30,159600.0
2015-08-31,155300.0
2015-07-31,150300.0
2015-06-30,150100.0
2015-05-31,148400.0
2015-04-30,146700.0
2015-03-31,149400.0
2015-02-28,150400.0
2015-01-31,148600.0
2014-12-31,148900.0
2014-11-30,149000.0
2014-10-31,147700.0
2014-09-30,146000.0
2014-08-31,145300.0
2014-07-31,144500.0
2014-06-30,142900.0
2014-05-31,140800.0
2014-04-30,137400.0
2014-03-31,134600.0
2014-02-28,134100.0
2014-01-31,135000.0
2013-12-31,134000.0
2013-11-30,131800.0
2013-10-31,130100.0
2013-09-30,129500.0
2013-08-31,128000.0
2013-07-31,126000.0
2013-06-30,125100.0
2013-05-31,126000.0
2013-04-30,127100.0
2013-03-31,127100.0
2013-02-28,126600.0
2013-01-31,127000.0
2012-12-31,127300.0
2012-11-30,127500.0
2012-10-31,128600.0
2012-09-30,128900.0
2012-08-31,128700.0
2012-07-31,128900.0
2012-06-30,129500.0
2012-05-31,129200.0
2012-04-30,128400.0
2012-03-31,127400.0
2012-02-29,127200.0
2012-01-31,127400.0
2011-12-31,128000.0
2011-11-30,128700.0
2011-10-31,129200.0
2011-09-30,130700.0
2011-08-31,132700.0
2011-07-31,134100.0
2011-06-30,134500.0
2011-05-31,135100.0
2011-04-30,136100.0
2011-03-31,137700.0
2011-02-28,138900.0
2011-01-31,138800.0
2010-12-31,137800.0
2010-11-30,137300.0
2010-10-31,137600.0
2010-09-30,138100.0
2010-08-31,138700.0
2010-07-31,139700.0
2010-06-30,141100.0
2010-05-31,142200.0
2010-04-30,142800.0
2010-03-31,142700.0
2010-02-28,141800.0
2010-01-31,141300.0
2009-12-31,141800.0
2009-11-30,142600.0
2009-10-31,142400.0
2009-09-30,142600.0
2009-08-31,143500.0
2009-07-31,144200.0
2009-06-30,144700.0
2009-05-31,145200.0
2009-04-30,145500.0
2009-03-31,145400.0
2009-02-28,145800.0
2009-01-31,148400.0
2008-12-31,151800.0
2008-11-30,152900.0
2008-10-31,152300.0
2008-09-30,152800.0
2008-08-31,153600.0
2008-07-31,153700.0
2008-06-30,154000.0
2008-05-31,154500.0
2008-04-30,155500.0
2008-03-31,156800.0
2008-02-29,158000.0
2008-01-31,158200.0
2007-12-31,158300.0
2007-11-30,158200.0
2007-10-31,157500.0
2007-09-30,156100.0
2007-08-31,156500.0
2007-07-31,156300.0
2007-06-30,154000.0
2007-05-31,151200.0
2007-04-30,149800.0
2007-03-31,148700.0
2007-02-28,148600.0
2007-01-31,148200.0
2006-12-31,147500.0
2006-11-30,148400.0
2006-10-31,151700.0
2006-09-30,154400.0
2006-08-31,153500.0
2006-07-31,151200.0
2006-06-30,149000.0
2006-05-31,147000.0
2006-04-30,145500.0
2006-03-31,145000.0
2006-02-28,143300.0
2006-01-31,140300.0
2005-12-31,135800.0
2005-11-30,131000.0
2005-10-31,126600.0
2005-09-30,121800.0
2005-08-31,117700.0
2005-07-31,116100.0
2005-06-30,116400.0
2005-05-31,116100.0
2005-04-30,114700.0
2005-03-31,113100.0
2005-02-28,111800.0
2005-01-31,110400.0
2004-12-31,110100.0
2004-11-30,111100.0
2004-10-31,112000.0
2004-09-30,112300.0
2004-08-31,112500.0
2004-07-31,113200.0
2004-06-30,114200.0
2004-05-31,116300.0
2004-04-30,118600.0
2004-03-31,119800.0
2004-02-29,119600.0
2004-01-31,119100.0
2003-12-31,118400.0
2003-11-30,117100.0
2003-10-31,115800.0
2003-09-30,115500.0
2003-08-31,114900.0
2003-07-31,113800.0
2003-06-30,113000.0
2003-05-31,112800.0
2003-04-30,112500.0
2003-03-31,111300.0
2003-02-28,110300.0
2003-01-31,110700.0
2002-12-31,111300.0
2002-11-30,111900.0
2002-10-31,111900.0
2002-09-30,110900.0
2002-08-31,110800.0
2002-07-31,111200.0
2002-06-30,110800.0
2002-05-31,109600.0
2002-04-30,108200.0
2002-03-31,107500.0
2002-02-28,107700.0
2002-01-31,107500.0
2001-12-31,107000.0
2001-11-30,106100.0
2001-10-31,106300.0
2001-09-30,106700.0
2001-08-31,106900.0
2001-07-31,106900.0
2001-06-30,106900.0
2001-05-31,106400.0
2001-04-30,106500.0
2001-03-31,107300.0
2001-02-28,108400.0
2001-01-31,108700.0
2000-12-31,107700.0
2000-11-30,106300.0
2000-10-31,105000.0
2000-09-30,105000.0
2000-08-31,106200.0
2000-07-31,106800.0
2000-06-30,105900.0
2000-05-31,104600.0
2000-04-30,103100.0
2000-03-31,101900.0
2000-02-29,101200.0
2000-01-31,101800.0
1999-12-31,103600.0
1999-11-30,105200.0
1999-10-31,105600.0
1999-09-30,105500.0
1999-08-31,104700.0
1999-07-31,103600.0
1999-06-30,103300.0
1999-05-31,103400.0
1999-04-30,103400.0
1999-03-31,104500.0
1999-02-28,105600.0
1999-01-31,105700.0
1998-12-31,106000.0
1998-11-30,107300.0
1998-10-31,106900.0
1998-09-30,106500.0
1998-08-31,106100.0
1998-07-31,106100.0
1998-06-30,105900.0
1998-05-31,106100.0
1998-04-30,105800.0
1998-03-31,104800.0
1998-02-28,102900.0
1998-01-31,101600.0
1997-12-31,101300.0
1997-11-30,101100.0
1997-10-31,101500.0
1997-09-30,101700.0
1997-08-31,101900.0
1997-07-31,102100.0
1997-06-30,102000.0
1997-05-31,101300.0
1997-04-30,101000.0
1997-03-31,100600.0
1997-02-28,100200.0
1997-01-31,99400.0
1996-12-31,98100.0
1996-11-30,97100.0
1996-10-31,97400.0
1996-09-30,98200.0
1996-08-31,98000.0
1996-07-31,96100.0
1996-06-30,94500.0
1996-05-31,94500.0
1996-04-30,94500.0
