year,month,influence,largestInfluencer,largestInfluencerPercent
2009,6,431.2565103966824,CAR PROWL,22.677711420534784
2009,4,346.6545232437681,CAR PROWL,20.391331419131355
2009,12,1757.989751797203,BURGLARY,88.5437294680867
2009,11,394.3054805069708,CAR PROWL,19.34449970427694
2009,9,473.1438141369412,CAR PROWL,18.754138588622833
2009,3,284.8238147364583,CAR PROWL,15.427546363449508
2009,1,436.1110650196003,CAR PROWL,15.878448599356197
2009,8,440.38886625735734,BURGLARY,22.778576228366774
2009,10,556.3356282750392,BURGLARY,24.782503664953225
2009,5,520.5056689552381,CAR PROWL,50.756121958354576
2009,2,293.5919060781715,OTHER PROPERTY,14.989079734912528
2009,7,711.8509358333866,CAR PROWL,39.82790908920721
1994,6,0.1281751227135555,PROPERTY DAMAGE,95.24445277017429
1994,1,0.09976982307413625,THREATS,93.35911359065163
1994,10,0.03584395345919342,FRAUD,100.0
1995,9,0.0018838127894036647,FRAUD,100.0
1995,2,0.06075687105512948,FRAUD,100.0
2015,6,516.7746377871163,CAR PROWL,16.6265527807998
2015,11,486.3412579702925,CAR PROWL,26.86732538497526
2015,12,15.326072874411603,ASSAULT,21.205176107849486
2015,4,569.2450717826031,CAR PROWL,18.105952217968493
2015,9,722.501491861523,CAR PROWL,29.137276026808212
2015,3,452.56907932623,CAR PROWL,16.91475621867338
2015,1,984.7178848236548,CAR PROWL,17.214992536857697
2015,8,868.2859353913916,ASSAULT,45.96513317101701
2015,10,737.6580294182717,CAR PROWL,23.33705338428258
2015,5,497.9578462503843,CAR PROWL,16.616070120102897
2015,2,2089.944247067206,CAR PROWL,80.26679453174548
2015,7,604.4172544721044,CAR PROWL,14.426378248890796
2013,6,1174.0795199556926,CAR PROWL,18.645656670867965
2013,11,1232.3367830615039,CAR PROWL,19.620114014042976
2013,12,972.7107692630337,CAR PROWL,19.843863432460722
2013,4,4326.072725110183,CAR PROWL,83.59252848820357
2013,9,1111.0206626216002,VEHICLE THEFT,19.906271688315382
2013,3,825.7631933079848,OTHER PROPERTY,26.198186660802648
2013,1,780.6132497627934,CAR PROWL,19.965071848804627
2013,8,949.3705891419465,CAR PROWL,17.41226968351934
2013,10,1104.4790018375095,CAR PROWL,25.80152221319759
2013,5,1026.8394618378388,CAR PROWL,15.3837294365293
2013,2,700.1799995757245,CAR PROWL,17.175996930002185
2013,7,1222.3314683142926,CAR PROWL,14.113124680921352
1990,5,0.008113116870729666,THREATS,100.0
1990,1,0.0028494250801767316,LOST PROPERTY,100.0
1990,11,0.33663307594669534,[INC - CASE DC USE ONLY],100.0
2011,6,1111.165780358381,OTHER PROPERTY,27.96191874857445
2011,4,464.08797544083205,CAR PROWL,16.436564658809882
2011,12,832.601411341792,CAR PROWL,27.703622267088882
2011,11,896.0723948301888,CAR PROWL,32.083614148886596
2011,9,993.0882851858657,BURGLARY,15.332969347435718
2011,3,604.2402627649378,CAR PROWL,18.98643203441186
2011,1,330.2329621935913,BURGLARY,11.837693370304251
2011,8,698.6639462256345,OTHER PROPERTY,17.49893642782142
2011,10,2025.6306732326045,CAR PROWL,41.76633297116121
2011,5,3843.335243534338,CAR PROWL,83.60433214466775
2011,2,3480.0335217503657,STOLEN PROPERTY,88.13199105623222
2011,7,751.4531316538743,BURGLARY,23.1673417660559
2001,6,0.20466949486221436,PROPERTY DAMAGE,67.54099490281625
2001,11,0.0320568954732889,BURGLARY,36.772056549698334
2001,12,0.478766837854701,FRAUD,100.0
2001,4,0.08368845150510273,FRAUD,45.219438107845484
2001,9,0.1188672619909743,BURGLARY,71.21794717328781
2001,3,0.4742991297028882,CAR PROWL,45.40508846211043
2001,1,0.6699679140779977,BURGLARY,53.03398653195919
2001,8,0.8186014960077443,CAR PROWL,93.57542649364758
2001,10,0.7611863100105293,FRAUD,63.210061023819776
2001,5,0.5358184749839743,FRAUD,98.27912901282987
2001,2,0.2613131418704536,OTHER PROPERTY,47.19932763131239
2001,7,0.4131106428609283,FRAUD,77.395709383931
2003,6,0.004822029185319667,FRAUD,100.0
2003,11,0.48784898636285046,OTHER PROPERTY,55.02773676557391
2003,12,0.06274204563940072,FRAUD,94.97660953695062
2003,4,0.06493652291746516,CAR PROWL,100.0
2003,9,0.08129613172747471,LOST PROPERTY,75.53768449318689
2003,3,0.03609959621698749,FRAUD,85.69043517150845
2003,1,6.65125635497848,FRAUD,96.21352415052841
2003,8,0.08843796357009809,OTHER PROPERTY,85.20279229087788
2003,10,0.01253863136174568,FRAUD,100.0
2003,5,0.006636475041479448,FRAUD,100.00000000000001
2003,2,0.23604094937943598,FRAUD,94.66037991518246
2003,7,0.3182946626380838,LOST PROPERTY,97.56732075651773
1965,1,0.01286492081268914,LOST PROPERTY,100.0
1998,1,0.27026612712488957,THREATS,47.00094717170165
1998,11,0.11364876017164492,FRAUD,93.9539115600636
1998,5,0.0058880686007560705,OTHER PROPERTY,99.99999999999999
1998,3,0.03421898088418044,CAR PROWL,62.576492143728906
1998,8,0.00720561458025021,[INC - CASE DC USE ONLY],100.0
2002,1,0.3582637753073304,STOLEN PROPERTY,51.91780157683274
2002,8,0.018677454732646676,THREATS,45.89886459605442
2002,10,0.14742091036640614,FRAUD,100.0
2002,12,0.0034120907048570976,FRAUD,100.0
2002,4,0.0072544615073594065,FRAUD,100.0
2002,11,0.006049243669683166,CAR PROWL,100.00000000000001
2002,6,0.22690336630517047,[INC - CASE DC USE ONLY],52.22388055182701
2002,3,0.34220483667783475,DUI,99.21153506899594
2002,2,0.24255306215631028,EMBEZZLE,92.13231374378401
2007,6,3.443606185352888,OTHER PROPERTY,65.60251014345555
2007,4,2.0392993865272753,OTHER PROPERTY,50.38428969470321
2007,12,22.6455777166297,BURGLARY,28.50411443102748
2007,11,6.294202682949095,VEHICLE THEFT,26.692182544281522
2007,9,2.8892444887711277,FRAUD,30.97091296485993
2007,3,1.7029249558323813,FRAUD,81.2403450124539
2007,1,33.41454945789565,PROPERTY DAMAGE,81.48205582977047
2007,8,2.698311687396041,FRAUD,62.82014248428554
2007,10,3.152098616174043,FRAUD,45.2052859175666
2007,5,1.9407620016500666,FRAUD,23.1259382649894
2007,2,1.350196478701529,FORGERY,63.39171503394394
2007,7,3.8667719197233317,FRAUD,48.24457274550047
2004,6,0.028873400257533134,FRAUD,66.70615232029962
2004,4,0.1501725882337378,THREATS,48.66194626005058
2004,12,0.012614125487509724,VEHICLE THEFT,100.0
2004,11,0.16988076832135435,[INC - CASE DC USE ONLY],56.26541341941544
2004,9,0.18912288673482577,CAR PROWL,63.706286815298206
2004,3,0.07073383585868337,STOLEN PROPERTY,38.56033249856329
2004,1,2.2692103577050275,[INC - CASE DC USE ONLY],51.19541619842324
2004,8,0.13122038336536268,FRAUD,51.280215533908155
2004,10,0.08100583978706834,OTHER PROPERTY,57.43482728963348
2004,5,1.7434071152391455,BURGLARY,91.53902328484502
2004,2,1.2602300780523124,[INC - CASE DC USE ONLY],70.58473879760085
2004,7,0.15573605076068534,FRAUD,100.0
1997,1,0.02109755799084223,FRAUD,80.46143516186144
1997,11,0.013492667327397928,FRAUD,100.00000000000001
1997,10,0.009850347638634165,FRAUD,100.0
1997,5,0.2575821034882083,FRAUD,100.0
1997,9,0.009242545111364867,FRAUD,100.0
1997,2,0.05262520200178343,FRAUD,99.99999999999999
2006,6,0.8158253848768389,FRAUD,44.09436921332227
2006,4,0.6880983934512535,FRAUD,68.62983406280772
2006,12,1.028518747404641,THREATS,56.89297443975424
2006,11,0.6368589163562752,FRAUD,81.64486270998405
2006,9,0.5803355694858414,FRAUD,78.44596558631045
2006,3,0.46632655823589686,FRAUD,56.793856071365845
2006,1,2.9821520046207226,FRAUD,59.163988884810735
2006,8,0.39164274555516254,FRAUD,52.00986084503632
2006,10,0.2722470198682344,FRAUD,66.81509692507937
2006,5,1.461620907148153,EMBEZZLE,40.167723448910394
2006,2,2.588734106641413,FRAUD,76.62205021869602
2006,7,0.30855127344914934,FRAUD,26.987140450464175
1991,1,0.010100782533841354,FRAUD,100.00000000000001
1991,11,0.09518912562377607,FRAUD,100.0
1991,9,0.00707450444880605,FRAUD,100.0
2005,6,0.15773260956479007,[INC - CASE DC USE ONLY],49.33232698555169
2005,11,0.03688795201554629,FORGERY,35.9794000733792
2005,12,0.2215734145345295,FRAUD,74.55785089534695
2005,4,0.49901520816199546,FRAUD,71.4190118834384
2005,9,0.16314954227360515,[INC - CASE DC USE ONLY],59.55314948714105
2005,3,2.745490818847541,FRAUD,62.57098085558159
2005,1,1.7234562874248118,FRAUD,39.74608102237951
2005,8,0.9389611047704864,FRAUD,82.0377513351015
2005,10,0.11399869424408243,FRAUD,80.47957185415873
2005,5,0.07051094716105519,FRAUD,90.86445705949792
2005,2,0.4839253691113594,FRAUD,65.25853100732695
2005,7,0.021721785564039912,FRAUD,56.37236099672177
1996,6,0.00740313620206559,FRAUD,100.0
1996,8,0.02493181762009298,FRAUD,100.0
1996,12,0.19359028203358677,CAR PROWL,99.99999999999999
1900,01,2.6197358283715818e-09,STOLEN PROPERTY,100.0
2000,1,0.5311246034683942,FRAUD,96.05612452952118
2000,8,0.5899386059916173,FRAUD,74.95092161138277
2000,7,0.10982342119839267,BURGLARY,73.31048669466604
2000,10,0.007289908382504418,CAR PROWL,100.0
2000,3,0.31193602344527116,CAR PROWL,86.54434680852015
2000,4,0.032322244807434584,FRAUD,100.0
2000,5,0.5157425384441133,THREATS,69.7485426132111
2000,6,0.030878875739166166,CAR PROWL,81.69233293310218
2000,9,0.10109345085379765,FRAUD,88.83020670251689
2000,2,0.6647987988342693,FRAUD,93.02369540321202
2000,11,0.11505719262848911,THEFT OF SERVICES,86.26364276800986
2014,6,1254.5679993858653,BURGLARY,13.919763222176114
2014,11,2251.9499396659007,PROPERTY DAMAGE,72.81362384785228
2014,12,786.3292139930343,CAR PROWL,21.770608337820363
2014,4,1682.4894220780566,VEHICLE THEFT,46.016387656638024
2014,9,1802.2559607504245,CAR PROWL,58.065235021644746
2014,3,1244.6775792300298,FRAUD,15.781326783638221
2014,1,1052.6902484653683,CAR PROWL,18.103683159667195
2014,8,898.0181164815122,CAR PROWL,33.59619370831116
2014,10,870.7432786495865,CAR PROWL,13.790146213572049
2014,5,958.7169446056291,CAR PROWL,18.358619227978625
2014,2,750.1768515138082,CAR PROWL,15.123527965226607
2014,7,1098.9962160996208,CAR PROWL,17.15202074213212
1989,6,0.033179392694789644,[INC - CASE DC USE ONLY],100.0
1983,2,0.09278695416742098,RECOVERED PROPERTY,99.99999999999999
2008,6,719.4176889809908,WARRANT ARREST,27.100464817772025
2008,4,417.43804884107976,PROPERTY DAMAGE,14.867378641964393
2008,12,303.71163394880205,OTHER PROPERTY,24.630377285162155
2008,11,384.18273285996554,CAR PROWL,32.09574835546523
2008,9,1963.7074469104896,CAR PROWL,81.75189152021296
2008,3,410.05076163285764,WARRANT ARREST,14.948370666776443
2008,1,491.63241761839856,PROPERTY DAMAGE,13.89111582836661
2008,8,553.7706715272296,PROPERTY DAMAGE,18.016000796470966
2008,10,1979.4861032960891,VEHICLE THEFT,77.9070059788661
2008,5,452.41022469963707,BURGLARY,23.519235273345153
2008,2,403.39454545204353,PROPERTY DAMAGE,16.314334075809484
2008,7,1915.1683927698696,CAR PROWL,81.72594015024976
1992,7,0.006347733121236954,LOST PROPERTY,100.0
1993,1,0.00890555474683896,FRAUD,100.0
1993,10,0.2797994603902687,FRAUD,80.0339484603199
2010,6,485.0013288357799,ROBBERY,19.498215644705443
2010,11,375.53016428907324,WARRANT ARREST,17.049674177350845
2010,12,324.4946348894423,WARRANT ARREST,14.507126192807105
2010,4,284.9546300511237,WARRANT ARREST,14.627544561710689
2010,9,426.7107142226485,BURGLARY,12.506136016373558
2010,3,402.97728638367175,BURGLARY,24.75912603786685
2010,1,333.0158536133335,CAR PROWL,22.56866506523686
2010,8,503.91116160863913,CAR PROWL,25.312390074872468
2010,10,569.1907059455966,OTHER PROPERTY,24.557640163903606
2010,5,348.7601591220618,BURGLARY,23.080118234049248
2010,2,392.2686804242125,BURGLARY,20.036638298865544
2010,7,129.27056548503208,NARCOTICS,24.065335462743555
2012,6,839.2688441087814,BURGLARY,29.82763940878434
2012,4,847.7050031663947,OTHER PROPERTY,13.870980429758564
2012,12,413.6897742210543,BURGLARY,21.477862662943547
2012,11,333.7755193030885,BURGLARY,24.282723961979208
2012,9,448.5227764805264,WARRANT ARREST,13.54735559384488
2012,3,758.8365508289158,CAR PROWL,17.53524251142686
2012,1,663.8010895540759,BURGLARY,14.44334042689276
2012,8,824.120367421007,PROPERTY DAMAGE,18.87974905511927
2012,10,587.6560904426431,BURGLARY,30.260973748754306
2012,5,936.3308338433873,BURGLARY,24.082063743421116
2012,2,591.8555408870426,BURGLARY,15.733630046912806
2012,7,749.7111003573668,OTHER PROPERTY,18.986283209406405
1999,1,0.22079307410587523,FRAUD,100.00000000000001
1999,11,0.003601850865180058,FRAUD,100.0
1999,9,0.07695592674830645,FRAUD,100.0
1999,6,0.04763771682779985,[INC - CASE DC USE ONLY],100.0
