year,month,influence,largestInfluencer,largestInfluencerPercent
2009,6,111.97913434921377,CAR PROWL,16.339044546399208
2009,4,438.60770598529217,CAR PROWL,83.09402169977328
2009,12,66.26839926924775,BURGLARY,22.80634062159224
2009,11,65.96994489226353,CAR PROWL,16.96697689961942
2009,9,138.57308720222997,BURGLARY,25.421692043485073
2009,3,92.21318314341023,CAR PROWL,30.81776332843486
2009,1,91.43738761344166,CAR PROWL,21.911882414429744
2009,8,101.56225865605109,OTHER PROPERTY,18.734663881891013
2009,10,101.30994815976246,CAR PROWL,20.406783566417037
2009,5,123.6859221830098,CAR PROWL,38.254299338878425
2009,2,68.33237443858603,CAR PROWL,19.841747029353844
2009,7,415.3193224559012,CAR PROWL,41.36853532570837
1994,6,0.12654840888776947,OTHER PROPERTY,94.09706124790887
1994,1,0.011144035847987668,THREATS,84.76148543777902
1994,10,0.005296712284339929,FRAUD,100.0
1995,9,0.0009677436266757976,FRAUD,100.0
1995,2,0.005676499910100437,FRAUD,100.0
2015,6,123.98304478831439,OTHER PROPERTY,33.938883529101155
2015,11,639.910036748494,MAIL THEFT,81.53397816828736
2015,12,3.0858468772791094,VEHICLE THEFT,28.071833926917044
2015,4,103.04948108356425,CAR PROWL,15.779273667202707
2015,9,108.51931517595338,VEHICLE THEFT,15.55343395768271
2015,3,123.9030696154576,FRAUD,18.37474542671321
2015,1,163.66066506479243,VEHICLE THEFT,18.5125168736256
2015,8,93.69680318238504,OTHER PROPERTY,19.071256015412693
2015,10,139.14356124357246,CAR PROWL,37.49456688387209
2015,5,76.32536594650898,CAR PROWL,13.464516383047233
2015,2,71.01155239800991,FRAUD,19.55495778487026
2015,7,129.76035394746756,BURGLARY,28.418873275991132
2013,6,167.98580025293418,CAR PROWL,28.50308145085196
2013,11,189.56154672941747,BURGLARY,35.23701290568828
2013,12,199.11247098052866,VEHICLE THEFT,15.906196747587915
2013,4,231.56320468727813,FRAUD,16.833263378780373
2013,9,218.55041052227497,CAR PROWL,13.991779480532196
2013,3,231.4397055608127,CAR PROWL,30.275257119963076
2013,1,224.80410312785654,CAR PROWL,20.962455348043644
2013,8,255.24697609046504,BURGLARY,27.05465826224935
2013,10,239.98210219016693,CAR PROWL,16.8342775830545
2013,5,266.2720039404604,VEHICLE THEFT,25.427098046164428
2013,2,168.15211376250153,PROPERTY DAMAGE,14.942599114140082
2013,7,297.68629864848907,CAR PROWL,25.134904701997186
1990,5,0.0017171531806576,THREATS,100.0
1990,1,0.0011765297427375344,LOST PROPERTY,100.0
1990,11,0.006198888724147616,[INC - CASE DC USE ONLY],100.0
2011,6,210.42791732857557,FRAUD,15.27909013090723
2011,4,189.9670553038646,PROPERTY DAMAGE,37.596010592807026
2011,12,241.82803691222077,BURGLARY,23.70562392761816
2011,11,207.3520368385833,OTHER PROPERTY,20.60024541532968
2011,9,560.182395497595,BURGLARY,60.41499573203416
2011,3,1254.3850823520613,FRAUD,83.38481556069853
2011,1,88.72930148111399,CAR PROWL,19.102503298065464
2011,8,216.90613660530923,CAR PROWL,36.736241155772554
2011,10,203.325719988245,OTHER PROPERTY,16.51398108934501
2011,5,346.2695971191421,OTHER PROPERTY,53.84182757026702
2011,2,146.1707147910845,CAR PROWL,41.65079878084273
2011,7,232.5475849753099,BURGLARY,29.648345012073868
2001,6,0.1925213551785161,FRAUD,85.63172034230709
2001,11,0.0904001152554887,OTHER PROPERTY,71.5749657394463
2001,12,0.008895161192161386,FRAUD,100.0
2001,4,0.11187870734737833,FRAUD,78.82014526148427
2001,9,0.05156746885398686,BURGLARY,51.91160410991713
2001,3,0.04579893693606356,CAR PROWL,55.907067901650464
2001,1,0.1549603978925181,FRAUD,71.66401545801283
2001,8,0.07415088949156409,LOST PROPERTY,49.96056487100277
2001,10,0.05638198188086474,FRAUD,58.29600912690594
2001,5,0.025131163177227852,FRAUD,86.8932921547962
2001,2,0.047028634672997095,OTHER PROPERTY,47.64493153327793
2001,7,0.016090992800435626,FRAUD,49.92990553535875
2003,6,0.0015468442835379727,FRAUD,100.0
2003,11,0.03824159192827149,FRAUD,69.12508960096216
2003,12,0.013122110756378685,FRAUD,70.34797450518901
2003,4,0.006268775317306252,CAR PROWL,100.0
2003,9,0.016646832448069446,FRAUD,59.09977490367068
2003,3,0.01711249722374149,FRAUD,87.42452707015737
2003,1,0.04743259365314481,FRAUD,51.749754290038275
2003,8,0.28455025434915715,ASSAULT,96.41825362242461
2003,10,0.006653356900195872,FRAUD,100.0
2003,5,0.0035948796564996164,FRAUD,100.0
2003,2,0.009006640411976354,FRAUD,61.83023697051239
2003,7,0.01791404532937824,LOST PROPERTY,87.1534557707076
1965,1,0.0024940821213031866,LOST PROPERTY,100.0
1998,1,0.02681253790242198,FRAUD,38.279767401427975
1998,11,0.26125490186813893,OTHER PROPERTY,98.39173436186924
1998,5,0.03283141990079117,OTHER PROPERTY,100.0
1998,3,0.007927231744851028,CAR PROWL,49.234536664558
1998,8,0.002114858101018736,[INC - CASE DC USE ONLY],100.0
2002,1,0.4843412728931728,FRAUD,95.51510592860402
2002,8,0.010696338330440524,THREATS,66.75451064772213
2002,10,0.01049963611887481,FRAUD,100.0
2002,12,0.0016183119293486042,FRAUD,100.0
2002,4,0.0018055467798934373,FRAUD,100.0
2002,11,0.0015966985173463096,CAR PROWL,100.0
2002,6,0.02587816851027852,FRAUD,38.146783237827975
2002,3,0.005502479844568597,DUI,79.83620068804427
2002,2,0.011631930360327312,EMBEZZLE,47.87198749717229
2007,6,2.3163237087972925,FRAUD,88.42311383681525
2007,4,0.8851180030448685,VEHICLE THEFT,84.60103210599243
2007,12,16.178146886414396,OTHER PROPERTY,57.50676957133561
2007,11,1.8392381548274948,OTHER PROPERTY,65.33103924456283
2007,9,1.1280246444868456,FRAUD,53.29972731148818
2007,3,1.1786364563551617,EMBEZZLE,44.46420223805373
2007,1,3.5601820471900325,[INC - CASE DC USE ONLY],85.38187189422221
2007,8,1.681249170102959,FRAUD,60.13384528241103
2007,10,4.573865670290631,OTHER PROPERTY,49.64715234600316
2007,5,0.2152537082338702,FRAUD,37.59486895042664
2007,2,0.22658742283051955,FRAUD,53.444195986007614
2007,7,4.134807695689218,FRAUD,95.05936004369725
2004,6,0.015838144924816375,LOST PROPERTY,81.75216780016626
2004,4,0.024293046015756874,FRAUD,59.83223067261594
2004,12,0.007241911057967484,VEHICLE THEFT,100.0
2004,11,0.022313026379389457,[INC - CASE DC USE ONLY],35.54966449118796
2004,9,0.03944138660449096,PROPERTY DAMAGE,38.82499211653816
2004,3,0.015700772738181188,STOLEN PROPERTY,34.064285979107126
2004,1,0.6372250623107426,FRAUD,95.34553213469518
2004,8,0.4575191486665924,FRAUD,97.73398358300176
2004,10,0.03761467743592607,OTHER PROPERTY,48.96222019058764
2004,5,0.032302390249644986,FRAUD,80.07951029345257
2004,2,0.09663741232434461,FRAUD,80.9473614338356
2004,7,0.010842306374110211,FRAUD,100.0
1997,1,0.005627636094298787,FRAUD,70.5239223338602
1997,11,0.034906111114300406,FRAUD,100.0
1997,10,0.004221682224329032,FRAUD,100.0
1997,5,0.010496196762284585,FRAUD,100.00000000000001
1997,9,0.008638353581678422,FRAUD,100.0
1997,2,0.00417971272148917,FRAUD,100.0
2006,6,0.34670220933252993,FRAUD,62.40281759700004
2006,4,1.0482177620947646,FRAUD,96.07018732590167
2006,12,0.27933053180142675,FRAUD,87.12983947649653
2006,11,0.11109512866300772,VEHICLE THEFT,38.37166830366028
2006,9,0.3837735168749346,FRAUD,94.67066775474756
2006,3,0.11768947200973379,FRAUD,35.61991968401584
2006,1,0.7712796507053502,FRAUD,80.35347009058779
2006,8,0.13385763195695302,FRAUD,62.28559854469547
2006,10,0.2034609084339109,FRAUD,66.63359621742586
2006,5,0.10679283590229666,FRAUD,48.38505473770729
2006,2,0.08540198990305059,FRAUD,62.31877903221388
2006,7,0.5822271066783312,FRAUD,79.6691755432621
1991,1,0.005359114941266349,FRAUD,100.0
1991,11,0.0070141595643303,FRAUD,100.0
1991,9,0.006605544355250526,FRAUD,100.0
2005,6,0.04917219921275388,FRAUD,67.8040432155961
2005,11,0.06491823309708962,FORGERY,66.09229043306667
2005,12,0.1899896958513399,ROBBERY,62.88018291741435
2005,4,0.03175598379107744,FRAUD,59.28869836756732
2005,9,0.2743277445018443,FRAUD,74.62969867157305
2005,3,0.11215028827156755,OTHER PROPERTY,58.97168010701738
2005,1,0.45908137622115536,FRAUD,49.373533572716774
2005,8,0.16928907746123292,FRAUD,88.14859504625916
2005,10,0.01582283850872956,FRAUD,73.95057425933989
2005,5,0.02315642853679916,ASSAULT,58.6262053423291
2005,2,0.03044418670619116,FRAUD,76.04766927045138
2005,7,0.013105128172418793,FRAUD,51.28809063359055
1996,6,0.0019606122294299135,FRAUD,100.0
1996,8,0.01060407874741838,FRAUD,100.0
1996,12,0.007710176503718746,CAR PROWL,100.0
1900,01,2.6164196353281765e-09,STOLEN PROPERTY,100.0
2000,1,0.04844372549342448,FRAUD,70.84903821487191
2000,8,0.023227390401922468,OTHER PROPERTY,65.27602906348876
2000,7,0.03524453671913767,ASSAULT,71.97020412861622
2000,10,0.006144479529015699,CAR PROWL,99.99999999999999
2000,3,0.013815201175869641,OTHER PROPERTY,52.82792364974968
2000,4,0.008481644920641261,FRAUD,100.0
2000,5,0.021670027971610092,FRAUD,55.147917410683014
2000,6,0.007376541017304188,CAR PROWL,66.96986902070668
2000,9,0.01965153562704564,FRAUD,85.72132650163189
2000,2,0.01412891272375075,FRAUD,62.522525809326034
2000,11,0.030912157881611595,PROPERTY DAMAGE,72.96960206163436
2014,6,179.825945732259,CAR PROWL,20.977863236672864
2014,11,95.3434307474935,BURGLARY,19.37708278214393
2014,12,105.78883434051004,CAR PROWL,15.454526454919703
2014,4,163.63758710208458,THREATS,16.75056907609345
2014,9,148.05254404583272,BURGLARY,13.91199032358478
2014,3,266.56488153193067,FRAUD,45.850756669628794
2014,1,210.84593655449237,VEHICLE THEFT,16.063317272307497
2014,8,143.95523218907323,CAR PROWL,14.42766006760272
2014,10,150.75225373115052,OTHER PROPERTY,11.943690585766507
2014,5,249.80598420581458,FRAUD,33.55053317059752
2014,2,196.694744593356,STOLEN PROPERTY,30.253419386524257
2014,7,183.962789284285,BURGLARY,17.408522576427778
1989,6,0.003621656662516155,[INC - CASE DC USE ONLY],100.0
1983,2,0.009573386543399728,RECOVERED PROPERTY,100.0
2008,6,92.18137021840604,BURGLARY,16.04020798615179
2008,4,65.72568762227337,BURGLARY,17.195102676512956
2008,12,86.75696853333477,CAR PROWL,24.213740355455776
2008,11,64.58609382571875,CAR PROWL,26.784469352865464
2008,9,75.45104359955212,BURGLARY,19.702845025108513
2008,3,105.70283095955475,CAR PROWL,23.29201533753434
2008,1,120.55712737667959,BURGLARY,33.27796684397289
2008,8,94.16113111681913,CAR PROWL,18.744502695791372
2008,10,85.58139402727546,BURGLARY,28.250243936019405
2008,5,74.7599762579058,FRAUD,19.520858451419013
2008,2,96.04782657630322,FRAUD,19.06447138764728
2008,7,54.76796153499492,OTHER PROPERTY,14.941642716110303
1992,7,0.13200008524676912,LOST PROPERTY,100.0
1993,1,0.03287630840291511,FRAUD,100.0
1993,10,0.014706343308452684,FRAUD,53.1467836900749
2010,6,147.5276310501505,BURGLARY,21.016194630745908
2010,11,616.2761330136864,OTHER PROPERTY,86.65607938708794
2010,12,108.59319021795265,OTHER PROPERTY,24.553437062800114
2010,4,71.43334576692381,OTHER PROPERTY,18.712667957044705
2010,9,101.5666994266026,CAR PROWL,24.458238425605824
2010,3,101.11758524401576,BURGLARY,18.98546486344834
2010,1,112.41755371296723,OTHER PROPERTY,23.023833974546857
2010,8,117.4994122108795,CAR PROWL,30.141505480895596
2010,10,129.01544327960477,OTHER PROPERTY,22.0626520723229
2010,5,119.51991938709777,CAR PROWL,26.299311619370787
2010,2,74.46927612578942,PROPERTY DAMAGE,16.46350962277672
2010,7,51.72305532093566,PROPERTY DAMAGE,37.20212995080332
2012,6,207.18101560044747,CAR PROWL,27.02736129203719
2012,4,183.91648829238042,CAR PROWL,22.672203094980212
2012,12,122.67629856400295,OTHER PROPERTY,24.341458136491415
2012,11,82.29149606198055,BURGLARY,23.467284858059255
2012,9,157.2205047897922,STOLEN PROPERTY,18.665714874574043
2012,3,159.4759988536735,OTHER PROPERTY,15.80955399007345
2012,1,143.93899790616427,BURGLARY,21.493068365185366
2012,8,349.9552317761524,OTHER PROPERTY,29.772878002926284
2012,10,106.86599724547406,BURGLARY,14.115837872153017
2012,5,175.26000491893987,BURGLARY,17.824371217159992
2012,2,199.14681115978712,VEHICLE THEFT,21.67855213829769
2012,7,247.30886142137217,CAR PROWL,23.090530261098877
1999,1,0.0137329419421742,FRAUD,100.0
1999,11,0.0012265677548522755,FRAUD,100.0
1999,9,0.009125256654861622,FRAUD,100.0
1999,6,0.006149091514854606,[INC - CASE DC USE ONLY],100.0
