year,month,influence,largestInfluencer,largestInfluencerPercent
2009,6,154.28431026560472,STOLEN PROPERTY,32.89254684157218
2009,4,83.85643314126015,CAR PROWL,26.610192908702643
2009,12,60.89233531005692,CAR PROWL,16.731403958242694
2009,11,146.7561015342218,WARRANT ARREST,35.91490422296755
2009,9,108.00700244643959,VEHICLE THEFT,24.817706860455452
2009,3,123.73395840643688,CAR PROWL,16.968835978321945
2009,1,108.37838624719812,BURGLARY,16.16432348328555
2009,8,91.71570034772188,BURGLARY,22.171571140622024
2009,10,107.75214124145144,BURGLARY,31.70160077639701
2009,5,196.6791220695969,BURGLARY,50.05754584175378
2009,2,77.77389163080586,PROPERTY DAMAGE,21.844511019918446
2009,7,129.45993553577622,CAR PROWL,38.454806526711096
1994,6,0.02313720137360264,PROPERTY DAMAGE,69.32968616594665
1994,1,0.016686956996162274,THREATS,82.7938531044895
1994,10,0.006385670229784246,FRAUD,100.0
1995,9,0.0010998692421021158,FRAUD,100.0
1995,2,0.007883156743248293,FRAUD,100.0
2015,6,185.7966219726495,CAR PROWL,39.57895320680634
2015,11,300.06344879832983,CAR PROWL,81.15486799756022
2015,12,3.4229260438242215,VEHICLE THEFT,18.681053410551705
2015,4,160.08285970699663,FRAUD,41.005694085855176
2015,9,353.488257490559,CAR PROWL,81.21894000263094
2015,3,105.57234492999112,BURGLARY,26.937181363394412
2015,1,255.43760081063843,FRAUD,37.92206781759622
2015,8,88.03028812237159,CAR PROWL,21.13669853070199
2015,10,95.91450925986415,CAR PROWL,22.872573531171938
2015,5,108.52647915306837,CAR PROWL,33.636336715701674
2015,2,99.8200476190334,CAR PROWL,33.627741289124316
2015,7,353.29373478800665,BURGLARY,63.272707709729495
2013,6,324.86764564555403,WEAPON,35.13916308712716
2013,11,681.8854357410758,BURGLARY,74.89871726954698
2013,12,610.1618862657286,CAR PROWL,54.47901722719172
2013,4,230.8813534308161,BURGLARY,34.675307906117375
2013,9,224.57465429885684,CAR PROWL,25.63336236872354
2013,3,249.25287937585387,CAR PROWL,25.360287500602603
2013,1,156.550899504129,CAR PROWL,19.910992872636132
2013,8,238.69276725797647,CAR PROWL,18.940657096337723
2013,10,216.43217621539264,BURGLARY,19.670180918590614
2013,5,203.4755061365698,BURGLARY,28.446851620555062
2013,2,237.5926143412954,CAR PROWL,30.744276893530788
2013,7,304.64416758926296,BURGLARY,43.60595081212447
1990,5,0.0036994175653196357,THREATS,100.0
1990,1,0.0015290797311441626,LOST PROPERTY,100.0
1990,11,0.012961376709456305,[INC - CASE DC USE ONLY],100.0
2011,6,160.66648952827816,CAR PROWL,22.79461116136337
2011,4,100.15173948357086,VEHICLE THEFT,16.857021189197233
2011,12,168.13661045406926,BURGLARY,12.849506663741495
2011,11,283.22398476855193,BURGLARY,64.0350517954857
2011,9,864.822395022727,VEHICLE THEFT,54.79001258656267
2011,3,155.44787758242433,BURGLARY,12.204651759688458
2011,1,94.53451401411729,BURGLARY,27.770210638113213
2011,8,256.85924425636057,OTHER PROPERTY,23.186306582251838
2011,10,417.84728255259427,BURGLARY,58.47041965160446
2011,5,329.68940931662735,PROPERTY DAMAGE,33.46966805125819
2011,2,72.56900569977832,BURGLARY,15.149899225611103
2011,7,178.43611818966525,CAR PROWL,14.599138924361798
2001,6,0.061176649228512604,PROPERTY DAMAGE,38.2836925312187
2001,11,0.017864807332631617,BURGLARY,30.122815001155296
2001,12,0.016270347241583032,FRAUD,100.0
2001,4,0.18998977528149497,OTHER PROPERTY,70.1835892726229
2001,9,0.05831183914909603,BURGLARY,59.63721669668855
2001,3,0.18899715580132062,CAR PROWL,74.8504420002277
2001,1,0.0681090533542193,FRAUD,40.8658646753034
2001,8,0.2137356496842832,TRESPASS,82.95919632359212
2001,10,0.4343189034852693,FRAUD,92.19173743344574
2001,5,0.21647062279016796,FRAUD,98.53931258379947
2001,2,0.25751119964164576,FRAUD,82.27750082171615
2001,7,0.03648907600551008,FRAUD,65.50893828719329
2003,6,0.002229869927978826,FRAUD,100.0
2003,11,0.09343769300006573,FRAUD,78.28428570294982
2003,12,0.021334503823980278,FRAUD,61.33679091790666
2003,4,0.008362444468020924,CAR PROWL,100.0
2003,9,0.04680973073583913,FRAUD,73.46039738669114
2003,3,0.13946701224792718,FRAUD,97.93094069761786
2003,1,0.5303711999487892,FRAUD,90.98844351221476
2003,8,0.07588629952810363,OTHER PROPERTY,89.04866426922065
2003,10,0.14117916033128483,FRAUD,100.0
2003,5,0.0026625648528042604,FRAUD,100.0
2003,2,0.014939039929372282,FRAUD,74.8634951422185
2003,7,0.0304320707189473,LOST PROPERTY,90.59639495676686
1965,1,0.003970067978233625,LOST PROPERTY,100.0
1998,1,0.12833445095574092,LOST PROPERTY,72.86621369471767
1998,11,0.014874860804526376,FRAUD,63.193694150631934
1998,5,0.0037711767782799403,OTHER PROPERTY,100.0
1998,3,0.010889456495371895,CAR PROWL,45.200671654886925
1998,8,0.002766600012560904,[INC - CASE DC USE ONLY],99.99999999999999
2002,1,0.09403326044417988,FRAUD,63.405440703330974
2002,8,0.05077166764227722,THREATS,89.60363557384845
2002,10,0.016443537640682564,FRAUD,100.0
2002,12,0.0016638869112285469,FRAUD,99.99999999999999
2002,4,0.0029912013465481883,FRAUD,100.0
2002,11,0.0027561817287427666,CAR PROWL,100.0
2002,6,0.3388919663939525,LOST PROPERTY,83.49094407914525
2002,3,0.01998792124069227,DUI,92.5610447883936
2002,2,0.017360659187509987,EMBEZZLE,64.42128049317414
2007,6,1.653472984121765,FRAUD,68.39721246484154
2007,4,0.6120238740805449,[INC - CASE DC USE ONLY],38.55140667051154
2007,12,26.717147209111538,FRAUD,64.66497399743861
2007,11,4.569188542225657,FRAUD,80.77206892797575
2007,9,2.1841346857232975,FRAUD,58.34909821537673
2007,3,0.47682723871299604,FRAUD,50.79970756279097
2007,1,1.0171847347779295,FRAUD,49.467118109997905
2007,8,0.35559563087974405,FRAUD,63.64752450559078
2007,10,1.1748055310680086,OTHER PROPERTY,33.83818049924019
2007,5,0.39094994788000703,FRAUD,45.2321299073048
2007,2,0.21639214992670505,FRAUD,67.68623371175279
2007,7,0.9065067898454017,FRAUD,53.60205496845504
2004,6,0.009183164441010618,FRAUD,53.06035467317322
2004,4,0.3262246646289723,FRAUD,95.38868009965368
2004,12,0.10830676181560565,VEHICLE THEFT,100.0
2004,11,0.029284460937077435,[INC - CASE DC USE ONLY],38.45620264712667
2004,9,0.34407991214634465,PROPERTY DAMAGE,79.57054867730402
2004,3,0.02127258444104449,BURGLARY-SECURE PARKING-RES,37.29133813991946
2004,1,4.636913065036747,FRAUD,98.61691208575834
2004,8,0.030228098503844742,FRAUD,53.51656746235189
2004,10,0.19430549558705562,OTHER PROPERTY,79.23036621074846
2004,5,0.1384866207420656,FRAUD,87.54168719412041
2004,2,0.08180131460864588,[INC - CASE DC USE ONLY],53.08774640219778
2004,7,0.020445876987427933,FRAUD,100.0
1997,1,0.006323624573263387,FRAUD,69.75773989140379
1997,11,0.02714086557965721,FRAUD,100.0
1997,10,0.004257835909050575,FRAUD,100.0
1997,5,0.01931980671993714,FRAUD,100.0
1997,9,0.04006942247486716,FRAUD,100.0
1997,2,0.007227630189084956,FRAUD,100.0
2006,6,0.4534332877269799,FRAUD,65.08176860656167
2006,4,0.18723553869075296,FRAUD,80.00174831229063
2006,12,0.1473345415326857,FRAUD,38.17942190873811
2006,11,0.2571713635346839,BIKE THEFT,43.039385147838516
2006,9,0.15326168651014518,FRAUD,57.50227922292698
2006,3,0.11975642868495308,FRAUD,49.110311313251906
2006,1,0.6085117163530389,FRAUD,66.54402149766054
2006,8,0.13286773461841375,[INC - CASE DC USE ONLY],59.43694662758189
2006,10,0.33231526963578306,FRAUD,77.30986358585109
2006,5,0.3572545237853603,OTHER PROPERTY,53.34054928667228
2006,2,0.2527945619137828,OTHER PROPERTY,44.838642391095426
2006,7,0.2101472319194966,[INC - CASE DC USE ONLY],37.29246910012429
1991,1,0.004955569765151556,FRAUD,100.0
1991,11,0.014802865988569835,FRAUD,100.0
1991,9,0.0322698499693112,FRAUD,100.0
2005,6,0.22375189652600128,FRAUD,90.2386587077612
2005,11,0.0359922825574646,THREATS,54.54977377260284
2005,12,0.04667703745363263,FRAUD,51.76721171045328
2005,4,0.05888182314137353,FRAUD,68.36812319647623
2005,9,0.04238222258936884,FRAUD,40.159606980922476
2005,3,0.07501717078640714,FRAUD,68.2443972412224
2005,1,0.6168730019127481,FRAUD,49.85005826990055
2005,8,0.9258478600185863,FRAUD,97.09277256484891
2005,10,0.021588400460954206,FRAUD,76.71364359561875
2005,5,0.026710585502123865,ASSAULT,55.17364425065686
2005,2,0.06959445975006727,FRAUD,55.8663657383551
2005,7,0.02514412272167122,OTHER PROPERTY,68.37903282649039
1996,6,0.002897483922573075,FRAUD,99.99999999999999
1996,8,0.6678927291232195,FRAUD,100.0
1996,12,0.015184004161953861,CAR PROWL,100.0
1900,01,2.6201259882402897e-09,STOLEN PROPERTY,100.0
2000,1,1.3764169840243012,FRAUD,96.77501934571586
2000,8,0.0453377984334629,OTHER PROPERTY,46.3346375659761
2000,7,0.07197448182191388,BURGLARY,80.15002129171529
2000,10,0.02298888157710076,CAR PROWL,100.0
2000,3,0.023301494862430355,CAR PROWL,55.52048858178824
2000,4,0.008682451510685842,FRAUD,100.0
2000,5,0.054012202549780224,THREATS,50.8859357395557
2000,6,0.008445226825418276,CAR PROWL,64.51257313471467
2000,9,0.1714243999282392,FRAUD,97.93227318507091
2000,2,0.04722962248251578,FRAUD,85.09893131011489
2000,11,0.03531065272649872,PROPERTY DAMAGE,52.37328884642094
2014,6,215.3071067837431,CAR PROWL,21.574256549510245
2014,11,420.4198952124012,OTHER PROPERTY,57.6588619639359
2014,12,127.53558235176253,BURGLARY,27.141579287265152
2014,4,408.07731631526246,BURGLARY,44.46458717570298
2014,9,210.8913397715041,CAR PROWL,24.457387654367736
2014,3,310.5554319896499,STOLEN PROPERTY,23.05275508940516
2014,1,314.633547798707,CAR PROWL,50.092196540349846
2014,8,271.2633964294247,CAR PROWL,31.96813294361831
2014,10,829.9988880944464,CAR PROWL,58.6956333637617
2014,5,243.59583913615197,CAR PROWL,26.254737869944314
2014,2,294.88508824717496,CAR PROWL,45.166376641104996
2014,7,370.38968357110747,CAR PROWL,27.97595017162235
1989,6,0.006081333201341414,[INC - CASE DC USE ONLY],100.0
1983,2,0.019882207482881435,RECOVERED PROPERTY,100.0
2008,6,97.51108404475971,CAR PROWL,27.908518126344692
2008,4,205.49589969247828,BURGLARY,31.619255089139994
2008,12,89.63789160554383,CAR PROWL,48.76817114823454
2008,11,155.28686114790347,BURGLARY,32.47785729570526
2008,9,104.06226896652431,CAR PROWL,18.15839009745563
2008,3,313.77208834426546,PROPERTY DAMAGE,71.14602513929314
2008,1,97.14220158586875,BURGLARY,21.47855929058656
2008,8,111.94837446551013,BURGLARY,16.771831124639117
2008,10,205.37756594954965,CAR PROWL,43.82427549477658
2008,5,88.11124663684556,BURGLARY,31.163827512204943
2008,2,166.38122162369575,VEHICLE THEFT,42.31603117862389
2008,7,131.95507342087694,PROPERTY DAMAGE,45.690087317256044
1992,7,0.0072155338283432695,LOST PROPERTY,100.0
1993,1,0.005082694764232495,FRAUD,100.0
1993,10,0.09886544000942285,HOMICIDE,79.11667819996788
2010,6,139.84183066868343,BURGLARY,24.360019206082985
2010,11,72.84401671307529,BURGLARY,16.835055820407643
2010,12,92.80830793751262,CAR PROWL,32.644786234361455
2010,4,62.93751285493704,VEHICLE THEFT,17.465174903348636
2010,9,144.70693808880625,ASSAULT,37.67024666611232
2010,3,118.37346105707013,CAR PROWL,27.588144186735878
2010,1,116.63595141495658,CAR PROWL,37.63186259504122
2010,8,144.16996229726706,BURGLARY,25.77579819948394
2010,10,156.35600092367645,BURGLARY,40.45499603318391
2010,5,79.60905279546029,ROBBERY,16.43507191438036
2010,2,79.63113151552393,BURGLARY,15.967597436446066
2010,7,37.33642711653935,FRAUD,34.38436008920989
2012,6,225.16096728656018,BURGLARY,32.84579491825034
2012,4,217.0316822857181,CAR PROWL,42.97971637385929
2012,12,164.00449233066976,OTHER PROPERTY,45.667707454108275
2012,11,75.23754761078929,BURGLARY,28.74931019125384
2012,9,223.23659569219356,CAR PROWL,35.28877220093535
2012,3,220.18863039480084,FRAUD,26.15024470552964
2012,1,286.69088533098926,BURGLARY,34.34674382195306
2012,8,281.7851320662934,STOLEN PROPERTY,36.09963290800181
2012,10,93.56799702510716,BURGLARY,24.731693251002554
2012,5,215.21173470407075,BURGLARY,20.848551145821997
2012,2,767.9792644676933,VEHICLE THEFT,57.22208532586354
2012,7,1185.185653973832,THREATS,84.8060726054032
1999,1,0.02849622142513559,FRAUD,100.0
1999,11,0.0019196523845565591,FRAUD,100.0
1999,9,0.012799694789352924,FRAUD,100.0
1999,6,0.11658260518071258,[INC - CASE DC USE ONLY],100.0
