year,month,influence,largestInfluencer,largestInfluencerPercent
2009,6,183.31293551283864,CAR PROWL,31.76839391965224
2009,4,136.49961322781118,CAR PROWL,19.756103263914298
2009,12,90.73205422389489,BURGLARY,37.966891410663315
2009,11,106.32168794891945,CAR PROWL,19.60557447445252
2009,9,143.98688462293526,VEHICLE THEFT,19.25532909927047
2009,3,95.98707822556864,CAR PROWL,26.68763641026028
2009,1,108.36025092737263,PROPERTY DAMAGE,25.51851852031923
2009,8,82.79984742563022,BURGLARY,21.087802010045465
2009,10,131.49220698311228,OTHER PROPERTY,24.422643288170963
2009,5,83.17024404920812,OTHER PROPERTY,24.81281601526008
2009,2,114.50699866461876,OTHER PROPERTY,22.658591753428265
2009,7,84.89530076376154,CAR PROWL,21.75203801980919
1994,6,0.009448309610359243,PROPERTY DAMAGE,89.2770002638175
1994,1,0.027317777678692454,FRAUD,73.60294604835656
1994,10,0.0032945643465535,FRAUD,100.0
1995,9,0.012606922731145113,FRAUD,100.00000000000001
1995,2,0.003102039203592294,FRAUD,100.0
2015,6,124.55631254967534,BURGLARY,20.901018552254683
2015,11,106.95072118318026,BURGLARY,20.908520882349734
2015,12,3.7215636050457204,VEHICLE THEFT,48.518252714820086
2015,4,150.98125752915007,BURGLARY,25.638924956704958
2015,9,121.45740487440094,PROPERTY DAMAGE,22.644917368037373
2015,3,107.95909531746778,OTHER PROPERTY,17.71778481628251
2015,1,152.13762073920944,OTHER PROPERTY,17.25894008673202
2015,8,116.93167703377277,CAR PROWL,13.602022137308142
2015,10,150.66384483159445,OTHER PROPERTY,46.36571318335619
2015,5,123.83935934067614,BURGLARY,19.20753707161086
2015,2,103.63486981692856,BIKE THEFT,19.26013698105141
2015,7,130.12260902026264,CAR PROWL,17.456599398220177
2013,6,236.70009441432381,BURGLARY,15.389174413356148
2013,11,252.88359507776934,OTHER PROPERTY,25.634055027916126
2013,12,243.66244057824863,CAR PROWL,16.868868547935726
2013,4,276.71952304879403,OTHER PROPERTY,48.84047034912359
2013,9,309.3991858761081,ASSAULT,18.878501465028716
2013,3,250.01129884109852,CAR PROWL,24.686623566622647
2013,1,209.69549035286923,CAR PROWL,21.442086337144175
2013,8,304.38233705998306,PROPERTY DAMAGE,27.55294282824695
2013,10,294.00343989578647,BURGLARY,20.565071704393702
2013,5,236.5558620592329,CAR PROWL,25.433268086992587
2013,2,242.58995008922557,ASSAULT,33.13353440069493
2013,7,250.81543147423847,BURGLARY,14.124698255635455
1990,5,0.01224821787060335,THREATS,100.0
1990,1,0.04419585488748331,LOST PROPERTY,100.00000000000001
1990,11,0.0027188511059082583,[INC - CASE DC USE ONLY],100.0
2011,6,204.9818112695769,CAR PROWL,22.984180008224843
2011,4,113.66263704533173,CAR PROWL,23.8321487582757
2011,12,203.0265655925073,CAR PROWL,26.69860473411098
2011,11,200.280663146991,CAR PROWL,42.83809989511848
2011,9,220.23011112162203,BURGLARY,22.626764904184814
2011,3,261.7026963003341,BURGLARY,20.066054901470128
2011,1,96.37446838518514,CAR PROWL,19.72579869933743
2011,8,188.90030552782923,CAR PROWL,27.734775220665153
2011,10,361.68512134890295,CAR PROWL,23.286444686443623
2011,5,264.4240280824674,OTHER PROPERTY,35.99623741311975
2011,2,147.2050674577111,OTHER PROPERTY,50.080125253546235
2011,7,164.9431566399636,BURGLARY,16.593658446250387
2001,6,0.3960611262056822,FRAUD,79.46569736755742
2001,11,1.0644917900054591,CAR PROWL,91.3606626665269
2001,12,0.018831710243526513,FRAUD,100.0
2001,4,0.04531628804912707,OTHER PROPERTY,34.43988330538977
2001,9,0.06137037048680329,FRAUD,60.04068866968957
2001,3,0.08625657843287708,BURGLARY,74.3508114925599
2001,1,0.6065626667932325,FRAUD,92.97563406761162
2001,8,0.01654339588655823,FRAUD,40.05414651845036
2001,10,0.13197062960206107,OTHER PROPERTY,73.1047376534395
2001,5,0.09498711399248991,FRAUD,95.32412641022314
2001,2,0.09817921254160099,LOST PROPERTY,90.02786193371111
2001,7,0.20229540054732836,BURGLARY-SECURE PARKING-RES,94.975834362459
2003,6,0.028157371129341635,FRAUD,100.00000000000001
2003,11,0.035840301486110865,FRAUD,83.6770640801348
2003,12,0.01686249167420241,FRAUD,95.5182227234003
2003,4,0.0028881300939005237,CAR PROWL,100.00000000000001
2003,9,0.01054817206291633,OTHER PROPERTY,42.19278613240952
2003,3,0.19937974678797696,OTHER PROPERTY,79.93542121300074
2003,1,0.23762336203311774,FRAUD,73.08046483596841
2003,8,0.12922772319640408,FRAUD,97.75328845484192
2003,10,0.001310568146432144,FRAUD,100.0
2003,5,0.003272840854221595,FRAUD,100.0
2003,2,0.007662674923147683,OTHER PROPERTY,61.16188952097913
2003,7,0.01313505758485345,FRAUD,63.709023041070765
1965,1,0.008047615492167091,LOST PROPERTY,100.0
1998,1,0.04625864226255019,FRAUD,55.662871407151194
1998,11,0.004868068703582938,FRAUD,76.0888633352156
1998,5,0.0012680765400127176,OTHER PROPERTY,99.99999999999999
1998,3,0.6036928154699063,OTHER PROPERTY,96.76057950879601
1998,8,0.010241475640514999,[INC - CASE DC USE ONLY],100.0
2002,1,0.21004312901696365,FRAUD,86.17579108235041
2002,8,0.18160776789512517,FRAUD,66.2565575727986
2002,10,0.006523953859442939,FRAUD,100.0
2002,12,0.007987043666433552,FRAUD,100.0
2002,4,0.016876686019993512,FRAUD,100.0
2002,11,0.02403266039542587,CAR PROWL,100.0
2002,6,0.008866527553606346,PROPERTY DAMAGE,40.91989815403062
2002,3,0.07705778565652997,[INC - CASE DC USE ONLY],96.18772709276088
2002,2,0.01185593018509014,FRAUD,47.73070754441424
2007,6,1.8717290127162904,BURGLARY,62.38795964316766
2007,4,1.2508079480534546,EMBEZZLE,76.8982561433451
2007,12,11.429022888769504,OTHER PROPERTY,23.82195539771545
2007,11,20.730742452107553,OTHER PROPERTY,89.03367667537714
2007,9,1.2028537634331662,FRAUD,55.5365751525897
2007,3,0.7632554802704871,FRAUD,57.00691354762967
2007,1,4.179132282329486,PROPERTY DAMAGE,80.4674297994408
2007,8,0.823792945956498,FRAUD,76.62450099504368
2007,10,0.8675267727226831,FRAUD,59.432212039682035
2007,5,0.33238374537542753,FRAUD,32.69024319125071
2007,2,0.3268228774317073,FRAUD,52.70032849801336
2007,7,0.22211451324759812,FRAUD,47.27622546599283
2004,6,0.008038597055877223,FRAUD,77.8697870157839
2004,4,0.009727529412256207,LOST PROPERTY,37.06536413939586
2004,12,0.0012991928355944246,VEHICLE THEFT,100.0
2004,11,0.08319747049932073,LOST PROPERTY,67.05481139742079
2004,9,0.13722837253709239,FRAUD,69.05506134828488
2004,3,0.08576048957324868,BURGLARY-SECURE PARKING-RES,76.79982739795716
2004,1,1.853030995886462,EMBEZZLE,76.37119536495011
2004,8,0.06662942434667388,OTHER PROPERTY,57.8312807203013
2004,10,0.7278169557031735,THREATS,89.91550802856686
2004,5,0.05975901133399011,FRAUD,57.44004343860265
2004,2,0.02670898560876593,FORGERY,59.812121655086145
2004,7,0.0610219761724938,FRAUD,100.0
1997,1,0.015983883563124884,FORGERY,74.0723764747653
1997,11,0.002019277732397703,FRAUD,100.0
1997,10,0.013064842090204283,FRAUD,100.0
1997,5,0.00635580240860786,FRAUD,100.0
1997,9,0.001150593750384556,FRAUD,100.0
1997,2,0.003965510536535919,FRAUD,100.0
2006,6,0.1820164430394166,FRAUD,53.75572026100567
2006,4,0.13728763775508745,LOST PROPERTY,70.26005133830809
2006,12,0.5091155793030204,FRAUD,80.16912733074442
2006,11,0.9142636381744167,[INC - CASE DC USE ONLY],71.96689950785543
2006,9,0.24181817409229106,FRAUD,76.00080585372417
2006,3,0.27067008939054027,PROPERTY DAMAGE,66.2180488587686
2006,1,1.003674954985446,FRAUD,83.91520586386811
2006,8,0.12012660716620552,FRAUD,90.30418207396774
2006,10,0.10924225149529054,[INC - CASE DC USE ONLY],37.19803976467006
2006,5,0.07497781827347232,[INC - CASE DC USE ONLY],31.35586342850947
2006,2,0.12245767869587044,FRAUD,49.71528632042402
2006,7,0.03849879807369835,FRAUD,36.225075167850065
1991,1,0.05873291713108018,FRAUD,100.0
1991,11,0.009084140593097995,FRAUD,100.0
1991,9,0.0010603951152504706,FRAUD,100.0
2005,6,0.043431815879656374,FRAUD,34.37413670696426
2005,11,0.0987979745107217,CAR PROWL,54.56556926661557
2005,12,0.09792963498572775,LOST PROPERTY,81.37222533073458
2005,4,0.047972916147249904,FRAUD,68.4032244962501
2005,9,0.037215311086428934,FRAUD,61.343018685776556
2005,3,0.031266436449943626,FRAUD,73.87693742302011
2005,1,0.8309970096245269,FRAUD,64.32839575136377
2005,8,0.06105886961486993,OTHER PROPERTY,42.77619300281076
2005,10,0.058549180132252444,FRAUD,93.02369020653128
2005,5,0.008148139556645374,FRAUD,87.83520339328398
2005,2,0.07942209467680664,FRAUD,97.33637526468058
2005,7,0.1338838012018296,FRAUD,69.96501766327256
1996,6,0.013420040566164124,FRAUD,100.0
1996,8,0.002724105170430623,FRAUD,100.0
1996,12,0.002357823085496143,CAR PROWL,100.0
1900,01,2.622325365173805e-09,STOLEN PROPERTY,100.0
2000,1,0.13002066417846664,THREATS,43.58942477122517
2000,8,0.050985500072638766,STOLEN PROPERTY,42.775206961106036
2000,7,0.052728367640084005,FRAUD,93.22073828596258
2000,10,0.016793794573765206,CAR PROWL,100.0
2000,3,0.031856442481282825,OTHER PROPERTY,91.6908391377059
2000,4,0.007643778754576034,FRAUD,100.0
2000,5,0.01874820963825471,FRAUD,67.05107084221783
2000,6,0.05398591244895985,FRAUD,93.59643534748649
2000,9,0.014732403966379934,FRAUD,56.96343053764649
2000,2,0.009012548657699557,FRAUD,63.50361102996129
2000,11,0.052327974679803047,FRAUD,80.41814416785888
2014,6,370.91173936218553,BURGLARY,17.200101955693505
2014,11,132.93272759788061,BURGLARY,22.97804232598163
2014,12,127.31186527158317,OTHER PROPERTY,24.942756587180412
2014,4,362.63671985729326,OTHER PROPERTY,47.69763965349882
2014,9,213.1725771499687,THREATS,19.933041230832224
2014,3,465.3631774665889,OTHER PROPERTY,22.59544693690029
2014,1,254.97329012706803,ASSAULT,23.62145094046312
2014,8,174.46276670291397,BURGLARY,13.448299634517062
2014,10,243.58067344541618,BURGLARY,16.310546094053073
2014,5,237.34345856237343,OTHER PROPERTY,22.208025255379233
2014,2,242.33862927229413,PROPERTY DAMAGE,19.36876085854249
2014,7,241.82783516220206,BURGLARY,21.230063868730245
1989,6,0.004657969193373541,[INC - CASE DC USE ONLY],100.0
1983,2,0.002027484540424823,RECOVERED PROPERTY,100.0
2008,6,169.7537076273984,BURGLARY,26.868060518790998
2008,4,96.04348141693474,OTHER PROPERTY,31.226900817809767
2008,12,103.40470764439115,BURGLARY,38.56120278626558
2008,11,142.03391821724247,OTHER PROPERTY,21.81557985738525
2008,9,134.076684463407,CAR PROWL,19.089789936633668
2008,3,185.04654433204988,PROPERTY DAMAGE,22.54043675062284
2008,1,174.41842355705074,PROPERTY DAMAGE,24.468156968492057
2008,8,122.80244428681591,THREATS,16.858990750703438
2008,10,147.6728418164303,BURGLARY,24.4370042926833
2008,5,166.8553107670794,CAR PROWL,24.984664451003272
2008,2,160.0535903693247,CAR PROWL,29.938429462331918
2008,7,87.35376125817596,BURGLARY,22.192046363276475
1992,7,0.0010327006182080383,LOST PROPERTY,100.0
1993,1,0.0014433943026263868,FRAUD,100.0
1993,10,0.0093660988834775,FRAUD,80.18955717716325
2010,6,119.94241791824416,BURGLARY,22.50081235501999
2010,11,107.96241230774929,CAR PROWL,23.23490229373866
2010,12,91.54352868126358,CAR PROWL,25.895507701999165
2010,4,124.35993440823698,OTHER PROPERTY,26.861684777257274
2010,9,135.7354667381915,OTHER PROPERTY,33.94244345624673
2010,3,127.24255676439185,OTHER PROPERTY,28.287211312375398
2010,1,93.76944247569865,CAR PROWL,31.469907217060204
2010,8,106.00146745556329,BURGLARY,18.60550063367099
2010,10,127.15509558399485,CAR PROWL,24.965659986168593
2010,5,94.84434907180274,CAR PROWL,17.5148395842032
2010,2,142.2727519696527,CAR PROWL,30.076511180559518
2010,7,71.53448578669662,BURGLARY,64.56681088494747
2012,6,342.1904660391873,CAR PROWL,20.749060393874462
2012,4,207.9399120640707,OTHER PROPERTY,27.524714267946067
2012,12,127.88021346401851,DISTURBANCE,29.934851320424112
2012,11,132.4858618158451,OTHER PROPERTY,34.24364371126958
2012,9,176.4347723994903,OTHER PROPERTY,29.494601503966713
2012,3,233.03849846449847,OTHER PROPERTY,26.020544099991447
2012,1,227.60725777122025,CAR PROWL,26.053467143291996
2012,8,221.73069746479024,NARCOTICS,16.972286367794133
2012,10,191.920750493327,CAR PROWL,25.83458955616407
2012,5,261.64854530731435,BIKE THEFT,28.35345187512296
2012,2,194.76207931673878,CAR PROWL,28.91607467730765
2012,7,251.23164889066993,CAR PROWL,25.585268851311834
1999,1,0.02439771006782083,FRAUD,100.0
1999,11,0.14193172387975264,FRAUD,100.0
1999,9,0.007464118500056681,FRAUD,100.0
1999,6,0.0018527536552580307,[INC - CASE DC USE ONLY],100.0
