year,month,influence,largestInfluencer,largestInfluencerPercent
2009,6,217.14856680444882,BURGLARY,28.980699257599824
2009,4,143.09904210103693,CAR PROWL,13.665640020722904
2009,12,169.92648709795168,VEHICLE THEFT,28.737786512170935
2009,11,235.9070301166961,VEHICLE THEFT,23.78255985143625
2009,9,204.14168187454163,CAR PROWL,19.439771458877804
2009,3,143.90914917036892,CAR PROWL,14.693996640243393
2009,1,278.514785400695,THREATS,27.282631248456923
2009,8,143.9569105078986,CAR PROWL,17.93262406916533
2009,10,232.49151716964707,OTHER PROPERTY,27.93042293040162
2009,5,167.2664079614145,CAR PROWL,14.23516739826708
2009,2,173.6417055286138,OTHER PROPERTY,23.444033761708877
2009,7,721.1371331434359,CAR PROWL,44.050115908924404
1994,6,0.011589041267548967,PROPERTY DAMAGE,89.66540165159778
1994,1,0.03269736671510222,FRAUD,69.9795033661573
1994,10,0.00461527607615086,FRAUD,100.0
1995,9,0.03213647493398073,FRAUD,100.0
1995,2,0.0041352617546857205,FRAUD,100.0
2015,6,453.13481344115405,OTHER PROPERTY,21.911954147478095
2015,11,235.33684904385638,CAR PROWL,16.05883802340413
2015,12,259.0271968851399,VEHICLE THEFT,96.40454920784832
2015,4,274.44796698713753,CAR PROWL,20.962060271955174
2015,9,253.5837122070006,CAR PROWL,18.499781459863932
2015,3,806.6694478639815,CAR PROWL,39.69757513161417
2015,1,212.6502242569413,VEHICLE THEFT,15.782404140936432
2015,8,799.5504207883504,BURGLARY,33.76974224455696
2015,10,534.9485393220812,BURGLARY,53.065723818901176
2015,5,1098.0974825303836,CAR PROWL,37.98799943872479
2015,2,449.496792412921,DISTURBANCE,56.45031002035156
2015,7,709.9288689780117,BURGLARY,39.100660804101175
2013,6,379.6138676024704,CAR PROWL,21.493808582864443
2013,11,1032.978344178319,ROBBERY,55.42459549762436
2013,12,422.749035797154,CAR PROWL,20.03970698407918
2013,4,1013.1349721467044,FRAUD,50.344664306737016
2013,9,565.2807337895354,BURGLARY,21.76651488947992
2013,3,409.56071770526717,CAR PROWL,18.22394296046229
2013,1,399.35138759943356,OTHER PROPERTY,18.4575124621016
2013,8,498.2189777771547,CAR PROWL,17.565667722088932
2013,10,916.3805660482752,ANIMAL COMPLAINT,53.83979092052735
2013,5,577.6049276431831,CAR PROWL,20.39492550782197
2013,2,471.96529142331303,DISTURBANCE,20.614808538888102
2013,7,511.61001461358296,PROPERTY DAMAGE,19.806691750749195
1990,5,0.00977247186197742,THREATS,100.0
1990,1,1.068467108105903,LOST PROPERTY,100.0
1990,11,0.0033319427904915442,[INC - CASE DC USE ONLY],100.0
2011,6,956.6030202838078,WARRANT ARREST,53.480216799845344
2011,4,264.43739785340745,OTHER PROPERTY,15.124308666496221
2011,12,315.0292452400519,OTHER PROPERTY,23.73745073008118
2011,11,276.16776262895337,CAR PROWL,18.15501057016634
2011,9,913.4234275790702,OTHER PROPERTY,59.24110503622369
2011,3,447.2853365559018,DISTURBANCE,18.922654754318167
2011,1,182.86371170777062,OTHER PROPERTY,19.169210389033122
2011,8,517.0386392841128,THREATS,30.519581461014205
2011,10,412.8596112081195,OTHER PROPERTY,14.499201943215981
2011,5,380.7821233237303,OTHER PROPERTY,18.590165491063594
2011,2,187.57810376208005,OTHER PROPERTY,20.16019277792454
2011,7,418.2397095970948,OTHER PROPERTY,18.89276333984806
2001,6,0.3897818428808232,FRAUD,65.89022713895773
2001,11,0.16576626383813559,FRAUD,47.5281190028517
2001,12,0.061054119068054157,FRAUD,100.0
2001,4,0.18281838906693032,PROPERTY DAMAGE,47.2113505582449
2001,9,0.08641586658523415,OTHER PROPERTY,56.70640509825339
2001,3,0.07910664167893947,BURGLARY,66.52339181912913
2001,1,0.5090441803116205,FRAUD,53.24090762706396
2001,8,0.03047532976418297,FRAUD,60.42655222812118
2001,10,0.4972401675612136,OTHER PROPERTY,51.42222188798481
2001,5,0.2167318620183963,FRAUD,96.22336112676284
2001,2,0.02912826026680505,LOST PROPERTY,59.74011811423185
2001,7,0.15227776284824912,BURGLARY-SECURE PARKING-RES,92.02622468504343
2003,6,0.07264743240520831,FRAUD,100.0
2003,11,0.04502778331895378,FRAUD,83.5069256910574
2003,12,0.03341537343936003,FRAUD,97.646612250521
2003,4,0.0038164992444243025,CAR PROWL,100.0
2003,9,0.014772314047666482,OTHER PROPERTY,54.00295225005034
2003,3,0.36037966375501074,OTHER PROPERTY,87.28948567389816
2003,1,0.3110389541746542,FRAUD,74.98356146946163
2003,8,0.09015614929553283,FRAUD,96.34966865159797
2003,10,0.001396675267630157,FRAUD,100.0
2003,5,0.005871585211193161,FRAUD,100.0
2003,2,0.011732226125206293,OTHER PROPERTY,68.52266833212475
2003,7,0.024328849852537027,FRAUD,75.87893405742022
1965,1,0.012073173284969771,LOST PROPERTY,100.0
1998,1,0.05389044888511302,FRAUD,64.87870700651175
1998,11,0.0059780168328903045,FRAUD,75.76050583003367
1998,5,0.001669580113218518,OTHER PROPERTY,100.0
1998,3,0.8021071621657225,OTHER PROPERTY,96.49631583856961
1998,8,0.02356913643559254,[INC - CASE DC USE ONLY],100.0
2002,1,0.6787829321803027,FRAUD,95.37990472603975
2002,8,0.1577193136864643,FRAUD,85.93794787546682
2002,10,0.008566154477777149,FRAUD,100.0
2002,12,0.028624254993020813,FRAUD,100.0
2002,4,0.02215163134178001,FRAUD,100.0
2002,11,0.02254327266710171,CAR PROWL,100.00000000000001
2002,6,0.010741983971476353,PROPERTY DAMAGE,42.90869066838103
2002,3,0.23283710457564877,[INC - CASE DC USE ONLY],98.59964818988094
2002,2,0.019134928142035705,FRAUD,48.88194327164583
2007,6,1.2445354260307206,FRAUD,44.880279766083675
2007,4,1.8514848331105953,FORGERY,38.06564791594243
2007,12,21.30362010623528,OTHER PROPERTY,36.55204699459968
2007,11,2.9744542459278263,OTHER PROPERTY,42.20519593490583
2007,9,2.6734706903017385,OTHER PROPERTY,48.38073790998441
2007,3,1.1645062330142024,LOST PROPERTY,47.079013625843416
2007,1,2.628936673081234,OTHER PROPERTY,42.969277117830906
2007,8,1.2023823947736385,EMBEZZLE,46.81945888663363
2007,10,2.7466366870777854,FRAUD,67.50463810276699
2007,5,0.8195507080603027,THREATS,34.53682158720773
2007,2,0.7063207072112935,STOLEN PROPERTY,47.64820132831278
2007,7,1.0580324736191795,FRAUD,58.00572010974792
2004,6,0.011184041085117976,FRAUD,77.84512570756303
2004,4,0.012286727831135519,LOST PROPERTY,39.94518217229591
2004,12,0.0013943201651900935,VEHICLE THEFT,100.0
2004,11,0.31947910621814896,LOST PROPERTY,80.09675433186759
2004,9,0.377863767643114,FRAUD,72.17130543790608
2004,3,0.1277254441554361,BURGLARY-SECURE PARKING-RES,75.6809159996914
2004,1,2.4475811761357282,THREATS,49.24738923141613
2004,8,0.10570806623764073,OTHER PROPERTY,52.835036631971015
2004,10,0.17064038835888143,[INC - CASE DC USE ONLY],53.60943854353394
2004,5,0.40258654621294765,FORGERY,85.86834652020806
2004,2,0.031569307979185855,FORGERY,60.34182682271694
2004,7,0.08138102036454328,FRAUD,99.99999999999999
1997,1,0.06218997492171916,FORGERY,89.44327680711513
1997,11,0.002267077566957009,FRAUD,100.0
1997,10,0.03490058454155063,FRAUD,100.0
1997,5,0.008051989380139811,FRAUD,100.0
1997,9,0.001247136682599767,FRAUD,100.0
1997,2,0.005221220463943054,FRAUD,100.0
2006,6,0.21233696086680862,FRAUD,59.117821616102376
2006,4,0.6873637845900531,LOST PROPERTY,89.8891697338414
2006,12,1.1730619528149147,OTHER PROPERTY,82.24456141164957
2006,11,0.11241134799402935,[INC - CASE DC USE ONLY],52.95283384782436
2006,9,0.22729502640415705,FRAUD,49.4506226148709
2006,3,0.20042326306390978,FRAUD,78.75203204296318
2006,1,0.869923699159726,FRAUD,72.75981485503492
2006,8,1.3883546846902113,FRAUD,98.53374733984265
2006,10,0.10978885186743156,[INC - CASE DC USE ONLY],34.66252343727535
2006,5,0.26085772543632,THREATS,57.01271106755547
2006,2,0.6468406822113911,FRAUD,50.86869846724252
2006,7,0.055989608054651044,FRAUD,47.76076986604602
1991,1,0.034798802120786794,FRAUD,100.0
1991,11,0.011218181726437612,FRAUD,100.0
1991,9,0.0011277255531151212,FRAUD,100.0
2005,6,0.1396214890164686,FRAUD,58.76472036450352
2005,11,0.739735120644933,VEHICLE THEFT,88.36887857482606
2005,12,0.17999881327124703,LOST PROPERTY,87.38212147915958
2005,4,0.08662514339181736,FRAUD,63.210648888255086
2005,9,0.11257322612202965,FRAUD,75.55246652071574
2005,3,0.04767535064862922,FRAUD,76.09507188585368
2005,1,0.9673601456298468,FRAUD,59.23232166683789
2005,8,0.09350292180568072,OTHER PROPERTY,50.906583559738124
2005,10,0.1453374576277567,FRAUD,95.77151754164309
2005,5,0.01128669576818835,FRAUD,90.25248686256049
2005,2,0.05383436168332828,FRAUD,95.493557841037
2005,7,0.16224519073330443,FRAUD,65.20919735905116
1996,6,0.02521996261906486,FRAUD,100.0
1996,8,0.0028435909986806234,FRAUD,100.0
1996,12,0.0028697236609825888,CAR PROWL,100.0
1900,01,2.6209071540033814e-09,STOLEN PROPERTY,100.0
2000,1,1.3995844227423218,THREATS,91.68882953162009
2000,8,0.0762566423019254,STOLEN PROPERTY,43.63632334155078
2000,7,0.0485119492320411,FRAUD,91.32018284901027
2000,10,0.03434878084037355,CAR PROWL,100.0
2000,3,0.09849613755371574,OTHER PROPERTY,96.69322574571387
2000,4,0.012115174599814014,FRAUD,100.0
2000,5,0.024248334070437208,FRAUD,66.72343531604984
2000,6,1.1415520912945778,FRAUD,99.55647893560523
2000,9,0.022920129073894673,FRAUD,50.350118772111564
2000,2,0.010803831078530501,FRAUD,58.42516255740396
2000,11,0.9741854887150814,FRAUD,98.7164607213208
2014,6,504.3891405722285,VEHICLE THEFT,17.920954979275876
2014,11,506.036811896455,FRAUD,22.910061513891417
2014,12,695.0890931486113,VEHICLE THEFT,74.62786068950797
2014,4,1177.9113320610404,CAR PROWL,53.37812358765671
2014,9,389.2699417298438,VEHICLE THEFT,16.601653780285858
2014,3,1546.1083611064248,VEHICLE THEFT,38.30003634499304
2014,1,489.56110175338733,VEHICLE THEFT,17.262037797787467
2014,8,450.9086227378251,VEHICLE THEFT,25.930099201455455
2014,10,655.7950385291607,VEHICLE THEFT,30.09412064789053
2014,5,433.1246332693759,VEHICLE THEFT,20.041068963094983
2014,2,392.59176812133484,CAR PROWL,24.176848193646507
2014,7,805.1440475201458,VEHICLE THEFT,44.92342602454762
1989,6,0.0063140566452293935,[INC - CASE DC USE ONLY],100.0
1983,2,0.002417985056835243,RECOVERED PROPERTY,100.0
2008,6,264.79089411610533,DISTURBANCE,41.35400135324969
2008,4,126.05104524859338,OTHER PROPERTY,19.820772191322437
2008,12,230.1045465144075,PROPERTY DAMAGE,19.824738244334696
2008,11,189.73689221937698,CAR PROWL,38.77712871544167
2008,9,179.1615801667392,OTHER PROPERTY,16.494036924054463
2008,3,410.37208538890235,THREATS,63.21729465748476
2008,1,158.83301460144588,PROPERTY DAMAGE,22.2196998479235
2008,8,187.12873231022448,PROPERTY DAMAGE,33.31732114208966
2008,10,134.86542975206498,OTHER PROPERTY,18.760763264401906
2008,5,407.2173692144731,BIKE THEFT,61.020314222161275
2008,2,231.50438577533993,OTHER PROPERTY,30.41568427371034
2008,7,179.05113090734446,FRAUD,26.126318853302504
1992,7,0.0012241569826284186,LOST PROPERTY,100.0
1993,1,0.001889513293382267,FRAUD,100.0
1993,10,0.010837750276595724,FRAUD,81.11773645117968
2010,6,214.68880080800264,BURGLARY,11.031594204725048
2010,11,225.69720514624737,OTHER PROPERTY,17.291119569372018
2010,12,165.28710809677088,CAR PROWL,16.817950356638548
2010,4,150.6207556059667,OTHER PROPERTY,16.156884657782996
2010,9,256.21736226085636,OTHER PROPERTY,15.723073993696422
2010,3,216.9714850996579,OTHER PROPERTY,20.56383853009223
2010,1,177.78935156701317,CAR PROWL,25.716346636571576
2010,8,200.911572825312,OTHER PROPERTY,31.442634330450513
2010,10,245.40864219274417,BURGLARY,26.221322881298857
2010,5,185.3635784296358,OTHER PROPERTY,21.001287714675193
2010,2,157.10464778105677,OTHER PROPERTY,12.915419513429653
2010,7,57.33685769385625,OTHER PROPERTY,14.009010623109686
2012,6,313.33635280061424,BURGLARY,13.156191849189078
2012,4,459.1875543727114,BURGLARY,27.679365651954846
2012,12,205.9104488383472,CAR PROWL,21.03733810679971
2012,11,179.40636432137677,ASSAULT,16.450133621324316
2012,9,201.2537655126044,OTHER PROPERTY,15.148893066496017
2012,3,412.8608136650209,ESCAPE,17.644931435928832
2012,1,294.7470689593435,BURGLARY,13.693156685248846
2012,8,1987.9888438673754,PROPERTY DAMAGE,63.224511967469674
2012,10,205.85739709202244,CAR PROWL,19.55867136807641
2012,5,2460.7613502444033,PROPERTY DAMAGE,85.83914408551007
2012,2,374.49099889278426,CAR PROWL,14.11002622994784
2012,7,443.77815750203956,WARRANT ARREST,20.928241643288946
1999,1,0.025746321858806702,FRAUD,100.0
1999,11,0.04492363125521322,FRAUD,100.0
1999,9,0.010368599695553982,FRAUD,100.0
1999,6,0.002009363353277601,[INC - CASE DC USE ONLY],100.0
