year,month,influence,largestInfluencer,largestInfluencerPercent
2009,6,89.88866831792998,PROPERTY DAMAGE,13.760377299754419
2009,4,102.84531824346426,FRAUD,31.40140951427213
2009,12,98.22378881339672,OTHER PROPERTY,41.49965273390572
2009,11,90.48625163279372,CAR PROWL,25.044925044839577
2009,9,798.577787438482,VEHICLE THEFT,81.37812148635307
2009,3,92.07354560086841,CAR PROWL,17.28412998221314
2009,1,184.2953730426965,VEHICLE THEFT,22.209683850256237
2009,8,812.6051433402675,VEHICLE THEFT,79.88146298127536
2009,10,345.3706040694521,PROPERTY DAMAGE,39.822829008365154
2009,5,75.3024766404073,CAR PROWL,12.621766248934007
2009,2,713.377732192798,BURGLARY,80.29576950047881
2009,7,116.38689387302043,CAR PROWL,18.381559539964105
1994,6,0.062073415958195405,OTHER PROPERTY,86.90616545760885
1994,1,0.010634917446698706,THREATS,83.71349812800652
1994,10,0.004612745543676595,FRAUD,100.0
1995,9,0.0008663588060553079,FRAUD,100.0
1995,2,0.0052947620711885,FRAUD,100.0
2015,6,185.370621471684,OTHER PROPERTY,30.6699196624034
2015,11,100.24783762622211,CAR PROWL,34.42966986275227
2015,12,3.8196088666371164,VEHICLE THEFT,44.87932917745696
2015,4,93.87557001697628,OTHER PROPERTY,15.610818546867359
2015,9,779.2050883962393,VEHICLE THEFT,88.44307758590793
2015,3,160.6210815046211,CAR PROWL,33.36001689696741
2015,1,521.4463336808942,TRESPASS,62.56678487533006
2015,8,125.58779929464463,VEHICLE THEFT,24.495117396762623
2015,10,140.77347897340425,VEHICLE THEFT,25.49624665590848
2015,5,211.6661976409016,PROPERTY DAMAGE,63.09058715724875
2015,2,820.9228156815407,OTHER PROPERTY,84.97706549614084
2015,7,269.7856483901944,OTHER PROPERTY,42.66097417493918
2013,6,242.40109868262726,BURGLARY,23.991062980783667
2013,11,325.90822066879963,BURGLARY,42.478661586253786
2013,12,191.23944301995124,ASSAULT,24.372394102038317
2013,4,358.40862906808894,PROPERTY DAMAGE,63.52642513687215
2013,9,455.5249113676745,LIQUOR VIOLATION,24.080426859399562
2013,3,211.72804146020653,VEHICLE THEFT,20.881282271511587
2013,1,396.74717532349996,BURGLARY,24.560828838339877
2013,8,226.24710539304175,OTHER PROPERTY,20.98112072093536
2013,10,334.86233861609907,OTHER PROPERTY,41.06482400547205
2013,5,380.654077108078,VEHICLE THEFT,55.01854397285999
2013,2,254.0714435064771,FRAUD,32.279401082398174
2013,7,205.20883824148387,BURGLARY,16.743401955123645
1990,5,0.0019225644031269406,THREATS,100.0
1990,1,0.0011019760716225219,LOST PROPERTY,100.0
1990,11,0.006972712048062057,[INC - CASE DC USE ONLY],100.0
2011,6,297.9786125139069,VEHICLE THEFT,48.750048068213836
2011,4,141.38044236889007,VEHICLE THEFT,36.965822081505834
2011,12,386.41526850099376,PROPERTY DAMAGE,58.564201896066734
2011,11,272.3869156905709,VEHICLE THEFT,46.04577181194833
2011,9,364.0541323547021,THREATS,18.88296500697737
2011,3,327.45716213748835,OTHER PROPERTY,44.002333744848016
2011,1,92.12836687798107,OTHER PROPERTY,20.737841364548856
2011,8,361.9394661642528,BURGLARY,34.90666964741801
2011,10,154.4866869956969,OTHER PROPERTY,22.04376596849732
2011,5,340.7603244846299,VEHICLE THEFT,43.93050263224961
2011,2,121.06345732495772,VEHICLE THEFT,28.62773711540157
2011,7,434.0910219692671,PROPERTY DAMAGE,53.64846562202145
2001,6,0.16862383809513318,FRAUD,84.87368477705863
2001,11,0.023420566944256455,OTHER PROPERTY,49.166702001208996
2001,12,0.009207716531803321,FRAUD,100.0
2001,4,0.2262703903364283,FRAUD,64.8986206158661
2001,9,0.8309099187793648,FRAUD,95.55264668428194
2001,3,0.07480843697896587,CAR PROWL,52.948973577609735
2001,1,0.1026676300190058,FRAUD,71.54917734552835
2001,8,0.05875615153437607,LOST PROPERTY,35.34612709955366
2001,10,0.12354742989256112,FRAUD,81.90344627724248
2001,5,0.04358147498273748,FRAUD,94.07595040895585
2001,2,0.0958763544602464,FRAUD,63.99038018751779
2001,7,0.0177693880627409,FRAUD,55.21670126371344
2003,6,0.0014879231615504069,FRAUD,100.0
2003,11,0.061115739582371355,FRAUD,80.13662792732768
2003,12,0.02033147154996988,VEHICLE THEFT,57.99209585630827
2003,4,0.0057995189782928894,CAR PROWL,100.0
2003,9,0.04603161075961201,FRAUD,85.45837973964953
2003,3,0.053511835801280355,FRAUD,96.16272834439654
2003,1,0.062136598170470084,FRAUD,60.3150642717573
2003,8,0.030849841481306782,ASSAULT,51.28074763166543
2003,10,0.026643272065361937,FRAUD,100.0
2003,5,0.0024961511523061827,FRAUD,100.0
2003,2,0.008912282314371437,FRAUD,68.02293175491668
2003,7,0.01923869612144386,LOST PROPERTY,89.38795436163294
1965,1,0.002437364117730488,LOST PROPERTY,100.0
1998,1,0.037600285516255466,LOST PROPERTY,42.9182580766118
1998,11,0.021110837998467746,OTHER PROPERTY,77.93958543663777
1998,5,0.0073252334232329986,OTHER PROPERTY,100.0
1998,3,0.007371542990580385,CAR PROWL,46.654801917950195
1998,8,0.0019231772966010578,[INC - CASE DC USE ONLY],100.00000000000001
2002,1,0.13936761151761387,FRAUD,84.86772764332541
2002,8,0.04326888746749444,THREATS,91.8821157034887
2002,10,0.010252939561773457,FRAUD,100.00000000000001
2002,12,0.001348590001487256,FRAUD,99.99999999999999
2002,4,0.001820293017700905,FRAUD,100.0
2002,11,0.001648214879213738,CAR PROWL,100.0
2002,6,0.1082349066209283,FRAUD,75.58361052541913
2002,3,0.007067918186965213,DUI,85.05324020577184
2002,2,0.010888600900360576,EMBEZZLE,55.6738479750198
2007,6,1.7747278543677512,EMBEZZLE,77.296314131825
2007,4,0.3067516541177953,ASSAULT,27.50687929498542
2007,12,14.527063501932458,BURGLARY,81.78894744779039
2007,11,2.112768742421189,FRAUD,64.9520357611582
2007,9,1.0011027178883063,FRAUD,60.979986535476606
2007,3,1.1140723626263105,FRAUD,84.59462981614085
2007,1,2.0978447261744235,WARRANT ARREST,51.26717705005472
2007,8,0.8310385736048227,FRAUD,83.20907480112766
2007,10,1.8809233495867068,EMBEZZLE,37.129740618761645
2007,5,2.63072415133267,EMBEZZLE,45.80268124207111
2007,2,0.5540322640315033,FRAUD,89.30841477370309
2007,7,0.9840984450498349,PROPERTY DAMAGE,64.2611951304611
2004,6,0.008713280876527974,LOST PROPERTY,67.00134450935695
2004,4,0.06506487093662111,FRAUD,85.52548368101722
2004,12,0.03150164830656568,VEHICLE THEFT,100.0
2004,11,0.02062892263580688,[INC - CASE DC USE ONLY],38.19402111595761
2004,9,0.1157501542741266,PROPERTY DAMAGE,50.448216023744685
2004,3,0.01437863058172565,BURGLARY-SECURE PARKING-RES,34.74308382476522
2004,1,0.171195842810445,FRAUD,80.17407052011879
2004,8,0.038138503868588164,FRAUD,74.78447587760176
2004,10,0.10434160196460363,OTHER PROPERTY,56.01794627830233
2004,5,0.101063376002783,FRAUD,92.46849641404059
2004,2,0.05581880472749288,FRAUD,55.90021399113261
2004,7,0.011260123331650669,FRAUD,100.0
1997,1,0.004759332443422414,FRAUD,69.55507529334943
1997,11,6.478739213013194,FRAUD,100.0
1997,10,0.003441344502830225,FRAUD,100.0
1997,5,0.01096006567672905,FRAUD,100.0
1997,9,0.061335874041972736,FRAUD,100.0
1997,2,0.004199374653870989,FRAUD,100.0
2006,6,0.35709856090299286,FRAUD,62.35448800480458
2006,4,0.11665880349962962,FRAUD,74.37061989230314
2006,12,0.2639689915669623,FRAUD,80.76690068201593
2006,11,0.3022064757407812,EMBEZZLE,71.01363737425258
2006,9,0.14216324869759114,FRAUD,75.80216066556902
2006,3,1.1180180566914462,OTHER PROPERTY,54.185836886467925
2006,1,0.5120668474443748,FRAUD,76.4522729879806
2006,8,0.3334583815303689,[INC - CASE DC USE ONLY],51.58084251721132
2006,10,0.41780126271123946,FRAUD,45.37555092323253
2006,5,2.2453481041438472,FRAUD,95.07250401374995
2006,2,0.123198234549817,FRAUD,66.24099232419574
2006,7,0.1338452312171549,[INC - CASE DC USE ONLY],40.417170302057926
1991,1,0.004213014351053456,FRAUD,100.0
1991,11,0.007578301600825677,FRAUD,100.0
1991,9,0.036015261396448325,FRAUD,100.0
2005,6,0.05457560013127175,FRAUD,73.35417834653008
2005,11,0.5326029249515672,THREATS,94.96674726013687
2005,12,0.08122329116097493,ROBBERY,50.30090612742493
2005,4,0.03257674267981129,FRAUD,62.52213208841585
2005,9,0.13761193369457078,FRAUD,75.44163963055072
2005,3,0.053160814465490154,FRAUD,58.88535793654799
2005,1,6.0318025814703224,FRAUD,98.1518869919456
2005,8,0.18745109176395666,FRAUD,90.28053960443646
2005,10,0.014524514895864045,FRAUD,75.34419115956672
2005,5,0.4392777030350239,ASSAULT,98.078494048586
2005,2,0.03512831413194273,FRAUD,67.66790705106186
2005,7,0.026141948879957827,OTHER PROPERTY,75.23897835800425
1996,6,0.0018804072404661695,FRAUD,100.0
1996,8,0.034198114018106254,FRAUD,100.0
1996,12,0.008910017781595742,CAR PROWL,100.0
1900,01,2.6179320381640444e-09,STOLEN PROPERTY,100.0
2000,1,0.14048246684260288,FRAUD,67.54365706924007
2000,8,0.02366243577828513,OTHER PROPERTY,59.117550860779446
2000,7,0.030438224377149537,ASSAULT,47.818386430070944
2000,10,0.023036831831090267,CAR PROWL,100.0
2000,3,0.014055850287942234,CAR PROWL,51.51813198480993
2000,4,0.006818744771399448,FRAUD,100.0
2000,5,0.023523103330262717,FRAUD,50.51296967940978
2000,6,0.006343964322324461,CAR PROWL,64.92170696175391
2000,9,0.026112866314485245,FRAUD,90.47517483803824
2000,2,0.017184502224956297,FRAUD,71.963643673104
2000,11,0.11880339492143742,PROPERTY DAMAGE,92.52261752643962
2014,6,416.81882246728946,WARRANT ARREST,21.321623105563287
2014,11,168.4739824782705,OTHER PROPERTY,17.811131949407073
2014,12,277.4595366487871,ASSAULT,17.677804695311405
2014,4,253.06167870695586,CAR PROWL,22.182562053457925
2014,9,335.55535154008044,VEHICLE THEFT,25.33260274140294
2014,3,346.1190225245299,BURGLARY,30.922182005690743
2014,1,381.17958835440226,VEHICLE THEFT,39.59805851753399
2014,8,284.4333343549477,PROPERTY DAMAGE,23.489095205807136
2014,10,350.9432160400545,BURGLARY,52.11987414945463
2014,5,234.73991730873897,CAR PROWL,21.696324151408202
2014,2,163.35129883389985,OTHER PROPERTY,23.796252335883192
2014,7,340.89143185216733,OTHER PROPERTY,25.39174604363647
1989,6,0.0035883304135831814,[INC - CASE DC USE ONLY],100.0
1983,2,0.01253478714415878,RECOVERED PROPERTY,100.0
2008,6,677.7747929006076,PROPERTY DAMAGE,83.61613800452143
2008,4,74.78161379909314,OTHER PROPERTY,22.93168507683318
2008,12,80.56380856257378,PROPERTY DAMAGE,24.787496826538913
2008,11,402.7158408414547,VEHICLE THEFT,63.29290510454218
2008,9,153.73832599181594,CAR PROWL,21.15314044347655
2008,3,95.41091178986855,OTHER PROPERTY,18.52238400894658
2008,1,283.4333568919505,OTHER PROPERTY,41.71739374450339
2008,8,241.7331160977983,PROPERTY DAMAGE,47.53171602559103
2008,10,164.03660194699683,CAR PROWL,33.92593067598412
2008,5,288.82018850944667,PROPERTY DAMAGE,51.06222760658403
2008,2,716.2771312401419,VEHICLE THEFT,88.21774750278234
2008,7,122.85470469930762,EMBEZZLE,23.19596700244341
1992,7,0.051845762496925435,LOST PROPERTY,100.0
1993,1,0.00937206224035266,FRAUD,100.0
1993,10,0.023404045669325448,HOMICIDE,60.85517945502871
2010,6,224.13465298988257,ASSAULT,27.46362266639047
2010,11,71.55586661804024,BURGLARY,17.8398190334413
2010,12,171.10015143341744,VEHICLE THEFT,25.371232457491367
2010,4,103.41192777088919,THREATS,29.330343412369405
2010,9,123.19708441639865,STOLEN PROPERTY,25.41115121113659
2010,3,169.98761581485343,VEHICLE THEFT,20.61545049463302
2010,1,90.8088665397429,BURGLARY,33.298884556799734
2010,8,90.77638031650996,STOLEN PROPERTY,14.146020392658748
2010,10,147.48334819419688,VEHICLE THEFT,31.93316317128769
2010,5,93.74840587294241,OTHER PROPERTY,27.82517492012108
2010,2,126.09827366107231,CAR PROWL,31.281977571717302
2010,7,38.362729527966536,BURGLARY,22.511257820824163
2012,6,322.4722239007192,BURGLARY,38.93396362752019
2012,4,284.90659415309386,OTHER PROPERTY,24.87801389466847
2012,12,179.47697939641424,ASSAULT,52.53139710055675
2012,11,145.5190089698874,VEHICLE THEFT,62.09565226846572
2012,9,121.63305258448807,BURGLARY,17.62478630670505
2012,3,291.654869123537,THREATS,22.671873677071044
2012,1,235.6893072443171,BURGLARY,29.337793590611298
2012,8,316.8026732184417,OTHER PROPERTY,28.010650269875565
2012,10,801.6821331649343,VEHICLE THEFT,81.74943022107355
2012,5,309.11561839448365,VEHICLE THEFT,25.241902935535332
2012,2,502.718054503614,PROPERTY DAMAGE,48.30763193197822
2012,7,167.4754327189564,PROPERTY DAMAGE,17.338729141081448
1999,1,0.01478422857402759,FRAUD,100.0
1999,11,0.0012379834230572945,FRAUD,100.0
1999,9,0.008437577799523407,FRAUD,100.0
1999,6,0.013102062403644121,[INC - CASE DC USE ONLY],100.0
