year,month,influence,largestInfluencer,largestInfluencerPercent
2009,6,1061.1039952846875,ASSAULT,67.52865537047468
2009,4,256.8093577978989,CAR PROWL,16.184377904133992
2009,12,275.2953192693064,BURGLARY,39.5045501669689
2009,11,1202.1902189801247,VEHICLE THEFT,63.748910084967484
2009,9,1355.4977684401833,CAR PROWL,51.23155247183303
2009,3,526.7383343675299,BURGLARY,29.277968176289217
2009,1,543.9214828785232,CAR PROWL,33.52299441676981
2009,8,503.29080534280314,FRAUD,38.29028328541216
2009,10,290.47317607414226,CAR PROWL,31.1992234230597
2009,5,356.2229407401975,BURGLARY,47.608263882864705
2009,2,282.78511448878953,BURGLARY,23.943989592103314
2009,7,494.0065099744015,BURGLARY,23.918413116222556
1994,6,0.03745363135751941,PROPERTY DAMAGE,94.83865565768949
1994,1,0.1301348378691453,FRAUD,75.88001884215761
1994,10,0.013592404546440765,FRAUD,100.0
1995,9,0.00745587812005268,FRAUD,100.0
1995,2,0.011610836927314894,FRAUD,100.0
2015,6,390.44799344506885,SHOPLIFTING,24.56936799588627
2015,11,434.6119572078351,CAR PROWL,34.121777988668114
2015,12,11.312142776974937,VEHICLE THEFT,45.15843894023449
2015,4,1261.10860310987,VEHICLE THEFT,57.76698375755592
2015,9,405.8611586323499,OTHER PROPERTY,28.07041329841144
2015,3,519.7849318550547,BURGLARY,25.262002372420966
2015,1,383.4281046252901,OTHER PROPERTY,35.213660161354234
2015,8,379.11788640960606,BURGLARY,26.48009567439562
2015,10,315.3960291929962,CAR PROWL,15.791454668929752
2015,5,304.49096215140486,CAR PROWL,15.296711252528933
2015,2,515.9591052995922,CAR PROWL,21.314742833008548
2015,7,480.1956828274404,CAR PROWL,29.11921755728463
2013,6,700.3361250373191,OTHER PROPERTY,35.73763544721969
2013,11,1021.8449042054314,ASSAULT,19.556013788809878
2013,12,703.9423388534652,CAR PROWL,19.116720888433246
2013,4,782.471943671576,PROPERTY DAMAGE,30.162846876515044
2013,9,817.5616019980164,DISTURBANCE,24.284780435138753
2013,3,880.5043501109783,VEHICLE THEFT,24.106608672365528
2013,1,1342.2153643538975,CAR PROWL,32.41228498930374
2013,8,7002.7132817901365,CAR PROWL,42.08108696115776
2013,10,1006.5251217085375,CAR PROWL,24.10288392207578
2013,5,779.989663566542,CAR PROWL,28.6305415950228
2013,2,723.7409957838211,VEHICLE THEFT,19.096307515504225
2013,7,760.5792911971799,VEHICLE THEFT,16.434794849564437
1990,5,0.02516882291777502,THREATS,100.0
1990,1,0.01906629088636079,LOST PROPERTY,100.0
1990,11,0.008351056479694982,[INC - CASE DC USE ONLY],100.0
2011,6,748.1312496010639,BURGLARY,32.52490579115453
2011,4,269.7884277584701,CAR PROWL,17.765466193113713
2011,12,555.4289277617364,CAR PROWL,23.560000004888597
2011,11,1260.7918950054611,CAR PROWL,50.92890899027126
2011,9,2000.9265916580482,OTHER PROPERTY,56.91413184871972
2011,3,881.8501199611013,OTHER PROPERTY,40.97409716303265
2011,1,232.85507967156386,BURGLARY,26.445296533896123
2011,8,517.6747380214458,OTHER PROPERTY,26.48466250201392
2011,10,586.9028710841923,CAR PROWL,18.425690478471488
2011,5,1849.92780351381,TRESPASS,58.73240316740446
2011,2,321.9248721426488,CAR PROWL,25.071068398657925
2011,7,1740.6879847401822,PROPERTY DAMAGE,66.21398390258716
2001,6,0.8483039606787838,ASSAULT,55.17818321913639
2001,11,0.16919882008753767,BURGLARY,78.92855725004888
2001,12,0.04738828888943892,FRAUD,100.0
2001,4,0.12334113780168593,THREATS,40.674754691758785
2001,9,1.056737667897096,OTHER PROPERTY,89.5511002236202
2001,3,0.16844999177403805,BURGLARY,58.03565435331736
2001,1,0.31528323083112475,FRAUD,47.02376719738104
2001,8,0.05541279772072605,FRAUD,50.86382954443605
2001,10,0.11891061483490234,FRAUD,42.43124067681627
2001,5,0.06404941864959708,FRAUD,61.105433843654
2001,2,0.03846674791965176,LOST PROPERTY,33.86146569153033
2001,7,0.09423192775957262,BURGLARY-SECURE PARKING-RES,63.9698075023185
2003,6,0.10123248175571761,FRAUD,100.0
2003,11,0.22399240821040628,FRAUD,91.17237580823162
2003,12,0.08378847233085335,FRAUD,98.61126132451807
2003,4,0.010143880934832235,CAR PROWL,100.0
2003,9,0.0442996553831928,OTHER PROPERTY,58.75180976164645
2003,3,0.24067952978340085,FRAUD,88.07388352128167
2003,1,0.5519839571098656,THREATS,53.77663005720625
2003,8,0.04711466961402361,FRAUD,87.01146835539767
2003,10,0.0023998198460133814,FRAUD,100.0
2003,5,0.01185944969092917,FRAUD,100.0
2003,2,0.0410331406419029,OTHER PROPERTY,75.98272959803734
2003,7,0.18795024434226648,FRAUD,92.74172315206233
1965,1,0.13483992222334013,LOST PROPERTY,100.0
1998,1,0.2554740748313711,FRAUD,81.70196815069617
1998,11,0.01631959211593525,FRAUD,85.27819854278125
1998,5,0.0027414635071145903,OTHER PROPERTY,100.0
1998,3,0.30510156446253694,WARRANT ARREST,82.51551983860583
1998,8,0.4646155233791946,[INC - CASE DC USE ONLY],100.0
2002,1,0.2523276768875009,FRAUD,63.620530589908626
2002,8,0.09148640201398811,FRAUD,90.61363359005846
2002,10,0.02495500526746712,FRAUD,100.0
2002,12,0.02002578019200991,FRAUD,100.0
2002,4,0.16793211654048484,FRAUD,100.0
2002,11,0.06191063447597224,CAR PROWL,100.0
2002,6,0.027657947067402315,PROPERTY DAMAGE,51.96315569229053
2002,3,0.023977551902212527,[INC - CASE DC USE ONLY],66.88654670806577
2002,2,0.07352111488970794,FRAUD,72.95881682692574
2007,6,6.910018791688771,OTHER PROPERTY,81.67349703320428
2007,4,0.6682389830118943,FRAUD,31.403774841702532
2007,12,72.179300952303,BURGLARY,65.12724822217369
2007,11,6.397761752632708,NARCOTICS,39.380998018624226
2007,9,2.815699296559746,FRAUD,35.410148835869
2007,3,1.273883909851553,ASSAULT,56.96625224661536
2007,1,6.09460482195333,FRAUD,86.20213143886316
2007,8,2.2812338758339816,OTHER PROPERTY,47.070394123494935
2007,10,2.0972907312356255,FRAUD,48.115470368563265
2007,5,0.9748903424734947,FRAUD,50.4820957954066
2007,2,2.9692958676336505,DISPUTE,46.09422508652568
2007,7,0.6903315395076176,FRAUD,31.155614953046136
2004,6,0.05791229171655927,FRAUD,92.04591894752208
2004,4,0.034069039624858896,LOST PROPERTY,46.06601393745842
2004,12,0.002398121526795895,VEHICLE THEFT,100.0
2004,11,0.23993062357309877,CAR PROWL,63.388555248082085
2004,9,0.32604366658518524,FORGERY,59.98855113419386
2004,3,1.0487946507058665,PROPERTY DAMAGE,49.971618367005796
2004,1,1.9827618523907464,FRAUD,90.27456010826266
2004,8,0.4969769931895591,OTHER PROPERTY,77.6162405981759
2004,10,0.17546444475854656,[INC - CASE DC USE ONLY],56.8208335063413
2004,5,0.2569974951797613,FRAUD,81.89219170923323
2004,2,0.14640758598107792,FORGERY,81.41555003019242
2004,7,0.09595377862831687,FRAUD,100.0
1997,1,0.06780970009314381,FORGERY,65.60191955969816
1997,11,0.0036714561547332644,FRAUD,100.00000000000001
1997,10,0.062166543447826336,FRAUD,100.0
1997,5,0.022698689470615194,FRAUD,99.99999999999999
1997,9,0.002078819532159233,FRAUD,100.0
1997,2,0.017953933664445774,FRAUD,100.0
2006,6,3.811407378894185,FRAUD,92.99040322901365
2006,4,0.17082411010466497,FRAUD,41.4972291204749
2006,12,0.3534459995871922,FRAUD,52.232554264940504
2006,11,0.10581907770966403,FRAUD,49.44146104438711
2006,9,0.47202497773876095,FRAUD,67.71758946405699
2006,3,0.1722304166302545,FRAUD,61.64877516130466
2006,1,0.5828257245806053,FRAUD,72.95320250679431
2006,8,0.3027147289975241,FRAUD,86.3808154304541
2006,10,0.274147741960687,THREATS,50.312880184115016
2006,5,0.4072600448219315,[INC - CASE DC USE ONLY],63.83768404133731
2006,2,0.3339026121667968,FRAUD,49.15797138786907
2006,7,0.18304475111366666,FRAUD,46.91584661062787
1991,1,0.032459977852385066,FRAUD,100.0
1991,11,0.04086368503399581,FRAUD,100.0
1991,9,0.0018239762625754392,FRAUD,100.0
2005,6,2.1088625671794956,OTHER PROPERTY,96.98562799807436
2005,11,0.10895982705373851,[INC - CASE DC USE ONLY],37.16655854715357
2005,12,0.08516574162036245,FRAUD,48.085857595432216
2005,4,0.9806561614161559,FRAUD,87.51050289778688
2005,9,0.1429451701110741,FRAUD,68.45999999265057
2005,3,0.20515609977712843,FRAUD,84.19686460778384
2005,1,1.157503562197061,FRAUD,78.43086884963337
2005,8,0.13020657759859278,FRAUD,45.27346415095158
2005,10,0.3844543056260858,FRAUD,94.22474852886495
2005,5,0.03411619023397579,FRAUD,94.81200069468449
2005,2,0.0944676022421677,FRAUD,94.53198432061858
2005,7,0.0999316275032874,BURGLARY,63.61027775438227
1996,6,4.433058967357988,FRAUD,100.0
1996,8,0.0048824428844447924,FRAUD,100.0
1996,12,0.006610308661840024,CAR PROWL,100.0
1900,01,2.6204097510940307e-09,STOLEN PROPERTY,100.0
2000,1,0.30842333653566223,CAR PROWL,44.31417920050324
2000,8,0.6989605445372048,ROBBERY,68.51921690604473
2000,7,0.1227284547206209,FRAUD,93.26515647907863
2000,10,0.008810681219408291,CAR PROWL,100.0
2000,3,0.24550054059405024,OTHER PROPERTY,96.72257129432117
2000,4,0.038664352972518704,FRAUD,100.0
2000,5,0.07958722360309144,FRAUD,70.64021867643397
2000,6,0.05306757522367207,FRAUD,71.04155922437954
2000,9,0.10959257658722982,CAR PROWL,70.92465084551488
2000,2,0.028321231116789317,FRAUD,53.22865783719119
2000,11,0.07343304264309991,THEFT OF SERVICES,54.05705577456823
2014,6,2056.814606993012,CAR PROWL,66.90342465408798
2014,11,251.0826623617239,CAR PROWL,14.73020208185521
2014,12,430.7564131934277,BURGLARY,33.86572485981187
2014,4,924.3667949791402,VEHICLE THEFT,22.92810506848396
2014,9,655.6135694643001,BURGLARY,25.576346021270737
2014,3,728.6113192909697,FRAUD,18.15087583367873
2014,1,1605.5374828675222,CAR PROWL,75.37285781058254
2014,8,1580.0959226975979,BURGLARY,72.27241366629373
2014,10,692.7257070102014,TRAFFIC,23.89642070224188
2014,5,871.7296598156476,BURGLARY,26.18397983357118
2014,2,603.2415592085149,VEHICLE THEFT,32.645241018837936
2014,7,1043.472289541926,CAR PROWL,26.019999966103928
1989,6,0.025983176923148048,[INC - CASE DC USE ONLY],100.0
1983,2,0.005126169279466061,RECOVERED PROPERTY,100.00000000000001
2008,6,253.05032019077174,VEHICLE THEFT,20.435468726979497
2008,4,364.0102677381403,PROPERTY DAMAGE,36.46545933957224
2008,12,268.2833690554626,CAR PROWL,29.784723580533168
2008,11,303.51925628535764,BURGLARY,30.22647361986717
2008,9,549.0402421516774,BURGLARY,22.67868377745172
2008,3,298.370071797465,CAR PROWL,28.008617785030292
2008,1,757.9566422415678,PROPERTY DAMAGE,74.88892015169883
2008,8,310.9722941960841,FRAUD,33.219971424845866
2008,10,383.29298801378934,FRAUD,42.108194635443574
2008,5,378.2166591163854,ROBBERY,22.941856013460956
2008,2,879.50319679883,BURGLARY,63.52544364379821
2008,7,929.6256236067534,TRESPASS,58.54341155570673
1992,7,0.0019866259018023495,LOST PROPERTY,100.0
1993,1,0.0033236628669888915,FRAUD,99.99999999999999
1993,10,0.030136385762827782,FRAUD,86.6089120866925
2010,6,322.60914758381915,CAR PROWL,17.40314422812363
2010,11,406.10104051011604,DISPUTE,31.998370376166925
2010,12,296.2621741084688,FRAUD,17.576505625860644
2010,4,846.3694198706808,PROPERTY DAMAGE,65.60053805582699
2010,9,298.2050601698819,VEHICLE THEFT,25.187817288594974
2010,3,1035.049971300821,CAR PROWL,72.56693880388838
2010,1,284.5711991140575,OTHER PROPERTY,23.460885295546777
2010,8,336.20758050786475,OTHER PROPERTY,32.847340774624115
2010,10,1146.8731829416663,ROBBERY,61.861841724873365
2010,5,956.8109427788038,BURGLARY,59.014363188654656
2010,2,1025.8910641965442,CAR PROWL,58.413509641870604
2010,7,249.40080475257162,OTHER PROPERTY,48.54966266232941
2012,6,721.3398471511467,PROPERTY DAMAGE,22.692216400458047
2012,4,533.4087577179007,CAR PROWL,29.756025043360616
2012,12,270.75005710833693,VEHICLE THEFT,14.569987750333551
2012,11,217.95810661742337,VEHICLE THEFT,23.378565296106114
2012,9,437.52531958769856,BURGLARY,18.84131886045286
2012,3,1769.4196014641054,OTHER PROPERTY,65.26754359668395
2012,1,649.4395503441965,FRAUD,35.36922521998753
2012,8,512.344880032631,OTHER PROPERTY,18.79929586502446
2012,10,1208.4951710705377,CAR PROWL,65.32648020990867
2012,5,760.9573707351867,CAR PROWL,26.086407880572313
2012,2,393.3311411103543,CAR PROWL,28.986990488746894
2012,7,951.4250982147205,ASSAULT,19.37073796637496
1999,1,0.08231279890180133,FRAUD,100.0
1999,11,0.023591177987477823,FRAUD,100.00000000000001
1999,9,0.03435291762379285,FRAUD,100.0
1999,6,0.003918726511928004,[INC - CASE DC USE ONLY],100.0
